Timestamp	TOTUSJH	TOTBSQ	TOTPOT	TOTUSJZ	ABSNJZH	SAVNCPP	USFLUX	TOTFZ	MEANPOT	EPSZ	MEANSHR	SHRGT45	MEANGAM	MEANGBT	MEANGBZ	MEANGBH	MEANJZH	TOTFY	MEANJZD	MEANALP	TOTFX	EPSY	EPSX	R_VALUE	CRVAL1	CRLN_OBS	LAT_MIN	LON_MIN	LAT_MAX	LON_MAX	QUALITY	NOAA_AR	IS_TMFI	BFLARE	BFLARE_label	CFLARE	CFLARE_label	MFLARE	MFLARE_label	XFLARE	XFLARE_label	BFLARE_loc	BFLARE_label_loc	CFLARE_loc	CFLARE_label_loc	MFLARE_loc	MFLARE_label_loc	XFLARE_loc	XFLARE_label_loc	XR_MAX	XR_QUAL
2014-01-08 11:12:00	80.62330341156624	818070240.7893	4.353246720712087e+21	1898575060289.195	2.4734446687240097	459386878304.567	1.8142718798521722e+21	-8.205855977879884e+23	1113.430197157122	-0.7553023145376122	19.64481095703	0.033967391304347824	22.375076340127453	85.98918706074804	85.49489931749932	31.3209698146609	-0.0008401646293220142	-7.216730279910381e+22	-0.306689210188458	-0.0034450035619695376	2.6128324864633542e+23	0.06642589266133192	-0.240496351610928	0.0	28.383595	91.183243	10.083826	-59.09923199999999	12.209888	-54.2542	0.0		True	0.0	None	0.0	None	0.0	None	0.0	None	0.0	None	0.0	None	0.0	None	0.0	None	1.305e-06	12
2014-01-08 11:24:00	85.07858487485538	822372184.7991	4.438606716236992e+21	2002415012716.691	4.268974509649345	722342616991.3273	1.8211932821440787e+21	-8.294757445596102e+23	1134.4921328489122	-0.7594913700091664	19.891434679624165	0.20366598778004072	22.23897215674458	87.50551674438276	87.20152882959867	31.66230616912276	-0.0014490748505259147	-7.475279880382149e+22	-0.4819209037900489	-0.005900624844496903	2.6052915367112044e+23	0.0684457694488424	-0.23854783596362056	0.0	28.386326	91.073776	10.078542	-59.004223	12.207704	-54.14534	0.0		True	0.0	None	0.0	None	0.0	None	0.0	None	0.0	None	0.0	None	0.0	None	0.0	None	1.3306e-06	12
2014-01-08 11:36:00	86.58903779785628	815452274.148	4.4707476054732953e+21	2049732849470.816	4.876860614321193	653486592332.7383	1.8136899725946868e+21	-8.19502040311553e+23	1148.5549227791828	-0.7567264676340881	19.94051115927574	0.341180484476288	22.36077304291012	85.30138187702562	84.94628087315623	31.131655500056194	-0.0016638896671174318	-7.653156116845771e+22	-0.4382216126928919	-0.0068087540403809115	2.6110725527952158e+23	0.07066908329296162	-0.2411058926542601	0.0	28.389029	90.964279	10.071125	-58.913376	12.209576	-54.030895	0.0		True	0.0	None	0.0	None	0.0	None	0.0	None	0.0	None	0.0	None	0.0	None	0.0	None	1.2174e-06	12
2014-01-08 11:48:00	91.91590244379198	826348643.7907	4.499255682745714e+21	2151262553509.9707	4.52324274138296	661778353697.636	1.8292906592392847e+21	-8.327538514289328e+23	1154.6971433094095	-0.7588236506620585	19.76421587149213	0.10224948875255624	22.104478417539454	86.55071201825831	86.04494389432682	31.67882535511497	-0.0015416641927003955	-7.692578205192957e+22	-0.4433365405150531	-0.006224353864918272	2.5982386588959965e+23	0.07009646688095877	-0.2367572291682169	0.0	28.39168	90.854729	10.064276	-58.863682	12.221327	-53.91899100000001	0.0		True	0.0	None	0.0	None	0.0	None	0.0	None	0.0	None	0.0	None	0.0	None	0.0	None	1.1808e-06	12
2014-01-08 12:00:00	90.42516486973926	841607307.8685	4.519812901516316e+21	2069497021022.056	4.655462665321203	739110639035.9219	1.8297495761101626e+21	-8.460957274191395e+23	1178.8570908675445	-0.7570028082427797	19.685776393452183	0.20782819535850364	22.118090963514184	86.82040815158231	86.47958104682745	31.686667280347013	-0.0016125606738209915	-7.937744977823236e+22	-0.5032131802363198	-0.006296669379039155	2.6204179918884447e+23	0.07101909446648841	-0.2344490953382145	0.0	28.394291	90.74514	10.056889	-58.852036	12.213861	-53.813721	0.0		True	0.0	None	0.0	None	0.0	None	0.0	None	0.0	None	0.0	None	0.0	None	0.0	None	6.1973e-06	12
2014-01-08 12:12:00	90.05336954995701	866325643.6862001	4.663771459913435e+21	2097317617683.5632	2.9465078191886933	535290754697.3468	1.8861763162919896e+21	-8.650743188292256e+23	1165.5359720906015	-0.7518995112571617	19.86496910929576	0.1991370726850316	22.49711964103961	86.16293100413428	86.12522129668693	30.990172712081108	-0.000978256248070615	-8.442404602583435e+22	-0.3492114960931808	-0.0038874659857257533	2.737141440998244e+23	0.0733791277390911	-0.2379050293058791	0.0	28.396854	90.635506	10.051278	-58.840881	12.208191	-53.698269	0.0		True	0.0	None	0.0	None	0.0	None	0.0	None	0.0	None	0.0	None	0.0	None	0.0	None	6.1061e-06	12
2014-01-08 12:24:00	88.76408025142679	870906102.7758	4.824858588143196e+21	2070162890967.0007	2.1287145092120685	406518809179.4259	1.894912565468379e+21	-8.648990633274862e+23	1194.298572415801	-0.7477933981891677	20.211025867984667	0.23011176857330706	22.69923584769614	85.59491193211522	85.37100062881981	31.336681109216823	-0.0006997746578606405	-9.152621275645201e+22	-0.2626806301763817	-0.0027969582745251925	2.7802059011645665e+23	0.07913374006582405	-0.24037713840259145	0.0	28.399382	90.525833	10.038838	-58.791553	12.204907	-53.578423	0.0		True	0.0	None	0.0	None	0.0	None	0.0	None	0.0	None	0.0	None	0.0	None	0.0	None	3.4534e-06	12
2014-01-08 12:36:00	89.86534297520708	876765307.9153	4.879194055549459e+21	2095084172542.944	1.2116868034406034	406304968213.4191	1.904250243527128e+21	-8.709713922988251e+23	1203.3967870709455	-0.7480111886318573	20.306940094908818	0.3930560104814936	22.764853746151037	87.53480699750791	87.72008376709852	31.324221916043054	-0.0003968839840945311	-9.024619626606882e+22	-0.26160187543311714	-0.0015812218548824893	2.7674853430329048e+23	0.07750560481707007	-0.2376783002596076	0.0	28.401873	90.416122	9.99876	-58.783024	12.198746	-53.468582	0.0		True	0.0	None	0.0	None	0.0	None	0.0	None	0.0	None	0.0	None	0.0	None	0.0	None	1.8028e-06	12
2014-01-08 12:48:00	96.7537103924468	901490756.8998	5.019969984962091e+21	2218065768883.406	0.2099768033834156	322220543940.70197	1.9345738934988324e+21	-8.914076142305645e+23	1229.259280870415	-0.7445648961410319	20.354068569902925	0.4227642276422765	22.964462563965373	89.12487251551367	89.2663281205365	32.53906217293878	-6.828513931167986e-05	-9.128968535897533e+22	-0.20598357684648325	-0.000267025605121592	2.864410723494737e+23	0.0762514185575176	-0.2392552676011224	0.0	28.404308	90.306358	9.989134	-58.73342099999999	12.220299	-53.355286	0.0		True	0.0	None	0.0	None	0.0	None	0.0	None	0.0	None	0.0	None	0.0	None	0.0	None	1.4279e-06	12
2014-01-08 13:00:00	95.29783826197641	903368155.6078	5.024514515519927e+21	2179450869704.1567	1.225422775135564	428474216629.5377	1.9394280208509127e+21	-8.921090125343427e+23	1222.0263484706932	-0.7436020293292702	20.265082978380693	0.3875968992248062	23.00717093225749	88.47417406478827	88.8617470502422	31.991614041971477	-0.000395808389901668	-9.061713426017903e+22	-0.26504665827073803	-0.0015559792468958895	2.891000223840653e+23	0.07553234412064419	-0.2409743207427273	0.0	28.406706	90.196556	9.963655	-58.622742	12.244502	-53.226204	0.0		True	0.0	None	0.0	None	0.0	None	0.0	None	0.0	None	0.0	None	0.0	None	0.0	None	2.4456999999999997e-06	12
2014-01-08 13:12:00	100.3873601644207	920828338.2541	5.116994988996837e+21	2297277474053.4927	1.2688095729160591	355248600456.6944	1.9735971570425382e+21	-9.056995729098344e+23	1223.5727353954887	-0.7406157557254819	20.217553814451048	0.12702445220704986	22.9952374378037	88.08202307038276	88.3459613876467	32.47272480321001	-0.0004029246023868081	-9.432105717241704e+22	-0.22176988220640506	-0.0015832330814927404	2.9638073060610663e+23	0.07712895437738095	-0.242358774748108	0.0	28.40906	90.086708	9.954126	-58.542191	12.263198	-53.071751	0.0		True	0.0	None	0.0	None	0.0	None	0.0	None	0.0	None	0.0	None	0.0	None	0.0	None	1.3705e-06	12
2014-01-08 13:24:00	102.48157190882893	928329562.1961	5.227263795013223e+21	2346434969240.6807	1.5228998080147131	365518500193.82336	1.990491656333784e+21	-9.151364884179276e+23	1240.4862142293214	-0.7422860320129908	20.301038429682528	0.18909549322407807	22.94740872992777	87.56336344756927	87.8041095586911	31.762210742533398	-0.00047995581721232684	-9.784641201396674e+22	-0.22646004814930026	-0.0018831273550335586	3.007415199427833e+23	0.07936523768833345	-0.2439376337029369	0.0	28.411373	89.976822	9.947538	-58.452278	12.265714	-52.917427	0.0		True	0.0	None	0.0	None	0.0	None	0.0	None	0.0	None	0.0	None	0.0	None	0.0	None	1.3537999999999999e-06	12
2014-01-08 13:36:00	99.11867863862179	913236790.9794002	5.226400912915084e+21	2331555753483.031	3.3486693736793205	557129919435.2725	1.9795518175260705e+21	-8.910213383922006e+23	1226.3670550733573	-0.7346697813379423	20.584998277038952	0.24929884699283264	23.239164763344675	85.66440736206519	85.50081201838739	32.08060274769536	-0.001043524267273082	-9.496141613948714e+22	-0.3413094434348614	-0.004227679475774807	2.974717916028773e+23	0.07829810558367324	-0.24527306661975315	0.0	28.413639	89.86689	9.941395	-58.360935	12.284746	-52.770969	0.0		True	0.0	None	0.0	None	0.0	None	0.0	None	0.0	None	0.0	None	0.0	None	0.0	None	1.1972e-06	12
2014-01-08 13:48:00	92.949239470587	889986508.4917	4.990360018113162e+21	2179782734682.8865	2.2430332692762533	452526025974.6538	1.949306097758039e+21	-8.731560494326756e+23	1191.400228199888	-0.7387473467910796	20.152456806061725	0.15852885225110971	22.84335958910137	84.97954125575029	85.03714587394062	31.913728998868432	-0.0007111709794788375	-9.090050098329318e+22	-0.2820673449976769	-0.002898983926778344	2.877322843393908e+23	0.07690779210316348	-0.2434404042438589	0.0	28.415869	89.75692	9.934579	-58.270569	12.277958	-52.659866	0.0		True	0.0	None	0.0	None	0.0	None	0.0	None	0.0	None	0.0	None	0.0	None	0.0	None	1.1509e-06	12
2014-01-08 14:00:00	95.58716379136152	891732577.1951	5.142345967197618e+21	2260750801468.2705	1.5253145015105272	401962502100.33417	1.949710581313881e+21	-8.654123228286013e+23	1220.7187899563644	-0.7307620047032648	20.349297352957443	0.06305170239596469	23.23030522157961	85.4611432143035	84.95815209957792	32.29461638913162	-0.0004810200257049912	-9.215986718909062e+22	-0.2491338264292768	-0.0019768965459987953	2.9398399783156363e+23	0.07782062668135227	-0.24824275081257674	0.0	28.418055	89.646904	9.926973	-58.15314100000001	12.295581	-52.539974	0.0		True	0.0	None	0.0	None	0.0	None	0.0	None	0.0	None	0.0	None	0.0	None	0.0	None	1.1273e-06	12
2014-01-08 14:12:00	89.08408551066265	864925049.9491	4.933686390645197e+21	2093561322251.8	1.89441662031984	283914926328.0784	1.8914682386994627e+21	-8.434661103344995e+23	1220.434173404297	-0.7343052448378923	20.11085731047289	0.0328515111695138	22.93342902986244	83.2415973871116	83.25687336392998	30.823284073618456	-0.0006223444876214978	-8.680001822138132e+22	-0.18337207643747427	-0.0025258146514632665	2.8491195196048834e+23	0.0755664132216385	-0.24803882228133545	0.0	28.420151	89.53685	9.919208	-58.018669	12.293842	-52.382236	0.0		True	0.0	None	0.0	None	0.0	None	0.0	None	0.0	None	0.0	None	0.0	None	0.0	None	1.0719e-06	12
2014-01-08 14:24:00	94.69690607810806	878463853.4208	5.024384226050876e+21	2239979440849.6514	2.9502655124235497	588369511497.7942	1.908100749333373e+21	-8.550434175650043e+23	1233.5495539584415	-0.7329119536231966	20.31284218134582	0.16302575806977504	23.11827778824552	84.1982191220584	84.37181265626477	31.582047905452665	-0.0009619385433399248	-8.570309592813952e+22	-0.377168446708872	-0.003876061905458917	2.8906953477508133e+23	0.07346156017097652	-0.2477798356348924	0.0	28.422256	89.42675799999998	9.912933	-57.903378	12.293509	-52.232613	0.0		True	0.0	None	0.0	None	0.0	None	0.0	None	0.0	None	0.0	None	0.0	None	0.0	None	1.049e-06	12
2014-01-08 14:36:00	101.54090175666184	904720338.5932	5.109267449646788e+21	2372557838753.437	1.660204306560659	504488805429.8952	1.938063239681724e+21	-8.816433537762789e+23	1242.6398019371916	-0.7337804885245339	20.231164839106565	0.03229974160206719	23.214706475519442	87.43284208366066	87.50296002058201	33.078755756081534	-0.0005362417010854843	-9.169460068443396e+22	-0.3203751228613857	-0.002116815792628889	2.952597735046936e+23	0.07631624352080077	-0.2457409335826454	0.0	28.424318	89.31662	9.903477	-57.78635	12.30634	-52.081753000000006	0.0		True	0.0	None	0.0	None	0.0	None	0.0	None	0.0	None	0.0	None	0.0	None	0.0	None	1.0381999999999999e-06	12
2014-01-08 14:48:00	96.55720745034401	895705566.0782002	5.052878065991557e+21	2251761433048.9683	3.2350860158408583	504496031558.309	1.918050896927517e+21	-8.728108896871082e+23	1236.5135711206256	-0.7337404275663746	20.29749077141489	0.2274943126421839	23.263422032766947	89.58096579491114	89.6324447564298	33.40744150447249	-0.0010513766707315106	-9.069534898354579e+22	-0.3223647408577204	-0.004166452920268493	2.895222208276413e+23	0.07624428719642197	-0.2433908199474858	0.0	28.426361	89.206459	9.897623	-57.670399	12.303456	-51.931919	0.0		True	0.0	None	0.0	None	0.0	None	0.0	None	0.0	None	0.0	None	0.0	None	0.0	None	1.1426999999999999e-06	12
2014-01-08 15:00:00	95.58956316750003	902541031.3999	5.084265549151887e+21	2222249059333.852	1.7765684463736526	443695881498.3601	1.905976498227157e+21	-8.784030252110427e+23	1271.0444295454465	-0.7328487333022246	20.279601635646912	0.16600265604249667	23.035879442990964	90.34131227900278	90.70159495220804	33.08669796968111	-0.0005898301614786362	-8.521283288922902e+22	-0.2896386801369074	-0.0022718744731497226	2.940211476015294e+23	0.07109278412259798	-0.2453008691905157	0.0	28.428352	89.096252	9.895549	-57.56375500000001	12.301395	-51.831535	0.0		True	0.0	None	0.0	None	0.0	None	0.0	None	0.0	None	0.0	None	0.0	None	0.0	None	1.1349e-06	12
2014-01-08 15:12:00	96.82402747653904	909485178.8697	5.224123771521779e+21	2205660644617.1846	4.554242020491689	615081800914.5905	1.916297163422629e+21	-8.781747370429116e+23	1304.7089185444725	-0.7270642704356115	20.37502842549268	0.26533996683250416	23.312863565066447	90.10847250893916	90.49510421377433	32.83685093864085	-0.0015105280333305765	-8.648828212984579e+22	-0.4011257026991033	-0.005798851350400714	2.980790872140066e+23	0.07160595391266981	-0.2467876208864053	0.0	28.430307	88.986008	9.889172	-57.447437	12.31748	-51.689373	0.0		True	0.0	None	0.0	None	0.0	None	0.0	None	0.0	None	0.0	None	0.0	None	0.0	None	1.1383e-06	12
2014-01-08 15:24:00	101.06487554721669	908405650.5107	5.269484163256023e+21	2315044221537.4214	5.511425383155558	743078349891.6035	1.90485461808472e+21	-8.778192129541475e+23	1322.1771176272866	-0.7276336642000163	20.567791091390323	0.09996667777407532	23.31495874843295	89.44784025632471	89.90883114687261	32.65570319689247	-0.001836529617845904	-8.227104307394384e+22	-0.4868690640114882	-0.007023643222338287	3.005450025069964e+23	0.06819534096091613	-0.2491249430451824	0.0	28.432234	88.875732	9.884177	-57.33516700000001	12.312557	-51.584614	0.0		True	0.0	None	0.0	None	0.0	None	0.0	None	0.0	None	0.0	None	0.0	None	0.0	None	1.152e-06	12
2014-01-08 15:36:00	98.15265977992168	903163340.3923	5.2871304017825e+21	2232726200944.7007	5.5262543109655535	678346565739.1489	1.8750842860922127e+21	-8.646098220144129e+23	1355.5124965342652	-0.7208440431748622	20.6534664383197	0.3745318352059925	23.71789848664985	90.86108310958498	91.11147001805458	34.19446372867084	-0.0018815983353645067	-8.532405775859251e+22	-0.4541502548565676	-0.007111366284398852	2.9928630053739968e+23	0.0711365256428512	-0.2495215083765609	0.0	28.434078000000003	88.765427	9.88072	-57.219852	12.309106	-51.451084	0.0		True	0.0	None	0.0	None	0.0	None	0.0	None	0.0	None	0.0	None	0.0	None	0.0	None	1.125e-06	12
2014-01-08 15:48:00	108.8618269028404	942665637.7972	5.678334975919772e+21	2488537592869.3623	3.8617132902933315	451374778866.0087	1.9636545636286464e+21	-8.996868372339464e+23	1381.9371897620135	-0.7186563961394162	20.918926183189303	0.3232062055591467	23.727556283440148	92.18887942752094	92.4166946126313	34.82576433300573	-0.0012481296995130351	-9.193226346612522e+22	-0.28686473855175193	-0.004767199066857287	3.1538899215100086e+23	0.07343411775882773	-0.2519280121715766	0.0	28.435947	88.655098	9.892835	-57.10629300000001	12.310468	-51.3452	0.0		True	0.0	None	0.0	None	0.0	None	0.0	None	0.0	None	0.0	None	0.0	None	0.0	None	1.0297e-06	12
2014-01-08 16:00:00	101.089521904075	951561194.0874	5.751003497461459e+21	2311531033627.039	4.238922853719545	470788053150.5437	1.9812285602618128e+21	-9.032452341369953e+23	1386.6253002758085	-0.7147537271045236	20.97245604113192	0.3522254242715337	23.740924669425173	90.81995719849172	91.33699775968788	33.96809448282669	-0.0013573240005506073	-8.641214980790219e+22	-0.2964294891732789	-0.0051957354517119785	3.215458969124911e+23	0.06837944315457617	-0.2544448833687532	0.0	28.43778	88.544731	9.880802	-57.038315	12.335423	-51.201427	0.0		True	0.0	None	0.0	None	0.0	None	0.0	None	0.0	None	0.0	None	0.0	None	0.0	None	1.1551e-06	12
2014-01-08 16:12:00	102.60970374082248	963475987.1801	5.753192599880466e+21	2306568039059.2607	3.204712879284076	309549539620.7977	1.993014358443488e+21	-9.154368004809488e+23	1390.7157450675436	-0.715442905200759	20.83711076958125	0.5778491171749599	23.89725727077912	91.5789852636948	91.98627159574623	34.60897574334405	-0.0010288002822741817	-8.482249152260093e+22	-0.1947143183117105	-0.003877947793722359	3.2562622470998565e+23	0.0662914684327892	-0.2544872263095301	0.0	28.439585	88.43433399999998	9.870419	-56.9338	12.359088	-51.054207	0.0		True	0.0	None	0.0	None	0.0	None	0.0	None	0.0	None	0.0	None	0.0	None	0.0	None	1.3694e-06	12
2014-01-08 16:24:00	103.1096636673946	976911733.8418	5.990965920236002e+21	2405556236787.3013	0.428499867579301	60121138105.04323	2.0538767197097946e+21	-9.282837574031156e+23	1372.4126706597656	-0.7155055378049058	21.23806485606373	0.3954974140553696	24.080627148685068	90.89441391650541	91.33515148141643	33.896708089734915	-0.00013036199196206298	-8.207061587260325e+22	-0.019011811437396203	-0.0005113676347172437	3.336686574384767e+23	0.06325865305688662	-0.2571862001087264	0.0	28.441372	88.323921	9.861709	-56.828125	12.381628	-50.906193	0.0		True	0.0	None	0.0	None	0.0	None	0.0	None	0.0	None	0.0	None	0.0	None	0.0	None	1.3332e-06	12
2014-01-08 16:36:00	103.94095537451643	971538876.2853	5.894417165286207e+21	2419072506097.6367	1.9659255763214345	294935429120.8517	2.0646275583901583e+21	-9.251097486269278e+23	1333.6596780799546	-0.7170022911731009	20.923235220124365	0.4507211538461538	23.972305965845266	89.62489742682502	89.89523755674671	32.95571604054071	-0.0005907228294235079	-7.436267560859654e+22	-0.16244340277899494	-0.002357034884132969	3.321754569576273e+23	0.0576344686327888	-0.25745114464915064	0.0	28.443127	88.21347800000002	9.856154	-56.759033	12.378923	-50.806004	0.0		True	0.0	None	0.0	None	0.0	None	0.0	None	0.0	None	0.0	None	0.0	None	0.0	None	1.046e-06	12
2014-01-08 16:48:00	106.44603279532394	992393775.9414	6.122521046633062e+21	2531717757622.5405	4.341118464671619	664357101282.479	2.129994156345304e+21	-9.428642647429706e+23	1313.8155719969964	-0.7154060864691706	21.40674924048013	1.0259333143345684	24.246839667742076	88.09686793708555	88.69765715139894	31.954412109377607	-0.0012371383484387633	-6.739730809514256e+22	-0.3723186537778626	-0.005100123052754497	3.4211281489615686e+23	0.051138266902126056	-0.25958093777425245	0.0	28.44486	88.10301199999998	9.848425	-56.646847	12.371217	-50.660713	0.0		True	0.0	None	0.0	None	0.0	None	0.0	None	0.0	None	0.0	None	0.0	None	0.0	None	3.2315e-06	12
2014-01-08 17:00:00	104.17623095202131	987830856.6965	5.917787565330617e+21	2508762907056.049	0.09483581506002947	174091905564.45184	2.1656913044536927e+21	-9.503983617770456e+23	1227.2148547279312	-0.7244535960151441	21.21145999346185	1.1016248967226658	23.996986135867186	85.83323620585004	86.15053612701679	31.49788834151709	-2.6118373742778706e-05	-5.988938643818558e+22	-0.07942734148260645	-0.0001113443736217574	3.341617352849009e+23	0.04565146901890636	-0.2547191583171077	0.0	28.446575	87.99252299999998	9.842213	-56.524986	12.393418	-50.555714	0.0		True	0.0	None	0.0	None	0.0	None	0.0	None	0.0	None	0.0	None	0.0	None	0.0	None	3.4214999999999998e-06	12
2014-01-08 17:12:00	97.9440142520664	966385498.1086	5.590519933979637e+21	2383089133412.7085	1.7099891522091186	35189326723.1809	2.1254744538632125e+21	-9.329786686698022e+23	1183.4663554134513	-0.7269572813588023	20.712139645881127	0.5622715771717739	23.903285079876586	86.31817024232296	86.56499753059165	31.252375202486515	0.00048073914877962284	-5.610714349605063e+22	0.019455213658926804	0.002049233052093022	3.218528193474137e+23	0.043717501664695166	-0.2507809218018348	0.0	28.448277	87.88202700000002	9.833685	-56.413918	12.387733	-50.426498	0.0		True	0.0	None	0.0	None	0.0	None	0.0	None	0.0	None	0.0	None	0.0	None	0.0	None	2.0319999999999998e-06	12
2014-01-08 17:24:00	98.2390685293997	984554240.223	5.610058755458716e+21	2457405256607.413	3.1763183424068413	385518136142.864	2.1868669041302585e+21	-9.526599334440711e+23	1132.5207344268356	-0.7285944140498785	20.70364005174248	0.482573726541555	24.23037889778969	86.73229297441813	86.97751127904476	31.07157386396688	0.0008515598773208693	-4.995261674074462e+22	0.20325930425590666	0.0037326843513853314	3.255841823648149e+23	0.03820376636698102	-0.2490068158071936	0.0	28.449957	87.771507	9.829356	-56.431347	12.386213	-50.322502	0.0		True	0.0	None	0.0	None	0.0	None	0.0	None	0.0	None	0.0	None	0.0	None	0.0	None	1.4335e-06	12
2014-01-08 17:36:00	93.73494678954752	976588793.752	5.538148844632532e+21	2393993583791.394	1.858150766813501	236554169635.7537	2.191011703163878e+21	-9.507034367964828e+23	1103.2155739002883	-0.7330285460430863	20.81025043217662	0.8465608465608466	24.075638085862106	85.192307711217	85.54323308271056	30.279301460283808	-0.0004915742769347886	-4.329598432355411e+22	-0.1215761171682459	-0.002195803594661968	3.2037521854320524e+23	0.03338285232789488	-0.2470214911900385	0.0	28.451639	87.660988	9.822547	-56.327965	12.396921	-50.192505	0.0		True	0.0	None	0.0	None	0.0	None	0.0	None	0.0	None	0.0	None	0.0	None	0.0	None	1.2215999999999999e-06	12
2014-01-08 17:48:00	93.8254315133976	972881961.5285	5.528180337056942e+21	2375596146847.925	1.1410954206128157	328579020383.4065	2.181715819024787e+21	-9.43424047903312e+23	1108.2664781147528	-0.7301874597551469	20.699408071599077	0.6656017039403621	24.06379312126675	86.5099984005069	86.55790456066664	30.667789206097012	-0.00030388692959062996	-4.087187626517095e+22	-0.1720436035733264	-0.0013558823456194641	3.193995344436614e+23	0.031633846489092746	-0.24720753644208115	0.0	28.453297	87.550446	9.816433	-56.226864	12.401748	-50.075222	0.0		True	0.0	None	0.0	None	0.0	None	0.0	None	0.0	None	0.0	None	0.0	None	0.0	None	9.9866e-07	12
2014-01-08 18:00:00	88.43646788146984	941429218.0808	5.210079943859651e+21	2219966011008.5986	1.3748564249464694	274032073071.0235	2.1126510896670093e+21	-9.171561204853592e+23	1092.1836195753124	-0.7335727584827596	20.31602169725498	0.8630289532293987	23.866267744239767	86.93973357976192	87.08911647222993	30.689638182345515	-0.0003827551294394402	-4.106515874645264e+22	-0.15003536632460693	-0.0016848358562803253	3.0387533134945225e+23	0.03284531510646836	-0.24304985822360736	0.0	28.454945	87.43989599999998	9.810933	-56.125221	12.427442	-49.946793	66560.0		False	0.0	None	0.0	None	0.0	None	0.0	None	0.0	None	0.0	None	0.0	None	0.0	None	8.9655e-07	12
2014-01-08 18:12:00	85.19281523236081	949975350.9131	5.141527469526596e+21	2160479449984.593	2.5827048647758657	414519023558.9041	2.150023343710212e+21	-9.298403711993728e+23	1044.3765193377837	-0.7370273191967776	20.21398612522292	0.3237118964121931	24.01014671057651	87.15857531938477	87.0889145631838	30.788228383760032	-0.0006967102413746603	-4.132827502501525e+22	-0.2199146707439132	-0.003130298770092484	3.0101691960638068e+23	0.03275838379594618	-0.2385976132701091	0.0	28.456587	87.329338	9.803559	-56.012371	12.448521	-49.79472	66560.0		False	0.0	None	0.0	None	0.0	None	0.0	None	0.0	None	0.0	None	0.0	None	0.0	None	8.9816e-07	12
2014-01-08 18:24:00	85.73916585699536	935704602.7667	4.979119879247947e+21	2194764278839.3672	1.1429828999476022	289070160517.4858	2.1313867472760943e+21	-9.194420791288357e+23	1017.9781279803993	-0.7399002825000731	20.10221403132996	0.6244909041542221	23.97546668294825	87.81607437637062	88.16473557980926	30.675535568159344	-0.00031034018461786645	-4.472233282776513e+22	-0.1543608951982628	-0.0014041276911191875	2.902295770314517e+23	0.03598928898781563	-0.2335557083040111	0.0	28.458223	87.218773	9.773871	-55.903076	12.47692	-49.519024	0.0		True	0.0	None	0.0	None	0.0	None	0.0	None	0.0	None	0.0	None	0.0	None	0.0	None	9.518999999999999e-07	12
2014-01-08 18:36:00	81.92982553454459	916743905.4571	4.844164026090875e+21	2107654012923.482	0.7199927190511701	185650940989.87985	2.1196514036627229e+21	-9.049993749821192e+23	978.9568674927028	-0.7433405344424069	19.94993723623755	0.322061191626409	23.885769247757864	86.7073680636339	87.14034789442638	29.31070036803019	-0.00019323476088329848	-3.7390868575481405e+22	-0.09799252013980518	-0.0009010063272648453	2.848892695356869e+23	0.030711787210585977	-0.23399987638416714	0.0	28.459858	87.10820799999998	9.765326	-55.802792	12.502406	-49.378052	0.0		True	0.0	None	0.0	None	0.0	None	0.0	None	0.0	None	0.0	None	0.0	None	0.0	None	1.015e-06	12
2014-01-08 18:48:00	86.3624110627034	910218132.7713	4.775003734888985e+21	2231232763172.8096	0.4615241519987583	16020612909.385141	2.1052669715900494e+21	-9.00352861069908e+23	973.3395388232117	-0.7448259634331429	19.852986577963666	0.32485110990795885	23.731228214436587	87.67089974040493	87.98105636724031	30.38492472776807	0.0001249388608551051	-3.22062602772176e+22	-0.008529493622768228	0.0005812016394076588	2.810180288373681e+23	0.026642952865226256	-0.2324749918850134	0.0	28.4615	86.99765	9.757618	-55.693459	12.528714	-49.237171	0.0		True	0.0	None	0.0	None	0.0	None	0.0	None	0.0	None	0.0	None	0.0	None	0.0	None	9.8784e-07	12
2014-01-08 19:00:00	81.4915036378527	888542177.8558	4.575400953611173e+21	2050255862073.0918	2.2960515103545003	324241344216.0716	2.0558107147249548e+21	-8.831640424041844e+23	959.6709038326857	-0.7484295884093907	19.606977571894678	0.11142061281337047	23.39766461743004	85.78956824247106	86.07246197916841	28.60607290012977	-0.0006395686658369082	-2.8045270618956462e+22	-0.14391196207343396	-0.0029558706635283982	2.7449817458217757e+23	0.023766717550044263	-0.2326210601400893	0.0	28.463137	86.887085	9.747936	-55.585239	12.547753	-49.083271	0.0		True	0.0	None	0.0	None	0.0	None	0.0	None	0.0	None	0.0	None	0.0	None	0.0	None	9.8003e-07	12
2014-01-08 19:12:00	82.80232820575031	877603547.636	4.568155546640892e+21	2102394793518.3718	1.6391874793236825	276685718788.31976	2.0487148646027984e+21	-8.706943981128642e+23	953.3706534075287	-0.7470588329705903	19.689051337436915	0.22172949002217296	23.313959074201346	84.47649473486823	84.87234321768459	28.265592216134984	-0.00045432025480146397	-2.7247201136998435e+22	-0.1496138969240927	-0.0021382216537354465	2.7100811951848334e+23	0.023378193689127684	-0.2325259125725861	0.0	28.464729	86.776527	9.73914	-55.476849	12.544391	-48.943573	0.0		True	0.0	None	0.0	None	0.0	None	0.0	None	0.0	None	0.0	None	0.0	None	0.0	None	1.0088e-06	12
2014-01-08 19:24:00	78.3348181915512	857888527.8647001	4.361173709077612e+21	1945478928031.1465	4.063288134314407	592776784679.3837	1.9667959923831847e+21	-8.559850104082964e+23	969.2760752380417	-0.7513162960763511	19.29152816330252	0.3541912632821724	22.95128184929432	87.13679879529707	87.52286328065294	28.563487370561496	-0.0011993176311435676	-3.2652467915938886e+22	-0.3441066684623158	-0.005408940032139975	2.6007699081775584e+23	0.028659767348792036	-0.2282751205452483	0.0	28.466377	86.665977	9.729919	-55.36441800000001	12.540572	-48.800545	0.0		True	0.0	None	0.0	None	0.0	None	0.0	None	0.0	None	0.0	None	0.0	None	0.0	None	9.3624e-07	12
2014-01-08 19:36:00	84.14963583968299	863276182.4277	4.4482041709182226e+21	2071617911110.976	3.1043795922600306	509305914521.1194	1.960768735549328e+21	-8.572626809484064e+23	994.1941324719212	-0.7477417890916522	19.36285468628904	0.44523597506678536	23.31984893408057	89.00256495988295	89.22413251160464	29.604351921597623	-0.0009214543164915496	-4.1694076933609756e+22	-0.2973195362631532	-0.00411507529404875	2.622516322328588e+23	0.0363673870025128	-0.2287472778601052	0.0	28.468035	86.555435	9.721139	-55.25771	12.560504	-48.641872	0.0		True	0.0	None	0.0	None	0.0	None	0.0	None	0.0	None	0.0	None	0.0	None	0.0	None	9.1074e-07	12
2014-01-08 19:48:00	83.42090513621106	866118202.6725	4.5078646179926177e+21	2054718831910.0696	2.3947623983575106	406454372127.4105	1.9715168506424132e+21	-8.587938585057226e+23	997.7554264690401	-0.7466194631261178	19.589233270762765	0.3527336860670194	23.38996088467956	87.80825675491221	87.76651385407287	29.500301905501644	-0.0007039278066894505	-4.029778944307632e+22	-0.2349758494862649	-0.003166044135439715	2.6537409624836323e+23	0.03503415123567572	-0.2307113206576469	0.0	28.469709	86.444908	9.713843	-55.16341800000001	12.555978	-48.505878	0.0		True	0.0	None	0.0	None	0.0	None	0.0	None	0.0	None	0.0	None	0.0	None	0.0	None	9.5994e-07	12
2014-01-08 20:00:00	85.5607894828957	857922797.5949	4.593126888583115e+21	2072341327702.5112	4.502962927856968	555144038076.7267	1.9290048771933468e+21	-8.482800786421465e+23	1059.9342307403933	-0.74452383886377	19.80587060947219	0.3064664419246093	23.35170823954366	90.30724339595692	90.47129707890885	29.98059475287514	-0.0013804300821143372	-3.8049603466014036e+22	-0.3346060588963235	-0.006018272718791071	2.700537627528596e+23	0.03339561726488654	-0.2370224990621101	0.0	28.471390000000003	86.334389	9.707795	-55.064217000000006	12.552603	-48.367329	0.0		True	0.0	None	0.0	None	0.0	None	0.0	None	0.0	None	0.0	None	0.0	None	0.0	None	9.520799999999999e-07	12
2014-01-08 20:12:00	84.55595009608042	847643246.6047	4.4594688121915226e+21	2077162939890.8184	4.652165064718335	563883451478.2257	1.919089788247064e+21	-8.403432911115197e+23	1024.6940166494485	-0.7465022854873195	19.73616429134788	0.4577357339029601	23.5937157022565	89.42555327031197	89.8360705724411	29.974288131030878	-0.001419641460091039	-4.1743768245169964e+22	-0.33842077579223057	-0.006284964758005848	2.6512693699854066e+23	0.03708224808774843	-0.23552025286222936	0.0	28.473091	86.223892	9.699831	-54.971939	12.565592	-48.227562	0.0		True	0.0	None	0.0	None	0.0	None	0.0	None	0.0	None	0.0	None	0.0	None	0.0	None	9.4193e-07	12
2014-01-08 20:24:00	90.4606315572347	840411672.5147	4.437105533570868e+21	2158371279305.0908	3.2471973582819373	423708641186.7104	1.8682168077308532e+21	-8.357137136202275e+23	1078.1165580296745	-0.7487778471493005	19.408510154572124	0.16134236850596967	22.93691238301639	91.10187885498578	91.6608579412608	30.865768787864113	-0.001047821025583071	-4.572769182852567e+22	-0.2688984710534301	-0.004418877495463979	2.619385554572252e+23	0.04097082778999328	-0.2346901629638539	0.0	28.474802	86.113403	9.69194	-54.87586999999999	12.563001	-48.092033	0.0		True	0.0	None	0.0	None	0.0	None	0.0	None	0.0	None	0.0	None	0.0	None	0.0	None	9.444799999999999e-07	12
2014-01-08 20:36:00	91.77556175753722	836906880.6176	4.540068564154329e+21	2161035713267.2249	1.9912603315274917	271899930582.0527	1.8425227931245543e+21	-8.322486113664128e+23	1136.8848781611318	-0.7487958817161877	19.723700073277968	0.39906883937479215	22.95129217424509	92.73315291140257	93.25556557584065	31.12714887464307	-0.0006622082911631166	-5.557303709498127e+22	-0.1778345711653889	-0.002721082927432345	2.631362307236853e+23	0.05000051756513185	-0.2367505613169089	0.0	28.476488	86.002937	9.686131	-54.779591	12.559846	-47.963188	0.0		True	0.0	None	0.0	None	0.0	None	0.0	None	0.0	None	0.0	None	0.0	None	0.0	None	9.934100000000002e-07	12
2014-01-08 20:48:00	94.58568192924628	846203340.1564	4.7169320836853793e+21	2252996912801.0986	1.3560393464882308	320936306799.39764	1.8525740486242969e+21	-8.315414263493978e+23	1170.6621569178205	-0.7399403107636912	20.02546141818236	0.23071852340145024	23.33285566242254	93.32968429046356	93.7873889060282	31.27487713371931	-0.00044694770813718886	-6.329782779352399e+22	-0.2080373435781689	-0.0018420151659682227	2.69446403151941e+23	0.05632505234745443	-0.2397646695218679	0.0	28.478245	85.892494	9.678672	-54.672867	12.555007000000002	-47.832863	0.0		True	0.0	None	0.0	None	0.0	None	0.0	None	0.0	None	0.0	None	0.0	None	0.0	None	9.4517e-07	12
2014-01-08 21:00:00	93.05793582919719	828331191.3168001	4.6913833678062265e+21	2153676300552.941	3.5063113137405937	562080433828.6674	1.7884533005037863e+21	-8.103663467129151e+23	1226.1545564629014	-0.7366563428777455	20.12553872538844	0.2776813606386671	23.29852316485437	93.3690074951192	93.99154588825093	32.02272269671357	-0.0012170466205278006	-6.965038971714138e+22	-0.3745372853787169	-0.004874864700200897	2.66581281205788e+23	0.06331506926115714	-0.2423333502054841	0.0	28.480022	85.782074	9.672555	-54.575279	12.562461	-47.728546	0.0		True	0.0	None	0.0	None	0.0	None	0.0	None	0.0	None	0.0	None	0.0	None	0.0	None	9.3765e-07	12
2014-01-08 21:12:00	94.8894526916403	836230752.8264	4.899924991107618e+21	2217368028469.1523	0.8390873343967216	447306162984.9476	1.7933013800988217e+21	-8.075828892185069e+23	1272.707988216186	-0.7271910536572198	20.563557181784137	0.4139358399448086	23.74656461285099	94.8429186092312	95.38855319554246	32.928093847236106	-0.0002894402671254645	-7.987080528776024e+22	-0.3034507594532333	-0.0011619050696050342	2.7519446430095323e+23	0.07191996738546796	-0.2477998916610259	0.0	28.481833	85.671684	9.667842	-54.470367	12.560415	-47.606426	0.0		True	0.0	None	0.0	None	0.0	None	0.0	None	0.0	None	0.0	None	0.0	None	0.0	None	9.235700000000002e-07	12
2014-01-08 21:24:00	100.98045298936009	842849583.4322003	5.072455096908899e+21	2337483895803.835	0.1297033343832174	229049431072.5081	1.801242180187879e+21	-8.137857243709161e+23	1325.7525891041969	-0.7270219474349328	20.891788255562265	0.6942034015966678	23.71032718625794	95.91755477074408	96.24313661062628	33.72718460916825	4.5020247963629785e-05	-7.73159625690416e+22	-0.1312174668864391	0.00017821046500195127	2.8083882260864683e+23	0.0690727300705644	-0.2508964972150464	0.0	28.483669	85.561317	9.659869	-54.366035	12.560158	-47.478268	0.0		True	0.0	None	0.0	None	0.0	None	0.0	None	0.0	None	0.0	None	0.0	None	0.0	None	1.0819e-06	12
2014-01-08 21:36:00	103.45294344538117	870709009.8839	5.378084291117629e+21	2440335056018.4297	0.9204824645444062	176502107724.7979	1.8682311022181606e+21	-8.307468550517757e+23	1342.7150286263463	-0.7184279993809981	21.123992262774266	0.29840848806366044	24.0053430645582	94.12738642812648	94.63852008039841	33.71360672724548	0.00030519975614867577	-8.30518753294707e+22	-0.0845308155395416	0.001230385307447726	2.935753248540812e+23	0.07182307374979231	-0.2538832762591671	0.0	28.485531	85.450981	9.650867	-54.256989	12.55633	-47.37148300000001	0.0		True	0.0	None	0.0	None	0.0	None	0.0	None	0.0	None	0.0	None	0.0	None	0.0	None	9.8229e-07	12
2014-01-08 21:48:00	102.18716462002243	867518736.9706001	5.396187251441094e+21	2387276413111.4434	1.2438850294374042	329114791869.08405	1.844769278158676e+21	-8.261745633408367e+23	1365.8014666886727	-0.7171012659818582	21.38577860143289	0.4369747899159664	24.151629862123862	95.32842849419164	95.46997376389588	34.04709125742849	-0.00041811261493694246	-8.221405060440686e+22	-0.14020712671853813	-0.0016700730375031525	2.9603813490244793e+23	0.07135997933840359	-0.2569545598922948	0.0	28.487425	85.340675	9.643965	-54.15388100000001	12.552097	-47.250957	0.0		True	0.0	None	0.0	None	0.0	None	0.0	None	0.0	None	0.0	None	0.0	None	0.0	None	9.2204e-07	12
2014-01-08 22:00:00	97.04297806356476	857322919.5248001	5.219579470730849e+21	2277930147267.9307	0.7511736927916022	417579815452.23706	1.8172250331336527e+21	-8.17913167614042e+23	1339.105957967436	-0.7183734933718686	21.216393654477503	0.545144804088586	24.151136195056143	94.71998144415319	94.66396368163834	34.20804657553527	-0.00025593652224586104	-7.553776115515475e+22	-0.2450893509342729	-0.0010197844053892833	2.9510416216348215e+23	0.06634484870908043	-0.2591901148875935	0.0	28.489351	85.2304	9.638402	-54.050949	12.546627	-47.14299000000001	0.0		True	0.0	None	0.0	None	0.0	None	0.0	None	0.0	None	0.0	None	0.0	None	0.0	None	1.0087e-06	12
2014-01-08 22:12:00	98.32970737358808	872816622.6278	5.46417288365481e+21	2268938053275.7705	1.4144226185653412	407529601578.3165	1.8341386883028668e+21	-8.312196269721543e+23	1413.9006779714075	-0.7171008554621731	21.470580863014177	0.5498281786941581	24.140048228837284	97.31967672792887	97.8455940146833	33.90438676973994	-0.000486055882668502	-7.2883993000952285e+22	-0.2589348639322784	-0.001887514841011257	3.0165893416160554e+23	0.0628776944558755	-0.2602439508473509	0.0	28.49131400000001	85.120163	9.628287	-53.94560600000001	12.55544	-47.020603	0.0		True	0.0	None	0.0	None	0.0	None	0.0	None	0.0	None	0.0	None	0.0	None	0.0	None	9.812e-07	12
2014-01-08 22:24:00	99.45114799950622	888174593.0088998	5.610812678549046e+21	2396402143566.9854	2.2822597051810147	179334213573.68542	1.9061793609060691e+21	-8.398719576398219e+23	1358.9160160977958	-0.7120365788643573	21.736336335908927	0.6111289803795433	24.54077541946298	92.83059298366295	92.75397751478098	33.90641710164521	0.0007340816034676793	-6.853874457679168e+22	-0.010406950278524896	0.0030018132699439525	3.093337435563686e+23	0.05810658727701621	-0.26225061866351546	0.0	28.493298	85.009949	9.623104	-53.843658	12.550393	-46.920036	0.0		True	0.0	None	0.0	None	0.0	None	0.0	None	0.0	None	0.0	None	0.0	None	0.0	None	9.343399999999999e-07	12
2014-01-08 22:36:00	97.34962186511845	895572965.815	5.667930843721982e+21	2348594070668.841	0.1665246797385938	377948515385.0754	1.94039266997282e+21	-8.439341716904239e+23	1336.6361385624652	-0.7095698793733691	21.651351875602263	0.4071406201064829	24.48956856052033	91.29830904955007	91.42153539802419	32.902930945016635	-5.215304720908043e-05	-6.5256351046344e+22	-0.20376649136215905	-0.0002175308065000835	3.147861057964017e+23	0.054866768870790526	-0.2646684381448419	0.0	28.495329	84.89978	9.616518	-53.73993299999999	12.548813	-46.792637	0.0		True	0.0	None	0.0	None	0.0	None	0.0	None	0.0	None	0.0	None	0.0	None	0.0	None	9.5426e-07	12
2014-01-08 22:48:00	97.76538864679121	896499800.0203	5.569039419438481e+21	2354641586435.3213	1.473198159842673	435489242293.5902	1.9382983971264518e+21	-8.458135269739714e+23	1319.5138868644972	-0.7104147919290986	21.31794034790005	0.4405286343612335	24.523479640325903	92.060286754289	92.43277984113706	33.7867022242938	-0.000463561409642125	-5.9132052285322366e+22	-0.1920664278199356	-0.0019214961676902336	3.1121787694821296e+23	0.0496661300403991	-0.26139778597272817	0.0	28.4974	84.78965	9.610289	-53.634933	12.545141	-46.670559	0.0		True	0.0	None	0.0	None	0.0	None	0.0	None	0.0	None	0.0	None	0.0	None	0.0	None	9.1363e-07	12
2014-01-08 23:00:00	97.87618687735748	913893294.3515	5.763247383579658e+21	2373022549065.2617	1.8488472820138584	188682765442.77066	1.9828431610908346e+21	-8.677723332441055e+23	1334.0457553106246	-0.7149864900728577	21.608388562805935	0.27666769136181985	24.26505000227649	92.44960266608341	92.8266545139909	33.46363239497235	0.0005683514546614997	-5.481407957432048e+22	-0.11405885302231995	0.0023592547651634125	3.194202824235305e+23	0.0451631434421327	-0.2631809955663072	0.0	28.499508	84.679558	9.602081	-53.521511	12.539529	-46.567841	0.0		True	0.0	None	0.0	None	0.0	None	0.0	None	0.0	None	0.0	None	0.0	None	0.0	None	9.6103e-07	12
