Timestamp	TOTUSJH	TOTBSQ	TOTPOT	TOTUSJZ	ABSNJZH	SAVNCPP	USFLUX	TOTFZ	MEANPOT	EPSZ	MEANSHR	SHRGT45	MEANGAM	MEANGBT	MEANGBZ	MEANGBH	MEANJZH	TOTFY	MEANJZD	MEANALP	TOTFX	EPSY	EPSX	R_VALUE	CRVAL1	CRLN_OBS	LAT_MIN	LON_MIN	LAT_MAX	LON_MAX	QUALITY	NOAA_AR	IS_TMFI	BFLARE	BFLARE_label	CFLARE	CFLARE_label	MFLARE	MFLARE_label	XFLARE	XFLARE_label	BFLARE_loc	BFLARE_label_loc	CFLARE_loc	CFLARE_label_loc	MFLARE_loc	MFLARE_label_loc	XFLARE_loc	XFLARE_label_loc	XR_MAX	XR_QUAL
2014-02-04 08:48:00	468.67391138500363	5450229078.220001	3.411688840077993e+22	9699149959114.297	0.9824178542564352	379741030345.0541	9.862768079863886e+21	-4.889209148178018e+24	1676.7560609577038	-0.6754783623454138	20.94177081326817	2.8653482148684812	26.907543157135525	83.65266193033521	84.69600798444124	35.77068612653865	-6.412230626306606e-05	-1.878255600708584e+23	0.023753674339688603	-0.00021516551247988624	1.360855714887253e+24	0.025949411832904085	-0.1880117135146475	4.208379291093407	34.51226	96.98291	-14.522222	-67.942017	-6.9783089999999985	-58.74965699999999	0.0		True	0.0	None	0.0	None	0.0	None	0.0	None	0.0	None	0.0	None	0.0	None	0.0	None	2.3089e-06	12
2014-02-04 09:00:00	478.5392050019266	5561297465.7633	3.4998388901447085e+22	9869211671904.396	1.1849666088587698	137591655174.5395	1.0037666124949155e+22	-5.001342839295391e+24	1698.6809313899869	-0.6771705254845986	21.02871617140968	2.8877143225473767	26.77355250299501	84.65893744906953	85.84736238275191	36.122658171377786	7.638539346733512e-05	-2.169247246067823e+23	0.017340234502263692	0.0002540871919235071	1.4114938205237605e+24	0.029371117812285737	-0.1911130756029112	4.262367041108536	34.515831	96.873734	-14.533433	-67.86391400000001	-6.966987	-58.64544300000001	0.0		True	0.0	None	0.0	None	0.0	None	0.0	None	0.0	None	0.0	None	0.0	None	0.0	None	2.0922e-06	12
2014-02-04 09:12:00	500.4045142225122	5679784239.7846	3.5740232554016357e+22	10526855015665.436	1.412884924852993	598181796366.6245	1.028542359197817e+22	-5.119146349478325e+24	1681.785629138872	-0.6786615371852899	21.10837988158827	2.5871766029246346	26.703341999555025	84.70248252999848	85.73435279539001	36.097749308836796	8.829427101943466e-05	-2.367369984467818e+23	0.07308842127166733	0.00029637516518781084	1.4470908878542196e+24	0.03138497794478903	-0.19184544831347744	4.239339730814268	34.519375	96.764526	-14.54713	-67.784081	-6.9514210000000025	-58.523273	0.0		True	0.0	None	0.0	None	0.0	None	0.0	None	0.0	None	0.0	None	0.0	None	0.0	None	3.0164e-06	12
2014-02-04 09:24:00	517.5568855336251	5777215479.848101	3.6414505392503496e+22	11026984867936.344	0.8992268705038899	228925265349.80466	1.0471647587021361e+22	-5.225302585031514e+24	1679.4050581516094	-0.6810520624201734	21.298323953914988	2.6459239296870214	26.70025864375605	84.88571660828022	85.8697381499183	36.76223536846743	5.507606238156978e-05	-2.3631036305785455e+23	0.020369626546443	0.00018518232886602143	1.497893623519403e+24	0.03080006516614792	-0.1952314770260838	4.196095527252513	34.522903	96.655304	-14.554748000000002	-67.69205500000001	-6.942659	-58.400879	0.0		True	0.0	None	0.0	None	0.0	None	0.0	None	0.0	None	0.0	None	0.0	None	0.0	None	7.4286e-06	12
2014-02-04 09:36:00	525.2903504851972	5765477621.164801	3.7217899273943656e+22	11204167670922.7	1.3662966847398297	1066991289474.3218	1.034831442649053e+22	-5.189907191263196e+24	1758.350811738357	-0.6778159644120307	21.708868830679602	3.444597816539089	26.7624772522955	86.77765121954903	88.39624931317104	37.443482408015896	-8.57257299999893e-05	-2.4991001879439955e+23	-0.13089540071110586	-0.00028248500351244144	1.511513102306939e+24	0.03263892670190993	-0.1974077133568614	4.210568498611702	34.526402000000004	96.546051	-14.567758	-67.60173	-6.942769	-58.279945	0.0		True	0.0	None	0.0	None	0.0	None	0.0	None	0.0	None	0.0	None	0.0	None	0.0	None	7.7454e-06	12
2014-02-04 09:48:00	534.0446042639073	5816538237.4593	3.7660704323364123e+22	11500883895582.602	0.4495771177894632	568028529417.3503	1.0435836922835954e+22	-5.208499915859614e+24	1744.0360222106146	-0.6742727806960356	21.86422358020164	3.3148831488314885	27.23489988351297	86.56463193500782	87.3877777475094	37.34613659215382	2.7649269236744355e-05	-2.8865837945307988e+23	-0.06011549641932441	9.23301179076237e-05	1.5333566513774696e+24	0.03736862653916679	-0.1985025765239765	4.199342534574424	34.529869	96.436768	-14.575492	-67.50943000000001	-6.934029	-58.157688	0.0		True	0.0	None	0.0	None	0.0	None	0.0	None	0.0	None	0.0	None	0.0	None	0.0	None	1.4595999999999999e-05	12
2014-02-04 10:00:00	535.0741983337889	5797576530.6909	3.7456495880415073e+22	11193122363720.855	1.3050863889543844	1198510122535.102	1.025508247014361e+22	-5.180651335863357e+24	1811.1000511532195	-0.6728611522796096	21.473719218077367	2.6520259423360946	26.97732983558705	88.36853024236567	89.3283228975651	38.00651307928899	-8.380443003624122e-05	-2.991173307246392e+23	-0.15047928758684834	-0.0002691304699872791	1.551843112675936e+24	0.03884925249165432	-0.20155283134457336	4.212560688667007	34.53331	96.327461	-14.575412	-67.40593	-6.933978999999999	-58.036522	0.0		True	0.0	None	0.0	None	0.0	None	0.0	None	0.0	None	0.0	None	0.0	None	0.0	None	1.3249000000000001e-05	12
2014-02-04 10:12:00	536.424842903461	5856247167.410601	3.717179306512431e+22	11027037238854.057	0.7340725140493056	1722810433570.9849	1.036118513796216e+22	-5.291782330754032e+24	1807.7814759155874	-0.6804090925722746	21.089945019032022	2.577019957372602	26.22820357935319	88.29411265344206	88.8106908463987	37.283773445915386	4.7411516763502274e-05	-3.010424420440856e+23	-0.2175681648711034	0.00014918822186112433	1.5516120613643073e+24	0.03870756618739665	-0.19950385119991365	4.191985785160821	34.536667	96.218117	-14.576332999999998	-67.323944	-6.9182	-57.92335500000001	0.0		True	0.0	None	0.0	None	0.0	None	0.0	None	0.0	None	0.0	None	0.0	None	0.0	None	5.424400000000002e-06	12
2014-02-04 10:24:00	520.3311051685523	5796325904.6334	3.6922843218446322e+22	10535990025184.883	4.896687071488644	856285961801.7793	1.0167122022536757e+22	-5.232831695809408e+24	1862.060255271087	-0.6797848167442562	21.06778204490416	2.2905364677516573	26.106806384559498	89.52467114063013	90.115408218112	37.24688265349227	0.00032797636111779263	-2.836378903297104e+23	-0.11213703098038497	0.001005874294241622	1.5356787923458998e+24	0.036846728981159316	-0.1994964078949656	4.1737249640332434	34.5401	96.108749	-14.575517	-67.367012	-6.894992	-57.799221	0.0		True	0.0	None	0.0	None	0.0	None	0.0	None	0.0	None	0.0	None	0.0	None	0.0	None	4.2460000000000005e-06	12
2014-02-04 10:36:00	528.5977053887733	5830621152.2317	3.6706898233877472e+22	10680531219352.516	6.8438607018930995	1278773744577.5928	1.0251059482875973e+22	-5.283579403849136e+24	1843.7609078743744	-0.6823401612668526	20.772789478177426	2.0745780801814417	25.93991026790472	89.1836884134779	90.06186410344644	37.393038545559094	0.00045653129890555	-2.671079455775412e+23	-0.16679726725927185	0.0013954122160017833	1.530378698395773e+24	0.034495266320453175	-0.19763852646976213	4.199973709198226	34.543392	95.999344	-14.581553	-67.443268	-6.867771	-57.67993900000001	0.0		True	0.0	None	0.0	None	0.0	None	0.0	None	0.0	None	0.0	None	0.0	None	0.0	None	2.8489e-06	12
2014-02-04 10:48:00	530.0885134565874	5731322457.8212	3.602862044701013e+22	10617315885296.934	2.536863289854537	1327335288512.1775	1.0105517872143307e+22	-5.215399525001224e+24	1849.7945206408435	-0.6852046092951685	20.71574634715921	1.7523523796536207	25.539152928793435	90.63397623210432	90.7475465214765	37.6291056269219	0.00017298760926386206	-2.5549850998855835e+23	-0.17697092484402832	0.0005253502918304722	1.5128058982240706e+24	0.033567659749358644	-0.1987540109751817	4.136675601817278	34.546757	95.889908	-14.581509	-67.381584	-6.84541	-57.557678	0.0		True	0.0	None	0.0	None	0.0	None	0.0	None	0.0	None	0.0	None	0.0	None	0.0	None	2.9073e-06	12
2014-02-04 11:00:00	524.4321515960162	5653059068.4496	3.5699501301431527e+22	10379345576948.396	9.193114740967324	684339143991.5784	9.939145992695536e+21	-5.124434386911514e+24	1876.9209776053585	-0.6825742832722007	20.570375405484857	1.6338500209467952	25.683005416016158	90.97418089412285	91.67837776118375	37.80071474024337	0.0006418876372690492	-2.6245577912719642e+23	-0.0934346989144338	0.0019330135845914164	1.470839904261504e+24	0.03495909046780942	-0.19591576702078364	4.131731568152184	34.549984	95.780434	-14.583125	-67.352791	-6.8223699999999985	-57.437576	0.0		True	0.0	None	0.0	None	0.0	None	0.0	None	0.0	None	0.0	None	0.0	None	0.0	None	2.9454e-06	12
2014-02-04 11:12:00	512.0263356504212	5602465538.5066	3.478423293593964e+22	10233384047212.186	11.25497858390172	692989439428.1343	9.872434441498646e+21	-5.097951113510109e+24	1839.3310416541046	-0.6851788229436295	20.41457262246816	1.6924157303370786	25.543486871714922	89.85854389292123	90.66301568756693	37.17298702721479	0.0007903777095436598	-2.598943119518172e+23	-0.09516231595464472	0.0023842373217870818	1.455257759038978e+24	0.034930519102267465	-0.19559069442142346	4.079987475785166	34.553288	95.670937	-14.584309	-67.276901	-6.807877	-57.31855	0.0		True	0.0	None	0.0	None	0.0	None	0.0	None	0.0	None	0.0	None	0.0	None	0.0	None	3.0424000000000007e-06	12
2014-02-04 11:24:00	517.3845176089276	5538288264.3648	3.4165507521971153e+22	10249107050163.855	12.63008491331877	978999229871.4327	9.776670324104911e+21	-5.06890696929821e+24	1824.164048273985	-0.6891698751965126	20.315513206304928	1.3401403956604978	25.31818321352993	89.96154758336245	90.86535837891908	36.822153299149	0.000895560158357709	-2.190934265624093e+23	-0.13574617719544704	0.002700146833828759	1.440395668572653e+24	0.02978799775867595	-0.19583655986514367	4.033777788955103	34.55645	95.561401	-14.580358	-67.196457	-6.792489	-57.20571500000001	0.0		True	0.0	None	0.0	None	0.0	None	0.0	None	0.0	None	0.0	None	0.0	None	0.0	None	2.3383e-06	12
2014-02-04 11:36:00	496.80551482569837	5518447088.002	3.3667275478649293e+22	9740660398669.246	10.460855127424985	1320854906879.7166	9.756716631226677e+21	-5.062972285631793e+24	1808.2041603036841	-0.6908379272715096	20.06369630372061	1.291012838801712	25.21319848770698	89.85101578411484	90.73745821619694	36.32316110868578	0.0007461380262072028	-2.236852463203346e+23	-0.1842351639393381	0.0022422205031658823	1.411302839156619e+24	0.030521646813611518	-0.19257097869610207	4.076178403477038	34.559677	95.451828	-14.581269	-67.120323	-6.790739	-57.086887	0.0		True	0.0	None	0.0	None	0.0	None	0.0	None	0.0	None	0.0	None	0.0	None	0.0	None	2.7504000000000004e-06	12
2014-02-04 11:48:00	494.1402402961129	5446980401.9848	3.3403320024296644e+22	9751891077335.32	9.544429056344493	1187348895979.146	9.668653986692815e+21	-4.963522557034236e+24	1784.3548778947181	-0.6861541214587299	20.183297162826587	1.4897843359818388	25.43730911827305	89.14402923839987	89.9733652682811	36.336649174781314	0.0006771499862606943	-1.987234428580592e+23	-0.16472399754308034	0.002078507426318291	1.3908253029821074e+24	0.027471399148631927	-0.19226678289550828	4.089614674968876	34.562767	95.342216	-14.579638	-67.047737	-6.782567	-56.927902	0.0		True	0.0	None	0.0	None	0.0	None	0.0	None	0.0	None	0.0	None	0.0	None	0.0	None	2.7869999999999997e-06	12
2014-02-04 12:00:00	497.4493642199311	5431768092.627001	3.2729767405696403e+22	9968497164819.102	9.475146828887237	1428368561433.3853	9.717992982002576e+21	-4.979998092137752e+24	1729.2375697242487	-0.6903598313164406	20.001674950799345	1.3962952568060625	25.281468515936265	88.68684960544617	89.51913502205089	35.960395288378976	0.0006648759265235588	-1.844949539720174e+23	-0.1959964698268144	0.002063978533554572	1.3712906049415144e+24	0.02557589439721682	-0.19009725168526376	4.108479294049653	34.565872	95.232574	-14.586465	-66.959503	-6.783360000000001	-56.81696700000001	0.0		True	0.0	None	0.0	None	0.0	None	0.0	None	0.0	None	0.0	None	0.0	None	0.0	None	3.7881e-06	12
2014-02-04 12:12:00	489.99111081488746	5390605691.550699	3.325420635878168e+22	9791658537338.46	12.071708323798134	980669255883.0076	9.684527521666311e+21	-4.903942527775775e+24	1752.3962928915485	-0.6850075856517451	20.37156498761623	1.8335782769962907	25.563179622209248	88.31474541209326	89.38080790954805	35.58242489029739	0.0008448252728531133	-1.6976315219903995e+23	-0.13421902858437684	0.002658026480690836	1.3705166734084228e+24	0.023713378850146925	-0.19144072595254746	4.1245712667780365	34.568935	95.122887	-14.593707	-66.874359	-6.775078	-56.652809	0.0	11971.0	True	0.0	None	0.0	None	0.0	None	0.0	None	0.0	None	0.0	None	0.0	None	0.0	None	5.141e-06	12
2014-02-04 12:24:00	495.49361127315	5421557957.502501	3.3721585002932995e+22	9961570789569.512	13.914783131842576	682804603299.8873	9.780382804652285e+21	-4.912136223568485e+24	1742.8728144607235	-0.6822346248799636	20.57079544606169	2.0934861692635045	25.66827304280732	86.78525435200632	87.35915833406028	35.431767457534235	0.0009552264111925981	-1.7826947977149976e+23	-0.03003772309641068	0.0030515589615630768	1.3741265373570115e+24	0.02475941344539949	-0.19084908481432994	3.9660771211963777	34.571983	95.013184	-14.599028	-66.786781	-6.7743910000000005	-56.524292	0.0	11971.0	True	0.0	None	0.0	None	0.0	None	0.0	None	0.0	None	0.0	None	0.0	None	0.0	None	5.9767e-06	12
2014-02-04 12:36:00	482.666521311664	5408745940.869101	3.3189311737969005e+22	9746639076692.18	13.874084878251107	840774076368.8076	9.825040000221614e+21	-4.919415957625752e+24	1687.6768829221453	-0.684864136095711	20.448689691221173	1.9921663965424088	25.75926082444375	85.84676128211942	86.77491345576937	34.817222348378586	0.0009369317178721707	-1.721938042406917e+23	-0.046375297217468366	0.003044898879959768	1.3717383372000903e+24	0.02397222800392169	-0.1909686839551812	4.003544677869086	34.574978	94.903427	-14.60643	-66.681946	-6.766111	-56.362007	0.0	11971.0	True	0.0	None	0.0	None	0.0	None	0.0	None	0.0	None	0.0	None	0.0	None	0.0	None	4.5575e-06	12
2014-02-04 12:48:00	479.4663841859674	5395419027.099701	3.2270229242973816e+22	9630906412787.695	8.561041865125471	768132310229.4072	9.791582933904523e+21	-4.94031780708624e+24	1667.9755236685528	-0.6894730006246388	20.011630307133323	1.1669412410763316	25.16887865088933	87.20223762952958	88.25119522692292	35.23109889671709	0.0005876607540585854	-1.623640142579205e+23	-0.1031239355053228	0.0018783658402825008	1.3574158423624272e+24	0.02265959569307439	-0.18944157248074525	3.9611758448468466	34.577942	94.79364	-14.607496	-66.563133	-6.762641	-56.23755600000001	0.0	11971.0	True	0.0	None	0.0	None	0.0	None	0.0	None	0.0	None	0.0	None	0.0	None	0.0	None	4.0412e-06	12
2014-02-04 13:00:00	497.84204267487314	5475582153.839201	3.295950006134898e+22	10117669484212.854	9.01020051613936	1099777834759.4014	1.0044034442865404e+22	-4.996014951480216e+24	1631.6946992342166	-0.6870382731980237	20.22822748194545	1.6370808678500983	25.589445911890287	86.0738160200651	86.96295464107477	34.97893395565487	0.0005923866217054149	-1.5706342952758314e+23	-0.1414195401595316	0.0019507841438872425	1.3893109128744607e+24	0.0215989320394686	-0.19105422617553167	3.94608775995334	34.580856	94.683807	-14.612355	-66.480408	-6.757811	-56.12226500000001	0.0	11971.0	True	0.0	None	0.0	None	0.0	None	0.0	None	0.0	None	0.0	None	0.0	None	0.0	None	4.6456e-06	12
2014-02-04 13:12:00	498.6093390264061	5450827552.302799	3.282167933861603e+22	10099783913160.266	11.454301958137885	1055538758534.6764	1.0017879860039119e+22	-4.986568879595273e+24	1633.3552710715733	-0.6888535031270818	20.194453111545428	1.6522371290727644	25.36925411074853	86.69858787408053	87.84673312686975	34.72847896263925	0.0007570089193138513	-1.5604041251349128e+23	-0.13644281862484098	0.002488537571009274	1.3826695781643494e+24	0.021555700399357083	-0.19100443723602206	3.985186315199864	34.583755	94.573952	-14.61296	-66.40926400000001	-6.7585039999999985	-55.975166	0.0	11971.0	True	0.0	None	0.0	None	0.0	None	0.0	None	0.0	None	0.0	None	0.0	None	0.0	None	4.3757e-06	12
2014-02-04 13:24:00	507.736618248802	5508354481.318001	3.3870801747378944e+22	10313804916918.217	11.655976473220573	830282300726.3099	1.0082831579167033e+22	-4.980208377849953e+24	1666.0751366183933	-0.6807900406033635	20.46042040429005	2.083877711000784	25.97954918946901	86.47286784840581	87.4993757996372	34.534650838404005	0.0007614303941220653	-1.3938954726040608e+23	-0.10608697745245772	0.002517928021300512	1.407183134195573e+24	0.019054426710567517	-0.1923606785864966	4.002014081012331	34.586609	94.464058	-14.619398	-66.334953	-6.752742	-55.859665	0.0	11971.0	True	0.0	None	0.0	None	0.0	None	0.0	None	0.0	None	0.0	None	0.0	None	0.0	None	4.3674e-06	12
2014-02-04 13:36:00	501.8482738361993	5568858448.780601	3.431405102376233e+22	10109022129252.748	10.232326182899923	1072154055912.3154	1.018444998915607e+22	-5.045286534244312e+24	1677.0321012245968	-0.6821927861055376	20.568728452593426	1.9341857597196082	25.75795606476823	86.70885008986477	87.66800149076711	34.49305923078185	0.0006641348856299035	-1.5177370984722204e+23	-0.13611449348366025	0.0021845521989874504	1.4348527927080324e+24	0.020521912734884545	-0.19401201847803806	4.0020557958255365	34.589424	94.354126	-14.620215	-66.257698	-6.7553259999999975	-55.751072	0.0	11971.0	True	0.0	None	0.0	None	0.0	None	0.0	None	0.0	None	0.0	None	0.0	None	0.0	None	4.9516e-06	12
2014-02-04 13:48:00	502.47933396994455	5578910482.988001	3.4392060410832594e+22	10232784047521.707	12.985101978655248	883658412910.3055	1.0221884025597478e+22	-5.052688892194193e+24	1671.8381660528141	-0.6819627033110048	20.429756816420266	1.6010329244673982	25.772869272802605	87.70747779516554	88.50834274126917	34.65700963622176	0.0008382893465884603	-1.3902356581647545e+23	-0.11158578685949756	0.002767640047181509	1.4394703004975913e+24	0.01876404599432344	-0.19428567212594428	4.0153652645028295	34.592213	94.244164	-14.625519	-66.18289200000001	-6.748578	-55.635464	0.0	11971.0	True	0.0	None	0.0	None	0.0	None	0.0	None	0.0	None	0.0	None	0.0	None	0.0	None	7.7924e-06	12
2014-02-04 14:00:00	505.6078366439904	5551821660.823601	3.3959034543199964e+22	10347240872121.438	17.953946268582452	1126600256219.0718	1.0227009620587984e+22	-5.044228503803469e+24	1639.0432488029626	-0.6841427993189427	20.60290598375772	2.0191013396577144	25.92292795634972	87.29099241312149	88.5781020224284	34.623963544716894	0.0011508202210488078	-1.6348485152891524e+23	-0.0502194309109176	0.0038403914755597616	1.4231058166213433e+24	0.022173258782170257	-0.19301417379808872	3.952009979365561	34.594963	94.134163	-14.626394	-66.101303	-6.7514660000000015	-55.521858	0.0	11971.0	True	0.0	None	0.0	None	0.0	None	0.0	None	0.0	None	0.0	None	0.0	None	0.0	None	7.7145e-06	12
2014-02-04 14:12:00	513.5998611116122	5537596395.717199	3.3750537448967947e+22	10408355574243.422	17.430062861773738	830908937421.9229	1.0196674469142005e+22	-5.048807195251381e+24	1643.6244177014655	-0.6865229299073585	20.522593779117997	1.6750743758892768	25.630899655949	87.63797547118345	88.46602151784764	34.79924640685069	0.0011273567597033655	-1.5922427644209818e+23	-0.08493514804707278	0.0037329228483395467	1.425733884862055e+24	0.02165087961335109	-0.19386737620408656	3.8513427381756498	34.597683	94.024132	-14.637523000000002	-66.009872	-6.7509380000000005	-55.400036	0.0	11971.0	True	0.0	None	0.0	None	0.0	None	0.0	None	0.0	None	0.0	None	0.0	None	0.0	None	6.0652e-06	12
2014-02-04 14:24:00	518.3032705416297	5597397256.8204	3.4514206892410964e+22	10574622785743.004	14.504700559743329	567666502139.3748	1.024306456443414e+22	-5.071044619632479e+24	1672.3778210220264	-0.6821797396090944	20.82769267327488	2.0849420849420848	26.026095972313207	88.14676920181064	89.1155598032794	34.675527879677965	0.0009334384812242312	-1.599165060832818e+23	-0.07145784009728605	0.003081239479793185	1.4359940756773807e+24	0.021512687949291943	-0.1931763843751772	3.7864171413161496	34.600372	93.91407	-14.647838	-65.88295	-6.749667999999999	-55.250278	0.0	11971.0	True	0.0	None	0.0	None	0.0	None	0.0	None	0.0	None	0.0	None	0.0	None	0.0	None	4.2514e-06	12
2014-02-04 14:36:00	533.5314787142395	5698010942.5479	3.53909547790064e+22	10785757221685.695	20.95799613582916	590519002143.2776	1.0368846495905265e+22	-5.147714276259293e+24	1703.8956712392194	-0.6802657780413898	20.78013369348381	2.1419437340153453	26.03160723209321	89.78218463534371	90.54144181705692	35.35668925290478	0.0013400253283778235	-1.7006291475800024e+23	-0.018491669865931933	0.004378027553136441	1.466312655422098e+24	0.02247366011695291	-0.193771889009639	3.899006221206813	34.603035	93.803986	-14.660106	-65.79984300000001	-6.710416	-55.101837	0.0	11971.0	True	0.0	None	0.0	None	0.0	None	0.0	None	0.0	None	0.0	None	0.0	None	0.0	None	6.4987e-06	12
2014-02-04 14:48:00	537.5630013965284	5672423610.671	3.5262286514308598e+22	10841623028187.186	25.62837781991665	1176397780077.7651	1.031638920599699e+22	-5.13000802689846e+24	1705.7718754745858	-0.6809839785262194	20.820486048263884	2.171399203392008	26.00109304709023	89.74749938026	90.8079531394936	35.712868254437815	0.0016464331119052198	-1.9003084427682267e+23	-0.03380862508686353	0.005375500211332919	1.4719791092078234e+24	0.025225683800063296	-0.1953981718624833	3.9961159984907373	34.605667	93.693863	-14.672976	-65.72794300000001	-6.688691	-54.989422	0.0	11971.0	True	0.0	None	0.0	None	0.0	None	0.0	None	0.0	None	0.0	None	0.0	None	0.0	None	5.7497e-06	12
2014-02-04 15:00:00	543.6438722295528	5729097258.353901	3.5288783916364697e+22	11028613082091.418	20.88356417537932	557251142671.9209	1.040893045600586e+22	-5.187067634975163e+24	1698.4339883645932	-0.6817470432791926	20.683518269813472	1.981463726430169	25.871033325118646	90.36235560809557	91.29341067864479	36.12837763533699	0.001334924838620514	-1.838746425611376e+23	-0.03103336528203092	0.004335131951008265	1.4948356376135115e+24	0.024167025132818456	-0.19646934411647746	3.9881976954436738	34.608261	93.58371	-14.679201	-65.653679	-6.666092999999999	-54.87537	0.0	11971.0	True	0.0	None	0.0	None	0.0	None	0.0	None	0.0	None	0.0	None	0.0	None	0.0	None	3.4344e-06	12
2014-02-04 15:12:00	546.9311416353735	5784063532.7791	3.6050775932785738e+22	11268773768714.512	23.89543394774354	706335444961.8777	1.0509463157176357e+22	-5.207837551669383e+24	1700.756308124455	-0.677972292759749	21.133980470850727	2.3181504918238205	26.43620390777828	89.27085126197393	89.98290971133171	35.98434642038917	0.0014972076408360615	-1.740459167108661e+23	-0.0054312949905508	0.00492423004878709	1.5097956593305677e+24	0.022657832166848902	-0.1965498375476295	3.996387909496255	34.610825	93.473526	-14.690979	-65.566841	-6.649386	-54.756756	0.0	11971.0	True	0.0	None	0.0	None	0.0	None	0.0	None	0.0	None	0.0	None	0.0	None	0.0	None	3.3038e-06	12
2014-02-04 15:24:00	543.1346801966971	5807707776.4581	3.685184043309399e+22	11181455876395.033	26.353361093411326	460023761231.5149	1.051496539130512e+22	-5.192682480750278e+24	1735.394280572065	-0.6732470434109675	21.363747526118146	2.632895559724828	26.69119030555121	89.22655133423052	90.12035457500008	36.05691585612168	0.0016481151403008956	-1.8940815032919542e+23	-0.025118441359376385	0.005423769019499453	1.5196072437420543e+24	0.02455734154356499	-0.19702169115632245	4.022321090150302	34.613369	93.363319	-14.696889	-65.505402	-6.6212399999999985	-54.62925	0.0	11971.0	True	0.0	None	0.0	None	0.0	None	0.0	None	0.0	None	0.0	None	0.0	None	0.0	None	7.5496000000000005e-06	12
2014-02-04 15:36:00	571.2940921561169	5900478784.1588	3.783207979793019e+22	11596698532259.06	33.538822516976126	1179434441371.6826	1.0612204769086894e+22	-5.270259253532565e+24	1776.9989774599564	-0.6725619619140042	21.438113481348495	2.7758717484873063	26.526931466700955	90.73715356994518	91.61169045798056	36.64570171119926	0.0020921229191551453	-1.9133684897729058e+23	-0.11466678810875468	0.006796860213336429	1.5525460819562933e+24	0.02441737310139992	-0.19812752819370824	4.054053010079788	34.615891	93.25309	-14.690559	-65.433334	-6.544139	-54.475967	0.0	11971.0	True	0.0	None	0.0	None	0.0	None	0.0	None	0.0	None	0.0	None	0.0	None	0.0	None	1.2805999999999999e-05	12
2014-02-04 15:48:00	583.4786345656657	5985658514.5256	3.879050470604578e+22	11901475597310.055	37.133388416675785	1298562005261.13	1.0721689830941757e+22	-5.319900361192784e+24	1812.9690201174944	-0.6692355645039475	21.323804907809254	2.7496741356836942	26.51785685908317	91.75271803563587	92.24851881978356	37.620218523677046	0.002304846900668846	-2.0553804403087648e+23	-0.10768108245408604	0.007433015020340019	1.5884148257500814e+24	0.025856380681009542	-0.19982022601997607	4.0557943149122035	34.618396999999995	93.142845	-14.697309	-65.359764	-6.522817	-54.314117	0.0	11971.0	True	0.0	None	0.0	None	0.0	None	0.0	None	0.0	None	0.0	None	0.0	None	0.0	None	1.2295e-05	12
2014-02-04 16:00:00	596.7970330879092	6119206470.0492	3.9813097458164e+22	12426166516855.336	41.980105372260674	1322488049366.287	1.0990876788424064e+22	-5.446178470702734e+24	1814.36450877408	-0.6701688532810085	21.43323772794632	2.1243115656963023	26.291212481463518	92.05775707670016	92.8986531865887	37.748569849702896	0.0025408609957790016	-2.1124091263365185e+23	-0.02500477726431269	0.008215862750463898	1.6481456788979178e+24	0.025993837871321427	-0.20280934706947745	4.048246234039383	34.620872	93.03257	-14.703189000000002	-65.289124	-6.499846	-54.15292700000001	0.0	11971.0	True	0.0	None	0.0	None	0.0	None	0.0	None	0.0	None	0.0	None	0.0	None	0.0	None	1.564e-05	12
2014-02-04 16:12:00	613.2356080765619	6248864937.050501	4.112560918837289e+22	12565822531990.06	46.77231310665046	1411074052922.576	1.1197643068671596e+22	-5.555054416853168e+24	1852.650450267356	-0.6693830372796064	21.33802322068968	1.938378701764882	26.0906862924436	92.4340286388994	92.98434944105014	38.016272114795974	0.002798391354950966	-2.1027240128202687e+23	-0.12639753081533187	0.008968719510035781	1.688655020696691e+24	0.02533778574683577	-0.20348261994375444	4.129847299427802	34.623321999999995	92.922272	-14.697953	-65.209724	-6.482996	-54.000938	0.0	11971.0	True	0.0	None	0.0	None	0.0	None	0.0	None	0.0	None	0.0	None	0.0	None	0.0	None	1.354e-05	12
2014-02-04 16:24:00	622.7213609214286	6379145922.971999	4.233680357031881e+22	12959508470653.324	40.117235077288974	2148210128896.782	1.1426392775395302e+22	-5.648710648740882e+24	1856.6725933579528	-0.6667673854040272	21.641844818263728	2.364589400116482	26.393090350004115	92.21848615786043	92.82243022782171	38.325273901420665	0.002336472631175829	-2.23499946841173e+23	-0.2447982191514365	0.007546115678897357	1.738571254192407e+24	0.02638167972481396	-0.2052189750159829	4.140827939163199	34.625702000000004	92.811951	-14.698114000000002	-65.13224	-6.471768	-53.892254	0.0	11971.0	True	0.0	None	0.0	None	0.0	None	0.0	None	0.0	None	0.0	None	0.0	None	0.0	None	1.1876e-05	12
2014-02-04 16:36:00	644.7782421473519	6543234977.81	4.545884707239503e+22	13766646144958.914	50.40878193721765	1715063065148.7842	1.169308340100861e+22	-5.697604367612944e+24	1915.8181093652993	-0.6556729499819864	22.623711190126944	4.029775563888734	27.513694145430822	92.52339624395852	93.90872172735708	38.82225404341485	0.002821492328289357	-2.38117261981712e+23	-0.16399131281512302	0.009306643643583185	1.7932834690560722e+24	0.027402226889016737	-0.2063687449050695	4.169779136248915	34.628170000000004	92.701622	-14.701516	-64.99897800000001	-6.47078	-53.74763100000001	0.0	11971.0	True	0.0	None	0.0	None	0.0	None	0.0	None	0.0	None	0.0	None	0.0	None	0.0	None	1.2183e-05	12
2014-02-04 16:48:00	692.2121044220517	6786374506.3683	4.90812254337008e+22	14976819536816.127	48.88514042785141	1091132440508.9244	1.2142627410783593e+22	-5.828571077986314e+24	1959.5720420356174	-0.6467133110958783	23.26493425569552	4.957582184517497	27.98103448802392	93.35227424412807	94.9836132413817	39.58324319175478	0.002592001083131039	-2.2636990177828755e+23	-0.11320158029038332	0.008748851481482744	1.8660601729046813e+24	0.02511703584852961	-0.20705005343098049	4.153351900293624	34.630520000000004	92.59127	-14.702325	-64.920753	-6.460039	-53.638634	0.0	11971.0	True	0.0	None	0.0	None	0.0	None	0.0	None	0.0	None	0.0	None	0.0	None	0.0	None	1.1374000000000005e-05	12
2014-02-04 17:00:00	717.4308676350868	6966272225.0338	5.023730723846735e+22	15770544592420.37	39.50326480186824	1289295563866.2932	1.25727877857907e+22	-5.98869711073249e+24	1911.2796378275464	-0.6473206614680237	23.213734921156863	4.719078415521422	27.981326893213023	93.19914686735129	94.78306479322279	39.41286629302003	0.0019960216665084246	-2.2410975566731184e+23	-0.12746365770654808	0.006884745265491627	1.941897081497217e+24	0.02422411295772772	-0.2099004307706344	4.245873002010962	34.632961	92.480911	-14.706666	-64.793373	-6.454543	-53.497272	0.0	11971.0	True	0.0	None	0.0	None	0.0	None	0.0	None	0.0	None	0.0	None	0.0	None	0.0	None	9.8628e-06	12
2014-02-04 17:12:00	714.9273642483977	7141074474.7216015	5.239989125363673e+22	16032638559307.488	40.72702589488833	2607455707359.455	1.2912538721628514e+22	-6.101135408428822e+24	1915.1750160274398	-0.6433311289819175	23.69295039459659	5.5577128434132606	28.486545956040978	91.76157831355756	93.55801155796206	38.71132994252157	0.00197694412382352	-1.9483406695528256e+23	-0.2476494625660351	0.0069414976535542615	2.0207806848270644e+24	0.020544179380991474	-0.2130801944829208	4.282227126004623	34.635288	92.370537	-14.728828	-64.707352	-6.431419	-53.364769	0.0	11971.0	True	0.0	None	0.0	None	0.0	None	0.0	None	0.0	None	0.0	None	0.0	None	0.0	None	8.0912e-06	12
2014-02-04 17:24:00	748.4126693138803	7326984618.0879	5.5059922130908064e+22	17216788629916.02	41.518505094869596	1509263958448.1223	1.3374127226552958e+22	-6.210838376108249e+24	1909.3398200710785	-0.6382817376375165	24.014010783399602	5.9961315280464245	28.75537427156241	92.01661611143291	93.88279997681913	38.91138276566646	0.0019121496382291528	-1.8373463215946265e+23	-0.13600694373821495	0.006917663715810736	2.085433239328601e+24	0.018882227032353826	-0.21431791830972846	4.266369457460434	34.637695	92.260147	-14.787608	-64.579491	-6.414088	-53.248657	0.0	11971.0	True	0.0	None	0.0	None	0.0	None	0.0	None	0.0	None	0.0	None	0.0	None	0.0	None	6.7373e-06	12
2014-02-04 17:36:00	762.8713900882428	7468796182.6602	5.710469015070425e+22	17820563143805.348	46.986419832553615	1577884701433.4675	1.368359116156774e+22	-6.29703154693487e+24	1903.2043519962479	-0.6348524588834832	24.546466723816124	7.019873412118797	29.2713879682127	90.88208374718741	93.01185013960222	38.83232036147449	0.0020796892768801672	-1.6920908615970596e+23	-0.06977275069832996	0.0076961438687915985	2.131482458030016e+24	0.017059276837545045	-0.21489123398246845	4.2675293304520565	34.640007000000004	92.149757	-14.80156	-64.483612	-6.367074	-53.06597900000001	0.0	11971.0	True	0.0	None	0.0	None	0.0	None	0.0	None	0.0	None	0.0	None	0.0	None	0.0	None	6.8402e-06	12
2014-02-04 17:48:00	748.2002127164035	7548524520.7547	5.7241491915982315e+22	17450811204401.22	43.45837768010226	1244317750872.021	1.3854443901408768e+22	-6.381608581356276e+24	1884.656761741317	-0.6365837965250024	24.40922905688366	7.105378224748579	29.15014209739764	90.25005604311713	92.32724960970819	38.579629168258684	0.001900235141237528	-1.5189434949054737e+23	-0.04851192771508047	0.0070356331804121005	2.1399584264410312e+24	0.015151897901083441	-0.2134670032081444	4.291626553159984	34.642357000000004	92.03936	-14.842288	-64.37429	-6.344349	-52.910336	0.0	11971.0	True	0.0	None	0.0	None	0.0	None	0.0	None	0.0	None	0.0	None	0.0	None	0.0	None	6.6925e-06	12
2014-02-04 18:00:00	737.1532299968696	7545599556.839202	5.723894433832396e+22	17408609373427.7	42.461732983949254	852017683026.823	1.387315628718031e+22	-6.373626786682475e+24	1867.9113413191787	-0.6360341107752577	24.641903860529126	7.298257779318713	29.422952231230703	90.22572831951156	92.48188557993124	37.827022548245935	0.0018402415265644995	-1.6414907811912397e+23	-0.03439709912662138	0.006879258082252862	2.139237330277245e+24	0.01638069131286846	-0.2134778139101461	4.220907361374138	34.644707000000004	91.928955	-14.852762	-64.30699200000001	-6.3263050000000005	-52.763218	66560.0	11971.0	False	0.0	None	0.0	None	0.0	None	0.0	None	0.0	None	0.0	None	0.0	None	0.0	None	5.7442e-06	12
2014-02-04 18:12:00	730.2937644828368	7617465624.8717	5.823166679476644e+22	16976417067952.473	41.60149358254872	987350315701.638	1.3917644702717084e+22	-6.384878919918825e+24	1897.347179031952	-0.6311457947663631	24.46457377633989	7.602769363911728	29.88125734215097	90.40360911691992	92.51610410455584	37.51773105646331	0.0018001511718973913	-1.3810991477914306e+23	-0.05264114163976776	0.006696311295982072	2.1571443357924813e+24	0.013652176184024669	-0.2132338910910488	4.2160638448703365	34.647049	91.81855	-14.871924	-64.239159	-6.308942	-52.616135	66560.0	11971.0	False	0.0	None	0.0	None	0.0	None	0.0	None	0.0	None	0.0	None	0.0	None	0.0	None	5.5465e-06	12
2014-02-04 18:24:00	723.6103423794408	7613382536.700902	5.726959505475537e+22	16505244443754.275	44.16597073979335	1129722905804.1829	1.3890447859725793e+22	-6.407868597285915e+24	1882.947442749265	-0.633757981474517	23.708929784128298	6.523447733822374	29.52088950374795	90.19193745031387	92.28643110197693	37.58661616047597	0.0019286450104713246	-1.23133082601352e+23	-0.0013157036768196642	0.0071023277805985	2.1138974316233264e+24	0.012178241906399365	-0.20907098030649407	4.261773166853389	34.649387	91.708138	-14.900022	-64.20423100000001	-6.292552	-52.509556	0.0	11971.0	True	0.0	None	0.0	None	0.0	None	0.0	None	0.0	None	0.0	None	0.0	None	0.0	None	4.4708e-06	12
2014-02-04 18:36:00	722.0582781896373	7643465221.633101	5.69158241888398e+22	16356644778114.795	43.20799473530383	1529891123979.5735	1.3968243409244603e+22	-6.441385314231908e+24	1851.7491721028075	-0.6345656151983369	23.66308995718592	6.424991358451433	29.45322899046186	90.20356440535929	92.38556676902843	37.77998020031321	0.0018669199246156168	-1.1875177205935072e+23	-0.058260473879912886	0.006916740055193682	2.092736464243402e+24	0.011698693311552072	-0.2061635094156697	4.237852514917701	34.651733	91.597733	-14.91155	-64.136108	-6.2992019999999975	-52.387562	0.0	11971.0	True	0.0	None	0.0	None	0.0	None	0.0	None	0.0	None	0.0	None	0.0	None	0.0	None	3.8035e-06	12
2014-02-04 18:48:00	728.5899779935512	7655920680.6787	5.506583191749585e+22	16381341011489.955	31.188633811816867	506693479471.8743	1.3977185464372364e+22	-6.54267294769779e+24	1801.8362698956214	-0.6434951404717739	23.250361296053534	5.631844255171214	28.926081815350017	89.8892887967067	91.87742161371573	37.60188073875845	0.0013553793321375374	-6.734977286968346e+22	-0.043087649266053976	0.0049581427350526034	2.066008575383704e+24	0.006624089557887664	-0.20319928705900447	4.272709529142167	34.654076	91.487328	-14.922954	-64.08557900000001	-6.287627	-52.265732	0.0	11971.0	True	0.0	None	0.0	None	0.0	None	0.0	None	0.0	None	0.0	None	0.0	None	0.0	None	4.7363e-06	12
2014-02-04 19:00:00	733.1912108627147	7711299682.9751	5.595070000027827e+22	16171584147240.785	39.57246141572347	1071436530966.9832	1.3931038549698964e+22	-6.57147901157912e+24	1857.181155067253	-0.6416867492092615	23.25512036864005	5.7835574167952375	28.84477267255593	91.46845981446738	93.234418724292	37.81911556159604	0.0017445867572950435	-7.69719227458545e+22	-0.0200020237814837	0.00625187070979021	2.0925916176071784e+24	0.0075160953569423285	-0.2043357834908811	4.268782374475817	34.656425	91.376923	-14.933924	-64.019287	-6.288151	-52.153038	0.0	11971.0	True	0.0	None	0.0	None	0.0	None	0.0	None	0.0	None	0.0	None	0.0	None	0.0	None	4.0958e-06	12
2014-02-04 19:12:00	716.6458824755922	7628755796.2013	5.46713724032888e+22	15735719947304.953	35.24077810771047	519388529220.3665	1.370452040649869e+22	-6.502254751142096e+24	1849.3634980149275	-0.6417970745532444	23.171707887079684	6.087151841868822	28.984276556405028	91.65205761298422	93.4939602251887	37.37582587533253	0.0015831436706069393	-8.502426617935797e+22	0.04565951318660322	0.005627328837067333	2.060691281832964e+24	0.008392215837185338	-0.20339800374715733	4.299696577206723	34.658783	91.266533	-14.944820000000002	-63.955402	-6.281545	-52.026379	0.0	11971.0	True	0.0	None	0.0	None	0.0	None	0.0	None	0.0	None	0.0	None	0.0	None	0.0	None	3.4554000000000017e-06	12
2014-02-04 19:24:00	707.7155205914992	7611240710.082398	5.43641299154184e+22	15294015477795.11	36.217521309877576	557031023141.4741	1.3551093847564829e+22	-6.503571438331689e+24	1880.361834779644	-0.6434041730429234	23.06870387182746	6.123105190629307	28.93237385862589	92.59224940572328	94.19522866904505	37.366389526600315	0.0016636436063333757	-5.220068114656182e+22	0.050070877358141336	0.005790937497849571	2.0625374844557912e+24	0.005164260345850299	-0.20404868880731888	4.261372153970576	34.661148	91.156151	-14.95544	-63.887226	-6.2818	-51.91265900000001	0.0	11971.0	True	0.0	None	0.0	None	0.0	None	0.0	None	0.0	None	0.0	None	0.0	None	0.0	None	3.6829000000000003e-06	12
2014-02-04 19:36:00	713.4073862077076	7524190619.106502	5.339645925291101e+22	15136728805506.012	30.29654656038424	831472016481.9243	1.3297048444642896e+22	-6.44702455090872e+24	1903.3724880584346	-0.6451890993660891	22.96843181362631	5.728081802688885	28.78438628961293	93.36667534313601	95.62399565248569	37.47930414612068	0.0014342239424533349	-5.127974179583281e+22	0.0770256546721899	0.004894941544907351	2.032287380333582e+24	0.0051318449563396784	-0.20338214229162124	4.240903377660528	34.663517	91.045769	-14.971291	-63.806179	-6.274895	-51.809845	0.0	11971.0	True	0.0	None	0.0	None	0.0	None	0.0	None	0.0	None	0.0	None	0.0	None	0.0	None	5.4601e-06	12
2014-02-04 19:48:00	714.7171840180682	7570501987.3838	5.369041193444859e+22	14798465434946.402	26.439698203508897	1034367569178.8008	1.3208037537120086e+22	-6.481040429271676e+24	1964.0590396557654	-0.6446257185603711	22.717888762740483	5.392537893509521	28.460763718767858	95.83548048696306	97.72216171340807	38.21654848732022	0.0012846029639252206	-2.2187525733182998e+22	0.09833499879826564	0.004247602506886053	2.0170537253820592e+24	0.0022068446995380203	-0.20062283537481368	4.188051032737442	34.665909	90.93541	-14.983065	-63.68334599999999	-6.281848	-51.682781	0.0	11971.0	True	0.0	None	0.0	None	0.0	None	0.0	None	0.0	None	0.0	None	0.0	None	0.0	None	5.4315e-06	12
2014-02-04 20:00:00	740.9103783379628	7631655980.778002	5.361430148349653e+22	15288362557773.762	41.72864495119772	1148387968234.7676	1.3139627829117212e+22	-6.53874017081496e+24	2007.701939644096	-0.645153055005222	22.37209018572509	4.799084941316889	28.19165103641313	97.85372387751787	99.93965554815962	39.457664289793655	0.002075226027014011	-1.5202996237984218e+22	0.11175861456258893	0.0066472067121583255	2.0277365273599752e+24	0.0015000228196781153	-0.20006918476604946	4.199016478049023	34.668308	90.825058	-14.997087	-63.59490600000001	-6.281942	-51.564648	0.0	11971.0	True	0.0	None	0.0	None	0.0	None	0.0	None	0.0	None	0.0	None	0.0	None	0.0	None	4.384e-06	12
2014-02-04 20:12:00	735.0017449585374	7624082695.9653015	5.362769425852153e+22	14953584768287.79	39.754842302660094	410271419229.5361	1.2960429499087432e+22	-6.526562044058169e+24	2070.924207642893	-0.6445910808534425	22.37563217881502	5.000256423406328	28.04509854083414	98.66963186741668	100.86741813455244	40.11080571009028	0.002038918981570423	-2.87315732915621e+22	-0.0411735097610121	0.006341416235789866	2.0065158334097643e+24	0.002837652619802913	-0.19817205460946336	4.2148277248022215	34.670722999999995	90.714722	-15.007717	-63.480598	-6.2801290000000005	-51.461674	0.0	11971.0	True	0.0	None	0.0	None	0.0	None	0.0	None	0.0	None	0.0	None	0.0	None	0.0	None	4.0942000000000005e-06	12
2014-02-04 20:24:00	747.8677068967445	7637200311.1849	5.592659683892141e+22	15348135235448.596	56.05558878853853	892256850263.8341	1.2807299488299845e+22	-6.413699222223554e+24	2189.00104819709	-0.6323563799413847	22.96001439094493	5.780226634785321	28.45069368684672	99.53167733100723	102.3415082614089	40.714967874936015	0.0029140979823528037	-5.040124250990288e+22	0.02474965220721321	0.008993325156693011	2.0302397354610096e+24	0.004969292471289374	-0.20017076028148825	4.212201407573859	34.673157	90.604408	-15.021629999999998	-63.357376	-6.2840620000000005	-51.333931	0.0	11971.0	True	0.0	None	0.0	None	0.0	None	0.0	None	0.0	None	0.0	None	0.0	None	0.0	None	4.447e-06	12
2014-02-04 20:36:00	799.122277138616	7760303383.699	5.594549686670407e+22	15811412863859.494	41.19779513872105	925705172120.5424	1.2965771357578689e+22	-6.565855409469905e+24	2200.377714460259	-0.6370889723501001	22.477278429907788	4.586053799947766	27.88883570139772	100.91333800019821	103.11322748369496	41.7263177718528	0.0021518827442528624	-4.038085907565558e+22	-0.03317728705500689	0.006485642206514318	2.0321871251369225e+24	0.0039181794917412935	-0.19718436158512853	4.190262244950514	34.675606	90.494102	-15.041534	-63.269089	-6.2835779999999986	-51.208004	0.0	11971.0	True	0.0	None	0.0	None	0.0	None	0.0	None	0.0	None	0.0	None	0.0	None	0.0	None	3.4816000000000007e-06	12
