Timestamp	TOTUSJH	TOTBSQ	TOTPOT	TOTUSJZ	ABSNJZH	SAVNCPP	USFLUX	TOTFZ	MEANPOT	EPSZ	MEANSHR	SHRGT45	MEANGAM	MEANGBT	MEANGBZ	MEANGBH	MEANJZH	TOTFY	MEANJZD	MEANALP	TOTFX	EPSY	EPSX	R_VALUE	CRVAL1	CRLN_OBS	LAT_MIN	LON_MIN	LAT_MAX	LON_MAX	QUALITY	NOAA_AR	IS_TMFI	BFLARE	BFLARE_label	CFLARE	CFLARE_label	MFLARE	MFLARE_label	XFLARE	XFLARE_label	BFLARE_loc	BFLARE_label_loc	CFLARE_loc	CFLARE_label_loc	MFLARE_loc	MFLARE_label_loc	XFLARE_loc	XFLARE_label_loc	XR_MAX	XR_QUAL
2014-02-18 06:36:00	129.7588164125268	1001832688.0018	7.494107066905475e+21	2872573322792.68	13.514374654056358	1105551784798.7256	1.9266212907007098e+21	-8.548597946069727e+23	1904.4772295291352	-0.6425208669113055	23.236998980302968	2.497468781640229	27.50819649012294	127.43638302651108	129.51378002845345	46.72143560367181	0.0045610444326886134	-2.3706560459878886e+23	0.7258196792102326	0.016425547585826792	3.280263593056441e+23	0.17818079495912714	-0.24654777553051474	0.0	237.757828	273.837128	-23.985846	-40.751587	-18.566555	-31.835878000000005	0.0		True	0.0	None	0.0	None	0.0	None	0.0	None	0.0	None	0.0	None	0.0	None	0.0	None	1.3763999999999999e-06	12
2014-02-18 06:48:00	122.26895955178999	963848522.1028	7.147839028879854e+21	2684884277135.4688	13.164006245108455	1305267575320.3987	1.825879518228832e+21	-8.118024407558858e+23	1925.6633142564613	-0.6342039934982686	23.144325358263373	2.6833631484794283	27.94285717111677	127.99164830753212	129.71515115179238	47.22617189313458	0.004709841232596944	-2.335032457574828e+23	0.9084368113705592	0.016714870726287044	3.170648619421611e+23	0.18241961777832894	-0.2477004152075012	0.0	237.759705	273.727997	-23.99165	-40.649731	-18.57011	-31.725273	0.0		True	0.0	None	0.0	None	0.0	None	0.0	None	0.0	None	0.0	None	0.0	None	0.0	None	1.0712e-06	12
2014-02-18 07:00:00	122.49830121560915	962411961.1731	7.219167292950729e+21	2741152221657.6426	9.852644465086332	900227993163.364	1.8487123736171847e+21	-8.145676846425712e+23	1890.761278944642	-0.6373142184831813	23.32115527996954	3.0608695652173914	27.766309989155282	128.99092568715844	130.17351334657184	47.12620024077607	0.0034281991875735325	-2.231578375729241e+23	0.6090993770556038	0.012510671196798842	3.20918771863871e+23	0.17459772285662306	-0.25108545323247194	0.0	237.761627	273.618835	-23.999414	-40.54636	-18.575609	-31.613234	0.0		True	0.0	None	0.0	None	0.0	None	0.0	None	0.0	None	0.0	None	0.0	None	0.0	None	1.1306e-06	12
2014-02-18 07:12:00	120.11493507225927	972703521.1572	7.391733366762955e+21	2686473121810.979	7.932383996800357	603204363909.1846	1.8643377308040115e+21	-8.136754065676748e+23	1912.0157486961414	-0.6298803779738582	23.28732864445888	2.713844039848849	27.998200928559605	130.00436055552828	130.76299295029466	47.8280990731142	0.0027249687381657017	-2.17438176508017e+23	0.4030814489364093	0.01000685267585645	3.294200485328837e+23	0.1683226993212865	-0.2550098270234517	0.0	237.76355	273.509705	-24.00692	-40.43441	-18.580881	-31.508633000000003	0.0		True	0.0	None	0.0	None	0.0	None	0.0	None	0.0	None	0.0	None	0.0	None	0.0	None	1.1264e-06	12
2014-02-18 07:24:00	124.3431094428623	976551496.3276	7.525474946520291e+21	2815470388418.501	12.226819068797832	758614979085.7094	1.88237657065732e+21	-8.155861039401925e+23	1902.177084902644	-0.6288719185100522	23.35864673309895	2.7526015441423297	28.139302819072906	129.57211556517453	129.41315975592406	47.790536448849316	0.004104336713258755	-2.081669172519107e+23	0.4953582235104661	0.015373097984049504	3.4128223123859244e+23	0.16051073944257896	-0.2631516285963393	0.0	237.765472	273.400574	-24.013998	-40.331696	-18.585739	-31.397217	67584.0		False	0.0	None	0.0	None	0.0	None	0.0	None	0.0	None	0.0	None	0.0	None	0.0	None	9.8277e-07	12
2014-02-18 07:36:00	121.8529857966666	966335150.0667	7.12386032148419e+21	2697692015413.6934	14.991158113894794	976049618104.3011	1.845971439520369e+21	-8.158884978462334e+23	1866.4489035745291	-0.6357560573758442	22.798012985265625	2.2616562282533055	27.78943365219027	131.13058839833423	130.32664120893816	48.86225439500763	0.005216130171849269	-1.865782720204176e+23	0.6606203692102551	0.018967883173594817	3.4444970837454755e+23	0.14538538896531164	-0.26840185777656705	0.0	237.76741	273.29141200000004	-24.01593	-40.219261	-18.590763	-31.293665	0.0		True	0.0	None	0.0	None	0.0	None	0.0	None	0.0	None	0.0	None	0.0	None	0.0	None	9.352500000000001e-07	12
2014-02-18 07:48:00	122.94920898828748	980212581.1791	7.305636131995067e+21	2766258223101.467	12.746161496175544	828984511094.6741	1.9017927767643366e+21	-8.266915799377146e+23	1817.9275907779136	-0.6350540773619817	22.92837809957167	1.7184401850627893	27.90117526744201	128.40226482473454	127.58149638487387	47.99735441433998	0.004212214638524636	-1.845037688003152e+23	0.5328971431452609	0.01590585499850817	3.5606797498453165e+23	0.14173347534774758	-0.2735269413884531	0.0	237.769302	273.18225099999995	-24.022543	-40.110031	-18.587124	-31.18355	0.0		True	0.0	None	0.0	None	0.0	None	0.0	None	0.0	None	0.0	None	0.0	None	0.0	None	1.0101999999999999e-06	12
2014-02-18 08:00:00	128.01016138111606	990447488.8283	7.305102625201403e+21	2918496655159.7363	14.066294087378125	770412045290.1907	1.946281808098169e+21	-8.288259062808948e+23	1731.9417894823246	-0.630114285219709	22.87376616601933	2.141057934508816	28.2477836550068	127.5939281143827	126.302119552014	46.92824759847332	0.004428933906605204	-1.8229980168047293e+23	0.4718546042389065	0.01742449420011979	3.659337133428709e+23	0.13859329005174192	-0.2782008362353141	0.0	237.771164	273.073059	-24.027466	-39.998177	-18.576237	-31.079298	0.0		True	0.0	None	0.0	None	0.0	None	0.0	None	0.0	None	0.0	None	0.0	None	0.0	None	1.0183e-06	12
2014-02-18 08:12:00	126.01601394966482	987336109.3541	7.255318121032684e+21	2793320749180.2	15.322289914979148	1046411422225.352	1.929647027907387e+21	-8.331399187339236e+23	1763.4476323962685	-0.6353901006526527	22.469947517700554	1.8076178179470628	27.970879243926248	130.00367368006474	128.77514797874224	47.554939974444935	0.004947462032605473	-1.7801751873877524e+23	0.6570329083632966	0.018986780552660246	3.633418091068279e+23	0.13576419351176178	-0.2771008608140337	0.0	237.773102	272.963898	-24.032143	-39.886131	-18.556604	-30.968323	0.0		True	0.0	None	0.0	None	0.0	None	0.0	None	0.0	None	0.0	None	0.0	None	0.0	None	1.0017e-06	12
2014-02-18 08:24:00	125.56707174605197	985602171.6961	7.349392216489513e+21	2834398651650.2515	13.120082308044706	677538597805.9001	1.9499063542009412e+21	-8.32829687704904e+23	1745.7403193234604	-0.6362708482213679	22.702336613030106	1.9242902208201893	27.91085545901453	128.97466578355022	127.27685281857192	47.742768204145676	0.004138827226512525	-1.6903912478705366e+23	0.4157591590839152	0.016270830107770553	3.670282999725652e+23	0.1291436519359119	-0.28040475885093225	0.0	237.774872	272.854675	-24.037838	-39.775089	-18.554613	-30.856279	0.0		True	0.0	None	0.0	None	0.0	None	0.0	None	0.0	None	0.0	None	0.0	None	0.0	None	1.0148e-06	12
2014-02-18 08:36:00	124.58372145973392	993733662.4234002	7.508009409135481e+21	2877354674311.6567	14.359290874700608	954958425582.028	1.9902693341348752e+21	-8.41584468780388e+23	1711.6055699800825	-0.6376981646080121	23.034506870778035	2.6642446260974872	28.06363970670313	127.54758180721588	125.717819299563	46.956865193592755	0.004347348130396792	-1.6478342415639737e+23	0.562399047067921	0.017646522115695763	3.704500885759293e+23	0.12486219867465186	-0.2807030670445884	0.0	237.776749	272.745453	-24.04283	-39.66431	-18.535273	-30.753904	0.0		True	0.0	None	0.0	None	0.0	None	0.0	None	0.0	None	0.0	None	0.0	None	0.0	None	9.5931e-07	12
2014-02-18 08:48:00	121.37105595446891	989850297.5789	7.335033537713402e+21	2878326010882.675	12.246839946320286	685593613276.3032	2.0048524742818042e+21	-8.373600663855195e+23	1635.5299611351575	-0.6369864420588729	22.888021509865176	2.576251110453065	28.20294262675552	127.12942571330522	125.66892529894699	46.59199690073528	0.003626544254166504	-1.6675329684950557e+23	0.3949177752770789	0.015116088896046825	3.639799902686465e+23	0.12685055512648516	-0.2768824646518368	0.0	237.77858	272.63622999999995	-24.035112	-39.545124	-18.538843	-30.642778000000003	0.0		True	0.0	None	0.0	None	0.0	None	0.0	None	0.0	None	0.0	None	0.0	None	0.0	None	9.6347e-07	12
2014-02-18 09:00:00	123.1030603167163	998405242.6078	7.413536036516483e+21	2918503300597.721	17.868809822959058	1236708001839.355	2.0167828718269427e+21	-8.366361979060713e+23	1627.966542125797	-0.6309825592204662	23.100269627023078	2.9746281714785647	28.561501988186034	124.50174502813604	123.45078989071386	46.40151010684072	0.005211084812761464	-1.66617920473053e+23	0.7015742952922036	0.021946711392828614	3.685669382241256e+23	0.1256615505463491	-0.27796945734210216	0.0	237.78038	272.526978	-24.037233	-39.434002	-18.521742	-30.539694	0.0		True	0.0	None	0.0	None	0.0	None	0.0	None	0.0	None	0.0	None	0.0	None	0.0	None	1.0329e-06	12
2014-02-18 09:12:00	119.54532539248687	982050534.7523	7.189448563876011e+21	2847835156815.397	15.385264502227347	1096351041403.1279	1.9838407035305203e+21	-8.311176961957195e+23	1615.5062306373898	-0.6372592926834963	22.979729515599193	2.626081766636825	28.324522744683915	124.8195725672515	124.02888521935888	46.19398248926685	0.00459124574820273	-1.6054792226696078e+23	0.6364329101840223	0.01913743207022832	3.566755925984214e+23	0.12310008059502955	-0.2734809244191708	0.0	237.782196	272.417694	-24.039253	-39.323196	-18.524256	-30.430084	0.0		True	0.0	None	0.0	None	0.0	None	0.0	None	0.0	None	0.0	None	0.0	None	0.0	None	1.1942e-06	12
2014-02-18 09:24:00	118.42980531623415	992175918.8296	7.336818653716922e+21	2888484155139.707	14.212287230989801	1071333767891.2751	2.010055221071053e+21	-8.350739240912948e+23	1620.0966926346887	-0.6337584609906184	23.183757588809492	2.434017595307918	28.402018403924785	123.05006128591879	122.6708971367517	45.8639099637687	0.00416782616744569	-1.6360084875769713e+23	0.6063563154681794	0.017535471179625145	3.624254948365108e+23	0.1241607708422492	-0.2750537613556706	0.0	237.783905	272.308411	-24.039408	-39.20142	-18.527342	-30.326015	0.0		True	0.0	None	0.0	None	0.0	None	0.0	None	0.0	None	0.0	None	0.0	None	0.0	None	9.1345e-07	12
2014-02-18 09:36:00	125.5157821121245	999806385.8098	7.687157760486671e+21	3083689765874.3	15.966731965218735	1325492552745.2708	2.0298856771604675e+21	-8.29202232858745e+23	1652.3924479822708	-0.6244995091101367	23.745934473892326	3.311447330859264	29.017067898255988	124.1236469498497	123.38151760250084	47.13346638668325	0.004558016547307661	-1.714142091293449e+23	0.736077301716266	0.01966122348476216	3.65253240650857e+23	0.12909768596102406	-0.2750842441667712	0.0	237.785706	272.199097	-24.042048	-39.092346	-18.510601	-30.215097	0.0		True	0.0	None	0.0	None	0.0	None	0.0	None	0.0	None	0.0	None	0.0	None	0.0	None	8.9491e-07	12
2014-02-18 09:48:00	128.1305617134089	992455944.837	7.599868142556479e+21	3097900337206.8203	14.73145316531981	1181599872228.7568	2.0042701856352122e+21	-8.239857411029368e+23	1681.1404484302334	-0.6251668633389084	23.600497163629107	3.437132784958872	28.619233632185768	125.53068531371055	125.00679734371849	47.64002780606687	0.004327688943983493	-1.7956970722358705e+23	0.6752620498598471	0.018266964674616103	3.574424108430197e+23	0.13624147241357634	-0.2711954099010459	0.0	237.787399	272.089752	-24.036287	-38.98027800000001	-18.516777	-30.11124	0.0		True	0.0	None	0.0	None	0.0	None	0.0	None	0.0	None	0.0	None	0.0	None	0.0	None	2.0234999999999998e-06	12
2014-02-18 10:00:00	128.02148346434865	983860332.1175	7.69839240851759e+21	3090427569851.572	17.807691748373298	1398827786339.7341	1.983236605835408e+21	-8.113835949577529e+23	1721.6484720939857	-0.620983878073798	24.030690937198173	3.801603801603801	28.725360387186896	124.57455083479799	124.16787053806871	48.05268370887456	0.005288889738156608	-1.898873341035114e+23	0.8081992381610549	0.022331889940131203	3.50909887521845e+23	0.1453282687269924	-0.26856518194591017	0.0	237.789078	271.980377	-24.037655	-38.869911	-18.521027	-30.008961	0.0		True	0.0	None	0.0	None	0.0	None	0.0	None	0.0	None	0.0	None	0.0	None	0.0	None	3.3761e-06	12
2014-02-18 10:12:00	133.38672245854008	990705079.9621	7.815186935675107e+21	3273934297838.37	17.627567331849576	1524412035875.9893	2.008385531853037e+21	-8.14077605275392e+23	1714.6659092658606	-0.6187409215147562	23.92341774022821	3.8461538461538463	28.991662431629766	125.37309063351324	125.76429280298157	47.93896167733683	0.005137734576464464	-1.97711980211319e+23	0.8640891731772761	0.0219849765315486	3.466139494264125e+23	0.15027129113701052	-0.2634444592114987	0.0	237.790802	271.871002	-24.038477	-38.779984000000006	-18.527073	-29.905602	0.0		True	0.0	None	0.0	None	0.0	None	0.0	None	0.0	None	0.0	None	0.0	None	0.0	None	2.6453e-06	12
2014-02-18 10:24:00	134.72666345286092	995883365.4388	7.948227726840798e+21	3251464013946.112	18.74083183753347	1610578886553.2368	2.0015394184396e+21	-8.10478453124211e+23	1760.2683708249785	-0.6128024543001602	24.257707379344176	3.941176470588237	29.126439451631395	125.60165530093487	126.06137947346373	48.76344788477334	0.005512009363980433	-2.120749548689795e+23	0.8916082108474663	0.023336149881364027	3.4661129030610774e+23	0.16034979380184594	-0.262072666545246	0.0	237.792419	271.761566	-24.040508	-38.668964	-18.50959	-29.79537	0.0		True	0.0	None	0.0	None	0.0	None	0.0	None	0.0	None	0.0	None	0.0	None	0.0	None	1.6211000000000005e-06	12
2014-02-18 10:36:00	131.25490839177772	976286655.335	7.875955919780228e+21	3282128928822.748	17.213987959183072	1604863255372.3066	1.96730426534423e+21	-7.950126975228906e+23	1756.6626994972346	-0.6131747360629306	24.7418994258688	5.598341232227488	29.48191818927098	124.37318214322605	125.2342107403118	47.8306975642242	0.005098930082696408	-2.176406979760784e+23	0.9248115991519644	0.021860129255947814	3.32337255406403e+23	0.1678611900839375	-0.256323967532396	0.0	237.794037	271.65213	-24.030048	-38.557987	-18.516407	-29.692425	0.0		True	0.0	None	0.0	None	0.0	None	0.0	None	0.0	None	0.0	None	0.0	None	0.0	None	1.252e-06	12
2014-02-18 10:48:00	132.1849754860068	969601974.7142	7.775246262825534e+21	3373672131688.6763	18.815923465175352	1969523972034.7769	1.9634261411690976e+21	-7.815695840921609e+23	1712.389527422951	-0.6069622336244415	24.696652815481965	5.05995905235449	29.871721211575107	122.12435574156216	123.05589850926022	48.08735024089978	0.005503341171446433	-2.1869309688035545e+23	1.120695280161753	0.024152181963137256	3.32252235704999e+23	0.16983574241176547	-0.2580250859486374	0.0	237.795654	271.542664	-24.029734	-38.45685200000001	-18.521263	-29.589977	0.0		True	0.0	None	0.0	None	0.0	None	0.0	None	0.0	None	0.0	None	0.0	None	0.0	None	1.2542e-06	12
2014-02-18 11:00:00	130.78137458079541	940152554.9502	7.692005583045449e+21	3172631269971.4067	15.397881478801162	1560060348932.252	1.8867072894778548e+21	-7.658219988523971e+23	1812.8266346239773	-0.6133622623149126	24.831032358323878	5.2269170579029725	29.308260843451517	121.68553538694073	123.49861628576966	47.235866538952244	0.00481936822497689	-2.265107061496504e+23	0.9499573340781272	0.020303024711283167	3.107869247440634e+23	0.18141698641550205	-0.2489155071864864	0.0	237.797165	271.433167	-24.029278	-38.377457	-18.525984	-29.480625	0.0		True	0.0	None	0.0	None	0.0	None	0.0	None	0.0	None	0.0	None	0.0	None	0.0	None	1.0434e-06	12
2014-02-18 11:12:00	126.24033185524333	920848899.4005	7.407634046431398e+21	3020647950246.6187	14.976824637313216	1384270468092.0398	1.8399251431348547e+21	-7.513399285783328e+23	1815.7069663162629	-0.6143778474053881	24.472480376105647	4.39453125	29.17129139229917	123.89343453303366	125.52371283677566	46.91224455094403	0.004875268436625397	-2.2270394468605566e+23	0.8605783270191134	0.020149124366564804	3.05719427302725e+23	0.18210714610070475	-0.2499897004165057	0.0	237.798706	271.32360800000004	-24.031378	-38.256401	-18.515989	-29.377499	0.0		True	0.0	None	0.0	None	0.0	None	0.0	None	0.0	None	0.0	None	0.0	None	0.0	None	9.158e-07	12
2014-02-18 11:24:00	126.05748425526876	921330914.3495	7.694902723458469e+21	3033801384705.7183	15.49484228187626	1535591993524.3782	1.8615545220362288e+21	-7.513432101475088e+23	1858.294096898034	-0.6140590643195181	24.80844270305225	4.8749198203976905	28.907359207975354	122.8234062646553	124.1086647393846	47.41271683004122	0.004969481168016761	-2.3163320887581806e+23	0.9581878451721508	0.02083925019729171	3.083391799913533e+23	0.189309585268878	-0.2519999725842544	0.0	237.800232	271.214081	-24.019032	-38.175125	-18.515831	-29.273598	0.0		True	0.0	None	0.0	None	0.0	None	0.0	None	0.0	None	0.0	None	0.0	None	0.0	None	8.7175e-07	12
2014-02-18 11:36:00	125.96074067775663	900990102.2977	7.429239946802772e+21	3028939760918.9355	16.714883520226376	1935135499606.969	1.8165458184158792e+21	-7.301873720131196e+23	1843.203043879281	-0.6102415674553449	24.567787932458053	3.9538714991762767	29.16027206129052	121.83319361405479	124.16722302389915	46.28131615416466	0.00550737513022286	-2.311047657319046e+23	1.22197041499261	0.023042112704474132	2.9930998098960985e+23	0.1931418426174916	-0.25014318099005306	0.0	237.801697	271.104492	-24.022638	-38.06826	-18.519907	-29.16416	0.0		True	0.0	None	0.0	None	0.0	None	0.0	None	0.0	None	0.0	None	0.0	None	0.0	None	9.528e-07	12
2014-02-18 11:48:00	126.84404729517516	873691630.0533001	7.292372093189127e+21	2976208594711.9863	15.015241716928374	1518600110130.3853	1.7533641155207645e+21	-7.079187244264194e+23	1898.707406978612	-0.6101164535688417	24.602223427105717	4.183955739972337	28.88589057051684	122.70845908197826	124.64409541364648	46.628442666559714	0.005191992294926825	-2.2602244057768412e+23	1.021680292848655	0.02134749204272272	2.910964453628455e+23	0.19479638709085187	-0.25088011485382783	0.0	237.803177	270.994873	-24.020861	-37.967888	-18.52553	-29.055361	0.0		True	0.0	None	0.0	None	0.0	None	0.0	None	0.0	None	0.0	None	0.0	None	0.0	None	1.2313e-06	12
2014-02-18 12:00:00	119.70728616036708	868594372.3442001	7.101167295595934e+21	2817000624777.0967	12.8989784526252	1379791999988.4326	1.7465309609976026e+21	-7.086156365025549e+23	1863.0963701255866	-0.6143009575854788	24.374175434894468	3.0662020905923346	28.68012543775981	121.70768283019699	124.03925935930911	45.38452414088352	0.004494417579311916	-2.234884135681618e+23	0.9354303008671002	0.01839855847140877	2.900815859666274e+23	0.19374275614603406	-0.251472571106002	0.0	237.80452	270.885223	-24.012751	-37.877689	-18.530277	-28.954615000000004	0.0		True	0.0	None	0.0	None	0.0	None	0.0	None	0.0	None	0.0	None	0.0	None	0.0	None	1.1056e-06	12
2014-02-18 12:12:00	115.24167518477924	864159042.1312	6.966560037921213e+21	2661310121658.158	11.221970687359104	1220687165833.8003	1.714901532841873e+21	-7.041731963625308e+23	1880.8636845510835	-0.6135829213135723	23.958638764402288	3.011832197920401	28.743007341563743	123.90712469778192	126.52346093373005	46.437309192040864	0.004023653885750844	-2.1932587277822645e+23	0.8516196501450279	0.016095858984969427	2.883300892712893e+23	0.1911100996659205	-0.2512370811492796	0.0	237.805908	270.775513	-24.012978	-37.764847	-18.52039	-28.849703	0.0		True	0.0	None	0.0	None	0.0	None	0.0	None	0.0	None	0.0	None	0.0	None	0.0	None	1.0691e-06	12
2014-02-18 12:24:00	117.54174589453423	854652047.0680001	6.798525205331686e+21	2684955495571.551	9.190155778062936	1143658088362.5027	1.6829398574912624e+21	-7.003260806128193e+23	1889.0043571437384	-0.6170189486049902	23.77124897793873	2.9151291512915134	28.574271447685984	124.32017241450451	127.18666411211844	47.13875112631485	0.0033924532218763148	-2.1888458416331247e+23	0.8211588056774571	0.013313363172058057	2.8135170455079007e+23	0.19284721749632264	-0.24788357557417035	0.0	237.807251	270.665802	-24.01212300000001	-37.676304	-18.52433	-28.747276	0.0		True	0.0	None	0.0	None	0.0	None	0.0	None	0.0	None	0.0	None	0.0	None	0.0	None	1.0154e-06	12
2014-02-18 12:36:00	110.95247415592523	831436366.7599001	6.627653024780322e+21	2545133234879.625	8.929150727962197	831984424746.823	1.6416701737052954e+21	-6.826420505622706e+23	1893.2233434516088	-0.6182320467193824	23.944910406813122	3.2245827010622152	28.21460001115901	120.97391767842986	123.02169474684692	46.55406282648266	0.003387386467360469	-2.064036668299726e+23	0.614158566653274	0.013273037940027686	2.8009865028034085e+23	0.186928656518559	-0.25367022395341793	0.0	237.808563	270.556061	-24.015345	-37.55862800000001	-18.53023	-28.640644	0.0		True	0.0	None	0.0	None	0.0	None	0.0	None	0.0	None	0.0	None	0.0	None	0.0	None	9.954e-07	12
2014-02-18 12:48:00	116.06754393142056	841594252.9760001	6.983477557626793e+21	2683071626813.1	6.408963924675138	682019433164.8864	1.6635658833645852e+21	-6.86015350447015e+23	1953.3683312731628	-0.6137881913330163	24.768275917756572	4.3462109955423465	28.676753660326238	123.42693012956406	125.49137971999313	46.859135896728496	0.0023807443999536173	-2.0591633180981862e+23	0.4929956255270164	0.00943775128855098	2.8805717488912044e+23	0.1842364209272014	-0.25772906139852825	0.0	237.80986	270.446259	-24.015524	-37.449085	-18.532932	-28.538643	0.0		True	0.0	None	0.0	None	0.0	None	0.0	None	0.0	None	0.0	None	0.0	None	0.0	None	9.8653e-07	12
2014-02-18 13:00:00	116.07662347282192	840079419.4586	6.670217562685114e+21	2675523952607.98	10.519189385831424	1073207648700.8628	1.6547366525517994e+21	-6.834248126377753e+23	1878.3047566240048	-0.6125730112343986	23.805504721254035	2.9917726252804786	28.838173506757002	123.40209219674541	125.1754888842074	46.9011070788529	0.003935349564471165	-2.020397934054234e+23	0.7810063029198376	0.015533478469991863	2.8465225566819665e+23	0.1810939877319508	-0.25514187688960865	0.0	237.811066	270.336456	-24.011469	-37.343185	-18.537518	-28.436632	0.0		True	0.0	None	0.0	None	0.0	None	0.0	None	0.0	None	0.0	None	0.0	None	0.0	None	1.2467e-06	12
2014-02-18 13:12:00	112.92818498554523	829025202.7858	6.552340730091342e+21	2561481931613.951	13.068739723230738	1280450992422.5828	1.6224326270019507e+21	-6.73943215492261e+23	1896.8963954588519	-0.6121291514549022	23.774782703100858	2.921953094963476	28.85932138843855	123.50248519082443	125.91089002510168	46.3834121436626	0.005024505852837654	-1.997495646780008e+23	0.9580004474450372	0.01955672548064574	2.84804822180872e+23	0.1814285368842544	-0.2586825271391777	0.0	237.812317	270.226624	-24.008984	-37.234135	-18.541233	-28.334955	0.0		True	0.0	None	0.0	None	0.0	None	0.0	None	0.0	None	0.0	None	0.0	None	0.0	None	1.0097e-06	12
2014-02-18 13:24:00	112.18927895963854	833588874.3619001	6.562231229269946e+21	2576924588641.576	12.132481059202327	1381673856969.6924	1.6409527421583952e+21	-6.750185336241072e+23	1855.5293566755704	-0.6097492215387122	23.710716671343413	3.755163349605708	28.848594467550868	123.27074312818195	125.45152431279031	46.20319253929132	0.00455765629571838	-2.002247647649141e+23	1.0096907978534595	0.018084070159685047	2.8536034214760944e+23	0.1808645072198326	-0.2577681023783839	0.0	237.813538	270.11673	-24.006704	-37.130562	-18.543709	-28.230925	0.0		True	0.0	None	0.0	None	0.0	None	0.0	None	0.0	None	0.0	None	0.0	None	0.0	None	1.7537e-06	12
2014-02-18 13:36:00	114.95673609162384	828931002.9778001	6.677956149048851e+21	2654585686973.793	10.60789409000652	1237307453812.5923	1.6389675500310186e+21	-6.646999864317334e+23	1865.1387880295486	-0.6038023037562806	24.093699637543374	2.967359050445104	29.045112292987906	121.01107453472046	122.33657487984631	47.111845580631574	0.003934678816767997	-2.0060718252553548e+23	0.8931465820624162	0.01595842234677803	2.8625474511119725e+23	0.18222819532344767	-0.2600290026891088	0.0	237.814636	270.006836	-24.010149	-37.03294	-18.547539	-28.127691	0.0		True	0.0	None	0.0	None	0.0	None	0.0	None	0.0	None	0.0	None	0.0	None	0.0	None	1.5501e-06	12
2014-02-18 13:48:00	115.48598463649687	830218119.8353	6.647515760423632e+21	2620257434242.465	11.271057476853418	1109237071000.626	1.6384916135137536e+21	-6.723516501733122e+23	1876.825139593618	-0.6098060368806876	24.02838463627347	3.1871016122984623	28.61770904850182	122.17711967764272	123.22102650572891	46.930756609096434	0.004226118289033903	-1.997789206083597e+23	0.8094262396809548	0.016866652628515312	2.8415562997394778e+23	0.18119445649770047	-0.2577220097951449	0.0	237.815781	269.896881	-24.00293	-36.923782	-18.546745	-28.023705	0.0		True	0.0	None	0.0	None	0.0	None	0.0	None	0.0	None	0.0	None	0.0	None	0.0	None	1.2144e-06	12
2014-02-18 14:00:00	122.01166433597862	832900685.9806001	6.704633495448534e+21	2718456946610.868	11.562194263007147	1030886686036.4232	1.6151682800529514e+21	-6.747899792985595e+23	1960.5832349151528	-0.6100464166747425	24.016382955414123	2.524271844660194	28.73337263818044	125.5553241593684	126.85482588907655	49.07175484361992	0.004490172529323164	-1.9993321050666362e+23	0.7791490343348825	0.017244024894634818	2.870310602897317e+23	0.18075037031618746	-0.2594915087300506	0.0	237.816879	269.786926	-23.997297	-36.820782	-18.547812	-27.916634	0.0		True	0.0	None	0.0	None	0.0	None	0.0	None	0.0	None	0.0	None	0.0	None	0.0	None	1.1568999999999999e-06	12
2014-02-18 14:12:00	117.11581553064084	831948471.3268001	6.794402845136489e+21	2625358303056.793	12.347623194935567	1161689835036.383	1.610823322212502e+21	-6.752450044202172e+23	1989.151232145665	-0.6111564875571169	24.47984222538033	3.188180404354588	28.808557756227533	126.36921782782566	127.4510819545813	48.45518145941922	0.0048007866232253355	-2.016540827245296e+23	0.8790566731556475	0.018423800025857487	2.865860723023244e+23	0.18251479106505164	-0.2593857580352867	0.0	237.817902	269.67691	-23.998964	-36.727383	-18.552353	-27.813515	0.0		True	0.0	None	0.0	None	0.0	None	0.0	None	0.0	None	0.0	None	0.0	None	0.0	None	1.0424e-06	12
2014-02-18 14:24:00	113.55088088711905	819013905.1808	6.456747041041598e+21	2563314731422.575	10.6266597512053	1254947792347.4922	1.5740754481923532e+21	-6.642924237699458e+23	1955.6907652935033	-0.6107388700778877	23.63934057579534	2.2928399034593725	28.76700046716364	125.64957548795802	127.48966162488571	48.6882328003165	0.004274601669833186	-1.965921248991821e+23	0.9740648954691286	0.01611054961255889	2.8143862509572084e+23	0.18074337133900265	-0.2587497640147124	0.0	237.819	269.56689500000005	-24.001793	-36.618721	-18.555414000000006	-27.70536400000001	0.0		True	0.0	None	0.0	None	0.0	None	0.0	None	0.0	None	0.0	None	0.0	None	0.0	None	1.0762e-06	12
2014-02-18 14:36:00	117.9474572264935	837481479.2169	6.703150772184344e+21	2677076555843.2734	12.28455357639165	1178560120321.1826	1.6224637214859167e+21	-6.716827528743671e+23	1924.2795994890478	-0.6039158996182538	24.337179139872365	3.7361799466260015	29.29235422187332	125.78459191073	127.67188738810113	49.08929502175926	0.004683398237282368	-2.0368362980323656e+23	0.8745252218043594	0.018290794498952528	2.809056651401328e+23	0.18313375176560565	-0.2525647662456769	0.0	237.819916	269.456818	-23.991661	-36.50748400000001	-18.559107	-27.598261	0.0		True	0.0	None	0.0	None	0.0	None	0.0	None	0.0	None	0.0	None	0.0	None	0.0	None	1.0896e-06	12
2014-02-18 14:48:00	118.29349524097314	843417023.8311	6.789497859119785e+21	2674584370841.3843	11.267153820758185	980281888539.5166	1.6185870485545665e+21	-6.833430962507967e+23	1984.629068501163	-0.6100760829259025	24.297433907083768	3.571428571428571	29.015751783243807	126.94973662435385	129.20615821668872	48.562478954979824	0.004373895116753954	-2.010236076854168e+23	0.7406865131852648	0.016594167044097625	2.840201434926341e+23	0.179470160487788	-0.25356793324571025	0.0	237.820938	269.346741	-23.998203	-36.407894	-18.556597	-27.49052600000001	0.0		True	0.0	None	0.0	None	0.0	None	0.0	None	0.0	None	0.0	None	0.0	None	0.0	None	1.2374e-06	12
2014-02-18 15:00:00	116.96087597787785	857580056.4848001	6.887422832931367e+21	2688092197743.9014	12.832983679596975	1223058043366.8352	1.645215689741055e+21	-6.86677018137125e+23	1951.8781669885807	-0.6029278632532711	24.232317059170825	3.08618742943169	29.501378995713363	128.77278420178806	130.67595526252086	49.830124880954635	0.004829877184643198	-2.091794708550331e+23	0.8959730182343673	0.018671060522668453	2.882897720131039e+23	0.18366732549346748	-0.25312910094061586	0.0	237.821884	269.236633	-24.003021	-36.298935	-18.562023	-27.382156	0.0		True	0.0	None	0.0	None	0.0	None	0.0	None	0.0	None	0.0	None	0.0	None	0.0	None	1.2762e-06	12
2014-02-18 15:12:00	117.55894951041763	851892647.5641	6.972690038548812e+21	2760529594576.84	10.775651731539075	1382732212415.0671	1.6513576083209252e+21	-6.827679954416121e+23	1950.351161995004	-0.6034979438772722	24.651242775787612	4.606240713224369	29.337865103463148	128.86880560269034	130.7277620441095	50.14447082273948	0.004002842396559835	-2.115012821974401e+23	0.999798139042588	0.01577684885226134	2.88795947487421e+23	0.18694577043114666	-0.25526644727396525	0.0	237.8228	269.12649500000003	-24.005064	-36.180977	-18.568977	-27.273235	0.0		True	0.0	None	0.0	None	0.0	None	0.0	None	0.0	None	0.0	None	0.0	None	0.0	None	1.2774e-06	12
2014-02-18 15:24:00	121.36884681184515	872443888.2712	7.179446971649466e+21	2825398893784.3965	6.092932575979537	1035466106818.6638	1.7177961631998602e+21	-6.97459465303613e+23	1891.5430328899408	-0.6019617917973746	24.589297011860136	3.8838348495451362	29.369892690584226	126.95199446852641	129.08808503261304	49.24922818130932	0.0021318868355421753	-2.2301672572797693e+23	0.7052328227042445	0.008719000644032965	2.9368946248364473e+23	0.1924807884879116	-0.25347685975084405	0.0	237.823761	269.016357	-23.98815	-36.076275	-18.577023	-27.164024	0.0		True	0.0	None	0.0	None	0.0	None	0.0	None	0.0	None	0.0	None	0.0	None	0.0	None	1.3925e-06	12
2014-02-18 15:36:00	124.61354909365377	880790698.4101	7.552684056508375e+21	3040930882536.0054	7.1801344089618295	1109209025258.8186	1.7398991213158114e+21	-6.975417304524963e+23	1933.0636352772	-0.5963276907163091	25.019688010507032	4.894629503738953	29.790530676929354	128.33235623133282	129.73453654245822	50.14993256165904	0.002440562341591377	-2.208872897683932e+23	0.7172350631121934	0.010213340311281752	3.00089847067961e+23	0.18883631138558893	-0.25654649420524456	0.0	237.824554	268.906158	-23.993368	-35.968342	-18.580299	-27.056416	0.0		True	0.0	None	0.0	None	0.0	None	0.0	None	0.0	None	0.0	None	0.0	None	0.0	None	1.3504e-06	12
2014-02-18 15:48:00	128.90446094296607	880629715.2658	7.5527518278107e+21	3186329658953.419	11.128109444148473	1098306041551.0532	1.781674061414822e+21	-6.932854411973573e+23	1842.8789029841714	-0.5927973448541132	25.113020888000595	4.990278677900196	29.6472580716128	124.91104694515236	126.04708393892994	48.91951060907118	0.003605997875615188	-2.1997910810784025e+23	0.67323385824395	0.015867098764382002	3.046335238846792e+23	0.18809428766380493	-0.2604784889186539	0.0	237.825455	268.795959	-23.995161	-35.85302700000001	-18.584864000000003	-26.943453	0.0		True	0.0	None	0.0	None	0.0	None	0.0	None	0.0	None	0.0	None	0.0	None	0.0	None	1.6299e-06	12
2014-02-18 16:00:00	129.71895953161714	888301381.4820002	7.477669407547871e+21	3260525102313.833	15.441041352914775	1578790066846.7185	1.818931364678939e+21	-7.045254541688988e+23	1759.5585611939498	-0.5972054935766749	25.01586119186325	4.6875	29.79167943699571	121.9169211617067	122.99430055895307	48.31028136061454	0.004826833808350977	-2.166392707806279e+23	0.9089358085379032	0.021770044791979783	3.0778071158175745e+23	0.18363873422750665	-0.2608966513358913	0.0	237.826309	268.68576	-23.999931	-35.737034	-18.592312	-26.836109000000004	0.0		True	0.0	None	0.0	None	0.0	None	0.0	None	0.0	None	0.0	None	0.0	None	0.0	None	1.2913e-06	12
2014-02-18 16:12:00	125.64118856965011	896254309.0721	7.57200684890283e+21	3197355408744.11	15.244860936057426	1729267227442.2458	1.848510711770256e+21	-7.065715453775611e+23	1731.9632773252372	-0.5936252903251588	24.889676968369432	4.586877278250304	29.832486157416835	122.50889347667372	123.03142784452028	48.95868287876903	0.004630881207793872	-2.1282276533994943e+23	0.9598974937828608	0.02134695786054302	3.147518478787433e+23	0.17880280728715395	-0.2644384115094212	0.0	237.827103	268.5755	-23.982868	-35.62981	-18.593441	-26.729118	0.0		True	0.0	None	0.0	None	0.0	None	0.0	None	0.0	None	0.0	None	0.0	None	0.0	None	1.1449e-06	12
2014-02-18 16:24:00	125.69798019978964	888944801.7203002	7.399344460603151e+21	3115828117228.576	11.4002635287044	1304249281908.4326	1.8175033619855743e+21	-7.126624420027599e+23	1777.7948797555634	-0.6036656646952814	24.034209602655807	3.9885130823229122	28.981684976133966	127.26206832060659	127.71226266517124	50.288520717630064	0.0036376080180933	-2.0756952097815267e+23	0.8101457544863556	0.015993969400102004	3.113448578748334e+23	0.17582320249629824	-0.2637268214251444	0.0	237.827942	268.46524	-23.986231	-35.514599	-18.592426	-26.620256	0.0		True	0.0	None	0.0	None	0.0	None	0.0	None	0.0	None	0.0	None	0.0	None	0.0	None	1.0993e-06	12
2014-02-18 16:36:00	130.4107977712355	897141115.6867002	7.425404676745571e+21	3181951146362.727	14.694439454894704	1592783764723.419	1.8281211424000227e+21	-7.194023178557991e+23	1766.5827587930453	-0.6038076995959162	24.13721381331829	3.917851500789888	29.063303201820364	129.32261786022232	129.12564667791844	51.362787369292924	0.004642792876743983	-2.000580987933021e+23	0.9714488936973774	0.020425371516327662	3.1713518824787975e+23	0.1679124704212163	-0.2661774416401771	0.0	237.828735	268.35497999999995	-23.990221	-35.398544	-18.568972	-26.512873	0.0		True	0.0	None	0.0	None	0.0	None	0.0	None	0.0	None	0.0	None	0.0	None	0.0	None	1.3501e-06	12
2014-02-18 16:48:00	127.86410678930478	890047331.9453002	7.299573923608846e+21	3161724268239.4893	12.35616150182572	948648351555.778	1.8344348483564932e+21	-7.197527257591202e+23	1715.5068970901184	-0.6089164130100531	24.15804171826089	4.275905118601748	29.003557732812144	128.1972295209139	127.61978533046766	50.28935549969255	0.003856479869483681	-1.92628823115071e+23	0.5764059950271745	0.017257067072676473	3.174341187867616e+23	0.16296548497244887	-0.26855173736894	0.0	237.829498	268.24469	-23.98811	-35.283157	-18.575857	-26.40605900000001	0.0		True	0.0	None	0.0	None	0.0	None	0.0	None	0.0	None	0.0	None	0.0	None	0.0	None	1.5245e-06	12
2014-02-18 17:00:00	117.73940093475824	876218113.3841001	6.96794690226867e+21	2899541574029.3867	15.651474312453725	1178566713668.8115	1.7945866289941871e+21	-7.025835240425915e+23	1673.6119134458872	-0.6037723294254601	23.7425559792838	3.732057416267944	29.371147891299554	126.26445658803324	125.13450771469131	49.96534433479189	0.004992495793446164	-1.797444874156521e+23	0.7318780102092207	0.022275645896788668	3.187435376810634e+23	0.15446526164447125	-0.2739155155926217	0.0	237.830261	268.134369	-23.983315	-35.174206	-18.552	-26.297628000000003	0.0		True	0.0	None	0.0	None	0.0	None	0.0	None	0.0	None	0.0	None	0.0	None	0.0	None	1.4108000000000001e-06	12
2014-02-18 17:12:00	118.6967002660556	872535318.0137	6.879627595178115e+21	2850210750974.977	15.106099748301096	1182951690641.9448	1.7691301708715299e+21	-7.049890041576178e+23	1695.669556168542	-0.6083966805572506	23.531210248581534	2.8150572831423886	29.393168718402137	129.39714015517293	127.91057664496277	50.88522554312413	0.004944713501898885	-1.744112673893586e+23	0.744670798068	0.021528122723568327	3.1805937626635095e+23	0.15051473924513156	-0.2744812580045495	0.0	237.831009	268.024109	-23.989559	-35.057575	-18.558769	-26.189594	0.0		True	0.0	None	0.0	None	0.0	None	0.0	None	0.0	None	0.0	None	0.0	None	0.0	None	9.9875e-07	12
2014-02-18 17:24:00	119.98530398038828	861945894.9243001	6.664407967564818e+21	2904779636025.69	16.703384208328227	1093344717079.2726	1.7551500513631834e+21	-7.045435256677286e+23	1640.474871415792	-0.6154819301553631	24.315035092162304	3.4978751225890816	29.023751539824705	128.0875555095006	125.53993464210636	51.03970338059066	0.0054604067369494035	-1.636075691343386e+23	0.695842240063706	0.023991221267924388	3.1585787992284784e+23	0.14292587862956235	-0.2759301739455328	0.0	237.831757	267.913757	-23.995871	-34.943848	-18.567617	-26.084084	0.0		True	0.0	None	0.0	None	0.0	None	0.0	None	0.0	None	0.0	None	0.0	None	0.0	None	9.5913e-07	12
2014-02-18 17:36:00	117.60121293249723	847107744.0006	6.42201589813725e+21	2795358107987.6523	19.266776293829427	1458112455508.076	1.7240843538226676e+21	-6.872769478782188e+23	1621.6281224720553	-0.6109148127530676	23.091219135782598	2.380952380952381	29.203651635131717	127.5981834579567	125.66782866014331	50.14269771347475	0.006461024914094374	-1.5790524896959996e+23	0.9249606994279296	0.02823760270708672	3.149830604350062e+23	0.14036067396819335	-0.2799858455606705	0.0	237.832489	267.803436	-24.006937	-34.829159000000004	-18.544865	-25.977736	0.0		True	0.0	None	0.0	None	0.0	None	0.0	None	0.0	None	0.0	None	0.0	None	0.0	None	9.5045e-07	12
2014-02-18 17:48:00	117.43023905862076	854231988.5954001	6.528509232496979e+21	2796087556859.1763	13.706070927571444	793394413010.8978	1.7416362155871906e+21	-7.00000029459595e+23	1644.6580160118729	-0.6170348965038023	23.174226941942702	2.3419203747072603	28.791263707305326	128.48200597813852	126.44052973819358	49.74421460461007	0.004585503823208914	-1.5513402129826032e+23	0.5167794332915212	0.01984484667215966	3.197049567087643e+23	0.13674728678210146	-0.2818130093892112	0.0	237.83319100000003	267.693085	-24.013741	-34.71405	-18.552156	-25.870905	0.0		True	0.0	None	0.0	None	0.0	None	0.0	None	0.0	None	0.0	None	0.0	None	0.0	None	1.3338e-06	12
2014-02-18 18:00:00	114.00388080732692	842810102.5812	6.355851859287058e+21	2709102237889.3525	12.124819721715108	792664051138.4911	1.7226721983566627e+21	-6.89327228404318e+23	1619.0368775270706	-0.6158615705508728	22.78407760932756	2.029769959404601	28.73823560806757	128.15389503351764	126.10874833019159	49.6509621699961	0.0041017658057222964	-1.5209016844275918e+23	0.5220717219772874	0.017806206290211464	3.178902229632806e+23	0.13588102448720524	-0.28401079184137845	0.0	237.833969	267.582764	-24.037104	-34.599251	-18.559635	-25.764313	66560.0		False	0.0	None	0.0	None	0.0	None	0.0	None	0.0	None	0.0	None	0.0	None	0.0	None	1.1172e-06	12
2014-02-18 18:12:00	111.23973045497685	834387080.8178	6.286668409445034e+21	2591669252040.313	12.201727890030575	952711137713.0376	1.692374558583884e+21	-6.798955075673177e+23	1643.102956018701	-0.6135671244710845	22.678682628820948	1.5272474835126693	28.79114458991651	128.90323903029366	126.71668205853764	49.57400096284128	0.004235240503308079	-1.5218749532410516e+23	0.6438229061060394	0.018125780788380515	3.142054787083571e+23	0.13734058079097158	-0.28355261936343823	0.0	237.83461	267.472412	-24.04578	-34.480247	-18.564625	-25.649204	66560.0		False	0.0	None	0.0	None	0.0	None	0.0	None	0.0	None	0.0	None	0.0	None	0.0	None	1.0919e-06	12
2014-02-18 18:24:00	116.085842197472	841919737.4376	6.448617763028674e+21	2707527757708.9966	16.372848456801073	1375432313644.1584	1.68595289539328e+21	-6.824530535727817e+23	1712.1741290168613	-0.6103649861992775	22.84247346123249	2.3624823695345563	29.01807660839263	132.68791584246998	130.244495368486	51.8580928090519	0.005773218778843818	-1.6126660978607514e+23	0.94424302090432	0.024152340769688745	3.124616765819092e+23	0.1442318875139806	-0.2794560972601477	0.0	237.835358	267.362061	-24.069069	-34.367573	-18.54598	-25.544521	0.0		True	0.0	None	0.0	None	0.0	None	0.0	None	0.0	None	0.0	None	0.0	None	0.0	None	9.864499999999999e-07	12
