Timestamp	TOTUSJH	TOTBSQ	TOTPOT	TOTUSJZ	ABSNJZH	SAVNCPP	USFLUX	TOTFZ	MEANPOT	EPSZ	MEANSHR	SHRGT45	MEANGAM	MEANGBT	MEANGBZ	MEANGBH	MEANJZH	TOTFY	MEANJZD	MEANALP	TOTFX	EPSY	EPSX	R_VALUE	CRVAL1	CRLN_OBS	LAT_MIN	LON_MIN	LAT_MAX	LON_MAX	QUALITY	NOAA_AR	IS_TMFI	BFLARE	BFLARE_label	CFLARE	CFLARE_label	MFLARE	MFLARE_label	XFLARE	XFLARE_label	BFLARE_loc	BFLARE_label_loc	CFLARE_loc	CFLARE_label_loc	MFLARE_loc	MFLARE_label_loc	XFLARE_loc	XFLARE_label_loc	XR_MAX	XR_QUAL
2014-02-05 00:12:00	80.14678880829726	584884660.3967	4.5928100186215877e+21	1915719434640.8584	0.22536808985959625	90810169970.68468	1.2724329333361442e+21	-4.9425179101990454e+23	1556.402711614596	-0.6363053466966934	23.01089304848619	2.7452745274527453	27.092375521668767	117.72869335041096	117.03427635332159	41.52610604215327	-0.0001014257830151198	1.4777298499221133e+23	-0.07994514160585715	-0.00047096413794967196	1.966405362916321e+23	-0.1902446124754408	-0.2531572508042398	0.0	56.756836	88.513435	7.021286	-34.914463	13.982910999999998	-23.532797	0.0		True	0.0	None	0.0	None	0.0	None	0.0	None	0.0	None	0.0	None	0.0	None	0.0	None	2.4344999999999997e-06	12
2014-02-05 00:24:00	76.66566044647544	565682713.8965	4.320516050393692e+21	1810668723625.3896	1.3112058013905203	109880244825.80592	1.2232315202912259e+21	-4.779738297317315e+23	1524.5045251636554	-0.6362367057660356	22.734184990667572	3.0459231490159326	27.32744536444002	119.08938745085095	117.77425663768177	42.31658789867424	0.0006144357082429805	1.4370963991373353e+23	-0.1007197768553513	0.0028332299168068713	1.902669645657475e+23	-0.19129362780563752	-0.2532666418564332	0.0	56.75996800000001	88.403717	7.027796	-34.800407	14.002307	-23.432158	0.0		True	0.0	None	0.0	None	0.0	None	0.0	None	0.0	None	0.0	None	0.0	None	0.0	None	2.024e-06	12
2014-02-05 00:36:00	76.40532888573162	569454688.0681001	4.36168076101978e+21	1831656807231.4287	0.5282098942267703	10566962232.75116	1.2367071989792889e+21	-4.7769703318362936e+23	1503.7954123241586	-0.6316563775112589	22.78550377851264	1.9688644688644688	27.65045681025807	117.0794292510148	115.93121008149393	41.90676408593022	-0.00024185434717342963	1.4575337334025427e+23	-0.009464001899014722	-0.0011369690748863589	1.898174818967117e+23	-0.19272895039890364	-0.2509946988870996	0.0	56.76308100000001	88.29402900000002	7.031275999999999	-34.682091	14.026875	-23.332232	0.0		True	0.0	None	0.0	None	0.0	None	0.0	None	0.0	None	0.0	None	0.0	None	0.0	None	1.8128999999999998e-06	12
2014-02-05 00:48:00	80.21092115619777	553710017.1626	4.3055136207533575e+21	1901380454216.2583	1.8574734705064813	146736562115.38647	1.198874308567256e+21	-4.688513377175295e+23	1546.753715837261	-0.637588180975834	22.817576743873957	2.099236641221374	27.23918240237787	117.34406778401251	115.72858301858388	43.0672151967978	0.0008861991748599623	1.379119192961568e+23	-0.13693418683140152	0.004096995997568594	1.842946088727846e+23	-0.1875456092052333	-0.2506211563923161	0.0	56.76622800000001	88.18438	7.026378	-34.57159	14.019085	-23.237219	0.0		True	0.0	None	0.0	None	0.0	None	0.0	None	0.0	None	0.0	None	0.0	None	0.0	None	1.8271e-06	12
2014-02-05 01:00:00	79.28229313034946	549132780.0064	4.392855235328138e+21	1866153406401.5989	0.44317890755393297	60725437576.422615	1.1787297810903444e+21	-4.586285844480874e+23	1616.6974174553195	-0.6288849941782299	23.316443252483978	2.7370478983382207	27.550407810494466	120.76188484887112	119.16310699180686	43.41272570999658	-0.0002166074816979144	1.3840900710812853e+23	-0.058052010914339675	-0.0009909261434779164	1.868986065292166e+23	-0.1897904984142184	-0.2562808622591421	0.0	56.769417	88.074768	7.030334	-34.465481	14.040329000000002	-23.171917	0.0		True	0.0	None	0.0	None	0.0	None	0.0	None	0.0	None	0.0	None	0.0	None	0.0	None	1.6937e-06	12
2014-02-05 01:12:00	79.03795928231996	559899485.5644	4.439818267959723e+21	1844144641647.279	1.1616611357915287	29521514198.2865	1.1908561783536718e+21	-4.714166265381085e+23	1635.580012535156	-0.6339898712747988	23.135065357725825	3.6692759295499022	27.29175038969525	119.7904156039867	118.62957841676186	42.494659233888065	-0.0005683273658471275	1.4245250479755903e+23	-0.02824862357986117	-0.0025395105831779678	1.9011485825747197e+23	-0.19157882877954946	-0.25567807270441645	0.0	56.772694	87.965195	7.0412589999999975	-38.753235	14.036876	-23.104893	0.0		True	0.0	None	0.0	None	0.0	None	0.0	None	0.0	None	0.0	None	0.0	None	0.0	None	1.7536e-06	12
2014-02-05 01:24:00	77.1967524045577	554859475.9714	4.31855056874577e+21	1805725644540.2668	1.211234641633279	153869310291.49634	1.1802419276669357e+21	-4.67750230798269e+23	1603.458010601699	-0.6347731318009509	22.907218819212666	3.5502958579881656	27.485948936553555	119.0252387899695	118.09855885042148	42.32963216973158	0.0005972557404503347	1.4368163467306708e+23	-0.148392128937173	0.002670654948156434	1.837336858552261e+23	-0.19498705766120256	-0.2493407795622312	0.0	56.775944	87.855644	7.035113000000001	-38.670589	14.027817	-23.021296	0.0		True	0.0	None	0.0	None	0.0	None	0.0	None	0.0	None	0.0	None	0.0	None	0.0	None	1.5366e-06	12
2014-02-05 01:36:00	73.46879180512053	544467648.5232999	4.07315628671424e+21	1665883768582.084	1.343370581751783	118568118468.69885	1.1364151423546028e+21	-4.620465189903584e+23	1610.8367832924305	-0.6390002541133744	22.226341319678674	2.5210084033613445	27.164378400238146	122.57857734460264	122.08472285290944	43.36889830099757	0.0007055517761301381	1.3966455152697528e+23	-0.12179089745428907	0.0030107502325699576	1.798710557940144e+23	-0.193153027343184	-0.2487577454563932	0.0	56.779289	87.74614	7.032265	-38.598366	14.049839000000002	-22.923235	0.0		True	0.0	None	0.0	None	0.0	None	0.0	None	0.0	None	0.0	None	0.0	None	0.0	None	1.4808e-06	12
2014-02-05 01:48:00	74.86219428550655	547568065.3808999	4.16529591731768e+21	1746454096419.814	2.32200410949592	249136218029.8491	1.1474608802977247e+21	-4.625899349349328e+23	1596.1394311838058	-0.6361295759821172	22.77605569840485	2.6463104325699747	27.774842926523185	123.7784835191371	122.92637242644777	44.59318146832045	0.0011816814806595009	1.3960591673036952e+23	-0.2479564524856553	0.005183667930407001	1.7870708355590348e+23	-0.1919787827350291	-0.2457486700470641	0.0	56.782616	87.63666500000002	7.049465	-34.024223	14.044675	-22.824175	0.0		True	0.0	None	0.0	None	0.0	None	0.0	None	0.0	None	0.0	None	0.0	None	0.0	None	1.5765999999999999e-06	12
2014-02-05 02:00:00	74.81575390388053	549979453.7604	4.1149874569730206e+21	1745495958705.3672	2.6471503750207206	423603728854.8297	1.1562869131706368e+21	-4.674114261630995e+23	1572.8590332711276	-0.6399416412208918	22.728219467814174	2.6903553299492384	27.26448965910389	123.28787434871315	122.5208350318124	43.802810263465005	0.0013437311548328535	1.3842604799019098e+23	-0.4205152932958341	0.005869941180699441	1.806398964502069e+23	-0.1895216663095734	-0.24731742814515625	0.0	56.785973	87.527222	7.047119	-33.914474	14.0399	-22.72679500000001	0.0		True	0.0	None	0.0	None	0.0	None	0.0	None	0.0	None	0.0	None	0.0	None	0.0	None	1.5887000000000001e-06	12
2014-02-05 02:12:00	70.99897916730329	535348242.1780001	3.947663292907015e+21	1621479512758.569	0.12292731806042713	55998327100.697205	1.1204298519917992e+21	-4.57414162795524e+23	1564.4944084922122	-0.6433699009974151	22.614259872143737	1.7894736842105257	27.142658867849434	121.72553395164634	120.85585428103177	43.92647363310672	6.469858845285637e-05	1.3864231197851694e+23	-0.05763640691748785	0.0002794516594067663	1.7144522385151866e+23	-0.1950055284395405	-0.2411440345915553	0.0	56.789364	87.417816	7.043989999999999	-33.803711	14.033986	-22.600588	0.0		True	0.0	None	0.0	None	0.0	None	0.0	None	0.0	None	0.0	None	0.0	None	0.0	None	1.711e-06	12
2014-02-05 02:24:00	68.15047583093174	516131105.1928001	3.806375963868538e+21	1656454291728.974	1.9426329230375043	98996984445.70842	1.1088211260934096e+21	-4.3566162141962125e+23	1469.821389565068	-0.6355895711928821	22.743179086941623	1.7948717948717947	27.390513111772197	117.46332632758713	116.57232816335802	41.96089238302125	-0.0009962220118141048	1.3490103947629015e+23	0.09927732244785302	-0.004602421338384157	1.721707880660723e+23	-0.1968080033187603	-0.2511810817814832	0.0	56.792835	87.30843399999998	7.0417130000000006	-33.692421	14.027081	-22.49921	0.0		True	0.0	None	0.0	None	0.0	None	0.0	None	0.0	None	0.0	None	0.0	None	0.0	None	1.9193999999999998e-06	12
2014-02-05 02:36:00	72.1678142883897	527187441.3206	3.99302601746875e+21	1711426962952.3062	2.6663302685599684	53175805677.43033	1.1222325248929202e+21	-4.455489056291803e+23	1542.6868334172125	-0.6363818684875991	22.83480375670845	2.2062596203181117	27.40560720775055	121.15425200012258	120.12765582144092	43.80908416746754	-0.0013680504199897214	1.3638780899752044e+23	0.05335219649139964	-0.006181504985495694	1.7419245109573342e+23	-0.1948040442523475	-0.248800785063532	0.0	56.796288	87.199089	7.051267	-33.58876	14.046891	-22.377417	0.0		True	0.0	None	0.0	None	0.0	None	0.0	None	0.0	None	0.0	None	0.0	None	0.0	None	1.7889e-06	12
2014-02-05 02:48:00	72.7244149217793	519710359.9262	4.066130813694519e+21	1777810065915.2568	3.2389789740975745	127281528691.30852	1.1320181349481683e+21	-4.3286424526071113e+23	1500.8549041326935	-0.6271593045935899	23.33624327625969	3.8235294117647056	28.085343021449297	119.06063762011469	117.61247398199272	43.246125384944364	-0.001587734791224301	1.3626590857672494e+23	0.12200366025898425	-0.007660315841298004	1.712973939401051e+23	-0.19743010285203927	-0.2481857895134438	0.0	56.799824	87.089775	7.046153	-33.482769	14.042939000000002	-22.27371	0.0		True	0.0	None	0.0	None	0.0	None	0.0	None	0.0	None	0.0	None	0.0	None	0.0	None	1.933e-06	12
2014-02-05 03:00:00	71.74547310699401	512603024.9636	3.9834664104635023e+21	1720954301228.9224	2.9144020999020457	125324677471.86867	1.1074799767986356e+21	-4.2646860239971046e+23	1522.588003563778	-0.6264600324007124	23.14425307543225	2.7918781725888326	27.865469351617964	119.1950390971356	117.89514388144792	44.06024877489252	-0.0014793919288842872	1.3393407007607075e+23	0.12439291622172212	-0.006991251192927273	1.6985433771616136e+23	-0.19674213155972187	-0.2495071227056884	0.0	56.803341	86.980492	7.0407509999999975	-33.376202	14.047316	-25.316944	0.0		True	0.0	None	0.0	None	0.0	None	0.0	None	0.0	None	0.0	None	0.0	None	0.0	None	2.5289e-06	12
2014-02-05 03:12:00	72.6311318762894	503249218.1585	3.940185576578999e+21	1781073265866.4758	2.149341893426581	96365386038.753	1.1041895409602349e+21	-4.180826130906154e+23	1495.4177972312216	-0.6255564895473902	23.26461912186448	2.7721774193548385	27.813949272074733	118.26258438177412	116.71312947117443	43.76699221381299	-0.001083337647896462	1.2915561534607187e+23	0.09497135603378774	-0.005254729013036285	1.711877172588973e+23	-0.19324920676313886	-0.256139777424556	0.0	56.806881	86.87123100000002	7.033853999999999	-33.270934999999994	14.071155	-25.188379	0.0		True	0.0	None	0.0	None	0.0	None	0.0	None	0.0	None	0.0	None	0.0	None	0.0	None	2.9883e-06	12
2014-02-05 03:24:00	71.98252917788116	513922891.809	3.985587539240348e+21	1760615154300.6333	3.4066938249573213	247966617155.8456	1.148587733907733e+21	-4.3099218621999546e+23	1431.1378060069985	-0.6314790779438805	23.308332564364978	3.290414878397712	27.68392510640805	114.06020828839908	112.90722018276286	41.37414944066006	-0.0016245559489543734	1.311883482545363e+23	0.23120443085110384	-0.008126127406395518	1.7256118435925633e+23	-0.19221391904879934	-0.252832373931868	0.0	56.810486	86.761986	7.03068	-33.166958	14.065169	-21.944376	0.0		True	0.0	None	0.0	None	0.0	None	0.0	None	0.0	None	0.0	None	0.0	None	0.0	None	2.9855e-06	12
2014-02-05 03:36:00	74.3532765167446	522868193.58480006	4.169344041198315e+21	1834384740386.4688	1.1920025387121678	41943236232.38849	1.1668844001579843e+21	-4.310498652642339e+23	1469.785542769459	-0.6207586440603785	23.61950340637245	2.762172284644195	27.947450447082385	114.71025266412956	113.04051310034764	42.57433054481257	-0.0005580536229925879	1.3050079068506493e+23	-0.03839285397953132	-0.002813174067214213	1.8249821872682783e+23	-0.18793531886342035	-0.26281726530839955	0.0	56.81407900000001	86.65277900000002	7.025791000000001	-33.057526	14.059243	-21.846933	0.0		True	0.0	None	0.0	None	0.0	None	0.0	None	0.0	None	0.0	None	0.0	None	0.0	None	3.6313e-06	12
2014-02-05 03:48:00	72.05895334943787	522343015.0583	4.112601163786324e+21	1781411996851.3608	2.4763922780219687	49670884687.8942	1.1633471308704232e+21	-4.386075940848105e+23	1468.3430915388285	-0.6322777296222449	23.383207832362128	2.5604551920341394	27.57443190014843	115.55050385109631	114.28695975582008	42.64826485005967	-0.0011742021232915925	1.3203122575328624e+23	0.046047255195512886	-0.005808976104081471	1.778244396248434e+23	-0.19033050221740544	-0.25634401791867584	0.0	56.817696	86.543594	7.020287	-32.948769	14.082372	-21.724676	0.0		True	0.0	None	0.0	None	0.0	None	0.0	None	0.0	None	0.0	None	0.0	None	0.0	None	3.9032999999999995e-06	12
2014-02-05 04:00:00	72.04640932747333	527114486.2395001	4.0520744905950427e+21	1787129329070.2383	3.724619763571703	254766169336.3489	1.1759333009877581e+21	-4.444435617779854e+23	1438.547743594858	-0.6348910366660717	22.975773561897626	2.7817067421027817	27.462514471734828	115.26720915366207	114.63007021165464	41.32668226409667	-0.0017560677810333346	1.3457424325857706e+23	0.2348380777407725	-0.008644067996986235	1.7685134067774586e+23	-0.19224033861395048	-0.25263349652203315	0.0	56.821381	86.434433	7.032429	-37.30191	14.075270000000002	-21.621952	0.0		True	0.0	None	0.0	None	0.0	None	0.0	None	0.0	None	0.0	None	0.0	None	0.0	None	2.7829e-06	12
2014-02-05 04:12:00	73.519234096135	531696110.2991	4.174678449564839e+21	1807341859529.2441	2.8384977113575123	195389006130.82928	1.1713327707583992e+21	-4.406658342046649e+23	1502.618938294831	-0.6240701427017035	22.95940555269085	3.107074569789675	27.734956453293385	117.617547922111	116.61316151546049	42.929339200478296	-0.0013568344700561725	1.3877027970578903e+23	0.18259765481709225	-0.006574311513915656	1.8090292937001987e+23	-0.19652621450685245	-0.25619439535371485	0.0	56.825035	86.325287	7.0332300000000005	-32.732956	14.071614000000002	-24.531643	0.0		True	0.0	None	0.0	None	0.0	None	0.0	None	0.0	None	0.0	None	0.0	None	0.0	None	2.4077000000000003e-06	12
2014-02-05 04:24:00	75.53067608559058	546430443.7257	4.1652755375563074e+21	1838847801193.708	0.7911601661865553	51053985163.42177	1.2191601188785184e+21	-4.586634517608705e+23	1427.5823697659125	-0.6320431729270002	22.542487091250205	1.5475648611743291	27.710873285395962	116.51675052052342	115.5729770928137	42.816686969053094	-0.0003601093155150456	1.4024610515868413e+23	-0.04543034619641533	-0.0017743033725270989	1.853859791569773e+23	-0.1932606423181125	-0.2554638745091109	0.0	56.828712	86.216164	7.028579	-32.623367	14.065920000000002	-24.331356	0.0		True	0.0	None	0.0	None	0.0	None	0.0	None	0.0	None	0.0	None	0.0	None	0.0	None	2.5668e-06	12
2014-02-05 04:36:00	74.8792356214937	550194374.6916001	4.3663935966688114e+21	1865013330413.6985	0.7174684702783738	45228394245.71515	1.2411944573198194e+21	-4.61463828281254e+23	1447.7489934086327	-0.6315518960545	23.31580361649025	3.038309114927345	27.567331491442875	113.2797643419075	112.7503315581358	40.65075468961994	-0.00031606540540897525	1.4008627644329384e+23	-0.03893414387505149	-0.0015997956037352005	1.882698866825621e+23	-0.1917198013731536	-0.2576631073061466	0.0	56.832447	86.10704799999998	7.019029	-32.513228999999995	14.086246	-24.17192600000001	0.0		True	0.0	None	0.0	None	0.0	None	0.0	None	0.0	None	0.0	None	0.0	None	0.0	None	2.3416e-06	12
2014-02-05 04:48:00	78.64219141025353	565522895.1041	4.4862392267368096e+21	1930444240516.8591	3.2390365231417846	264138606795.7655	1.2648953102715236e+21	-4.824699157467076e+23	1482.9150606896405	-0.642403078591939	23.34245072272288	3.5557506584723435	27.182097201732894	116.27223265247942	115.86368888954964	41.53764879712608	-0.0014218773148120213	1.444824214790429e+23	0.2266758917674329	-0.006974545284100225	1.895429536101052e+23	-0.19237666294054034	-0.2523742371295646	0.0	56.83615500000001	85.997955	7.01193	-32.403511	14.094942	-24.039797	0.0		True	0.0	None	0.0	None	0.0	None	0.0	None	0.0	None	0.0	None	0.0	None	0.0	None	2.4237e-06	12
2014-02-05 05:00:00	78.9509202936681	556667914.0081	4.478972066886349e+21	1929593426077.2424	1.2753797943264265	72757348979.93498	1.2341363137952903e+21	-4.661092306746619e+23	1528.8342167915232	-0.6304912478397183	23.22771997416764	3.2638259292837715	27.648265775301024	119.27459637963024	118.81903619177444	42.69563917016108	0.0005781413392232215	1.4608765601862457e+23	-0.06447472310193082	0.0028103141261676874	1.877715523957946e+23	-0.19760816236967327	-0.25399265362641804	0.0	56.839928	85.888878	7.005021000000001	-36.780075	14.120523	-21.067844	0.0		True	0.0	None	0.0	None	0.0	None	0.0	None	0.0	None	0.0	None	0.0	None	0.0	None	2.1907e-06	12
2014-02-05 05:12:00	84.31644854403487	564837477.4036	4.5789112569428684e+21	2052811486384.2808	0.2202537227813406	94424611724.3836	1.2462168396446646e+21	-4.7401462317579256e+23	1550.297320410483	-0.6319108140194472	23.336128805125732	3.0575539568345325	27.735853955748876	122.38691729903965	121.75579016311224	43.92761368544882	9.903494729376824e-05	1.4844609812193245e+23	-0.08299654204778169	0.0004778959260284184	1.9098969684176346e+23	-0.1978940946457948	-0.2546091384101621	0.0	56.843658	85.779808	6.998281	-36.672138	14.146253	-20.948643	0.0		True	0.0	None	0.0	None	0.0	None	0.0	None	0.0	None	0.0	None	0.0	None	0.0	None	2.059e-06	12
2014-02-05 05:24:00	86.64471981785822	565989412.1728001	4.6818960849355444e+21	2167024178992.5183	3.4811884831031046	458831430614.6295	1.2616323193798866e+21	-4.6951029137812486e+23	1529.4605996488324	-0.624632047174168	23.80062115149104	3.123644251626898	28.29884829012555	118.0123244265078	117.09412546442923	42.92294959062814	-0.001510276999177052	1.5097704901558608e+23	0.3891200708005057	-0.007571714166611911	1.9318508000942833e+23	-0.20085843683236893	-0.2570116017171861	0.0	56.847404	85.670753	6.992305	-36.563297	14.168667999999998	-20.849415	0.0		True	0.0	None	0.0	None	0.0	None	0.0	None	0.0	None	0.0	None	0.0	None	0.0	None	1.9085e-06	12
2014-02-05 05:36:00	87.68524886530595	558229182.1522	4.675483994906957e+21	2208539288482.1133	1.3091356448229985	280675636556.3622	1.2465000717105748e+21	-4.660345519102807e+23	1542.0844749468615	-0.6286270751164761	23.87459473180291	3.5917652212001747	28.130908381786927	117.23775177498553	116.64534040910222	42.56639999357685	-0.0005734277901108183	1.5232274596710385e+23	0.2403215344959973	-0.0028799202201183725	1.859104271246409e+23	-0.2054658863350646	-0.2507718098539545	0.0	56.851154	85.561707	6.9871089999999985	-36.454273	14.166505	-23.519388	0.0		True	0.0	None	0.0	None	0.0	None	0.0	None	0.0	None	0.0	None	0.0	None	0.0	None	3.9223000000000005e-06	12
2014-02-05 05:48:00	87.38917372921087	554093987.9366	4.6773955018575577e+21	2138284835500.982	4.51033039379416	220176794588.54474	1.2259807895256952e+21	-4.572939179853498e+23	1603.833481023172	-0.6214404306245592	23.900444775316863	3.916211293260473	27.958963097052198	118.37342287873078	117.61739435629922	44.485402007631066	0.0020538845144782145	1.5593657851683495e+23	-0.19598645806435416	0.01004046706762224	1.8599127806510024e+23	-0.21191030689965748	-0.2527531974236554	0.0	56.854969	85.452667	6.9822070000000025	-36.38295	14.160542	-23.418955	0.0		True	0.0	None	0.0	None	0.0	None	0.0	None	0.0	None	0.0	None	0.0	None	0.0	None	3.6773000000000004e-06	12
2014-02-05 06:00:00	88.56036879819445	549758328.5958	4.673131407387076e+21	2185006062779.4287	5.673657168803223	321387574348.14746	1.198289912123317e+21	-4.5469057152789285e+23	1667.6811627572754	-0.6227756395198261	24.123908781858482	4.407582938388625	28.05959518433897	120.11284796078552	119.64720914155252	44.61084008235167	0.002688937046826172	1.5972925053437918e+23	-0.29773297998073883	0.012719287633846395	1.8012797316530998e+23	-0.21877622361357504	-0.2467157242924145	0.0	56.858727	85.34362800000002	6.9751699999999985	-36.311573	14.181849	-20.522785	66560.0		False	0.0	None	0.0	None	0.0	None	0.0	None	0.0	None	0.0	None	0.0	None	0.0	None	3.9650999999999995e-06	12
2014-02-05 06:12:00	92.48699567258213	556762872.1022	4.909940120952506e+21	2271666407327.4336	4.156994263248812	141033966235.20474	1.2142490828953805e+21	-4.5637211241435856e+23	1715.601290901436	-0.6172147194942995	24.603337529549627	4.825986078886312	28.28661584189579	121.03591599126491	120.79850382099985	44.30381938045394	0.0019289996581200984	1.6692328558812785e+23	-0.1279236285673612	0.009233608756106043	1.7738377041849362e+23	-0.22575329668216096	-0.23990044773438515	0.0	56.862545	85.234596	6.970153	-36.240509	14.177775	-23.162573	66560.0		False	0.0	None	0.0	None	0.0	None	0.0	None	0.0	None	0.0	None	0.0	None	0.0	None	2.7564999999999998e-06	12
2014-02-05 06:24:00	96.86917627230568	544119025.7911999	4.948314392462613e+21	2363914800175.3667	3.240367349132763	90381489263.16887	1.1915477255611597e+21	-4.454605725836016e+23	1765.0482997738454	-0.6164571608527366	24.6990277455721	4.642349597347229	27.95942637247555	120.71858940171528	121.14009902158816	44.15862699132121	0.0015349916386228153	1.696732389888455e+23	-0.08368744331140256	0.007368280183372613	1.66636818646323e+23	-0.234804805671374	-0.2306028107503631	0.0	56.866314	85.12556500000002	6.964803999999999	-36.131901	14.17135	-23.060951	0.0		True	0.0	None	0.0	None	0.0	None	0.0	None	0.0	None	0.0	None	0.0	None	0.0	None	1.8812999999999999e-06	12
2014-02-05 06:36:00	89.61183672313952	514044334.9425	4.416060368184136e+21	2101470836689.1184	8.774010483169741	520062666532.5405	1.1063335974602758e+21	-4.224502259893642e+23	1736.4159901055352	-0.6188174082849917	23.86081746694789	3.864229765013055	28.00319067781145	120.06202447443924	120.52414314615926	44.32438661906449	0.004581728711837986	1.6266313176775884e+23	-0.5308247282919142	0.02108772363291753	1.5433562081638764e+23	-0.23827369813403496	-0.2260753172897029	0.0	56.870075	85.016525	6.959473	-36.023102	14.166911	-22.932213	0.0		True	0.0	None	0.0	None	0.0	None	0.0	None	0.0	None	0.0	None	0.0	None	0.0	None	1.8488999999999998e-06	12
2014-02-05 06:48:00	90.17254013369595	498897601.631	4.3343320237901684e+21	2099849377087.2063	8.835005765024238	572472540688.7378	1.0591515596371676e+21	-4.1372938516135967e+23	1814.1720753222144	-0.6244424458845549	24.28448737494524	4.558087826570317	27.97491820168032	123.71938126160299	124.25810433373293	45.77093352144181	0.0049110649055165295	1.636070984852022e+23	-0.6219900516151248	0.02180324263835497	1.407282610451712e+23	-0.24693246456818624	-0.2124013973478191	0.0	56.873837	84.90748599999998	6.9559929999999985	-35.951836	14.162379	-20.07222	0.0		True	0.0	None	0.0	None	0.0	None	0.0	None	0.0	None	0.0	None	0.0	None	0.0	None	1.5722e-06	12
2014-02-05 07:00:00	83.91107475460531	475964250.9899	4.068773198811265e+21	1907992992221.4944	10.27539827443393	623642420750.3456	9.992230878662227e+20	-3.936213481351477e+23	1840.0801109074646	-0.6227185408506435	23.82630041023688	3.3633633633633635	27.81297893504167	122.93254879293792	122.6665387426898	45.771022025473926	0.006171410375035396	1.544186908472277e+23	-0.7321123903678645	0.02660793229208231	1.3808616780695944e+23	-0.24429412251145602	-0.21845567405272714	0.0	56.877647	84.798447	6.951117	-35.843292	14.182338	-19.977686	0.0		True	0.0	None	0.0	None	0.0	None	0.0	None	0.0	None	0.0	None	0.0	None	0.0	None	1.5071000000000001e-06	12
2014-02-05 07:12:00	83.25584109403232	481578987.5256	4.009447454236539e+21	1886644394989.218	10.55581005793399	806580251608.4263	1.0061298350857092e+21	-3.993718088731543e+23	1793.8573886151673	-0.6244495824166624	23.63405217132997	3.6244800950683302	27.888848984123666	126.17619060463323	125.77959148919352	46.38784256410005	0.00627202023644325	1.5278903245784826e+23	-0.9367351523871772	0.02698657666671304	1.4234868016665374e+23	-0.2388978024897405	-0.22257348143434547	0.0	56.881401	84.6894	6.948864	-35.735455	14.179139	-19.881273	0.0		True	0.0	None	0.0	None	0.0	None	0.0	None	0.0	None	0.0	None	0.0	None	0.0	None	1.3579e-06	12
2014-02-05 07:24:00	76.3082258471466	463616060.9252	3.7738687604298e+21	1684933748481.2715	8.376887381023451	673618860146.4558	9.416494304669933e+20	-3.847426120892546e+23	1851.253627297692	-0.6248838860829313	23.54114536948327	3.2573289902280136	27.909080837485714	128.302988578306	127.59736512714063	47.13067037909587	0.005457255622816582	1.4503687297155536e+23	-0.8577422648360852	0.02223985072795848	1.406803767169254e+23	-0.2355632102085871	-0.22848755956901776	0.0	56.88519300000001	84.580345	6.944369	-35.627056	14.175541	-19.78447	0.0		True	0.0	None	0.0	None	0.0	None	0.0	None	0.0	None	0.0	None	0.0	None	0.0	None	1.365e-06	12
2014-02-05 07:36:00	78.47150652333102	464841949.198	3.8680111387077567e+21	1694158339788.1128	5.333578449903189	331021440084.6496	9.352676912671923e+20	-3.8233602513818746e+23	1940.4145610534129	-0.6193375450836757	23.474394783057328	2.798134576948701	27.818911143424806	131.8607472390569	130.2135079127161	48.642779661905784	0.003553350066557753	1.4556109267378803e+23	-0.4310469590706583	0.0141711790111111	1.455469290529814e+23	-0.23579114671105844	-0.2357682033796349	0.0	56.888924	84.471275	6.9406570000000025	-35.518517	14.169133	-19.687605	0.0		True	0.0	None	0.0	None	0.0	None	0.0	None	0.0	None	0.0	None	0.0	None	0.0	None	1.6799e-06	12
2014-02-05 07:48:00	78.93288343574926	478420872.4826	4.036502544608044e+21	1770100663740.166	7.059951200208375	525813463864.0643	9.819570001000696e+20	-3.956684930961394e+23	1889.020228984081	-0.6227428822872599	23.708950207206488	3.356121814791796	27.95061130361199	131.0661831575195	129.90863939001534	47.70392218174208	0.00438778819155275	1.4644798178468084e+23	-0.638739183961898	0.018187452126309924	1.4834723273333075e+23	-0.2304945677329549	-0.23348379995787624	0.0	56.892647	84.36219799999998	6.95452	-35.41123599999999	14.275782	-19.589676	0.0		True	0.0	None	0.0	None	0.0	None	0.0	None	0.0	None	0.0	None	0.0	None	0.0	None	3.6595e-06	12
2014-02-05 08:00:00	76.1723260678671	485736817.59450006	3.949710012490902e+21	1742362706672.4575	4.7458045156655535	390988681739.2184	1.0063690453895312e+21	-4.029238678637322e+23	1785.162291731653	-0.6246107607189447	23.07514223741333	2.7611044417767108	27.79076607337245	128.71225386374294	126.76272220302047	47.337005053533964	0.0028486221582626377	1.40520597092079e+23	-0.4587083010280812	0.01202789123653669	1.566630754380797e+23	-0.21783439514694525	-0.24285839219393715	0.0	56.896404	84.253105	6.951478	-35.304672	14.646514000000002	-19.468658	0.0		True	0.0	None	0.0	None	0.0	None	0.0	None	0.0	None	0.0	None	0.0	None	0.0	None	3.3331e-06	12
2014-02-05 08:12:00	79.17393786747246	498447812.6847	4.0775824539679227e+21	1854532437763.6333	5.220263607720369	476417497151.5089	1.0528227978816883e+21	-4.170365269620383e+23	1725.8949092779903	-0.6300020239365351	23.429547990741874	3.2040472175379437	27.484692766319647	124.91947238323289	122.63330435336748	46.38336565070949	0.0029343808924791282	1.3956945146989392e+23	-0.5234308009428017	0.012850339201582486	1.645936896817552e+23	-0.21084253109979773	-0.2486457442518621	0.0	56.900097	84.143997	6.9504449999999975	-35.19655200000001	14.675579999999998	-19.371826	0.0		True	0.0	None	0.0	None	0.0	None	0.0	None	0.0	None	0.0	None	0.0	None	0.0	None	2.362e-06	12
2014-02-05 08:24:00	78.48606869160159	502680803.1707	4.038879093932551e+21	1808994371797.2	0.8126567068919909	87894447286.3139	1.0732058754561789e+21	-4.180785157923967e+23	1638.5904197595896	-0.6262577033995025	22.961339773857475	2.640086206896552	27.872669427428182	122.920319202972	120.20565895661764	46.02072923088368	-0.0004378538291443917	1.4065381373784708e+23	0.09256176785628174	-0.0019881788638080773	1.6825317732553245e+23	-0.21069136786159506	-0.2520336358873801	0.0	56.903774	84.034874	6.947392	-35.088223	14.702565	-19.242725	0.0		True	0.0	None	0.0	None	0.0	None	0.0	None	0.0	None	0.0	None	0.0	None	0.0	None	2.4615e-06	12
2014-02-05 08:36:00	79.50429020527343	531687746.2510001	4.360618652207775e+21	1863332553748.4937	2.9922759686565974	253949433319.8401	1.1431612994740291e+21	-4.38029044302978e+23	1646.6849626029534	-0.6203457658019698	23.269749107457017	3.3600802407221666	28.019188131973852	122.13000932513249	119.48282000938808	46.30430144171571	0.00150063990404042	1.511215325525874e+23	-0.2489267534026869	0.006946520000887782	1.7818439757387617e+23	-0.2140214309068929	-0.2523484184543545	0.0	56.907486	83.925735	6.944108	-34.980568	14.971756	-19.114248	0.0		True	0.0	None	0.0	None	0.0	None	0.0	None	0.0	None	0.0	None	0.0	None	0.0	None	2.2729e-06	12
2014-02-05 08:48:00	77.395305090232	535858339.30390006	4.3601929870091234e+21	1858040234385.9304	0.3740813747777476	24851092675.401505	1.1671959352642264e+21	-4.423971585795725e+23	1588.3738400866134	-0.6216555645804346	23.343301378685485	2.8059990324141264	28.01943450013588	120.81052019340305	118.23350161680578	45.564757345117606	-0.00018097792683974243	1.5111831803222304e+23	0.02349937387534405	-0.0008609689131535643	1.7942695912988324e+23	-0.21235114532922567	-0.25213038875966354	0.0	56.911118	83.81656600000002	6.957058999999999	-34.868877000000005	14.999552	-18.986261	0.0		True	0.0	None	0.0	None	0.0	None	0.0	None	0.0	None	0.0	None	0.0	None	0.0	None	2.2923e-06	12
2014-02-05 09:00:00	82.68148821780993	562034286.2821	4.6157599451535937e+21	2012629827465.3816	0.7625249502031668	49958862678.61477	1.231688179660999e+21	-4.6530299029146876e+23	1581.2587780231659	-0.6233908979834754	23.247919435615586	2.5022747952684257	28.045592589179698	123.19501866118445	120.53892605191359	46.200849240703384	-0.0003469176297557629	1.5686163190098894e+23	0.04442613492189658	-0.0016714682735363734	1.902050516151471e+23	-0.2101557815234693	-0.2548277152766319	0.0	56.91473000000001	83.707382	6.953222	-34.757324	15.025781	-18.858454	0.0		True	0.0	None	0.0	None	0.0	None	0.0	None	0.0	None	0.0	None	0.0	None	0.0	None	1.87e-06	12
2014-02-05 09:12:00	86.02171834558901	574961655.2699001	4.859242707400486e+21	2150905965559.824	0.28529697954572963	116409537146.70555	1.2675776358566142e+21	-4.674744204821467e+23	1596.3990496963854	-0.6122185043840223	23.689824693936053	3.359511343804537	28.485714080841888	120.69539639367572	117.94359991759687	46.2477611842533	0.00012447512196585062	1.6639187262656524e+23	-0.09927290504772247	0.0006155514884388836	1.9421635419958626e+23	-0.2179117807045508	-0.2543515552623253	0.0	56.918373	83.598175	6.948286	-34.649532	15.020456	-18.729866	0.0		True	0.0	None	0.0	None	0.0	None	0.0	None	0.0	None	0.0	None	0.0	None	0.0	None	1.736e-06	12
2014-02-05 09:24:00	88.25873034908066	586679090.2952	4.899047694747765e+21	2210960884165.3667	1.5533962216460695	140256471837.5392	1.3115525372596244e+21	-4.773899535637291e+23	1530.6718156504917	-0.6127172763013011	23.417351750519124	2.7800829875518667	28.40878236814454	119.88047402603969	117.35245396248972	45.524312864728316	0.0006445627475709832	1.657380208655825e+23	-0.11375388679151373	0.0032836237778003305	1.988187971254984e+23	-0.2127203305520996	-0.25517862481782205	0.0	56.921936	83.48893699999998	6.945388	-34.53807800000001	15.046043	-18.601967	0.0		True	0.0	None	0.0	None	0.0	None	0.0	None	0.0	None	0.0	None	0.0	None	0.0	None	3.6877999999999997e-06	12
2014-02-05 09:36:00	90.96729718813448	579818209.7726	4.905673677753685e+21	2303763244998.214	0.05702599412159781	27899647495.06909	1.3087628393909398e+21	-4.685040702342357e+23	1514.5176414674795	-0.6084277286978559	23.380465708786	3.116031160311603	28.583052232679897	122.7821469450449	119.84727761215478	46.99272242490978	2.338089139876909e-05	1.7088417147818924e+23	-0.012763051762299738	0.0001222952131675053	1.931727836364052e+23	-0.2219205230616415	-0.25086586320451515	0.0	56.925526	83.379677	6.942481	-34.427395000000004	15.042902	-18.474771	0.0		True	0.0	None	0.0	None	0.0	None	0.0	None	0.0	None	0.0	None	0.0	None	0.0	None	3.6957e-06	12
2014-02-05 09:48:00	91.51765703121555	579048155.633	5.084369849922408e+21	2337515291189.6157	2.4870349571061485	180813117608.8289	1.331602204013826e+21	-4.693082110850515e+23	1518.6295486201886	-0.6102826550204467	23.961511135719146	4.3236810789369295	28.500139010730358	117.96561986687826	115.4665292119089	44.728570684686524	0.0009865271547426213	1.736243103324061e+23	-0.14019304081505596	0.005334516805684388	1.9535681240098297e+23	-0.22577892860807397	-0.2540396083690015	0.0	56.92904300000001	83.270393	6.918178	-34.336475	15.057735	-18.34449	0.0		True	0.0	None	0.0	None	0.0	None	0.0	None	0.0	None	0.0	None	0.0	None	0.0	None	3.4602999999999997e-06	12
2014-02-05 10:00:00	96.27889583091907	590222675.414	5.226927296457601e+21	2447964770950.948	2.533966106523817	116495273171.7709	1.3363012740849103e+21	-4.769272961056832e+23	1588.941414538748	-0.6084483543518594	24.01045259359753	3.2700847799757766	28.45754977099361	121.66199404399599	118.75325622260141	46.84840615576489	0.0010229980244343224	1.7485431969969095e+23	-0.09192989954185528	0.005338359120735586	1.984087277920172e+23	-0.2230734620167678	-0.2531234108423688	0.0	56.932529	83.161079	6.9121710000000025	-34.220646	15.054520000000002	-18.216705	0.0		True	0.0	None	0.0	None	0.0	None	0.0	None	0.0	None	0.0	None	0.0	None	0.0	None	3.9441e-06	12
2014-02-05 10:12:00	96.91550509217191	599054277.0073	5.34753654565497e+21	2470007671158.214	1.064674920809592	146962312857.4837	1.3456486714503012e+21	-4.813918214688273e+23	1615.1727856248417	-0.6050900898628969	24.34634125672241	4.332129963898916	28.666359203841854	123.51446162334827	120.86262949808493	47.72402308229457	0.0004270657524306426	1.805826179795792e+23	-0.11522959020398348	0.002214529312596725	2.0075419168903802e+23	-0.2269850622047108	-0.2523399162013794	0.0	56.935986	83.051735	6.906992999999999	-34.115704	15.055255	-18.090483	0.0		True	0.0	None	0.0	None	0.0	None	0.0	None	0.0	None	0.0	None	0.0	None	0.0	None	2.7401999999999996e-06	12
2014-02-05 10:24:00	97.36977325385469	604769208.6185999	5.536348801002495e+21	2475674789075.927	1.2118016615892864	25793036090.852997	1.346725297127555e+21	-4.809408174028932e+23	1671.5311094719837	-0.5988105388027228	24.71025789239179	5.052125100240577	28.861152595862432	123.99529912594028	121.51779970467628	48.78924698804066	0.0004858867929387676	1.8886062761627325e+23	-0.02021587507628989	0.002506541305205816	1.968258132196461e+23	-0.2351468831284118	-0.24506418877232802	0.0	56.939461	82.94236	6.901126	-34.00967	15.053682	-17.963333	0.0		True	0.0	None	0.0	None	0.0	None	0.0	None	0.0	None	0.0	None	0.0	None	0.0	None	4.4115e-06	12
2014-02-05 10:36:00	100.3865230336352	614638946.9735	5.616804406382331e+21	2598402370348.8203	2.607210680488861	261864682524.79584	1.3707886089137032e+21	-4.903755508537881e+23	1661.8392837378185	-0.6007534032161159	24.69258570052959	5.776031434184676	28.99714640325474	123.92502206111698	121.76385285544058	48.639441076212435	-0.0010244442752412027	1.930267946553473e+23	0.1853999740347431	-0.00529982601078866	1.952825743011137e+23	-0.2364748886831713	-0.23923841817957525	0.0	56.942856000000006	82.832954	6.895489	-33.897133000000004	15.068805	-17.834460999999994	0.0		True	0.0	None	0.0	None	0.0	None	0.0	None	0.0	None	0.0	None	0.0	None	0.0	None	2.647e-06	12
2014-02-05 10:48:00	106.12819834917991	627485834.1616001	5.826739013378923e+21	2795882283571.8667	0.1854978157727799	133960529597.82993	1.3986420037090712e+21	-4.922483257246269e+23	1649.4207684921528	-0.5907011972976949	25.44821113135872	6.503759398496243	29.729122295755786	121.01618784309687	119.22208304817516	47.949697098815676	6.97360209672105e-05	2.0273210267264762e+23	0.08609057384205375	0.00037168605039401137	1.9472971740731646e+23	-0.2432798437721957	-0.2336769293275197	0.0	56.946266	82.723518	6.891114999999999	-33.785851	15.065688	-17.706594	0.0		True	0.0	None	0.0	None	0.0	None	0.0	None	0.0	None	0.0	None	0.0	None	0.0	None	2.7914e-06	12
2014-02-05 11:00:00	114.56759061419126	638282242.2188001	6.081426734093475e+21	2940102841173.324	6.961660897820819	372274177969.1953	1.4120095668290317e+21	-5.028503606962449e+23	1722.1647775576962	-0.5932169682145162	25.590437173463375	7.6720571643475	29.553360861899897	125.19104846409162	123.77546327583728	49.14836533159453	0.0026181500179845124	2.11306597740174e+23	-0.2736860607114879	0.01369163066855721	1.909229139398173e+23	-0.24928024134573604	-0.22523343130000306	0.0	56.94959300000001	82.61404399999998	6.8854039999999985	-33.679493	15.062654	-17.57917	0.0		True	0.0	None	0.0	None	0.0	None	0.0	None	0.0	None	0.0	None	0.0	None	0.0	None	2.3347e-06	12
2014-02-05 11:12:00	109.68185401151268	612437803.8572	5.737664600186777e+21	2822607933887.9893	3.9092025662645433	269523903983.0022	1.3369235180933785e+21	-4.797329774613073e+23	1759.1151003322193	-0.5898275370780791	25.397181596987323	7.5732899022801305	29.60674657326083	124.89577967020271	123.6662971377804	48.82068492984668	0.0015916948559709053	2.0590398587476398e+23	-0.18651172061773105	0.00802982656905857	1.799503295659462e+23	-0.2531571656919645	-0.2212473702474025	0.0	56.95288100000001	82.504532	6.881271000000001	-33.566605	15.062776	-17.451807000000002	0.0		True	0.0	None	0.0	None	0.0	None	0.0	None	0.0	None	0.0	None	0.0	None	0.0	None	2.6804e-06	12
2014-02-05 11:24:00	105.93698080374914	612218719.1037	5.564842033777629e+21	2768632130727.6074	4.362074907727654	310476334934.4154	1.347814941432828e+21	-4.8348168453005196e+23	1673.4239896449924	-0.5946492789120923	25.152972075008698	5.5910543130990416	29.72925745119377	121.82123421664619	120.91707990936398	47.644027649588004	0.001742042694779414	2.055241678733393e+23	-0.1777389031027018	0.00893616809802195	1.770091462954711e+23	-0.25278061638194804	-0.21770909751784887	0.0	56.956146	82.394997	6.875848	-33.460609000000005	15.076916	-17.334219	0.0		True	0.0	None	0.0	None	0.0	None	0.0	None	0.0	None	0.0	None	0.0	None	0.0	None	3.3311e-06	12
2014-02-05 11:36:00	106.56161725789472	601130791.1189001	5.699584023060455e+21	2706486248118.0166	1.3411489482182173	256489682642.8441	1.3202192152510797e+21	-4.728264537412202e+23	1763.2346082175195	-0.5922707806409454	25.593317974865798	6.8611339359079695	29.685431929701338	122.0567254746542	121.46835011627896	48.2145640386407	0.0005510061414207959	2.126513740852372e+23	-0.19649210774526712	0.002802341830108587	1.671865715579251e+23	-0.2663708731550045	-0.2094208571999431	0.0	56.959415	82.285416	6.871643	-33.35125	15.073907	-17.207898999999998	0.0		True	0.0	None	0.0	None	0.0	None	0.0	None	0.0	None	0.0	None	0.0	None	0.0	None	2.9382e-06	12
2014-02-05 11:48:00	99.96736068362793	572671798.0204	5.289350099927729e+21	2547036047279.135	5.079664329814476	416895840781.656	1.2465235446827456e+21	-4.5159349735501005e+23	1759.9697705176525	-0.5937851499917702	25.398223483784623	6.672558550596555	29.51505799775712	121.93388177621176	121.31607627343756	47.691289334756526	0.0022446594475539006	2.002412104132804e+23	-0.35882851392847465	0.011130878391831106	1.6146905670804126e+23	-0.26329045448214805	-0.2123102494122976	0.0	56.962605	82.175804	6.867416	-33.240746	15.070893	-17.0805	0.0		True	0.0	None	0.0	None	0.0	None	0.0	None	0.0	None	0.0	None	0.0	None	0.0	None	2.1452000000000002e-06	12
2014-02-05 12:00:00	95.72806343253951	565025664.8264999	5.138108380397639e+21	2387764522345.621	3.699495679208261	61347166132.09849	1.2214166740004354e+21	-4.444683214606624e+23	1765.8277959863315	-0.5923250552005782	24.78694808131441	5.248744865358284	29.42507367330216	121.69919180506555	121.42836853454136	47.609326229122	0.0016884964304921318	2.0396376952277405e+23	-0.054739855883144534	0.00822380144792754	1.5529953789028624e+23	-0.2718143120852038	-0.2069614478961904	0.0	56.96582	82.06617	6.8623759999999985	-33.136505	15.067001	-16.954832	0.0		True	0.0	None	0.0	None	0.0	None	0.0	None	0.0	None	0.0	None	0.0	None	0.0	None	2.2498e-06	12
