Timestamp	TOTUSJH	TOTBSQ	TOTPOT	TOTUSJZ	ABSNJZH	SAVNCPP	USFLUX	TOTFZ	MEANPOT	EPSZ	MEANSHR	SHRGT45	MEANGAM	MEANGBT	MEANGBZ	MEANGBH	MEANJZH	TOTFY	MEANJZD	MEANALP	TOTFX	EPSY	EPSX	R_VALUE	CRVAL1	CRLN_OBS	LAT_MIN	LON_MIN	LAT_MAX	LON_MAX	QUALITY	NOAA_AR	IS_TMFI	BFLARE	BFLARE_label	CFLARE	CFLARE_label	MFLARE	MFLARE_label	XFLARE	XFLARE_label	BFLARE_loc	BFLARE_label_loc	CFLARE_loc	CFLARE_label_loc	MFLARE_loc	MFLARE_label_loc	XFLARE_loc	XFLARE_label_loc	XR_MAX	XR_QUAL
2014-02-10 14:00:00	39.51812290506614	283425294.45820004	1.963846421806279e+21	825224276832.2058	2.0761242003103977	186659426349.8529	5.06283262988183e+20	-2.2750753346248543e+23	1807.7639149782635	-0.6044281333854805	23.22144637617653	6.845965770171149	31.68791833034131	145.2015881493002	144.14820976625384	64.62724689982252	0.002538049144633738	1.0141300921079843e+23	0.4454908357758413	0.009131128432303938	-2.0255948359498474e+22	-0.26942789509163617	0.0538147676718722	0.0	24.543091	15.133092	15.648547	6.037999999999999	18.841661	12.664503	0.0		True	0.0	None	0.0	None	0.0	None	0.0	None	0.0	None	0.0	None	0.0	None	0.0	None	1.0871e-06	12
2014-02-10 14:12:00	40.40843311038571	283500316.55730003	1.921725501854681e+21	832399873616.2476	2.090431545346888	251694275672.5945	5.033340855290665e+20	-2.2721332331818942e+23	1811.0567546443865	-0.6034867399646101	22.458484821764817	4.130162703379224	31.298655114096928	148.83931671301332	146.08498385041662	67.94285572158329	0.002616309818957307	9.89781303651163e+22	0.6150061376093959	0.009197017758096322	-2.551621454898276e+22	-0.2628894659411656	0.06777198145567738	0.0	24.544924	15.023073000000002	15.679694	6.162202	18.842905	12.764008	0.0		True	0.0	None	0.0	None	0.0	None	0.0	None	0.0	None	0.0	None	0.0	None	0.0	None	1.8168000000000001e-06	12
2014-02-10 14:24:00	39.385718631541465	282306162.8959	1.8907870135529235e+21	827828355687.428	2.131899535142552	263297719129.2784	5.0734753221644976e+20	-2.290026581224766e+23	1762.05195599855	-0.6108120893715152	22.114792126614734	4.331683168316832	30.905915774880675	147.45204649156102	145.72109941558418	64.74177386973443	0.0026384895236912765	9.489749880307665e+22	0.6362081926180424	0.00937629992752701	-2.5813668168693407e+22	-0.25311732184801616	0.06885204179608184	0.0	24.546673	14.913023999999998	15.684031	6.287137	18.844797	12.861016	0.0		True	0.0	None	0.0	None	0.0	None	0.0	None	0.0	None	0.0	None	0.0	None	0.0	None	1.2865999999999999e-06	12
2014-02-10 14:36:00	39.09274869890636	283587930.532	1.9584697923174051e+21	841448061158.1663	0.05587830752925217	41342855924.72212	5.1678587949009057e+20	-2.2969399344594785e+23	1791.862165768149	-0.6098871071767409	22.293463268465654	4.860267314702309	30.30409416865225	147.51866159766797	145.7135695729567	63.325421524864396	6.789587792132704e-05	9.509236103912965e+22	0.09807872016737146	0.00024478797150494767	-3.360763726704593e+22	-0.25249073394863786	0.08923552751355356	0.0	24.548393	14.802944	15.687611	6.411686	18.844812	12.984047	0.0		True	0.0	None	0.0	None	0.0	None	0.0	None	0.0	None	0.0	None	0.0	None	0.0	None	1.0637999999999999e-06	12
2014-02-10 14:48:00	37.652197317472094	275421041.4108	1.8978426364168068e+21	781338024444.8712	1.1920433177957803	187889943529.20505	5.0063081452617046e+20	-2.261091047206828e+23	1843.936582839225	-0.6181707024281253	21.801053711554136	3.354838709677419	29.440365964310132	147.62424172365039	146.56383260341408	61.868113558251416	0.0015381204100590716	9.78795174647691e+22	0.4733542567706354	0.005349344693996222	-3.0108100087086162e+22	-0.2675975836500121	0.08231400236006446	0.0	24.550087	14.692838	15.691316	6.510403	18.817732	13.081704	0.0		True	0.0	None	0.0	None	0.0	None	0.0	None	0.0	None	0.0	None	0.0	None	0.0	None	9.9868e-07	12
2014-02-10 15:00:00	35.530037882375844	266588982.87750003	1.6997957320429876e+21	748889121361.2583	0.3945828745890361	47441659338.19925	4.843756050879755e+20	-2.209893550400109e+23	1670.9194337923334	-0.6241898496756831	21.094026230901747	2.088772845953004	30.2718226262878	143.39624952283737	142.70200439915874	61.40230493840732	-0.000515121246199786	9.02831414318138e+22	0.12092770288897267	-0.0018225910709958844	-3.3176843349219957e+22	-0.2550069457796699	0.09370880719170352	0.0	24.55175400000001	14.582703	15.694016	6.635532	18.817839000000006	13.181202	0.0		True	0.0	None	0.0	None	0.0	None	0.0	None	0.0	None	0.0	None	0.0	None	0.0	None	9.8572e-07	12
2014-02-10 15:12:00	34.800186078929116	262866049.2717	1.6789312870740931e+21	744189583728.7203	0.7295300957201865	155637400203.2124	4.7791033958611406e+20	-2.154098934972545e+23	1652.5666578105927	-0.6170475709719674	21.586938981795893	4.052287581699346	30.453940539655385	141.4963312218679	140.32028684479226	62.097057890260295	0.0009536341120525313	9.40254596943472e+22	0.397243825312418	0.003432542428606509	-3.0537340291511797e+22	-0.2693385181709819	0.08747505207351074	0.0	24.553392	14.472542	15.697685	6.761100999999999	18.818129000000006	13.301692	0.0		True	0.0	None	0.0	None	0.0	None	0.0	None	0.0	None	0.0	None	0.0	None	0.0	None	1.0392e-06	12
2014-02-10 15:24:00	38.5078905972384	269954933.16	1.7248408565642166e+21	813430463359.8999	0.5834479160206241	84285095143.5607	4.9754576480768485e+20	-2.2492025970002497e+23	1633.6890150990757	-0.6273715129436829	21.502766909477774	2.2641509433962264	29.97858811310103	140.5551091479547	138.29692145433208	61.361397376854704	0.0007338967497114769	9.241637838211529e+22	0.2070131715886996	0.002656159258644316	-3.1801797896152795e+22	-0.2577775928397485	0.08870495742379046	0.0	24.555054	14.362355	15.703856	6.886822	18.817776	13.399555	0.0		True	0.0	None	0.0	None	0.0	None	0.0	None	0.0	None	0.0	None	0.0	None	0.0	None	1.2392e-06	12
2014-02-10 15:36:00	33.202693334913256	256289146.80730003	1.5769896470215983e+21	680706657359.7266	0.35519617871148645	68928942110.23285	4.589572155105893e+20	-2.098527247958447e+23	1665.4315767385276	-0.6165550789066778	21.099691529592885	2.524544179523142	30.26667096290174	141.0665515087166	139.1371987936775	63.07424028491169	0.0004981713586416361	8.920623270980562e+22	0.18877124488269406	0.0017146581925737696	-3.3976141405692247e+22	-0.26209121611772723	0.09982316200902536	0.0	24.556696	14.252146	15.726835	7.0109759999999985	18.817865	13.520846	0.0		True	0.0	None	0.0	None	0.0	None	0.0	None	0.0	None	0.0	None	0.0	None	0.0	None	1.2363e-06	12
2014-02-10 15:48:00	33.068228140906584	270042078.6451	1.5821112413976548e+21	646953656644.1564	0.4698251207460671	86031600594.39818	4.6879138571242006e+20	-2.240149944034505e+23	1714.1141027762806	-0.6246448486007489	20.342426702090087	1.7266187050359711	30.044107203883772	147.69796267591843	146.49693147643882	64.02648297302557	0.0006760073679799528	9.272371097145405e+22	0.24171639722807714	0.0021417873519437754	-3.5364498069700177e+22	-0.25855139097140445	0.09861059346235036	0.0	24.558264	14.141913	15.729885	7.1365690000000015	18.817871	13.618629	0.0		True	0.0	None	0.0	None	0.0	None	0.0	None	0.0	None	0.0	None	0.0	None	0.0	None	1.1801000000000001e-06	12
2014-02-10 16:00:00	34.607550667207086	280622659.4466	1.7126609015929666e+21	700057193538.625	2.536685105251112	201571707593.3517	4.838823074463125e+20	-2.290318761066078e+23	1798.6208605797283	-0.6145547686843771	20.992029939523963	2.928870292887029	30.06181424725489	153.99116633030667	152.3061622139395	69.08568911118313	-0.0035379150700852327	9.408479398702977e+22	-0.5489742825092403	-0.011197499113663918	-3.878752883519367e+22	-0.2524550721424586	0.10407748133738193	0.0	24.559811	14.03166	15.732728	7.2632970000000014	18.790581	13.715278	0.0		True	0.0	None	0.0	None	0.0	None	0.0	None	0.0	None	0.0	None	0.0	None	0.0	None	1.2254000000000002e-06	12
2014-02-10 16:12:00	32.15164877033025	262989518.19640005	1.6193395269688702e+21	628597617685.8936	1.4762306747718363	96740905145.05257	4.4565917442225314e+20	-2.1148756994613502e+23	1899.286030210036	-0.6055275297841886	20.43107126784045	1.7133956386292832	29.92791680658161	154.69928092215025	152.7953814525714	68.74959763609529	0.002299424727058935	9.25216202665683e+22	0.2942559157584517	0.006992428347848835	-3.943405048305696e+22	-0.2649062930077403	0.1129068870783857	0.0	24.561337	13.921387	15.734278	7.417289	18.790184	13.81411	0.0		True	0.0	None	0.0	None	0.0	None	0.0	None	0.0	None	0.0	None	0.0	None	0.0	None	1.2026000000000001e-06	12
2014-02-10 16:24:00	36.62018901935751	268773977.489	1.6772456699478407e+21	747922569188.9039	3.357292711522544	270008937506.00964	4.6273517269570657e+20	-2.145194342246888e+23	1825.0640637827787	-0.6009895954626444	21.091620741519232	2.601156069364162	30.476395777539395	149.60920766227923	146.99515852650498	67.69243223841696	0.00485157906289385	9.617524352709438e+22	0.7619565323588815	0.015604270688459982	-3.909440980079245e+22	-0.26944095256343725	0.10952543118503642	0.0	24.56284500000001	13.811095000000002	15.73589	7.570581	18.789024	13.935791	0.0		True	0.0	None	0.0	None	0.0	None	0.0	None	0.0	None	0.0	None	0.0	None	0.0	None	1.2535e-06	12
2014-02-10 16:36:00	34.999803012217996	266149821.0598	1.6410730628553564e+21	689511879482.2743	2.233824994251501	174363747047.6961	4.489321221069557e+20	-2.161206339167423e+23	1912.8587442795774	-0.6114452223593102	20.757088593071295	1.238390092879257	29.882833759026	154.09369458424504	151.3656277801281	69.84038270556508	0.0034579334276339025	9.159030366523718e+22	0.5270956149553034	0.01041687411593943	-3.5615883873035888e+22	-0.2591258991592719	0.10076391892622882	0.0	24.564339	13.700788	15.740112	7.6993399999999985	18.790695	14.033216	0.0		True	0.0	None	0.0	None	0.0	None	0.0	None	0.0	None	0.0	None	0.0	None	0.0	None	1.3003999999999999e-06	12
2014-02-10 16:48:00	34.21738307500476	269764841.01970005	1.6013400043357594e+21	712120602244.2194	3.2681686772425813	266216400983.262	4.67484157256118e+20	-2.166700839703977e+23	1698.2934738452786	-0.6047851811600078	20.574780686430767	1.6901408450704225	30.726162124280854	146.1090433730871	143.90806341359297	65.99754496404553	-0.004603054474989551	9.198970453168516e+22	-0.7322331411277179	-0.015098444505203775	-4.0375121724288885e+22	-0.2567683046066098	0.11269795469187865	0.0	24.565815	13.590465	15.743228	7.854006	18.761993	14.131669	0.0		True	0.0	None	0.0	None	0.0	None	0.0	None	0.0	None	0.0	None	0.0	None	0.0	None	2.5901999999999998e-06	11
2014-02-10 17:00:00	34.22521618103487	268228907.3919	1.7282214777566674e+21	708612564304.4883	2.554197904281731	109598226915.6164	4.666640213531035e+20	-2.134093070715616e+23	1848.4775417807864	-0.5990943373165777	21.33727401522071	2.272727272727273	30.50403777859302	144.89036460821654	141.7173927362637	65.86752304600692	-0.0036281220231274593	9.19444820333796e+22	-0.3031417553261137	-0.01190981112010212	-4.716159833971929e+22	-0.2581116038919178	0.13239463119877135	0.0	24.567327	13.480127	15.746096	7.982675	18.760777	14.229891	0.0		True	0.0	None	0.0	None	0.0	None	0.0	None	0.0	None	0.0	None	0.0	None	0.0	None	2.5192e-06	12
2014-02-10 17:12:00	34.940059668490505	277197571.7559	1.7066524093820502e+21	690456549017.7815	1.6524879034273765	43651819286.17178	4.729154007176204e+20	-2.2426737898026893e+23	1867.8592356755623	-0.609206025366655	21.01888947702635	1.3081395348837208	29.955409034802127	142.9929246832738	140.7049382484411	65.37117353686861	0.0024018719526560693	9.5531558732878e+22	0.1239080997262802	0.00740912996885987	-4.11697217166124e+22	-0.2595045318555137	0.11183455501406343	0.0	24.568829	13.36978	15.748879	8.13676	18.729034	14.326906	0.0		True	0.0	None	0.0	None	0.0	None	0.0	None	0.0	None	0.0	None	0.0	None	0.0	None	1.705e-06	12
2014-02-10 17:24:00	35.56456761416712	272488533.8356	1.6184521673599395e+21	696280472959.7751	0.12835480790770834	16616534560.007753	4.554679163123459e+20	-2.228005531362723e+23	1904.1772539034173	-0.6156806592618606	20.145977831489308	0.78125	29.878603690597267	150.07023637822218	148.49594953187446	67.87310892146445	0.00020055438735579442	9.448228301871743e+22	-0.05070513407600519	0.0005830937392900228	-4.1303389624199935e+22	-0.2610896314155484	0.11413660242586228	0.0	24.570271	13.259421	15.777936	8.266714	18.669016	14.444560999999998	0.0		True	0.0	None	0.0	None	0.0	None	0.0	None	0.0	None	0.0	None	0.0	None	0.0	None	1.3523e-06	12
2014-02-10 17:36:00	34.57261423233261	270265973.5188	1.6312592018503044e+21	665739701617.8782	3.7092109202047454	191135962955.9129	4.515858861183464e+20	-2.2651401563427245e+23	1971.6161450477866	-0.6310897779839663	20.27932283712955	0.9630818619582664	29.497424892951663	148.82415168305857	148.5733937827352	65.56583548225935	-0.005953789599044536	9.507087730489928e+22	-0.5991712143119242	-0.016828379134778755	-3.6787303057166327e+22	-0.2648765847141328	0.10249295547548136	0.0	24.571705	13.149055	15.779702	8.417839	18.636541	14.542693	0.0		True	0.0	None	0.0	None	0.0	None	0.0	None	0.0	None	0.0	None	0.0	None	0.0	None	1.2523999999999999e-06	12
2014-02-10 17:48:00	35.83300359072969	265256184.42780003	1.655411017794008e+21	691848874539.5322	6.7195607553654515	404206754990.1564	4.499067842132848e+20	-2.1967557686788625e+23	2000.8072287008279	-0.6235965593979342	20.06029963869288	1.9261637239165328	29.29141950304389	152.53062771153205	152.56801503329652	67.09463786651803	-0.01078581180636509	9.501384709020424e+22	-1.2671170411462522	-0.031205219378751405	-3.500140617261675e+22	-0.26971732126710724	0.09935904926044704	0.0	24.573132	13.038681	15.782383	8.543367	18.606136	14.640787	0.0		True	0.0	None	0.0	None	0.0	None	0.0	None	0.0	None	0.0	None	0.0	None	0.0	None	1.193e-06	12
2014-02-10 18:00:00	36.59493286032972	265406384.7217	1.6354892914027484e+21	691801245388.2909	4.43767505247976	132720625177.95233	4.425853336265576e+20	-2.251916151646201e+23	2076.7324623621384	-0.6388933823785138	20.107510826436613	3.2040472175379437	28.269617164386677	159.95036257527192	161.30713707902538	66.33931039710667	-0.007483431791702798	9.645228023146774e+22	-0.4371083254589056	-0.02040438107129704	-2.621455673119518e+22	-0.2736457283729463	0.07437358094040641	0.0	24.574553	12.928303	15.785044	8.66855	18.604071	14.737654999999998	66560.0		False	0.0	None	0.0	None	0.0	None	0.0	None	0.0	None	0.0	None	0.0	None	0.0	None	1.3428e-06	12
2014-02-10 18:12:00	32.673447808997864	240523314.1127	1.532478081919093e+21	648280809910.0267	3.9158154118094206	116462595582.40234	4.0429777438706486e+20	-2.003744973717357e+23	2064.286707791781	-0.6272964342799788	20.781384245731953	2.5044722719141324	28.575876245272198	158.93672722045324	160.40029422539615	65.1807690200975	-0.007005036514864795	8.981264112025521e+22	-0.4068960735484679	-0.020009136868488105	-2.281180350253912e+22	-0.28116926189206026	0.07141509116347665	0.0	24.575974	12.817923	15.812721	8.795098	18.574615	14.834292	66560.0		False	0.0	None	0.0	None	0.0	None	0.0	None	0.0	None	0.0	None	0.0	None	0.0	None	1.3002e-06	12
2014-02-10 18:24:00	33.084721653734874	234196413.1856	1.4865126533246138e+21	650970797385.4363	4.018747272763559	210475414395.26425	4.0419515692591147e+20	-1.9702105801704046e+23	1967.179330980752	-0.6334611958118659	20.745975836811365	2.2847100175746924	28.454730793573518	152.4522597047695	154.76897091823062	61.48765868437295	-0.0070628247324491375	8.532032547188566e+22	-0.7224385150508368	-0.02101026982594571	-1.8523969479281413e+22	-0.2743215164127468	0.05955818111845292	0.0	24.577438	12.70754	15.815945	8.890148	18.559082	14.931034	0.0		True	0.0	None	0.0	None	0.0	None	0.0	None	0.0	None	0.0	None	0.0	None	0.0	None	1.2263e-06	12
2014-02-10 18:36:00	33.68788838865097	230151972.1645	1.4866138643911774e+21	685501958916.5781	2.8507865804380423	174732923466.99213	4.110043720130368e+20	-1.9826493208675613e+23	1887.69113816746	-0.6486622982826107	21.22644023772736	3.3726812816188865	27.98845595785311	150.60251644000996	153.51127989390392	57.94569120765048	-0.00480739726886685	8.36302289398257e+22	-0.5754849366737192	-0.015026169868168904	-1.9614258162922013e+22	-0.27361256445628346	0.06417186158519524	0.0	24.578857	12.597157	15.819619	9.017341	18.562309	15.028403	0.0		True	0.0	None	0.0	None	0.0	None	0.0	None	0.0	None	0.0	None	0.0	None	0.0	None	1.1771e-06	12
2014-02-10 18:48:00	33.5620641836895	221032631.9363	1.3944476742777622e+21	691151848485.9432	0.0875973269602297	97784003099.78896	4.085882436249854e+20	-1.8903293887941788e+23	1710.0992689064276	-0.6439743381625259	20.952368001577046	2.6058631921824107	28.279572069532684	142.96543685244518	144.58034018076958	57.637117588134366	-0.0001426666562870191	8.24683029654557e+22	0.3110391393554718	-0.0004821358444524612	-1.7741968091955627e+22	-0.2809429464324348	0.06044117087448926	0.0	24.580328	12.486778	15.848577	9.112368	18.563055	15.125172	0.0		True	0.0	None	0.0	None	0.0	None	0.0	None	0.0	None	0.0	None	0.0	None	0.0	None	1.1021e-06	12
2014-02-10 19:00:00	33.85915824630009	223693293.60550004	1.4424285542262508e+21	725874012946.0891	1.3845752071358652	30638347559.638275	4.215909658553527e+20	-1.914226245343714e+23	1655.6858124141907	-0.6443587910789116	21.759625018398552	3.8109756097560976	28.374443833528506	143.99206817876592	144.88124042464898	54.89810867974826	-0.0021106329377071115	8.277167121250056e+22	0.09121749365517796	-0.007528301397028677	-1.937572737963934e+22	-0.27862251981866104	0.06522175892733728	0.0	24.581753	12.376403	15.853732999999998	9.237918	18.565182	15.220869	0.0		True	0.0	None	0.0	None	0.0	None	0.0	None	0.0	None	0.0	None	0.0	None	0.0	None	1.1889e-06	12
2014-02-10 19:12:00	33.785765019132235	220583033.9933	1.5124786604495699e+21	753995974637.3336	2.894549352361403	122990416753.7888	4.314486122529709e+20	-1.837095728286718e+23	1617.723050890774	-0.6271151005471329	21.891931963412762	2.8409090909090917	28.83620851695427	135.94686231053709	136.61904819726507	53.817416505388145	-0.0041115757846042645	8.280068762973994e+22	-0.3412053206090109	-0.01612948767124115	-2.6216725714857108e+22	-0.2826502764595837	0.0894940003917056	0.0	24.583183	12.266034	15.882948999999998	9.331339	18.567148	15.321391	66560.0		False	0.0	None	0.0	None	0.0	None	0.0	None	0.0	None	0.0	None	0.0	None	0.0	None	1.7855e-06	12
2014-02-10 19:24:00	36.618118997460364	225473879.837	1.5599435048216602e+21	804624432346.4829	1.0790770644047476	53346233640.3897	4.3925063313024064e+20	-1.895844050923539e+23	1661.4101545291644	-0.6331312884641023	21.940716408379494	3.5360678925035365	28.60296328130441	138.79424444182985	138.17512109251214	55.514948606568325	-0.0015262759043914392	8.478428113312966e+22	0.14736730737758796	-0.005860910913204189	-2.603039966915902e+22	-0.2831434427803893	0.08693046494906491	0.0	24.584621	12.155672	15.896609	9.434609	18.570669	15.421443	66560.0		False	0.0	None	0.0	None	0.0	None	0.0	None	0.0	None	0.0	None	0.0	None	0.0	None	1.6049e-06	12
2014-02-10 19:36:00	33.73023201387503	229187753.7571	1.6692456807193969e+21	757217653507.6659	0.15866883216301186	2374774377.220673	4.5022244157318896e+20	-1.8838851747317638e+23	1700.8393960129713	-0.6189427843192757	22.06546784292487	4.330175913396482	29.167530887952022	143.2909677350535	141.52915720266776	58.053302992676535	-0.00021470748601219467	8.643968302786196e+22	-0.006276159210080646	-0.0008552610860550431	-2.9667243626797967e+22	-0.2839940502029709	0.09747051794737507	0.0	24.586071	12.045321	15.923316	9.555128	18.572014000000006	15.520051	0.0		True	0.0	None	0.0	None	0.0	None	0.0	None	0.0	None	0.0	None	0.0	None	0.0	None	1.2224e-06	12
2014-02-10 19:48:00	32.845615443804235	223872804.8636	1.5373367486666417e+21	706122780188.4929	0.5915993550385998	48788141852.42711	4.320371411285509e+20	-1.8680011373127955e+23	1687.4555055650744	-0.6282944639591189	21.52768270870428	1.749271137026239	28.6414423920732	140.8422580734589	140.32155616443748	57.98171096366727	0.0008623897303769674	8.259234151403643e+22	0.1389007759892222	0.0032458122927135915	-3.052548074886496e+22	-0.2777959279689704	0.10267119318670416	0.0	24.587528	11.934979	15.925822	9.653831	18.573189000000006	15.618032	0.0		True	0.0	None	0.0	None	0.0	None	0.0	None	0.0	None	0.0	None	0.0	None	0.0	None	1.249e-06	12
2014-02-10 20:00:00	28.353966421499052	219265142.38850003	1.5236791999394095e+21	658788601317.2142	0.6904169479122119	91822562801.46992	4.369818006529597e+20	-1.7969796648932653e+23	1544.160061450432	-0.6171079731157336	22.25499560703765	2.4226110363391657	29.935767003487616	135.2707375647365	133.32588500208314	55.72437232763989	0.0009292287320487373	8.133704674862845e+22	0.2413643609788329	0.0038943306753601616	-3.3143056720063206e+22	-0.2793228050315589	0.11381789652356936	0.0	24.58905	11.824651	15.929198	9.776335	18.573494	15.716107999999998	0.0		True	0.0	None	0.0	None	0.0	None	0.0	None	0.0	None	0.0	None	0.0	None	0.0	None	1.5609e-06	12
2014-02-10 20:12:00	29.50023274935587	214915988.3864	1.4888023172093171e+21	661967344688.1067	2.6467242568918543	212643238242.6869	4.319374975551002e+20	-1.7833041944288654e+23	1537.7899283117365	-0.6248045881359721	21.5300707113583	2.3319615912208507	29.1327694390393	136.4586900380806	134.5776192660907	55.17255876227857	-0.0036306231233084415	7.802111047117705e+22	-0.5696836594829618	-0.015158939898932838	-3.5223937656132435e+22	-0.27335744482711394	0.12341179888726415	0.0	24.590538	11.714337	15.932265	9.876997	18.575312	15.816113	0.0		True	0.0	None	0.0	None	0.0	None	0.0	None	0.0	None	0.0	None	0.0	None	0.0	None	1.9158e-06	12
2014-02-10 20:24:00	29.303686378069234	208881829.0868	1.4023036709511123e+21	652144067140.1174	0.09358897403849016	37007728219.409485	4.16382529951654e+20	-1.721619792834363e+23	1523.6890254365353	-0.6206176012080515	20.978785732532963	1.443001443001443	29.215386717930325	136.0400437141407	133.94797064305953	54.571536975678654	-0.00013504902458656587	7.584217733650435e+22	-0.10429548928472987	-0.0005529342206541879	-3.471065531278002e+22	-0.2733994483850912	0.12512660301791506	0.0	24.592089	11.604039	15.936387	10.000374	18.57711	15.913395	0.0		True	0.0	None	0.0	None	0.0	None	0.0	None	0.0	None	0.0	None	0.0	None	0.0	None	1.4997e-06	12
2014-02-10 20:36:00	28.787421476439647	208217949.5488	1.4236331042410086e+21	631985171130.2515	1.8149180822125093	124705855828.24146	4.1679509279591504e+20	-1.7518778134342215e+23	1569.513134964878	-0.6335388138892575	20.615349104524885	1.0248901903367496	28.17231663584825	137.99374961107242	136.05748083256867	54.41108811957302	-0.0026572739124634107	7.482681477985639e+22	-0.3565895018395012	-0.01067184232094332	-3.206001736612246e+22	-0.27059930275509103	0.11593996578783007	0.0	24.593609	11.493759	15.94155	10.123706	18.581036	16.010794	0.0		True	0.0	None	0.0	None	0.0	None	0.0	None	0.0	None	0.0	None	0.0	None	0.0	None	1.2546e-06	12
2014-02-10 20:48:00	29.308919334805932	208762807.96860003	1.5060527107406989e+21	642679761571.5925	0.4273892856302295	60563211726.09992	4.169909936961858e+20	-1.740199964262069e+23	1680.0567980786816	-0.6276732070278962	21.186088256676463	1.3333333333333337	27.806951452535266	136.64226070332086	133.9302529544006	54.11493655064909	-0.0006331693120447844	7.70856401424893e+22	-0.1752277571187931	-0.002515551898898205	-3.57169375888533e+22	-0.2780404089052608	0.1288275211011014	0.0	24.595148	11.383498	15.947724	10.22198	18.582062	16.107372	66560.0		False	0.0	None	0.0	None	0.0	None	0.0	None	0.0	None	0.0	None	0.0	None	0.0	None	1.1458e-06	12
2014-02-10 21:00:00																																	False	0.0	None	0.0	None	0.0	None	0.0	None	0.0	None	0.0	None	0.0	None	0.0	None	1.1578e-06	12
2014-02-10 21:12:00	28.63404516304811	216032501.5954	1.6551810777304114e+21	635127228062.0776	3.2108162294848186	326647493278.47144	4.257508156865882e+20	-1.767705372911481e+23	1838.2446536674588	-0.6161384049159861	21.546044624571326	2.5073746312684366	28.224136053986417	138.81617980557502	135.0857320204235	57.02591834238826	-0.004735717152632475	8.163751062025042e+22	-0.9408844558406648	-0.01839279794037379	-3.77221226983718e+22	-0.2845497125577373	0.13148146102616262	0.0	24.598289	11.163039	15.973793	10.444182	18.584675	16.325773	0.0		True	0.0	None	0.0	None	0.0	None	0.0	None	0.0	None	0.0	None	0.0	None	0.0	None	1.1526e-06	12
2014-02-10 21:24:00	28.598670618771767	212679480.4609	1.6237455373185948e+21	636650861594.5778	4.5989236746063735	355101623264.3068	4.205407515190375e+20	-1.7161304263611284e+23	1819.4336326302848	-0.6075922442600515	21.545990399266444	2.083333333333333	28.35195163553824	138.12146817600737	134.8810630744727	57.33548929559365	-0.0068436364205452	8.189042323374621e+22	-1.0319619043627806	-0.026902008436973008	-3.7477074376819055e+22	-0.2899312620515655	0.1326867665716724	0.0	24.599894	11.052844	15.977182	10.541011	18.586794	16.428482000000002	0.0		True	0.0	None	0.0	None	0.0	None	0.0	None	0.0	None	0.0	None	0.0	None	0.0	None	1.2442e-06	12
2014-02-10 21:36:00	29.279090055441323	218224984.69890004	1.6533457948028607e+21	645283155483.6407	5.125351147129921	279507950427.4164	4.225537748770576e+20	-1.743669236558894e+23	1886.2846267694283	-0.601654403107225	21.52710844031804	2.272727272727273	28.37960205421341	141.83929344160458	139.2134159442223	59.2992245207661	-0.0077656835562574566	8.400362664193245e+22	-0.8270342207339278	-0.02932785747078292	-3.6346466434504846e+22	-0.2898551559344837	0.12541376030046275	0.0	24.601574	10.942674	15.982773000000002	10.665724	18.589155	16.528392999999998	0.0		True	0.0	None	0.0	None	0.0	None	0.0	None	0.0	None	0.0	None	0.0	None	0.0	None	1.4468e-06	12
2014-02-10 21:48:00	28.35234480347908	211679459.926	1.6450167756001792e+21	619221380650.6134	3.952693113523353	230929949843.3153	4.070509231433713e+20	-1.675514162513502e+23	1956.8344910045853	-0.5960145442864655	21.79267675374621	2.8436018957345968	28.690836607092944	141.84072424984674	139.3209360258032	59.750325629063894	-0.006244380906040051	8.247373743470325e+22	-0.7124301312590271	-0.0233995512793942	-3.272767174730669e+22	-0.2933758969784306	0.11641900019971235	0.0	24.603279	10.832529	15.986046	10.764498	18.591108	16.62738	0.0		True	0.0	None	0.0	None	0.0	None	0.0	None	0.0	None	0.0	None	0.0	None	0.0	None	1.4138e-06	12
2014-02-10 22:00:00	26.61915165517963	204375551.6363	1.5371767926445881e+21	585324130305.085	2.290923937755982	62154431991.77968	3.9289814196275295e+20	-1.638488012138365e+23	1903.7403436790798	-0.6036730663139979	21.856135017402373	3.6184210526315774	28.54962884314157	137.2459324550797	135.83853616502898	56.501773957989656	-0.003767967002888128	8.007419707641467e+22	-0.19963017323027216	-0.013979636800677188	-2.898022507236264e+22	-0.29501977264187984	0.1067727148584447	0.0	24.604961	10.722411	15.992272	10.889872	18.591965	16.754658	0.0		True	0.0	None	0.0	None	0.0	None	0.0	None	0.0	None	0.0	None	0.0	None	0.0	None	1.2412e-06	12
2014-02-10 22:12:00	28.178141288156663	204335570.40660003	1.5691846588213182e+21	621132347730.7603	3.0074778489159435	89782886628.15005	3.96789747719934e+20	-1.6431919631405552e+23	1887.5008987417443	-0.6055245761410688	22.843523735848603	4.15335463258786	28.692641290694226	137.84924424600894	137.70328455963283	55.75800529388653	-0.004804277713923232	8.186496366086446e+22	-0.2800710886426249	-0.018334602580593648	-2.340703871278245e+22	-0.30167654500211744	0.08625612535364381	0.0	24.60667	10.612321	15.998026	10.986226	18.595354	16.851204	0.0		True	0.0	None	0.0	None	0.0	None	0.0	None	0.0	None	0.0	None	0.0	None	0.0	None	1.1959e-06	12
2014-02-10 22:24:00	31.82625867632124	206102238.8998	1.5453197272857222e+21	689663027401.0758	3.9788573655971256	192995397218.5075	3.998060854598548e+20	-1.676798553375914e+23	1838.2393849964608	-0.6126121544316835	22.70183525920592	4.897314375987362	28.41999801983052	142.15898096218862	142.31673653898952	56.45229016693653	-0.006285714637594196	8.162435426972209e+22	-0.5953648449402434	-0.02394284357062798	-2.204385258367539e+22	-0.2982115616845909	0.0805364007266789	0.0	24.60841	10.50226	16.003407	11.083569	18.597267	16.976189	0.0		True	0.0	None	0.0	None	0.0	None	0.0	None	0.0	None	0.0	None	0.0	None	0.0	None	1.1113e-06	12
2014-02-10 22:36:00	30.404338519726142	201642990.5799	1.4189632542751457e+21	657282701541.7473	3.2685583623195362	234903535106.5465	3.944896680295737e+20	-1.6931531591303254e+23	1743.0031809347613	-0.6322671533885125	21.680233203076487	2.6101141924959217	27.96159604236702	139.83661881656946	139.80291836820138	55.484535565371246	-0.005332069106557154	7.811505277489818e+22	-0.7482720767528768	-0.019861491946576368	-1.7005605692431657e+22	-0.29170179784649164	0.06350332717876493	0.0	24.61018	10.392229	16.007399	11.206846	18.598761	17.076921	0.0		True	0.0	None	0.0	None	0.0	None	0.0	None	0.0	None	0.0	None	0.0	None	0.0	None	1.0670000000000001e-06	1
2014-02-10 22:48:00	34.03549881242448	214025360.6309	1.6513180234615468e+21	779439250110.7795	3.7275906856411187	46990961477.94925	4.234690515167477e+20	-1.7129937050396167e+23	1761.2196045598812	-0.6026678449772348	23.489731373327746	5.807365439093484	29.903152323589328	136.0747574185607	135.69185916980447	53.50673917949636	-0.005279873492409517	8.774493314909965e+22	-0.12996609218369645	-0.021734489926135463	-1.688966282413453e+22	-0.3087054529918218	0.05942144834897607	0.0	24.61198	10.282229	16.011511	11.306745	18.6005	17.17705	0.0		True	0.0	None	0.0	None	0.0	None	0.0	None	0.0	None	0.0	None	0.0	None	0.0	None	-99999.0	0
2014-02-10 23:00:00	35.307701003758176	220613387.2259	1.768227685631825e+21	802197607763.8057	1.6803527496479542	65710306536.40236	4.535576601438842e+20	-1.8032930361351727e+23	1756.5337850860456	-0.6154913725768623	23.647187031925263	6.728232189973617	28.70339990591928	131.71079081779408	132.10708430305158	51.42871502952619	-0.002216824207978832	8.75074122726414e+22	-0.1692677835283579	-0.00942961477291446	-1.6319286169794437e+22	-0.29867612313177105	0.055700208689590185	0.0	24.613811	10.172261	16.015411	11.40813	18.602016	17.30307	0.0		True	0.0	None	0.0	None	0.0	None	0.0	None	0.0	None	0.0	None	0.0	None	0.0	None	-99999.0	0
2014-02-10 23:12:00	36.753383738127816	226017390.5433	1.7667373505031082e+21	844732667251.1765	2.8480196384657086	12961885855.21567	4.646352476557412e+20	-1.8851392827332064e+23	1712.1367473351547	-0.6280425434073214	23.53099547648797	6.048906048906049	29.11915785268832	128.0548798468503	130.4393379144553	48.5317259025058	-0.003665404940110307	8.80054534669504e+22	0.03257213990860268	-0.015479800855162812	-1.3668429769680221e+22	-0.2931940856325598	0.04553698220371343	0.0	24.61572300000001	10.062324	16.038956	11.528537	18.601479	17.404099	0.0		True	0.0	None	0.0	None	0.0	None	0.0	None	0.0	None	0.0	None	0.0	None	0.0	None	-99999.0	0
2014-02-10 23:24:00	35.924450702178966	226404311.5771	1.840825961090144e+21	836040527245.6616	1.9569447729174911	36091789043.605316	4.708338251748041e+20	-1.8960035871769403e+23	1761.2681319595513	-0.6305825384234438	23.96676475242449	6.480304955527319	28.47198996338564	127.49523258429899	130.86196882202321	48.71616260562603	-0.002486588021496177	8.977959451541857e+22	0.08954092292020342	-0.010601836073051206	-1.2243029591265217e+22	-0.2985935522013168	0.040718491936760685	0.0	24.61767	9.95242	16.042501	11.628802	18.575165	17.502344	0.0		True	0.0	None	0.0	None	0.0	None	0.0	None	0.0	None	0.0	None	0.0	None	0.0	None	-99999.0	0
2014-02-10 23:36:00	34.18049445261859	227860680.0019	1.7893432755532003e+21	793448025007.6099	1.9898951090445445	8873039964.268616	4.686576087818549e+20	-1.908296308668585e+23	1714.1882566688125	-0.630614303575772	23.66262262071331	5.089058524173027	28.642075412348266	126.78280459093071	129.26242612013476	47.85174564730486	-0.0025316731667233386	8.957454560528245e+22	0.022040737084367303	-0.010711234898473272	-1.117481906928269e+22	-0.2960074357341407	0.036928231286459064	0.0	24.619598	9.842549	16.046373000000006	11.75301	18.576519	17.627762	0.0		True	0.0	None	0.0	None	0.0	None	0.0	None	0.0	None	0.0	None	0.0	None	0.0	None	-99999.0	0
2014-02-10 23:48:00	36.70526296228775	229193540.2191	1.7971837374798493e+21	860405663069.78	1.7936190057141843	101298694294.09714	4.7842908875459966e+20	-1.941879285612708e+23	1668.6263562930649	-0.6379803893997994	23.52625993478476	5.7953144266337855	28.395426153593174	126.96379326965956	129.34673808672326	48.04867572040094	-0.002211614063765949	8.973779718537476e+22	0.2438638276477642	-0.009555405504189244	-1.2701505304657702e+22	-0.29482241875885506	0.041729222615773234	0.0	24.621563	9.732713	16.049851999999998	11.852406	18.577599	17.728199	0.0		True	0.0	None	0.0	None	0.0	None	0.0	None	0.0	None	0.0	None	0.0	None	0.0	None	-99999.0	0
2014-02-11 00:00:00	36.49541992424785	232159962.2041	1.817386205629496e+21	867688742157.8347	0.3865319061358513	194067309949.81686	4.8512070044939846e+20	-1.947404312062703e+23	1634.9683193096885	-0.6316207301454769	23.841804307469104	6.690561529271205	28.93524847871932	125.32518806708453	128.2955643892733	46.26618863042136	-0.0004618063394693564	9.1632921445456e+22	0.4526674007307082	-0.0020408392830463615	-8.986636700952607e+21	-0.2972020365274744	0.029147239735726044	0.0	24.623558	9.622909	16.054298	11.974717	18.582489	17.8276	0.0		True	0.0	None	0.0	None	0.0	None	0.0	None	0.0	None	0.0	None	0.0	None	0.0	None	1.1261e-06	6
2014-02-11 00:12:00	36.94209450663443	237651791.1686	1.7904607583214554e+21	881150422683.1055	0.7865604933373329	69586545334.70819	4.9814350575818473e+20	-2.002478002186829e+23	1558.6054712613666	-0.6344744806910696	23.32030312787117	4.971098265895955	28.70897892641953	127.37596706104569	129.42538509997266	46.42357608790331	-0.0009093184894073213	9.196742233956017e+22	0.15705397079278965	-0.004049886842183759	-9.025719566689924e+21	-0.2913938753168117	0.028597511326891117	0.0	24.625589	9.51314	16.058388	12.074409	18.586077	17.93071	0.0		True	0.0	None	0.0	None	0.0	None	0.0	None	0.0	None	0.0	None	0.0	None	0.0	None	1.3113999999999998e-06	5
2014-02-11 00:24:00	37.24908181719496	241961020.6006	1.8205026041366548e+21	884915681492.76	0.5543994147736913	130135340246.62085	5.0390343170195954e+20	-2.0427844961823547e+23	1548.9431344377124	-0.6357181129852557	23.42919696452561	5.1977401129943495	29.374543472106748	125.71655343388849	128.43331104231888	45.30573274936295	-0.0006264400166934365	9.469924204957128e+22	0.2870641620133267	-0.002801553292784409	-1.1696265968818793e+22	-0.2947056998395847	0.036398984545687435	0.0	24.627655	9.403404	16.062475	12.169809	18.656433	18.054934	0.0		True	0.0	None	0.0	None	0.0	None	0.0	None	0.0	None	0.0	None	0.0	None	0.0	None	1.6244999999999999e-06	12
2014-02-11 00:36:00	35.822564856967006	237627456.4227	1.7532873441710886e+21	835074107759.3921	2.4016349887530097	10311693695.704376	4.874150831477032e+20	-2.031670909253207e+23	1584.8770384849433	-0.6437899899764528	23.58612387022449	5.162064825930372	29.108863003584446	125.16361771621608	128.10606855098084	45.6431501189789	-0.0028831152325966515	9.107895618553248e+22	-0.02416568627494109	-0.01229685485665447	-1.4370189530490972e+22	-0.2886083569080723	0.04553584013857388	0.0	24.629803	9.293703	16.067411	12.267488	18.660891	18.156008	0.0		True	0.0	None	0.0	None	0.0	None	0.0	None	0.0	None	0.0	None	0.0	None	0.0	None	2.3443e-06	12
2014-02-11 00:48:00	33.33401158197333	234337883.7003	1.798904494138673e+21	786380057573.4742	1.1054206658277503	159782082033.66528	4.816051202147319e+20	-1.9882467620584514e+23	1635.9321622573816	-0.6388741277759876	23.979299915431323	6.40096618357488	28.932530034457887	123.86922079784406	127.05177330847536	44.63551142693265	-0.001335049113318539	8.980345937984105e+22	0.3767027931613144	-0.005756645319255602	-1.827243228089081e+22	-0.2885612987150717	0.05871396075461949	0.0	24.631935	9.184035	16.071692000000002	12.386951	18.664682	18.258387	0.0		True	0.0	None	0.0	None	0.0	None	0.0	None	0.0	None	0.0	None	0.0	None	0.0	None	2.1343e-06	12
2014-02-11 01:00:00	36.11901754274085	245891167.3074	1.9130593255447805e+21	836264546762.3425	3.2378750677980936	63970824395.85175	5.046199539301495e+20	-2.0964055362263746e+23	1663.4051043552618	-0.6419775677694681	24.097718544733148	7.390300230946883	28.424336550577802	132.858985057724	136.2970337736395	46.242262750166454	-0.003738885759582096	9.261653723649747e+22	0.14419556682840912	-0.016039097780949488	-1.7789524382554838e+22	-0.2836175457604623	0.05447646172240883	0.0	24.634151	9.074403	16.074835	12.486288	18.667305	18.384308	0.0		True	0.0	None	0.0	None	0.0	None	0.0	None	0.0	None	0.0	None	0.0	None	0.0	None	2.4543e-06	12
2014-02-11 01:12:00	32.30606034477368	233577174.7905	1.7593085218160142e+21	757074526937.9038	2.2530533189729067	9296864229.431458	4.772859609300144e+20	-1.992181731736002e+23	1633.4605491978546	-0.6422232884426562	23.61410807750873	6.781750924784218	28.59891581480988	130.19299453171817	133.88816279530698	45.68233802497017	-0.002778117532642302	8.785628731087092e+22	0.022376398334239142	-0.01174732157472152	-1.8213073315489053e+22	-0.283223929063854	0.05871381938196892	0.0	24.636353	8.964803	16.079693	12.579055	18.70768	18.486156	0.0		True	0.0	None	0.0	None	0.0	None	0.0	None	0.0	None	0.0	None	0.0	None	0.0	None	2.3513e-06	12
2014-02-11 01:24:00	33.59017180832681	239364395.8374	1.705386612883932e+21	772924243842.2657	0.9385781120439723	50747529207.80417	4.839776862018092e+20	-2.0434704504667014e+23	1581.4459415243603	-0.6428303025105045	22.497525073420235	5.541871921182267	28.305192657310663	132.55168935531577	135.39499018157767	46.85798466803575	-0.0011558843744383894	8.980644415947306e+22	0.12198883011334034	-0.004773623478882368	-2.051507328773156e+22	-0.2825110764544794	0.06453585254714962	0.0	24.638586	8.855236	16.083344	12.677611	18.71204	18.590752	0.0		True	0.0	None	0.0	None	0.0	None	0.0	None	0.0	None	0.0	None	0.0	None	0.0	None	1.7323e-06	12
2014-02-11 01:36:00	35.32569463910789	241548531.7738	1.7673355027009186e+21	810508529861.6395	1.5539252072763994	35014892439.80301	4.881391574376452e+20	-2.036695280562259e+23	1597.5754735457776	-0.6349054267695389	23.25372638860255	4.801920768307324	29.26501453227157	131.81544292625003	133.26118494798953	48.94372951449809	-0.0018654564313042008	9.0085122570957e+22	0.08204562219901412	-0.007869788664876266	-2.5113969706211585e+22	-0.28082518645454924	0.07828856779104283	0.0	24.640854	8.745703	16.088307999999998	12.776224	18.716555	18.715927	0.0		True	0.0	None	0.0	None	0.0	None	0.0	None	0.0	None	0.0	None	0.0	None	0.0	None	1.2919e-06	12
2014-02-11 01:48:00	30.93646618154885	240024200.7104	1.7215041582582908e+21	703363275681.866	2.078128147273352	91258238788.34824	4.817062634063696e+20	-2.045404791727984e+23	1616.2970087246656	-0.6416699454511574	22.677679069747448	4.239401496259352	28.250240946099925	130.83727760091827	132.9601735069952	47.43393843354949	-0.0025911822285203893	8.972577640131912e+22	-0.2220915189330467	-0.010547789175587774	-2.4908007128500512e+22	-0.2814813687825462	0.07813964081867411	0.0	24.643152	8.636202	16.092716	12.899153	18.72052	18.817574	0.0		True	0.0	None	0.0	None	0.0	None	0.0	None	0.0	None	0.0	None	0.0	None	0.0	None	1.1862e-06	12
