Timestamp	TOTUSJH	TOTBSQ	TOTPOT	TOTUSJZ	ABSNJZH	SAVNCPP	USFLUX	TOTFZ	MEANPOT	EPSZ	MEANSHR	SHRGT45	MEANGAM	MEANGBT	MEANGBZ	MEANGBH	MEANJZH	TOTFY	MEANJZD	MEANALP	TOTFX	EPSY	EPSX	R_VALUE	CRVAL1	CRLN_OBS	LAT_MIN	LON_MIN	LAT_MAX	LON_MAX	QUALITY	NOAA_AR	IS_TMFI	BFLARE	BFLARE_label	CFLARE	CFLARE_label	MFLARE	MFLARE_label	XFLARE	XFLARE_label	BFLARE_loc	BFLARE_label_loc	CFLARE_loc	CFLARE_label_loc	MFLARE_loc	MFLARE_label_loc	XFLARE_loc	XFLARE_label_loc	XR_MAX	XR_QUAL
2014-02-13 19:12:00	432.6163214818721	5742132161.570701	3.694548586940638e+22	7841921623070.567	20.352993324660503	1299837749744.731	9.715407260214373e+21	-5.024825304726431e+24	1913.8327008966753	-0.6589239395844779	20.602348607035577	2.744909190974133	27.629050807049733	83.06230313462504	83.30986893540391	34.36992733841187	-0.0014002747385387345	2.4978068990580027e+23	-0.0442596353638858	-0.0042733052198498335	-1.3073652685320865e+24	-0.032754666330398814	0.17143964635084605	4.1728538810727915	395.32962	332.763123	2.837569	56.601776	7.848939	68.831726	0.0	11978.0	True	0.0	None	0.0	None	0.0	None	0.0	None	0.0	None	0.0	None	0.0	None	0.0	None	2.9783999999999997e-06	12
2014-02-13 19:24:00	438.14554886278745	5720582744.441601	3.7059537836319646e+22	7861456493810.24	21.077606474612406	1142568706586.8992	9.641675391003324e+21	-5.005740436723611e+24	1948.289464161568	-0.6588939645985186	20.6234496173042	2.6949661383788315	27.563396935315318	83.48284941570238	83.70867947586288	34.360064140380764	-0.0014715915991490892	2.415410429005014e+23	-0.0417492950380005	-0.004442141501944432	-1.2918199565838483e+24	-0.031793485375789896	0.1700392546318548	4.180770138178147	395.332458	332.652771	2.851346	56.70545600000001	7.842088	68.92893199999999	0.0	11978.0	True	0.0	None	0.0	None	0.0	None	0.0	None	0.0	None	0.0	None	0.0	None	0.0	None	3.5583999999999997e-06	12
2014-02-13 19:36:00	434.7167964182836	5675459665.045401	3.7221979888915216e+22	7715330386582.75	22.30162878798129	1194429412843.187	9.535595150724896e+21	-4.960890614606122e+24	1990.884200018836	-0.6581821505107848	20.52412643742629	2.6353175166927123	27.203959258760115	83.58242385893814	83.46623494821364	34.023645311784264	-0.0015843726050000914	2.2891935654602204e+23	-0.06646852533553425	-0.004739920806632468	-1.3126975585389637e+24	-0.030371690506820138	0.17416108702449795	4.1599999323937675	395.335419	332.542419	2.864712	56.811142	7.840304	69.029488	0.0	11978.0	True	0.0	None	0.0	None	0.0	None	0.0	None	0.0	None	0.0	None	0.0	None	0.0	None	3.8821e-06	12
2014-02-13 19:48:00	439.54853622101683	5653511573.4775	3.705994584833307e+22	7840602207463.973	26.07244579401297	1350168744759.7654	9.455260115696844e+21	-4.951984981945446e+24	2010.9292844567474	-0.6595513898977146	20.745992852042185	3.0986524464941985	27.414522539757872	84.61257373111644	84.63749717355806	34.69794931208522	-0.0018789597718371995	2.261950059027865e+23	-0.02353774119160704	-0.0055579249780672605	-1.3146309596056437e+24	-0.03012675342817672	0.17509477104064866	4.111870497245069	395.338409	332.432098	2.880234	56.922623	7.835260000000001	69.156044	0.0	11978.0	True	0.0	None	0.0	None	0.0	None	0.0	None	0.0	None	0.0	None	0.0	None	0.0	None	6.5458e-06	12
2014-02-13 20:00:00	439.80393128050173	5666438345.590301	3.687168113597831e+22	7911168064044.173	27.660235087557673	1239993075440.373	9.525062039260428e+21	-4.978474247905763e+24	1988.817375673505	-0.6615664637756465	20.480465824414004	2.220630372492837	26.94672305751947	84.65361081230779	84.6250083974427	34.532401577327306	-0.001981534141955561	2.322779910878093e+23	-0.06887261965725695	-0.0058761717401655785	-1.3046139332094163e+24	-0.03086635011550268	0.17336412390781306	4.16577426209297	395.34137	332.321777	2.895178	57.02967099999999	7.824988	69.250786	0.0	11978.0	True	0.0	None	0.0	None	0.0	None	0.0	None	0.0	None	0.0	None	0.0	None	0.0	None	6.6689e-06	6
2014-02-13 20:12:00	423.6574591241198	5633896285.2630005	4.198300982722706e+22	7971544210164.0	6.491448415616789	789283698543.3167	9.326815220769604e+21	-4.732671768978456e+24	2322.2408344980013	-0.6325357393737756	21.178727646850948	3.6509219128773966	27.55227677874646	85.18346522063058	84.66611250466202	36.35472163056272	-0.0004768565647261287	2.546780430442626e+23	-0.11311202980086082	-0.0014115623321911974	-1.3820458466124762e+24	-0.034038482304053964	0.1847145616912648	4.135241686337279	395.34433	332.2114870000001	2.903196	57.139725	7.825437	69.35141	0.0	11978.0	True	0.0	None	0.0	None	0.0	None	0.0	None	0.0	None	0.0	None	0.0	None	0.0	None	3.9281e-06	9
2014-02-13 20:24:00	431.0140682507914	5684284370.1701	4.2317764533977874e+22	8032182280250.367	1.027113460522204	803926204220.8037	9.344194970496267e+21	-4.8080344331869793e+24	2372.2995812236804	-0.6369117638012473	21.121329162996048	3.5884455032757585	27.1330864486631	86.54989213916944	86.43906692631096	36.71892392511119	-7.646764893703125e-05	2.645953016434432e+23	-0.1167619396647392	-0.00022077370713644644	-1.3955144154711438e+24	-0.035050468669697805	0.18486131081607995	4.10949802400836	395.34729	332.101196	2.911572	57.251911	7.821403	69.44757800000001	0.0	11978.0	True	0.0	None	0.0	None	0.0	None	0.0	None	0.0	None	0.0	None	0.0	None	0.0	None	3.8536e-06	12
2014-02-13 20:36:00	456.4138234451132	5775382944.9175005	3.8941421917121165e+22	8268958109569.207	24.546783092424285	846898452884.6709	9.567021374114179e+21	-5.037986085774526e+24	2126.8137989484007	-0.6568460872846051	21.140537240389296	3.1551461521723363	27.17145027000441	86.87270725541426	86.71132696707924	35.95328523431533	-0.0017804296143050906	2.3561492237792133e+23	-0.1198348123550762	-0.0051305228727694715	-1.3712932817041235e+24	-0.03071916778547648	0.1787874383278579	4.111123661033531	395.350311	331.990906	2.925292	57.361935	7.81951	69.571259	0.0	11978.0	True	0.0	None	0.0	None	0.0	None	0.0	None	0.0	None	0.0	None	0.0	None	0.0	None	2.5542e-06	12
2014-02-13 20:48:00	475.65056377290864	5784075424.9832	3.891475474676037e+22	8590536439162.263	35.7781906530551	1017315651165.598	9.601960948660089e+21	-5.058252154240221e+24	2122.432503279096	-0.6584972821146194	20.781108953681677	2.2671302332319283	26.90707241908529	87.84153501907306	87.75306807368591	36.02524565030278	-0.0025914957737979928	2.4458701886966097e+23	-0.12043582071300232	-0.007459327203865944	-1.3789940003592843e+24	-0.03184101587960101	0.17952126022973086	4.088700249763401	395.353333	331.880646	2.93972	57.47314100000001	7.814717	69.681351	0.0	11978.0	True	0.0	None	0.0	None	0.0	None	0.0	None	0.0	None	0.0	None	0.0	None	0.0	None	1.7801e-06	12
2014-02-13 21:00:00	482.59304498759695	5875959165.5567	4.003282171944003e+22	9058596551273.318	37.06771922979849	1286564085844.255	9.880093042440564e+21	-5.124808822610504e+24	2064.8120728988833	-0.6567292154418332	21.34880176555769	3.212548804712652	27.3800536585925	85.53027386791116	85.58740068176988	35.22567499784435	-0.002539058786889409	2.7289275415442023e+23	-0.03205277911610736	-0.007615449816036052	-1.418229602618245e+24	-0.03497040583151023	0.18174196277031554	4.117401567274155	395.356415	331.770416	2.94988	57.586643	7.815192999999999	69.771286	0.0	11978.0	True	0.0	None	0.0	None	0.0	None	0.0	None	0.0	None	0.0	None	0.0	None	0.0	None	1.294e-06	12
2014-02-13 21:12:00	470.53318935024413	5810466622.5085	4.0036416321188834e+22	8777902881750.9375	35.21709711157971	1230687479616.422	9.845592402016229e+21	-5.051578570118105e+24	2057.949388035517	-0.654641560739253	21.413452357517144	3.344938221038978	27.45969431189034	83.73415279036671	83.43725428074346	34.86393419314978	-0.0024042256356894944	2.7976119530584026e+23	-0.038480104780855486	-0.0073263572159504575	-1.411887276061277e+24	-0.036254668315494974	0.18296856658948046	4.135406582703076	395.359467	331.660217	2.963535	57.697605	7.811216	69.864082	0.0	11978.0	True	0.0	None	0.0	None	0.0	None	0.0	None	0.0	None	0.0	None	0.0	None	0.0	None	1.0017e-06	12
2014-02-13 21:24:00	459.99279249577546	5809252217.9347	3.966897100088401e+22	8665747164868.964	31.32197974866721	1039365611019.522	9.878289666185756e+21	-5.063563074092592e+24	2023.7276821108767	-0.6563318596806978	21.309749263294933	3.353658536585366	27.625880877982077	82.71279098979805	82.50282352027226	34.57112204111622	-0.0021222291312871615	2.80349464330794e+23	-0.03685500994438398	-0.0065113590716697435	-1.3878812896786612e+24	-0.036338499707084485	0.17989520314883792	4.161139151811616	395.362518	331.550018	2.979204	57.813526	7.8126929999999986	69.965744	0.0	11978.0	True	0.0	None	0.0	None	0.0	None	0.0	None	0.0	None	0.0	None	0.0	None	0.0	None	9.9151e-07	12
2014-02-13 21:36:00	436.23253695689635	5749311932.9968	4.349399118559352e+22	8941719580005.086	11.112225187227931	906480581266.603	9.820314697127143e+21	-4.829841174459272e+24	2171.2017255354067	-0.6325639160201789	21.952526140539646	4.554494828957837	28.26315753589035	80.85780646893829	80.82691744397155	34.812537005075306	-0.0007367383933718711	2.81324943940189e+23	-0.04798813059203607	-0.0023678294412048965	-1.4380078482756865e+24	-0.036845105622523175	0.1883357739760165	4.139332246878062	395.365662	331.43985	2.994693	57.92741	7.808062	70.064194	0.0	11978.0	True	0.0	None	0.0	None	0.0	None	0.0	None	0.0	None	0.0	None	0.0	None	0.0	None	2.791e-06	12
2014-02-13 21:48:00	439.75586056989226	5676515109.0853	3.868736458203366e+22	8484977720680.055	28.989518431685266	693253083585.0385	9.766838435531087e+21	-4.925958907507537e+24	1947.3951552414123	-0.6534261151015924	21.45073628739617	3.76362056287185	28.00923439676765	79.26576955591618	79.69150869598894	33.40439955687674	-0.0019380611332855504	2.4883293295605666e+23	-0.0307245080396948	-0.006177580724698407	-1.352772353925855e+24	-0.03300757065654883	0.1794446117882593	4.153173449377886	395.368805	331.32971200000014	3.009318	58.041161	7.809575	70.18690500000001	0.0	11978.0	True	0.0	None	0.0	None	0.0	None	0.0	None	0.0	None	0.0	None	0.0	None	0.0	None	2.0093e-06	12
2014-02-13 22:00:00	426.8411386949235	5594183308.9545	3.792390121769251e+22	8353839583786.85	26.19428525001172	663782107231.8262	9.775697223870885e+21	-4.856166496033128e+24	1885.271433825094	-0.6536486686509902	21.079225282959484	3.1623423780286526	28.14272979650391	77.10290112690816	77.60397066828806	32.907726295224535	-0.0017294523471551378	2.2869504995973056e+23	-0.022425237475319455	-0.0056632596237884796	-1.3085871021920714e+24	-0.03078276147561267	0.1761381570958125	4.125609895835554	395.371948	331.219604	3.02486	58.15218	7.809092999999999	70.28756700000001	0.0	11978.0	True	0.0	None	0.0	None	0.0	None	0.0	None	0.0	None	0.0	None	0.0	None	0.0	None	1.6185e-06	12
2014-02-13 22:12:00	417.3157262159458	5524740041.7611	3.697360798308097e+22	8282417686346.85	30.102959588243365	981836939635.99	9.826373821967848e+21	-4.809890072104821e+24	1779.0687319801086	-0.6555574967506341	20.98513245036433	3.3101156623426413	28.336690519255605	74.09702127366064	74.493576749575	32.378864394369536	-0.0019237576423979657	2.346519061308932e+23	0.013113856230293186	-0.006582441439338912	-1.2815732635069428e+24	-0.031981565874668244	0.17467030388066696	4.1190148246753004	395.375092	331.1094970000001	3.033561	58.26762	7.806922	70.3881	0.0	11978.0	True	0.0	None	0.0	None	0.0	None	0.0	None	0.0	None	0.0	None	0.0	None	0.0	None	1.5568e-06	12
2014-02-13 22:24:00	402.589775654465	5449242790.767301	3.976434107403298e+22	8283260384615.839	3.2512734217489454	545562576746.8727	9.649124637982876e+21	-4.634505530846962e+24	1940.256064558052	-0.6404050094136687	21.532431974352388	4.866511145671333	28.940877976161428	73.40594303876877	74.2526665260087	32.51882712605963	-0.00021068386610607475	2.4880108124539474e+23	-0.0689570330802948	-0.0007274384359657279	-1.2913101036424796e+24	-0.03437981845454171	0.17843574758405767	4.10999034106173	395.378357	330.999451	3.046219	58.379662	7.805949000000001	70.48214	0.0	11978.0	True	0.0	None	0.0	None	0.0	None	0.0	None	0.0	None	0.0	None	0.0	None	0.0	None	1.817e-06	12
2014-02-13 22:36:00	381.57516753161684	5372863784.9003	3.851382569044051e+22	7921088267083.416	0.186199015512994	630669707724.9497	9.556885434543592e+21	-4.595654954410836e+24	1914.344961876339	-0.6440640943043959	21.001824450534976	4.2114991088520695	28.29315586983785	73.15184140008171	73.6441672331939	32.433641525027795	1.2291986764787034e-05	2.5368802978320515e+23	-0.08120155476501496	4.2159220678352e-05	-1.2576580005682647e+24	-0.03555344183996369	0.17625613087058242	4.120761935234122	395.381592	330.889404	3.059949	58.496605	7.802557000000001	70.584991	0.0	11978.0	True	0.0	None	0.0	None	0.0	None	0.0	None	0.0	None	0.0	None	0.0	None	0.0	None	1.5877e-06	12
2014-02-13 22:48:00	399.2544823196348	5313249683.0995	3.892058353601473e+22	8323060383236.821	5.524928759100308	184624056943.6464	9.532620579474581e+21	-4.569243545607585e+24	1921.7507205582424	-0.6475475063584113	21.237605588786444	4.163934426229509	28.266587873566607	74.04706069227542	75.56083542814125	33.003563977243466	-0.00036229041043280713	2.449908577550325e+23	-0.007054635738999384	-0.0012622881550224804	-1.2240855849977976e+24	-0.034719799335796685	0.17347588506123274	4.092120967714672	395.384918	330.779419	3.0725990000000003	58.577271	7.807102	70.684433	0.0	11978.0	True	0.0	None	0.0	None	0.0	None	0.0	None	0.0	None	0.0	None	0.0	None	0.0	None	1.7822e-06	12
2014-02-13 23:00:00	374.30530825516365	5271973751.9268	3.7283738811972415e+22	7842206926160.457	5.385114208498959	104505248823.64917	9.564862590990967e+21	-4.5400593371993966e+24	1825.606366191056	-0.6484490089845324	20.46809773644962	3.238392508778775	27.81889637771068	72.2146745081798	72.92402362268807	32.32687411102435	-0.00035018300224339704	2.3003388270085176e+23	0.013128267185346069	-0.0012392991644464327	-1.2152332149491445e+24	-0.03285535104090651	0.17356970810098704	4.140937321915355	395.388184	330.669434	3.0829	58.69299300000001	7.802513999999999	70.784378	0.0	11978.0	True	0.0	None	0.0	None	0.0	None	0.0	None	0.0	None	0.0	None	0.0	None	0.0	None	1.5897e-06	12
2014-02-13 23:12:00	386.38198612679963	5171128595.4816	3.717857849947008e+22	7989500899626.006	0.2650200871553583	497332064127.0868	9.386293394342991e+21	-4.450535264435804e+24	1852.9911983961704	-0.6480588719291548	20.407317948503245	3.16388668255229	28.04105375649709	72.41095594775621	73.85913995201194	32.22230182508251	-1.754286669460239e-05	2.3340921400817308e+23	0.009139463916413234	-6.219673949231596e-05	-1.1675864720770884e+24	-0.033987577435179134	0.17001657711163926	4.102322134933004	395.39151	330.559509	3.098701	58.809662	7.800748	70.878006	4096.0	11978.0	True	0.0	None	0.0	None	0.0	None	0.0	None	0.0	None	0.0	None	0.0	None	0.0	None	1.3980000000000002e-06	12
2014-02-13 23:24:00	371.8501026994169	5122609476.7528	3.627381606824492e+22	7500994720738.018	2.6222970520835647	342802047240.8738	9.224592576130275e+21	-4.3857033196670967e+24	1857.064866181396	-0.6446670143967256	20.30418930318848	3.222735926026652	28.09186303177341	72.84156563337628	74.05926467397802	32.27924215020402	0.0001783147730234982	2.1708696277301742e+23	0.02385012684759761	0.000622577652100757	-1.1648878310682784e+24	-0.03191023057299674	0.17123017801825852	4.1692932133109775	395.394836	330.449554	3.115108	58.925262	7.800646	70.969696	0.0	11978.0	True	0.0	None	0.0	None	0.0	None	0.0	None	0.0	None	0.0	None	0.0	None	0.0	None	1.5034e-06	12
2014-02-13 23:36:00	375.9684635039958	5135534499.674	3.6204342088396683e+22	7520982321744.973	9.512648834575495	1327786485237.1738	9.30074672118496e+21	-4.431482566808308e+24	1833.9322084453388	-0.6497569382241364	20.30928205736199	3.128153380423814	27.89333789471764	71.77560272393521	72.73868352974671	31.731048510751265	0.0006399790658352727	2.268743991355861e+23	-0.039231447983643766	0.00224559815832581	-1.1704104781231627e+24	-0.0332649881211088	0.1716090083320528	4.117343500822016	395.398285	330.339691	3.132376	59.043606	7.796676	71.065712	0.0	11978.0	True	0.0	None	0.0	None	0.0	None	0.0	None	0.0	None	0.0	None	0.0	None	0.0	None	1.8105e-06	12
2014-02-13 23:48:00	376.4884491232415	5088061326.5875	3.612669431311768e+22	7588933417185.973	8.664266710084277	904215212348.3236	9.339589216621664e+21	-4.3916173537228384e+24	1799.849968646752	-0.6499196288482928	20.179145011347128	3.0898504697631335	27.827199241681885	70.47594920029111	71.60254618829877	31.797985570940977	0.0005732989287424255	2.0238882394562e+23	-0.035642514546380635	0.0020643790573380725	-1.1608995677799387e+24	-0.02995171453867091	0.1718026311154108	4.141712582399284	395.401764	330.2298580000001	3.151909	59.15920600000001	7.791086	71.164795	0.0	11978.0	True	0.0	None	0.0	None	0.0	None	0.0	None	0.0	None	0.0	None	0.0	None	0.0	None	1.6344e-06	12
2014-02-14 00:00:00	381.7311272854544	5004557286.3971	3.637089470359531e+22	7660938252599.964	9.18425745898301	792016246687.7598	9.06762085021862e+21	-4.3151353580946137e+24	1896.1996265647765	-0.6492564036071421	20.211572559799816	2.9702970297029703	27.895984315783025	72.08881973357221	73.9333064864669	32.73715138665098	0.0006358967983786616	2.025576238710105e+23	-0.05079524832277778	0.0022254620939500093	-1.1255786515956076e+24	-0.03047687348926424	0.16935486066296354	4.088041505868433	395.405121	330.120026	3.169242	59.275677	7.791022	71.265305	0.0	11978.0	True	0.0	None	0.0	None	0.0	None	0.0	None	0.0	None	0.0	None	0.0	None	0.0	None	1.1865e-06	12
2014-02-14 00:12:00	362.8061321254722	4994921208.064199	3.4487100027575808e+22	7269406121539.341	6.357807117011032	1037875043128.91	9.102229418630036e+21	-4.337865175606166e+24	1792.7745880901473	-0.6539355057724101	19.879750291310387	2.6510182947877112	27.61007298211071	71.47045311566184	72.10807452689879	32.409664435358	0.0004389235151543688	2.0798006025415844e+23	-0.024302105372937626	0.001539182551468425	-1.1175182220365288e+24	-0.031353105822122335	0.1684664723668419	4.098842951582838	395.408661	330.0102540000001	3.186707	59.393703	7.785806	71.37760899999998	0.0	11978.0	True	0.0	None	0.0	None	0.0	None	0.0	None	0.0	None	0.0	None	0.0	None	0.0	None	1.44e-06	12
2014-02-14 00:24:00	351.5107433484184	4925359494.305201	3.4390605452619203e+22	7179798629654.175	2.330172913495085	441588844203.5983	8.978037472338085e+21	-4.269769992175333e+24	1811.0133366395291	-0.6527607597293846	19.9537213329628	2.6015805301070003	27.56638233481728	70.67460037114921	71.40981128093823	31.951291919911803	0.00016296055063256767	2.099834966283553e+23	-0.031432618421853964	0.0005724930485195619	-1.1193109239458678e+24	-0.032102194507185836	0.17111981451629935	4.059890346650607	395.412231	329.900513	3.204657	59.509624	7.781417999999999	71.476799	67584.0	11978.0	False	0.0	None	0.0	None	0.0	None	0.0	None	0.0	None	0.0	None	0.0	None	0.0	None	1.3631e-06	12
2014-02-14 00:36:00	356.0047616090807	4953376634.4981	3.4261865732806042e+22	7131188423659.01	5.246422099098206	1288341292944.4604	9.084298341465208e+21	-4.302167514492227e+24	1783.7754685799782	-0.6539936473358722	19.67793332782883	2.357740441125631	27.146041921575588	70.31945933547621	71.15625198577379	31.815775903617872	0.000362798015289275	2.298388689169696e+23	-0.11529146004921935	0.0012807634359752829	-1.1221719962618144e+24	-0.03493893710001235	0.17058688540166247	4.104965761879317	395.415802	329.790802	3.215463	59.627335	7.773569	71.570114	0.0	11978.0	True	0.0	None	0.0	None	0.0	None	0.0	None	0.0	None	0.0	None	0.0	None	0.0	None	1.0079000000000001e-06	12
2014-02-14 00:48:00	385.63791826105233	4894997335.606701	3.5041950539030282e+22	7853062585357.572	11.519748129476135	757812739072.2279	8.995476288575578e+21	-4.3543267771287646e+24	1838.7551327613446	-0.6698168758900297	19.803505353266576	2.7386759581881535	27.05984757163435	72.95268757671853	76.47769806874057	33.054400258256095	-0.0008028258505454134	2.313932450456789e+23	-0.10297299900881192	-0.0028187796144896193	-1.0468855533885536e+24	-0.03559473333803248	0.16104018983332027	3.9917946665551938	395.419373	329.681122	3.230799	59.744236	7.770964999999999	71.670609	0.0	11978.0	True	0.0	None	0.0	None	0.0	None	0.0	None	0.0	None	0.0	None	0.0	None	0.0	None	9.728e-07	12
2014-02-14 01:00:00	361.6096594243545	4878825806.181801	3.391612553073577e+22	7169395762160.474	1.3030470221703845	988367441159.0931	8.860189694233053e+21	-4.2703842372837424e+24	1818.845295426002	-0.6590816305792448	19.75143981084952	2.7775799444484006	27.416163154432077	71.55476224256806	73.01892248060955	32.20559979311864	9.280300706291464e-05	2.343864018960616e+23	-0.06327776850029287	0.00032196377929063125	-1.0836954508397313e+24	-0.036174677350700936	0.1672551520200131	4.088196012900072	395.422974	329.571472	3.247849	59.861176	7.769013	71.77104200000002	0.0	11978.0	True	0.0	None	0.0	None	0.0	None	0.0	None	0.0	None	0.0	None	0.0	None	0.0	None	1.2803e-06	12
2014-02-14 01:12:00	363.7180504014235	4904458094.3468	3.4007290064470234e+22	7368791441105.289	3.987858616679	1160458364468.1748	9.0129075844054e+21	-4.307294314001913e+24	1773.586690159612	-0.6613036996865123	19.706898849124755	2.6319434824767973	27.30589006072637	70.85277847236512	72.49908149450485	31.812583700739285	0.00027622488167063796	2.180431811584861e+23	-0.10413979361126187	0.0009789047438836104	-1.0942141881256096e+24	-0.03347641277327843	0.1679959246120412	4.073844770026764	395.426636	329.461853	3.258121	59.978039	7.76695	71.871193	0.0	11978.0	True	0.0	None	0.0	None	0.0	None	0.0	None	0.0	None	0.0	None	0.0	None	0.0	None	1.2890999999999999e-06	12
2014-02-14 01:24:00	357.56150661609007	4903520839.6324005	3.153173925897253e+22	6925933446873.822	11.24096231958148	419155817475.5179	8.955520517633781e+21	-4.346089480609512e+24	1667.1106167886905	-0.6673875648127828	19.56854912038164	2.057295323690493	27.21301009058045	70.28736257630361	71.23180732094927	31.166833740181346	-0.0007892825670258026	2.1232903038682362e+23	0.023522350391393537	-0.0027497227325123928	-1.0812201813564512e+24	-0.0326053467516385	0.16603268457342452	4.122977201200282	395.430359	329.352264	3.2706310000000003	60.096367	7.759616999999999	71.964798	0.0	11978.0	True	0.0	None	0.0	None	0.0	None	0.0	None	0.0	None	0.0	None	0.0	None	0.0	None	1.2699e-06	12
2014-02-14 01:36:00	361.2418195993086	4875664714.9321	3.3976154986819155e+22	7131554606487.268	2.566224811831967	463194743906.7393	8.860315753838834e+21	-4.279385250650368e+24	1825.7047295204661	-0.6608988348422509	19.713100998265904	2.36209234282452	27.184788718259767	70.0944227590053	71.5546316678393	31.619159739166232	0.0001831317213895645	2.1518742799919804e+23	-0.04665630366253686	0.000633793355837437	-1.095927816557441e+24	-0.03323307253436858	0.16925267874023453	4.084685509941979	395.434143	329.2427370000001	3.28826	60.21482099999999	7.757422	72.058205	0.0	11978.0	True	0.0	None	0.0	None	0.0	None	0.0	None	0.0	None	0.0	None	0.0	None	0.0	None	1.4593000000000004e-06	12
2014-02-14 01:48:00	355.0369701706597	4849067406.7993	3.421116271601179e+22	7206485275271.482	8.539279496394355	1287359813183.0125	8.81004072654771e+21	-4.209622881570462e+24	1842.8043602916143	-0.6536909487298649	19.97648096700697	2.818513484512484	27.41203428503286	70.23797320098976	71.75656623258642	32.14319074948721	0.0006108648327057982	2.068713946447747e+23	-0.034551303376536766	0.0021297991706179203	-1.0835825456038488e+24	-0.03212400778759629	0.16826402796410342	4.10608978560118	395.437805	329.133209	3.305599	60.333412	7.749022	72.15167199999998	0.0	11978.0	True	0.0	None	0.0	None	0.0	None	0.0	None	0.0	None	0.0	None	0.0	None	0.0	None	2.2188e-06	12
2014-02-14 02:00:00	364.2656539214032	4861652397.0168	3.3636449945191583e+22	7076960787017.647	6.897430058599753	800133794864.592	8.799226783619321e+21	-4.2832055069271375e+24	1839.4804538651929	-0.6633953640783616	19.40896090316594	2.207858232260876	26.929415175955786	71.4387516894483	73.30305966728068	31.741773716125746	0.0005009390702737856	2.1142410296904098e+23	-0.01865177462196431	0.0017058384929393195	-1.0526840241005714e+24	-0.03274598184403061	0.16304277259128794	4.130451387098536	395.44165	329.023743	3.323978	60.427025	7.7475429999999985	72.247238	0.0	11978.0	True	0.0	None	0.0	None	0.0	None	0.0	None	0.0	None	0.0	None	0.0	None	0.0	None	2.0926e-06	12
2014-02-14 02:12:00	356.17985992584846	4888003173.6479	3.315248698284733e+22	7095993257943.612	4.6672209525111255	734571008483.2107	8.878679491913494e+21	-4.292693964617552e+24	1788.08078528318	-0.6612809300564781	19.46860294948569	2.213308502256285	26.95768617199565	70.71557208150708	72.3666058764844	31.80083932727223	0.0003343042011683351	2.1470977191648986e+23	-0.007822663193419559	0.0011495127643629107	-1.05772254764934e+24	-0.0330756114541234	0.1629400455323582	4.174170767246472	395.445465	328.914276	3.334068	60.54636	7.739692	72.341751	0.0	11978.0	True	0.0	None	0.0	None	0.0	None	0.0	None	0.0	None	0.0	None	0.0	None	0.0	None	1.4232e-06	12
2014-02-14 02:24:00	339.6754147451813	4788351936.4643	3.3404737411825453e+22	6813488759965.775	0.8360242538981428	1038062759553.3064	8.71622900561803e+21	-4.1538475533798186e+24	1816.6499544784203	-0.6532087720851302	20.012655800387975	2.5711396793297703	27.45607028568117	69.88211984475264	71.43723579573012	31.70768318479926	6.038020033931409e-05	2.159710387467977e+23	0.03039996653117628	0.0002112200342448089	-1.0332108245694392e+24	-0.03396229043383149	0.16247644270741884	4.122259436137621	395.449341	328.80484	3.343891	60.665031000000006	7.732655	72.43495899999998	0.0	11978.0	True	0.0	None	0.0	None	0.0	None	0.0	None	0.0	None	0.0	None	0.0	None	0.0	None	1.6182e-06	12
2014-02-14 02:36:00	343.14698355777244	4783169532.352	3.3911990321306707e+22	6876072744380.645	0.4572994059501641	680233378024.5619	8.679262140369656e+21	-4.142484467901377e+24	1858.4633624970493	-0.6521275856075701	20.009229962596347	2.583697234352256	27.479332749071478	70.28631552647589	72.08769223489347	31.637946391771568	3.328234395561601e-05	2.122462203239495e+23	-0.02538784071045241	0.00011573674822418071	-1.0384407765631971e+24	-0.03341270589828192	0.16347577924889167	4.161612722389927	395.453217	328.695465	3.362307	60.78405	7.7238190000000015	72.528549	0.0	11978.0	True	0.0	None	0.0	None	0.0	None	0.0	None	0.0	None	0.0	None	0.0	None	0.0	None	3.2313999999999997e-06	12
2014-02-14 02:48:00	340.7456214762257	4770019751.142	3.3430980426622248e+22	6825002282988.379	2.7076795028394933	1211804580623.286	8.659150203639862e+21	-4.1577713876073056e+24	1840.0040168277767	-0.6563385747486394	19.781767337483686	2.3974855639207657	27.34297171269137	70.2374998665917	72.1705485039599	31.71809767571689	0.00019792978821926122	2.1339961637524368e+23	-0.10238179969247624	0.00068548431432567	-1.0166017128421788e+24	-0.03368689305071107	0.16047898190906507	4.167077832648301	395.457092	328.58609	3.372497	60.901482	7.716892	72.62777700000002	0.0	11978.0	True	0.0	None	0.0	None	0.0	None	0.0	None	0.0	None	0.0	None	0.0	None	0.0	None	1.5248e-05	12
2014-02-14 03:00:00	335.0667338643986	4728408836.772499	3.277147112102437e+22	6636690558394.13	1.5634758340003898	666705793671.3691	8.626614831450884e+21	-4.1500597574612606e+24	1814.3144003770008	-0.6608863480760077	19.77762867104534	2.411587383280641	27.042338446301585	69.55026972626247	71.17960206292457	31.04387725037519	0.00011495300595547312	1.9855153241108004e+23	-0.05206516476591848	0.0003981678892927115	-1.0057106016407536e+24	-0.03161882113242767	0.16015682799379216	4.109312580837391	395.46106	328.476746	3.383348	61.02334200000001	7.702186999999999	72.724464	0.0	11978.0	True	0.0	None	0.0	None	0.0	None	0.0	None	0.0	None	0.0	None	0.0	None	0.0	None	2.3336999999999997e-05	12
2014-02-14 03:12:00	328.44965602760163	4715089779.5966	3.2042618301070818e+22	6602285325128.433	1.635534624027117	902512406114.3514	8.643579762340052e+21	-4.162582297228741e+24	1766.1720206290524	-0.6647530854763409	19.622251938098987	2.5181172681355686	26.608419515641927	69.49955425444193	71.2943924284762	30.653196662974572	0.00011972290637779937	2.2171583327802504e+23	-0.11286995899903242	0.000416725372213094	-9.887209129250324e+23	-0.03540741629748636	0.15789604399640836	4.142548220902156	395.465027	328.367432	3.401297	61.145683	7.700477	72.83225300000002	0.0	11978.0	True	0.0	None	0.0	None	0.0	None	0.0	None	0.0	None	0.0	None	0.0	None	0.0	None	1.6569e-05	12
2014-02-14 03:24:00	305.3116054812542	4680692217.1513	3.170333206541503e+22	6359670498741.192	6.084010340562233	1449423156017.7446	8.531344202418089e+21	-4.0858004381740704e+24	1770.1466506622448	-0.6572862684904139	19.655072271996094	2.6546047753225563	26.871786720829487	68.35004913383071	69.51213264533422	30.90636156897093	0.00045120219078628233	2.204570846755689e+23	-0.065887307228501	0.0015686548663942758	-9.835392072770952e+23	-0.03546512286670485	0.1582228073170616	4.085736179189071	395.469025	328.258118	3.411629	61.26649499999999	7.693478	72.927544	0.0	11978.0	True	0.0	None	0.0	None	0.0	None	0.0	None	0.0	None	0.0	None	0.0	None	0.0	None	7.8049e-06	12
2014-02-14 03:36:00	315.4158668184338	4709398276.1737	3.0235701934743448e+22	6230403072671.206	14.952049126389037	155369466219.2988	8.575395934837911e+21	-4.139253144315559e+24	1671.7152510020167	-0.6618263220923939	19.641761322346056	2.6286805198619576	26.965412818652602	68.08607088165874	68.80554301909002	30.653533454505638	-0.0010981234669792186	1.98023055198618e+23	-0.0001432627249495039	-0.003822426237638603	-9.666512231440416e+23	-0.031661960682830184	0.1545581295597037	4.186991592299747	395.472992	328.148834	3.430221	61.36908	7.677136	73.02739	0.0	11978.0	True	0.0	None	0.0	None	0.0	None	0.0	None	0.0	None	0.0	None	0.0	None	0.0	None	5.635900000000001e-06	12
2014-02-14 03:48:00	319.63737998613533	4772059804.5105	3.4158951323404404e+22	6528026551855.228	8.401273380645925	1536282554290.0142	8.628823337522214e+21	-4.0796287402034326e+24	1869.5484599085748	-0.6437278037113378	20.249517179755717	3.4161942142753308	27.44173743028798	68.40875754621091	69.45661596560964	31.69962200879691	0.0006106464152235737	2.187929413177633e+23	-0.10605500132877216	0.002142097989928585	-1.032041122546474e+24	-0.034523509012980465	0.16284657439772246	4.145885471857452	395.47699	328.039581	3.4424839999999994	61.48743399999999	7.664332000000001	73.127441	0.0	11978.0	True	0.0	None	0.0	None	0.0	None	0.0	None	0.0	None	0.0	None	0.0	None	0.0	None	2.7065e-06	12
2014-02-14 04:00:00	315.98409116763963	4746707634.8212	3.4251146556285414e+22	6501898154179.053	4.2902211085891295	1098161102276.0454	8.575005991145107e+21	-4.037104946653044e+24	1888.7342855357601	-0.6404201835480662	20.292808473325685	3.6470157451482974	27.331094059859772	68.38355755370083	69.67544675291008	31.71215488363125	0.0003142328505521958	2.120177782036356e+23	-0.08253741083473483	0.0011020156029530935	-1.025651145439384e+24	-0.033633127259967345	0.16270265536771175	4.213098838902232	395.481049	327.930359	3.452267	61.609303	7.656314	73.224037	0.0	11978.0	True	0.0	None	0.0	None	0.0	None	0.0	None	0.0	None	0.0	None	0.0	None	0.0	None	1.499e-06	12
2014-02-14 04:12:00	314.5847681796737	4774907974.4499	3.4159112725351614e+22	6418809226926.1875	0.5675701182027053	453251337975.5679	8.620415140234504e+21	-4.0433361550838e+24	1870.3730432968405	-0.6376206300319862	19.974066562986966	3.4031413612565444	27.407018632318483	67.46487502638061	67.79154912514613	31.14406363414061	-4.127482497292599e-05	2.1999723689388386e+23	-0.022217873154409	-0.00014517924714831389	-1.0426996983040576e+24	-0.03469283072524231	0.16443026576725872	4.2282165335892765	395.485138	327.821136	3.47205	61.730877	7.647817999999999	73.32888	0.0	11978.0	True	0.0	None	0.0	None	0.0	None	0.0	None	0.0	None	0.0	None	0.0	None	0.0	None	1.6638999999999999e-06	12
2014-02-14 04:24:00	318.6678426529276	4782336870.965501	3.507203168547464e+22	6466587438169.45	0.2532176874628873	722451898197.413	8.526768117242311e+21	-4.01859455019138e+24	1952.4462864623029	-0.6327345934252839	20.60663198593568	3.947952092266745	27.628898962338425	68.8264082043773	69.47602154236118	32.14424779852021	-1.8722195006498137e-05	2.4864677225320205e+23	-0.0972313063730536	-6.486463763271402e-05	-1.0580507719895343e+24	-0.039149860077485665	0.16659190587072872	4.1305109202944665	395.48919700000016	327.711945	3.484111	61.856777	7.633453999999999	73.431831	0.0	11978.0	True	0.0	None	0.0	None	0.0	None	0.0	None	0.0	None	0.0	None	0.0	None	0.0	None	5.951900000000001e-06	12
2014-02-14 04:36:00	336.98847734216673	4790841378.6654	3.48551910558815e+22	6735594589936.287	1.3954260326966068	912403460260.9624	8.520515595892911e+21	-4.1150752335417327e+24	1967.2817664492914	-0.6467753668346221	20.213512261178824	3.2081553106963505	27.18081332637075	71.37460695080094	72.87655144098501	32.67289524011218	-0.00010461249214308472	2.414394475350632e+23	-0.1332816400436161	-0.00035379291506834045	-1.0258486133442404e+24	-0.037947565569400016	0.16123486827273836	4.162182139829443	395.493286	327.602783	3.505135	61.979919	7.619325999999999	73.529839	0.0	11978.0	True	0.0	None	0.0	None	0.0	None	0.0	None	0.0	None	0.0	None	0.0	None	0.0	None	6.6025e-06	12
2014-02-14 04:48:00	337.75838290673187	4843359000.0354	3.509403919050973e+22	6901080009315.16	2.5093508687341	568651829158.0159	8.601225349195175e+21	-4.161535663378381e+24	1954.1043705442319	-0.6469852907869716	20.542667505781697	3.246321082600016	27.270179159158346	71.24939593424816	72.73665810881707	32.97196732565094	0.0001855616999729424	2.34697429457961e+23	-0.026979505079479098	0.0006291511643282058	-1.0285871399943306e+24	-0.0364879210290231	0.1599123025005454	4.168541460439082	395.497437	327.493622	3.524331	62.104313	7.605611	73.62960799999998	0.0	11978.0	True	0.0	None	0.0	None	0.0	None	0.0	None	0.0	None	0.0	None	0.0	None	0.0	None	2.772e-06	12
2014-02-14 05:00:00	323.45659649326745	4879089521.7493	3.4524810873997927e+22	6547343266840.336	0.5382726722875293	386148883573.5303	8.584173402958189e+21	-4.1909597998764e+24	1953.6131625684773	-0.6467882621681174	20.41833730224893	3.299015555722552	27.045094407241802	71.9814225866652	73.11857644618048	32.66837090966949	4.045033984275414e-05	2.5552952611016164e+23	-0.04018624254833957	0.00013398487572657518	-1.0648712922080298e+24	-0.03943571544883544	0.1643409351099626	4.156258016882282	395.501587	327.384491	3.5447550000000003	62.231136	7.597572	73.733292	0.0	11978.0	True	0.0	None	0.0	None	0.0	None	0.0	None	0.0	None	0.0	None	0.0	None	0.0	None	1.3980000000000002e-06	12
2014-02-14 05:12:00	327.373164615056	4910914272.0293	3.496170566777209e+22	6681385728480.143	4.107446496513987	306454313006.162	8.572669474680346e+21	-4.2258324851544814e+24	1994.5228744442832	-0.6479438356294557	20.850275063484613	3.924539737858928	27.11189723626401	72.96573684771442	73.95149228042723	33.32070234375445	-0.0003112173432727676	2.456103696173161e+23	-0.006246385788281322	-0.0010152149809881626	-1.073234958443654e+24	-0.03765926016217711	0.16455833920264334	4.16967645023193	395.505737	327.27533	3.555786	62.35677	7.575313	73.79499100000002	0.0	11978.0	True	0.0	None	0.0	None	0.0	None	0.0	None	0.0	None	0.0	None	0.0	None	0.0	None	1.2672e-06	12
2014-02-14 05:24:00	328.6265195090712	4971236882.949901	3.56382495637398e+22	6549869191213.285	0.5983113068852446	352467844641.0514	8.591823811691098e+21	-4.236252881891353e+24	2053.814630119075	-0.6416599771961916	20.893822449745176	3.6047757538649936	27.006544173813843	73.68960435184228	74.5393490817491	33.070957074510645	4.579146692830588e-05	2.7961113727475462e+23	-0.03768876163726989	0.00014662551055795111	-1.0989231618003496e+24	-0.042352352649782564	0.1664525302432745	4.177184490763175	395.509888	327.166229	3.566149	62.456467	7.552161	73.887016	0.0	11978.0	True	0.0	None	0.0	None	0.0	None	0.0	None	0.0	None	0.0	None	0.0	None	0.0	None	1.4328e-06	12
2014-02-14 05:36:00	342.47072992796774	5056410521.3167	3.587821476138451e+22	6737111126868.572	3.9862192575215207	282736667224.7097	8.688979601207988e+21	-4.334239994061593e+24	2054.591873374236	-0.6454432972517122	21.156406884919733	3.9470682181154464	27.037500081981047	74.06401010703915	74.6716578009991	33.122221748980216	0.00030315759810795663	2.779435625438528e+23	-0.04190028730336027	0.0009582215447182146	-1.1163014128544936e+24	-0.04139060359001488	0.16623658718177345	4.1594875540046985	395.514008	327.057098	3.586793	62.57353199999999	7.529369	73.992378	0.0	11978.0	True	0.0	None	0.0	None	0.0	None	0.0	None	0.0	None	0.0	None	0.0	None	0.0	None	1.4322999999999996e-06	12
2014-02-14 05:48:00	350.5795044913121	5092143604.0136	3.5400027028605744e+22	7095334987223.912	5.583618231417158	546930122924.333	8.723818092982396e+21	-4.435598653064168e+24	2034.790673391856	-0.6559021289777199	20.822748308107432	3.4580152671755724	26.773971202740178	76.63067706382856	77.63921976381182	33.585061409009555	0.000426262938500432	3.038348625863912e+23	-0.043337117056922385	0.001324460605437158	-1.1040131326249665e+24	-0.04492875681851823	0.16325294976989024	4.148495047751807	395.518188	326.947998	3.59761	62.700157	7.506917	74.094528	0.0	11978.0	True	0.0	None	0.0	None	0.0	None	0.0	None	0.0	None	0.0	None	0.0	None	0.0	None	1.6376e-06	12
2014-02-14 06:00:00	351.4279710134063	5066399305.6640005	3.4924929517013185e+22	7089061880404.759	2.458003447857676	686787279979.1552	8.646241872781189e+21	-4.443763037586891e+24	2040.9790891128878	-0.6604484366309264	21.029975688442182	3.787349631354288	26.681264301614966	77.08485419600895	78.38430704437422	33.86214708978435	0.0001907647223793307	3.072886128034977e+23	-0.10386076029622132	0.000584369679723701	-1.0983883018469664e+24	-0.04567036590474089	0.16324651666450213	4.169959328760648	395.5224	326.838898	3.616821	62.828049	7.482417	74.198463	66560.0	11978.0	False	0.0	None	0.0	None	0.0	None	0.0	None	0.0	None	0.0	None	0.0	None	0.0	None	1.8137e-06	12
2014-02-14 06:12:00	346.7834405452481	5042585761.6	3.454732927732012e+22	6927827034070.631	13.467116811357574	1570041821593.2576	8.550113825160006e+21	-4.4479638964819753e+24	2079.099632592428	-0.6641948720988115	20.692313932461623	3.2368925831202047	26.320291089011945	78.17438301080179	80.28109669497327	33.874705465134895	0.0010763360622888089	2.8227389700482675e+23	-0.08820292030087791	0.003209572203272581	-1.0868067723200764e+24	-0.04215071868416946	0.1622880720115981	4.138100262197234	395.526611	326.729797	3.63685	62.956169	7.458553	74.302551	66560.0	11978.0	False	0.0	None	0.0	None	0.0	None	0.0	None	0.0	None	0.0	None	0.0	None	0.0	None	1.6786000000000001e-06	12
2014-02-14 06:24:00	334.4895922162708	4990688751.6179	3.3813409839357568e+22	6667738109957.549	0.022914673186434698	255400760802.8381	8.396704456791378e+21	-4.3782098050297017e+24	2079.812116663945	-0.6605772221481759	20.533638169748247	3.42264335892828	26.48080762482833	78.67800932013033	80.25940203052875	33.83060194191776	1.8718079714454087e-06	2.924810709454125e+23	-0.04065107455714851	5.529986883769188e-06	-1.074028295330656e+24	-0.044129071465256894	0.1620476540486968	4.121858437649804	395.530701	326.620697	3.648012000000002	63.085457	7.445275	74.408394	0.0	11978.0	True	0.0	None	0.0	None	0.0	None	0.0	None	0.0	None	0.0	None	0.0	None	0.0	None	1.73e-06	12
2014-02-14 06:36:00	321.04371462324593	4848856088.8752	3.3455944318199123e+22	6282202726346.683	0.251709765950749	523889635816.3602	8.127454872950713e+21	-4.2058143401197297e+24	2128.0530980837907	-0.6531280046972148	20.69331109578961	3.4549755026186846	26.97797777513236	78.42901973333531	79.72408619595413	34.50279897844867	2.126645538617345e-05	2.8472273364102192e+23	-0.0862300886333102	6.280812289324544e-05	-1.0397196698213916e+24	-0.04421507367574465	0.16145982168474918	4.098319349967638	395.534912	326.511597	3.672011	63.21694599999999	7.425469	74.517799	0.0	11978.0	True	0.0	None	0.0	None	0.0	None	0.0	None	0.0	None	0.0	None	0.0	None	0.0	None	2.2782e-06	12
2014-02-14 06:48:00	320.7888900553033	4720356159.187901	3.372236745772388e+22	6205795859876.535	2.4770453935984973	374996974190.0921	7.871647477142944e+21	-4.069667780342963e+24	2217.1047620414133	-0.6491896821732847	20.663595128771448	3.8417881777700167	26.97468641899255	79.05673821214097	81.16199934093113	34.890864697496944	-0.0002162791752028724	2.81387080728824e+23	0.06379719052957884	-0.0006363830208718548	-9.866055161567118e+23	-0.044886609759241636	0.15738240958091398	4.157456958076213	395.539062	326.402466	3.682812	63.345085	7.4028839999999985	74.620232	0.0	11978.0	True	0.0	None	0.0	None	0.0	None	0.0	None	0.0	None	0.0	None	0.0	None	0.0	None	3.817e-06	12
2014-02-14 07:00:00	303.92915032615724	4659536750.8363	2.959589714806251e+22	5574979542213.121	25.45354715516905	236705768785.89346	7.769023672101886e+21	-4.113990162976228e+24	1987.6315737379846	-0.6648259672466165	20.129951214534728	3.0235462004994647	26.79869499950141	77.41306840599827	78.76515563727067	33.84474773158509	-0.002270205775523461	2.512589054919176e+23	0.02329627181130876	-0.00656246086164533	-9.13134044820024e+23	-0.04060375408193595	0.14756360626154366	4.082003498819543	395.543274	326.293365	3.702368	63.473061	7.387264	74.669937	0.0	11978.0	True	0.0	None	0.0	None	0.0	None	0.0	None	0.0	None	0.0	None	0.0	None	0.0	None	2.6826e-06	12
