Timestamp	TOTUSJH	TOTBSQ	TOTPOT	TOTUSJZ	ABSNJZH	SAVNCPP	USFLUX	TOTFZ	MEANPOT	EPSZ	MEANSHR	SHRGT45	MEANGAM	MEANGBT	MEANGBZ	MEANGBH	MEANJZH	TOTFY	MEANJZD	MEANALP	TOTFX	EPSY	EPSX	R_VALUE	CRVAL1	CRLN_OBS	LAT_MIN	LON_MIN	LAT_MAX	LON_MAX	QUALITY	NOAA_AR	IS_TMFI	BFLARE	BFLARE_label	CFLARE	CFLARE_label	MFLARE	MFLARE_label	XFLARE	XFLARE_label	BFLARE_loc	BFLARE_label_loc	CFLARE_loc	CFLARE_label_loc	MFLARE_loc	MFLARE_label_loc	XFLARE_loc	XFLARE_label_loc	XR_MAX	XR_QUAL
2014-03-04 17:12:00	100.60440119527313	692372111.8535	6.377530669137061e+21	2647441391276.452	6.0490312429743005	657581467993.3102	1.5896865340117714e+21	-5.5027504224226285e+23	1583.3161191964573	-0.598449814882453	25.325976645677923	4.516979887899768	28.78942492254992	112.46688951938965	111.05047833540199	42.96980911279393	0.001994405289473887	-7.353037028511676e+22	0.4193156178375742	0.010931436871031543	2.9950148386300677e+23	0.07996771270246551	-0.325721855100828	0.0	44.891788	83.629288	-14.362419	-41.984116	-8.953647	-34.418549	0.0		True	0.0	None	0.0	None	0.0	None	0.0	None	0.0	None	0.0	None	0.0	None	0.0	None	2.0491e-06	12
2014-03-04 17:24:00	97.55150520443328	694598450.4027001	6.331341465650818e+21	2565924849566.9497	4.2639054890852135	353659401299.9682	1.601463527221363e+21	-5.5709405245200925e+23	1565.140507651568	-0.6039238843658518	24.90938330226997	3.4143138542350626	28.673789322231286	111.26450896319813	109.49911569810727	41.81829067784525	0.0013998376523589016	-6.362155889731713e+22	0.19010015326455806	0.007654555932042197	3.036604652404914e+23	0.06896964490926509	-0.32918643968502465	0.0	44.893845	83.518997	-14.372529	-41.868549	-8.960736	-34.3088	0.0		True	0.0	None	0.0	None	0.0	None	0.0	None	0.0	None	0.0	None	0.0	None	0.0	None	1.6608e-06	12
2014-03-04 17:36:00	96.10219071543466	698099714.5545	6.080326079215567e+21	2545484999268.7227	4.58458926652991	634078782923.4908	1.629704317653505e+21	-5.6932652815339354e+23	1474.052201813673	-0.6140891226802416	24.43928155650143	3.477141017385705	28.093757819298894	109.67099464503536	107.81755905172692	41.38459195860588	0.0014760429061590182	-6.479870890847601e+22	0.394833286931562	0.008137396123681345	3.003749158026658e+23	0.06989342729818694	-0.323991522261742	1.8528379348655768	44.895897	83.408699	-14.435435	-41.74678	-8.963915	-34.195259	0.0		True	0.0	None	0.0	None	0.0	None	0.0	None	0.0	None	0.0	None	0.0	None	0.0	None	1.2623e-06	12
2014-03-04 17:48:00	95.10343994925312	692930809.5546	5.851636501301096e+21	2485067428602.128	5.930423950908277	764396801953.4935	1.6117435949697524e+21	-5.683580705441658e+23	1432.4467131045585	-0.6176175463008879	24.024749413372835	1.5929778933680103	28.002734030742094	109.34608547000212	107.658601545067	40.38663817029696	0.0019279661738973593	-6.0863915411661885e+22	0.4806264819588306	0.010581567728215543	2.964031567348575e+23	0.06613897830081808	-0.3220923566778045	1.8660674989038657	44.897942	83.298393	-14.444622	-41.624947	-8.951713	-34.085476	0.0		True	0.0	None	0.0	None	0.0	None	0.0	None	0.0	None	0.0	None	0.0	None	0.0	None	1.5947e-06	12
2014-03-04 18:00:00	98.5800093835058	687381991.3243	5.76965658879874e+21	2541815446907.587	5.028956488571375	635465397510.1855	1.579367870381855e+21	-5.615749595152502e+23	1450.0922038865203	-0.6151726892961318	23.956338891691733	1.9359145527369823	28.16308857087529	111.53866411060758	109.10306662775876	41.78505595411307	0.0016785569053976554	-5.508789965174189e+22	0.4102303466182591	0.009059219056192796	2.961322404767621e+23	0.06034558842454445	-0.3243956370822326	1.8746099496391464	44.899979	83.18808	-14.454121	-41.525055	-8.958167	-33.972027000000004	66560.0		False	0.0	None	0.0	None	0.0	None	0.0	None	0.0	None	0.0	None	0.0	None	0.0	None	1.8066e-06	12
2014-03-04 18:12:00	98.03844576949236	683410148.1848	5.796657254653471e+21	2450792807478.144	4.68125246141478	612644460333.884	1.5424399658728187e+21	-5.5841036790642574e+23	1520.8387485275198	-0.6152611507128216	23.88183314912268	1.7770034843205575	28.047971153715498	114.49936365180344	111.96650684846388	42.11700179394389	0.0016310984186114214	-5.1958917388556655e+22	0.41286318818224105	0.00848140667619771	2.9567802388040667e+23	0.05724876388332535	-0.3257804863029277	1.88182527620652	44.902008	83.077759	-14.462916	-41.406998	-8.881912	-33.840698	66560.0		False	0.0	None	0.0	None	0.0	None	0.0	None	0.0	None	0.0	None	0.0	None	0.0	None	3.253e-06	12
2014-03-04 18:24:00	98.09999238555572	685492686.2847	5.816055172374709e+21	2403250137730.3936	3.482712120335108	447002479071.7564	1.515306027984839e+21	-5.63502026868538e+23	1599.4939638670487	-0.6189850909024505	23.835444698479122	2.191380569758949	27.83194035961236	116.14224862649068	114.115930873528	42.615532291668636	0.0012719912784277241	-5.668939037560984e+22	0.3157601722772179	0.006276274042825159	2.9454213454189268e+23	0.06227109359277894	-0.3235430951991037	0.0	44.904037	82.967438	-14.469609	-41.286133	-8.858787	-33.731753999999995	0.0		True	0.0	None	0.0	None	0.0	None	0.0	None	0.0	None	0.0	None	0.0	None	0.0	None	5.2599e-06	12
2014-03-04 18:36:00	99.7672308052297	683932123.9230001	5.766088892934443e+21	2389916046915.31	3.8245522903501588	583299798784.4258	1.489727552094094e+21	-5.602552189103521e+23	1643.9944115019134	-0.6168226498059555	23.54663560149044	2.3097311624384704	27.86015233730453	119.06599275495176	117.40811501798107	43.49778155967882	0.0014481455094093748	-5.995211429534784e+22	0.4271739156900354	0.006917277704906115	2.9383391329305814e+23	0.06600531463686944	-0.3235015165994887	0.0	44.906052	82.857101	-14.478959	-41.172066	-8.838302	-33.623192	0.0		True	0.0	None	0.0	None	0.0	None	0.0	None	0.0	None	0.0	None	0.0	None	0.0	None	5.5147e-06	12
2014-03-04 18:48:00	97.01581409045973	659795327.197	5.564482647983115e+21	2259564721642.9	4.591153844568296	550130386228.7094	1.4176890111677248e+21	-5.382105473108161e+23	1706.0188633956927	-0.6142290714732462	23.707129079691	2.3615635179153096	27.722480618110186	116.36968902505129	114.56367676920642	42.96850972166789	0.001869362314563639	-6.10673288597985e+22	0.4332299394989171	0.008621392978759726	2.8501678983001504e+23	0.0696926674706057	-0.3252734437225275	0.0	44.908073	82.746773	-14.490998	-41.050766	-8.799164999999997	-33.513439	0.0		True	0.0	None	0.0	None	0.0	None	0.0	None	0.0	None	0.0	None	0.0	None	0.0	None	5.0975e-06	12
2014-03-04 19:00:00	95.44258292158258	646947880.6881001	5.515264192866011e+21	2239881168235.3184	3.6586123243478363	529322808415.8999	1.384594386190579e+21	-5.244064002020911e+23	1743.4603798814687	-0.6103602014414378	23.60617106147204	2.3509655751469354	27.722659564257807	117.85776936804079	116.74594248786192	43.71739052113097	0.001535941362026799	-6.390002008443474e+22	0.4297930464971546	0.007023507739461722	2.7752972200786495e+23	0.0743736710990126	-0.32301874455656426	0.0	44.910145	82.636444	-14.498922	-40.932827	-8.777225	-33.399376000000004	66560.0		False	0.0	None	0.0	None	0.0	None	0.0	None	0.0	None	0.0	None	0.0	None	0.0	None	4.5011e-06	12
2014-03-04 19:12:00	92.506431011616	628204729.1809001	5.325700027685571e+21	2163508696128.6152	4.1733838859487005	489683908593.7664	1.325024427765766e+21	-5.058291318195138e+23	1782.303114381839	-0.6063034219031159	23.78679069546776	2.666666666666667	28.00635468632073	117.35207651184868	116.2431031955991	43.59756143800577	0.001854837282643868	-6.940762267129826e+22	0.4209323079075841	0.008271600379826412	2.688948864522695e+23	0.08319425767431647	-0.3223062483606276	0.0	44.912159	82.526108	-14.506864000000002	-40.813526	-8.730181	-33.259251	66560.0		False	0.0	None	0.0	None	0.0	None	0.0	None	0.0	None	0.0	None	0.0	None	0.0	None	3.9463e-06	12
2014-03-04 19:24:00	90.02647770954363	605914576.6189001	5.148547592969243e+21	2087846560400.124	5.034176697915749	426070840155.8053	1.285523951700293e+21	-4.914713156775465e+23	1779.1599225298519	-0.610765167310148	23.80617777135483	2.0192748967416243	27.82055965641036	114.03445448008513	113.39213462672214	42.99020709936409	0.002310315143605209	-7.5549700932348655e+22	0.3781825630231856	0.010316082835375287	2.53051854071723e+23	0.09388772906627167	-0.31447462559882644	0.0	44.914181	82.415779	-14.513564	-40.841976	-8.707106	-33.149685	0.0		True	0.0	None	0.0	None	0.0	None	0.0	None	0.0	None	0.0	None	0.0	None	0.0	None	4.4329e-06	12
2014-03-04 19:36:00	90.30885231144687	586771956.5722001	4.846761762028647e+21	2072151497242.088	2.88172320645576	307605559623.44305	1.2424499576120132e+21	-4.793771000719175e+23	1749.5439931164115	-0.6151704035882715	23.64171314690909	1.6778523489932886	27.737831716618146	114.30014480408795	114.48022112229334	41.95096380252785	0.0013814588717429338	-8.005100824975043e+22	0.2852029428330985	0.006081273866059321	2.4072202401850288e+23	0.1027270828023682	-0.30891142828022417	0.0	44.916199	82.30545	-14.52048	-40.761387	-8.687028	-33.037079	0.0		True	0.0	None	0.0	None	0.0	None	0.0	None	0.0	None	0.0	None	0.0	None	0.0	None	3.2862e-06	12
2014-03-04 19:48:00	84.24069288326751	571725461.148	4.744081059032072e+21	1964197450261.8445	4.218641779063264	375489330253.72186	1.2211420761216102e+21	-4.677154942437201e+23	1714.9456355385266	-0.6160014721811239	24.004889398148805	2.5444071051368216	27.858891038889624	111.10772058881494	112.29724505205459	41.57473356252696	0.002025272097485965	-8.884356311626233e+22	0.3486414390545082	0.009132156793947473	2.271801078916848e+23	0.11701080324894332	-0.2992059973078888	0.0	44.918228000000006	82.19512900000002	-14.504144	-40.680862	-8.66793	-32.924706	0.0		True	0.0	None	0.0	None	0.0	None	0.0	None	0.0	None	0.0	None	0.0	None	0.0	None	2.4924e-06	12
2014-03-04 20:00:00	86.65114857660377	567472192.6101	4.730258801394576e+21	2035499935627.6348	1.9795835279185183	339478158321.468	1.221983148470897e+21	-4.6810727315411e+23	1709.9487325126038	-0.6211382313277186	24.09663606439489	2.5924147863658185	27.574447680143514	112.37975223175228	113.46719442006705	42.60138752463926	0.000950352149744848	-8.62219940882165e+22	0.31520204423490616	0.004303672293097824	2.2308078582280827e+23	0.11440919631229955	-0.2960090831649154	0.0	44.920265	82.084816	-14.512346	-40.595089	-8.673292	-32.805595000000004	0.0		True	0.0	None	0.0	None	0.0	None	0.0	None	0.0	None	0.0	None	0.0	None	0.0	None	2.0290999999999998e-06	12
2014-03-04 20:12:00	91.23264507723208	608640396.995	5.101352037780821e+21	2172076990670.8567	2.758164985335553	241657863236.9209	1.3074344457755183e+21	-4.9359281461388336e+23	1702.6823979440744	-0.6106544155140154	23.91875862424807	2.171985815602837	28.231880750117536	114.05896824752315	115.51615158650299	42.393159743699286	0.001222590862294128	-9.074200876734697e+22	0.20716838187103206	0.005627131895391145	2.4456297177548827e+23	0.11226259111923738	-0.3025640855464164	0.0	44.92231	81.97451	-14.519556	-40.480293	-8.656227000000001	-32.692928	0.0		True	0.0	None	0.0	None	0.0	None	0.0	None	0.0	None	0.0	None	0.0	None	0.0	None	2.1118000000000003e-06	12
2014-03-04 20:24:00	98.57437180403342	631974464.5659001	5.508313631645644e+21	2350017475856.957	3.9330070142124933	202796000858.89954	1.3737133543935658e+21	-5.075410482321946e+23	1716.758545708858	-0.6047266796284433	24.717324759921013	3.47682119205298	28.55816804527686	112.64308213764404	113.85736769219316	42.32815293474536	0.0016279002542270251	-9.084189721709432e+22	0.16233743205912754	0.007756291327489545	2.568208555440992e+23	0.1082366028650944	-0.3059977587496887	0.0	44.92437	81.86421999999997	-14.525706	-40.363747	-8.638045	-32.566241999999995	0.0		True	0.0	None	0.0	None	0.0	None	0.0	None	0.0	None	0.0	None	0.0	None	0.0	None	1.9848e-06	12
2014-03-04 20:36:00	97.57407399173829	646343831.7409999	5.624057182125511e+21	2366637247436.0527	6.902925507155484	692913411446.7936	1.4159969532743537e+21	-5.180067361333371e+23	1685.8444422738119	-0.6034748906110085	24.78468481452425	4.060509554140126	28.56949911211997	112.20693455283035	113.021678969223	42.69310702741566	0.002747979899345336	-8.164070682298294e+22	0.5334692096324405	0.013321017851248784	2.67800755226326e+23	0.0951109574118033	-0.3119863511275907	2.046533675696284	44.926437	81.753937	-14.509973	-40.268024	-8.624646	-32.45224	0.0		True	0.0	None	0.0	None	0.0	None	0.0	None	0.0	None	0.0	None	0.0	None	0.0	None	1.6314e-06	12
2014-03-04 20:48:00	93.59101492294715	629983394.5117	5.467809358404212e+21	2324056548802.7324	7.2771522847781185	650000056088.2917	1.4121892687586218e+21	-5.114272502314488e+23	1608.2768373427725	-0.6112827930510604	24.699178013635677	3.59375	28.33740346910764	109.4823187509306	109.31801532774021	42.207299376275934	0.002842637611241453	-7.008537339928543e+22	0.4910398270362093	0.014338066404914728	2.6381374387898715e+23	0.08376945652417493	-0.3153230535342479	2.0399617453782386	44.92857	81.64366899999997	-14.516156	-40.154137	-8.603814999999999	-32.340397	0.0		True	0.0	None	0.0	None	0.0	None	0.0	None	0.0	None	0.0	None	0.0	None	0.0	None	1.6518e-06	12
2014-03-04 21:00:00	87.37139881264312	622405695.5952001	5.29271872209882e+21	2206822552978.1045	5.628969738236421	483869857946.0333	1.421719389720658e+21	-5.112394894357636e+23	1523.4514222585165	-0.6184981004826279	24.487360463726567	3.5932721712538225	28.006250374529532	107.93663614216827	107.20179454480179	41.031782193957966	0.0021517468418334944	-5.739474519189579e+22	0.3577065465543671	0.01117565939882792	2.6206064682758114e+23	0.06943622629396339	-0.31704126074649275	2.042245956390315	44.93066	81.53340899999998	-14.522198	-40.036163	-8.582817	-32.230022	0.0		True	0.0	None	0.0	None	0.0	None	0.0	None	0.0	None	0.0	None	0.0	None	0.0	None	1.4047e-06	12
2014-03-04 21:12:00	84.78372421623	614573087.2869	5.120545576326267e+21	2122597810886.5784	3.171624554716189	517528903608.3369	1.4023062692180735e+21	-5.078789129744949e+23	1509.0817835846344	-0.6222631574876832	23.87278830773005	2.3091976516634047	27.998015125571623	107.59128218911108	107.44815964552521	40.60185734443851	0.001241340334526884	-5.257151634407668e+22	0.3917163623489229	0.006362340731031574	2.588246558608384e+23	0.06441164797055343	-0.31711702037079137	2.0290881529867693	44.932774	81.423172	-14.506733	-39.924629	-8.58902	-32.116745	0.0		True	0.0	None	0.0	None	0.0	None	0.0	None	0.0	None	0.0	None	0.0	None	0.0	None	1.3144e-06	12
2014-03-04 21:24:00	81.6393579085184	622509520.0455999	4.998293999439341e+21	2026945261628.4243	4.526864705959119	555565494532.2548	1.4375761770416798e+21	-5.297448913108088e+23	1445.8892292727212	-0.6407788559114413	23.246171436189194	2.305032654629274	27.154173392697892	109.89377539170462	109.59231965740015	39.54221279780604	0.0017390951617207526	-5.054424429384063e+22	0.4127437491210013	0.008864035002304134	2.576978021336029e+23	0.0611382640262467	-0.3117109867987015	2.13844657369438	44.934891	81.312943	-14.512259	-39.89579000000001	-8.570217999999999	-32.0056	0.0		True	0.0	None	0.0	None	0.0	None	0.0	None	0.0	None	0.0	None	0.0	None	0.0	None	1.2287e-06	12
2014-03-04 21:36:00	80.16666654670512	623398357.1655	4.993882257689117e+21	2014750211151.64	6.753162767309942	676061174043.1111	1.4438686928271853e+21	-5.266407842373214e+23	1421.674410553951	-0.6361160587605187	23.475984626571716	1.9659735349716445	27.53902410417119	107.98370632953134	107.57226366544435	39.520157693883256	0.002553180630362928	-5.021875256377152e+22	0.494277389264173	0.013242117960651771	2.588059757627891e+23	0.06065795873177302	-0.31260518025453155	1.9948435892147842	44.937035	81.202736	-14.518196	-39.816463	-8.570701	-31.887474	0.0		True	0.0	None	0.0	None	0.0	None	0.0	None	0.0	None	0.0	None	0.0	None	0.0	None	1.1537e-06	3
2014-03-04 21:48:00	81.65059268496287	638866502.7778001	5.044100006606378e+21	2020980897499.995	6.6506275548399625	875135607045.3682	1.4644944960521057e+21	-5.43483648364012e+23	1440.3266449747573	-0.6405658778574805	23.129565974281125	2.3890784982935163	27.195500437417888	108.06356758747309	107.8601782833847	38.996024403216026	0.002522043062131195	-4.7531529008190855e+22	0.6417500338157489	0.012690795061958941	2.6289130016174982e+23	0.05602206376712804	-0.30985144994908115	1.9893117514293768	44.939194	81.092545	-14.498998	-39.90250800000001	-8.556989999999999	-31.768217	0.0		True	0.0	None	0.0	None	0.0	None	0.0	None	0.0	None	0.0	None	0.0	None	0.0	None	3.2924e-06	12
2014-03-04 22:00:00	86.7168709627803	677157774.7158	5.299437508498929e+21	2162793293153.74	4.560551797526829	421215086374.6477	1.5541488356000793e+21	-5.812432514687414e+23	1426.6741708939658	-0.6463318299335595	23.143286171804643	2.538434036467644	27.123200127083827	108.10228816538113	108.39653606451876	38.183107012007255	0.0016305154799881405	-4.8227307447630766e+22	0.2912071223779806	0.008181635820726152	2.751926869556862e+23	0.05362788092013128	-0.3060092181628835	1.9844003556643224	44.941376	80.982376	-14.507295	-40.161716	-8.557185	-31.658789	0.0		True	0.0	None	0.0	None	0.0	None	0.0	None	0.0	None	0.0	None	0.0	None	0.0	None	1.8356e-06	12
2014-03-04 22:12:00	85.68607938767713	673812105.5152	5.181557858642366e+21	2094722984051.702	7.566170136413662	586459221024.2727	1.5203502677267065e+21	-5.7735927513598234e+23	1437.070308576137	-0.6452007096019633	22.90402259665904	2.541436464088398	27.35818594456252	111.37290544865441	110.84733975509731	39.721604656641716	0.002787829821817857	-4.982997704618233e+22	0.3985410385535239	0.013653333024055744	2.719704365347697e+23	0.05568514776535666	-0.3039277728787856	1.9360124348663783	44.943581	80.872231	-14.511996	-40.084362	-8.545485000000001	-31.546808	0.0		True	0.0	None	0.0	None	0.0	None	0.0	None	0.0	None	0.0	None	0.0	None	0.0	None	1.3113e-06	12
2014-03-04 22:24:00	81.62028825031052	653783392.2350001	5.030412757481219e+21	1982901567441.1064	8.103033791915928	766641923649.4142	1.4456584931406515e+21	-5.629079412664155e+23	1501.9171518144171	-0.648322253785921	22.91441240798717	2.2204599524187154	27.07600098866241	112.02403776014862	111.25415622472526	40.31141023113903	0.003212939647865158	-4.80058826075601e+22	0.5877817716773395	0.015038400250307787	2.637138672397826e+23	0.05529018108555258	-0.3037291823932163	1.8695464333239424	44.945801	80.7621	-14.496576	-40.00552	-8.546536	-31.437017	0.0		True	0.0	None	0.0	None	0.0	None	0.0	None	0.0	None	0.0	None	0.0	None	0.0	None	1.5908e-06	12
2014-03-04 22:36:00	85.87240605618408	685750967.2672	5.394559673718369e+21	2057728105551.9424	9.18487731949694	792177684133.6027	1.4938809722989398e+21	-5.839359881590011e+23	1571.9943945832847	-0.6411893700438256	23.16375642506718	2.4380804953560373	27.345871455817427	114.3448794289182	114.0366156538356	40.67057087226977	0.003554519086492624	-4.903033722676472e+22	0.5927712993927047	0.016322182570649886	2.805925313346261e+23	0.05383763233805923	-0.3081038881893033	1.912924645703297	44.948051	80.652	-16.918238	-39.919941	-8.55313	-31.329983	0.0		True	0.0	None	0.0	None	0.0	None	0.0	None	0.0	None	0.0	None	0.0	None	0.0	None	1.153e-06	12
2014-03-04 22:48:00	95.11479005437694	707571479.7111001	5.626467446135749e+21	2202690025663.937	8.239202815940287	715317901295.0498	1.503174311092407e+21	-6.0009578546810174e+23	1662.0859204987769	-0.6386129969045604	23.20764071963623	2.353864260494312	27.322554018439785	119.636144794542	118.90456987598616	43.008096106964466	0.0032323275072343232	-4.996902155076714e+22	0.5425931166003498	0.01421243445002025	2.894186044190474e+23	0.053176288482066326	-0.30799496814297794	1.864778606834175	44.950325	80.541924	-16.925835	-39.84222800000001	-8.541028	-31.210239	0.0		True	0.0	None	0.0	None	0.0	None	0.0	None	0.0	None	0.0	None	0.0	None	0.0	None	1.3336000000000002e-06	12
2014-03-04 23:00:00	95.33789127884027	702932683.1148	5.546661715676082e+21	2205518212387.975	10.620486306714326	876127907975.8595	1.4845862469817255e+21	-5.91206046279902e+23	1654.74005051318	-0.6333045087429754	23.056712053406585	2.456418383518225	27.785854247314386	119.35364006953682	118.53861733889359	42.93557701977	0.004207799646083331	-5.474077881531995e+22	0.6027205636353802	0.01850092751333637	2.8876200957499622e+23	0.05863874744513519	-0.3093241075057391	1.8379183670535484	44.952671	80.43186999999998	-17.085810000000002	-39.763786	-8.542397	-31.100887	0.0		True	0.0	None	0.0	None	0.0	None	0.0	None	0.0	None	0.0	None	0.0	None	0.0	None	1.37e-06	12
2014-03-04 23:12:00	96.29058516595508	697812298.9697001	5.582434259779603e+21	2218402888029.4966	6.084446234877597	681642816516.6278	1.4808768560901094e+21	-5.832545073972274e+23	1664.0936697508673	-0.6293713676525067	23.012016783268045	2.256532066508313	27.75265992829056	120.07223471335331	119.35382550075884	43.14617848653078	0.002408727725604749	-5.521380986854188e+22	0.5217269663662355	0.010702675388557393	2.8972062793712324e+23	0.059579464178239214	-0.31262830467548497	1.8943544379168624	44.954987	80.321838	-17.093836	-39.64700300000001	-8.547239	-30.989056	0.0		True	0.0	None	0.0	None	0.0	None	0.0	None	0.0	None	0.0	None	0.0	None	0.0	None	1.2173e-06	12
2014-03-04 23:24:00	91.00838284318013	693775146.9884	5.592159832992348e+21	2141329280803.538	7.718109936689562	645587445080.8641	1.4627964062770028e+21	-5.7351352300154047e+23	1678.2874935748566	-0.622461318605033	23.690014908160663	3.6667995217218015	28.48089267527157	117.01875866910723	116.40589025034443	42.87795077469142	0.003076169763527127	-5.878674629188671e+22	0.4433287927935311	0.01371348596604838	2.852651076099316e+23	0.06380403276602258	-0.3096116968708473	1.920230687064008	44.957329	80.21183	-17.22508	-39.531506	-8.555019	-30.875013	0.0		True	0.0	None	0.0	None	0.0	None	0.0	None	0.0	None	0.0	None	0.0	None	0.0	None	1.421e-06	12
2014-03-04 23:36:00	104.69771830095058	803209779.2955999	6.955574229372368e+21	2469758795205.8643	4.1910451432196565	423357386269.2661	1.6153224199017747e+21	-6.28810028366592e+23	1878.571131082549	-0.5894919726792148	25.201188023669648	5.8106169296987105	30.30793243050933	122.77489055154436	122.17150647087857	46.911867011029045	0.0015032443124891161	-6.489312148752165e+22	0.2935671536144026	0.006565457706221474	3.382748118703978e+23	0.06083550273261431	-0.3171232600649878	2.4081590466475395	44.959702	80.10185200000002	-17.485462	-39.444283	-8.541385	-30.768032	0.0		True	0.0	None	0.0	None	0.0	None	0.0	None	0.0	None	0.0	None	0.0	None	0.0	None	1.1451e-06	12
2014-03-04 23:48:00	117.74822662631833	861331869.9102001	7.238658878755865e+21	2681746495388.768	1.814907094352459	154960362181.04498	1.6849625684846833e+21	-6.885153011528324e+23	1958.5393783396385	-0.6019085087466359	24.68256507912879	5.641394178943586	29.558506392599984	128.88789023335713	128.21726113151044	48.713217111498565	-0.0006521405297709159	-6.832647877658055e+22	0.10764323869196712	-0.0026307293435448545	3.57552488369574e+23	0.05973184456388909	-0.31257676439845344	2.517878053031525	44.962105	79.991905	-17.526838	-39.327919	-8.544207	-30.659971	0.0		True	0.0	None	0.0	None	0.0	None	0.0	None	0.0	None	0.0	None	0.0	None	0.0	None	9.8408e-07	12
2014-03-05 00:00:00	118.0251019862076	856439159.5257001	7.381266211097359e+21	2644950965367.247	3.136284455358872	259279009219.8401	1.658747738316595e+21	-6.750668412363641e+23	2048.6536172573683	-0.5935232272653297	25.019135306756464	5.971249539255438	29.814195852153702	129.81283967912168	129.42680441151208	50.33985328715811	0.0011560208091997315	-7.40687093483423e+22	0.18474937984174625	0.004596111187409415	3.5492381748311456e+23	0.06512169866215274	-0.31205136546197393	2.7014408973122945	44.964539	79.881989	-17.536657	-39.216843	-8.550896	-30.55159	0.0		True	0.0	None	0.0	None	0.0	None	0.0	None	0.0	None	0.0	None	0.0	None	0.0	None	1.2306000000000001e-06	12
2014-03-05 00:12:00	128.8940716793447	890856836.891	7.827336826809668e+21	2890452930966.31	0.4685068347581986	231867630617.2594	1.6989262251155215e+21	-6.825932418902041e+23	2096.720917770668	-0.5769544369121657	25.39691755237781	6.0832443970117405	30.749889872942692	128.5943191009683	127.88570418556765	50.957743866251754	-0.00016666909809967938	-8.388831052888995e+22	0.12876063304459578	-0.0006669892952816945	3.6388260517736416e+23	0.07090567265313441	-0.3075677734383543	2.477116233445598	44.966988	79.772087	-17.606524	-39.100601	-8.542997999999999	-30.446815	0.0		True	0.0	None	0.0	None	0.0	None	0.0	None	0.0	None	0.0	None	0.0	None	0.0	None	4.8869e-06	12
2014-03-05 00:24:00	127.5723791183481	906818997.3088	7.972869369971796e+21	2879968637034.385	5.591127358039292	474208992409.6044	1.7078745119214744e+21	-6.961468357479942e+23	2162.6317882018893	-0.5780529731472942	25.316683013700363	6.0158501440922185	30.535801890753607	132.68985835715952	131.79501898641743	52.99400513677827	-0.002014094869610696	-8.097793465620494e+22	0.11411794899959855	-0.007814248050782019	3.656996988660496e+23	0.06724089442574395	-0.30366265757920485	2.5418739322890405	44.969475	79.662224	-17.631996	-38.985146	-8.546308	-30.327667	0.0		True	0.0	None	0.0	None	0.0	None	0.0	None	0.0	None	0.0	None	0.0	None	0.0	None	2.9883999999999996e-06	12
2014-03-05 00:36:00	131.75594393027558	933633745.3402	8.190097438122531e+21	2977054426583.504	0.7024281766077438	465898408873.2654	1.7175556799793668e+21	-7.085162524330581e+23	2205.6635834947056	-0.5714268561132616	25.73080597041305	7.582260371959943	31.70513207880321	134.62575133669029	134.39520317428165	53.795752377363755	0.0002512261003604234	-8.482687331782424e+22	0.3220893526203861	0.0009575494435818598	3.704008804514689e+23	0.06841389081403179	-0.29873275297656593	2.2598121915349307	44.971985	79.55238299999998	-17.716394	-38.86993	-8.551172	-30.220459	0.0		True	0.0	None	0.0	None	0.0	None	0.0	None	0.0	None	0.0	None	0.0	None	0.0	None	1.8015e-06	12
2014-03-05 00:48:00	137.37424532862872	966849732.8503	8.361423718772221e+21	3131764868195.001	6.986750083068348	1059840502197.5624	1.7765031548606826e+21	-7.401761747622287e+23	2165.076403035237	-0.5764524866291657	25.687414902604605	6.636863823933973	30.935823295014053	134.5499572232856	133.71197943125821	53.366404086610785	0.0024025963146727483	-9.288085612027368e+22	0.7044559559603867	0.00916780436094491	3.869551655037581e+23	0.07233602255297794	-0.3013623985401814	2.697303606595062	44.974533	79.442581	-17.825438000000005	-38.756058	-8.558026	-30.107859	0.0		True	0.0	None	0.0	None	0.0	None	0.0	None	0.0	None	0.0	None	0.0	None	0.0	None	1.2584999999999999e-06	12
2014-03-05 01:00:00	141.44416445344206	989368655.447	8.660699840888848e+21	3370116164311.096	8.259810532586476	761248742842.1434	1.8473967082649373e+21	-7.460035170805836e+23	2042.4033064278688	-0.5677670225768454	26.87925785667673	8.925775133103661	32.14897508269896	126.94082143962791	126.4469969950016	52.33854710344856	0.002586849524768705	-9.517356503306398e+22	0.061702762173734826	0.010650264873453791	3.947298891647997e+23	0.07243452666056191	-0.3004203180840736	2.522494579524293	44.977104	79.332802	-17.959517	-38.640957	-8.563094	-30.000742	0.0		True	0.0	None	0.0	None	0.0	None	0.0	None	0.0	None	0.0	None	0.0	None	0.0	None	1.269e-06	12
2014-03-05 01:12:00	148.34512663172228	1000621564.521	8.969125962598546e+21	3530014253174.9736	13.702978948733099	1161304088583.478	1.8390119513957888e+21	-7.334938000086778e+23	2107.2183771752602	-0.5519681833323198	27.61109398381807	10.889235569422775	33.467430874326475	125.08015619491907	125.33751910137102	52.700282188724614	0.0042768348778817415	-8.353551220086943e+22	-0.2135978310577948	0.017649226456003586	3.901626190374531e+23	0.06286207860612211	-0.2936048703230144	2.9272768181488185	44.979736	79.223038	-18.033213	-38.525883	-8.568029	-29.893635	0.0		True	0.0	None	0.0	None	0.0	None	0.0	None	0.0	None	0.0	None	0.0	None	0.0	None	1.229e-06	12
2014-03-05 01:24:00	150.1267457585626	1017775621.0823	9.069095131904981e+21	3575919044759.3174	13.058524288696699	1001692360538.8296	1.873319614568352e+21	-7.426767487781056e+23	2108.990588964044	-0.5494590263533927	27.221841923074088	9.697344039530574	33.01828508264843	125.49817026694998	125.69401748233572	53.872442007388074	0.004032898174396757	-9.026899787423033e+22	-0.2219083123063284	0.016561205897529768	3.93568314821125e+23	0.06678425810889377	-0.29117602432141204	2.4938261018180405	44.982368	79.11331899999998	-18.173306	-38.421543	-8.558276	-29.785753000000003	0.0		True	0.0	None	0.0	None	0.0	None	0.0	None	0.0	None	0.0	None	0.0	None	0.0	None	1.1258e-06	12
2014-03-05 01:36:00	149.28795421426122	1065672001.4616	1.0811150071812665e+22	3685865255587.317	17.86406195838254	1287631532159.9626	1.8852391331381534e+21	-7.146849823660893e+23	2376.833879560348	-0.5049851533236434	31.02006674135065	17.985401459854018	37.195332507123716	121.32187361283621	122.4960881121352	52.83107315573442	0.005215784513396362	-8.827387383216816e+22	-0.08051755128658537	0.02227688386217476	4.089525799226723e+23	0.06237292906873384	-0.2889594525837752	2.7231395461053056	44.985023	79.003624	-18.200371	-38.306339	-8.560967999999999	-29.681656	0.0		True	0.0	None	0.0	None	0.0	None	0.0	None	0.0	None	0.0	None	0.0	None	0.0	None	1.2158e-06	12
2014-03-05 01:48:00	161.0024961049721	1110031811.7763	1.0223460546959911e+22	4073608414139.816	20.798625428727497	1809532930327.0632	2.045690704067277e+21	-8.0940470960641e+23	2057.7735517101187	-0.5490572944798849	29.028760311572718	13.499064421277735	34.150708865879366	122.7104235759502	123.76462659995876	54.17172734269026	0.005559643258146885	-9.707439780324622e+22	-0.11215932021405813	0.02419144013012808	4.20738788947586e+23	0.0658501310760008	-0.2854069149840235	2.8197604206664497	44.987709	78.893959	-18.23897	-38.192642	-8.566294000000001	-29.56344600000001	0.0		True	0.0	None	0.0	None	0.0	None	0.0	None	0.0	None	0.0	None	0.0	None	0.0	None	1.3141999999999998e-06	12
2014-03-05 02:00:00	155.7420015861751	1101282548.6890998	1.0212927966212543e+22	3758548530114.345	16.032268558533016	1098529850497.7148	1.9866390767065424e+21	-7.966392039444725e+23	2242.695605787685	-0.5446913345125972	28.490951645772405	11.606882473024205	33.72114176442127	127.6226165368312	127.9287207589687	54.105554580296726	0.004675493892835525	-9.888175795497012e+22	-0.11891714578085172	0.018848834766111745	4.183157476485811e+23	0.06760907124927093	-0.28601776275401875	2.48367658201608	44.990425	78.784325	-18.247826	-38.077408	-8.571864	-29.456007	0.0		True	0.0	None	0.0	None	0.0	None	0.0	None	0.0	None	0.0	None	0.0	None	0.0	None	7.1163e-06	12
2014-03-05 02:12:00	165.5873954548223	1154811225.0176	1.0608375509802774e+22	3938028572944.529	14.710444879880125	758382155366.6382	2.1455300748334365e+21	-8.462546204689545e+23	2130.693232019968	-0.5517947178105135	27.446927522856345	9.709255801547078	32.67461542399153	124.09597552536644	124.3196883018236	52.932562791380946	0.0039238316564097426	-9.67992423257287e+22	0.11603772153956085	0.016417632758409427	4.500917607135425e+23	0.06311730454576167	-0.2934793501678465	3.0079196096015366	44.993156	78.674706	-18.323742000000006	-37.962677	-8.578997	-29.34897	0.0		True	0.0	None	0.0	None	0.0	None	0.0	None	0.0	None	0.0	None	0.0	None	0.0	None	1.0256e-05	12
2014-03-05 02:24:00	176.09855534346352	1204721467.2652998	1.1394809141689487e+22	4501777187555.629	14.779697443403135	1104189552374.6636	2.2257296523313626e+21	-8.54473926528296e+23	2128.5395122196605	-0.5340717731822495	28.6524930293611	12.65194740759117	34.27125104756401	123.31104668179607	122.48730480714063	53.68524859732356	0.003666508916746002	-1.1301900946840529e+23	0.0015354918964224458	0.01599422536429667	4.758141607716896e+23	0.07064026287535155	-0.2973980886474071	3.1862700720729	44.995918	78.565117	-18.392754	-37.848221	-8.584064	-29.242104	0.0		True	0.0	None	0.0	None	0.0	None	0.0	None	0.0	None	0.0	None	0.0	None	0.0	None	2.3473e-06	12
2014-03-05 02:36:00	179.12912740064385	1263020488.881	1.1923814346562164e+22	4349823632921.422	25.380432516600674	1887768721412.564	2.3109514976130831e+21	-9.06065078986095e+23	2154.145304757702	-0.5401775068832483	28.982707898566844	12.763915547024947	34.39597264598743	120.42769695187769	122.45260627286983	51.645946882433634	0.006089355210316861	-1.2229876744314878e+23	-0.04759009454730261	0.02609443164704575	4.852277057131268e+23	0.07291202897507114	-0.2892828544237691	3.1675165281191098	44.998718	78.455566	-18.516808	-37.733887	-8.577312	-29.135321	0.0		True	0.0	None	0.0	None	0.0	None	0.0	None	0.0	None	0.0	None	0.0	None	0.0	None	1.9249e-06	12
2014-03-05 02:48:00	184.6168889243616	1318793879.0984	1.2594132519534329e+22	4492541882339.997	19.118003091503702	1208825367720.4875	2.357414629541648e+21	-9.397157599941924e+23	2203.8621581882026	-0.5365461745889738	31.068632809434327	16.871949802463398	36.44113501123914	119.84039441796864	119.6774644273965	51.293847494655715	0.0044429474997684645	-1.2381344734482014e+23	0.08105579780787542	0.018869047799539	4.934995766670768e+23	0.07069332490065627	-0.2817717029920137	2.9363831179309305	45.001534	78.34603100000002	-18.535105	-37.600216	-8.583007	-29.025146000000003	0.0		True	0.0	None	0.0	None	0.0	None	0.0	None	0.0	None	0.0	None	0.0	None	0.0	None	2.0995e-06	12
2014-03-05 03:00:00	190.83108693017525	1352990408.5904	1.240780171441481e+22	4575040409053.912	19.171043833164973	1177843788506.9778	2.4367543483843027e+21	-9.753717033641804e+23	2128.711165499742	-0.5428288342050936	29.51450678853034	14.399635452267034	35.282297354013856	123.5140805045368	123.4435829726527	51.81652078497852	0.004367975355015943	-1.273345995591214e+23	0.5125340988500509	0.0183680600728952	5.092845865956938e+23	0.07086620617990412	-0.2834348766391699	2.8888877223720137	45.004379	78.236526	-18.544546	-37.482143	-8.577192	-28.922831	0.0		True	0.0	None	0.0	None	0.0	None	0.0	None	0.0	None	0.0	None	0.0	None	0.0	None	1.7551e-06	12
2014-03-05 03:12:00	194.1536315673186	1391726480.0229	1.2565784101907742e+22	4634114027487.361	22.426930417183385	1302200563812.3271	2.5034622793114164e+21	-1.0083249526792626e+24	2103.573303573938	-0.5455494623933625	29.3033662028508	13.294797687861273	35.30259608358916	122.86500661028059	123.09204815346467	51.9145785208512	0.004985978305287546	-1.361436925797669e+23	0.3953030876559066	0.020852735391579	5.2629148490807804e+23	0.07365990308757593	-0.2847475269662752	2.5685415281803508	45.007236	78.127037	-18.549299	-37.367508	-8.507177	-28.806705	0.0		True	0.0	None	0.0	None	0.0	None	0.0	None	0.0	None	0.0	None	0.0	None	0.0	None	1.4530000000000001e-06	12
2014-03-05 03:24:00	198.28990867035583	1433513469.4420002	1.2520061389378467e+22	4852763671978.132	25.51083325940683	1793267490573.85	2.5884371256618097e+21	-1.0497578750359492e+24	2032.2145800106039	-0.5514102570295952	28.21293833135916	11.98534166846303	34.219240792953	124.75729379649107	124.34563129151665	53.025483699423475	0.005499209583834193	-1.384257100212888e+23	0.27229377647667896	0.022941732069791155	5.3562905074884386e+23	0.07271139198620365	-0.28135188081901624	2.452341358535528	45.010178	78.017578	-18.560753	-37.248955	-8.485638	-28.6817	0.0		True	0.0	None	0.0	None	0.0	None	0.0	None	0.0	None	0.0	None	0.0	None	0.0	None	1.2983000000000001e-06	12
2014-03-05 03:36:00	210.56679370919304	1500633920.2973	1.3918069305237435e+22	5154462855961.898	12.771871435957744	851988530849.2252	2.7154487742672247e+21	-1.0495057739848452e+24	2094.768101175124	-0.5266202237833834	28.829665602334384	13.072156705976415	35.41972388023483	119.42052730090515	119.7377557809652	51.823238145558655	0.0025528425816425627	-1.3915524000059615e+23	0.32901466624617964	0.01115010002836878	5.56727050928612e+23	0.06982521244404563	-0.279354084001945	2.962134007995434	45.013092	77.908142	-18.626329	-37.136288	-8.463002000000001	-28.571474	0.0		True	0.0	None	0.0	None	0.0	None	0.0	None	0.0	None	0.0	None	0.0	None	0.0	None	1.6541e-06	12
2014-03-05 03:48:00	214.53452711704918	1603674096.3665	1.6671270111918892e+22	5486913780075.472	11.878653726587306	1119152507731.484	2.797600402750516e+21	-1.019183031615329e+24	2340.713818936955	-0.4785457881406803	31.693068026313075	17.676673503636025	38.810899105741356	116.93377538701895	116.59690444443035	52.057382342184276	0.0022149270420636405	-1.437774768607838e+23	0.4031637080674084	0.01001950636286315	5.753011312775573e+23	0.06750907721861582	-0.27012609584865355	3.237019560520735	45.016022	77.798721	-18.710196	-37.090786	-8.438702000000001	-28.459209	0.0		True	0.0	None	0.0	None	0.0	None	0.0	None	0.0	None	0.0	None	0.0	None	0.0	None	1.548e-06	12
2014-03-05 04:00:00	229.1018278983335	1638691807.8933	1.6019328008500567e+22	5739699395016.612	25.82833402500213	1719554347515.8145	2.9170293201989874e+21	-1.0864085514008457e+24	2176.532897468272	-0.4992100914746049	30.102395099442834	14.74197040779502	37.062454608565396	116.51296951233608	118.03840200783013	52.111829506865185	0.00466047167538833	-1.5374485145090023e+23	0.2398156274740469	0.02102648174545248	5.908290229023762e+23	0.07064651806872155	-0.2714888521345241	3.4517401766528555	45.018982	77.68933100000002	-18.745121	-37.016193	-8.424767	-28.298386	0.0		True	0.0	None	0.0	None	0.0	None	0.0	None	0.0	None	0.0	None	0.0	None	0.0	None	1.1912000000000001e-06	12
2014-03-05 04:12:00	235.804777005119	1687480332.9266	1.6665967412302334e+22	5855992313121.277	22.298043217176765	1632485890610.3618	2.97207588556472e+21	-1.0992812381322007e+24	2256.654728457394	-0.4905209707104802	29.663796188637928	13.810465743571301	36.75689230902721	116.72096389618568	118.34620453366979	53.11499166756182	0.0040097182552017215	-1.6826234961691494e+23	0.5671184936615414	0.017730457337569876	6.100554257711779e+23	0.0750819792106644	-0.27221876373049314	3.4706343988246693	45.021957	77.57995600000002	-18.82733	-36.98898300000001	-8.426191000000001	-28.14353	0.0		True	0.0	None	0.0	None	0.0	None	0.0	None	0.0	None	0.0	None	0.0	None	0.0	None	1.1931e-06	12
2014-03-05 04:24:00	230.2877044827892	1709575774.7488	1.6177642278722336e+22	5426333218929.187	27.886288562582266	1613852453496.4478	2.9792032289631733e+21	-1.1462572854471706e+24	2288.4752738148195	-0.5048719196220617	28.485921427412947	12.981401465339095	35.28452748395554	121.32667333579529	122.66930795535652	53.76987925423878	0.00523882933732524	-1.7167320571490275e+23	0.5856982717459166	0.021678679219031258	6.167524630382794e+23	0.0756138975231409	-0.2716501817690056	3.3952542230693905	45.02494	77.470589	-18.84683	-36.912998	-8.412071000000001	-28.004343	0.0		True	0.0	None	0.0	None	0.0	None	0.0	None	0.0	None	0.0	None	0.0	None	0.0	None	1.5002e-06	12
2014-03-05 04:36:00	252.2632163842159	1803945694.7917	1.7214995500511693e+22	6042430374340.018	24.971568591622724	1319295389294.5442	3.136347193966293e+21	-1.2122496200560982e+24	2274.551047515416	-0.5060064218715306	29.12839120440525	13.879628004913142	35.60730695021328	118.42586351053043	120.06109705373018	53.38295190083868	0.004381745673209814	-1.7442605962647566e+23	0.3889078813076876	0.018383387248299497	6.346296745252833e+23	0.07280736974671834	-0.26490145718104835	3.0071474012901347	45.027954	77.36125200000002	-18.867165	-36.836315	-8.389415	-27.867502	0.0		True	0.0	None	0.0	None	0.0	None	0.0	None	0.0	None	0.0	None	0.0	None	0.0	None	1.8693e-06	12
2014-03-05 04:48:00	261.9460599081773	1903324654.9984	1.900615402787205e+22	6277976279886.157	20.276841161257074	1139083731496.8115	3.198702907996202e+21	-1.2298137083653508e+24	2440.9662427628764	-0.4865347666863374	30.16326846148743	15.640457103871734	37.0878797013152	118.45721144057516	119.31560024118023	55.42617525319761	0.003458441269189336	-1.9703120875112238e+23	0.3753033992019769	0.014333173258618841	6.691663303208578e+23	0.07794882471026716	-0.2647333349615668	3.2735233525515084	45.030983	77.25193	-18.874456	-36.74218	-8.366259	-27.731237	0.0		True	0.0	None	0.0	None	0.0	None	0.0	None	0.0	None	0.0	None	0.0	None	0.0	None	1.8612e-06	12
2014-03-05 05:00:00	261.8523164641945	1938483081.3242	1.9015164278802838e+22	6280714983994.08	24.69062964873081	771524605207.5642	3.2391361464692155e+21	-1.2651128652428688e+24	2416.976909873441	-0.4914221490487598	30.28000410936293	14.78730587440918	36.801729954952265	118.35674477731385	119.2647462709665	55.190405061884135	0.004167898320177382	-2.173526027324341e+23	0.1868732878558808	0.017080459796978892	6.763764692246441e+23	0.08442873839213466	-0.2627325886916637	3.2265391079578967	45.034023	77.142624	-18.882217	-36.641365	-8.373331	-27.626308	0.0		True	0.0	None	0.0	None	0.0	None	0.0	None	0.0	None	0.0	None	0.0	None	0.0	None	1.8685e-06	12
