Timestamp	TOTUSJH	TOTBSQ	TOTPOT	TOTUSJZ	ABSNJZH	SAVNCPP	USFLUX	TOTFZ	MEANPOT	EPSZ	MEANSHR	SHRGT45	MEANGAM	MEANGBT	MEANGBZ	MEANGBH	MEANJZH	TOTFY	MEANJZD	MEANALP	TOTFX	EPSY	EPSX	R_VALUE	CRVAL1	CRLN_OBS	LAT_MIN	LON_MIN	LAT_MAX	LON_MAX	QUALITY	NOAA_AR	IS_TMFI	BFLARE	BFLARE_label	CFLARE	CFLARE_label	MFLARE	MFLARE_label	XFLARE	XFLARE_label	BFLARE_loc	BFLARE_label_loc	CFLARE_loc	CFLARE_label_loc	MFLARE_loc	MFLARE_label_loc	XFLARE_loc	XFLARE_label_loc	XR_MAX	XR_QUAL
2014-03-22 12:24:00	117.92449438159606	1000257892.9115	8.242179078741371e+21	2355143908289.76	4.001557442905412	510048394914.0275	1.302806727169496e+21	-6.179537121033151e+23	3220.6818665799456	-0.4651911617259984	26.999326819610786	10.84587441619097	36.49209002648357	151.76132948616427	149.94144329331027	78.74471163701047	0.002076573660044324	-2.04800512346576e+23	0.5067721088218361	0.005460756029900261	1.3519422582216444e+23	0.15417236986296315	-0.10177325216608607	0.0	196.285202	209.039551	-31.540741	-17.437757	-26.235279	-9.822062	0.0	12016.0	True	0.0	None	0.0	None	0.0	None	0.0	None	0.0	None	0.0	None	0.0	None	0.0	None	9.2654e-07	12
2014-03-22 12:36:00	117.89232903445601	1007894480.5031	8.250649977700197e+21	2350224084191.4736	0.21621078073863087	1021666494090.2632	1.3157545211592424e+21	-6.3177937644274e+23	3190.873580008601	-0.4719953982066051	27.06688688245962	11.50487930148947	36.66042891668007	152.33587508595366	151.00407837713811	78.03887804500567	0.00011104816678923004	-2.1598886146485592e+23	1.0047006719843985	0.0002914646044805919	1.27252381101756e+23	0.16136289419465652	-0.0950688492382366	0.0	196.285019	208.929825	-31.542528000000004	-17.327429000000002	-26.240435	-9.690136	0.0	12016.0	True	0.0	None	0.0	None	0.0	None	0.0	None	0.0	None	0.0	None	0.0	None	0.0	None	9.213200000000001e-07	12
2014-03-22 12:48:00	118.20573259186595	1014135513.4654	8.214658057523146e+21	2303903355509.552	8.64470065640811	1301433300304.1562	1.3188029135454462e+21	-6.378467405569492e+23	3208.2619222133685	-0.4735956507697888	26.48120517503613	10.37344398340249	35.845010202977036	156.40212781416432	154.56232337971105	79.4715571861025	0.004483765900626613	-2.200398093830149e+23	1.2924654672539178	0.0115692613703236	1.2786091308901136e+23	0.1633776424553274	-0.09493561461101993	0.0	196.284882	208.820084	-31.54324	-17.212692	-26.24161	-9.584988	0.0	12016.0	True	0.0	None	0.0	None	0.0	None	0.0	None	0.0	None	0.0	None	0.0	None	0.0	None	8.822399999999998e-07	12
2014-03-22 13:00:00	119.37617190202144	1013891170.0841	8.333890441269873e+21	2380128774489.696	5.45689229096832	593834533074.7533	1.3036631654117126e+21	-6.227810411883649e+23	3185.436859062677	-0.4625210285344551	27.45943715242921	12.081218274111675	37.934613663663576	149.50210358002892	147.68757516141252	78.43234426923269	0.002769996086785949	-2.192455917707249e+23	0.577183576847081	0.00736006953373183	1.3227931442161213e+23	0.162827205551959	-0.09823992786192036	0.0	196.284668	208.710312	-31.545914	-17.092487	-26.243841	-9.47507	0.0	12016.0	True	0.0	None	0.0	None	0.0	None	0.0	None	0.0	None	0.0	None	0.0	None	0.0	None	1.4687e-06	12
2014-03-22 13:12:00	117.2282561463276	998431916.5748	8.128883701049862e+21	2262409760460.105	4.708786938737997	511571908206.4655	1.2735658731008628e+21	-6.118856011251271e+23	3250.6337723853185	-0.4614654925768114	27.239883023226238	11.577270313329793	37.01878016088565	153.48445933898148	151.30160063202132	80.1888440545058	0.002500683451268187	-2.1481320868780154e+23	0.5202135718104958	0.006454045381156277	1.3412879033132283e+23	0.1620055823782172	-0.10115585035039648	0.0	196.284393	208.600494	-31.549097	-16.984278	-26.246584	-9.345481	0.0	12016.0	True	0.0	None	0.0	None	0.0	None	0.0	None	0.0	None	0.0	None	0.0	None	0.0	None	1.1334e-06	12
2014-03-22 13:24:00	112.22316639891615	982746654.8422	8.09298198909979e+21	2268284472510.514	2.8826948026795893	416897530709.7415	1.2674823271582508e+21	-6.0148235446821314e+23	3183.8607931463757	-0.4608597155195849	27.25173405195344	10.39707419017764	37.216372032670066	152.01608688599325	150.0584845432961	79.88499435859485	0.0015061101372411648	-2.166853481707877e+23	0.4170836431468962	0.0040158600853956216	1.3060448399864976e+23	0.16602573155041556	-0.10007001019076583	0.0	196.284164	208.490662	-31.550312	-16.869293	-26.248339	-9.240645	0.0	12016.0	True	0.0	None	0.0	None	0.0	None	0.0	None	0.0	None	0.0	None	0.0	None	0.0	None	9.528900000000001e-07	12
2014-03-22 13:36:00	120.03879579398728	1006320298.4107	8.665831572670854e+21	2513930773540.0054	5.632068699804806	629649918726.6943	1.301792296306294e+21	-5.9791426153745254e+23	3217.582157672039	-0.4473938719973581	27.81676749888329	12.721893491124261	38.51881753125826	150.62664550877545	148.0174007260212	79.13762623299552	0.0027771541912252496	-2.1919285092082973e+23	0.5945347772460746	0.007733480180908502	1.3536780568624904e+23	0.16401270984145447	-0.10128998524642717	0.0	196.283844	208.380798	-31.553001	-16.762239	-26.250605	-9.135335	0.0	12016.0	True	0.0	None	0.0	None	0.0	None	0.0	None	0.0	None	0.0	None	0.0	None	0.0	None	9.8563e-07	12
2014-03-22 13:48:00	116.43960258157536	1010495677.8226	8.730385004445528e+21	2475394236747.976	4.886405716442686	566637991302.1464	1.301361799501743e+21	-5.8880858609285985e+23	3236.762491371607	-0.4387600061986965	28.338732210401048	13.687838503200394	38.42822222728748	151.75222637171763	149.7989941337115	79.14401430715138	0.002405911234092903	-2.201319061818665e+23	0.5342592698228761	0.0067219720416748785	1.3275196064881185e+23	0.16403476240350606	-0.09892221759819224	0.0	196.283508	208.270905	-31.556362	-16.650089	-26.250448	-9.025001	0.0	12016.0	True	0.0	None	0.0	None	0.0	None	0.0	None	0.0	None	0.0	None	0.0	None	0.0	None	1.0004e-06	12
2014-03-22 14:00:00	118.12979909698444	994739677.4139	8.594756855990662e+21	2340668775845.1567	1.7782266679021297	852749492843.3428	1.2822789303476557e+21	-5.9011278192597773e+23	3395.4562143029907	-0.44669697985095264	26.504145923584147	9.286463798530956	36.751782517724926	158.0473403643408	155.66716584869232	81.04291121740414	0.0009329625749748844	-2.3276665748978147e+23	0.8567714819226995	0.002471326344365657	1.238897997689532e+23	0.17619710349491974	-0.09378071630733208	0.0	196.283173	208.16098	-31.55927800000001	-16.53371	-26.252958000000003	-8.918625	0.0	12016.0	True	0.0	None	0.0	None	0.0	None	0.0	None	0.0	None	0.0	None	0.0	None	0.0	None	9.3782e-07	12
2014-03-22 14:12:00	113.02974599065071	971938320.5935	8.166979964143627e+21	2197850800982.8345	3.0489615411449464	815314436675.521	1.2605630925277194e+21	-5.892798308076984e+23	3255.495001289249	-0.4565311041862705	26.56438220457493	10.217046056114343	36.76266693728886	156.18692331753937	153.7722801705015	79.55235712140022	-0.0016140611652434866	-2.3140106848248463e+23	0.8265507241583256	-0.004307482018654074	1.2237083717374182e+23	0.17927269826865316	-0.09480401414478012	0.0	196.282822	208.051025	-31.56052	-16.42458	-26.254612	-8.811524	0.0	12016.0	True	0.0	None	0.0	None	0.0	None	0.0	None	0.0	None	0.0	None	0.0	None	0.0	None	8.3575e-07	12
2014-03-22 14:24:00	118.40058389404587	972048262.9659	8.135642212280509e+21	2374586215924.2417	1.0571854817270128	974636536177.2502	1.2866444474427604e+21	-5.914049905564488e+23	3130.3178577508393	-0.4581256201589674	26.376190280823394	9.759836484414919	35.89590008267065	155.57459036375403	151.96133201591363	79.97611815773041	-0.0005402071955682232	-2.2519879551052306e+23	0.9537569606700764	-0.0014917581411368847	1.2308119641757575e+23	0.17444786482988514	-0.0953435468741239	2.0742468748088414	196.28241	207.941055	-31.562263	-16.308825	-26.255983	-8.687959	0.0	12016.0	True	0.0	None	0.0	None	0.0	None	0.0	None	0.0	None	0.0	None	0.0	None	0.0	None	8.1422e-07	12
2014-03-22 14:36:00	121.909926172138	957654450.1692	8.29751489103094e+21	2387185565003.208	2.458987560682986	971244513895.6704	1.247346020278908e+21	-5.651618830353988e+23	3257.5185231848436	-0.4443769139286216	27.396658088374696	11.001042752867573	37.750884145036395	156.613684232893	152.08419636936904	82.70593782034493	0.0012820581651110461	-2.26340854081896e+23	0.9697843946745276	0.0035554695042146578	1.2666747386807726e+23	0.17796785885962085	-0.0995964215249543	2.0689629614091323	196.281952	207.831055	-31.564484000000004	-16.197666	-26.257839	-8.578903	0.0	12016.0	True	0.0	None	0.0	None	0.0	None	0.0	None	0.0	None	0.0	None	0.0	None	0.0	None	8.4678e-07	12
2014-03-22 14:48:00	121.17702470008496	947449648.647	8.359567422501424e+21	2363038057933.7324	3.4696795200942634	1181419599109.1738	1.243905387946162e+21	-5.524765962984774e+23	3261.473891818943	-0.4390815178502386	27.684479746221623	10.82901554404145	37.37378242490651	157.56969254657704	152.8567181225513	82.53854008916052	0.001797761409375266	-2.297872503072937e+23	1.1723331608503949	0.0050895316998991426	1.2266416537220803e+23	0.18262372618776088	-0.09748751038200353	2.0607890733985137	196.281509	207.721008	-31.568174	-16.080488	-26.258881	-8.471558	0.0	12016.0	True	0.0	None	0.0	None	0.0	None	0.0	None	0.0	None	0.0	None	0.0	None	0.0	None	9.7979e-07	12
2014-03-22 15:00:00	116.6704917359127	931859002.7748	7.996963550349492e+21	2308394674508.4087	6.105908584099616	676132612334.9305	1.2198926159566935e+21	-5.499473837504444e+23	3129.734336717601	-0.44438394572475387	27.76946832639193	11.850311850311847	38.17790782135153	156.27980681536764	152.01041428353295	81.46355558830348	0.003173549160134936	-2.24625507937137e+23	0.6730381770840418	0.0090729273970956	1.1700642883313904e+23	0.18150821783494173	-0.0945468240351292	2.0368579756312934	196.281006	207.610962	-31.572344	-15.968301	-26.260408	-8.334673	0.0	12016.0	True	0.0	None	0.0	None	0.0	None	0.0	None	0.0	None	0.0	None	0.0	None	0.0	None	8.931e-07	12
2014-03-22 15:12:00	115.88293998188131	917860866.6086	7.971268186233915e+21	2280480544033.2056	3.258067401877128	654374697486.4331	1.2342249059904806e+21	-5.429521700188487e+23	3073.354094894881	-0.4454224905356363	26.986634559882717	10.240655401945725	37.38354751266519	152.19159446870432	148.2851555945645	79.4436032445883	0.0016682372769468142	-2.2285700447907885e+23	0.6417198140386213	0.004911548063984594	1.2073663036509096e+23	0.1828255368514997	-0.09904889153354413	1.7263864095406305	196.280472	207.50087	-31.573153	-15.854453	-26.258722	-8.230533	0.0	12016.0	True	0.0	None	0.0	None	0.0	None	0.0	None	0.0	None	0.0	None	0.0	None	0.0	None	7.722499999999998e-07	12
2014-03-22 15:24:00	112.45384764473611	900033285.0202	7.858940793514091e+21	2223207910450.704	0.5422097244519963	643499551946.2505	1.2132759594812766e+21	-5.269969890022281e+23	3020.7658749785023	-0.4408969033927383	27.411813707585807	11.026033690658501	37.827753477912715	148.96008295726475	144.3220726615255	78.33715237705616	-0.000276778828204184	-2.221955300500363e+23	0.629133756887696	-0.0008361916358898109	1.1688750043751827e+23	0.18589351209055	-0.09779057198370683	1.735972729676783	196.279968	207.390762	-31.576216	-15.732406	-26.238583	-8.095974	0.0	12016.0	True	0.0	None	0.0	None	0.0	None	0.0	None	0.0	None	0.0	None	0.0	None	0.0	None	7.4167e-07	12
2014-03-22 15:36:00	110.671569636238	888782562.9811002	8.06045755182849e+21	2130320691018.648	0.7953412257019967	677343528779.7748	1.196375319129696e+21	-5.1405703430170674e+23	3233.574281166323	-0.4355150827732105	26.98254865038309	10.868407032498665	36.887695029624254	150.68555606225917	146.52181224189962	78.55062660995807	0.00042373000836547507	-2.2184215916846787e+23	0.6911643327239236	0.0012467523755252616	1.1821077591040852e+23	0.18794725072498086	-0.10014954065406527	1.705308426391407	196.279373	207.280624	-31.552679	-15.619821	-26.234436	-7.988111	0.0	12016.0	True	0.0	None	0.0	None	0.0	None	0.0	None	0.0	None	0.0	None	0.0	None	0.0	None	6.8721e-07	12
2014-03-22 15:48:00	114.27614678537093	896050709.9461	7.924336146069266e+21	2178145718948.71	1.1206742892671275	715873421390.6991	1.1994243720826538e+21	-5.207604139096108e+23	3162.1200414570585	-0.4376155427153085	26.24370139076878	9.485956544780077	36.952616689425255	149.4539278554148	145.22335634993453	78.44790124516189	0.0005938920451866071	-2.2450312998656973e+23	0.7266209807424558	0.0017399391344022762	1.19017617413778e+23	0.1886588466522935	-0.10001520439350003	0.0	196.278778	207.170471	-31.552633	-15.504107	-26.210443	-7.849907000000001	0.0	12016.0	True	0.0	None	0.0	None	0.0	None	0.0	None	0.0	None	0.0	None	0.0	None	0.0	None	6.826e-07	12
2014-03-22 16:00:00	110.85236159777504	894841055.401	7.94830981189022e+21	2143071298002.4268	2.251192346370911	296534184330.90784	1.1839663166523027e+21	-5.155615794715694e+23	3310.2734128219245	-0.4338325657968757	25.96057982817595	9.457964601769909	37.044754748884735	158.3491857783362	152.3775159081116	84.44749803467201	0.0012451285101609019	-2.238813272446477e+23	0.3141424666581695	0.0035091203068411533	1.2211396041291006e+23	0.1883907073372436	-0.10275593619650683	0.0	196.278183	207.060287	-31.551105	-15.389870000000002	-26.210295	-7.713102	0.0	12016.0	True	0.0	None	0.0	None	0.0	None	0.0	None	0.0	None	0.0	None	0.0	None	0.0	None	6.7558e-07	12
2014-03-22 16:12:00	109.34738579401993	886145954.1462002	7.971920458588065e+21	2080263207608.5327	3.4391632928862905	389030529965.2478	1.1697831024990656e+21	-5.091909554998227e+23	3410.6540034277946	-0.4326759911721527	25.703858162361232	7.954545454545454	37.043037095829966	158.83823081341754	152.79704514511857	84.233201257335	0.0019540700527763016	-2.194289190012233e+23	0.4233770095352799	0.005417882105618814	1.259583689148488e+23	0.18645583546843134	-0.1070308919041254	0.0	196.277542	206.950089	-31.554354	-15.278172	-26.210487	-7.607953	0.0	12016.0	True	0.0	None	0.0	None	0.0	None	0.0	None	0.0	None	0.0	None	0.0	None	0.0	None	6.6578e-07	12
2014-03-22 16:24:00	111.75172478919858	887601443.5011002	7.970266595119654e+21	2152865741909.494	0.20550931810430928	702546492588.2622	1.1598900881147696e+21	-5.085566557671103e+23	3419.661409461601	-0.4314283923748772	26.374400420950856	9.059829059829061	38.10855461688489	157.97622108143753	151.695564463164	85.95013263787978	-0.000117099326555162	-2.248280910193425e+23	0.7667605520677899	-0.00032349970342010085	1.2813129991311518e+23	0.19073041473201505	-0.10869876562923866	0.0	196.276855	206.839859	-31.557745	-15.166071	-26.185841	-7.4740410000000015	0.0	12016.0	True	0.0	None	0.0	None	0.0	None	0.0	None	0.0	None	0.0	None	0.0	None	0.0	None	6.418999999999999e-07	12
2014-03-22 16:36:00	106.61899473470764	885924517.5050002	7.894957137379884e+21	2070698340134.5857	2.1885126172994966	564518073916.5835	1.1463747880712925e+21	-5.0072668576960416e+23	3450.261294377199	-0.4255900870916714	26.489570365434734	9.22809053975624	37.669537797127425	157.45343635413306	151.13754502931988	85.98501986199496	0.0012701756339521164	-2.215857721402392e+23	0.6275661422717469	0.00346567363828508	1.2510296529049986e+23	0.1883356943888375	-0.1063306258814181	0.0	196.276215	206.729614	-31.559519	-15.044039	-26.188028	-7.369914	0.0	12016.0	True	0.0	None	0.0	None	0.0	None	0.0	None	0.0	None	0.0	None	0.0	None	0.0	None	6.8333e-07	12
2014-03-22 16:48:00	108.71802553505337	909190346.5636	7.872787435512015e+21	2081031867730.7915	5.653012662979956	354743440015.6609	1.1583431683326883e+21	-5.2322751716870814e+23	3507.7559542148592	-0.4333345425636235	25.909993041218556	8.994082840236686	37.26950315990067	162.09585960355895	156.2563223214406	88.93429674108107	0.003344977907088731	-2.1984355886091284e+23	0.3448080789478261	0.00867576082521937	1.1596124627343508e+23	0.18207339042498305	-0.09603855294331587	0.0	196.275482	206.619339	-31.563627	-14.92909	-26.191002	-7.258471000000001	0.0	12016.0	True	0.0	None	0.0	None	0.0	None	0.0	None	0.0	None	0.0	None	0.0	None	0.0	None	6.873099999999999e-07	12
2014-03-22 17:00:00	106.8463509415649	907425866.7815	7.6864862517073e+21	1992503057463.032	4.144908105515119	713452980537.5287	1.1288521540524664e+21	-5.21730207391348e+23	3601.6329658191485	-0.43293460640096143	25.227259799963182	6.845052893590545	37.12909621068928	167.22129575620784	160.85889544347384	92.11388909140392	0.0025792832019384693	-2.2292016489331107e+23	0.8504028782295013	0.006375399086360651	1.154820494222044e+23	0.18498038350026247	-0.09582764215045056	0.0	196.27475	206.509048	-31.54155200000001	-14.81485	-26.194321	-7.13388	0.0	12016.0	True	0.0	None	0.0	None	0.0	None	0.0	None	0.0	None	0.0	None	0.0	None	0.0	None	9.1336e-07	12
2014-03-22 17:12:00	110.59891513162485	915431810.5877	7.641322833644393e+21	2028599856074.4248	8.224799611612672	476131859013.423	1.1282897201992208e+21	-5.297300714909384e+23	3521.306973537913	-0.43572855147585743	26.341149076563138	10.2203182374541	38.80977557220862	165.10278341216517	159.8489383583715	91.60512456808378	0.0050335370940102035	-2.15116604810228e+23	0.5581534627760085	0.012515753023140777	1.160240372740014e+23	0.1769437901619457	-0.09543537061336403	0.0	196.274048	206.398743	-31.542755	-14.687649	-26.196733	-7.029616000000001	0.0	12016.0	True	0.0	None	0.0	None	0.0	None	0.0	None	0.0	None	0.0	None	0.0	None	0.0	None	1.315e-06	12
2014-03-22 17:24:00	101.63231032284487	898553068.1541	7.558664129416941e+21	1866649000041.9065	4.171798766640121	498451149486.1109	1.1105945110024602e+21	-5.1668605489248806e+23	3618.2931243387457	-0.43298258663558137	26.456310381107826	9.726636999364274	38.113268149533894	163.51923162880675	158.94591778238814	89.91295778782595	0.0026521289044120285	-2.0783897514274047e+23	0.6069808784852867	0.00647990595168438	1.133731247619348e+23	0.1741689294860441	-0.09500660671903632	0.0	196.27327	206.288422	-31.540192	-14.559037	-26.168652	-6.884192999999999	0.0	12016.0	True	0.0	None	0.0	None	0.0	None	0.0	None	0.0	None	0.0	None	0.0	None	0.0	None	1.9145e-06	12
2014-03-22 17:36:00	102.84464422122493	876434244.8163	7.057674474334592e+21	1849338714621.319	5.689017237255603	620045130839.2712	1.0795195605815331e+21	-5.2356621331395954e+23	3564.277014729519	-0.4498210186845587	24.982566646850657	7.511737089201878	37.26192701740469	164.9430568112525	162.3911567775975	88.05096562017313	0.003815571587696582	-2.1316788581673072e+23	0.7965790486922575	0.008954338652225245	1.0508504135882704e+23	0.18314282532096104	-0.0902836339521228	0.0	196.272491	206.178085	-31.542032	-14.417359	-26.138981	-6.745985000000001	0.0	12016.0	True	0.0	None	0.0	None	0.0	None	0.0	None	0.0	None	0.0	None	0.0	None	0.0	None	1.5969e-06	12
2014-03-22 17:48:00	100.79276712857357	860146166.0134001	6.851480434445721e+21	1754690957195.5752	7.3106306468141975	567179744425.4807	1.0487982302715011e+21	-5.185523074813618e+23	3695.6126224148743	-0.4539497188733817	24.5470974044815	6.44699140401146	36.06163836233913	165.99021812024026	163.59545526712054	89.07405395602589	0.005236841437545986	-2.092204946059542e+23	0.778251366572043	0.011691310444532364	9.897278859700941e+22	0.18315526387342607	-0.08664250242747579	0.0	196.271729	206.067734	-31.544609	-14.28225	-26.141869	-6.613424	0.0	12016.0	True	0.0	None	0.0	None	0.0	None	0.0	None	0.0	None	0.0	None	0.0	None	0.0	None	1.3358000000000002e-06	12
2014-03-22 18:00:00	106.96892091658772	861428976.1349	6.524484602492114e+21	1854396930566.964	0.3701214756354769	660052042680.296	1.0549961310722216e+21	-5.394300426890557e+23	3542.070443768092	-0.4715232355017642	23.9528539495156	5.62364816149964	35.53207409057107	170.12260650500434	168.67836752869206	90.60936477752728	0.00026685037897294657	-2.031237141704855e+23	0.9115638333713906	0.0005839661591182088	9.7355562438138e+22	0.17755323829453828	-0.08509983901913702	0.0	196.270935	205.957382	-31.521046	-14.14276	-26.112925	-6.479167	66560.0	12016.0	False	0.0	None	0.0	None	0.0	None	0.0	None	0.0	None	0.0	None	0.0	None	0.0	None	1.115e-06	12
2014-03-22 18:12:00	107.6739902424747	869235734.8161001	6.534705709602838e+21	1913909088659.202	6.9443329954263255	172945671742.1804	1.0852470775720186e+21	-5.5126933044349e+23	3374.861921665756	-0.4775444018298676	24.39726970301125	6.2414266117969825	35.447144819792705	167.2837216602876	166.97699818447646	87.64833904522814	0.0047629170064652435	-2.011026755356731e+23	0.21900345259849144	0.010813901782417238	8.951189527777692e+22	0.17420787189051407	-0.0775408718143183	0.0	196.270096	205.847	-31.519981	-13.996893	-26.144152	-6.3763760000000005	66560.0	12016.0	False	0.0	None	0.0	None	0.0	None	0.0	None	0.0	None	0.0	None	0.0	None	0.0	None	8.4959e-07	12
2014-03-22 18:24:00	107.98966752309164	850458199.4268	6.670897833469013e+21	1954848950262.815	2.397421051447692	127776297288.70226	1.078644574706328e+21	-5.243608798307584e+23	3330.9674398736865	-0.464263723841943	25.474135446475138	7.493368700265251	36.233717675418795	158.60817654236843	158.61581694387584	85.0737638681586	0.0015898017582544376	-1.981908976346484e+23	-0.05333589747581684	0.0038503661832045358	8.403535981426722e+22	0.17547618006350332	-0.07440404229690348	0.0	196.269318	205.736618	-31.520157	-13.860432	-26.115484	-6.267713	0.0	12016.0	True	0.0	None	0.0	None	0.0	None	0.0	None	0.0	None	0.0	None	0.0	None	0.0	None	7.3365e-07	12
2014-03-22 18:36:00	111.87659105949342	869518674.3547	6.509873089312004e+21	2053529505539.801	0.26481916457587	117272807283.21945	1.1266727572511296e+21	-5.500912503796864e+23	3038.9642583758678	-0.4763687471796978	25.002083400432447	7.377557346559207	36.2411479309136	157.7027913764741	158.03079071032832	82.66562719995288	0.0001641780313551581	-1.971046327438514e+23	-0.10111415267658523	0.00041257760457818083	7.923017291069564e+22	0.17068893006150282	-0.06861184972901846	0.0	196.268524	205.626221	-31.523977	-13.750039	-26.118353	-6.139026	0.0	12016.0	True	0.0	None	0.0	None	0.0	None	0.0	None	0.0	None	0.0	None	0.0	None	0.0	None	6.927299999999999e-07	12
2014-03-22 18:48:00	114.82819830051564	873439664.3046	6.413477524483169e+21	2118538261360.0352	0.9707383305291506	129870808714.36722	1.1404985527747856e+21	-5.5818598120294766e+23	2948.2687224556294	-0.4812086222661212	24.869745169299225	6.288156288156288	35.33972649923928	156.46697208377782	156.56681014610675	81.61389030681941	-0.0005926363434243897	-1.9496286683462693e+23	0.08535514276955072	-0.0015006625088099257	7.81066352411349e+22	0.16807626078382898	-0.0673352387912506	1.551289996477484	196.267624	205.515823	-31.526741	-13.632398	-26.121376	-6.03683	0.0	12016.0	True	0.0	None	0.0	None	0.0	None	0.0	None	0.0	None	0.0	None	0.0	None	0.0	None	6.803399999999999e-07	12
2014-03-22 19:00:00	121.15414776471559	874682415.8826001	6.811334800661589e+21	2264526619368.516	1.6832324650591202	384345029477.9138	1.1552531714742608e+21	-5.392754190440116e+23	2995.8213813064262	-0.4642454731660027	25.49827682665752	7.710280373831775	36.374805117025616	154.17012214433862	152.67517966333008	82.74659182459126	0.0009831965333289253	-1.9972771939344157e+23	0.4300280880129613	0.0026285110600498605	7.288153353421653e+22	0.17193939556627105	-0.06274145052010037	0.0	196.266815	205.405411	-31.529346000000004	-13.503678	-26.122963	-5.932525	0.0	12016.0	True	0.0	None	0.0	None	0.0	None	0.0	None	0.0	None	0.0	None	0.0	None	0.0	None	7.6119e-07	12
2014-03-22 19:12:00	109.61603334578714	867430836.1524999	6.538457292194778e+21	2155344310373.6665	4.643517319972565	267098078597.2901	1.153367956369661e+21	-5.423233300897103e+23	2826.276193609069	-0.4707722884249728	25.22247126304422	7.290470723306543	36.48213472542479	152.91460576972386	151.36028049507738	81.9930388511145	0.0026656241790887283	-2.012880153229069e+23	0.293696476127725	0.007279419876461502	8.270614371208863e+22	0.17473122461910442	-0.0717943676435678	0.0	196.265991	205.294998	-31.532097	-13.37124	-26.094677	-5.8001510000000005	0.0	12016.0	True	0.0	None	0.0	None	0.0	None	0.0	None	0.0	None	0.0	None	0.0	None	0.0	None	1.0179e-06	12
2014-03-22 19:24:00	107.18747097678816	858678951.4385	6.410888783124669e+21	2079146627793.416	0.3890830494306936	427299731811.5292	1.1476703247922003e+21	-5.345835941430847e+23	2766.370102671932	-0.4687834599992873	25.184886573170274	6.876790830945557	36.60242319473107	153.30212796779395	152.57027190186494	81.07742879769333	-0.00022297022890011093	-2.004538778697053e+23	0.4690395434584594	-0.000616997942906055	8.134915457983023e+22	0.1757806701656533	-0.07133615503685392	0.0	196.265137	205.184586	-31.534563	-13.212756	-26.096144	-5.694515	0.0	12016.0	True	0.0	None	0.0	None	0.0	None	0.0	None	0.0	None	0.0	None	0.0	None	0.0	None	9.2978e-07	12
2014-03-22 19:36:00	108.46690992068346	852611242.7163001	6.434082670940316e+21	2085899367674.6768	0.08663656181023338	317761033979.2411	1.1506847796805507e+21	-5.307254309507857e+23	2768.4457096984443	-0.4687122093022572	24.48566061742629	6.057142857142857	36.621852886192066	156.25173167782685	155.6466192832718	82.52765202510864	4.950660674870479e-05	-2.0454747297807622e+23	0.3478005726427991	0.00013837047900434166	7.3777451259617085e+22	0.18064688891013075	-0.06515684035459639	0.0	196.264267	205.074173	-31.536594	-13.076728999999998	-26.097744	-5.564043	0.0	12016.0	True	0.0	None	0.0	None	0.0	None	0.0	None	0.0	None	0.0	None	0.0	None	0.0	None	1.0985e-06	12
2014-03-22 19:48:00	108.07122970164541	851072472.145	6.429916010191964e+21	2129280039181.2168	2.3849026289843405	552476311711.4438	1.1577269693046152e+21	-5.261834486002246e+23	2682.350762032557	-0.4655411918482267	24.986267235408203	7.03601108033241	36.653947734867344	152.25693401473396	151.00248157665118	80.4486044206263	0.0013212756947281665	-2.107883790591844e+23	0.5862718456541489	0.0038241601786692773	7.904666937688947e+22	0.18649517288318326	-0.06993659867341967	0.0	196.263458	204.96376	-31.539240000000003	-12.961996	-26.099937	-5.42885	0.0	12016.0	True	0.0	None	0.0	None	0.0	None	0.0	None	0.0	None	0.0	None	0.0	None	0.0	None	1.1838e-06	12
2014-03-22 20:00:00	105.05231651869093	842374289.2263	6.704686377870853e+21	2065722058537.7944	5.796256487928374	210650863948.14008	1.1431479761245616e+21	-5.095884877052676e+23	2852.2836178640578	-0.4555142956916829	25.46122559864295	8.135593220338983	36.717132383810785	154.734595778471	151.83701761525663	81.57785490196443	0.00327472117962055	-2.1457146183651267e+23	0.2279537716848036	0.00945487980876926	8.920143242490046e+22	0.19180254395881152	-0.07973596077236843	0.0	196.262604	204.853348	-31.54258	-12.83047	-26.102894	-5.318349	0.0	12016.0	True	0.0	None	0.0	None	0.0	None	0.0	None	0.0	None	0.0	None	0.0	None	0.0	None	1.1644e-06	12
2014-03-22 20:12:00	106.2746407406788	830988212.3717	6.476574963694421e+21	2075580118780.2744	6.001347675230639	479357218370.0874	1.1348484502215923e+21	-5.02493937258146e+23	2749.0284480900514	-0.4553270125466653	25.001367792658105	7.046223224351747	36.53096592632645	155.15184601708367	151.72186720426495	82.01052527572534	0.0033829468293295594	-2.185024236911674e+23	0.517554353215594	0.009924835776041292	8.138559450218322e+22	0.19799254963427348	-0.07374628201728149	0.0	196.261734	204.742935	-31.544516	-12.712214	-26.104385	-5.183611	0.0	12016.0	True	0.0	None	0.0	None	0.0	None	0.0	None	0.0	None	0.0	None	0.0	None	0.0	None	1.3553e-06	12
2014-03-22 20:24:00	104.5017870658245	805699138.7916	6.575736810584224e+21	2027121678475.364	2.516638880642037	407946128748.4171	1.0987690808398672e+21	-4.790845235455795e+23	2928.115666734444	-0.4477407840604744	25.321214730904842	6.7415730337078665	36.56058169538944	159.69432323122808	155.16240138167862	83.138535216766	0.0014882548081857113	-2.2673643349604788e+23	0.4620643038470382	0.004315063480333964	8.127720203871823e+22	0.21190237529962225	-0.07595970309734935	0.0	196.260925	204.632523	-31.545767	-12.589405	-26.105751	-5.079479	0.0	12016.0	True	0.0	None	0.0	None	0.0	None	0.0	None	0.0	None	0.0	None	0.0	None	0.0	None	1.0659e-06	12
2014-03-22 20:36:00	104.18563146563123	814619104.9418	6.233938320588734e+21	1933031341584.9607	2.2493058146177085	259381072215.4587	1.0981237214731933e+21	-4.9962801458925136e+23	2824.3525664685358	-0.4618273172825703	24.7422882117312	6.31768953068592	36.58370227841772	158.01338516058448	156.2388078819981	81.72163584764272	0.0013533729329829776	-2.184728795902129e+23	0.29891163610127824	0.0037777032264244303	8.173575932955762e+22	0.2019437280015096	-0.07555182126497895	0.0	196.260056	204.52211	-31.549372	-12.464293	-26.108313	-4.976382	0.0	12016.0	True	0.0	None	0.0	None	0.0	None	0.0	None	0.0	None	0.0	None	0.0	None	0.0	None	9.168000000000001e-07	12
2014-03-22 20:48:00	96.51258961173531	799705941.5348	6.389394358267399e+21	1849956680649.4587	3.973377588926037	146370042047.12146	1.0712747183186912e+21	-4.6933490208425184e+23	2982.722201848458	-0.4419162884404071	24.84597702518413	5.021698698078116	36.84512799479918	158.465703567721	155.83175974976515	84.02990470206407	0.0024633463043558807	-2.142713376281011e+23	0.17379816576619733	0.006891590490509546	8.27701593185207e+22	0.20175357473579428	-0.07793471450179024	0.0	196.259232	204.411728	-31.552679	-12.344539	-26.108103	-4.84286	0.0	12016.0	True	0.0	None	0.0	None	0.0	None	0.0	None	0.0	None	0.0	None	0.0	None	0.0	None	8.127800000000002e-07	12
2014-03-22 21:00:00	100.17492625201076	805598024.7637	6.53184362200649e+21	1866834981402.671	0.9575151198421772	202075483151.1054	1.0592965200702416e+21	-4.676518244228448e+23	3073.995606930554	-0.4371109505634517	25.713452312806353	6.937500000000001	37.94627485483118	162.12372557954518	158.33549679521363	85.68023607979231	0.0005984469499013608	-2.183640655103461e+23	0.2418867842832481	0.0016541197412887744	8.026492157423155e+22	0.20410339329249186	-0.07502307129778273	0.0	196.258423	204.301331	-31.552086	-12.224729	-26.109283	-4.74109	0.0	12016.0	True	0.0	None	0.0	None	0.0	None	0.0	None	0.0	None	0.0	None	0.0	None	0.0	None	1.3657e-06	12
2014-03-22 21:12:00	106.47481121421532	797784404.5660001	6.377329213740417e+21	1960280706292.7776	1.1894424815041431	183004573454.9297	1.0693532755709027e+21	-4.810645809637147e+23	3060.5773765034114	-0.4540517047518101	24.85942707521561	4.652644996813256	35.88015170081341	164.76712759817798	161.95108590508238	86.42259313537468	-0.0007580895356941638	-2.236576684980523e+23	0.20431780409913367	-0.0020507279422180644	7.931729933357783e+22	0.21109877900159865	-0.07486345161095337	0.0	196.257614	204.190964	-31.554489	-12.100743	-26.111229	-4.61222	0.0	12016.0	True	0.0	None	0.0	None	0.0	None	0.0	None	0.0	None	0.0	None	0.0	None	0.0	None	1.5803e-06	12
2014-03-22 21:24:00	101.83213209765127	795245059.3979001	6.456898684758589e+21	1874226236850.004	1.5771988566353727	267091233398.6021	1.0528620052556355e+21	-4.681559619034674e+23	3183.9948525183318	-0.4432788401907182	24.937984754812003	5.435494433529795	35.900802497780965	166.34437484167356	162.55841740131794	89.9335103581366	0.0010328741693748347	-2.233074319521166e+23	0.33498069135227043	0.0027483068800579448	7.43673479299041e+22	0.21144120228487648	-0.07041557604947236	0.0	196.25679	204.080597	-31.527697	-11.98035	-26.087303	-4.440713	0.0	12016.0	True	0.0	None	0.0	None	0.0	None	0.0	None	0.0	None	0.0	None	0.0	None	0.0	None	1.3741e-06	12
2014-03-22 21:36:00	98.13724811905563	778553709.3202	6.459611071701871e+21	1843236316406.864	2.380293722714036	139509692583.99426	1.0127925385782829e+21	-4.443274468579848e+23	3315.6120038750128	-0.4297362699381841	24.867068149806496	4.567143830947511	36.27195619628487	169.02772104615568	165.79829280615863	91.03083542071398	0.0016225587748561927	-2.2447213487437024e+23	-0.18212226533580173	0.00427677137032025	5.6790318187743025e+22	0.217100740969541	-0.05492539270121555	0.0	196.256042	203.970245	-31.527124	-11.859899	-26.056959	-4.303643	0.0	12016.0	True	0.0	None	0.0	None	0.0	None	0.0	None	0.0	None	0.0	None	0.0	None	0.0	None	1.0873e-06	12
2014-03-22 21:48:00	94.87112595000264	777789348.756	6.257375252729591e+21	1732563768736.3845	7.890693964613487	639988926105.087	1.0018197449477489e+21	-4.482868196989171e+23	3327.486497864573	-0.4339916098826572	24.392459703831356	5.437853107344632	36.06985409929868	170.59880756762698	168.53736866958945	92.80016753771805	0.0055725239863089575	-2.153011025647816e+23	0.14794409652881704	0.014149353395519784	5.0577901453543475e+22	0.20843546587953887	-0.048965046286777406	0.0	196.255264	203.859909	-31.530106	-11.733828	-26.058907	-4.168229	0.0	12016.0	True	0.0	None	0.0	None	0.0	None	0.0	None	0.0	None	0.0	None	0.0	None	0.0	None	9.236700000000001e-07	12
2014-03-22 22:00:00	93.42394055671446	758813490.4016	5.900539758956834e+21	1639935695885.4858	2.2418528383447747	143446891879.07782	9.607914398076364e+20	-4.561556124368067e+23	3407.2307586169627	-0.4526529732554103	24.49958546588187	5.44478527607362	35.381919848543525	173.21240508107482	171.48239440468063	93.97813674616962	0.0017192122993441527	-2.056921686575398e+23	-0.13170749577959204	0.004067618144077262	5.386017707812199e+22	0.20411273955570866	-0.05344660600411287	0.0	196.254486	203.749588	-31.53219600000001	-11.61967	-26.030247	-4.034529	0.0	12016.0	True	0.0	None	0.0	None	0.0	None	0.0	None	0.0	None	0.0	None	0.0	None	0.0	None	8.531200000000002e-07	12
2014-03-22 22:12:00	93.33463658939158	745073929.2069001	5.660505906061285e+21	1627842329876.1355	0.5244337501669198	52802250490.78302	9.429047030828954e+20	-4.49029434042412e+23	3335.1224086260845	-0.4537982608453464	23.41724114428893	3.5211267605633805	35.31637957665744	175.98981450532037	173.97329266856048	95.52762208544821	-0.00041035504707896697	-2.0613137483842223e+23	-0.07911815904606402	-0.0009683160189638527	4.529685039116524e+22	0.20832055165118848	-0.045777916481397306	0.0	196.253784	203.639282	-31.53440100000001	-11.489824	-26.031456	-3.931899	0.0	12016.0	True	0.0	None	0.0	None	0.0	None	0.0	None	0.0	None	0.0	None	0.0	None	0.0	None	7.4877e-07	12
2014-03-22 22:24:00	96.798365210403	745854228.9768	5.656015215421023e+21	1730754378927.7605	6.2442428063548885	398717278889.9221	9.605866414722765e+20	-4.627748818168898e+23	3233.792819688927	-0.4672004154812388	23.468751156784467	4.6317388003037205	34.59958780953641	169.42804405128598	168.55148066851314	90.50750252297104	0.004741262571264153	-2.0542173697224268e+23	0.4515819784550866	0.011412121323240505	3.833438937076053e+22	0.20738619279748213	-0.038700982583418274	0.0	196.253036	203.528992	-31.536028	-11.377339	-26.032549	-3.82774	0.0	12016.0	True	0.0	None	0.0	None	0.0	None	0.0	None	0.0	None	0.0	None	0.0	None	0.0	None	6.732e-07	12
2014-03-22 22:36:00	94.38093826060957	728086657.6085999	5.188008653224969e+21	1677688787363.0156	5.212235629454461	227177429328.4337	9.416169056551392e+20	-4.628314586106181e+23	3042.4477939412486	-0.4786601410341289	23.071005046611013	4.205607476635514	34.518236569565325	171.41774931888858	171.9534297811982	89.38061555936022	0.004059373543188832	-1.9901482182088666e+23	0.3387895305774765	0.009682836477481749	3.829445056276984e+22	0.2058210627398399	-0.0396041080747301	0.0	196.252335	203.418732	-31.538443	-11.258896	-26.034979	-3.694991	0.0	12016.0	True	0.0	None	0.0	None	0.0	None	0.0	None	0.0	None	0.0	None	0.0	None	0.0	None	6.3855e-07	12
2014-03-22 22:48:00	94.10463639977718	730140287.9183	5.034900084121701e+21	1646260907943.319	7.150550572504328	336220900030.8967	9.469512556681016e+20	-4.717707189572813e+23	2920.812072089793	-0.4865327961475942	22.750012766325806	3.852080123266564	34.28048676697417	168.1817486526568	168.8784638470839	88.17215506531478	0.0055088987461512536	-1.9549220204505477e+23	0.049637756874320885	0.01317615424931548	3.5070147302391863e+22	0.2016093069452312	-0.03616751981991013	0.0	196.251694	203.308487	-31.513508	-11.141138	-26.03853	-3.592774	0.0	12016.0	True	0.0	None	0.0	None	0.0	None	0.0	None	0.0	None	0.0	None	0.0	None	0.0	None	7.122700000000002e-07	12
2014-03-22 23:00:00	93.6201596364126	718476193.6025	5.164927219413325e+21	1687247262302.8594	5.507749897513428	319596424789.12384	9.475694128844717e+20	-4.541778762063492e+23	2913.200831010346	-0.4759935604673737	23.341908893246284	5.0187265917602994	34.79783266724981	167.22750781754885	167.76090051948225	87.73408125731055	0.004125655353942642	-1.902546538107817e+23	0.1551384124781756	0.010387412093249377	2.9342416188919647e+22	0.1993932219228948	-0.03075183069492745	0.0	196.251007	203.198257	-31.511606	-11.024519	-26.038836	-3.461531	0.0	12016.0	True	0.0	None	0.0	None	0.0	None	0.0	None	0.0	None	0.0	None	0.0	None	0.0	None	6.5601e-07	12
2014-03-22 23:12:00	93.45553779812596	706006798.3772	5.260306519029071e+21	1766274804866.4016	6.090715820380219	599209455755.2605	9.483969989125906e+20	-4.468450925824479e+23	2857.822132955673	-0.4765796390689062	24.539787329444245	5.266955266955266	34.93931328968762	161.25175076140582	162.5658316552594	83.0620963833885	0.004394455858860188	-1.925227369101528e+23	0.014601019722490281	0.011685103778420018	2.551720193098029e+22	0.2053338349067116	-0.027215200722096204	0.0	196.250336	203.088043	-31.51417	-10.897438	-26.040838	-3.3575480000000004	0.0	12016.0	True	0.0	None	0.0	None	0.0	None	0.0	None	0.0	None	0.0	None	0.0	None	0.0	None	6.712999999999999e-07	12
2014-03-22 23:24:00	98.22889534168623	702233262.0242999	5.148409925478732e+21	1817916832984.3804	1.5630730201524246	224883439610.9481	9.561622366128985e+20	-4.511956507181494e+23	2769.060499748068	-0.4838055760764343	23.90575605759876	6.142857142857142	34.42393578210279	163.7929946977867	164.66026600912838	82.87397236807594	-0.0011164807286803034	-1.973038845663098e+23	-0.3075427035664365	-0.00300020456351915	1.484296885270797e+22	0.21156391774341649	-0.015915736521482586	0.0	196.249756	202.977859	-31.515665	-10.778525	-26.042349	-3.255444	0.0	12016.0	True	0.0	None	0.0	None	0.0	None	0.0	None	0.0	None	0.0	None	0.0	None	0.0	None	6.261600000000001e-07	12
2014-03-22 23:36:00	95.8764066159054	704226441.4298	5.11148150427003e+21	1830818775789.4224	5.025590171334935	307303738296.00903	9.724152983755772e+20	-4.611662772390784e+23	2643.460545532284	-0.4930973048154362	24.66351172335285	6.3186813186813175	34.507240765834396	160.7964295576196	161.99665694207442	80.75069476144986	0.003451641601191576	-2.031157374384024e+23	-0.20349676415491025	0.009559091670171868	1.4450636646543396e+22	0.21717941584126954	-0.015451194796673468	0.0	196.249191	202.867691	-31.51491	-10.660818	-26.042587	-3.153317	0.0	12016.0	True	0.0	None	0.0	None	0.0	None	0.0	None	0.0	None	0.0	None	0.0	None	0.0	None	6.2504e-07	12
2014-03-22 23:48:00	96.6178782040836	693630368.75	4.964551531263656e+21	1805645062867.8389	5.090008055439701	370025570766.2071	9.605509069759699e+20	-4.598993642432938e+23	2615.9849373817306	-0.4992546916529454	24.40423573290745	6.578026592022392	34.16926209108564	157.63001815070862	158.6851916199673	80.39229716510869	0.003561937057690484	-1.997327037998764e+23	0.1977482982778167	0.009789149237190715	9.916097768023738e+21	0.2168245864237905	-0.010764655745329924	0.0	196.248596	202.757553	-31.487015000000003	-10.5425	-26.044899	-3.049387	0.0	12016.0	True	0.0	None	0.0	None	0.0	None	0.0	None	0.0	None	0.0	None	0.0	None	0.0	None	6.2218e-07	12
2014-03-23 00:00:00	85.88248435230128	675025746.3649001	4.808437606268536e+21	1629737553036.1404	8.569418244207062	622945203762.9429	9.299643760709466e+20	-4.477297059157619e+23	2586.207509496731	-0.4994396196530472	25.26125366324057	8.571428571428571	35.031766666091144	154.26420033193062	155.51127324648468	77.38201768611641	0.006121013031576473	-1.9754728145724806e+23	-0.12634310674984556	0.0169329262065581	5.380895723315015e+21	0.2203627273573497	-0.006002354719681671	0.0	196.248047	202.647446	-31.488775	-10.424814	-26.046642	-2.914957	0.0	12016.0	True	0.0	None	0.0	None	0.0	None	0.0	None	0.0	None	0.0	None	0.0	None	0.0	None	6.0589e-07	12
2014-03-23 00:12:00	95.573375948804	688475574.7887001	4.980873295674599e+21	1860207585888.186	11.554201133380824	879933010295.9141	9.806905364058904e+20	-4.623496315525185e+23	2505.3659081012984	-0.5056726305486561	24.64361512557928	6.947227788911157	33.6353145802656	153.18757203631404	155.30394824834525	74.29335837516926	0.0077182372300473095	-2.025684554412912e+23	0.32952976023120106	0.022292091946755747	9.601463529035142e+21	0.22154948709533145	-0.010501138074969309	0.0	196.247574	202.537369	-31.491892	-10.299935	-26.049286	-2.814545	0.0	12016.0	True	0.0	None	0.0	None	0.0	None	0.0	None	0.0	None	0.0	None	0.0	None	0.0	None	6.126800000000001e-07	12
