Timestamp	TOTUSJH	TOTBSQ	TOTPOT	TOTUSJZ	ABSNJZH	SAVNCPP	USFLUX	TOTFZ	MEANPOT	EPSZ	MEANSHR	SHRGT45	MEANGAM	MEANGBT	MEANGBZ	MEANGBH	MEANJZH	TOTFY	MEANJZD	MEANALP	TOTFX	EPSY	EPSX	R_VALUE	CRVAL1	CRLN_OBS	LAT_MIN	LON_MIN	LAT_MAX	LON_MAX	QUALITY	NOAA_AR	IS_TMFI	BFLARE	BFLARE_label	CFLARE	CFLARE_label	MFLARE	MFLARE_label	XFLARE	XFLARE_label	BFLARE_loc	BFLARE_label_loc	CFLARE_loc	CFLARE_label_loc	MFLARE_loc	MFLARE_label_loc	XFLARE_loc	XFLARE_label_loc	XR_MAX	XR_QUAL
2014-02-11 06:00:00	6.873558334269522	49848948.06640001	2.9285737191164464e+20	150771317047.5099	1.9973149553724283	140351308682.39862	9.403369873903383e+19	-3.793736540166837e+22	1500.1209894975607	-0.5730580679325257	19.006488237230858	0.0	30.52051770005935	144.475765547367	143.24424245057492	66.02452419933141	0.013587176567159373	-1.6686413722309701e+22	1.8625382009432645	0.05094197718477117	-1.5990706024078872e+22	0.25205450898308984	0.2415455844657217	0.0	15.612434	6.342335	-23.861589	7.503539999999999	-22.37569	11.259959	66560.0		False	0.0	None	0.0	None	0.0	None	0.0	None	0.0	None	0.0	None	0.0	None	0.0	None	1.2753e-06	12
2014-02-11 06:12:00	7.520182075289274	55918759.9956	3.0892740669597463e+20	172737857417.06625	2.360475981558757	170347476195.62604	1.057968128100828e+20	-4.171343137340364e+22	1336.886992520312	-0.5617018983731308	19.249632175285715	2.2988505747126435	31.23660950660459	155.49413234916537	153.6087781265011	69.71053168236561	0.013565953917004351	-1.8624291039531195e+22	1.9097939510474609	0.05405973480057859	-1.682060473521504e+22	0.2507897166050083	0.22650175975641465	0.0	15.613955	6.2332550000000015	-23.886612	7.6011039999999985	-22.373192	11.361047	66560.0		False	0.0	None	0.0	None	0.0	None	0.0	None	0.0	None	0.0	None	0.0	None	0.0	None	1.3723e-06	12
2014-02-11 06:24:00	6.135296624881139	52558050.151	2.2796970343217e+20	130302758456.62115	0.2387404066539706	16817461156.570047	9.400974275594502e+19	-3.978442224595768e+22	1183.8497446184087	-0.5699821607447897	16.146023541348633	0.0	31.36012788847703	171.6978369353756	170.86194263039408	76.35851975596826	0.0016464855631308315	-1.5898747115130382e+22	0.2262491631279229	0.005786580008383522	-1.4224962281237098e+22	0.2277776507044225	0.20379772483428407	0.0	15.615476999999998	6.124177	-23.884911	7.69912	-22.370007	11.48747	0.0		True	0.0	None	0.0	None	0.0	None	0.0	None	0.0	None	0.0	None	0.0	None	0.0	None	1.3444e-06	12
2014-02-11 06:36:00	6.715163383073101	51215376.1699	2.685530409141582e+20	147474891986.54526	0.6368036122678127	23437354537.506184	9.144745654355616e+19	-3.830012502847279e+22	1424.0631019859215	-0.5631023355374548	18.23637027062824	0.0	31.407339530712875	176.9406851981147	173.12000421986602	76.97131280648172	0.0044845324807592435	-1.7185202033838394e+22	0.3219659884916854	0.015909177782725718	-1.45339626554918e+22	0.2526630760276473	0.21368359267332449	0.0	15.616999	6.015099	-23.883671	7.797092	-22.367834	11.589024	0.0		True	0.0	None	0.0	None	0.0	None	0.0	None	0.0	None	0.0	None	0.0	None	0.0	None	1.3318000000000001e-06	12
2014-02-11 06:48:00	8.093122742638071	57938867.47150001	3.2334068766378086e+20	181794661526.4144	2.1786836235935034	136421460145.63902	1.099972349009076e+20	-4.536737040227633e+22	1352.6187216791968	-0.5896049855945793	19.82157555925057	0.5555555555555556	31.30688476879849	153.28740379126504	153.38002338155002	65.80315629063534	0.012103797908852795	-1.6761791554495575e+22	1.4784128890325223	0.04731130708528567	-1.775170320988131e+22	0.2178401741250542	0.2307052981588758	0.0	15.618618	5.906018	-23.881758	7.89612	-22.364975	11.716405	0.0		True	0.0	None	0.0	None	0.0	None	0.0	None	0.0	None	0.0	None	0.0	None	0.0	None	1.4466e-06	12
2014-02-11 07:00:00	8.106893572383061	53785584.7183	3.5013075930017504e+20	184410906113.19586	2.5914941384477186	176013394437.19836	1.062247889797098e+20	-4.144912564059875e+22	1464.6882943387195	-0.5802791010112583	22.035705318184515	7.222222222222222	31.23851960741896	147.79347582841206	146.06706207874984	61.87969130755857	0.014397189658042882	-1.6996045625645903e+22	1.9074583195410648	0.060979033347526586	-1.6986151098008042e+22	0.2379410885988877	0.2378025672787417	0.0	15.620132	5.796933	-23.880009	7.994497	-22.362272	11.818399	0.0		True	0.0	None	0.0	None	0.0	None	0.0	None	0.0	None	0.0	None	0.0	None	0.0	None	1.2956e-06	12
2014-02-11 07:12:00	8.293683731922112	54858437.9014	3.32922708931917e+20	185421699573.8173	1.9298231843746123	189019827803.04465	1.0944814087317085e+20	-4.551497977769832e+22	1449.0546229605588	-0.6247386249641164	18.671495569859548	1.7341040462427744	27.968664595892488	151.3759782268181	152.575699299834	59.5236770961973	0.01115504730852377	-1.608594174866297e+22	2.1312780095801345	0.04330325807691777	-1.6029153574547622e+22	0.22079564087242973	0.22001616637888224	0.0	15.621641	5.6878410000000015	-23.879292	8.092274	-22.361179	11.919909	0.0		True	0.0	None	0.0	None	0.0	None	0.0	None	0.0	None	0.0	None	0.0	None	0.0	None	1.3399e-06	12
2014-02-11 07:24:00	9.795441103664306	57969256.93270001	3.4807596963556635e+20	234939581172.02026	2.324720554349024	160204902107.9202	1.2011237123611315e+20	-4.724221618122424e+22	1297.508402493833	-0.6136490071866639	18.89340133135897	1.4851485148514851	29.35399014484669	143.67669030854026	145.23939798445682	57.68701975083065	0.011508517595787244	-1.594916420217921e+22	1.5470380102309134	0.04970429779009864	-1.7121609479472389e+22	0.2071703990469046	0.22239978366408086	0.0	15.623142	5.578743	-23.877085	8.189636	-22.358	12.048323	0.0		True	0.0	None	0.0	None	0.0	None	0.0	None	0.0	None	0.0	None	0.0	None	0.0	None	1.6254e-06	12
2014-02-11 07:36:00	11.670150417575536	59912245.84900001	3.7118802525853857e+20	269093486012.3576	2.413975499328916	166608300458.36816	1.2528476407023524e+20	-5.00934447872318e+22	1337.3194334734214	-0.6295826957925593	18.810484862584712	0.9569377990430622	28.721424894979364	145.53933791420238	146.15420093735216	59.450048428255975	0.011550122006358444	-1.4982773237932708e+22	1.5549812471646969	0.04945051848886548	-1.6969670664951425e+22	0.188305971083678	0.2132776264305785	0.0	15.624685	5.469635	-23.87492	8.287664	-22.354845	12.150102	0.0		True	0.0	None	0.0	None	0.0	None	0.0	None	0.0	None	0.0	None	0.0	None	0.0	None	1.7494e-06	12
2014-02-11 07:48:00	11.93147664200418	58628821.63060001	4.350411309804925e+20	261867873930.8535	3.888478332074541	329445961996.8646	1.22299813328992e+20	-5.008751615959297e+22	1637.901588664511	-0.6432885340392952	21.04643906135589	3.0	27.31432671932625	150.88875628646366	152.59421717708108	56.322560743572424	0.019442391660372697	-1.3429218242409074e+22	3.213127135403724	0.08072065707742046	-1.8540953857683024e+22	0.17247535471567885	0.2381268615675761	0.0	15.626216	5.3605160000000005	-23.872564	8.385859	-22.350874	12.252088	0.0		True	0.0	None	0.0	None	0.0	None	0.0	None	0.0	None	0.0	None	0.0	None	0.0	None	1.4541999999999996e-06	12
2014-02-11 08:00:00	8.824064464678045	52524098.4778	3.101934494481542e+20	196755570634.3936	1.3473115724017777	131881958044.0166	1.038614568671813e+20	-4.391478099448728e+22	1424.217343968983	-0.6295636003038931	19.448983641997007	1.8292682926829267	28.92748851198521	151.39659781261443	154.73321760773442	55.332419151863355	0.008215314465864498	-1.1272137225868793e+22	1.5686094211498245	0.031482420371787466	-1.8034240048219308e+22	0.1615976929482658	0.2585393991814933	0.0	15.627684	5.251384	-23.869873	8.482662	-22.347891	12.377048	0.0		True	0.0	None	0.0	None	0.0	None	0.0	None	0.0	None	0.0	None	0.0	None	0.0	None	1.2612e-06	12
2014-02-11 08:12:00	8.193628802512977	48552343.6349	2.916548776954832e+20	181039952661.8949	0.20836713864739287	34538846553.38655	9.573599553940226e+19	-3.939610501805985e+22	1473.9082628738513	-0.6109850251961189	19.46204599221764	1.342281879194631	28.8989477609982	153.92984787369113	160.0070687462501	55.57992792508868	0.0013984371721301545	-9.893580585810296e+21	0.4521629834226675	0.005327917873527829	-1.6608842457976035e+22	0.15343723905523354	0.2575826727797825	0.0	15.629137	5.1422370000000015	-23.868174	8.580683	-22.3458	12.478964	0.0		True	0.0	None	0.0	None	0.0	None	0.0	None	0.0	None	0.0	None	0.0	None	0.0	None	1.081e-06	12
2014-02-11 08:24:00	10.132099263139906	51663316.6113	3.23114087406191e+20	215334802833.33496	2.529114872005932	153831532233.6423	1.0003062228493808e+20	-4.194922068552452e+22	1549.6858656249062	-0.6114050834667305	19.967621669111725	0.0	29.73640204195495	155.81183365959947	160.66261291563654	59.83937091099499	0.01610901192360466	-9.847033917961142e+21	1.9112606639676604	0.06075912888804956	-1.7331719754030808e+22	0.14351939073300285	0.2526078289337996	0.0	15.630575	5.033075	-23.889063	8.679471000000001	-22.342531	12.581662	0.0		True	0.0	None	0.0	None	0.0	None	0.0	None	0.0	None	0.0	None	0.0	None	0.0	None	1.1438e-06	12
2014-02-11 08:36:00	7.937954338513932	44520890.70650001	2.966184529934108e+20	174327929061.30344	0.8168519199100123	69634827290.40677	8.712482594587276e+19	-3.4524382393839758e+22	1595.3559613491973	-0.5839148811302768	21.021100368171943	2.8571428571428568	30.16948425877636	137.7133485848372	141.12075088934532	54.559648145005895	0.005834656570785802	-1.0457115518558517e+22	0.9702287684562904	0.02316741862554161	-1.63070165793484e+22	0.17686240684421872	0.2758024615443573	0.0	15.632046	4.923895	-23.889303	8.780916	-22.338547	12.709103	0.0		True	0.0	None	0.0	None	0.0	None	0.0	None	0.0	None	0.0	None	0.0	None	0.0	None	1.5952000000000004e-06	12
2014-02-11 08:48:00	6.102876582432426	39032449.2019	2.263810657752427e+20	129418545879.08812	0.5837869374602889	47890788231.973	7.875106498071339e+19	-2.9864339811234388e+22	1352.8730543268007	-0.5761221956731675	18.918497998851567	0.7936507936507936	29.29158878716724	134.61177387493248	139.05327358028276	51.633851868758	0.004633229662383246	-8.171770253745083e+21	0.7414112862771824	0.018978797005349886	-1.3767093343304183e+22	0.15764414183879796	0.26558524632103764	0.0	15.633497	4.814697	-23.887188	8.908645	-22.336088	12.810176	0.0		True	0.0	None	0.0	None	0.0	None	0.0	None	0.0	None	0.0	None	0.0	None	0.0	None	1.9487e-06	12
2014-02-11 09:00:00	7.360927007723192	43914857.63600001	2.477626155746816e+20	165172800506.0594	0.2953262560838079	13342126842.965929	8.785333019833536e+19	-3.327134929716592e+22	1269.1295318005655	-0.5704879061127239	19.560122961914857	1.3605442176870748	30.801351385428394	137.98580693464572	141.93315617940158	54.59599788850052	0.0020090221502299856	-8.99186414152539e+21	0.17704683027549276	0.008564183811286792	-1.5868133574981993e+22	0.15417919184257012	0.2720832935344643	0.0	15.634878	4.705478	-23.885334	9.007031	-22.334648	12.909607	0.0		True	0.0	None	0.0	None	0.0	None	0.0	None	0.0	None	0.0	None	0.0	None	0.0	None	2.0225e-06	12
2014-02-11 09:12:00	7.519746627240307	48377499.6332	3.11905834906053e+20	155367643513.53687	1.0880434721544368	12323337669.081629	9.454382615669336e+19	-3.750540193764925e+22	1535.0396419234662	-0.5837648383261836	20.543725399170405	1.30718954248366	29.48889044226671	143.74896839370658	145.22832881584262	60.51336408526348	0.007111395242839456	-1.090047220730634e+22	0.15711607289820634	0.02840155563265078	-1.581817602562569e+22	0.1696638901872299	0.2462070659998709	0.0	15.636237	4.596237	-23.882643	9.107163	-22.330362	13.035517	0.0		True	0.0	None	0.0	None	0.0	None	0.0	None	0.0	None	0.0	None	0.0	None	0.0	None	1.8790000000000001e-06	12
2014-02-11 09:24:00	8.530017238113759	52580645.93090001	3.301668327929873e+20	197942968517.17624	0.31010346210224304	3928634461.6192093	1.0747542054641947e+20	-3.9207118857307765e+22	1343.8451343140641	-0.5614699533265067	19.998160892786018	1.6216216216216215	30.93061858000691	139.7762928014839	144.82396660419994	60.12561273887824	0.001676234930282395	-9.244898878495503e+21	-0.04142451270248062	0.007554001416086813	-1.6768724432377684e+22	0.13239261371661978	0.24013840340214845	0.0	15.637573	4.486973	-23.880346	9.235671	-22.327028	13.137492000000002	0.0		True	0.0	None	0.0	None	0.0	None	0.0	None	0.0	None	0.0	None	0.0	None	0.0	None	1.9168e-06	12
2014-02-11 09:36:00	7.270637563147829	51159906.9593	2.8629041238374407e+20	155164645561.42148	0.21201461685108905	17158986070.709503	1.00149249330431e+20	-4.077099634818643e+22	1390.7934149410144	-0.6000799254878093	18.246616634759913	0.0	28.80482755300085	141.912673934109	145.26991074571933	60.65609482800322	-0.0013678362377489615	-1.1009140229958592e+22	-0.21594932749871606	-0.005179935791602254	-1.618448884715679e+22	0.16203587453344784	0.2382082296571625	0.0	15.638934	4.377685	-23.878172	9.335679	-22.324594	13.239409	0.0		True	0.0	None	0.0	None	0.0	None	0.0	None	0.0	None	0.0	None	0.0	None	0.0	None	1.8316e-06	12
2014-02-11 09:48:00	6.4074125724075985	50028992.18100001	2.570777423070784e+20	136126958266.99127	0.036017856342981165	16300768644.481276	9.491132067980752e+19	-3.999161235746411e+22	1344.278952557927	-0.6019141786517213	17.847101402473303	0.0	28.58983784468635	147.15895936696202	151.81325416833937	60.21744823630568	0.0002501240023818136	-1.3809162260236877e+22	-0.2208220195806325	0.0008988492442692154	-1.477603537177183e+22	0.2078418465712966	0.22239426395292228	0.0	15.64027	4.26837	-23.875845	9.436337	-22.322002	13.34199	0.0		True	0.0	None	0.0	None	0.0	None	0.0	None	0.0	None	0.0	None	0.0	None	0.0	None	1.8162999999999999e-06	12
2014-02-11 10:00:00	7.676536380234665	54630794.622	3.0693699831726984e+20	153615758661.92206	1.2576502620389771	75085896039.02809	1.0022388190430962e+20	-4.462894257573056e+22	1551.1382528617498	-0.6151295838898002	18.65925772624798	0.6711409395973155	29.09858047807263	165.49063821719392	167.2091140866039	68.79016449270675	0.008440605785496495	-1.3166105496650594e+22	0.9830474998400592	0.02850657176918378	-1.6711825242016298e+22	0.18147104834180164	0.2303424081741705	0.0	15.641529	4.159029	-23.873278	9.562518	-22.319176	13.464589000000002	0.0		True	0.0	None	0.0	None	0.0	None	0.0	None	0.0	None	0.0	None	0.0	None	0.0	None	1.5658000000000001e-06	12
2014-02-11 10:12:00	7.891414414832004	52672766.5432	3.0511602644617534e+20	168302321564.34247	0.22716945725628984	27217596221.353626	9.948630309656956e+19	-4.037427084849123e+22	1491.8728776021944	-0.5771731001800736	18.115432244424017	0.0	29.92574974183637	171.1400011962714	168.80158232333994	73.80803040179605	0.001475126345820064	-1.4184381973530338e+22	-0.34477633501765764	0.005469082130635506	-1.6602072006552489e+22	0.20277378503064145	0.2373360352535704	0.0	15.64276	4.049661	-23.870848	9.662689	-22.316488	13.566666	0.0		True	0.0	None	0.0	None	0.0	None	0.0	None	0.0	None	0.0	None	0.0	None	0.0	None	1.6862e-06	12
2014-02-11 10:24:00	6.442364638276754	44432499.5965	2.4011487994506976e+20	146184978047.14594	0.7172796290319285	55052263179.06047	9.030091779796964e+19	-3.325671204654202e+22	1174.0479907616616	-0.5635936104452827	17.573084171297182	0.6493506493506493	30.27835143046269	143.2562362315881	142.571360727978	59.853954510183705	0.004657659928778757	-1.3222267299353529e+22	0.6973797761368676	0.020648754456651385	-1.4786631384548623e+22	0.2240746275544728	0.2505855346336863	0.0	15.643963	3.940263	-23.86832	9.772837	-22.313702	13.671152	0.0		True	0.0	None	0.0	None	0.0	None	0.0	None	0.0	None	0.0	None	0.0	None	0.0	None	1.6774e-06	12
2014-02-11 10:36:00	6.692658731687223	42969963.2004	2.2293038722917587e+20	152186362294.87094	1.4365548143531617	91855835151.99048	8.988775175946453e+19	-3.403202732690364e+22	1082.9915298329072	-0.596362500854119	17.69971489286921	0.0	28.84406732898233	137.45919216572318	137.45798688242192	59.18967564544217	0.009268095576472013	-1.1669121658672864e+22	1.1561040567853245	0.0418847278921185	-1.279836975483407e+22	0.20448463173499315	0.22427308607074373	0.0	15.645186	3.830836	-23.866507	9.893324	-22.313072	13.773086	0.0		True	0.0	None	0.0	None	0.0	None	0.0	None	0.0	None	0.0	None	0.0	None	0.0	None	1.7282e-06	12
2014-02-11 10:48:00	4.7940108403340425	37308445.5225	1.7308732283051914e+20	115506293827.70372	0.03521734409808175	36306291973.80999	7.696610923170177e+19	-2.8530044725846224e+22	987.3672890905403	-0.5758146418173379	16.868113048479422	0.0	30.6308211006852	144.9042755118515	148.31302454400225	58.648997723498354	0.0002667980613491041	-8.973476371167078e+21	0.53658335847586	0.001198048254236925	-1.2355330935142515e+22	0.18110939299856485	0.24936450416807904	0.0	15.646379	3.721378	-23.863283	9.998089	-22.310345	13.895257999999998	0.0		True	0.0	None	0.0	None	0.0	None	0.0	None	0.0	None	0.0	None	0.0	None	0.0	None	1.7909e-06	12
2014-02-11 11:00:00	6.0478646302117385	39683063.6762	2.358889369163086e+20	145698079392.59808	1.914314821417964	166105319576.87598	8.572962851432088e+19	-3.056410838228312e+22	1176.2999140466882	-0.5799545721416394	19.262758363135745	1.3245033112582782	29.821066678856702	136.09097344341038	137.16102149837477	54.27847045913178	0.012677581598794464	-1.042393721994976e+22	2.1460692700528927	0.06106516903359236	-1.3873445476023476e+22	0.1977944186957397	0.2632489073308451	0.0	15.647489000000002	3.611889	-23.860863	10.098993	-22.307686	13.998381	0.0		True	0.0	None	0.0	None	0.0	None	0.0	None	0.0	None	0.0	None	0.0	None	0.0	None	2.3626e-06	12
2014-02-11 11:12:00	5.46068340735221	33303940.7389	2.1164746017506325e+20	130626534422.4528	1.0640320153790113	80532132701.15195	7.371667319256103e+19	-2.6378878379379793e+22	1216.5480600340645	-0.5964145164568913	19.489146182628303	0.0	28.5624027375472	141.726362164913	140.7116540892883	54.72503155924778	0.008122381796786345	-9.560307850198351e+21	1.1993429624232823	0.040026111224670216	-1.1775814379305062e+22	0.21615423907152229	0.2662458402480592	0.0	15.648568	3.502368	-23.857334	10.196617	-22.303934	14.100558	0.0		True	0.0	None	0.0	None	0.0	None	0.0	None	0.0	None	0.0	None	0.0	None	0.0	None	3.9208e-06	12
2014-02-11 11:24:00	5.195622277967288	31563475.6826	2.0240206372187e+20	125782970567.90555	1.4866890353740123	137312661727.59235	7.167205422664534e+19	-2.5870688182719264e+22	1200.0483197225512	-0.6171783440040763	19.43959643867373	0.7874015748031495	27.6496776761586	123.45336241309742	124.69701570354864	48.74833489796771	0.011706212876960729	-7.729470072556202e+21	2.109410100994124	0.0582515380322025	-1.1273747973487674e+22	0.1843963912253332	0.2689496721484233	0.0	15.649664	3.392815	-23.854637	10.29467	-22.301844	14.199929	0.0		True	0.0	None	0.0	None	0.0	None	0.0	None	0.0	None	0.0	None	0.0	None	0.0	None	4.0637e-06	12
2014-02-11 11:36:00	5.261827212419421	33906362.0764	2.1160246126438967e+20	132032013888.26524	1.809509703044192	161301146684.7284	8.146739047524522e+19	-2.817937904098133e+22	1055.191476919735	-0.6258031291705268	19.86984941526247	0.6622516556291391	27.62483429659305	115.10369030961365	118.19715452828972	43.38932897382388	0.01198350796718008	-8.217604639996373e+21	2.0841245146139267	0.06565106284317024	-1.2210996594656087e+22	0.18249524556652125	0.2711798534706218	0.0	15.650728	3.283228	-23.854916	10.393804	-22.299795	14.303728	0.0		True	0.0	None	0.0	None	0.0	None	0.0	None	0.0	None	0.0	None	0.0	None	0.0	None	4.0633e-06	12
2014-02-11 11:48:00	5.856759212221438	39938313.9525	2.3412858019264705e+20	144327833387.17072	2.1731926524529683	218555896607.0341	9.256970609862402e+19	-3.3747427922935368e+22	1074.9741697797708	-0.6362655322035531	18.261493828639704	0.6097560975609756	27.23125402547709	125.09828657145607	126.63533444151872	46.42022193714858	0.013251174710079076	-9.35386798183989e+21	2.600106309379905	0.06650965804696554	-1.4947857499106744e+22	0.17635547820764005	0.2818231519359229	0.0	15.651709	3.173608	-23.883535	10.492096	-22.296228	14.403392000000002	0.0		True	0.0	None	0.0	None	0.0	None	0.0	None	0.0	None	0.0	None	0.0	None	0.0	None	3.9846e-06	12
2014-02-11 12:00:00	6.591780427731099	42684941.0507	2.6537905544685853e+20	157382121214.33926	2.379573495125056	224351766534.59885	9.896827153808556e+19	-3.6930801525257486e+22	1175.4529446790993	-0.6514807281769448	18.410463967801828	2.9411764705882346	26.04820853583147	130.09011034140732	131.98566662286208	47.7900373259153	0.013997491147794446	-9.88953364595033e+21	2.5749138513493977	0.06751199201030067	-1.580962970951536e+22	0.1744571012515872	0.2788910245643827	0.0	15.652655	3.063955	-23.911911	10.590606	-22.292406	14.526307999999998	0.0		True	0.0	None	0.0	None	0.0	None	0.0	None	0.0	None	0.0	None	0.0	None	0.0	None	3.8158e-06	12
2014-02-11 12:12:00	6.494777544849542	39390331.5776	2.0418205122691075e+20	147315537190.97028	0.7684740546092794	77575082725.08362	8.903745444995082e+19	-3.420509752974648e+22	1031.8553022559472	-0.6538659206120163	16.576636296131635	0.0	26.23822470007557	125.17171230207363	127.7310359512246	50.27441999176835	0.005157543990666305	-9.017331812531528e+21	1.0158462481829766	0.02359224502818804	-1.4353708514807806e+22	0.17237565137586236	0.2743860275232171	0.0	15.653567	2.954268	-23.910421	10.689615	-22.290651	14.626674	0.0		True	0.0	None	0.0	None	0.0	None	0.0	None	0.0	None	0.0	None	0.0	None	0.0	None	3.4691000000000016e-06	12
2014-02-11 12:24:00	5.5115845153247305	38212758.20540001	1.813705305836046e+20	123914949338.89348	0.8196415995837772	81947969347.28607	8.445367742097814e+19	-3.3726221152677085e+22	989.635138659852	-0.6645792348015138	16.110686936632984	0.7246376811594203	26.77124623720876	127.62644562379828	131.13812007419978	50.929223891383025	0.005939431881041864	-8.573927443562768e+21	1.1586738340145826	0.025771584980533103	-1.3283990067134956e+22	0.16895026910639674	0.2617626182892624	0.0	15.654496	2.844546	-23.937384	10.788727	-22.287052	14.727117000000002	0.0		True	0.0	None	0.0	None	0.0	None	0.0	None	0.0	None	0.0	None	0.0	None	0.0	None	3.0704000000000007e-06	12
2014-02-11 12:36:00	6.470751323000398	46553567.8981	2.433502285983659e+20	153202070814.4285	1.1014416376467042	69301787957.32999	1.0068369807715675e+20	-4.025402969302213e+22	1090.711863033516	-0.6510943868888098	18.148902761538505	0.5952380952380952	27.507777395434168	137.5732263691448	140.31769859195936	53.68923096072114	0.006556200224087525	-1.1059057658798918e+22	0.8049106295198266	0.02865936829393103	-1.6195509318842709e+22	0.17887626209934093	0.26195651194970426	0.0	15.655391	2.734791	-23.935276	10.887214	-22.28381700000001	14.826965	0.0		True	0.0	None	0.0	None	0.0	None	0.0	None	0.0	None	0.0	None	0.0	None	0.0	None	2.7328e-06	12
2014-02-11 12:48:00	6.18966291013016	45359661.3937	2.541667244331988e+20	145294240065.3575	0.4979644718316082	10087941874.622131	9.49517997796091e+19	-3.655828383261928e+22	1203.6746150627216	-0.6068809850270036	18.093471020835608	0.0	28.825579000615267	146.62205181211132	147.9866954749811	57.79215225786131	0.0031318520240981645	-1.091559409571001e+22	0.12380221692773595	0.013663905146140356	-1.7365437868824527e+22	0.1812028848862081	0.2882726685833708	0.0	15.656202	2.625002	-23.932819	10.984219	-22.281116	14.928799	0.0		True	0.0	None	0.0	None	0.0	None	0.0	None	0.0	None	0.0	None	0.0	None	0.0	None	2.5573e-06	12
2014-02-11 13:00:00	8.003255750952196	49185643.89470001	3.0443100286952925e+20	184627952637.77325	1.7330158353560063	168942731440.54367	1.044624011130137e+20	-4.02874557412306e+22	1280.6291431397071	-0.6167639961661424	18.954674107563328	2.2346368715083798	29.327163472624736	143.43438026477276	146.4245055248492	58.12437344010271	0.009681652711486069	-1.137106627563894e+22	1.8417050901694527	0.04358605236667416	-1.7971443121661982e+22	0.17408059525723982	0.27512631097339696	0.0	15.656979000000002	2.5151790000000003	-23.959797	11.082649	-22.278357	15.028632	0.0		True	0.0	None	0.0	None	0.0	None	0.0	None	0.0	None	0.0	None	0.0	None	0.0	None	2.8337e-06	12
2014-02-11 13:12:00	7.180169137939969	48484774.0901	2.7617207347197395e+20	158626804638.948	0.16545731284128928	14658101490.494062	9.954625972355447e+19	-4.124912112861687e+22	1333.0383497214646	-0.6406145593868424	18.367295027672263	0.641025641025641	26.24506189022079	148.13721429376622	149.65579033377873	60.69055949661311	0.001060623800264675	-1.2659250226841457e+22	-0.18335696869931767	0.00416010243726501	-1.6232385046689052e+22	0.19660297684766093	0.2520951213010961	0.0	15.657722	2.405322	-23.957865	11.181061	-22.27528	15.165354	0.0		True	0.0	None	0.0	None	0.0	None	0.0	None	0.0	None	0.0	None	0.0	None	0.0	None	2.7226e-06	12
2014-02-11 13:24:00	7.238732822489562	46093411.5882	2.2527938160938127e+20	161215327608.5356	0.9741689945727944	83778153468.03015	9.628055034405627e+19	-3.816454642019718e+22	1066.8708343127337	-0.6234602559068729	17.224648318641833	0.628930817610063	27.90140844632414	144.94217332403485	148.07376506413274	58.95907548202218	0.006126849022470404	-1.0823333935293095e+22	1.0282265294189443	0.02603657080054933	-1.538082389737971e+22	0.17681118152873654	0.2512628421556217	0.0	15.658483	2.295432	-23.956104	11.279331	-22.273266	15.302051	0.0		True	0.0	None	0.0	None	0.0	None	0.0	None	0.0	None	0.0	None	0.0	None	0.0	None	3.0401e-06	12
2014-02-11 13:36:00	7.6771695896195435	49325684.88540001	2.7995835798540563e+20	178688620807.65527	1.228699713863858	111746911665.28644	1.021805056470704e+20	-4.061239614256811e+22	1240.029719470735	-0.6199734154375951	18.798293941173448	0.5882352941176471	28.662425317855988	148.69388125668658	151.13577464975148	58.39869972621753	0.007227645375669754	-1.194686752757259e+22	1.2827814131090258	0.030753513586494998	-1.7368252162099846e+22	0.1823763424066048	0.2651371412639219	0.0	15.65921	2.18551	-23.953129	11.377453	-22.270052	15.438673	0.0		True	0.0	None	0.0	None	0.0	None	0.0	None	0.0	None	0.0	None	0.0	None	0.0	None	5.284e-06	12
2014-02-11 13:48:00	7.867848357066933	51545095.7764	3.123490989727141e+20	190356739276.26404	0.9535007143448851	107450751023.07794	1.094614943590373e+20	-4.291313682686221e+22	1244.4171063200376	-0.6268886828180961	19.402469871651608	0.0	28.434926014809264	143.3997884512968	145.66727950605733	52.70084353750593	0.005044977324576113	-1.2512305510253278e+22	1.1094928243046651	0.022740804750502563	-1.7255269704747415e+22	0.18278371846800787	0.25207044035310266	0.0	15.659856	2.075556	-23.950651	11.475872	-22.26733	15.575736	0.0		True	0.0	None	0.0	None	0.0	None	0.0	None	0.0	None	0.0	None	0.0	None	0.0	None	8.379099999999999e-06	12
2014-02-11 14:00:00	7.834109596507865	48431157.7581	2.7682402901329884e+20	178782888776.3217	2.213043249717352	171155613665.84494	9.825286259906948e+19	-3.951220377973956e+22	1294.6888202827554	-0.6143189192359131	18.089303377544034	0.0	28.265508587207478	154.75095567299255	155.9025280387441	58.080534143528155	0.013745610246691627	-1.202772252224538e+22	2.0746885708166105	0.05661163650703055	-1.7103424467019745e+22	0.1870019081174099	0.2659167606135964	0.0	15.660469	1.96557	-23.94832	11.575854	-22.263922	15.710752	0.0		True	0.0	None	0.0	None	0.0	None	0.0	None	0.0	None	0.0	None	0.0	None	0.0	None	8.488200000000001e-06	12
2014-02-11 14:12:00	5.989877272444581	41700292.7771	2.1379534591872608e+20	140646438670.70944	1.3613405805811496	127070100751.2514	8.589383616030073e+19	-3.241608911047485e+22	1133.697965754784	-0.5853410445670615	16.425091209448055	0.0	28.729122471634888	143.80386835141542	146.31454842880666	56.90374601756803	0.009586905497050349	-1.0160239878805255e+22	1.7464389704164882	0.04118461197065467	-1.608872490437947e+22	0.18346461855542032	0.2905159536422444	0.0	15.661053	1.855553	-23.971481	11.674309	-22.26086	15.840537	0.0		True	0.0	None	0.0	None	0.0	None	0.0	None	0.0	None	0.0	None	0.0	None	0.0	None	7.041e-06	12
2014-02-11 14:24:00	6.616932191361152	44587040.08010001	2.3629251091332887e+20	151722645661.41455	0.8253103167945409	96489711661.37967	9.009200831576754e+19	-3.7176644843442167e+22	1227.07042998613	-0.6278401505731263	17.4339108013071	0.0	28.75420093820893	144.54032682042808	147.78691196758982	58.039949958277006	0.005691795288238214	-8.373351919917598e+21	1.298739745260319	0.02274190657039977	-1.6098003436947724e+22	0.14140938625154545	0.2718635031305898	0.0	15.661654	1.7455060000000002	-23.97014200000001	11.773109	-22.259298	15.948551	0.0		True	0.0	None	0.0	None	0.0	None	0.0	None	0.0	None	0.0	None	0.0	None	0.0	None	5.1908e-06	12
2014-02-11 14:36:00	6.633670335272067	44111692.5887	2.7944201738229727e+20	147484894944.38626	2.231782031155915	163582509828.8391	9.150489196287789e+19	-3.799204867815097e+22	1441.2070164919785	-0.648524677591454	18.628408921080773	0.0	26.54476502686631	141.32194329682147	145.3909190114182	55.53712776377594	0.01528617829558846	-8.505954263768996e+21	2.1867727812608218	0.06138080747704624	-1.544016942063278e+22	0.14519673032770278	0.26356385727711273	0.0	15.66223	1.63543	-23.96896	11.871335	-22.255312	16.078115	0.0		True	0.0	None	0.0	None	0.0	None	0.0	None	0.0	None	0.0	None	0.0	None	0.0	None	5.248200000000002e-06	12
2014-02-11 14:48:00	5.633563083435012	39736577.7906	2.3850520849793604e+20	127929683302.54488	0.11649085168151635	34240424151.905712	8.211456541705526e+19	-3.249915444722995e+22	1381.4719207178744	-0.615841776555527	18.42435912785828	0.7692307692307693	27.52386322883212	137.81196222501563	140.31515532285928	57.839745022228314	0.0008960834744732026	-8.975554157410612e+21	0.5140742441662617	0.003628545070662781	-1.461249744413486e+22	0.17008200095929674	0.2768990928832037	0.0	15.662724	1.525325	-23.967249	11.970633	-22.254227	16.183007999999994	0.0		True	0.0	None	0.0	None	0.0	None	0.0	None	0.0	None	0.0	None	0.0	None	0.0	None	5.0297e-06	12
2014-02-11 15:00:00	6.812409903034324	43946188.7832	2.962198570458839e+20	159241009616.0384	2.474587523522485	208470728570.30774	9.480924379563596e+19	-3.5708946008025604e+22	1394.0608675556064	-0.6118477476681446	19.50275029058566	1.25	27.659922961134143	142.56526211126996	144.56235881540408	55.06920903278584	0.015466172022015529	-8.68825573487725e+21	2.5431112475151623	0.06986949123612635	-1.6541946005969384e+22	0.14886716906611408	0.28343464417924	0.0	15.663194	1.415194	-23.964874	12.069262	-22.251625	16.309202	0.0		True	0.0	None	0.0	None	0.0	None	0.0	None	0.0	None	0.0	None	0.0	None	0.0	None	4.484e-06	12
2014-02-11 15:12:00	7.000560817051562	45073492.236	3.551273509045235e+20	169613554007.051	2.078043325694514	193502091368.3538	1.0241101749165864e+20	-3.745549952098122e+22	1477.3828536483413	-0.6257226744652811	21.39579866942117	0.5524861878453038	26.77472180977781	132.36305657795756	133.3308201116157	50.46346038242412	0.011480902351903393	-1.000162219373437e+22	2.086686800107223	0.056717479498802736	-1.6093161143759125e+22	0.16708472368788302	0.2688485258575428	0.0	15.663635	1.305036	-23.962112	12.169002	-22.248644	16.430132	0.0		True	0.0	None	0.0	None	0.0	None	0.0	None	0.0	None	0.0	None	0.0	None	0.0	None	4.4032e-06	12
2014-02-11 15:24:00	6.254538246633508	42860187.38330001	2.810110611771169e+20	150377346887.65814	0.4899339890419716	76709411348.7314	9.320479174751365e+19	-3.5819655775563746e+22	1374.01095067476	-0.629295813345166	19.29313372798817	0.0	27.220600055469035	134.90351951253172	135.7538720433134	58.14814969081468	0.003181389539233582	-9.030223018438134e+21	0.9722720787333812	0.014031805568025114	-1.5600219620036638e+22	0.15864701700882916	0.274071670472374	0.0	15.664153	1.1948530000000002	-23.959492	12.267929	-22.246771	16.560562	0.0		True	0.0	None	0.0	None	0.0	None	0.0	None	0.0	None	0.0	None	0.0	None	0.0	None	3.7370999999999998e-06	12
2014-02-11 15:36:00	6.606837857737586	41455029.3167	2.438350084346351e+20	157231035540.8111	1.1534317245443702	97234256949.9075	8.942973236580724e+19	-3.341237286917979e+22	1224.0306847741733	-0.6069006429809655	17.935752696436488	0.0	27.94771278485249	142.18006834435698	143.00754710847764	56.99469165499678	0.007689544830295801	-9.856413669773411e+21	1.2653112147685674	0.03463025079915544	-1.6126778373642222e+22	0.1790313970544022	0.2929259829134444	0.0	15.664547	1.084647	-23.956461	12.36657	-22.243526	16.665010000000002	0.0		True	0.0	None	0.0	None	0.0	None	0.0	None	0.0	None	0.0	None	0.0	None	0.0	None	3.759e-06	12
2014-02-11 15:48:00	7.556649754603763	44974200.8952	2.862744891010932e+20	185077748576.102	1.732201532206183	165524770454.57108	9.517170524696394e+19	-3.3198681390651678e+22	1283.1010612723849	-0.5558337027988862	19.204860929680862	0.5952380952380952	30.12148770213161	141.5315012764795	141.3350391301241	59.29925337973005	0.010310723405989184	-1.1589526998353338e+22	1.9232340261462804	0.04951100974033452	-1.8330336364095464e+22	0.1940393243147404	0.3068982955953557	0.0	15.664919	0.974418	-23.954586	12.465416	-22.242411	16.795404	0.0		True	0.0	None	0.0	None	0.0	None	0.0	None	0.0	None	0.0	None	0.0	None	0.0	None	3.1902e-06	12
2014-02-11 16:00:00	7.790857342130615	49590671.4532	3.217889514192972e+20	191826746523.84802	1.3560094236152291	134408797128.1188	1.0928047179178017e+20	-3.907518892492076e+22	1275.278489604094	-0.5933194761633215	18.755657449574688	0.0	28.539838465439328	135.40136216636648	135.8332811795322	55.230634260559405	0.007136891703238049	-1.2187727020934579e+22	1.3808970210053877	0.0343233643023778	-1.8918381002365847e+22	0.18505901086176585	0.28725757226021137	0.0	15.665268	0.8641690000000001	-23.95224	12.564114	-22.240839	16.900036	0.0		True	0.0	None	0.0	None	0.0	None	0.0	None	0.0	None	0.0	None	0.0	None	0.0	None	2.5833999999999997e-06	12
2014-02-11 16:12:00	7.6794055584094645	50734148.49600001	2.947328104945476e+20	188131580711.93585	1.6465739968491258	195096606522.8423	1.0900720067451352e+20	-4.065889984630521e+22	1212.732176263139	-0.6034520295657235	18.33763682399773	0.5464480874316939	28.20555099245772	136.47608134886502	139.07559533232606	52.91220128810506	0.008997672113929649	-1.1356968555449697e+22	2.081106090871208	0.04048134195224039	-1.8530171963100438e+22	0.16855807093666375	0.2750214570882191	0.0	15.665648999999998	0.753899	-23.949814	12.663018	-22.239124	17.030518	0.0		True	0.0	None	0.0	None	0.0	None	0.0	None	0.0	None	0.0	None	0.0	None	0.0	None	2.5182e-06	12
2014-02-11 16:24:00	8.53807631354091	56878312.07170001	3.6093392779818926e+20	192183454523.18408	0.15321823930165052	12434515051.959377	1.1534204806121516e+20	-4.583812778624806e+22	1445.630568648803	-0.6068308284815174	18.602395340408247	1.5957446808510638	28.701983487246324	144.96806542710237	144.9935561135503	63.067492359858726	-0.0008149906345832474	-1.350970090749936e+22	0.1291143630619105	-0.0033529232151944424	-2.0476159540385207e+22	0.17884899297075707	0.2710748771405862	0.0	15.666012	0.643612	-23.946527	12.761689	-22.23664500000001	17.135195	0.0		True	0.0	None	0.0	None	0.0	None	0.0	None	0.0	None	0.0	None	0.0	None	0.0	None	2.9548e-06	12
2014-02-11 16:36:00	7.775709701533088	56843375.22920001	3.020610862863463e+20	174733058178.0329	0.2579087486469692	28574500299.025593	1.098013541141458e+20	-4.6032312879817085e+22	1330.1056435313358	-0.6097761102967463	17.37877370243144	0.0	28.81123998275373	161.5074875583099	163.71718132127108	62.407337394362315	-0.0015082382961811064	-1.3581059557689968e+22	0.3262072927176485	-0.005637035041441741	-1.993544877845209e+22	0.17990418366372438	0.2640788535844876	0.0	15.666308	0.533308	-23.943773	12.860464	-22.233698	17.240070000000006	0.0		True	0.0	None	0.0	None	0.0	None	0.0	None	0.0	None	0.0	None	0.0	None	0.0	None	1.0285e-05	12
2014-02-11 16:48:00	7.146765841640673	60088993.3862	3.2408040367319594e+20	155020532789.19833	0.4477894126374147	88072786131.12207	1.1089486274452976e+20	-4.910478986249356e+22	1487.9774491301869	-0.6153417104619315	17.563045981536206	0.0	28.56144176005285	159.87400467662374	163.70674866430988	62.14953256408147	0.002730423247789114	-1.3762970519740346e+22	1.0483736738901994	0.009226659222111471	-2.08457927839413e+22	0.17246647107887875	0.2612226999346751	0.0	15.666589000000002	0.4229890000000001	-23.94140100000001	12.95936	-22.231127	17.366442000000006	0.0		True	0.0	None	0.0	None	0.0	None	0.0	None	0.0	None	0.0	None	0.0	None	0.0	None	1.8531e-05	12
2014-02-11 17:00:00	7.0992957075427245	64364664.7363	3.6704700684735794e+20	148136945876.9123	0.03344973700014839	15997630734.57954	1.1669510715632193e+20	-5.156972184614741e+22	1645.1291172078245	-0.6033021338150486	17.88391332001964	0.0	29.18367274336023	162.07993126154673	165.52251669302257	64.97495563823148	-0.00019910557738183563	-1.465355893374422e+22	0.18589658852417149	-0.0006482758169273464	-2.180540194082632e+22	0.17142856420841646	0.2550963055190126	0.0	15.666857	0.312657	-23.939161	13.059628	-22.23065	17.472958	0.0		True	0.0	None	0.0	None	0.0	None	0.0	None	0.0	None	0.0	None	0.0	None	0.0	None	1.8027000000000002e-05	12
2014-02-11 17:12:00	8.581765914990617	64342410.2121	3.8869959394654165e+20	171811897862.31216	0.20643714263177027	31284536564.04303	1.1552697627960997e+20	-5.140699866633474e+22	1763.1670892405796	-0.6016063278341501	18.03820107805544	0.0	28.99110283220173	167.51876014789815	170.5994206543332	67.83700742543208	0.0012435972447697005	-1.354976500410775e+22	0.36791942925384097	0.004006496186503887	-2.2696735942340763e+22	0.15857032269178656	0.2656155838375177	0.0	15.667162	0.202313	-23.937023	13.159732	-22.22927300000001	17.575197	0.0		True	0.0	None	0.0	None	0.0	None	0.0	None	0.0	None	0.0	None	0.0	None	0.0	None	1.2485999999999999e-05	12
2014-02-11 17:24:00	8.268787189680296	56510606.0229	3.0928233128010954e+20	158642897560.38354	1.3457716061296368	46217046123.30578	9.90702197701211e+19	-4.545202118642903e+22	1712.3939879197446	-0.6056346692907694	17.279899957990146	0.0	28.41392101306646	172.8701385015244	178.7139895243911	72.86274566928256	0.009895379456835563	-1.2028936739604516e+22	0.6634375237880635	0.02966365455935356	-1.8786027941892886e+22	0.16028200581727156	0.25031823718485186	0.0	15.667459	0.091959	-23.950872	13.258728	-22.226704	17.680464	0.0		True	0.0	None	0.0	None	0.0	None	0.0	None	0.0	None	0.0	None	0.0	None	0.0	None	7.864600000000001e-06	12
2014-02-11 17:36:00	6.95881423221625	51542514.01880001	2.858458464240569e+20	141139294940.69858	0.6376018823885266	15140226771.583612	9.579391860395814e+19	-4.170616999699092e+22	1548.4761890948291	-0.6092873442367479	17.921217729597153	0.0	28.256877538617946	152.60515403703292	156.17668622758654	63.62107095515012	-0.004587063902075732	-9.884555477913302e+21	-0.21264707064202285	-0.015373770463133391	-1.8830102306920767e+22	0.14440392288558546	0.2750898254890771	0.0	375.667694	359.981598	-23.950283	13.356312	-22.224031	17.805426	0.0		True	0.0	None	0.0	None	0.0	None	0.0	None	0.0	None	0.0	None	0.0	None	0.0	None	5.3278e-06	12
2014-02-11 17:48:00	8.625832791691106	56483019.13060001	2.85449674237779e+20	178381234981.83514	0.8347774739709626	65789270614.4238	1.0588596269784374e+20	-4.86501583674118e+22	1369.0440233374836	-0.6485655405405533	17.610425646451734	0.0	28.821022254002386	154.58786274108857	159.1597667279629	60.560302173038174	-0.0053170539743373395	-9.267365493993108e+21	-0.8180914944624031	-0.01792984754181856	-1.9373598651789875e+22	0.12354520751210192	0.2582735370956265	0.0	375.667908	359.871216	-23.96224	13.454738	-22.222326	17.910252	0.0		True	0.0	None	0.0	None	0.0	None	0.0	None	0.0	None	0.0	None	0.0	None	0.0	None	4.9706e-06	12
