Timestamp	TOTUSJH	TOTBSQ	TOTPOT	TOTUSJZ	ABSNJZH	SAVNCPP	USFLUX	TOTFZ	MEANPOT	EPSZ	MEANSHR	SHRGT45	MEANGAM	MEANGBT	MEANGBZ	MEANGBH	MEANJZH	TOTFY	MEANJZD	MEANALP	TOTFX	EPSY	EPSX	R_VALUE	CRVAL1	CRLN_OBS	LAT_MIN	LON_MIN	LAT_MAX	LON_MAX	QUALITY	NOAA_AR	IS_TMFI	BFLARE	BFLARE_label	CFLARE	CFLARE_label	MFLARE	MFLARE_label	XFLARE	XFLARE_label	BFLARE_loc	BFLARE_label_loc	CFLARE_loc	CFLARE_label_loc	MFLARE_loc	MFLARE_label_loc	XFLARE_loc	XFLARE_label_loc	XR_MAX	XR_QUAL
2014-03-09 14:36:00	139.75523130310813	982396883.2035	5.507999814304887e+21	2716651414776.1367	0.9326255953356136	1112397171850.2002	1.5300306400453575e+21	-6.58530079311796e+23	1755.9067665463565	-0.504749700133142	20.900858103095388	4.8264182895850976	35.14040955836032	156.59365436762457	160.38892871856285	76.03810445458363	0.000394845721987982	-6.621662667425864e+22	0.9083488065860356	0.00126178710424578	6.874769142401823e+22	0.05075367626728477	-0.05269368510453309	0.0	14.853209	19.184759	-14.062582999999998	-12.707099	-7.250371	1.658223	0.0	12000.0	True	0.0	None	0.0	None	0.0	None	0.0	None	0.0	None	0.0	None	0.0	None	0.0	None	7.4631e-06	12
2014-03-09 14:48:00	136.36317179354185	980698490.5294	5.61901367890619e+21	2634281974505.3755	10.023153627620808	1480912479099.1477	1.524476708877806e+21	-6.545136429237558e+23	1795.0972904250195	-0.5025400530845675	20.829524596602297	4.794229953330505	35.566730341270926	156.51440801479617	160.0621454084627	78.05889904698722	0.0042525047210949535	-7.041434305908672e+22	1.211860022777708	0.013604194047641571	6.8350535079292335e+22	0.05406461436121738	-0.052480008474181584	0.0	14.855976	19.074726	-14.061131	-12.609603	-7.846447	1.779729	0.0	12000.0	True	0.0	None	0.0	None	0.0	None	0.0	None	0.0	None	0.0	None	0.0	None	0.0	None	7.7101e-06	12
2014-03-09 15:00:00	145.13693619790075	992285671.898	5.87666213974927e+21	2803994675722.937	6.02306229411672	1162779499673.2468	1.548746954788318e+21	-6.59402333127455e+23	1843.7707986238568	-0.5003814601894594	21.52661869135156	5.083333333333333	35.336130227607775	153.25237142232416	156.7042101056841	75.83712442250376	0.0025096092892153	-6.892125904578235e+22	0.9344979912832392	0.0080911255678582	7.340700641970158e+22	0.05230027027028828	-0.05570423884643357	0.0	14.858770000000002	18.96467	-14.063676	-12.560417	-7.846763	1.870999	0.0	12000.0	True	0.0	None	0.0	None	0.0	None	0.0	None	0.0	None	0.0	None	0.0	None	0.0	None	3.5187e-06	12
2014-03-09 15:12:00	133.78881996279895	954454919.5456	5.842069943300718e+21	2662181082946.6714	5.388650662247901	1503245265767.2798	1.4850515975334621e+21	-6.070132681076459e+23	1881.5237866170526	-0.4788838940479293	21.533281102935952	4.491017964071856	36.13492236616232	152.4734104256008	155.1671411951387	76.14104810708204	0.002304812088215527	-8.159983951598594e+22	1.2401862419095822	0.0076352018965037925	7.055786950829919e+22	0.06437560915747836	-0.055664396613926935	0.0	14.861488	18.854588	-14.068188	-12.467156	-7.821194	1.991358	0.0	12000.0	True	0.0	None	0.0	None	0.0	None	0.0	None	0.0	None	0.0	None	0.0	None	0.0	None	1.9776e-06	12
2014-03-09 15:24:00	130.40190616018066	973614577.4458	5.619669028350901e+21	2541732380744.3945	5.9435411328817365	1336101499442.1714	1.4993813688938193e+21	-6.386932680679825e+23	1844.610942544375	-0.4939610744624175	20.686564505392106	4.184829991281603	35.833821288994905	156.44083598271533	160.00743749797124	77.1854518438002	0.002590907207010348	-8.381774433275385e+22	1.1234572416912358	0.008172386892636545	6.0038666985827924e+22	0.06482407928748732	-0.046433500924976334	0.0	14.864182	18.744482	-14.070291	-12.372961	-7.849177	2.112736	0.0	12000.0	True	0.0	None	0.0	None	0.0	None	0.0	None	0.0	None	0.0	None	0.0	None	0.0	None	2.0126e-06	12
2014-03-09 15:36:00	126.03030256071631	996034511.7937	5.75398193081118e+21	2441448018687.2856	12.211033361323011	1441547497109.1248	1.5021958717419102e+21	-6.398539078447446e+23	1889.5217072357952	-0.4837198244649694	20.69633012580852	3.4016572176188395	36.581132714267	155.72564479025655	158.61536200463325	79.43590223240106	0.005327675986615625	-9.405681200839184e+22	1.2126737253900046	0.016540550668305506	5.393009055308211e+22	0.07110551961413268	-0.040770328376343375	0.0	14.866854	18.634354	-14.073067000000002	-12.318108	-7.8503669999999985	2.233326	0.0	12000.0	True	0.0	None	0.0	None	0.0	None	0.0	None	0.0	None	0.0	None	0.0	None	0.0	None	2.3663e-06	12
2014-03-09 15:48:00	135.08037423798206	991123396.5527	5.844926720777029e+21	2578442750354.0444	3.3026313955601365	1325964348530.9558	1.485153143614601e+21	-6.31164557891331e+23	1932.8735911535143	-0.4795151000316736	21.225704761292327	4.435660957400088	36.97078506314103	155.02410780886575	157.6809475164084	79.42250564630936	0.0014504310037593926	-9.928989783308145e+22	1.1233006225090894	0.0045044624460790356	5.515691401911813e+22	0.0754335849443593	-0.04190440165347428	0.0	14.869504999999998	18.524204	-14.076723	-12.224194	-7.824553	2.324765	0.0	12000.0	True	0.0	None	0.0	None	0.0	None	0.0	None	0.0	None	0.0	None	0.0	None	0.0	None	2.1684e-06	12
2014-03-09 16:00:00	136.89720494456387	1000883963.631	5.916997550747681e+21	2538747463461.32	12.099589957159223	1202056167458.13	1.4844665543365645e+21	-6.336519874495584e+23	1998.8435912449288	-0.4767103284175568	20.98520042351107	4.127411395244503	36.718305388227456	158.9385700562306	161.82635225471066	81.36978425369873	0.005428259289887496	-1.0355698582942156e+23	1.0402785967379469	0.0163727490398346	4.909087580274495e+22	0.07790819835249965	-0.03693214570418271	0.0	14.87213	18.41403	-14.080379999999998	-12.131068	-7.826399	2.445077	0.0	12000.0	True	0.0	None	0.0	None	0.0	None	0.0	None	0.0	None	0.0	None	0.0	None	0.0	None	2.2592e-06	12
2014-03-09 16:12:00	134.2423290360553	1016280318.3198	6.113120170273629e+21	2494713909462.8936	10.03377766840946	1317081892658.1218	1.4935297340812286e+21	-6.256407146387724e+23	2061.3967660185017	-0.4635524372089197	20.94673045621657	3.716972682489924	36.94680910379982	160.77861460774005	162.72714825748713	83.54580355607438	0.004493406927187397	-9.400539765725392e+22	1.1378005948759309	0.013491886126437685	3.6365066808843714e+22	0.06965088776227353	-0.026943763335858868	0.0	14.874788	18.303839	-14.082698	-12.037062	-7.827035	2.566163	0.0	12000.0	True	0.0	None	0.0	None	0.0	None	0.0	None	0.0	None	0.0	None	0.0	None	0.0	None	1.9917e-06	12
2014-03-09 16:24:00	133.73259566175705	1039997674.8954	6.091157711753468e+21	2475551218625.855	7.50648954218983	856664831114.0387	1.5036875414833914e+21	-6.405769197606332e+23	2066.949759104189	-0.463795250337375	20.280337181832788	2.163136547994592	37.10307269332233	162.45245222525028	164.63954057003954	87.63439621354367	0.003382825390802087	-9.830355487376076e+22	0.7447362293456052	0.009861754286945612	4.89828802065252e+22	0.0711744685693118	-0.03546494805982104	0.0	14.877377	18.193626	-14.084782	-11.941357	-7.827421000000001	2.65929	0.0	12000.0	True	0.0	None	0.0	None	0.0	None	0.0	None	0.0	None	0.0	None	0.0	None	0.0	None	1.5287999999999999e-06	12
2014-03-09 16:36:00	134.34406024439306	1067936446.6511	6.075469505269579e+21	2535477686181.0337	11.745794048021025	1228419494813.1765	1.539078208121948e+21	-6.71264554279081e+23	2064.417558150425	-0.4732991903890271	19.984733775396453	2.7075812274368234	36.39526143111193	164.97902325619066	168.3329579753564	85.73988415319651	0.0053004485776268154	-9.996689664172343e+22	1.0693800959022202	0.014930557303455081	3.3559378844316472e+22	0.0704852519690175	-0.02366224573563577	0.0	14.879947	18.083397	-14.08677	-11.845423	-7.828276	2.78092	0.0	12000.0	True	0.0	None	0.0	None	0.0	None	0.0	None	0.0	None	0.0	None	0.0	None	0.0	None	1.5765e-06	12
2014-03-09 16:48:00	129.80736391105074	1038548386.9348	6.09275481379457e+21	2514339626117.284	5.572667229084084	814132958135.1311	1.498423714431558e+21	-6.291229929761131e+23	2052.6913008164447	-0.4561380379989365	20.74332771746163	3.7583892617449663	37.56635219222153	163.9074667803909	166.45308957090583	86.15597914511974	0.0024933634134604405	-9.730272598076248e+22	0.7027140958683147	0.0073699378117910485	4.099048713849288e+22	0.07054816787231669	-0.02971965830007853	0.0	14.882502	17.973152	-14.090227	-11.722563	-7.829958	2.901221	0.0	12000.0	True	0.0	None	0.0	None	0.0	None	0.0	None	0.0	None	0.0	None	0.0	None	0.0	None	2.1031e-06	12
2014-03-09 17:00:00	133.93605654336102	1056148237.8169	6.435836896121986e+21	2529746199139.2017	12.715874282955198	1384241488956.1353	1.512788346203371e+21	-6.328653456471161e+23	2176.066931097452	-0.4512049687660565	21.01489793676281	3.4126627750336778	37.47058449325503	163.7750855294527	166.48275543785704	89.41857723484895	0.0057098672128222715	-9.763695386255283e+22	1.199106069078243	0.01659291107714491	3.982538858192903e+22	0.0696108248318128	-0.028393738628287982	0.0	14.885038	17.862888	-14.092101	-11.627124	-7.830688	3.022182	0.0	12000.0	True	0.0	None	0.0	None	0.0	None	0.0	None	0.0	None	0.0	None	0.0	None	0.0	None	1.9193e-06	12
2014-03-09 17:12:00	130.88212435626826	1031017057.912	6.323323366317261e+21	2493112951030.92	10.483900956741087	645312534765.1101	1.4671735951826538e+21	-6.198167893149406e+23	2225.9840316829504	-0.4526733454645086	20.883308016611203	3.272557269752221	37.459864251286064	166.54520714940804	170.00653968927557	88.81319738427868	0.004901309470192186	-9.372056605487944e+22	0.5820091662356778	0.013999711517628877	4.318934087557978e+22	0.06844732654270339	-0.03154264898852503	0.0	14.887560999999998	17.752610999999995	-14.092405	-11.504951	-7.829383999999999	3.113843	0.0	12000.0	True	0.0	None	0.0	None	0.0	None	0.0	None	0.0	None	0.0	None	0.0	None	0.0	None	2.3962e-06	12
2014-03-09 17:24:00	143.52486693872737	1080935434.8341	6.666791332805926e+21	2735596920863.3774	16.871358703802237	1299436031327.5376	1.5550788988863054e+21	-6.558845153527987e+23	2185.4619186178365	-0.4568935217860618	21.189642440266088	3.221593382673052	37.26887638054957	162.15935996600442	166.2353834000718	86.37667238985131	0.007344953723901714	-9.876410085618911e+22	1.091360700527157	0.021426561839289503	3.4749827123953837e+22	0.06879973045551409	-0.024206961019013998	0.0	14.890072	17.642323	-14.095601	-11.409009	-7.831289	3.234709	0.0	12000.0	True	0.0	None	0.0	None	0.0	None	0.0	None	0.0	None	0.0	None	0.0	None	0.0	None	3.2975e-06	12
2014-03-09 17:36:00	141.7799219429641	1055448627.8157	6.562858002600846e+21	2658936217048.6543	14.037575141037625	1195883533275.2922	1.5131809442439226e+21	-6.436522459649514e+23	2237.096826789542	-0.4591997884724433	21.7030821303576	3.3499320959710275	37.2018815133375	163.05241852265596	167.19458301105215	84.33501428618159	0.006354719393860401	-9.85287382779159e+22	1.0444100109655141	0.01822931006674692	3.553291000352994e+22	0.07029319956437997	-0.0253501869366891	0.0	14.89257	17.532021	-14.098034	-11.286278	-7.8320539999999985	3.354982	0.0	12000.0	True	0.0	None	0.0	None	0.0	None	0.0	None	0.0	None	0.0	None	0.0	None	0.0	None	2.9493e-06	12
2014-03-09 17:48:00	134.9882682416601	1018214797.8101	6.220406920108998e+21	2474219579675.9736	13.73066974287286	1004695680468.6198	1.4357478158205874e+21	-6.294833354684203e+23	2256.207117650465	-0.4655135762396384	22.07264100206121	5.298651252408479	37.81178279924895	162.60571704879425	168.33620505829398	84.92413036213924	0.006614002766316407	-9.261395337963283e+22	0.9336579167830884	0.018403162741490568	3.7495634215819056e+22	0.06848958537617539	-0.027728655857411404	0.0	14.895109	17.421709	-14.09959	-11.190443	-7.8323589999999985	3.475917	0.0	12000.0	True	0.0	None	0.0	None	0.0	None	0.0	None	0.0	None	0.0	None	0.0	None	0.0	None	2.0082e-06	12
2014-03-09 18:00:00	145.1460382682617	1053531311.0958	6.26415182272211e+21	2634261996183.507	16.607574794288695	1170032895746.9863	1.4987221704273075e+21	-6.684825073742374e+23	2227.018339374752	-0.4777823189473563	21.031517187809285	3.5882908404154863	36.36410943667053	167.21408400388148	173.0393934482506	84.08263371117947	0.007841159015244898	-1.0335271044118034e+23	1.065748534942598	0.021334295154705127	3.42791180940751e+22	0.07386894513970772	-0.02450020210519673	0.0	14.897587	17.311386	-14.102509	-11.065011	-7.833532000000001	3.598902	66560.0	12000.0	False	0.0	None	0.0	None	0.0	None	0.0	None	0.0	None	0.0	None	0.0	None	0.0	None	1.5902e-06	12
2014-03-09 18:12:00	138.88714694535258	1016058842.3427	5.684798504826921e+21	2502492420564.0537	14.689375673673744	1502195225513.4766	1.4620675995743837e+21	-6.476457677622921e+23	2046.1660372741171	-0.4799612196914648	20.047029862077906	2.5334608030592736	36.566545962000255	164.90140556826097	172.3017754494849	80.47333582668233	0.007021690092578273	-8.503561986467817e+22	1.3853156802702158	0.01953728169529571	3.970352703949946e+22	0.06301870846541335	-0.02942372854496205	0.0	14.90006	17.201059	-14.103918	-10.968621	-7.833755	3.691707	66560.0	12000.0	False	0.0	None	0.0	None	0.0	None	0.0	None	0.0	None	0.0	None	0.0	None	0.0	None	1.5512999999999999e-06	12
2014-03-09 18:24:00	142.50837387512738	1026545256.1308	5.50610977407969e+21	2519682106465.6533	14.920261987929567	1723397014369.739	1.4708217571147967e+21	-6.885942516938427e+23	2044.392793252212	-0.5050945924754571	19.641678737439435	2.268244575936884	35.496032259025704	168.1711977266261	175.72273175239528	82.75670851797756	0.007357131157756197	-8.263730536609894e+22	1.6394650084867308	0.0193136585406046	2.980217166660456e+22	0.060615748642231765	-0.02186035639391301	0.0	14.902523	17.090723	-14.106561	-10.876551	-7.835089	3.811801	0.0	12000.0	True	0.0	None	0.0	None	0.0	None	0.0	None	0.0	None	0.0	None	0.0	None	0.0	None	1.6502e-06	12
2014-03-09 18:36:00	154.086875219642	1034298449.7536	5.495821016666046e+21	2758717582210.8843	17.252490407103092	1796327812852.2756	1.5056291236781763e+21	-7.076838953324631e+23	1936.4913135296224	-0.5152060255487638	20.303263868039906	3.837154890032756	35.52324362478955	165.8927135668539	173.23968583064428	78.23648653628783	0.008073229015958396	-8.25091115971456e+22	1.6216831444562418	0.022017308505931067	3.4336860468694227e+22	0.06006804978592086	-0.02499782392757088	0.0	14.904982	16.980381	-14.108974	-10.757877	-7.83577	3.931112	0.0	12000.0	True	0.0	None	0.0	None	0.0	None	0.0	None	0.0	None	0.0	None	0.0	None	0.0	None	1.1512999999999999e-06	12
2014-03-09 18:48:00	148.28748637817372	1029631268.2822	5.554696988537156e+21	2771761093060.32	21.824908264416948	1360173026028.671	1.5240368507464783e+21	-7.048229000375481e+23	1873.9312392741306	-0.5154490595747333	20.886375829210518	4.525089605734767	35.75498702880302	161.38186360069955	168.9848996186616	75.21164801284165	0.009778184706279995	-7.88329160998365e+22	1.1756669118724012	0.02797430831704012	2.408833130697953e+22	0.05765186185782253	-0.017616209289235282	0.0	14.907439000000002	16.870039000000002	-14.110886	-10.66561	-7.83635	4.051393	0.0	12000.0	True	0.0	None	0.0	None	0.0	None	0.0	None	0.0	None	0.0	None	0.0	None	0.0	None	1.1229999999999999e-06	12
2014-03-09 19:00:00	150.62087522456346	1045171915.7813	5.648180699205455e+21	2884708349608.747	14.182727390309017	1900760089658.8423	1.5726037909469552e+21	-7.080753062045107e+23	1787.7284233690762	-0.5101279532685654	20.52434533822169	4.497688104245482	36.033627534740354	158.61780122884412	165.67724126935855	75.03777901376121	0.005961634043845741	-7.576691372069922e+22	1.5414018432258485	0.017971663270904232	2.9739684620981053e+22	0.05458574855405692	-0.021425749935942408	0.0	14.909943	16.759693	-14.112713	-10.570587	-7.836855	4.144264	0.0	12000.0	True	0.0	None	0.0	None	0.0	None	0.0	None	0.0	None	0.0	None	0.0	None	0.0	None	1.9465e-06	12
2014-03-09 19:12:00	156.2695598065124	1056495925.8606	5.829870981997607e+21	3010164569278.1377	4.7152115475058345	813986829067.6887	1.6019564366821754e+21	-7.181721284224586e+23	1805.7659330669696	-0.5118564621396873	20.448687337166927	4.113533525298231	35.8114971636509	158.65299688198792	164.08431612734756	76.45727780658214	0.00193961807795386	-9.550533623157968e+22	0.6459718101496867	0.0059040875725944325	2.595896991512835e+22	0.06806867265419894	-0.018501506777678863	0.0	14.912397	16.649347	-14.114043	-10.477023	-7.836806	4.264771	0.0	12000.0	True	0.0	None	0.0	None	0.0	None	0.0	None	0.0	None	0.0	None	0.0	None	0.0	None	2.2858e-06	12
2014-03-09 19:24:00	156.33576173821405	1081658542.0424	5.854514932335253e+21	3080425114276.509	10.178906305815193	1755076834319.8335	1.6626750203514425e+21	-7.469689284711198e+23	1726.0665083375657	-0.5199958208951604	20.802791875469573	5.050900548159749	35.62012680169211	155.9611641139672	161.44156144157043	75.22693970768334	0.0039854762356363324	-9.463913821126096e+22	1.3257261118678183	0.012382220519705351	2.547846554239684e+22	0.06588220003166821	-0.01773660871274104	0.0	14.914852	16.539001000000006	-14.115842	-10.351992999999998	-7.865575	4.387585	0.0	12000.0	True	0.0	None	0.0	None	0.0	None	0.0	None	0.0	None	0.0	None	0.0	None	0.0	None	2.6772000000000004e-06	12
2014-03-09 19:36:00	133.6365778218782	1024309499.9565	5.541956306746595e+21	2594627095991.926	8.659471736678755	1494441706780.3438	1.531690281804136e+21	-6.924126771123778e+23	1819.102069828046	-0.5090039987004336	20.392046185737005	4.0540540540540535	36.14963684685061	158.900572574514	163.54786921716075	78.24026770466273	0.0037748351075321523	-9.731135005595808e+22	1.2567842665531894	0.011204688919373864	2.4582480664103433e+22	0.07153518116390778	-0.01807098767773421	0.0	14.917309	16.428659	-14.117734	-10.258815	-7.865842	4.507341	0.0	12000.0	True	0.0	None	0.0	None	0.0	None	0.0	None	0.0	None	0.0	None	0.0	None	0.0	None	2.3302e-06	12
2014-03-09 19:48:00	125.67396571709914	986176092.769	5.599882125846654e+21	2441443673167.09	9.161346320623323	1057031296338.3204	1.4583910804228292e+21	-6.390858497062382e+23	1921.895222394296	-0.4879689370118616	20.823339513737714	3.9197812215132175	36.78678056292065	160.2839517784542	164.19984889525205	78.9835150272461	0.0041756364269021524	-1.085275452955202e+23	0.9294424375474358	0.01248650690149182	3.083807777522466e+22	0.08286534733745761	-0.023546169952569685	0.0	14.919771	16.318320999999994	-14.119359	-10.135167	-7.866764999999999	4.599382	0.0	12000.0	True	0.0	None	0.0	None	0.0	None	0.0	None	0.0	None	0.0	None	0.0	None	0.0	None	1.5705e-06	12
2014-03-09 20:00:00	124.67311852872164	967996906.3371	5.546457619676141e+21	2432104499270.212	5.1940828841167885	858743568386.2593	1.4363953581808054e+21	-6.20169437497202e+23	1924.6132834683688	-0.4824184450956052	21.48446258537532	4.377880184331797	37.09935115479516	158.24190080012286	160.89459792585626	79.80506678966395	0.0023935865825422988	-1.030886973137652e+23	0.7634322236289327	0.00723925861814692	3.5193607227692835e+22	0.08019080925003254	-0.027376462381969013	0.0	14.922237	16.207987	-14.120797	-10.041929	-7.867334	4.7197510000000005	0.0	12000.0	True	0.0	None	0.0	None	0.0	None	0.0	None	0.0	None	0.0	None	0.0	None	0.0	None	1.5400999999999999e-06	12
2014-03-09 20:12:00	121.49822357787436	970837727.6119	5.4683667762694e+21	2346641349537.0967	3.2554947910899132	888857415832.5879	1.4081249812866018e+21	-6.215658030713503e+23	2001.7542681385885	-0.4820897374664029	20.92592325821265	3.6460865337870683	37.200161396828776	162.32279616602332	166.06302830782778	82.12039662363698	0.0015826420958142506	-1.0155896537071825e+23	0.8336027870767817	0.0045250757668780645	2.941160865573852e+22	0.07876967283431584	-0.022811799853284298	0.0	14.92471	16.09766	-14.099719	-9.917477	-7.867475	4.8409900000000015	0.0	12000.0	True	0.0	None	0.0	None	0.0	None	0.0	None	0.0	None	0.0	None	0.0	None	0.0	None	3.0738e-06	12
2014-03-09 20:24:00	112.86845491481438	929645202.7465	5.382756962943178e+21	2114021881141.264	7.0857958078261625	787840984224.0695	1.3274478839623178e+21	-5.785299639872003e+23	2115.4206774854333	-0.4685933308669892	20.653715838978496	2.9227557411273484	37.52318357464278	162.06490414260034	165.7829330447805	85.63431720502281	0.0036982232817464322	-9.929728843449385e+22	0.6821862382625002	0.010380059537171476	2.0394345054223657e+22	0.0804280677406868	-0.016518857578171713	0.0	14.927242	15.987342000000002	-14.100504	-9.823676	-7.867524	4.933851	0.0	12000.0	True	0.0	None	0.0	None	0.0	None	0.0	None	0.0	None	0.0	None	0.0	None	0.0	None	1.0777e-05	12
2014-03-09 20:36:00	110.49671185934378	931969039.1982	5.582393177329739e+21	2132329540854.1	10.315069796346847	954465954104.058	1.3316663259284798e+21	-5.519780839151293e+23	2153.416400259347	-0.4459721696119653	20.708492989621067	2.305327868852459	37.84824399163347	168.06141572974187	170.550778990362	87.49572833824884	0.0052843595268170325	-1.1018100531675945e+23	0.3987976559007464	0.015308785833283597	1.9525120552786308e+22	0.0890210380140708	-0.01577537338638277	0.0	14.929733	15.877033	-14.10208	-9.700316	-7.8678050000000015	5.054011	0.0	12000.0	True	0.0	None	0.0	None	0.0	None	0.0	None	0.0	None	0.0	None	0.0	None	0.0	None	1.005e-05	12
2014-03-09 20:48:00	117.37629935169724	926846476.6408	5.692880976243016e+21	2219802931312.032	7.261552891091408	696021464688.7129	1.3117403516826189e+21	-5.425832780988202e+23	2200.54685387286	-0.4408045517170769	21.468607228151225	3.747433264887064	38.90247774201055	166.09306197347274	168.1673562083067	88.06662022495817	0.0037276965560017494	-1.1050492003866913e+23	0.6892478125136783	0.010875434710800005	1.7604918963601777e+22	0.0897762126228027	-0.014302557275553497	0.0	14.932235999999998	15.766735	-14.103782999999998	-9.603555	-7.867955999999999	5.175345	0.0	12000.0	True	0.0	None	0.0	None	0.0	None	0.0	None	0.0	None	0.0	None	0.0	None	0.0	None	5.2053e-06	12
2014-03-09 21:00:00	122.44461091987513	967680239.1209	6.016067977810447e+21	2297745186653.7666	11.312590104992294	1129409519633.9868	1.3795028510874689e+21	-5.714823500770738e+23	2229.3410469920505	-0.4446910928870759	21.574356428663673	4.133858267716536	38.43225660197201	163.72667338845113	167.1873351512296	88.7258633464826	0.005567219539858411	-1.0499319621040867e+23	1.0721651056349777	0.01618397427348928	1.328157862326958e+22	0.08169900463630589	-0.01033487685569087	0.0	14.93475	15.656449	-14.104835	-9.482165	-7.8673600000000015	5.268475	0.0	12000.0	True	0.0	None	0.0	None	0.0	None	0.0	None	0.0	None	0.0	None	0.0	None	0.0	None	4.6832e-06	12
2014-03-09 21:12:00	111.34216724762354	929665263.1311	5.942047420019705e+21	2172433733015.1008	8.006000106659751	840665558055.1686	1.3188747635048314e+21	-5.253879022343388e+23	2234.9070719752717	-0.42554049461984855	22.28721769511011	4.795204795204795	39.28718755687277	163.21303854866744	165.7403917452058	86.94150951519053	0.0039990010522775975	-1.096801859760962e+23	0.809999339077852	0.012082016506470842	2.9914542295549674e+22	0.08883600172705773	-0.024229429476083933	0.0	14.937278	15.546178	-14.107667	-9.360396	-7.868287	5.387187	0.0	12000.0	True	0.0	None	0.0	None	0.0	None	0.0	None	0.0	None	0.0	None	0.0	None	0.0	None	3.0866000000000002e-06	12
2014-03-09 21:24:00	107.8138241791482	914743136.1414	5.568520904157547e+21	2078694388041.528	3.137727433188438	688863676779.5265	1.2895216449220646e+21	-5.309470563337442e+23	2172.5508488143123	-0.4370583909717361	21.74909449990918	5.025906735751295	39.024630737785465	162.9421403209738	167.12970503085145	84.77468409777366	0.001625765509424061	-9.803163984689437e+22	0.6884818007883946	0.004773881518305867	3.0086711396092917e+22	0.08069646542850857	-0.024766404701831002	0.0	14.939820999999998	15.435921	-14.110209	-9.26406	-7.869111	5.509536	0.0	12000.0	True	0.0	None	0.0	None	0.0	None	0.0	None	0.0	None	0.0	None	0.0	None	0.0	None	2.0246e-06	12
2014-03-09 21:36:00	110.91784676660969	895382883.4994	5.340730022687421e+21	2113991663881.2158	13.487451829296589	694796701035.7806	1.2729466236109395e+21	-5.313693779314953e+23	2165.5896311247266	-0.4468638032543628	20.652841166362297	2.961766289714593	37.58806262210181	165.85694436262284	170.761727874288	86.09210946803397	0.007263032756756376	-1.0245125824544983e+23	0.7216935839980841	0.020822048916832592	2.1513167158842743e+22	0.0861580678321641	-0.01809185116024262	0.0	14.942429999999998	15.325679999999998	-14.110978	-9.13987	-7.868325	5.602488	0.0	12000.0	True	0.0	None	0.0	None	0.0	None	0.0	None	0.0	None	0.0	None	0.0	None	0.0	None	1.6789e-06	12
2014-03-09 21:48:00	113.71114813523462	897770791.9429	5.39538965104114e+21	2177891411550.7104	6.412789361554995	887543041734.0311	1.2903319417351714e+21	-5.340082226974991e+23	2147.282055555321	-0.4478884722256306	20.738443180932066	3.382663847780127	37.609995388482474	165.04331802951066	171.01290376435497	85.25510076223134	0.0033894235526189197	-9.876569477561037e+22	0.9048262695405616	0.009866801436559372	2.1455728342743183e+22	0.08283770597744065	-0.01799555321335019	0.0	14.945004999999998	15.215456	-14.112554	-9.017648	-7.86799	5.722607	0.0	12000.0	True	0.0	None	0.0	None	0.0	None	0.0	None	0.0	None	0.0	None	0.0	None	0.0	None	1.8758000000000001e-06	12
2014-03-09 22:00:00	108.0412544238665	861928940.9466	5.345672672862103e+21	2113769783774.4087	7.557176783385618	864658723641.2473	1.238365416458861e+21	-5.015242933377435e+23	2167.5938684770267	-0.4381350189574345	21.77224219259519	4.20032310177706	38.18067012813341	160.61216170950772	165.28015737348215	84.00645316580605	0.004069562080444597	-8.285088318334112e+22	0.8980886392091121	0.012193221200401037	2.566636038437345e+22	0.07237909261102889	-0.0224223062431052	0.0	14.947601	15.105251	-14.114214000000002	-8.922466	-7.868063999999999	5.817248	0.0	12000.0	True	0.0	None	0.0	None	0.0	None	0.0	None	0.0	None	0.0	None	0.0	None	0.0	None	1.8114e-06	12
2014-03-09 22:12:00	108.86666674683495	821829964.3800001	4.958079240446565e+21	1982902146187.8318	15.400556611656274	770534139256.7041	1.1714755784081544e+21	-4.921569484055285e+23	2176.891468622859	-0.4509299563059574	21.21306165130433	4.373177842565598	37.81857864103785	163.69251853936785	169.73867070158371	84.76519266343124	0.008979916391636313	-8.815161001865563e+22	0.8312878493436977	0.02583080815867182	2.389282734011827e+22	0.08076732794852003	-0.021891373521008874	0.0	14.950216	14.995066	-14.115698000000002	-8.798153	-7.867994	5.93844	0.0	12000.0	True	0.0	None	0.0	None	0.0	None	0.0	None	0.0	None	0.0	None	0.0	None	0.0	None	2.6857e-06	12
2014-03-09 22:24:00	110.63666672243437	822458448.5978	4.86048172522475e+21	2100646485914.4773	4.111676927030977	433473288509.94617	1.2064149439624462e+21	-4.985085860064206e+23	2022.0327476191007	-0.4564005107007714	21.018927757849056	3.591160220994475	37.47446524801626	158.60600931585344	165.70510768850278	81.0106768520034	0.0022716447110668393	-7.69795128908096e+22	0.4618995587771557	0.006865215743835911	4.2900975207074654e+21	0.07047719935642115	-0.00392772111528242	0.0	14.95285	14.884901	-14.116449	-8.676269	-7.866713000000002	6.057285	0.0	12000.0	True	0.0	None	0.0	None	0.0	None	0.0	None	0.0	None	0.0	None	0.0	None	0.0	None	2.6788e-06	12
2014-03-09 22:36:00	108.63367613843913	825229293.84	4.8822184278019e+21	2113116281314.239	8.284542739810584	656012931910.0966	1.215893578152516e+21	-5.044139824176006e+23	1989.311025693023	-0.4602565011489293	21.078191797235604	4.870129870129872	37.836148130081504	157.73321421388715	165.20929518337255	77.99340616439395	0.0044829776730576755	-7.864464336735923e+22	0.6846399845711416	0.013749748484532255	1.9028130348973167e+22	0.07175992270650244	-0.017362367030051142	0.0	14.955507	14.774757	-14.117431	-8.553873	-7.86614	6.151632	0.0	12000.0	True	0.0	None	0.0	None	0.0	None	0.0	None	0.0	None	0.0	None	0.0	None	0.0	None	4.9271e-06	12
2014-03-09 22:48:00	110.80647939794413	782379989.0753	4.7007451087937423e+21	2188938451824.617	7.300596526413674	1011650994868.9784	1.1591523293231203e+21	-4.685366235982407e+23	1974.1213226020727	-0.4509342635011396	21.20250194197197	4.350250976017846	38.11296628789144	159.7092070488875	166.3410743808713	78.40956720034295	0.004071721431351743	-6.2621337858100406e+22	1.0881527231330943	0.012862425506826298	1.7685479308689137e+22	0.060268729154270034	-0.017021057021076643	0.0	14.958185	14.664635999999998	-14.119034	-8.458899	-7.866141000000002	6.273793	0.0	12000.0	True	0.0	None	0.0	None	0.0	None	0.0	None	0.0	None	0.0	None	0.0	None	0.0	None	5.2569000000000004e-06	12
2014-03-09 23:00:00	107.03885874605541	751847964.4258	4.5911111156328384e+21	2086402735949.54	6.585027946037204	1052400597945.9364	1.1388535015923256e+21	-4.642954874605586e+23	1995.9854374108097	-0.4649988584399538	21.320917228950293	3.9838337182448034	36.348104870259576	157.35866553236897	163.66430515487352	76.85468859699449	0.003801979183624253	-6.831892747956269e+22	1.1718172949301844	0.011956946981503305	1.6243027766217479e+22	0.06842242525679798	-0.016267634669917444	0.0	14.960889000000002	14.554539000000002	-14.121006	-8.336756	-7.866536999999999	6.3952839999999975	0.0	12000.0	True	0.0	None	0.0	None	0.0	None	0.0	None	0.0	None	0.0	None	0.0	None	0.0	None	2.8916000000000012e-06	12
2014-03-09 23:12:00	120.49729182493724	786801231.9316001	4.566870647456683e+21	2412146809196.879	10.960047671709557	1236250656700.1057	1.2406875269122323e+21	-5.09801816998712e+23	1768.9273773050638	-0.4878922292233673	20.798847406978656	4.372427983539095	36.211686385329344	155.49885058132548	161.6465161957521	74.96236729474862	0.0056378846047888675	-7.780575357961581e+22	1.2263769512800171	0.018724314711318912	2.07797175981616e+22	0.07446192087710557	-0.01988667439689552	0.0	14.963663	14.444464000000002	-14.122039	-8.214611	-7.8659789999999985	6.516794	0.0	12000.0	True	0.0	None	0.0	None	0.0	None	0.0	None	0.0	None	0.0	None	0.0	None	0.0	None	3.0443000000000002e-06	12
2014-03-09 23:24:00	116.37350241063282	753162426.0837001	4.307490602078672e+21	2327480664458.793	10.291386567809477	1082761133273.2076	1.200472330580901e+21	-4.918458576757662e+23	1724.3402634989216	-0.4917312380919838	20.558125471195048	4.30622009569378	35.96669270931049	152.6594859100532	159.9021964812691	72.05160198366083	0.005471231561833852	-8.261698451244584e+22	1.1100537797399523	0.018319965742823217	1.4215789466004876e+22	0.08259773147975198	-0.014212476623482562	0.0	14.966415	14.334415	-14.123048999999998	-8.117301	-7.865661999999999	6.6384940000000014	0.0	12000.0	True	0.0	None	0.0	None	0.0	None	0.0	None	0.0	None	0.0	None	0.0	None	0.0	None	2.1693e-06	12
2014-03-09 23:36:00	112.22985473180073	738857476.9559001	4.2388653588771693e+21	2343852859336.961	15.12422968449146	1360894195490.6194	1.1925419681725785e+21	-4.722016682814015e+23	1638.5062048476382	-0.4812317416671718	20.870508924593974	4.158110882956879	36.957382432859546	151.36839710947245	158.2859079743862	70.58824441475598	0.0077639782774596815	-7.232083425990392e+22	1.347168295874227	0.027638825069783345	2.0135560317465755e+22	0.07370385021379479	-0.0205206194977776	0.0	14.969191	14.224391	-14.124709	-7.996834	-7.868207000000001	6.760489	0.0	12000.0	True	0.0	None	0.0	None	0.0	None	0.0	None	0.0	None	0.0	None	0.0	None	0.0	None	1.9334e-06	12
2014-03-09 23:48:00	116.32603051747844	744274918.1487	4.11535254061293e+21	2447624123155.216	13.539596292421706	826404968703.7007	1.2219347799913084e+21	-4.953669311855734e+23	1570.6063744923895	-0.5011653351534503	20.552808511434087	4.86568677141409	35.6379099956496	150.2193008722409	158.11358587213306	69.950816419771	0.006862441101075369	-8.299753471152336e+22	0.7491543715338072	0.02423671746333747	1.2689470967396646e+22	0.08396904331312399	-0.012838004658637426	0.0	14.971994	14.114394	-14.125693	-7.872428999999999	-7.893228999999999	6.8843770000000015	0.0	12000.0	True	0.0	None	0.0	None	0.0	None	0.0	None	0.0	None	0.0	None	0.0	None	0.0	None	2.7319e-06	12
2014-03-10 00:00:00	112.34185932804924	724788739.3851	4.156270841187451e+21	2438758193131.314	13.982811524613615	976251143030.896	1.2009106239552e+21	-4.672056907762034e+23	1532.6234855089886	-0.4853824398093736	21.62369490483488	5.9255631733594525	36.85466438520504	147.1695085274984	154.08410200059615	69.99517056749909	0.006847606035560047	-9.321796433971327e+22	0.9218580825543944	0.025976149597555988	1.2435564819732821e+22	0.09684463151572936	-0.012919373440382258	0.0	14.974823	14.004423	-14.098536	-7.775836	-7.891685000000002	7.006061999999999	0.0	12000.0	True	0.0	None	0.0	None	0.0	None	0.0	None	0.0	None	0.0	None	0.0	None	0.0	None	2.1652e-06	12
2014-03-10 00:12:00	105.24038389774269	685553431.7001001	3.8944608508658e+21	2256669443439.5366	13.852661377827252	1141289142928.1023	1.1208362595255072e+21	-4.4135911568561046e+23	1589.4194042267522	-0.4847728963549021	20.675598913730237	4.769647696476965	36.31727600980057	153.617969371708	160.14862472928405	72.17244618002431	0.007508217548957861	-8.458073107898183e+22	1.0672602011087118	0.02721835496470111	1.653306986834453e+22	0.09290041719718332	-0.018159326228631558	0.0	14.977729	13.894479	-14.098969	-7.655467999999999	-7.8910339999999985	7.127004	0.0	12000.0	True	0.0	None	0.0	None	0.0	None	0.0	None	0.0	None	0.0	None	0.0	None	0.0	None	1.3778e-06	12
2014-03-10 00:24:00	108.78003812223758	689888064.2874	3.849334946493417e+21	2259132141539.4585	5.3818095328549145	1296054762148.914	1.1218518398534544e+21	-4.5212806658696674e+23	1600.4964850688566	-0.4934808551272074	20.401805608947345	3.865267807840972	36.15704177649327	155.35527772479318	160.9996701650651	72.12620012100902	0.00297173359075368	-8.365853586957843e+22	1.3798578634170957	0.010446721770321616	1.0266488308081753e+22	0.0913101593786343	-0.011205487568313029	0.0	14.980612	13.784562	-14.098529	-7.534064	-7.889017	7.248005	0.0	12000.0	True	0.0	None	0.0	None	0.0	None	0.0	None	0.0	None	0.0	None	0.0	None	0.0	None	1.1995e-05	12
2014-03-10 00:36:00	103.86823309009992	676561078.916	3.867842203771893e+21	2206750067935.4717	5.771308730154992	411783065211.7636	1.1175669312181853e+21	-4.405099530165095e+23	1594.107542025308	-0.49027091669720896	20.246263853876666	3.2293377120963327	35.704662079534934	152.24848445071777	158.56700561208103	69.37051291154066	0.003158899140752596	-8.527849690427266e+22	0.3216658733062202	0.01144806446970316	1.635906645696129e+22	0.09491174164287478	-0.018207022232399787	0.0	14.983522	13.674673	-14.099398999999998	-7.411327	-7.888532	7.367782000000001	0.0	12000.0	True	0.0	None	0.0	None	0.0	None	0.0	None	0.0	None	0.0	None	0.0	None	0.0	None	8.7118e-06	12
2014-03-10 00:48:00	106.4943277144383	691594849.7593	3.9095787601569886e+21	2343410846828.627	9.744748742306893	1227287808998.7048	1.1656384165854408e+21	-4.614523112872935e+23	1506.5820693080136	-0.5024148439570238	20.362841767829888	3.480040941658137	35.640710176500676	147.67803465283978	153.84327508859369	68.6507539646103	0.004987077145499945	-8.889510247214573e+22	1.2109378494887424	0.018756811986971232	8.401963714759477e+21	0.09678620725182734	-0.009147795309351815	0.0	14.986462	13.564812	-14.101534	-7.314792	-7.889264	7.464747999999997	0.0	12000.0	True	0.0	None	0.0	None	0.0	None	0.0	None	0.0	None	0.0	None	0.0	None	0.0	None	3.8903e-06	12
2014-03-10 01:00:00	102.04913574989608	677962053.9358001	3.88113268897896e+21	2212380274953.108	9.617713154259906	705400965090.8141	1.1325884241130328e+21	-4.529772246852438e+23	1550.3670988481833	-0.5031047145309687	20.980245279230694	4.880636604774536	35.83537973710001	147.18199320931532	153.63814776919816	67.06640644422302	0.0051022350950980936	-8.432042037954661e+22	0.7214561362426768	0.018875879322821285	2.595513822487092e+22	0.09365150986048022	-0.0288273928480822	0.0	14.989428	13.454978	-14.102352	-7.1918820000000006	-7.88876	7.586772	0.0	12000.0	True	0.0	None	0.0	None	0.0	None	0.0	None	0.0	None	0.0	None	0.0	None	0.0	None	3.1041e-06	12
2014-03-10 01:12:00	111.03193625043801	715878859.303	4.055056668577689e+21	2330506472146.786	10.523925313017992	1413185927973.5264	1.1845808409915983e+21	-4.854571682147795e+23	1562.6435294076396	-0.5106213040397688	21.124001363002826	6.038894575230298	36.1326626890964	148.4832179400151	155.33902935914855	68.90893971684571	0.005385836905331625	-7.566908935599215e+22	1.3942650290218594	0.019463126725012717	1.517956812783006e+22	0.07959146885099422	-0.015966415535064955	0.0	14.992423	13.345173	-14.102023999999998	-7.070127	-7.887503	7.707639	0.0	12000.0	True	0.0	None	0.0	None	0.0	None	0.0	None	0.0	None	0.0	None	0.0	None	0.0	None	3.1781e-06	12
2014-03-10 01:24:00	103.27078831933252	699630945.8340001	3.93200389054732e+21	2282402008023.754	12.703815502483954	924954200185.072	1.1695906566168562e+21	-4.6058270334308685e+23	1515.9998016625311	-0.4957081538149794	20.48880725440893	3.635432667690732	35.97131830099885	145.92991456377433	152.25841750830068	69.15471749712135	0.0065047698425417105	-8.284100047121164e+22	0.9130061602679228	0.024279978706725148	9.404751286523252e+21	0.08915870940377234	-0.010121986482542254	0.0	14.995445000000002	13.235395	-14.074067	-6.948409	-7.886360000000002	7.827131	0.0	12000.0	True	0.0	None	0.0	None	0.0	None	0.0	None	0.0	None	0.0	None	0.0	None	0.0	None	3.2327999999999998e-06	12
2014-03-10 01:36:00	102.77736538141735	663680554.1370001	3.73046507751732e+21	2213844067047.1577	12.927893585873285	1175416117066.6008	1.1034100111467604e+21	-4.289225002244522e+23	1506.161693486784	-0.4866393139512272	20.6206231763891	4.235924932975872	36.49207091950435	149.95514584302714	155.6890765751863	69.55173539735597	0.006931846426741707	-8.999600582929504e+22	1.2149371870165648	0.0262055366495183	9.512620325284707e+20	0.10210607863238894	-0.001079266074069934	0.0	14.998496	13.125646	-14.074236	-6.851782000000001	-7.888167	7.924158999999999	0.0	12000.0	True	0.0	None	0.0	None	0.0	None	0.0	None	0.0	None	0.0	None	0.0	None	0.0	None	2.8762e-06	12
2014-03-10 01:48:00	111.56954534068755	724729858.8159001	3.933709958262995e+21	2360975698588.426	11.966285241120591	889480968771.7546	1.2239856321455614e+21	-4.943479123291238e+23	1487.7107369541695	-0.5136224191580574	19.959912720837238	3.9678553490708186	34.73613228620384	150.2326416413662	157.8707488014457	69.33994395500666	0.006010188468669308	-8.657834184062442e+22	0.8611757100146803	0.02181703057748061	1.6455233722919061e+22	0.08995401067511492	-0.017096819348859645	0.0	15.001624	13.015924	-14.075847	-6.7291089999999985	-7.911688000000002	8.046163	0.0	12000.0	True	0.0	None	0.0	None	0.0	None	0.0	None	0.0	None	0.0	None	0.0	None	0.0	None	3.7412e-06	12
2014-03-10 02:00:00	107.25642243731885	684521041.1286	3.6774344174940423e+21	2371641129349.1064	9.182324886268573	969507951050.6658	1.1601735297783936e+21	-4.535154866782624e+23	1409.9081599384451	-0.4988760913753192	20.36634447235713	5.244399185336048	36.20725275123266	148.7542019740552	156.17313427157742	67.85422601958425	0.0046753181701978475	-8.42044380650007e+22	0.9515283336682412	0.017899055555264918	2.73744628814308e+21	0.09262656330879422	-0.0030112455796851892	0.0	15.004728	12.906229	-14.075766	-6.608642	-7.9107059999999985	8.165933	0.0	12000.0	True	0.0	None	0.0	None	0.0	None	0.0	None	0.0	None	0.0	None	0.0	None	0.0	None	2.4004e-06	12
2014-03-10 02:12:00	102.32225344811752	659197910.0161	3.686389388535689e+21	2320107574140.5107	12.039600275764766	928821158697.2128	1.1442136350645375e+21	-4.326814712720208e+23	1414.7821785600809	-0.4942422321298663	21.276753622373697	6.014271151885831	35.90522137286172	145.05758482159388	151.58597532537385	68.09126050974653	0.006136391577861756	-9.202555764856954e+22	0.9124952471046038	0.024445855219563058	-9.77157431498723e+18	0.10511870751366244	1.1161847736775172e-05	0.0	15.007863	12.796563	-14.075069	-6.485417	-7.90891	8.288385	0.0	12000.0	True	0.0	None	0.0	None	0.0	None	0.0	None	0.0	None	0.0	None	0.0	None	0.0	None	2.0132e-06	12
2014-03-10 02:24:00	103.08676383836399	667941209.3261001	3.909976907171924e+21	2338947280875.372	9.226185098468457	729775753948.5441	1.1442482799775288e+21	-4.281826737033778e+23	1478.7351311402624	-0.4827011234003547	22.139553056280125	6.8809643395278774	36.854311115843366	142.2519008167275	148.8987776411619	66.33145888614982	0.0046339453030981685	-7.770703820087952e+22	0.5352299860508986	0.018632035535132367	-1.195512906676204e+22	0.08760110331242232	0.013477318409478526	0.0	15.011023000000002	12.686922	-14.075389	-6.362648	-7.907808	8.411223	0.0	12000.0	True	0.0	None	0.0	None	0.0	None	0.0	None	0.0	None	0.0	None	0.0	None	0.0	None	1.7152000000000001e-06	12
