Timestamp	TOTUSJH	TOTBSQ	TOTPOT	TOTUSJZ	ABSNJZH	SAVNCPP	USFLUX	TOTFZ	MEANPOT	EPSZ	MEANSHR	SHRGT45	MEANGAM	MEANGBT	MEANGBZ	MEANGBH	MEANJZH	TOTFY	MEANJZD	MEANALP	TOTFX	EPSY	EPSX	R_VALUE	CRVAL1	CRLN_OBS	LAT_MIN	LON_MIN	LAT_MAX	LON_MAX	QUALITY	NOAA_AR	IS_TMFI	BFLARE	BFLARE_label	CFLARE	CFLARE_label	MFLARE	MFLARE_label	XFLARE	XFLARE_label	BFLARE_loc	BFLARE_label_loc	CFLARE_loc	CFLARE_label_loc	MFLARE_loc	MFLARE_label_loc	XFLARE_loc	XFLARE_label_loc	XR_MAX	XR_QUAL
2014-02-18 04:12:00	20.786655392013415	131010236.0669	8.932072379092026e+20	426161858138.4793	0.26162063266988034	51838762115.74089	2.322329413316544e+20	-9.901082345375073e+22	1894.5728949386469	-0.5690689401401375	21.103735317062725	4.225352112676056	30.341820981353468	145.48162384149305	147.79192910339498	64.93714169746937	0.0007369595286475502	-4.6428291573633155e+22	-0.28412108517145784	0.0025453923377618697	-1.6586478722435349e+22	0.2668485904540149	0.09533149546667732	0.0	275.757172	275.147064	-23.24795	1.120038	-20.478718	6.088674	0.0		True	0.0	None	0.0	None	0.0	None	0.0	None	0.0	None	0.0	None	0.0	None	0.0	None	1.2821000000000002e-06	12
2014-02-18 04:24:00	18.339866673473	133497093.5846	7.679473155391906e+20	364818216686.6419	2.175266851358981	102943306640.99173	2.318894705825357e+20	-1.0177489696925604e+23	1666.4390660842892	-0.5740587581139708	18.907590484280007	0.2881844380403458	30.818618392665925	147.90208875234168	152.92552506947834	66.32817069723022	0.0062687805514668035	-4.667761060636063e+22	0.5772115631430809	0.020703786792912567	-1.3609501561572943e+22	0.2632838939105905	0.07676405280318528	0.0	275.758728	275.037842	-23.245588	1.248482	-20.507048	6.1876120000000014	67584.0		False	0.0	None	0.0	None	0.0	None	0.0	None	0.0	None	0.0	None	0.0	None	0.0	None	1.3127000000000002e-06	12
2014-02-18 04:36:00	19.306598128626078	139225200.94550002	8.380176735783744e+20	392394609585.3717	1.0597183690412741	32255183274.14633	2.40071103018726e+20	-1.0679159812603563e+23	1733.561963816143	-0.5775728998888479	20.47245540359369	3.8461538461538463	31.988097379385053	150.30279662588777	154.16766986945308	67.73355692418968	0.002911314200662841	-4.950044957834114e+22	-0.1724067211115297	0.00964968568516374	-1.136906938643385e+22	0.2677187972692578	0.06148860481337087	0.0	275.760284	274.928619	-23.216135	1.3471540000000002	-20.506092	6.285336	0.0		True	0.0	None	0.0	None	0.0	None	0.0	None	0.0	None	0.0	None	0.0	None	0.0	None	1.5315e-06	12
2014-02-18 04:48:00	20.11078315630404	145361575.9353	8.888642015079474e+20	404687714626.3571	2.2307617197559413	58476842230.83495	2.4721354557351064e+20	-1.1130095721331585e+23	1799.2020612395581	-0.5765496872901459	21.362255702806817	3.7634408602150535	31.77350532897825	152.55467394983043	157.0866280959709	71.16154915782636	0.005996671289666509	-5.053130285695826e+22	0.3058348607918901	0.019468204229683855	-1.071885292949204e+22	0.26175701979549043	0.055524691425280416	0.0	275.761871	274.819427	-23.214294	1.474601	-20.505013	6.382342	0.0		True	0.0	None	0.0	None	0.0	None	0.0	None	0.0	None	0.0	None	0.0	None	0.0	None	1.4145e-06	12
2014-02-18 05:00:00	22.193568501444744	147301090.4777	8.535130748667936e+20	443955721408.0664	4.804501595947148	309041900946.9584	2.49476173839746e+20	-1.098875008527539e+23	1700.22301214368	-0.5617328807964707	20.00218442145005	1.3227513227513228	32.31199919496094	156.45469081775317	161.10359193646195	75.0709621931292	0.012710321682399864	-4.754588250696842e+22	1.5906044333078628	0.04177011025697247	-1.1540559974482886e+22	0.24304934904687625	0.05899407985588246	0.0	275.763519	274.710266	-23.212776	1.600905	-20.504282	6.477639	0.0		True	0.0	None	0.0	None	0.0	None	0.0	None	0.0	None	0.0	None	0.0	None	0.0	None	1.2044e-06	12
2014-02-18 05:12:00	18.4469926116913	141383197.4715	7.988524977588955e+20	380859970545.5386	0.7253472698914201	10946983416.315872	2.4555856067335274e+20	-1.0675559257214454e+23	1578.8070023480466	-0.568565179032	19.905907050384094	2.0997375328084	32.02337873343305	149.35957275982858	152.1160064383628	68.879863052197	0.0019037986086388981	-5.053935235382527e+22	-0.055898106348725086	0.006541473816298618	-7.228670174542252e+21	0.2691654388016738	0.03849887441891543	0.0	275.765076	274.60107400000004	-23.212206	1.72793	-20.504269	6.574818	0.0		True	0.0	None	0.0	None	0.0	None	0.0	None	0.0	None	0.0	None	0.0	None	0.0	None	1.0852e-06	12
2014-02-18 05:24:00	18.629064233682183	144608374.73479998	8.814839434521667e+20	405845396975.1272	2.358094686102718	175155109928.4216	2.5548308602647504e+20	-1.0379348896595662e+23	1607.1329467492847	-0.5404606955989248	20.101528596685704	1.6949152542372878	33.12194064869057	149.11927238476306	150.2854325365137	69.29725996817984	0.005709672363444838	-5.40900180586063e+22	0.8250723178677783	0.02117128255302539	-1.0873961443473156e+22	0.2816508923262143	0.05662155520740785	0.0	275.766754	274.491943	-23.209892	1.855619	-20.503132	6.6719649999999975	0.0		True	0.0	None	0.0	None	0.0	None	0.0	None	0.0	None	0.0	None	0.0	None	0.0	None	1.2009e-06	12
2014-02-18 05:36:00	18.94241414143939	140576480.0151	7.90546490833984e+20	376152688372.3965	1.0213978981350211	40969936130.6287	2.395655235812128e+20	-1.0102125996279057e+23	1644.3956196354122	-0.5411125203812842	19.1831751714052	1.3812154696132597	32.126399480456534	159.06224554009918	163.014689196688	73.58228573391474	0.0028215411550691185	-4.923784102380505e+22	0.22017508018879736	0.009429267189600887	-1.0525422547264053e+22	0.26373866515164945	0.05637860708454704	0.0	275.768372	274.382782	-23.207048	1.983446	-20.50094	6.7688770000000025	0.0		True	0.0	None	0.0	None	0.0	None	0.0	None	0.0	None	0.0	None	0.0	None	0.0	None	1.118e-06	12
2014-02-18 05:48:00	17.56062985998294	133989204.0402	7.631425400530925e+20	357463444577.17896	2.7066742868082336	179572558412.58136	2.3411527951249746e+20	-9.996341508591252e+22	1553.071101569789	-0.5617701733657351	20.167435331982244	2.4324324324324325	32.35211907804305	150.50623909958475	151.48953171369774	67.97078072941953	0.007315335910292524	-4.8171217309569e+22	0.9441529942385788	0.02586896547590415	-9.605086036696402e+21	0.27071057022189216	0.05397825637899956	0.0	275.769989	274.273651	-23.176794	2.110938	-20.49971	6.865475	0.0		True	0.0	None	0.0	None	0.0	None	0.0	None	0.0	None	0.0	None	0.0	None	0.0	None	9.9531e-07	12
2014-02-18 06:00:00	16.519469807494396	128328807.1185	7.368254156790344e+20	345912184910.2749	1.048970173015003	7783414853.972576	2.266283216444017e+20	-9.704271851730457e+22	1580.6835517541174	-0.5694115205623688	19.104641121107218	2.2792022792022792	31.95182630764399	157.5490035589555	159.4195235558823	68.20486430856451	0.002988519011438755	-4.668105074695438e+22	-0.04313805732774058	0.010416747605386092	-7.967986731703119e+21	0.2739074965478481	0.046753259904923294	0.0	275.771667	274.16452000000004	-23.177387	2.239326	-20.50119	6.96307	66560.0		False	0.0	None	0.0	None	0.0	None	0.0	None	0.0	None	0.0	None	0.0	None	0.0	None	1.0593e-06	12
2014-02-18 06:12:00	17.28529366229268	126133981.8531	6.723710594539132e+20	365813944315.7619	2.4766599590038862	127564922420.79248	2.2781907541292728e+20	-9.707804661503227e+22	1410.2691674702537	-0.5795305978640479	18.597308162078303	0.8356545961002786	31.134223370142628	148.8809722953189	152.76642136920103	65.49984249153638	0.00689877425906375	-4.26335257010654e+22	0.691239073700473	0.02486200956963762	-1.1654912302684003e+22	0.2545110197423853	0.06957678414783441	0.0	275.773346	274.055389	-23.175447	2.367315	-20.527777	7.0601970000000005	66560.0		False	0.0	None	0.0	None	0.0	None	0.0	None	0.0	None	0.0	None	0.0	None	0.0	None	1.2695e-06	12
2014-02-18 06:24:00	18.38952178673848	128674426.2236	7.906415763921909e+20	383167587254.69104	2.590592389076784	80396130395.82169	2.3013673178749128e+20	-9.78711664254732e+22	1613.395411414732	-0.5727301673491634	20.903863385970197	5.149051490514905	31.712657183328954	155.42466369189071	155.25194327193554	68.07208579127803	0.007020575580153886	-4.504056134914035e+22	0.4238331150368448	0.02560251464858281	-1.1701522283764572e+22	0.2635718892615485	0.06847588580569064	0.0	275.774963	273.946259	-23.173868	2.495613	-20.527149	7.157657	0.0		True	0.0	None	0.0	None	0.0	None	0.0	None	0.0	None	0.0	None	0.0	None	0.0	None	1.958e-06	12
2014-02-18 06:36:00	17.804336189130574	123714808.3427	7.499806938194439e+20	374181677903.43335	3.6153418803184616	246193109369.4559	2.3270274802996527e+20	-9.430776063686352e+22	1470.6400939350872	-0.5740018450013645	19.7861431770495	1.8229166666666667	31.105077296187467	142.53467822628167	143.78474900961658	61.195815542506104	0.009414952813329328	-4.438339351778343e+22	1.2471709016883596	0.03713235073939308	-1.2171962412052358e+22	0.2701384233342831	0.07408434719076874	0.0	275.776642	273.837128	-23.173063	2.62368	-20.52734	7.2548949999999985	0.0		True	0.0	None	0.0	None	0.0	None	0.0	None	0.0	None	0.0	None	0.0	None	0.0	None	1.3763999999999999e-06	12
2014-02-18 06:48:00	14.464243389129296	113298219.0575	7.126938484311588e+20	329690532219.9968	1.2784306084386103	68622786978.74236	2.18735844906192e+20	-8.698276398608235e+22	1442.6051418375894	-0.5780927542882176	20.338053330845455	4.301075268817205	31.336366328539924	139.93163878134644	141.07860473434894	58.092303740404475	0.0034366414205338988	-4.334958335485292e+22	0.35884128153422523	0.014300510681499838	-1.260594106232994e+22	0.2881039747468053	0.08377985310150958	0.0	275.77829	273.727997	-23.14208	2.750385	-20.524839	7.350675999999999	0.0		True	0.0	None	0.0	None	0.0	None	0.0	None	0.0	None	0.0	None	0.0	None	0.0	None	1.0712e-06	12
2014-02-18 07:00:00	18.90679486080493	129466032.0037	7.859747766082567e+20	422801348604.8916	3.5798667586429818	284022798741.6052	2.5480113962424386e+20	-1.0409186990875154e+23	1392.5382132144973	-0.6054083624178734	20.50026121106913	4.235294117647058	30.430239988169717	136.8390662033471	138.8050097601365	57.26259797465806	0.008423215902689372	-4.713427454069143e+22	1.2999832706527619	0.034447324796474894	-1.5690204766015672e+22	0.2741374901656497	0.09125574534996447	0.0	275.779877	273.618835	-23.140549	2.849894	-20.524588	7.4483130000000015	0.0		True	0.0	None	0.0	None	0.0	None	0.0	None	0.0	None	0.0	None	0.0	None	0.0	None	1.1306e-06	12
2014-02-18 07:12:00	20.95617014495105	132934895.2351	8.339090123626419e+20	438076350663.0247	2.6820229141302394	207361620760.47687	2.533096775179376e+20	-1.0702320590185955e+23	1513.0662654543396	-0.6062145228954292	20.588601119531656	4.337349397590361	30.537457827198054	148.40205139454918	150.74827122118987	61.07551560027122	0.0064627058171813	-4.543417852058483e+22	0.971965441308048	0.025121752559725083	-1.6091568509597371e+22	0.2573540815088172	0.0911479192244529	0.0	275.781555	273.509705	-23.138643	2.94672	-20.524017	7.571919999999999	0.0		True	0.0	None	0.0	None	0.0	None	0.0	None	0.0	None	0.0	None	0.0	None	0.0	None	1.1264e-06	12
2014-02-18 07:24:00	21.067620407096875	122593275.6507	7.5806710809146e+20	472277583360.6293	2.8714410680170985	192632217373.14166	2.396145440505906e+20	-9.534284319949433e+22	1412.907800234099	-0.585610673748973	21.272360689368533	3.96039603960396	31.04538301958319	151.96260052422804	155.31240362293943	61.88213388927866	0.007107527396081928	-3.7989086819893476e+22	0.9275044999299156	0.029543823022053432	-1.8718007414454288e+22	0.23333492038995585	0.1149689328047539	0.0	275.783173	273.400574	-23.134977	3.042803	-20.550919	7.670694	67584.0		False	0.0	None	0.0	None	0.0	None	0.0	None	0.0	None	0.0	None	0.0	None	0.0	None	9.8277e-07	12
2014-02-18 07:36:00	20.87943667994932	113460435.0258	6.665553216758225e+20	442339141850.9523	6.533271179020039	471099399731.6929	2.196565836371156e+20	-9.31245258707161e+22	1405.9033224261225	-0.6180265087301571	19.941428595317714	3.0812324929971986	29.526696304404783	144.47267513777746	147.37399417506862	61.19521420037833	0.01830047949305333	-3.412973997522387e+22	2.5669130804289195	0.07117551262373731	-1.6132559081384398e+22	0.2265040690788485	0.10706469721835396	0.0	275.784821	273.29141200000004	-27.139681	-3.527436	-20.547459	7.795838000000002	0.0		True	0.0	None	0.0	None	0.0	None	0.0	None	0.0	None	0.0	None	0.0	None	0.0	None	9.352500000000001e-07	12
2014-02-18 07:48:00	19.58775337723711	107833570.0355	5.990685525823272e+20	418269668478.9713	3.57957408171678	190041299850.6516	2.0668345414465808e+20	-8.903141880006502e+22	1362.8121461028309	-0.6216941455785046	19.50772385513254	2.114803625377644	29.61585192617973	148.96666271148118	153.27090781541202	58.4196310128858	0.010814423207603565	-3.272018289434067e+22	1.1168269826040271	0.040939111981203695	-1.5719806681884748e+22	0.228480534420672	0.10976924680601033	0.0	275.786438	273.18225099999995	-27.139090000000003	-3.395345	-20.546947	7.8970660000000015	0.0		True	0.0	None	0.0	None	0.0	None	0.0	None	0.0	None	0.0	None	0.0	None	0.0	None	1.0101999999999999e-06	12
2014-02-18 08:00:00	14.570611390420499	97959385.1848	5.51464900913376e+20	315432422475.6791	5.387381981289778	406521898499.9421	1.8952480567761463e+20	-7.752769864033717e+22	1343.8378227308674	-0.5959341937566408	19.52788148327752	1.6181229773462782	30.38739299497324	138.91990971151606	143.08669418870355	54.407306686715145	0.01743489314333261	-2.9586130634859436e+22	2.5591226007513463	0.06892023260357343	-1.7936615166617535e+22	0.22742048603890985	0.1378738500626654	0.0	275.787994	273.073059	-27.139198	-3.262389	-20.576103	8.022902	0.0		True	0.0	None	0.0	None	0.0	None	0.0	None	0.0	None	0.0	None	0.0	None	0.0	None	1.0183e-06	12
2014-02-18 08:12:00	15.831333202846595	102348324.1024	6.00839644371662e+20	348441383226.3003	3.1280597414444844	194457474807.2094	1.9674690981281785e+20	-8.187798584335909e+22	1445.4456420014214	-0.6023847048938076	19.69730606112395	1.5974440894568689	30.24721036189873	136.97065737044514	144.47217209753455	53.166802158129606	0.009993801090876948	-3.097134620363769e+22	1.2084992031250652	0.03814674690694697	-1.6168704434819492e+22	0.2278593574435787	0.11895481000371852	0.0	275.789642	272.963898	-27.139088	-3.129273	-20.632879	8.125386	0.0		True	0.0	None	0.0	None	0.0	None	0.0	None	0.0	None	0.0	None	0.0	None	0.0	None	1.0017e-06	12
2014-02-18 08:24:00	18.47663645409703	108328705.87280002	6.415279196672532e+20	396052554345.9501	4.326914261961187	246928602979.63275	2.0572789380249947e+20	-8.615619395022634e+22	1477.254388334258	-0.5988670654847099	19.498227986812765	0.6116207951070336	30.268287523866363	142.8530642981036	148.6589701756811	59.509590523373184	0.013232153706303323	-3.133247775872848e+22	1.4688947997406372	0.0499634447896737	-1.932426142466184e+22	0.2177903659552892	0.13432190074148714	0.0	275.791229	272.854675	-27.139856	-2.994883	-20.633022	8.250871	0.0		True	0.0	None	0.0	None	0.0	None	0.0	None	0.0	None	0.0	None	0.0	None	0.0	None	1.0148e-06	12
2014-02-18 08:36:00	15.836240006681516	99923531.3754	6.16590047965822e+20	336973256142.6525	3.9641016369488846	255917802942.14	1.8103365241531485e+20	-7.369110037186779e+22	1629.0676041431561	-0.5553090153162921	19.74523269485286	1.4035087719298245	31.58601766189054	153.59418616572938	158.97886683023856	66.00840858234426	0.013909128550697841	-2.7761255934780647e+22	1.7467241453831597	0.05101410988612263	-1.9169082056847697e+22	0.2091986090490221	0.14445114848046192	0.0	275.792755	272.745453	-27.140076	-2.86255	-20.632704	8.350978	0.0		True	0.0	None	0.0	None	0.0	None	0.0	None	0.0	None	0.0	None	0.0	None	0.0	None	9.5931e-07	12
2014-02-18 08:48:00	13.812716460032284	97537463.1273	4.785180737865475e+20	301236105440.8961	4.794917465500603	318754474447.5229	1.8124637666909897e+20	-7.28404623629828e+22	1205.0765033213886	-0.5623266926669582	18.500916930408682	1.0033444816053512	31.914741995926885	141.16073188560708	148.03715540024422	59.490945055509215	0.016036513262543826	-2.876367374784449e+22	2.0737484799578807	0.06293146228257684	-1.950091533481668e+22	0.22205489919839733	0.15054661747697307	0.0	275.794342	272.63622999999995	-27.14106	-2.728889	-20.658836	8.477528999999999	0.0		True	0.0	None	0.0	None	0.0	None	0.0	None	0.0	None	0.0	None	0.0	None	0.0	None	9.6347e-07	12
2014-02-18 09:00:00	12.738260795453172	97080340.6653	6.010168974804087e+20	275537094181.6571	2.8225220050686417	209180814319.1177	1.7817175548070324e+20	-7.0978466899473834e+22	1582.3706039906424	-0.5505323960714475	19.99299180007529	2.4475524475524475	31.616899684688004	145.65055292385938	150.36234392700078	62.851777932506685	0.009868958059680568	-3.0677362096482046e+22	1.4227539473750364	0.0375020661801066	-1.8166372794855701e+22	0.2379437369934637	0.14090437818054938	0.0	275.79586800000004	272.526978	-27.140839	-2.596118	-20.657295	8.576309	0.0		True	0.0	None	0.0	None	0.0	None	0.0	None	0.0	None	0.0	None	0.0	None	0.0	None	1.0329e-06	12
2014-02-18 09:12:00	13.248074054920584	94176965.4801	5.6962119530740784e+20	288429019717.2477	3.5054475800111744	229527639121.0825	1.7463942700784586e+20	-6.862889119004316e+22	1520.983548874298	-0.5487187161410452	19.6262294866727	0.7092198581560284	31.835790736780186	146.54686241294996	150.3839495573252	62.64399922561413	0.01243066517734459	-3.2441377710973613e+22	1.5833003390481268	0.048068020006101435	-1.3581597620290068e+22	0.25938334160343834	0.10859095462744507	0.0	275.797333	272.417694	-23.11792	4.001315	-20.653313	8.700830999999999	0.0		True	0.0	None	0.0	None	0.0	None	0.0	None	0.0	None	0.0	None	0.0	None	0.0	None	1.1942e-06	12
2014-02-18 09:24:00	12.762082742749211	93360465.3089	5.227386981026103e+20	276558189051.4513	4.0730814854528665	364870261397.8108	1.7595822279603018e+20	-6.946150931331832e+22	1352.6305521808765	-0.5602330658340661	18.807843755247188	0.3436426116838488	31.482245957332946	142.49024406109132	144.67413491204326	61.87894653245196	0.013996843592621535	-3.18475941118723e+22	2.4390856615333147	0.0559243067361278	-1.8037684698603464e+22	0.256862764214543	0.14548067698421402	0.0	275.798859	272.308411	-23.115128	4.099437	-20.650158	8.804037	0.0		True	0.0	None	0.0	None	0.0	None	0.0	None	0.0	None	0.0	None	0.0	None	0.0	None	9.1345e-07	12
2014-02-18 09:36:00	12.570561974472255	92824510.3805	6.096560892732156e+20	294334247401.03125	3.3185878605196324	262422064236.8136	1.769260686283278e+20	-6.638987848652965e+22	1545.6672722444996	-0.5385508942366771	20.611940237854647	2.0202020202020203	32.40845506318979	141.84698176565158	142.86738683415015	60.61525468180429	0.011173696500066102	-3.060325103074287e+22	1.7188190921115027	0.04647386389088204	-1.3998478437698566e+22	0.2482518206822765	0.11355485583702385	0.0	275.800293	272.199097	-27.136011	-2.230338	-20.649523	8.932528	0.0		True	0.0	None	0.0	None	0.0	None	0.0	None	0.0	None	0.0	None	0.0	None	0.0	None	8.9491e-07	12
2014-02-18 09:48:00	9.729934525802893	82399343.30759999	4.89246050879322e+20	220148770054.2984	2.3442362068349936	185098909670.9822	1.6087392787594868e+20	-6.050433763975075e+22	1364.4293602815753	-0.552904662076329	19.95661328739111	1.1111111111111112	31.40789529933197	135.32567599569094	137.7161483100012	56.861191183394716	0.008682356321611087	-2.8698662986898886e+22	1.3336183275233044	0.036640620581680466	-1.1384570560649141e+22	0.26225598328654226	0.1040352210150361	0.0	275.801758	272.089752	-27.136812	-2.0962560000000003	-20.649431	9.032891	0.0		True	0.0	None	0.0	None	0.0	None	0.0	None	0.0	None	0.0	None	0.0	None	0.0	None	2.0234999999999998e-06	12
2014-02-18 10:00:00	9.019170773485493	77044041.39070001	4.502452102501725e+20	202349056539.2877	2.029523337745049	135378071182.62045	1.519458240877533e+20	-5.786493101591069e+22	1345.3525741126398	-0.5655407939225723	19.555303545927394	0.0	30.679205045231427	131.5140486365205	134.39301878973782	54.483919306421505	0.008053664038670827	-2.7543691758784825e+22	1.045069285170414	0.0336527532196931	-1.2335144569629296e+22	0.26919726734900395	0.12055708579588062	0.0	275.803192	271.980377	-27.135771	-1.96394	-20.648001	9.159917	0.0		True	0.0	None	0.0	None	0.0	None	0.0	None	0.0	None	0.0	None	0.0	None	0.0	None	3.3761e-06	12
2014-02-18 10:12:00	9.50725374508965	83070850.1023	4.4144547435287904e+20	215839113298.53027	2.9057120556792437	197549985207.6356	1.6322732791929474e+20	-6.337277938137075e+22	1259.1009856494868	-0.5744358312179929	17.71032948185532	0.0	29.775697973281325	133.25423062143028	136.43838353301507	55.684274453656464	0.011006485059391077	-2.97183922239663e+22	1.4557156409848495	0.044433339112074366	-1.095701791994714e+22	0.2693792114892589	0.09931872576769944	0.0	275.804565	271.871002	-27.104816	-1.830214	-20.648714	9.262117	0.0		True	0.0	None	0.0	None	0.0	None	0.0	None	0.0	None	0.0	None	0.0	None	0.0	None	2.6453e-06	12
2014-02-18 10:24:00	11.714158569317165	86280505.87150002	4.975037935718523e+20	265680773660.6396	2.61787032073353	218873182667.1693	1.7356167270164614e+20	-6.879206932386251e+22	1319.0630576759615	-0.6003619943935715	18.63879803376928	0.3521126760563381	29.06158759872438	131.36672209967472	133.96398179203936	54.23823859016297	0.009217853242019472	-3.0338232946809226e+22	1.4992862820720776	0.037918156370924334	-1.148933498091891e+22	0.26476775909407224	0.10026969869050904	0.0	275.805908	271.761566	-27.13611	-1.697085	-20.670179	9.387973	0.0		True	0.0	None	0.0	None	0.0	None	0.0	None	0.0	None	0.0	None	0.0	None	0.0	None	1.6211000000000005e-06	12
2014-02-18 10:36:00	13.787525731370671	96271212.5984	5.30654146010104e+20	315338144773.1754	2.749289096810706	260424774849.7108	1.976391207104789e+20	-7.749675052407313e+22	1203.5413582422345	-0.6061422984960909	17.97679847453495	0.0	29.04314914230646	137.47381737878575	139.77408113641286	55.249248190978314	0.008280991255453934	-3.1909992282140938e+22	1.5260258348817215	0.03556067072102012	-1.5114803492037004e+22	0.2495846075621087	0.11822072110151392	0.0	275.807281	271.65213	-27.135002000000004	-1.595245	-20.667772	9.489402	0.0		True	0.0	None	0.0	None	0.0	None	0.0	None	0.0	None	0.0	None	0.0	None	0.0	None	1.252e-06	12
2014-02-18 10:48:00	13.553138430815144	95818092.7963	5.5030837593827895e+20	293725986185.6444	3.2143609029510767	236495594207.2859	1.930630265332428e+20	-7.860801925044511e+22	1341.0196892250024	-0.6177415901058891	18.388471589195987	0.3236245954692557	27.96489983939841	135.0240013232222	137.36585805860946	58.34562137637617	0.010402462469097335	-3.2036311620085413e+22	1.4889837137639064	0.041473239494775334	-1.4014728782332283e+22	0.25175754674937034	0.11013483007780653	0.0	275.808563	271.542664	-27.13468	-1.495467	-20.666101	9.614929	0.0		True	0.0	None	0.0	None	0.0	None	0.0	None	0.0	None	0.0	None	0.0	None	0.0	None	1.2542e-06	12
2014-02-18 11:00:00	12.903635202029152	87544387.31670001	4.9646816696471296e+20	293741489519.569	2.3364523678548945	155615549517.48273	1.790721344304571e+20	-6.652242702180471e+22	1229.7175429609476	-0.5721729511761025	18.32717608213667	0.3289473684210526	30.31499667277208	134.6755896693835	136.57087733490343	57.4776518414189	0.007685698578470046	-3.0940922732863057e+22	0.9958936673229142	0.03395144787047467	-1.2007391066268618e+22	0.2661291817625828	0.10327801750318788	0.0	275.809875	271.433167	-27.134195	-1.396413	-20.664267	9.716121	0.0		True	0.0	None	0.0	None	0.0	None	0.0	None	0.0	None	0.0	None	0.0	None	0.0	None	1.0434e-06	12
2014-02-18 11:12:00	11.441855079268455	83886451.70030001	4.579264087284165e+20	260099468967.4611	3.201852619351558	236397840366.27155	1.7224429882665684e+20	-6.7867805068684165e+22	1197.2660134871574	-0.6091993499555451	18.77415206696584	1.3888888888888888	29.12243857249864	135.3711945568799	136.98607310130672	53.537937416410806	0.011117543817192913	-2.8384129898192275e+22	1.5969563465693235	0.04743835929854078	-1.0644858203601973e+22	0.25478344946522	0.09555105976155304	0.0	275.811096	271.32360800000004	-27.133759	-1.29568	-20.662432	9.840758	0.0		True	0.0	None	0.0	None	0.0	None	0.0	None	0.0	None	0.0	None	0.0	None	0.0	None	9.158e-07	12
2014-02-18 11:24:00	12.906960527783024	83886054.8339	4.834250349396229e+20	307853314258.606	2.9927605998320708	292338239205.0413	1.7639282825771984e+20	-6.781609889959705e+22	1209.3445892641898	-0.6087380625088568	18.768777240084823	0.6644518272425249	28.62436532364533	135.51992511170266	136.47369143979674	55.98565192410345	0.009942726245289272	-2.95874795187802e+22	1.8896007839220248	0.04435339478147673	-9.979890841229512e+21	0.26558627300942783	0.08958255507640289	0.0	275.812317	271.214081	-27.13333900000001	-1.1948299999999998	-20.660603	9.94386	0.0		True	0.0	None	0.0	None	0.0	None	0.0	None	0.0	None	0.0	None	0.0	None	0.0	None	8.7175e-07	12
2014-02-18 11:36:00	11.713792521402528	83234059.6399	4.437773230039084e+20	272959460319.9925	1.7624535215156047	124192295912.80666	1.750549966201967e+20	-6.95264590328239e+22	1128.914065476191	-0.628979546702342	18.66124631255289	2.7027027027027017	28.52737315752651	131.92287187312795	134.20590073238606	53.13945348012006	0.005954234869985154	-2.611433217623664e+22	0.8163252161555999	0.025997462460744226	-1.0958502965557355e+22	0.2362464742651309	0.09913742658113024	0.0	275.813538	271.104492	-27.132261	-1.095541	-20.658697	10.043274	0.0		True	0.0	None	0.0	None	0.0	None	0.0	None	0.0	None	0.0	None	0.0	None	0.0	None	9.528e-07	12
2014-02-18 11:48:00	11.32699182288815	75372536.3924	4.6060881517232456e+20	283498158596.8179	2.575106100588921	256733039237.5064	1.6914525734869834e+20	-6.100855681590135e+22	1137.155663695204	-0.6094879649085566	19.66954358863053	0.9836065573770492	28.284757168592318	124.73396350240552	125.74463547916392	47.335896601053456	0.008442970821603021	-2.5509960651816324e+22	1.6377658105270008	0.04245455173870443	-1.318167824148834e+22	0.25484972623578656	0.1316876625967018	0.0	275.814667	270.994873	-27.132729	-0.996429	-20.658281	10.168536	0.0		True	0.0	None	0.0	None	0.0	None	0.0	None	0.0	None	0.0	None	0.0	None	0.0	None	1.2313e-06	12
2014-02-18 12:00:00	11.33914151615143	70120368.9323	4.295930816114669e+20	268107638491.3672	3.002097488888259	298244001546.16473	1.5472531618630487e+20	-5.7838542390405435e+22	1176.2836404970442	-0.6210986987354328	20.09615198135967	1.4545454545454546	29.02763835580357	115.92391928457018	117.0479677222431	47.54897901698197	0.01091671814141185	-2.418878156526648e+22	2.1101762542558853	0.052820333298526936	-1.2990837124818335e+22	0.25975102644832265	0.13950199469492647	0.0	275.815826	270.885223	-27.132355	-0.865315	-20.657064	10.266962	0.0		True	0.0	None	0.0	None	0.0	None	0.0	None	0.0	None	0.0	None	0.0	None	0.0	None	1.1056e-06	12
2014-02-18 12:12:00	9.391195360040314	64248765.5299	3.331981459141456e+20	229791245004.779	1.6522815412348717	132279275874.09552	1.440113265713e+20	-5.426723069694453e+22	957.610139903436	-0.6360046976168511	18.517348098077182	1.1450381679389312	28.114924816693286	120.88308375534464	122.1892195996952	47.63621594617825	0.006306418096316304	-2.265338557334373e+22	0.982381843130511	0.03143870964735175	-1.0686943787904966e+22	0.26549465407645395	0.1252495541965711	0.0	275.816925	270.775513	-27.132196	-0.763415	-20.656092	10.36909	0.0		True	0.0	None	0.0	None	0.0	None	0.0	None	0.0	None	0.0	None	0.0	None	0.0	None	1.0691e-06	12
2014-02-18 12:24:00	10.84535440374712	67324657.4727	4.214245355679393e+20	288900974916.38684	2.8352318038523263	253444346444.0818	1.5620964732146696e+20	-5.478177341424452e+22	1047.2846228297803	-0.6127022472892161	20.79801306357364	4.29042904290429	29.47912606979229	120.16091143863493	121.50014193183144	47.36901950126232	0.009357200672779956	-2.4043656198175064e+22	1.6275720337914563	0.052226416019105014	-1.1374781351116669e+22	0.2689142988175077	0.12722030817718033	0.0	275.817963	270.665802	-27.13340800000001	-0.663135	-20.67688	10.497668	0.0		True	0.0	None	0.0	None	0.0	None	0.0	None	0.0	None	0.0	None	0.0	None	0.0	None	1.0154e-06	12
2014-02-18 12:36:00	10.533584655137322	67688410.6228	4.0585143985107855e+20	263728213363.44397	2.233236967770872	126046343973.23262	1.5613705961576763e+20	-5.870174849431643e+22	1072.283748257525	-0.6530165880643566	19.816528324746002	3.1578947368421053	26.78701599591496	122.04662334908815	124.1140452684805	46.56668560606981	0.007835919185160953	-2.3248344487655792e+22	0.8605896469420656	0.03991841377892665	-1.0458952296057914e+22	0.25862184662086635	0.1163486526088892	0.0	275.819	270.556061	-27.134167	-0.56401	-20.676208	10.594862	0.0		True	0.0	None	0.0	None	0.0	None	0.0	None	0.0	None	0.0	None	0.0	None	0.0	None	9.954e-07	12
2014-02-18 12:48:00	9.660055359721142	58459530.836	3.41625011569349e+20	233871238757.1529	2.8519076247434265	270379712578.5832	1.3320286420598892e+20	-4.948909453799447e+22	1058.5974464250512	-0.637443414230277	19.49651562834041	2.05761316872428	27.87629598003828	127.77636618867666	129.9332145363448	47.71794222993115	0.011736245369314512	-2.0322635832768458e+22	2.165156036987224	0.05958594391638342	-8.754734180464749e+21	0.2617653544146551	0.11276520006623887	0.0	275.820007	270.446259	-27.134172	-0.431533	-20.674782	10.694916	0.0		True	0.0	None	0.0	None	0.0	None	0.0	None	0.0	None	0.0	None	0.0	None	0.0	None	9.8653e-07	12
2014-02-18 13:00:00	9.581163551034976	56165302.3004	4.041465668607192e+20	254903120151.5792	1.6327446141137996	131984711803.44893	1.320343429749102e+20	-4.520552686846617e+22	1193.40038928423	-0.6060534059327511	21.686332796431216	2.3529411764705883	29.512399105027903	124.37407543176019	123.99636213719285	49.61444803090917	0.006402920055348232	-2.054008954905607e+22	1.0071997991422048	0.036200967038983206	-1.124726925904891e+22	0.2753732141114079	0.1507878862184934	0.0	275.820953	270.336456	-27.133549	-0.332014	-20.672764	10.82032	0.0		True	0.0	None	0.0	None	0.0	None	0.0	None	0.0	None	0.0	None	0.0	None	0.0	None	1.2467e-06	12
2014-02-18 13:12:00	9.96836568430716	59913610.8558	3.7998950013419146e+20	251760828396.1912	1.9495412569371235	160278554567.43307	1.4147105737500108e+20	-5.04998707774998e+22	1087.9359755955209	-0.6346762729944673	19.460934822821926	0.7604562737642585	27.537753061628145	125.03883162122114	126.5938623217228	47.92806748717266	0.007412704399000469	-2.0798758597630137e+22	1.1859401483761338	0.03981119122790512	-1.1106431655302503e+22	0.26139628451360314	0.1395842908254696	0.0	275.82193	270.226624	-27.132963	-0.232712	-20.670813	10.920209	0.0		True	0.0	None	0.0	None	0.0	None	0.0	None	0.0	None	0.0	None	0.0	None	0.0	None	1.0097e-06	12
2014-02-18 13:24:00	10.709510933214196	56289833.2428	3.7645586599333344e+20	276146990571.2495	2.347307339364272	170672418281.38007	1.3401920969555763e+20	-4.573602187807027e+22	1086.0780295787856	-0.6118090428986132	20.70886081796369	3.8314176245210727	29.023946389573744	119.50514637083614	122.43110019324548	45.383939417275066	0.008993514710207937	-1.964957396965349e+22	1.2725558716063703	0.05174357156085277	-1.1415304587337764e+22	0.26285161127018497	0.15270209972774176	0.0	275.822815	270.11673	-27.132494	-0.098136	-20.668905	11.022215	0.0		True	0.0	None	0.0	None	0.0	None	0.0	None	0.0	None	0.0	None	0.0	None	0.0	None	1.7537e-06	12
2014-02-18 13:36:00	12.178020688667095	66756901.66070001	4.652901196385435e+20	336238245217.5465	3.1616411709318917	284082174299.4717	1.602510134473045e+20	-5.42068316640768e+22	1098.2990962855106	-0.6114280109666791	21.857237857496013	5.329153605015674	29.321377283980297	114.61947650037531	116.79720098922607	47.39330599744858	0.009911100849316273	-2.234484003700964e+22	1.7330787589445888	0.058780800142838326	-1.2575194827562146e+22	0.2520394695610199	0.14184238637267982	0.0	275.8237	270.006836	-27.131033	0.002497	-20.666626	11.123508	0.0		True	0.0	None	0.0	None	0.0	None	0.0	None	0.0	None	0.0	None	0.0	None	0.0	None	1.5501e-06	12
2014-02-18 13:48:00	11.220618575489787	72227392.6797	4.480029264711773e+20	282429677318.9269	0.5743458079260363	55583566727.80993	1.6842044771898465e+20	-6.0910716775964835e+22	1091.716372820246	-0.6350080408369866	19.929904043352863	3.883495145631069	27.27397874881091	124.62871485126313	126.24805587411257	47.14235229206121	0.001858724297495263	-2.4814314261678924e+22	0.3500772198997585	0.009727060581912328	-1.4282862805948027e+22	0.2586948556520649	0.14890208501909155	0.0	275.824524	269.896881	-27.129898	0.101857	-20.664722	11.246459	0.0		True	0.0	None	0.0	None	0.0	None	0.0	None	0.0	None	0.0	None	0.0	None	0.0	None	1.2144e-06	12
2014-02-18 14:00:00	13.705104631420689	82962781.7793	4.590727594327556e+20	322759676120.3169	3.3651531863230235	256498960247.9205	1.8464209990259743e+20	-7.27116188680399e+22	1093.9108155717097	-0.6599453662962983	18.236342347252574	0.949367088607595	26.54035097231348	132.45534247842465	134.18614232542396	53.29058861187106	0.010649218944060202	-2.5439846638596896e+22	1.579739093803984	0.048871732416280685	-1.4494891007456775e+22	0.2308971959337021	0.13155856387548545	0.0	275.825317	269.786926	-27.130579	0.233427	-20.664696	11.345931	0.0		True	0.0	None	0.0	None	0.0	None	0.0	None	0.0	None	0.0	None	0.0	None	0.0	None	1.1568999999999999e-06	12
2014-02-18 14:12:00	12.213756405360913	77670364.4659	4.3831102878427146e+20	310536801559.26624	0.7916158686356877	2286040080.43985	1.6590619907779638e+20	-6.515005692432375e+22	1170.3634881526266	-0.6316069946219681	18.50507195013654	2.4822695035460995	27.821883174817792	134.22433523915154	137.5584362665252	53.835540510688155	0.002807148470339318	-2.5577410689079307e+22	-0.01577728905536073	0.012493196923489214	-1.181007368518033e+22	0.2479640426762201	0.11449452999289406	0.0	275.826111	269.67691	-27.127459	0.333704	-20.663757	11.457192	0.0		True	0.0	None	0.0	None	0.0	None	0.0	None	0.0	None	0.0	None	0.0	None	0.0	None	1.0424e-06	12
2014-02-18 14:24:00	13.272047742281547	83731306.9643	4.96914650739849e+20	322098890728.43634	3.2911364196941872	291126045601.6587	1.8152095785479625e+20	-6.8397590325881045e+22	1151.293300867164	-0.6150925524482593	18.721313589006574	0.9230769230769232	29.076647891658894	140.11997461934394	141.99900008043372	52.90214356160062	0.010126573599059037	-3.0049415140202833e+22	1.7434363898866296	0.04867327797335758	-1.5147307507815838e+22	0.2702313249648337	0.13621819121565834	0.0	275.826904	269.56689500000005	-27.127546	0.466425	-20.685219	11.580424	0.0		True	0.0	None	0.0	None	0.0	None	0.0	None	0.0	None	0.0	None	0.0	None	0.0	None	1.0762e-06	12
2014-02-18 14:36:00	13.046066620538348	77903729.8405	5.0462269255028965e+20	300302157923.3065	1.6165141015327444	57042746253.537125	1.6698221885076747e+20	-6.597918348721491e+22	1342.6654675528232	-0.6377289961343029	19.313416701404364	1.060070671378092	27.96138653172269	142.01070270982999	143.3483405557883	54.460669642339106	0.005712063963013232	-2.728641518089044e+22	0.3923131619444394	0.025340151305364503	-1.2079862985104906e+22	0.2637398228000957	0.11675923356074347	0.0	275.827576	269.456818	-27.13027	0.56563	-20.686522	11.686284	0.0		True	0.0	None	0.0	None	0.0	None	0.0	None	0.0	None	0.0	None	0.0	None	0.0	None	1.0896e-06	12
2014-02-18 14:48:00	13.864991647915414	79276162.3337	4.525592818131183e+20	327242306177.1461	1.930432149481048	130874257226.8155	1.7000686408355378e+20	-6.565101287044475e+22	1159.086098615285	-0.6235716519350942	19.00206886943301	2.0408163265306123	28.942154862107763	142.94517966179941	144.96727333913609	55.782611837322435	0.006566095746534178	-2.4809716406940103e+22	0.8664354563391057	0.029996491380973506	-1.3721134453651046e+22	0.2356496140348435	0.1303271663846419	0.0	275.82827799999995	269.346741	-27.132032	0.66573	-20.687553	11.787548	0.0		True	0.0	None	0.0	None	0.0	None	0.0	None	0.0	None	0.0	None	0.0	None	0.0	None	1.2374e-06	12
2014-02-18 15:00:00	11.36681873878702	77923709.0035	4.171118033401368e+20	264873557448.07425	2.312750813268499	121879940581.3764	1.6501773553316662e+20	-6.40122276696348e+22	1105.9147594508406	-0.6185585865572062	18.137892902296397	0.7042253521126761	28.791614666091892	142.64132239872572	143.34909954984616	57.40746114878515	0.008143488779114435	-2.552775983444481e+22	0.83532083013065	0.03667421258489526	-1.4677081428634573e+22	0.2466781053560557	0.14182657085667735	0.0	275.828979	269.236633	-27.129837	0.798085	-20.685282	11.915855	0.0		True	0.0	None	0.0	None	0.0	None	0.0	None	0.0	None	0.0	None	0.0	None	0.0	None	1.2762e-06	12
2014-02-18 15:12:00	12.027234405996447	81891331.28960001	4.874850543012472e+20	289324093059.00555	1.306754260937788	89690744166.65015	1.7461621599458925e+20	-6.67901414390921e+22	1187.9285913693825	-0.6141323021938339	20.482007923947023	5.17799352750809	28.981492493595518	136.3579561463972	137.82499340599068	53.92810004270178	0.004228978190737178	-2.795277823739054e+22	0.5649869897189903	0.01977182966716453	-1.399196887799292e+22	0.2570245201127052	0.12865551523202573	0.0	275.82959	269.12649500000003	-27.129169	0.898768	-20.683857	12.017693	0.0		True	0.0	None	0.0	None	0.0	None	0.0	None	0.0	None	0.0	None	0.0	None	0.0	None	1.2774e-06	12
2014-02-18 15:24:00	13.108505803433268	83547021.2386	5.1780213422012577e+20	320144037110.76306	2.5951738666016	194028562671.9073	1.7963105103550343e+20	-6.718669970890977e+22	1207.1153488941784	-0.6055357614787865	19.924523370945113	2.476780185758514	29.489373665171215	137.14489165911206	138.6087822647897	54.5853787132841	0.008034594014246438	-2.4821162189399748e+22	1.1692893591861762	0.03869416695163993	-1.874536513966436e+22	0.2237064986413295	0.1689469642536896	0.0	275.830261	269.016357	-27.129467	1.03247	-20.684797	12.145031	0.0		True	0.0	None	0.0	None	0.0	None	0.0	None	0.0	None	0.0	None	0.0	None	0.0	None	1.3925e-06	12
2014-02-18 15:36:00	10.513017449820351	75836643.3297	4.0025826557250594e+20	243690300058.70224	1.8058681194444388	128174140847.45164	1.598686345675219e+20	-6.3297562975736045e+22	1095.961042907728	-0.6284856834194029	18.572091441403707	0.7272727272727273	28.47548192431692	137.46394906524657	138.66275844279292	55.054233050837745	0.00656679316161614	-2.4433532373389527e+22	0.9072686622763094	0.02924509118344723	-1.6094678619353174e+22	0.2426021567043002	0.1598051270216728	0.0	275.830872	268.906158	-27.129761	1.132503	-20.684486	12.246425	0.0		True	0.0	None	0.0	None	0.0	None	0.0	None	0.0	None	0.0	None	0.0	None	0.0	None	1.3504e-06	12
2014-02-18 15:48:00	10.538334079832516	78325270.0794	4.264239426032212e+20	242371383918.50146	3.0615018857017446	228853277944.8895	1.6520758294068645e+20	-6.349642880149678e+22	1095.8761271602214	-0.6104286440625352	19.189468444071874	1.3651877133105803	29.66533191914937	132.45618852643864	133.7017067787258	56.56159068416497	0.010448811896592984	-2.498129729860029e+22	1.520430803784121	0.04854238822622437	-1.6395457773307414e+22	0.2401599542642024	0.1576192117612239	0.0	275.831421	268.795959	-27.126791	1.263391	-20.702868	12.373248	0.0		True	0.0	None	0.0	None	0.0	None	0.0	None	0.0	None	0.0	None	0.0	None	0.0	None	1.6299e-06	12
2014-02-18 16:00:00	10.168233345162461	68393691.8816	3.6086900042558544e+20	248703528241.3033	3.3445403485010914	292930177246.0482	1.443395953019388e+20	-5.380829043702017e+22	1065.6064466791418	-0.5924075565790636	18.469734708625285	0.7843137254901961	29.79107437288445	137.3219123526446	137.50074964178287	57.70038649669257	0.013115844503925849	-2.2684251917074766e+22	2.2361945925388778	0.06141806899849606	-1.4319839720827678e+22	0.24974445651171664	0.15765565474614868	0.0	275.832001	268.68576	-27.126608	1.363696	-20.702095	12.474551	0.0		True	0.0	None	0.0	None	0.0	None	0.0	None	0.0	None	0.0	None	0.0	None	0.0	None	1.2913e-06	12
