Timestamp	TOTUSJH	TOTBSQ	TOTPOT	TOTUSJZ	ABSNJZH	SAVNCPP	USFLUX	TOTFZ	MEANPOT	EPSZ	MEANSHR	SHRGT45	MEANGAM	MEANGBT	MEANGBZ	MEANGBH	MEANJZH	TOTFY	MEANJZD	MEANALP	TOTFX	EPSY	EPSX	R_VALUE	CRVAL1	CRLN_OBS	LAT_MIN	LON_MIN	LAT_MAX	LON_MAX	QUALITY	NOAA_AR	IS_TMFI	BFLARE	BFLARE_label	CFLARE	CFLARE_label	MFLARE	MFLARE_label	XFLARE	XFLARE_label	BFLARE_loc	BFLARE_label_loc	CFLARE_loc	CFLARE_label_loc	MFLARE_loc	MFLARE_label_loc	XFLARE_loc	XFLARE_label_loc	XR_MAX	XR_QUAL
2014-02-23 22:36:00	83.12783065529804	647273337.5869001	5.046483231589604e+21	2106141575464.1624	12.349970256647214	1073703264342.7092	1.4741574143809392e+21	-5.725481806234308e+23	1429.6224006976322	-0.6660576297694628	23.219193549932452	2.972159518434913	26.41805193936047	116.24330077651636	116.57837023889036	39.38243319200868	0.004646339449453429	-1.0691045495704847e+22	0.7354026725833486	0.022904360445275246	-2.681356635709555e+23	0.01243712348342977	0.3119279924010364	0.978370485877078	238.641266	199.198868	-24.434277	35.308109	-17.18808	43.467594	0.0		True	0.0	None	0.0	None	0.0	None	0.0	None	0.0	None	0.0	None	0.0	None	0.0	None	1.5017e-06	12
2014-02-23 22:48:00	83.70022482024928	656188086.6757001	5.061563629840208e+21	2111272453055.616	14.085070224216695	1248479602961.0122	1.5136249352570777e+21	-5.822622011665784e+23	1383.4090563595453	-0.668155847046615	22.846560301409983	2.9038112522686026	26.396276153813233	114.8059227378656	115.13590348005093	38.000521783870354	0.005112548175759236	-1.1700180577275727e+22	0.8458557504066846	0.02573499266817994	-2.7111274744488673e+23	0.013426157577368671	0.3111065204838012	1.0718186704453796	238.642334	199.088837	-24.434025	35.420746	-17.178816	43.552753	0.0		True	0.0	None	0.0	None	0.0	None	0.0	None	0.0	None	0.0	None	0.0	None	0.0	None	1.6136e-06	12
2014-02-23 23:00:00	76.93281708761998	638379237.264	4.882289769658718e+21	1935873374453.6328	9.699240537497534	749964344822.6926	1.4916424229757465e+21	-5.758986014987038e+23	1358.0719186358635	-0.679289252934565	22.94332066763333	2.5858884373845585	25.77514604323281	112.72624695597014	113.15949363113205	36.60294398218088	0.0035830219939037805	-2.0707887581121223e+22	0.5380138451618721	0.018095203156855883	-2.6227246360840737e+23	0.02442555937490751	0.3093580456806578	1.450118458747208	238.643341	198.978836	-24.43034	35.525616	-17.16914	43.642899	0.0		True	0.0	None	0.0	None	0.0	None	0.0	None	0.0	None	0.0	None	0.0	None	0.0	None	2.0168e-06	12
2014-02-23 23:12:00	84.04333085337176	679598364.7358	5.238555708967073e+21	2145950862499.9065	7.325599283199849	594636813640.5713	1.6188286017007334e+21	-6.098618290142359e+23	1314.4165225574095	-0.6757196758593219	22.62736284811963	2.665778073975342	25.86474151855	110.254844911273	110.54131621614206	36.1342737544689	0.002441866427733283	-2.8622302706179733e+22	0.3847819086196289	0.012869817913824895	-2.781108951396098e+23	0.031713172044607	0.30814357445593843	2.155065104052275	238.64447	198.868866	-24.424583	35.640152	-17.163432999999998	43.727962	0.0		True	0.0	None	0.0	None	0.0	None	0.0	None	0.0	None	0.0	None	0.0	None	0.0	None	2.005e-06	12
2014-02-23 23:24:00	80.23867744120145	669915275.016	5.035034646376875e+21	2026491181341.594	6.104896456059662	562262163414.923	1.5973944187306438e+21	-6.067667102747696e+23	1288.6865246918694	-0.6820078249532194	22.28609927556231	1.9714479945615229	25.558186663256265	111.57371927937729	111.37844881909322	36.627217519557256	0.0020750837716042364	-3.203774371808646e+22	0.3711184289336222	0.010835785658703068	-2.721397075032947e+23	0.036010531790193666	0.30588594735805336	2.2796493820546586	238.645569	198.758911	-24.419661	35.75526400000001	-17.155502	43.813694	0.0		True	0.0	None	0.0	None	0.0	None	0.0	None	0.0	None	0.0	None	0.0	None	0.0	None	1.7895e-06	12
2014-02-23 23:36:00	78.83878978212655	671075509.7732	4.987906098165432e+21	2029195847327.5627	7.516023283864023	666329945993.6344	1.6200155245803772e+21	-6.06884443412906e+23	1230.2091725120015	-0.6809607988073383	22.625416693157586	2.522109400589584	25.92213873240185	106.7077124677054	106.79059321508824	34.38319720060853	0.0024618484388680066	-2.882819914834984e+22	0.4238048843272413	0.013325672544595765	-2.738316913112674e+23	0.0323469710474702	0.30725560570551225	2.0910746606321204	238.646698	198.649002	-24.412403	35.871006	-17.151308	43.900143	0.0		True	0.0	None	0.0	None	0.0	None	0.0	None	0.0	None	0.0	None	0.0	None	0.0	None	1.5548e-06	12
2014-02-23 23:48:00	76.81958551515464	664195328.6832001	4.814990471504052e+21	1944202702049.712	6.880472360131316	525607434276.9483	1.6195741744565102e+21	-6.110654318812144e+23	1202.1302148616314	-0.6927544394833655	21.930346487356648	1.7904509283819632	25.15946849830809	106.74696870786569	106.60446168890728	34.1724763963414	0.0022813237268339906	-3.060185221364161e+22	0.21933813506840152	0.012239353317856229	-2.663108860983257e+23	0.03469279699254054	0.301912101392158	2.086881842265089	238.647903	198.539108	-24.406298	35.97895399999999	-17.16909	43.98685800000001	0.0		True	0.0	None	0.0	None	0.0	None	0.0	None	0.0	None	0.0	None	0.0	None	0.0	None	1.4288e-06	12
2014-02-24 00:00:00	77.52469558425314	669558256.7471001	4.706779202955654e+21	1967483650082.5264	6.696749379005323	540589585073.7871	1.637507206328127e+21	-6.200580255066007e+23	1157.8386761142772	-0.6973190331350838	21.52987973279509	1.764129369487096	25.232591643887805	106.88668367151614	107.36913457880144	33.59753266878395	0.002187765233258844	-3.606628898694664e+22	0.2717533345880621	0.01178534201698718	-2.6291152742827073e+23	0.04056025199351351	0.29567105748943845	2.079078875861283	238.649063	198.42926	-24.401886	36.093441	-17.161611999999998	44.071781	0.0		True	0.0	None	0.0	None	0.0	None	0.0	None	0.0	None	0.0	None	0.0	None	0.0	None	1.3903999999999999e-06	12
2014-02-24 00:12:00	78.16423768317588	679834971.1766	4.959541665599911e+21	1983270918216.7568	9.124974386818591	712746949503.9115	1.6523215793148097e+21	-6.256889451649007e+23	1212.4905854993265	-0.6930148312820665	22.020859022836067	2.3051948051948052	25.535424476795093	109.67322801807238	109.823883721187	34.13152116377957	0.0029626540216943485	-3.1198247365688703e+22	0.35822567266899524	0.015856136865724953	-2.700337687381171e+23	0.0345552663212401	0.29909015994071403	2.1810388764204247	238.650345	198.319443	-24.396366	36.202629	-17.156064999999998	44.159916	0.0		True	0.0	None	0.0	None	0.0	None	0.0	None	0.0	None	0.0	None	0.0	None	0.0	None	1.3000999999999998e-06	12
2014-02-24 00:24:00	78.2889591892052	675579229.7419	4.920599559438689e+21	1999448847530.8408	4.387900003937382	343533577494.06	1.6466982325956061e+21	-6.241960704101242e+23	1201.4098289973044	-0.6957164431092182	22.131813513792387	2.172503242542153	25.40197991542327	107.37598187083401	107.46264604147328	33.357562860922236	0.0014227950726126402	-3.4086614644741303e+22	0.2162738304261759	0.007660501413583346	-2.692440374055427e+23	0.03799225823817262	0.3000940135830616	2.184167322363086	238.651581	198.209641	-24.390118	36.317944	-17.149811	44.24560200000001	0.0		True	0.0	None	0.0	None	0.0	None	0.0	None	0.0	None	0.0	None	0.0	None	0.0	None	1.2193000000000001e-06	12
2014-02-24 00:36:00	79.12941769634867	685783698.6422	4.957238569279029e+21	2002177008366.2976	3.412882720875181	105680344408.69518	1.661549732347448e+21	-6.301676328772727e+23	1208.3960981657067	-0.6919207229904851	21.825301558621497	1.5215280025898348	25.425852585104927	105.85515572869109	105.88468274746228	33.52155056308651	0.0011048503466737397	-4.001429611252319e+22	-0.058895390888657986	0.0058828014788891644	-2.731454854749152e+23	0.043935485181487405	0.29991229623848004	1.6094906009881391	238.652893	198.099884	-24.381248	36.433796	-17.167835	44.322571	0.0		True	0.0	None	0.0	None	0.0	None	0.0	None	0.0	None	0.0	None	0.0	None	0.0	None	1.523e-06	12
2014-02-24 00:48:00	78.98663557134427	681135473.2565	4.857472876864088e+21	1988684632634.183	2.5228012388031984	144604729197.23376	1.647312835273771e+21	-6.310692247592858e+23	1199.6108227853165	-0.6976392686703538	21.758216561592583	1.6398819285011483	25.39072799010015	108.21236396321905	108.08290736100616	34.02939951884391	0.0008274192321427346	-3.97895508326248e+22	0.039189751353128896	0.0043634913563185395	-2.687598339258645e+23	0.04398685921371382	0.2971106918730265	1.6489624266388283	238.654236	197.990143	-24.372362	36.546097	-17.15897	44.410831	0.0		True	0.0	None	0.0	None	0.0	None	0.0	None	0.0	None	0.0	None	0.0	None	0.0	None	1.2179e-06	12
2014-02-24 01:00:00	76.51060447615944	678069699.5227001	4.739664356010715e+21	2012141204420.0728	4.639701215928406	482125930436.76794	1.6774938868524812e+21	-6.313052633592929e+23	1127.6163089853094	-0.7010557368157195	21.69725119970353	1.2954186413902051	25.143362500454806	104.09512176931686	104.36862601556955	32.18053071658287	0.0014659403525840151	-4.1582370679440626e+22	0.2957285337680865	0.008045019998823282	-2.6416430117907037e+23	0.04617664576420405	0.2933507916884006	0.0	238.655594	197.880447	-24.364971	36.65567	-17.151615	44.499184	0.0		True	0.0	None	0.0	None	0.0	None	0.0	None	0.0	None	0.0	None	0.0	None	0.0	None	1.1021e-06	12
2014-02-24 01:12:00	78.36969685400268	680360515.7707	4.829304070355052e+21	2035011328201.4304	6.877813183611858	586950848071.5337	1.6736858035702496e+21	-6.257672169893563e+23	1151.4891894734594	-0.6925659654801388	21.91124635836372	1.5832805573147564	25.485431665305786	104.0431415470207	104.05651974659537	32.413632360407235	0.002177901578091152	-3.6509545685018357e+22	0.3608125466539465	0.011945261608119921	-2.6892958341852783e+23	0.0404068287217674	0.2976369990785123	0.0	238.656967	197.770767	-24.357409	36.773262	-17.172159	44.555187	0.0		True	0.0	None	0.0	None	0.0	None	0.0	None	0.0	None	0.0	None	0.0	None	0.0	None	1.0452e-06	12
2014-02-24 01:24:00	77.87830664451889	685804945.5581	4.924479267482606e+21	1965982428859.024	3.448368183576071	187210445531.28394	1.6830689101283126e+21	-6.384515603514326e+23	1182.042732738089	-0.7009946810524601	21.996641377786922	2.040165763468281	25.07043758643681	105.46629234960241	105.42643094876564	32.514883855685	0.0010992566731195636	-3.279608877159426e+22	0.0544792787226956	0.005912076661089394	-2.6786576052733583e+23	0.03600881447538043	0.2941060607047087	0.0	238.658417	197.661118	-24.349457	36.885242	-17.164326000000006	44.614418	0.0		True	0.0	None	0.0	None	0.0	None	0.0	None	0.0	None	0.0	None	0.0	None	0.0	None	1.3219e-06	12
2014-02-24 01:36:00	76.35848306877295	671701330.6866	4.728776840037339e+21	1952933276949.3333	3.057076666097692	84796274823.36752	1.6376007939935078e+21	-6.239434294043725e+23	1167.4452488250627	-0.6994497979245594	21.776388629896253	1.7377049180327868	25.15340097305164	105.58657660883487	105.48854260467932	32.908155126516576	0.0010023202183926856	-3.2515798732162254e+22	0.008735333591653243	0.005356138237112684	-2.6362892719554683e+23	0.03645069052859098	0.2955319203056927	0.0	238.65979	197.551498	-24.343483	37.002674	-17.161568	44.6497	0.0		True	0.0	None	0.0	None	0.0	None	0.0	None	0.0	None	0.0	None	0.0	None	0.0	None	1.023e-06	12
2014-02-24 01:48:00	78.533890132079	686851360.7516	4.757221279270683e+21	2017845280988.6091	5.762623363374374	468158918293.2228	1.6676338606839874e+21	-6.399844578096083e+23	1159.6393514711044	-0.7016074049189797	21.43347000737806	1.5862738750404664	25.130317418272877	106.71650977215045	106.86799585859023	32.911916325117154	0.001865530386330325	-3.0454173868222363e+22	0.2895840889879714	0.00986116218219902	-2.675182139844515e+23	0.033386551244954474	0.2932770594532607	0.0	238.66131600000003	197.441925	-24.334759	37.117783	-17.179773	44.723122	0.0		True	0.0	None	0.0	None	0.0	None	0.0	None	0.0	None	0.0	None	0.0	None	0.0	None	9.9859e-07	12
2014-02-24 02:00:00	76.99840911750911	686885306.0618	4.855096570905836e+21	1955457966046.8904	6.281139745215074	500515060411.6805	1.6666878296959366e+21	-6.307447010979676e+23	1165.3888271365188	-0.6914437904308128	21.809037883779308	1.8489002231431304	25.626929912343588	105.10419784862913	104.70067133816973	33.677283372037145	0.0020022759787105752	-2.9403146177937324e+22	0.2715426670073708	0.01081251332086642	-2.723748605233518e+23	0.03223272872284739	0.2985865844778275	0.0	238.662811	197.332367	-24.326733	37.234779	-17.175041	44.705711	0.0		True	0.0	None	0.0	None	0.0	None	0.0	None	0.0	None	0.0	None	0.0	None	0.0	None	9.8192e-07	12
2014-02-24 02:12:00	75.02840596767734	679898338.7251999	4.773129759235079e+21	1949737426813.73	7.2712992965990875	634020071499.0146	1.650673143257944e+21	-6.284932111350577e+23	1162.0123974677224	-0.6960557916536934	21.91755160044104	1.7458777885548011	25.422872690348143	105.95195905990765	105.4593992119944	34.21691575831473	0.0023508888770123137	-3.0957530340868724e+22	0.2864653495449049	0.0126112432493406	-2.681128030024703e+23	0.034285443195385776	0.2969347417601173	0.0	238.664337	197.222839	-24.320602	37.340672	-17.168997	44.620796	0.0		True	0.0	None	0.0	None	0.0	None	0.0	None	0.0	None	0.0	None	0.0	None	0.0	None	1.0049e-06	12
2014-02-24 02:24:00	74.51452240232194	663570809.4567	4.646834628295884e+21	1926782631961.2	3.117981372285825	160184538611.9767	1.6204138540517181e+21	-6.126299248270626e+23	1145.7123451615773	-0.6951817172446031	21.899207605674015	2.128356254092993	25.537027073210396	104.39119347401771	104.40016031201269	33.44149682414097	0.001020950023669229	-2.501732769774738e+22	0.06361340393612927	0.0055437033037763475	-2.6138810437807706e+23	0.028388408931706063	0.2966101130632137	0.0	238.665939	197.113342	-24.311003	37.456669	-17.186289000000002	44.636513	0.0		True	0.0	None	0.0	None	0.0	None	0.0	None	0.0	None	0.0	None	0.0	None	0.0	None	1.0249e-06	12
2014-02-24 02:36:00	73.24222905931919	659440888.2303	4.586689695991026e+21	1898886762473.1523	6.7986086372128165	569941932179.3284	1.6130818994587034e+21	-6.121103917344822e+23	1137.5881703008529	-0.6989423493238618	21.786066655042877	1.745718050065876	25.30722415399317	105.11376787662502	105.21244417412687	32.92662768136721	0.002239330908172864	-2.4053191598405734e+22	0.3637017830445633	0.01213655765746589	-2.603258448050104e+23	0.027465297880156232	0.297254808960439	0.0	238.66748	197.003876	-24.300827	37.574093	-17.179516	44.670925	0.0		True	0.0	None	0.0	None	0.0	None	0.0	None	0.0	None	0.0	None	0.0	None	0.0	None	1.0349e-06	12
2014-02-24 02:48:00	77.76766527540917	663787864.1924	4.740280875463573e+21	2017518477053.5803	5.825104052489929	482506362536.3539	1.6113235758963234e+21	-6.1260565312586e+23	1181.9107540889024	-0.6949270928015883	22.142390449267307	2.019867549668874	25.45093827995308	104.1874481812444	104.14909371241885	33.73097831826532	0.001928842401486732	-2.7157849255601263e+22	0.28842278981404784	0.01035507749163101	-2.6324241225058942e+23	0.03080729851845059	0.2986167093201724	0.0	238.669128	196.894424	-24.29353900000001	37.678944	-17.195793	44.725819	0.0		True	0.0	None	0.0	None	0.0	None	0.0	None	0.0	None	0.0	None	0.0	None	0.0	None	1.0133e-06	12
2014-02-24 03:00:00	77.24722460327625	659867172.9487	4.765983857184553e+21	1982457007240.824	10.698605450541164	885093615660.9064	1.6050932568229172e+21	-6.098145013390354e+23	1190.6848196717974	-0.695870974028281	22.300621417916922	1.8911745189117453	25.48029543506082	104.8039770329591	104.60223264670307	33.83087966189833	0.003549636844904169	-2.5084797744070533e+22	0.5268243497983651	0.019120878271900444	-2.6020177076706144e+23	0.028624741788099907	0.2969212100892494	0.0	238.670746	196.785004	-24.28758	37.8022	-17.189882	44.809361	4096.0		True	0.0	None	0.0	None	0.0	None	0.0	None	0.0	None	0.0	None	0.0	None	0.0	None	1.0107e-06	12
2014-02-24 03:12:00	78.9624474562614	676201187.3376001	4.826703018264643e+21	2007886143058.25	8.199732185232225	779485046274.3699	1.6252359013642928e+21	-6.21307643645794e+23	1197.5106382187128	-0.6918600679794843	22.24713478002652	1.9110378912685333	25.778000067024703	107.0072870192338	106.653785185514	34.71432774645197	0.00270261443152018	-2.0193978225412622e+22	0.4575831393173692	0.014342857219476675	-2.683426247822649e+23	0.022487100055339528	0.2988142002152686	0.0	238.672409	196.675613	-24.280495	37.923489	-17.189384	44.876816	4096.0		True	0.0	None	0.0	None	0.0	None	0.0	None	0.0	None	0.0	None	0.0	None	0.0	None	1.5934e-06	12
2014-02-24 03:24:00	79.09200257107328	674510375.3894	4.873334221867233e+21	2058387964133.7368	10.111478247001477	916859797518.5356	1.634698968438904e+21	-6.13510137835068e+23	1174.6344891320905	-0.6848897797465368	22.7397630420866	1.7285531370038414	26.257614000481464	102.8523071602633	102.81088998969726	33.331397984670694	0.0032367087858519447	-1.458327522634532e+22	0.5502721956030817	0.017794447871031713	-2.706815438310028e+23	0.01627998551580555	0.30217434318209463	0.0	238.674133	196.566238	-24.275707	38.037888	-17.201506	44.964481	0.0		True	0.0	None	0.0	None	0.0	None	0.0	None	0.0	None	0.0	None	0.0	None	0.0	None	1.4294999999999996e-06	12
2014-02-24 03:36:00	82.96458220580578	700561078.8731999	5.287480010571591e+21	2133347385846.684	13.528048618655042	1232962251623.047	1.692373539313393e+21	-6.44269718470549e+23	1244.188518765524	-0.6924830428331673	23.132424572099485	2.0625	25.83147303979923	107.02791042555091	106.95236784915743	33.930411125515164	0.004227515193329701	-1.3526416972277464e+22	0.7062804081388498	0.022818906004593482	-2.788483969050377e+23	0.014538653789020306	0.29971575699126723	0.0	238.675781	196.456879	-24.273191	38.156464	-17.195677	45.051918	0.0		True	0.0	None	0.0	None	0.0	None	0.0	None	0.0	None	0.0	None	0.0	None	0.0	None	2.0671e-06	12
2014-02-24 03:48:00	86.34195740480395	710192041.4874	5.60691118526947e+21	2231197287791.152	9.364310878720524	705618486376.8225	1.7102039158151074e+21	-6.42975138670321e+23	1301.057182566626	-0.6817196124800416	23.738488459924817	3.297380585516178	26.270743755006446	107.01861439127646	106.81645780401772	34.186586811085284	0.002885766064320654	-5.227001452457627e+21	0.4020914666716851	0.015681096538314492	-2.8982006304397493e+23	0.0055419707392902785	0.3072840755178637	0.0	238.677551	196.347549	-24.268093	38.268902	-17.213919	45.130749	0.0		True	0.0	None	0.0	None	0.0	None	0.0	None	0.0	None	0.0	None	0.0	None	0.0	None	2.3607e-06	12
2014-02-24 04:00:00	80.18117168058072	684250306.3937	5.170011245435776e+21	2043050568122.8115	10.17132967067482	651237252961.2804	1.6256164796797558e+21	-6.243909503857765e+23	1295.0603238216659	-0.6871144569645001	22.980733265555266	2.395209580838324	25.81904787872452	108.483266661051	108.73398726420936	34.017868816058595	0.0033836758718146435	-1.857798540988275e+21	0.4060739754210742	0.01762171524150895	-2.767258980520896e+23	0.002044424626673253	0.30452453715191863	0.0	238.679352	196.238251	-24.267832	38.379158	-17.210096	45.218864	0.0		True	0.0	None	0.0	None	0.0	None	0.0	None	0.0	None	0.0	None	0.0	None	0.0	None	2.4947e-06	12
2014-02-24 04:12:00	88.28148937874819	708531218.3658001	5.418813916916631e+21	2233442441757.034	13.009975502448244	984986309515.898	1.6363813681860945e+21	-6.368246370530482e+23	1372.9126438809708	-0.6767812819305208	23.21890190206643	2.624495289367429	26.33783544840443	112.96030056657835	113.1192500083339	36.4510585187428	0.004377515310379625	9.730296640298616e+21	0.6294045348963515	0.02190135914243891	-2.887136871799946e+23	-0.01034081009217766	0.3068286117584477	0.0	238.681061	196.128952	-24.269312	38.497475	-17.2248	45.305847	0.0		True	0.0	None	0.0	None	0.0	None	0.0	None	0.0	None	0.0	None	0.0	None	0.0	None	2.4313e-06	12
2014-02-24 04:24:00	87.27336096872463	711967376.7621	5.639122984642459e+21	2250081195407.119	9.012685305618687	676923972088.3861	1.6376632377552132e+21	-6.334207453346138e+23	1423.461613950604	-0.6699148979856598	23.743776371171972	3.5199463627220915	26.523195777959682	112.81627233178112	112.74949162687766	37.6831274306944	0.003021349415225843	1.5684621228146472e+22	0.39536804671058745	0.015161067083791838	-2.9529656322776442e+23	-0.016588281181802455	0.3123098958903541	0.0	238.682892	196.019684	-24.265022	38.618664	-17.220518	45.384308	0.0		True	0.0	None	0.0	None	0.0	None	0.0	None	0.0	None	0.0	None	0.0	None	0.0	None	2.3475999999999998e-06	12
2014-02-24 04:36:00	85.03705687875541	724029339.7329	5.76410529309416e+21	2144324116682.1853	7.728026965029072	592219281269.8217	1.6499964809788688e+21	-6.432694184477562e+23	1465.8211841347077	-0.6689971005506339	23.85731683924108	3.1070584262073626	26.58386507761249	111.12037627003649	111.36942902786294	36.893001483824335	0.0026099381847447052	2.1108768093857907e+22	0.3880735689789317	0.01279048099772404	-2.9965916550016066e+23	-0.021953017267730683	0.3116440905224091	0.0	238.684677	195.910431	-24.258156	38.739044	-17.236956	45.473526	0.0		True	0.0	None	0.0	None	0.0	None	0.0	None	0.0	None	0.0	None	0.0	None	0.0	None	2.3584e-06	12
2014-02-24 04:48:00	91.24945802562715	728832079.4616001	5.874048614738508e+21	2292034225340.003	8.624230519112329	571600678596.1157	1.6529147993706246e+21	-6.443031452326285e+23	1494.2843786608673	-0.6656565388175414	24.080331516823684	3.4797297297297294	26.612304412348145	113.73575756318894	114.1791453486096	37.79225694727687	0.0029135913915920037	3.1175018642926645e+22	0.3746803758743621	0.014208146228567956	-3.0020944630016127e+23	-0.03220821621153243	0.3101589405905261	0.0	238.686493	195.801193	-24.256618	38.858013	-17.23241	45.569283	0.0		True	0.0	None	0.0	None	0.0	None	0.0	None	0.0	None	0.0	None	0.0	None	0.0	None	2.0622999999999997e-06	12
2014-02-24 05:00:00	91.062030780477	726463775.6097	5.81827001060301e+21	2296640524471.621	4.3061053071334685	365867838437.8114	1.6491356440308409e+21	-6.386860993325396e+23	1485.11251635053	-0.6620045935846915	23.8944557819311	3.2542372881355934	26.81896443012803	112.73791286620909	112.94353066482807	38.480237007142854	0.0014596967142825315	3.582405629869504e+22	0.2406316728704341	0.007132938158755855	-2.9888709542436318e+23	-0.03713199622687398	0.30979949358674536	0.0	238.68837	195.691971	-24.255594	38.979038	-17.251114	45.662834	0.0		True	0.0	None	0.0	None	0.0	None	0.0	None	0.0	None	0.0	None	0.0	None	0.0	None	1.763e-06	12
2014-02-24 05:12:00	91.51711714394108	722951096.6085	5.794280967748932e+21	2292996626273.461	3.08796730425278	262411169793.62515	1.62560508465915e+21	-6.274252465385656e+23	1508.1291448843765	-0.6534923156592738	23.835479426175986	2.834427929484964	26.931395628365536	113.00029342175137	112.99794223320124	38.89655483956832	0.0010673927771354232	3.755159207315948e+22	0.17598493289393133	0.0051664423449670465	-3.0158007797669478e+23	-0.03911171409815599	0.31410955265342644	0.0	238.690155	195.582748	-24.25296	39.099724	-17.248499	45.764343	0.0		True	0.0	None	0.0	None	0.0	None	0.0	None	0.0	None	0.0	None	0.0	None	0.0	None	1.5435e-06	12
2014-02-24 05:24:00	85.79923907257033	715196703.395	5.703662831757304e+21	2145452684826.0042	3.8162598232704097	321528686038.0869	1.6062617065476063e+21	-6.219117013368823e+23	1506.9417499375952	-0.6547729128205514	23.81525032425089	2.526315789473684	27.0088350937172	112.24175048678221	112.15862895723541	38.69184202608609	0.0013390385344808455	4.3764043727572415e+22	0.2188810744214308	0.00644917294851998	-2.966852270560942e+23	-0.04607649337793408	0.3123617868786751	0.0	238.69204700000003	195.473541	-24.252893	39.210083	-17.264720999999998	45.856152	0.0		True	0.0	None	0.0	None	0.0	None	0.0	None	0.0	None	0.0	None	0.0	None	0.0	None	1.4207e-06	12
2014-02-24 05:36:00	84.85373649839275	703319514.4250001	5.648307142441969e+21	2103128566369.7	3.3175453611312253	139054545086.25552	1.5694450691927489e+21	-6.123694863734736e+23	1546.5826162269605	-0.6556142554170108	23.744678378288835	2.0727272727272728	26.803992364560237	112.6606612345625	111.88266660939257	38.76110437743953	0.0012063801313204456	3.3380124546541522e+22	0.0981020607347969	0.0056981652599736215	-2.973402024887191e+23	-0.03573738729196075	0.3183379965821712	0.0	238.693909	195.364349	-24.24832	39.328403	-17.283266	45.95483	0.0		True	0.0	None	0.0	None	0.0	None	0.0	None	0.0	None	0.0	None	0.0	None	0.0	None	1.295e-06	12
2014-02-24 05:48:00	84.89393103730109	702125736.0627	5.692663424542533e+21	2090301226423.8389	1.6702208471059512	227066530793.5649	1.567536008582984e+21	-6.160281097411353e+23	1573.0281645376904	-0.6606525804023186	23.842413822087398	2.3486238532110093	26.53969537649301	112.298831482042	111.48994194081469	38.52233074673428	-0.0006129250815067711	2.0189184825205702e+22	-0.16166093614636812	-0.0028649049575159725	-2.970263562525252e+23	-0.02165166952624344	0.3185426534970759	0.0	238.695755	195.255157	-24.241343	39.448189	-17.276370999999994	46.055214	0.0		True	0.0	None	0.0	None	0.0	None	0.0	None	0.0	None	0.0	None	0.0	None	0.0	None	1.2937e-06	12
2014-02-24 06:00:00	85.97952999240951	725075131.79	5.63935634909438e+21	2097316066385.099	1.1612530442484	89130399740.4528	1.637633717355793e+21	-6.424931191362784e+23	1476.9954730568893	-0.6672259758911679	23.18362883135215	1.6347826086956518	26.32844757070845	112.25991155293178	111.50186028687521	37.15271819237722	0.0004039141023472696	1.3018110431842292e+22	-0.06014505334612466	0.001921230103246	-3.0324106356318146e+23	-0.01351924429762272	0.3149143680141164	0.0	238.697678	195.145981	-24.247011	39.572514	-17.295576	46.148293	66560.0		False	0.0	None	0.0	None	0.0	None	0.0	None	0.0	None	0.0	None	0.0	None	0.0	None	1.2509e-06	12
2014-02-24 06:12:00	81.87988424953274	719817701.8779001	5.391632230786971e+21	1987802297640.945	0.6782317826593508	17040214777.954544	1.6237875988978669e+21	-6.420759273521812e+23	1440.6774435424545	-0.6716628833608624	22.598695714299325	1.27750177430802	26.06750661955273	111.57010513270143	111.27600686371143	35.43775475846642	-0.00024067841826094766	3.279262059671192e+21	-0.011731136238032722	-0.0011272932606544775	-2.9816936329089604e+23	-0.0034303709521981826	0.3119090527248301	0.0	238.699509	195.036804	-24.244139	39.692051	-17.315707999999994	46.248405	66560.0		False	0.0	None	0.0	None	0.0	None	0.0	None	0.0	None	0.0	None	0.0	None	0.0	None	1.063e-06	12
2014-02-24 06:24:00	85.1687495563516	726152630.6371	5.576682569504857e+21	2115963308044.3728	1.1543578827978798	143957754569.82092	1.6688242114237476e+21	-6.526018036967085e+23	1422.0009441071481	-0.6767180519351186	22.77902854547705	1.6593294954283784	25.848369046797448	111.04472874378666	110.09917145991322	35.41998076103288	-0.00039091022106260736	7.810003081526051e+20	-0.09457410954456996	-0.0018961928888316481	-3.020123243214783e+23	-0.0008098613949577472	0.3131728883026666	0.0	238.701431	194.927628	-24.238579	39.804348	-17.336648999999998	46.338306	0.0		True	0.0	None	0.0	None	0.0	None	0.0	None	0.0	None	0.0	None	0.0	None	0.0	None	1.0998e-06	12
2014-02-24 06:36:00	85.98690498576181	740395739.8841001	5.585440178545177e+21	2183585163029.8584	1.734316027965468	87578053972.46414	1.7394719693459853e+21	-6.697305663332567e+23	1330.096173719872	-0.6811201276172143	22.737168522772503	1.1068943706514864	25.83593387240093	108.44466532542748	107.66257560364521	34.02447151934265	0.0005484870423673207	-7.445073637473793e+21	0.0246949066110333	0.0027867343719090447	-3.083090621434574e+23	0.007571685930118341	0.3135522228026875	0.0	238.703369	194.818466	-24.23394	39.925587	-17.358479	46.44017	0.0		True	0.0	None	0.0	None	0.0	None	0.0	None	0.0	None	0.0	None	0.0	None	0.0	None	1.0294e-06	12
2014-02-24 06:48:00	85.01222679178616	745965702.3823001	5.646319083254777e+21	2145675653427.0728	4.7404693273149485	288819439838.2515	1.77205062305761e+21	-6.77207023124079e+23	1315.4718597594322	-0.6835811687658085	22.52092602426075	1.2995049504950495	25.585116131329013	107.08534470546863	106.22343281931826	33.968626134470675	0.0014667293710751695	-1.327800280467483e+22	0.1414807996112833	0.007549156294993856	-3.076530363867244e+23	0.013402980722531984	0.3105487908518845	0.0	238.70517	194.709274	-24.236629	40.045403	-17.381971	46.540554	0.0		True	0.0	None	0.0	None	0.0	None	0.0	None	0.0	None	0.0	None	0.0	None	0.0	None	1.0337e-06	12
2014-02-24 07:00:00	85.84261693274976	776823890.1515	5.949001823272049e+21	2237197164206.6924	4.3601659577537815	413322364588.9122	1.877624966802299e+21	-7.036149229785573e+23	1274.401458939024	-0.6820244686588789	22.93068160115775	1.7354196301564724	25.797907757867133	103.22865143612896	102.76864150331923	32.15275649485807	0.0012404455071845751	-1.893928299897201e+22	0.2056986793378668	0.006673875996054336	-3.217145736507081e+23	0.01835813028165076	0.31184274805471784	0.0	238.707092	194.600098	-24.23702	40.167202	-17.405207	46.638107	0.0		True	0.0	None	0.0	None	0.0	None	0.0	None	0.0	None	0.0	None	0.0	None	0.0	None	1.0018999999999999e-06	12
2014-02-24 07:12:00	86.8780113665702	786848014.2256	5.947804729891325e+21	2208817912323.412	3.6512610410224484	406490048402.0911	1.889513386481541e+21	-7.20990431242752e+23	1291.0405180781215	-0.6899635024577241	22.655707186818727	1.960219083309311	25.28588509473646	105.15011898905144	104.84953176669613	32.120564220119874	0.0010525399368758862	-1.8010568584227564e+22	0.22731689453922505	0.005491673391621182	-3.2182861808230726e+23	0.017235506108186825	0.3079791227471026	0.0	238.708969	194.490921	-24.232939	40.290848	-17.424082000000002	46.742538	0.0		True	0.0	None	0.0	None	0.0	None	0.0	None	0.0	None	0.0	None	0.0	None	0.0	None	1.0707e-06	12
2014-02-24 07:24:00	87.80515326854857	797919643.1935	5.869839603355798e+21	2224699630363.712	4.779447002662387	514497122059.8781	1.9064738589837904e+21	-7.318231122259745e+23	1266.0879758924495	-0.6906125456887224	22.323137113735115	1.518189630478373	25.414108555081054	105.70700874240534	105.51043804758476	32.334301694518665	0.0013690767695967874	-1.8586258029420653e+22	0.28487743847716873	0.00708605308941838	-3.2244420957847236e+23	0.017539625024253328	0.3042866680477504	0.0	238.710846	194.381744	-24.226324	40.414623	-17.447453	46.834637	0.0		True	0.0	None	0.0	None	0.0	None	0.0	None	0.0	None	0.0	None	0.0	None	0.0	None	1.1669e-06	12
2014-02-24 07:36:00	87.08866869854674	815283372.0074	6.05743782761878e+21	2205027646242.0654	2.8241960270203386	326692878493.12946	1.9423615993223648e+21	-7.48102582048348e+23	1284.11367409431	-0.6909395158176819	22.526462795439553	1.435810810810811	25.27444348361084	103.9754507405252	103.78028183070292	31.786931978414998	0.0007951002328323028	-2.1361156774612894e+22	0.17217885979007425	0.004097209539699156	-3.305583399483221e+23	0.01972893513981051	0.3053001350804451	0.0	238.712753	194.272552	-24.224506	40.535984	-17.464962	46.936386	0.0		True	0.0	None	0.0	None	0.0	None	0.0	None	0.0	None	0.0	None	0.0	None	0.0	None	1.1519e-06	12
2014-02-24 07:48:00	86.2235244336809	820869358.6174	5.978088193776124e+21	2224005157782.8594	2.397638134482207	172014431176.16418	1.9714839375252284e+21	-7.543577168982762e+23	1235.9756158911146	-0.691975661036886	22.42017777521513	0.9335529928610654	25.45712549889335	103.69901838850305	103.89055571735105	31.038520437370572	0.0006583300753657897	-2.340518876108211e+22	0.09162354721985004	0.003452593726189093	-3.305564692924172e+23	0.021469682886304808	0.3032209073026349	0.0	238.714539	194.163345	-24.231409	40.656612	-17.482264	47.037323	0.0		True	0.0	None	0.0	None	0.0	None	0.0	None	0.0	None	0.0	None	0.0	None	0.0	None	1.2206e-06	12
2014-02-24 08:00:00	89.17878664497705	830030274.9039	6.103325007601848e+21	2303482688637.84	1.4923162204085252	15079713468.62573	1.9665145711858937e+21	-7.605206204399637e+23	1278.010267837267	-0.6899293007532793	22.581856580150717	1.5572858731924362	25.57395416874969	104.42454666232484	104.40311648381949	31.97150223237305	0.0004149933872103797	-2.037468661950919e+22	0.008134962697469775	0.0021277881495503728	-3.351283779367501e+23	0.018483513680842858	0.3040218519239151	0.0	238.716431	194.054138	-24.237814	40.781643	-17.506388	47.130661	0.0		True	0.0	None	0.0	None	0.0	None	0.0	None	0.0	None	0.0	None	0.0	None	0.0	None	1.3025999999999998e-06	12
2014-02-24 08:12:00	88.52722977098324	835882463.2609999	6.365967417492879e+21	2253284742364.927	4.213908887107406	223502271170.75485	1.9569906018680384e+21	-7.630155787886215e+23	1355.2419190531155	-0.6873464058295511	23.185019700873323	2.2052586938083123	25.602636862285408	104.75260598214541	104.68861725407942	32.59571792042634	0.0011913793856679125	-1.5126951652283512e+22	0.12258282943846616	0.005975381967244745	-3.410439529923312e+23	0.013626793657164463	0.3072222138522304	0.0	238.718277	193.944931	-24.251059	40.90505200000001	-17.527744000000002	47.221916	0.0		True	0.0	None	0.0	None	0.0	None	0.0	None	0.0	None	0.0	None	0.0	None	0.0	None	1.2429e-06	12
2014-02-24 08:24:00	90.46357165951423	829961133.7506001	6.186009767443957e+21	2237888970401.4097	3.752858688705525	149108572794.52527	1.9138207495900346e+21	-7.546951172072376e+23	1370.3984618556206	-0.6847013916581357	22.956680181549448	1.4710208884966167	25.683190020618266	103.81208414282145	103.61385787568337	33.02981679943163	0.0011041067045323698	-3.271040610148505e+21	0.08510115753620168	0.0053679877667327045	-3.3912310174276176e+23	0.002967669999279915	0.3076713422579776	0.0	238.720093	193.835693	-24.251062	41.026524	-17.546871	47.311012	0.0		True	0.0	None	0.0	None	0.0	None	0.0	None	0.0	None	0.0	None	0.0	None	0.0	None	1.0682e-06	12
2014-02-24 08:36:00	89.27081458561615	814993883.9108	6.10468135797714e+21	2215033828153.144	3.6679937520423063	204537554656.8823	1.8725393361189617e+21	-7.411415569702468e+23	1384.1452856442165	-0.68475367081832	23.08680398906438	1.6561276723878349	25.751395762063602	103.97093508136713	103.7512162013768	33.960460045608556	0.0011044847190732634	1.108978647876469e+22	0.11947864269807285	0.005342786525175787	-3.338253320918605e+23	-0.010246048043734706	0.30842707363017674	0.0	238.721954	193.726456	-24.258856	41.149712	-17.568806	47.401875	0.0		True	0.0	None	0.0	None	0.0	None	0.0	None	0.0	None	0.0	None	0.0	None	0.0	None	1.0639e-06	12
2014-02-24 08:48:00	87.18529005862284	798965529.7475	5.97306536874534e+21	2152640151290.2715	6.834554123955642	401931154486.9973	1.8085238757360198e+21	-7.259503315228445e+23	1424.6565241477267	-0.6841736607073072	23.1170018193686	1.9638897687678176	25.69346755604625	106.70562043977428	106.70819413747265	34.025391532550536	0.0021648888577623197	2.008744103405554e+22	0.2469822263106073	0.010158399048996406	-3.252066515777107e+23	-0.01893145780053889	0.3064918020349253	0.0	238.723694	193.617188	-24.258062	41.264919	-17.589819	47.494564	0.0		True	0.0	None	0.0	None	0.0	None	0.0	None	0.0	None	0.0	None	0.0	None	0.0	None	1.1674e-06	12
2014-02-24 09:00:00	86.39959509931019	787374941.0852001	5.971722003000536e+21	2111380949184.8965	5.39147978276483	396216754173.4401	1.7548201460169756e+21	-7.144774063622955e+23	1496.8807908985468	-0.6832733347275589	23.12151107617096	2.130492676431425	25.6845385794688	108.80944591434564	109.11144241109145	35.253378708141845	0.001794766905048213	3.7840076423447005e+22	0.2558732003643394	0.008135827729575832	-3.1674500012768986e+23	-0.03618744969954133	0.302911485469401	0.0	238.725525	193.507919	-24.254045	41.389305	-17.615801	47.579659	0.0		True	0.0	None	0.0	None	0.0	None	0.0	None	0.0	None	0.0	None	0.0	None	0.0	None	1.0995e-06	12
2014-02-24 09:12:00	87.42903063492727	778714664.1043	5.924150954040559e+21	2153413468952.4053	2.1686239513042738	164702198679.38492	1.742162797469971e+21	-6.997145845492341e+23	1488.9212215795612	-0.6765968723680422	23.150489058796424	1.8357810413885185	25.89779812257515	107.86833820682013	107.9208709276124	35.35979546048945	-0.0007238397701282622	4.791109703486752e+22	-0.10664810573563174	-0.0033220582326948874	-3.144577551089507e+23	-0.046328173117037866	0.3040684563344574	0.0	238.72729500000003	193.398636	-24.265602	41.513729	-17.642429	47.638962	0.0		True	0.0	None	0.0	None	0.0	None	0.0	None	0.0	None	0.0	None	0.0	None	0.0	None	1.0518e-06	12
2014-02-24 09:24:00	82.24540072303675	742553638.3284	5.578727796040809e+21	1988177814094.4675	0.8641283758942204	116644181053.85616	1.6563624789779378e+21	-6.68137885943347e+23	1478.0820159953864	-0.6775255905466329	23.075869292236675	1.5833919774806475	25.81785030294069	105.93095775960501	106.08047159559773	34.99759402348195	-0.0003040564306453977	5.28693365775415e+22	-0.07962308344962887	-0.0013874306291509068	-3.008229167605275e+23	-0.0536121798211347	0.3050496441170512	0.0	238.729019	193.289322	-24.261454	41.638161	-17.698135	47.698078	0.0		True	0.0	None	0.0	None	0.0	None	0.0	None	0.0	None	0.0	None	0.0	None	0.0	None	9.5962e-07	12
2014-02-24 09:36:00	78.96541362596267	707487503.4065001	5.268927989248399e+21	1884490324444.2795	5.030415677038559	429647043819.03577	1.5736135464694388e+21	-6.422845423115607e+23	1491.5166673066174	-0.6835907561069955	22.771284821338984	0.8646616541353384	25.45369493045339	106.04039202875744	106.12199937169493	34.97585539380267	-0.0018911337131723906	5.139576250054285e+22	-0.3133539765419722	-0.00844653456103528	-2.84180930870017e+23	-0.05470109559541436	0.30245700247662355	0.0	238.73077400000003	193.179977	-24.258087	41.760178	-17.791233	47.728249	0.0		True	0.0	None	0.0	None	0.0	None	0.0	None	0.0	None	0.0	None	0.0	None	0.0	None	1.2353e-06	12
2014-02-24 09:48:00	74.99215175991094	693835712.5495	5.168697493365589e+21	1818142956747.9468	1.4892951389638442	59462286763.22063	1.5481988819740564e+21	-6.250052826143719e+23	1467.0041138848578	-0.6782885796950453	22.844485855340995	1.58311345646438	25.855570553015777	106.08125231823601	105.94454159221249	34.77169624505899	-0.0005613626607477738	5.995398969002776e+22	0.04348253937679138	-0.0025579230683949626	-2.808546168775399e+23	-0.0650652204790904	0.3047981904821777	0.0	238.732483	193.070633	-24.265753	41.885818	-18.464041	47.769085	0.0		True	0.0	None	0.0	None	0.0	None	0.0	None	0.0	None	0.0	None	0.0	None	0.0	None	1.1277e-06	12
2014-02-24 10:00:00	75.97174940296246	683262630.3146	4.857138444926622e+21	1832893800180.421	7.058580018540223	523896936067.7789	1.541118768429141e+21	-6.233441704655248e+23	1382.223127711245	-0.6869541421404596	22.232608161112513	1.1337868480725624	25.52870447582809	105.2366050788764	105.07353736386452	34.347324679531155	-0.0026676417303628953	5.077039353827452e+22	-0.38412509927240257	-0.012247752244485596	-2.723884004380638e+23	-0.0559513247924853	0.3001846312482536	0.0	238.734146	192.961243	-24.264467	42.01207	-18.481844	47.816628	0.0		True	0.0	None	0.0	None	0.0	None	0.0	None	0.0	None	0.0	None	0.0	None	0.0	None	8.9881e-07	12
2014-02-24 10:12:00	76.29011374659274	686111578.1354	4.943364808305994e+21	1854553194207.2263	4.7750155045640135	315498763472.2702	1.5584358425406412e+21	-6.261394220895e+23	1379.1366852356855	-0.6871694348343399	22.358019293951834	0.8521674694331233	25.450701222975148	105.13907461436449	104.8365748007328	34.46729972043875	-0.0017691795126209765	4.1075644015125805e+22	-0.22678695007194336	-0.008249950345067269	-2.729313968649888e+23	-0.04507930037233137	0.29953410872355674	0.0	238.735855	192.851852	-24.256527	42.135677	-18.492449	47.90707800000001	0.0		True	0.0	None	0.0	None	0.0	None	0.0	None	0.0	None	0.0	None	0.0	None	0.0	None	9.9034e-07	12
2014-02-24 10:24:00	75.49970040751691	680137593.2354	4.769735583470067e+21	1842050515756.704	7.2481028076497855	535388357537.2673	1.5613040352306654e+21	-6.265436212809671e+23	1319.4520969977268	-0.6936525339882429	22.036938420751056	1.1756061719324025	25.28033747500935	103.2325196014616	103.08255681140881	33.742922657371345	-0.00266278574858552	3.957865111434021e+22	-0.3816023897286011	-0.012584421149841013	-2.6937333190538254e+23	-0.04381790940775901	0.2982258344327361	0.0	238.737411	192.742416	-24.256851	42.252617	-18.504202	48.014587	0.0		True	0.0	None	0.0	None	0.0	None	0.0	None	0.0	None	0.0	None	0.0	None	0.0	None	1.0831e-06	12
