Timestamp	TOTUSJH	TOTBSQ	TOTPOT	TOTUSJZ	ABSNJZH	SAVNCPP	USFLUX	TOTFZ	MEANPOT	EPSZ	MEANSHR	SHRGT45	MEANGAM	MEANGBT	MEANGBZ	MEANGBH	MEANJZH	TOTFY	MEANJZD	MEANALP	TOTFX	EPSY	EPSX	R_VALUE	CRVAL1	CRLN_OBS	LAT_MIN	LON_MIN	LAT_MAX	LON_MAX	QUALITY	NOAA_AR	IS_TMFI	BFLARE	BFLARE_label	CFLARE	CFLARE_label	MFLARE	MFLARE_label	XFLARE	XFLARE_label	BFLARE_loc	BFLARE_label_loc	CFLARE_loc	CFLARE_label_loc	MFLARE_loc	MFLARE_label_loc	XFLARE_loc	XFLARE_label_loc	XR_MAX	XR_QUAL
2014-01-31 06:12:00	21.104860950044973	145425381.10390002	1.0538375315185171e+21	484042315205.2442	3.762626059645956	233529437324.74426	2.9745019881612653e+20	-1.1693947438811585e+23	1587.0517607381275	-0.6054919323373779	21.423883649962736	1.0	28.95509766994684	135.67024804533267	134.87047247177827	53.043534358735954	-0.007525252119291913	-2.6826303696774107e+22	0.91428506940399	-0.032230921066602684	-5.651149878433732e+22	0.13890185968272	0.2926065537514265	0.0	177.161209	151.064758	-17.974293	22.340279	-15.524816	27.356098	66560.0		False	0.0	None	0.0	None	0.0	None	0.0	None	0.0	None	0.0	None	0.0	None	0.0	None	1.8840999999999999e-06	12
2014-01-31 06:24:00	22.88252304013793	157348376.6788	1.1532635577405142e+21	541858576859.6636	3.4370968110831392	237801903378.22504	3.217920661005648e+20	-1.2387776507954223e+23	1590.4628361667433	-0.5928143312098604	21.898138173987004	2.1978021978021984	29.28635845063333	140.54670586780253	138.83876745937187	55.30236340860582	-0.006295049104547874	-2.7708630849229024e+22	0.8525651273403254	-0.02742801253074216	-6.283822156353579e+22	0.13259904596340905	0.3007109328028745	0.0	177.164261	150.955765	-17.972051999999994	22.442148	-15.52522	27.4624	0.0		True	0.0	None	0.0	None	0.0	None	0.0	None	0.0	None	0.0	None	0.0	None	0.0	None	2.1034e-06	12
2014-01-31 06:36:00	23.15551378037011	151121437.9252	1.1326218435140126e+21	514758509335.9461	3.8059787324138146	285828358145.9204	3.0495206506780046e+20	-1.2280311613807292e+23	1698.9036518032392	-0.6118864610643072	21.78926389677668	2.1912350597609564	28.403065037464447	144.4939884659116	141.634389257566	55.97636894675527	-0.007581630941063374	-2.945976667961182e+22	1.114555469938729	-0.03124897870472482	-5.9000938271469126e+22	0.14678806975142564	0.2939817526927572	0.0	177.167252	150.846756	-17.96888	22.565784	-15.521791	27.570364	0.0		True	0.0	None	0.0	None	0.0	None	0.0	None	0.0	None	0.0	None	0.0	None	0.0	None	1.5628e-06	12
2014-01-31 06:48:00	24.57705572644105	163150810.0463	1.2733929481974684e+21	597059064355.7343	3.325076757304629	207528609722.69226	3.431711668987128e+20	-1.3019385989858598e+23	1582.2580568561575	-0.6008814097648624	22.44654466728256	2.145214521452145	29.407181129295072	135.24316916946674	132.71496692016072	52.94103120417389	-0.005486925342086847	-3.004140600120212e+22	0.6703494404105096	-0.025461458350369413	-6.443319382346893e+22	0.13864956767839845	0.29737737532673864	0.0	177.170319	150.737762	-17.96406	22.680468	-15.538918	27.67473	0.0		True	0.0	None	0.0	None	0.0	None	0.0	None	0.0	None	0.0	None	0.0	None	0.0	None	1.3650999999999999e-06	12
2014-01-31 07:00:00	23.445015004572912	163708831.0174	1.204113857072076e+21	530955413216.4378	1.3660211024760405	53186945370.27414	3.341555510084897e+20	-1.3416636035401263e+23	1624.8783077335245	-0.6171049307930272	21.771072739497814	2.3297491039426523	28.375299683289253	139.94459623335052	138.09185134624065	53.09788285380248	-0.0024480664918925463	-2.7944621950125226e+22	0.186579169064818	-0.010319938171656736	-6.49676628559074e+22	0.1285326958938674	0.29882203694497395	0.0	177.17335500000004	150.628754	-17.959536	22.798428	-15.537103	27.776606	0.0		True	0.0	None	0.0	None	0.0	None	0.0	None	0.0	None	0.0	None	0.0	None	0.0	None	1.6297999999999996e-06	12
2014-01-31 07:12:00	22.701414567898787	167023000.0487	1.1930017000093324e+21	514922999038.8029	0.9719800288124087	7464240531.6042185	3.3824704421583834e+20	-1.395209453169049e+23	1618.5850010144268	-0.6289998793547459	20.84550022355532	1.981981981981982	27.847036678151692	146.0361099411534	144.5087651223724	55.11727688849414	-0.0017513153672295654	-2.871634040013418e+22	0.02632581947303521	-0.007144798825376554	-6.6231866941646775e+22	0.12946138378124708	0.2985919871823556	0.0	177.176331	150.51973	-17.95628	22.918186	-15.556463	27.882345	0.0		True	0.0	None	0.0	None	0.0	None	0.0	None	0.0	None	0.0	None	0.0	None	0.0	None	1.2215999999999999e-06	12
2014-01-31 07:24:00	25.892992783127077	171306982.6164	1.2493390896588978e+21	604095492577.9232	3.2135922394073377	195739662043.5208	3.520542873196389e+20	-1.3812785535254927e+23	1534.6427671937076	-0.6071467101752733	22.290496102929676	3.4257748776508974	29.641171556204466	138.14905753709647	136.38799365518722	53.96574846239663	-0.005242401695607404	-2.9067525006285783e+22	0.6250362715834957	-0.023344801013264586	-6.745188352967443e+22	0.12776751029297864	0.2964875482620147	0.0	177.17941299999995	150.410706	-17.951954	23.048359	-15.554048000000002	27.986599	0.0		True	0.0	None	0.0	None	0.0	None	0.0	None	0.0	None	0.0	None	0.0	None	0.0	None	1.2469e-06	12
2014-01-31 07:36:00	24.864948986958176	163643590.5893	1.1174291345091056e+21	582404793306.3972	2.060347660935604	130692949851.67155	3.380819295954852e+20	-1.3555111155755377e+23	1458.249192097911	-0.6237228439668191	21.129421333529216	2.079722703639515	28.35657659706469	138.8716108239803	137.82829984751544	52.860897856	-0.0035707931731986187	-2.639354418445194e+22	0.4433651169428344	-0.015508136103825634	-6.335861344067009e+22	0.1214468568492745	0.29153737000695856	0.0	177.18237299999996	150.30166599999995	-17.958469	23.15421700000001	-15.55511	28.088076	0.0		True	0.0	None	0.0	None	0.0	None	0.0	None	0.0	None	0.0	None	0.0	None	0.0	None	2.2297e-06	12
2014-01-31 07:48:00	26.01918361110363	174115875.1999	1.2752369344551896e+21	613270165521.3738	1.8397066175322283	89289203413.13147	3.665265552895728e+20	-1.4451953599369517e+23	1516.9618152984692	-0.6249937360195545	21.72853708275412	3.7914691943127967	28.551573872603026	138.4815230439697	137.22818560958154	51.6094776833233	-0.0029063295695611825	-3.110395832170678e+22	0.27610807306820995	-0.01300434566397712	-6.585670138222099e+22	0.13451315756596474	0.2848059645070692	0.0	177.185379	150.19262700000004	-17.954697	23.284719	-15.571576	28.192671	0.0		True	0.0	None	0.0	None	0.0	None	0.0	None	0.0	None	0.0	None	0.0	None	0.0	None	2.3303999999999997e-06	12
2014-01-31 08:00:00	25.156980833123594	169712990.3827	1.219109421466091e+21	579521671690.0919	2.5793353128890897	150546369762.18573	3.414408210408213e+20	-1.4116180041446771e+23	1639.238541758812	-0.6263103649556291	21.399051187653104	2.6785714285714284	28.463144900416	149.1736697549504	149.51900046239868	54.654889902876214	-0.0046059559158733755	-3.3156711953635784e+22	0.5262177916871951	-0.018690429603409192	-6.1177142583363675e+22	0.1471105660556731	0.2714323449107982	0.0	177.18837	150.083572	-17.95607	23.397455	-15.569888	28.296963	0.0		True	0.0	None	0.0	None	0.0	None	0.0	None	0.0	None	0.0	None	0.0	None	0.0	None	1.9349e-06	12
2014-01-31 08:12:00	25.99712183731704	175513677.728	1.2747386309899725e+21	605160170355.3993	2.067785881478832	192750987514.87564	3.527332807411607e+20	-1.4473876650249642e+23	1626.8842514690164	-0.6209568467643888	21.873731300673885	2.8813559322033897	28.68357189819589	149.46921274644214	149.3143080654147	54.75376550321232	-0.003504721833014969	-3.7712338820788352e+22	0.6394813267107782	-0.014536275374389031	-6.26810860582749e+22	0.16179310881347794	0.2689137850973903	0.0	177.191284	149.974487	-17.956324	23.527658	-15.590571	28.401207	0.0		True	0.0	None	0.0	None	0.0	None	0.0	None	0.0	None	0.0	None	0.0	None	0.0	None	1.3813e-06	12
2014-01-31 08:24:00	27.898033630178666	180876418.8546	1.4231970944014748e+21	657662318089.3091	2.77356794919392	223825732405.15155	3.740443585718043e+20	-1.4963872335348405e+23	1633.6112054081073	-0.6229447615378552	24.184425561311016	7.4695121951219505	30.632272072800703	136.87159680219736	137.69855615679643	50.418570269628994	-0.004227999922551707	-3.9869236418855725e+22	0.6678670031721625	-0.018896575907092168	-6.084729395168219e+22	0.16597529982243187	0.25330677896398873	0.0	177.19429	149.865387	-17.952317999999995	23.660292	-15.589382	28.507975	0.0		True	0.0	None	0.0	None	0.0	None	0.0	None	0.0	None	0.0	None	0.0	None	0.0	None	1.2067e-06	12
2014-01-31 08:36:00	26.773060888753015	171352377.7826	1.3140649372781052e+21	600819708983.8197	2.083597014583665	56702458156.96059	3.477770980690444e+20	-1.4276353777076798e+23	1732.8792736839525	-0.6273570090179165	22.818190220584807	3.327495621716287	28.139365056665522	141.5124636413079	142.92123998736253	51.384108915144786	-0.003649031549183302	-4.0161045389990315e+22	0.19437967117637056	-0.01494413382689376	-5.685927366160666e+22	0.1764828310387812	0.24986116494642305	0.0	177.197174	149.756271	-17.948725	23.793564	-15.590369	28.611135	0.0		True	0.0	None	0.0	None	0.0	None	0.0	None	0.0	None	0.0	None	0.0	None	0.0	None	1.2183e-06	12
2014-01-31 08:48:00	27.80714093821733	177496389.2739	1.437487372490241e+21	633845732367.6378	2.3713684190473803	133094302070.01636	3.580177868430434e+20	-1.4239204669352088e+23	1771.5373275190652	-0.6040650223698162	24.234990170890786	7.528641571194763	30.22642900909749	142.16998127436997	143.54262831964041	51.70672192111101	-0.0038811267087518492	-4.500094838501176e+22	0.4263879775197338	-0.016657795869171814	-5.860954031891244e+22	0.1909060198521044	0.2486372947502513	0.0	177.200089	149.647141	-17.958307	23.9284	-15.606344	28.695574	0.0		True	0.0	None	0.0	None	0.0	None	0.0	None	0.0	None	0.0	None	0.0	None	0.0	None	1.2646e-06	12
2014-01-31 09:00:00	26.02940491115025	172504251.301	1.3023114148827308e+21	598857490596.6257	0.9808548073512842	77855833514.68536	3.4886516687791515e+20	-1.4133825799836952e+23	1708.4035188424793	-0.6169463997724852	23.05931545827888	3.3101045296167246	28.625038155005512	136.9450233087091	138.2490518375059	49.79876586489108	0.0017088062845841189	-4.758743974250548e+22	-0.2655023103505461	0.007032978574811793	-5.4527958613184764e+22	0.2077208254814314	0.2380164311472941	0.0	177.202972	149.537979	-17.956723999999994	24.058783	-15.609521	28.799997	0.0		True	0.0	None	0.0	None	0.0	None	0.0	None	0.0	None	0.0	None	0.0	None	0.0	None	1.0998e-06	12
2014-01-31 09:12:00	24.752983484311105	165419956.6052	1.2355178253871038e+21	566697479268.8926	1.2057642304690948	63065254872.64716	3.3036780913579026e+20	-1.3273416244227736e+23	1729.2359015254785	-0.604202217511996	22.87684801566482	3.3457249070631967	29.054828388331	136.1890331221402	138.52262436468425	51.22776809927174	0.0022411974544035216	-4.493564820089124e+22	-0.2294562034688035	0.009087519943022962	-5.149770237797965e+22	0.20454582142803174	0.23441610962120785	0.0	177.205811	149.428802	-17.98292	24.192438	-15.627046	28.873388	0.0		True	0.0	None	0.0	None	0.0	None	0.0	None	0.0	None	0.0	None	0.0	None	0.0	None	1.1272e-06	12
2014-01-31 09:24:00	27.450020978299452	167989542.7237	1.3101890017114396e+21	594745312492.5183	1.2358254587088884	54988183568.35871	3.273020806485806e+20	-1.3492153997906797e+23	1930.6366314108136	-0.6047648404579357	22.513025424698306	2.9354207436399222	28.45535500769101	144.52396749245295	145.67753303439866	55.396223070038516	0.0024184451246749283	-4.328706620020272e+22	-0.2106414459703144	0.009168398571183891	-5.589314829063359e+22	0.19402754881480816	0.2505323532026163	0.0	177.208649	149.319595	-18.008851999999994	24.306593	-15.628971	28.99365	0.0		True	0.0	None	0.0	None	0.0	None	0.0	None	0.0	None	0.0	None	0.0	None	0.0	None	1.1519e-06	12
2014-01-31 09:36:00	24.94565010696792	167192410.19840002	1.294589453589832e+21	575827094167.7577	2.1404345954328745	166195151289.10052	3.343835649348409e+20	-1.31807447585299e+23	1791.9283803661713	-0.5936232119521762	22.409671997412552	2.5735294117647056	29.261136362040173	133.0524608474366	132.69742797897294	55.037051132200936	0.003934622418075137	-4.65893540290612e+22	-0.5980242262750299	0.016066813484566702	-5.696750722639703e+22	0.20982518429856165	0.25656543113588354	0.0	177.211472	149.210373	-18.003582	24.440956	-15.645184	29.12792	0.0		True	0.0	None	0.0	None	0.0	None	0.0	None	0.0	None	0.0	None	0.0	None	0.0	None	1.6603e-06	12
2014-01-31 09:48:00	23.62345659431951	164272213.2388	1.2190920276051734e+21	551419767000.761	1.2785669713093062	180231770528.0452	3.27460521137558e+20	-1.2680424287093948e+23	1665.9899557251556	-0.5812422339352022	22.580226959343953	3.2667876588021776	30.33420545700395	134.29250019941907	134.03470783799114	55.52003020702315	0.002320448223791844	-4.372153355436631e+22	-0.6403001408245578	0.009844438789699749	-5.711364649827285e+22	0.20040971231599689	0.26179615703103165	0.0	177.214249	149.10110500000005	-18.025846	24.573954	-15.64671	29.235014000000003	0.0		True	0.0	None	0.0	None	0.0	None	0.0	None	0.0	None	0.0	None	0.0	None	0.0	None	1.418e-06	12
2014-01-31 10:00:00	24.1689110171882	170226152.8677	1.2177407515902618e+21	539463671217.0851	2.476818760721684	201624117181.42868	3.340353109866952e+20	-1.3660149058857863e+23	1733.3516828130066	-0.6042500190698797	21.55741921769319	1.5122873345935728	28.08120753862652	139.16874836811758	138.7881412346342	58.84605101305191	0.0046820770524039395	-4.190984443663312e+22	-0.7460977267458928	0.018139524018591462	-5.744447962616388e+22	0.18538614908912726	0.2541028488050118	0.0	177.21701000000004	148.991806	-18.02137	24.691452	-15.653466	29.348583	0.0		True	0.0	None	0.0	None	0.0	None	0.0	None	0.0	None	0.0	None	0.0	None	0.0	None	1.1998000000000001e-06	12
2014-01-31 10:12:00	22.67212406712525	165613483.0502	1.2894787372023412e+21	492882612559.9978	3.581757640321673	256849948931.7393	3.15808645874532e+20	-1.2917238254023223e+23	1953.643354114316	-0.5873019825113964	22.555930470169	3.0181086519114686	29.16560630403948	141.76069048685733	140.12244694778155	59.682450463122386	0.007206755815536566	-3.934462894610699e+22	-1.0116668139695273	0.0272502782987627	-6.001210523405515e+22	0.17888636972401525	0.2728542098978905	0.0	177.219696	148.88249199999996	-18.018787	24.818096	-15.650636	29.458757	0.0		True	0.0	None	0.0	None	0.0	None	0.0	None	0.0	None	0.0	None	0.0	None	0.0	None	1.5125e-06	12
2014-01-31 10:24:00	21.23471860236252	159433225.6238	1.1106390607385133e+21	494848093548.4672	0.8256214222382003	60188187681.32317	3.11464178620828e+20	-1.2287851343613702e+23	1608.2629765412023	-0.5803427728993261	21.968922531144905	2.6923076923076925	30.338478597897748	134.4802067203002	132.9202631237576	58.48595827894796	0.0015877335043042314	-3.7907438795633195e+22	-0.2265835201388971	0.0065536134389748354	-5.800749218312377e+22	0.17903299388141472	0.2739635101460286	0.0	177.222382	148.773132	-18.017576	24.91677300000001	-15.644419	29.570856	0.0		True	0.0	None	0.0	None	0.0	None	0.0	None	0.0	None	0.0	None	0.0	None	0.0	None	1.7259999999999999e-06	12
2014-01-31 10:36:00	20.31605908223156	158355753.0966	1.0859853027440426e+21	462956414402.6317	4.3493684058299955	316300305447.1992	3.0353624543035235e+20	-1.2120799910478224e+23	1625.7117402776278	-0.5763482984727732	21.87862892111605	1.5904572564612325	30.295635865018987	136.52365133377822	134.27381923153757	59.846189611719076	0.008646855677594425	-3.676564489847551e+22	-1.231001581626992	0.0348473825286592	-5.8947418239484e+22	0.17482193449272534	0.2802970468336778	0.0	177.225037	148.66374199999996	-18.036003	25.019714	-15.638677	29.677589	0.0		True	0.0	None	0.0	None	0.0	None	0.0	None	0.0	None	0.0	None	0.0	None	0.0	None	1.0146e-06	12
2014-01-31 10:48:00	22.79438589493908	170155032.59930003	1.1967403661321094e+21	489593424551.4374	2.0722627034810044	191545607995.56165	3.2098898763345075e+20	-1.3447776515113107e+23	1736.281371694643	-0.5951044641198381	21.86106243707723	2.8901734104046244	29.40679349594504	141.8100791644427	141.13271822985928	60.39027873843653	0.003992799043316	-3.5779907197051007e+22	-0.7225013855477604	0.015270064703571671	-6.264148306180713e+22	0.1583368259788446	0.2772073596499316	0.0	177.227676	148.554321	-18.032133	25.122753	-15.631426	29.789536	0.0		True	0.0	None	0.0	None	0.0	None	0.0	None	0.0	None	0.0	None	0.0	None	0.0	None	2.4411000000000002e-06	12
2014-01-31 11:00:00	23.740993746961603	173878780.0836	1.2434880096178337e+21	513315214392.1773	1.8553638238410657	178581630337.76367	3.2138258294740995e+20	-1.3608434817585689e+23	1865.1998357779125	-0.5893171455823022	21.665942112566015	1.593625498007968	29.805714314336228	150.42239886084712	148.6198043987172	61.917490488001526	0.0036959438721933576	-3.419381000854404e+22	-0.6964247633448899	0.013427709188420369	-6.560318690524765e+22	0.1480772681129965	0.28409646933196525	0.0	177.230255	148.44485500000005	-18.029045	25.225451	-15.628188	29.911608	0.0		True	0.0	None	0.0	None	0.0	None	0.0	None	0.0	None	0.0	None	0.0	None	0.0	None	1.8299e-06	12
2014-01-31 11:12:00	22.82474951349293	175235529.5215	1.212467928536299e+21	501595375233.3832	1.4740340212157328	110084959236.5886	3.307079394844973e+20	-1.4177140619417545e+23	1779.67345213349	-0.6091916039937688	21.075360763027188	2.53411306042885	28.78324740154205	152.91516310787864	151.71957536987753	61.60116324329535	0.0028733606651378807	-3.523287160090408e+22	-0.4201065335150759	0.010454603819984814	-6.504679926474572e+22	0.15139561735364288	0.2795060375184396	0.0	177.232773	148.335373	-18.041107	25.326672	-15.62425	30.021938	0.0		True	0.0	None	0.0	None	0.0	None	0.0	None	0.0	None	0.0	None	0.0	None	0.0	None	1.2307e-06	12
2014-01-31 11:24:00	23.672498097892593	171921266.05110002	1.275121428781905e+21	548845881082.981	0.6921746295789502	150382509559.1737	3.31312751726866e+20	-1.348661125098901e+23	1768.2318206208167	-0.5906915056797899	22.71234952777675	4.23572744014733	30.16482651501893	146.487769496978	143.75452440553738	60.35198508007163	0.0012747230747310314	-3.580695715696426e+22	-0.5421937148570449	0.005062092886971686	-6.589950923549448e+22	0.15682861352816035	0.2886290678173057	0.0	177.235291	148.225845	-18.042646	25.430058	-15.619139	30.12933	0.0		True	0.0	None	0.0	None	0.0	None	0.0	None	0.0	None	0.0	None	0.0	None	0.0	None	1.0821e-06	12
2014-01-31 11:36:00	21.75379153789711	157235371.10290003	1.1448667884709139e+21	492433704236.1132	1.2227827779816465	140893931888.12613	3.087477531540757e+20	-1.2655549726036456e+23	1700.334895698306	-0.6060636467600922	22.468629295300246	4.142011834319527	28.724335792581325	143.73122241362742	142.09936536472938	57.12013045786194	0.002411800351048612	-3.034769816318761e+22	-0.5440636963097987	0.009684257019356076	-6.088770265469592e+22	0.1453325775467231	0.2915860939476257	0.0	177.237778	148.116272	-18.039183	25.538172	-15.613866	30.237005	0.0		True	0.0	None	0.0	None	0.0	None	0.0	None	0.0	None	0.0	None	0.0	None	0.0	None	1.051e-06	12
2014-01-31 11:48:00	24.67175064282319	159014287.7844	1.192550153081373e+21	575300400721.9238	2.1196514405154656	139757319523.8033	3.217878141978012e+20	-1.2947818304724076e+23	1626.766203389939	-0.6131235736953994	23.008445583132684	3.260869565217391	29.324409267905693	142.13326791455597	139.38789741034321	56.89674236969999	0.00383994826180338	-3.0355923053072246e+22	-0.4956895649436433	0.016526871865561017	-6.129540352647985e+22	0.14374569975492751	0.29025474390187456	0.0	177.240219	148.006668	-18.037157	25.639374	-15.610096	30.347418	0.0		True	0.0	None	0.0	None	0.0	None	0.0	None	0.0	None	0.0	None	0.0	None	0.0	None	1.0657e-06	12
2014-01-31 12:00:00	22.103075467103206	149088827.84829998	1.1037075746337059e+21	517943279815.6703	0.4554671029097224	43421746469.807175	2.9810946720202614e+20	-1.2138493085289057e+23	1675.5595847928464	-0.6130659626642322	22.106362071266872	2.82258064516129	29.351238131114656	145.62031695920106	142.50683869208837	58.05643403118701	0.0009182804494147627	-2.9763161533163562e+22	-0.17139925864498146	0.003787823923920153	-5.726702358127112e+22	0.1503216350584217	0.2892324664526612	0.0	177.24263	147.89703400000005	-18.032541	25.746204	-15.605268	30.459103	0.0		True	0.0	None	0.0	None	0.0	None	0.0	None	0.0	None	0.0	None	0.0	None	0.0	None	1.0434e-06	12
2014-01-31 12:12:00	22.77980850662625	152662519.2357	1.114838355476712e+21	540847235786.9281	1.8134252370835595	127975514096.33301	3.099597880199692e+20	-1.2484052315692671e+23	1598.9693893345159	-0.6157589120651521	22.213967286187223	4.0	29.141784876022946	145.75890261215196	142.96783127472582	57.39119433205945	0.003454143308730589	-2.800191793158306e+22	-0.4772657517893689	0.01470349797974918	-5.903715499002794e+22	0.13811565415834742	0.2911927426192009	0.0	177.24496499999995	147.78736899999996	-18.045595	25.87289	-15.620807	30.56452	0.0		True	0.0	None	0.0	None	0.0	None	0.0	None	0.0	None	0.0	None	0.0	None	0.0	None	9.8952e-07	12
2014-01-31 12:24:00	22.921820290292487	154420973.7139	1.1467693127473027e+21	549550248879.5854	2.695242193126837	222351093378.6554	3.199073296640501e+20	-1.281214733821343e+23	1584.4083051409625	-0.6247455730931972	22.002983103078428	3.1192660550458715	28.497433079509648	145.73991598767225	143.13075827496593	55.71450331779784	0.004945398519498784	-2.9273318498854926e+22	-0.7988128437497337	0.02148503885818217	-5.847255316938462e+22	0.14274247445906293	0.28512370155995703	0.0	177.247314	147.677658	-18.043758	25.978645	-15.617189000000002	30.675144	0.0		True	0.0	None	0.0	None	0.0	None	0.0	None	0.0	None	0.0	None	0.0	None	0.0	None	1.0617e-06	12
2014-01-31 12:36:00	20.656181208693987	145449519.3456	1.1010359704053362e+21	486824848051.317	2.224771954744461	221623982034.4649	2.9679717756652565e+20	-1.1843976769684504e+23	1674.8802254844352	-0.6131584293825849	21.79875295541009	2.4242424242424243	28.92320280820531	144.0936823711289	141.4117283461612	57.443832811667825	0.0044944887974635575	-2.8735778107386776e+22	-0.8766445092976828	0.01896383572773177	-5.6257840259998845e+22	0.1487640926188771	0.29124482127126033	0.0	177.249603	147.567902	-18.040533	26.086384	-15.61549	30.782484000000004	0.0		True	0.0	None	0.0	None	0.0	None	0.0	None	0.0	None	0.0	None	0.0	None	0.0	None	1.1205e-06	12
2014-01-31 12:48:00	22.20789235727166	143065783.1877	1.1448635753095743e+21	546251149797.5931	3.0181280171730647	227348913872.9701	3.0416165751743106e+20	-1.1318768202611527e+23	1593.4700528863825	-0.5957318535032317	22.58155857478807	3.3271719038817005	29.36450382503477	142.6231521222253	140.15250613704183	54.9386596758193	0.0055787948561424475	-2.956548638231363e+22	-0.822844066861288	0.02644063990312451	-5.662466672144736e+22	0.15560970670109192	0.2980281692860138	0.0	177.25186200000005	147.458115	-18.03698	26.192879	-15.611825	30.89187	0.0		True	0.0	None	0.0	None	0.0	None	0.0	None	0.0	None	0.0	None	0.0	None	0.0	None	1.0679e-06	12
2014-01-31 13:00:00	21.019622427732514	144319906.3044	1.155576169340725e+21	526495374486.3558	3.0548913664314403	284766789486.573	3.120322475326716e+20	-1.1584902861197078e+23	1545.5308133878054	-0.6044406224780128	22.818194648530213	3.3747779751332145	29.15649310085784	137.64513797175601	134.29323016129268	54.197596222153024	0.005426094789398651	-2.753739619183318e+22	-0.9904055081329368	0.02638614102551821	-5.766718350959864e+22	0.14367596427041074	0.30087769155013744	0.0	177.254089	147.348297	-18.032297	26.318243	-15.607037	31.017563	0.0		True	0.0	None	0.0	None	0.0	None	0.0	None	0.0	None	0.0	None	0.0	None	0.0	None	1.0802e-06	12
2014-01-31 13:12:00	21.9333402145722	140503580.5896	1.079803129044836e+21	538126404392.9614	1.1689380003263268	136506997030.08646	3.0440050439752234e+20	-1.1525665783221603e+23	1497.3804844766355	-0.6176835657967845	22.07925273582478	1.841620626151013	28.752409517040682	136.94710114052072	133.3390110953628	53.33879558304949	0.002152740332092683	-2.594324429853147e+22	-0.4922631934308057	0.010285857595297043	-5.560799418257215e+22	0.13903505400947744	0.2980144035019656	0.0	177.256226	147.238434	-18.02924	26.426884	-15.626701999999998	31.125809000000004	0.0		True	0.0	None	0.0	None	0.0	None	0.0	None	0.0	None	0.0	None	0.0	None	0.0	None	1.0554999999999999e-06	12
2014-01-31 13:24:00	21.345876708894085	147744267.4259	1.1248397923182606e+21	506395378128.1792	1.1789184964555923	138790333713.37006	3.178367510597809e+20	-1.1869545277915296e+23	1515.1875509100455	-0.6049381477783963	21.316912194109566	1.4311270125223614	28.698889640133324	136.88818938742452	133.79473521488472	53.00892107915303	0.0021089776322998077	-2.9588722027030886e+22	-0.4861834206954006	0.009943627306853673	-5.869012854879529e+22	0.1508006101250211	0.2991175889715289	0.0	177.258377	147.128525	-18.025492	26.533531	-15.621156	31.231863	0.0		True	0.0	None	0.0	None	0.0	None	0.0	None	0.0	None	0.0	None	0.0	None	0.0	None	1.0339e-06	12
2014-01-31 13:36:00	20.9246959449263	149114503.06129998	1.1975858969253792e+21	490521013676.8751	0.656123686962631	95265639710.7575	3.1612362762342125e+20	-1.2190229916550929e+23	1666.8513941163144	-0.6155728912255126	22.424135599314507	2.4029574861367835	28.326008300367647	141.84004045764058	138.0223726284587	55.34806067347482	0.0012127979426296322	-3.0824687936127883e+22	-0.3448276625139889	0.005447149182342605	-5.8864671145934314e+22	0.15565614761870802	0.29725030665044405	0.0	177.26049799999996	147.0186	-18.020832	26.645636	-15.618032	31.338745	0.0		True	0.0	None	0.0	None	0.0	None	0.0	None	0.0	None	0.0	None	0.0	None	0.0	None	1.3399e-06	12
2014-01-31 13:48:00	21.336844420067557	145521672.9646	1.0871869320071007e+21	509540466078.2173	2.178402982422748	207890354749.2641	3.13707737514334e+20	-1.2039055307579476e+23	1499.3361968469974	-0.6229485448978612	21.30471305899269	1.465201465201465	28.19394851446922	135.40335948569845	132.6239885087598	52.744850109879806	0.003989749052056316	-3.161654755485604e+22	-0.7456159137589342	0.018447426507577847	-5.509858245428226e+22	0.16359657623295273	0.2851019526774724	0.0	177.262573	146.90863000000004	-18.015991	26.77478	-15.63397	31.432499	0.0		True	0.0	None	0.0	None	0.0	None	0.0	None	0.0	None	0.0	None	0.0	None	0.0	None	1.6641999999999999e-06	12
2014-01-31 14:00:00	20.63010021121609	144587987.2126	1.1395042382445363e+21	509023639269.4888	2.068382233125407	141562434597.62408	3.189773429015346e+20	-1.1766059638068461e+23	1487.0571509277152	-0.6127542912726799	22.564808618595404	3.2928942807625647	28.69238738976624	128.1743798799248	125.45894374865976	49.98550477640542	0.0035847179083629242	-3.21816324654523e+22	-0.4804588376202243	0.017740276159589334	-5.54935240642016e+22	0.1675958987116206	0.28899985257736965	0.0	177.26461799999996	146.79861499999996	-18.01189	26.88163	-15.635006	31.538824	0.0		True	0.0	None	0.0	None	0.0	None	0.0	None	0.0	None	0.0	None	0.0	None	0.0	None	1.6209e-06	12
2014-01-31 14:12:00	20.297046426716	147619935.701	1.1523220048050946e+21	497059439060.2147	2.5026836968031234	236380733901.3169	3.2785104758229854e+20	-1.2274817341422888e+23	1485.7595997305798	-0.6261199807376279	21.990630852735986	2.910958904109589	27.842618959995125	127.93954347260531	125.37645198065815	49.54636987301857	0.004285417289046445	-3.110715859248308e+22	-0.7926721546770293	0.02085155088194373	-5.656209967372537e+22	0.1586729398652714	0.28851476786283065	0.0	177.26658600000005	146.688583	-18.008635	26.994841	-15.633294	31.646811	0.0		True	0.0	None	0.0	None	0.0	None	0.0	None	0.0	None	0.0	None	0.0	None	0.0	None	1.5066e-06	12
2014-01-31 14:24:00	20.232576596185783	152060972.6027	1.1969969799438297e+21	498815547718.6632	0.2107531726672236	57560222853.830376	3.326709579533554e+20	-1.2443281588564475e+23	1535.4739575689264	-0.616175841424523	21.997520360553327	3.918228279386713	28.417058628132143	131.70415550187272	130.21583145144427	50.41556497428189	-0.0003590343657022549	-3.3131767046823783e+22	0.1920388182975208	-0.0017151327598342967	-5.809558933563967e+22	0.16406439324429936	0.28768213904955164	0.0	177.26856999999995	146.578522	-18.00775	27.107840000000003	-15.629874	31.75444	0.0		True	0.0	None	0.0	None	0.0	None	0.0	None	0.0	None	0.0	None	0.0	None	0.0	None	1.3357e-06	12
2014-01-31 14:36:00	23.820437642270516	163227873.9216	1.3112579894310847e+21	563011843901.4458	1.8108460984486001	185901983562.518	3.476101292856507e+20	-1.3267721989476328e+23	1653.8700406310074	-0.6120538059080829	22.105321484944344	3.015075376884422	28.28583257062705	134.77966810007757	132.57071029106194	51.373741418152896	0.003033243045977554	-3.5254776652419062e+22	-0.6098522625507895	0.013763778669091328	-6.201557147044552e+22	0.16263394909591544	0.2860842771212532	0.0	177.270508	146.468414	-18.017134	27.22562000000001	-15.642404	31.860926	0.0		True	0.0	None	0.0	None	0.0	None	0.0	None	0.0	None	0.0	None	0.0	None	0.0	None	1.6294e-06	12
2014-01-31 14:48:00	21.510106061505862	165327840.509	1.2632164618921928e+21	492332778447.5557	0.026801964183055027	26872185436.590424	3.3955408054318354e+20	-1.3502590517821667e+23	1692.5010316230469	-0.6149765917668609	21.685400727730688	2.6690391459074734	28.344358224238768	141.1887040618397	139.83984658496954	53.14437226738474	4.769032772785592e-05	-3.5494497305734488e+22	0.09364651789623046	0.00020076333122112696	-6.18399321018537e+22	0.16165997888144593	0.28165047757981904	0.0	177.2724	146.358292	-18.013320999999994	27.335533	-15.645672	31.970407	0.0		True	0.0	None	0.0	None	0.0	None	0.0	None	0.0	None	0.0	None	0.0	None	0.0	None	1.5236000000000001e-06	12
2014-01-31 15:00:00	22.068162461429	158967191.55150002	1.135156964317497e+21	494133400474.1346	1.1343028585790402	121480374582.71175	3.266755828363761e+20	-1.331406277421104e+23	1597.6792106425196	-0.6306531172667874	21.204634004228502	2.803738317757009	28.161789759471546	142.67137385675994	141.6266928384446	53.76886089557824	0.0021201922590262435	-3.3327944916945435e+22	-0.4447205600722784	0.008751649892673134	-5.791194344540779e+22	0.15786595504626436	0.2743140713709647	0.0	177.274323	146.248123	-18.007187	27.467274	-15.641177	32.076473	0.0		True	0.0	None	0.0	None	0.0	None	0.0	None	0.0	None	0.0	None	0.0	None	0.0	None	1.2839e-06	12
2014-01-31 15:12:00	22.121247305531433	156185839.97570002	1.1173673762865969e+21	490407178356.8519	0.30375102354168715	30314919021.918427	3.1486100238337946e+20	-1.2788399812722696e+23	1649.731643866008	-0.616541112330554	20.769432662940567	1.96078431372549	28.50355438404345	142.97484281356242	141.54500448465544	55.58772072885521	0.0005955902422386022	-3.418378272361885e+22	-0.11642088613039725	0.0024061313625720893	-5.710069779709667e+22	0.16480331967036654	0.27528798168828555	0.0	177.27613799999997	146.137939	-18.002537	27.575752	-15.658913	32.184418	0.0		True	0.0	None	0.0	None	0.0	None	0.0	None	0.0	None	0.0	None	0.0	None	0.0	None	1.1095e-06	12
2014-01-31 15:24:00	23.09181714018289	161540453.3078	1.1962478845341902e+21	525448735976.8626	0.7072016342623101	71306862428.4946	3.3180978546438524e+20	-1.3150068807493933e+23	1628.8593712043273	-0.6129630100921531	21.427224208856327	1.8083182640144664	28.64132299303289	136.45707025680915	134.702111997979	53.20719444503887	0.001278845631577414	-3.503693158257921e+22	-0.2525575984729489	0.005428346307196153	-5.898621104350513e+22	0.16331734351847413	0.2749519109326121	0.0	177.277954	146.02771	-17.995588	27.686024	-15.65731	32.294144	0.0		True	0.0	None	0.0	None	0.0	None	0.0	None	0.0	None	0.0	None	0.0	None	0.0	None	9.916e-07	12
2014-01-31 15:36:00	22.07991641645254	162227800.5056	1.2601989050996448e+21	505995339008.8751	0.5107963930877184	49980295484.73755	3.3356905835881615e+20	-1.323917378294212e+23	1700.5617407467678	-0.6145017272977129	22.060904148265095	3.2258064516129035	28.824749481163998	135.4670934471529	134.3170727539343	51.27332543368437	-0.0009154057223794236	-3.628972086592688e+22	0.1754397969125866	-0.003900443789567596	-5.834877468591223e+22	0.16844024046271114	0.2708282512039813	0.0	177.27976999999996	145.917465	-17.989910000000005	27.818203000000004	-15.656987	32.400673	0.0		True	0.0	None	0.0	None	0.0	None	0.0	None	0.0	None	0.0	None	0.0	None	0.0	None	1.145e-05	12
2014-01-31 15:48:00	22.88740581536037	163964682.0868	1.2564080102008286e+21	534927178793.1909	0.4378871401842557	110361608583.28552	3.366553861199698e+20	-1.3428471440975878e+23	1677.4097964163736	-0.6166856618321724	22.021375358073282	2.6595744680851063	29.103443807662906	136.6664797047833	134.7465434347855	52.722241499345294	-0.0007763956386245668	-3.660566289762281e+22	0.383275891619116	-0.0033038193222653146	-5.8562402716580145e+22	0.16810690293418384	0.268940469036228	0.0	177.281509	145.807205	-17.986310999999993	27.925642	-15.673832999999998	32.507488	0.0		True	0.0	None	0.0	None	0.0	None	0.0	None	0.0	None	0.0	None	0.0	None	0.0	None	1.1669000000000001e-05	12
2014-01-31 16:00:00	24.788253260802712	169607021.74660003	1.2951604313451997e+21	557971686664.4519	1.2428258872734288	18553302544.756042	3.415723659927338e+20	-1.3889958515556915e+23	1750.8780558400174	-0.6166583941015202	21.917645104932642	3.052064631956912	28.703831834761022	143.7422434520932	142.80675718604206	54.41123666442276	0.002231285255428059	-3.818756430228816e+22	-0.06524500518445815	0.009065216836734587	-5.93778547512978e+22	0.1695374543482096	0.26361383668006233	0.0	177.28331	145.696915	-17.981348	28.055765	-15.674171	32.617085	0.0		True	0.0	None	0.0	None	0.0	None	0.0	None	0.0	None	0.0	None	0.0	None	0.0	None	5.804700000000001e-06	12
2014-01-31 16:12:00	21.139214227903626	155461658.3603	1.1420862484283037e+21	486206150710.1304	1.010785481421386	160538033165.0044	3.1390924711917525e+20	-1.2184467068715024e+23	1634.9353242829147	-0.5901612107601794	21.83208275135808	2.281368821292776	29.579424761757213	135.82503831159892	134.55589261850182	54.12883681858239	-0.001921645401941799	-3.678739044624765e+22	0.5978355058341586	-0.008177575064836884	-5.475306994222443e+22	0.17818170268775296	0.26519943685438274	0.0	177.284988	145.586594	-17.975176	28.166088	-15.673435	32.721081	0.0		True	0.0	None	0.0	None	0.0	None	0.0	None	0.0	None	0.0	None	0.0	None	0.0	None	3.9491e-06	12
2014-01-31 16:24:00	23.228661486445	166206529.498	1.1772805922766894e+21	525128276382.0562	1.5791730371212738	80275881357.25166	3.35474509056468e+20	-1.329384258463773e+23	1580.1731590639408	-0.6022683039814302	21.475944405516305	2.4955436720142603	29.43858999067953	139.2236044935345	138.00714539323204	54.87180822138487	0.002814925199859668	-3.70393762304674e+22	-0.28029793305055595	0.011859773450832105	-5.815585069566304e+22	0.16780432114212224	0.2634710418908479	0.0	177.286713	145.476257	-17.971231	28.281576	-15.693594	32.812003999999995	0.0		True	0.0	None	0.0	None	0.0	None	0.0	None	0.0	None	0.0	None	0.0	None	0.0	None	3.3597e-06	12
2014-01-31 16:36:00	24.602568269538878	170346114.2467	1.2484504554777682e+21	559826082142.0332	3.205953963999018	291562504438.84216	3.399203690506777e+20	-1.3639360069318264e+23	1681.6942347595218	-0.6029055674446628	22.24519609852592	3.041144901610018	29.02507261040041	145.35322194405632	143.32988101217967	57.576717217809495	0.005735159148477671	-3.846162658891021e+22	-1.0217041502746451	0.023482650193964547	-5.8446153527171305e+22	0.17001331943420625	0.2583516468380644	0.0	177.288422	145.365921	-17.964762	28.414997	-15.690716	32.913944	0.0		True	0.0	None	0.0	None	0.0	None	0.0	None	0.0	None	0.0	None	0.0	None	0.0	None	4.129599999999999e-06	12
2014-01-31 16:48:00	25.10383106592341	167784350.7908	1.2745530566171117e+21	563113766717.1354	2.711173997265649	187177255582.52325	3.27934719978487e+20	-1.3394806022122617e+23	1817.655514738794	-0.6011357534157497	23.0524065487177	4.545454545454546	29.02444468024576	148.06776879300762	146.81161450493283	57.41525781660585	0.005134799237245548	-3.84321917002954e+22	-0.6944352200290694	0.020184025163341283	-5.819733130884364e+22	0.17247703680829088	0.2611795687473784	0.0	177.290054	145.25555400000005	-17.959791	28.530954	-15.711685	33.012524	4096.0		True	0.0	None	0.0	None	0.0	None	0.0	None	0.0	None	0.0	None	0.0	None	0.0	None	4.1121e-06	12
2014-01-31 17:00:00	23.97119608500833	168337752.1804	1.317049367362715e+21	560028511990.6096	3.0804694782404067	181216171236.86844	3.3468896402602426e+20	-1.3297402754936632e+23	1783.6711057503753	-0.5948025392206594	23.018687371423567	4.496402877697841	30.054069387382874	145.02692847647336	144.4833915658423	55.032257887770605	0.0055404127306482144	-4.174593994724139e+22	-0.6384714662292189	0.02294871981251792	-5.64832894234328e+22	0.18673263900015388	0.25265387979709536	0.0	177.291779	145.145172	-17.957210999999994	28.661686	-15.712698	33.097973	4096.0		True	0.0	None	0.0	None	0.0	None	0.0	None	0.0	None	0.0	None	0.0	None	0.0	None	4.1002e-06	12
2014-01-31 17:12:00	21.275396781429656	155394680.7271	1.1141662136944616e+21	483131413720.5486	2.025077251149684	24934179412.887432	3.0887424283279734e+20	-1.2395444799088018e+23	1638.5793760281415	-0.6006388615425926	22.10125445584857	2.34375	29.816030297818152	136.4100531046019	136.19906469157578	53.53704240807831	0.003955229006151728	-4.034826433870734e+22	-0.0954005255601626	0.016283287291627962	-5.064099671930644e+22	0.1955132385358516	0.245388133381904	0.0	177.293381	145.034775	-17.951304999999994	28.78173300000001	-15.728844	33.195255	0.0		True	0.0	None	0.0	None	0.0	None	0.0	None	0.0	None	0.0	None	0.0	None	0.0	None	2.2544999999999998e-06	12
2014-01-31 17:24:00	24.296104038838248	154063433.45990002	1.1829556573140387e+21	550235842693.8599	2.2954114586661443	109979317761.0011	3.0993137006434255e+20	-1.2301024396368744e+23	1732.977159468633	-0.6012141586615274	23.08183077725128	2.723735408560312	29.3767421533426	128.54796562325708	128.37176688965735	50.304760103653706	0.004465781047988607	-3.943054879468881e+22	-0.41915966211133787	0.018609793194478672	-5.184045345827733e+22	0.1927173173167529	0.2533708868974426	0.0	177.295029	144.924377	-17.950203	28.915167	-15.729692000000002	33.272175	0.0		True	0.0	None	0.0	None	0.0	None	0.0	None	0.0	None	0.0	None	0.0	None	0.0	None	2.1575e-06	12
2014-01-31 17:36:00	24.93381123234977	163691801.7979	1.3000634346880998e+21	553943929473.4248	3.4923167086454674	276216158386.56885	3.2549371489891045e+20	-1.3145731721978294e+23	1864.6301751005628	-0.6047074285400768	22.93883016144893	2.4761904761904763	28.61552005894837	131.55809466283128	131.68416487586072	51.16390514643465	0.006652031825991367	-4.352686377448717e+22	-1.0306868730947532	0.0265901523269368	-5.393934672340745e+22	0.2002248214260934	0.2481225415524815	0.0	177.296661	144.813965	-17.945097	29.034882	-15.746544	33.343922	0.0		True	0.0	None	0.0	None	0.0	None	0.0	None	0.0	None	0.0	None	0.0	None	0.0	None	2.1167e-06	12
2014-01-31 17:48:00	23.31725785436394	160499506.06930003	1.203491025911241e+21	514076041836.9845	4.2712775568539065	344962973739.86884	3.140674289055204e+20	-1.336596569370192e+23	1841.8964525086285	-0.6270672218470519	22.68374477391181	2.845528455284553	27.83068049275513	132.4119403421154	133.75711297401992	49.05453521164814	0.008681458448890051	-4.404869924819137e+22	-1.3735650931977454	0.03271211264969059	-4.928685589027414e+22	0.20665544186272308	0.23123036902042385	0.0	177.298233	144.703537	-17.941208	29.167379	-15.750168	33.413361	0.0		True	0.0	None	0.0	None	0.0	None	0.0	None	0.0	None	0.0	None	0.0	None	0.0	None	1.8922e-06	12
2014-01-31 18:00:00	23.82716774907761	169053993.88060004	1.277090034565178e+21	535624800973.6565	3.4602212716278533	199673507864.67764	3.3543885563353734e+20	-1.4209862363410516e+23	1777.5089043638934	-0.6329245916589891	23.149146182597427	2.957486136783734	28.39540178755255	131.6625773970818	133.3119086890442	46.470558320624754	0.006395972775652227	-4.526374998800253e+22	-0.7230519644414051	0.025069305477701045	-5.121475909806799e+22	0.20161026015198588	0.2281167801633669	0.0	177.29986599999995	144.593124	-17.954248	29.278532	-15.766203	33.474953	66560.0		False	0.0	None	0.0	None	0.0	None	0.0	None	0.0	None	0.0	None	0.0	None	0.0	None	1.6416999999999999e-06	12
