Timestamp	TOTUSJH	TOTBSQ	TOTPOT	TOTUSJZ	ABSNJZH	SAVNCPP	USFLUX	TOTFZ	MEANPOT	EPSZ	MEANSHR	SHRGT45	MEANGAM	MEANGBT	MEANGBZ	MEANGBH	MEANJZH	TOTFY	MEANJZD	MEANALP	TOTFX	EPSY	EPSX	R_VALUE	CRVAL1	CRLN_OBS	LAT_MIN	LON_MIN	LAT_MAX	LON_MAX	QUALITY	NOAA_AR	IS_TMFI	BFLARE	BFLARE_label	CFLARE	CFLARE_label	MFLARE	MFLARE_label	XFLARE	XFLARE_label	BFLARE_loc	BFLARE_label_loc	CFLARE_loc	CFLARE_label_loc	MFLARE_loc	MFLARE_label_loc	XFLARE_loc	XFLARE_label_loc	XR_MAX	XR_QUAL
2014-01-16 02:12:00	518.0169750275095	7712611843.766802	1.047936587825445e+23	11164322980994.133	6.083260775110862	1656707019908.0176	9.033589633217969e+21	-3.5701280657318926e+24	5645.579837664098	-0.3485538106521471	29.96959915362493	18.652071259927023	36.8253444490084	113.49938061083256	112.81312537332713	49.219394098522464	0.000435233653510114	-9.675210970932305e+23	0.2328692297376708	0.0011697597511643725	9.961476772997768e+23	0.09445968297752284	-0.09725451370438236	1.407787693606008	324.02182	350.746033	-37.029888	-35.881073	-28.88921	-15.242028	0.0	11952.0	True	0.0	None	0.0	None	0.0	None	0.0	None	0.0	None	0.0	None	0.0	None	0.0	None	5.5439e-07	12
2014-01-16 02:24:00	519.8847342573135	7686186196.8232	1.058702991445664e+23	11164062636502.947	6.443536644997892	1320695990206.3774	8.939508654974089e+21	-3.488856387303377e+24	5738.067578941676	-0.3417903100912387	30.40649300368849	19.44144533218168	37.178570966489296	113.19372194527702	112.38156092861895	49.50152994877785	0.00046379735442293914	-9.633396183681934e+23	0.18675691634942787	0.0012495646948825663	9.83132281293098e+23	0.0943748066224456	-0.09631382034145487	1.4007604420386668	324.020599	350.636688	-37.033283	-35.769485	-28.894011	-15.135011	0.0	11952.0	True	0.0	None	0.0	None	0.0	None	0.0	None	0.0	None	0.0	None	0.0	None	0.0	None	5.2204e-07	12
2014-01-16 02:36:00	510.0188619259108	7711892984.134398	1.0715562504713722e+23	11175694328358.46	6.614726279339466	1050629459771.9084	8.933563709121713e+21	-3.4490104918320354e+24	5779.8573861344385	-0.3367604554126344	30.607728600400854	19.806590257879648	37.58300554159745	114.15165225798096	113.22204641892124	49.750790767687256	0.0004738342606976695	-9.580130147470766e+23	0.14785077066028235	0.0012832973258769663	9.532358050748006e+23	0.09354013271385772	-0.09307368724822426	2.643581066298353	324.019287	350.527344	-37.037506	-35.658634	-28.897879	-15.028725	0.0	11952.0	True	0.0	None	0.0	None	0.0	None	0.0	None	0.0	None	0.0	None	0.0	None	0.0	None	4.9799e-07	12
2014-01-16 02:48:00	502.9790221044551	7669004746.6966	1.0739470500001358e+23	11089122931649.078	0.0986861528173124	678473676938.8823	8.89542359574254e+21	-3.406965228178424e+24	5777.439850133622	-0.3345154803929986	30.788179286967765	20.04715296134886	37.71936202082045	113.38473304662598	112.7822418869424	49.031207742127705	-7.051025494234954e-06	-9.636082094817017e+23	0.09522414823563267	-1.9285180410786647e-05	9.524463128674864e+23	0.09461260726683517	-0.0935166679314057	1.3864934782899094	324.018097	350.41806	-37.040298	-35.550945	-28.901981	-14.899919	0.0	11952.0	True	0.0	None	0.0	None	0.0	None	0.0	None	0.0	None	0.0	None	0.0	None	0.0	None	4.9979e-07	12
2014-01-16 03:00:00	506.4232497413224	7659793139.379702	1.0689557912704589e+23	11253764157515.426	11.610071890229529	732321250550.2269	8.924081770238444e+21	-3.411757681009292e+24	5675.973333863512	-0.335388830943487	30.952091461836762	19.906917706790786	37.87455602100252	111.88838130839888	110.92964478640732	49.01986386529481	0.0008188216298913554	-9.744027314772786e+23	0.0164520889895392	0.002270245587522494	9.641062439058444e+23	0.09578751585945793	-0.09477533174432293	2.808123868491416	324.016907	350.308807	-37.026527	-35.43673300000001	-28.901848	-14.794259	0.0	11952.0	True	0.0	None	0.0	None	0.0	None	0.0	None	0.0	None	0.0	None	0.0	None	0.0	None	5.0534e-07	12
2014-01-16 03:12:00	498.7212118230905	7597882242.6318	1.0579785522715433e+23	11060307943895.457	4.4639164840794585	673563633636.3783	8.909034025105769e+21	-3.402334421342012e+24	5645.154034097499	-0.3371878688629674	30.36997809238596	19.132653061224488	37.260458412093456	110.96390378247507	109.84969681617123	48.50187153574166	0.00031634302913184463	-9.500490985912396e+23	0.012532260067570036	0.0008788141866731924	9.533912529049252e+23	0.09415448077640964	-0.09448570450426362	1.6344298316314394	324.0157470000001	350.199585	-37.022732	-35.33360300000001	-28.882408	-14.704362	0.0	11952.0	True	0.0	None	0.0	None	0.0	None	0.0	None	0.0	None	0.0	None	0.0	None	0.0	None	4.8315e-07	12
2014-01-16 03:24:00	500.43005249869935	7597276426.584498	1.0553125478893652e+23	11122830733756.398	1.8247005033190624	942624116438.3816	8.987969227553856e+21	-3.41462896084818e+24	5524.06397712213	-0.33843327366117953	30.488842375021147	19.332638164754954	37.163624341612355	109.52967458015488	108.48258932185092	47.682078650476726	0.00012684744548620524	-9.436240427159184e+23	0.1287204576983896	0.0003588946086044666	9.601779706560264e+23	0.09352517580780398	-0.09516588116377636	1.3092239475974583	324.014648	350.090393	-37.026398	-35.211281	-28.885788	-14.597957	0.0	11952.0	True	0.0	None	0.0	None	0.0	None	0.0	None	0.0	None	0.0	None	0.0	None	0.0	None	4.869700000000001e-07	12
2014-01-16 03:36:00	509.9153071754145	7644637844.3374	1.0619545648014173e+23	11374446746597.926	2.04134399957424	696537526485.4038	9.082349979735819e+21	-3.4521754241250424e+24	5469.854939764255	-0.3400348888091909	30.665218685737358	19.60462411929681	37.150442472093175	109.8711861766244	108.696746122726	47.8452874971565	0.00013963636360723983	-9.526376414884808e+23	0.09359145157920573	0.00039854115076572985	9.723019030394396e+23	0.09383359612470617	-0.09577050087852232	2.8061066397182346	324.013489	349.981201	-37.028618	-35.109112	-28.865309000000003	-14.491574	0.0	11952.0	True	0.0	None	0.0	None	0.0	None	0.0	None	0.0	None	0.0	None	0.0	None	0.0	None	5.094700000000001e-07	12
2014-01-16 03:48:00	498.7235600972094	7644615057.567902	1.06099121188077e+23	11076753710140.652	1.5433502141940152	1044830918772.3314	9.07272459569096e+21	-3.451674508404297e+24	5505.186050060399	-0.33998651937001273	30.542149946676695	19.31504961411246	37.0593226094847	110.42638558215613	109.4908050099145	48.03871563616239	-0.00010634993206959862	-9.53727098657118e+23	0.14142253560363166	-0.00030132726618006713	9.618987022823664e+23	0.09394117432329864	-0.09474606918446092	0.0	324.012421	349.87207	-37.023792	-34.99485	-28.868944	-14.384996	0.0	11952.0	True	0.0	None	0.0	None	0.0	None	0.0	None	0.0	None	0.0	None	0.0	None	0.0	None	4.8993e-07	12
2014-01-16 04:00:00	497.3580065324277	7566703834.072	1.0464072960995504e+23	11147715632457.39	0.8294576461421008	460242993252.2264	9.000806422430241e+21	-3.425801568964912e+24	5439.259376416758	-0.34091252632127983	30.69287669069713	19.72939389755626	37.516431399915966	109.60752086851052	108.89646391132523	47.973331887608936	-5.726321340297555e-05	-9.597258028452958e+23	0.062406445560598475	-0.00016350336331379654	9.706554803412527e+23	0.09550539966696464	-0.09659304700789023	0.0	324.011414	349.76297	-37.028385	-34.884411	-28.866785	-14.278707999999998	0.0	11952.0	True	0.0	None	0.0	None	0.0	None	0.0	None	0.0	None	0.0	None	0.0	None	0.0	None	4.927399999999999e-07	12
2014-01-16 04:12:00	503.58098222990236	7602099270.033502	1.0413457062949176e+23	11225373854824.734	1.189106410368947	1033191446663.9731	9.036708401714104e+21	-3.4926512008731727e+24	5463.869307313771	-0.3459467192368445	30.431707081774586	19.273918193854087	37.06728836035898	110.85775378255907	110.33753891236358	48.29998992942483	-8.285878408256896e-05	-9.4301638503694e+23	0.14141014765914162	-0.00023242846357141207	9.504233133284384e+23	0.09340566974124384	-0.09413932517795788	1.655401072023756	324.01037599999995	349.65387000000015	-37.031918	-34.771057	-28.850679	-14.172707	0.0	11952.0	True	0.0	None	0.0	None	0.0	None	0.0	None	0.0	None	0.0	None	0.0	None	0.0	None	4.7265e-07	12
2014-01-16 04:24:00	507.6804593943869	7639120390.9508	1.046096769149501e+23	11340896859959.314	2.383151172216957	1713354546739.4072	9.144433592651228e+21	-3.521489930868309e+24	5370.1757977349125	-0.3471128088618807	30.494535856694498	19.116443959640037	37.21388228358231	110.04174157344231	109.8502236320852	47.929172774562005	-0.00016247280966845903	-9.61005772586718e+23	0.22942975682721145	-0.00046316343668441356	9.629672360617296e+23	0.0947262152110728	-0.09491955641313704	1.635722292607131	324.00943	349.54483	-37.035641	-34.658413	-28.84618	-14.064683	0.0	11952.0	True	0.0	None	0.0	None	0.0	None	0.0	None	0.0	None	0.0	None	0.0	None	0.0	None	4.7131999999999996e-07	12
2014-01-16 04:36:00	515.9360450212837	7671736595.2312	1.0499119189647951e+23	11559689124241.205	1.6726207740255976	764761057423.2517	9.137737686701224e+21	-3.5252928056407403e+24	5408.935067263793	-0.3460102368444784	30.691751021685075	19.56759715380405	37.55297547176588	110.86118932945848	110.88306494287512	48.89947166585634	0.00011443765558467417	-9.438383117301798e+23	0.1027690448478562	0.0003239555585197558	9.6508481434247e+23	0.09263846601964598	-0.09472382681272178	3.1718485940751764	324.008453	349.435791	-37.040714	-34.535923	-28.820274	-13.958386	0.0	11952.0	True	0.0	None	0.0	None	0.0	None	0.0	None	0.0	None	0.0	None	0.0	None	0.0	None	4.645e-07	12
2014-01-16 04:48:00	509.56892235043	7653716660.7822	1.0439730035601384e+23	11432676622656.22	8.662659168706504	1134586101207.4902	9.034449931156093e+21	-3.543227797934573e+24	5535.123030525288	-0.3485894285206965	30.5989541893454	19.349387410223912	37.519150275543936	112.74673437259251	112.51797194953022	49.56104597754031	-0.0006100464203314443	-9.25322677648484e+23	0.1569080655275328	-0.001678560362951162	9.689364847155096e+23	0.09103498894052243	-0.09532579747673024	3.1878438093976404	324.007446	349.326752	-37.046169	-34.427708	-28.79627	-13.853369	0.0	11952.0	True	0.0	None	0.0	None	0.0	None	0.0	None	0.0	None	0.0	None	0.0	None	0.0	None	4.6057e-07	12
2014-01-16 05:00:00	519.7840501046311	7646982979.2225	1.036814109185981e+23	11530224697046.807	10.408273657336043	1522073920407.3926	9.05533885575536e+21	-3.563838388890187e+24	5497.554254719374	-0.35092590700100457	30.65922132485357	19.68171255545384	37.4052084956592	113.43494912322451	113.32652603572872	49.78631372458043	-0.0007329254036572102	-9.374141810790354e+23	0.21050707093602766	-0.0020150556477372	9.794334862260478e+23	0.09230579106961316	-0.09644337003958976	3.2619238960846504	324.006561	349.217773	-37.047096	-34.310863	-28.798706	-13.746218	0.0	11952.0	True	0.0	None	0.0	None	0.0	None	0.0	None	0.0	None	0.0	None	0.0	None	0.0	None	5.2638e-07	12
2014-01-16 05:12:00	520.0855446757446	7671641847.2759	1.0360369519173566e+23	11532743757249.627	1.2246546003963301	798871653280.7428	9.084676897667344e+21	-3.6054733786920026e+24	5446.260370198686	-0.35388441801152604	31.018592566278794	19.98045238760123	37.67385788941908	114.34486214538867	114.09936923846828	50.10262590876299	-8.549669089614145e-05	-9.268438262098022e+23	0.10694615760892608	-0.00023581623678879966	9.89820681222692e+23	0.09097157393097224	-0.09715287811592173	3.2536061694548835	324.005615	349.108765	-37.043842	-34.198586	-28.774405	-13.640262	0.0	11952.0	True	0.0	None	0.0	None	0.0	None	0.0	None	0.0	None	0.0	None	0.0	None	0.0	None	5.221200000000001e-07	12
2014-01-16 05:24:00	525.2120098096257	7612123251.624902	1.022926625274745e+23	11548942498555.375	1.5990204379462585	736977567347.6467	8.947185737804855e+21	-3.5860514308875406e+24	5525.072902823329	-0.35473019660971705	30.92010212862193	20.08464242163403	37.672133882220066	114.97042609424908	114.7339039612576	50.8134947843707	-0.00011470734848968852	-9.191293997110502e+23	0.09090876185925567	-0.00031015923697319146	9.710822058345906e+23	0.09091976480342254	-0.0960589072518254	3.2762030393859267	324.0047	348.999786	-37.034286	-34.086521000000005	-28.777693	-13.532292000000002	0.0	11952.0	True	0.0	None	0.0	None	0.0	None	0.0	None	0.0	None	0.0	None	0.0	None	0.0	None	4.6939999999999995e-07	12
2014-01-16 05:36:00	531.5023844511019	7626278293.662202	1.0322112653001288e+23	11719185519904.902	2.2983780329094223	1072419273131.8474	8.92588702092158e+21	-3.560116453471453e+24	5580.827289773855	-0.3515111606371626	31.35530845606225	20.6577152294105	38.13620905460819	115.76060411582226	115.65317754131644	51.13232674254378	-0.00016504222554282794	-9.218046427255889e+23	0.1512296351096065	-0.0004461145811278587	9.911170528127492e+23	0.09101517438544512	-0.09785879482166412	1.628527195499036	324.003845	348.890839	-37.040833	-33.986355	-28.782286	-13.426416	0.0	11952.0	True	0.0	None	0.0	None	0.0	None	0.0	None	0.0	None	0.0	None	0.0	None	0.0	None	4.5479e-07	12
2014-01-16 05:48:00	541.5752275925432	7671596794.051202	1.0477410636225037e+23	11866869205388.852	0.6403356301077494	1101179737037.3232	8.908731906012024e+21	-3.5326418052734416e+24	5703.285876687034	-0.3467379584428465	31.561808202996243	20.84146605942312	38.336212826309975	115.98999803556288	116.5030272010182	51.37464867053107	-4.629043809063467e-05	-9.002049961018026e+23	0.1563384812855679	-0.00012395635396294114	9.89734548655195e+23	0.08835745590239061	-0.09714501376526936	1.6327225207802136	324.002899	348.78186	-37.04756500000001	-33.8783	-28.785517	-13.320379	0.0	11952.0	True	0.0	None	0.0	None	0.0	None	0.0	None	0.0	None	0.0	None	0.0	None	0.0	None	1.1423999999999999e-06	12
2014-01-16 06:00:00	547.0360710679098	7645546096.268802	1.032368622347132e+23	11922847298059.61	3.3385001929974685	1185711461919.1582	8.840702402580542e+21	-3.5614622230186794e+24	5702.885464409818	-0.3507578521137617	31.367572895559267	20.62944758271588	38.21641004155117	116.01371055865322	117.09209596328466	51.53386055791276	0.00024491968256162204	-8.806187205422829e+23	0.17083231557002868	0.0006465399859225293	9.74774657864484e+23	0.0867295261345694	-0.09600266516309476	2.4090897797672493	324.002075	348.672913	-37.051937	-33.768188	-28.765142	-13.214116	66560.0	11952.0	False	0.0	None	0.0	None	0.0	None	0.0	None	0.0	None	0.0	None	0.0	None	0.0	None	1.1312999999999999e-06	12
2014-01-16 06:12:00	548.3052143506462	7618831904.0629015	1.0417520533951916e+23	11863436941592.97	5.175852832247753	1042358928165.9176	8.71102637772667e+21	-3.4911477959227407e+24	5889.966882537102	-0.34503832859276545	31.694014547337268	21.45967863042499	38.6124496579873	116.44745133516413	117.15442864907362	52.14367794325399	-0.0003886358936963324	-8.689925847272492e+23	0.1537064391030015	-0.0010101569657128989	9.702766150074964e+23	0.08588457622561006	-0.0958947145995424	2.5290398414634	324.00116	348.563965	-37.056091	-33.684433	-28.767525	-13.108533	66560.0	11952.0	False	0.0	None	0.0	None	0.0	None	0.0	None	0.0	None	0.0	None	0.0	None	0.0	None	1.0072e-06	12
2014-01-16 06:24:00	546.4924605368946	7547634422.4369	1.0288309440293802e+23	11716428262382.44	8.318134058304054	1519803405684.69	8.585325879560131e+21	-3.472318068164977e+24	5945.025992388089	-0.3464145526975753	31.69323068375034	21.341416621901626	38.57998331485175	116.3726823904991	117.51586097223246	52.084570907941036	0.0006383342842685943	-8.229939618164263e+23	0.0718824597948194	0.0016370662588242474	9.463006484018384e+23	0.08210569410944214	-0.09440734097460947	1.6189441215853295	324.000305	348.455048	-37.059483	-33.600421999999995	-28.764612	-13.006005	0.0	11952.0	True	0.0	None	0.0	None	0.0	None	0.0	None	0.0	None	0.0	None	0.0	None	0.0	None	8.9979e-07	12
2014-01-16 06:36:00	543.6288489103855	7503063431.895202	1.023472306888137e+23	11538431673775.205	0.09521117392127998	728344015556.5834	8.415715293363562e+21	-3.4252526446815366e+24	6125.111365537257	-0.3437490973824709	31.61854780457031	22.03147353361945	38.720245968675	117.48061763477007	118.53903913879108	53.05930053693055	-7.567252735755838e-06	-8.040262268936974e+23	0.09227293942698833	-1.8886918747699265e-05	9.22250910917742e+23	0.08068989894677946	-0.09255460868861272	2.071006619267292	323.999451	348.3461	-37.064068	-33.517975	-28.747381	-12.90442	0.0	11952.0	True	0.0	None	0.0	None	0.0	None	0.0	None	0.0	None	0.0	None	0.0	None	0.0	None	7.2801e-07	12
2014-01-16 06:48:00	552.8261337861328	7469330039.8346	1.025794781526899e+23	11582478192617.352	7.657741913187393	1388166259888.344	8.320531862753927e+21	-3.3698096896228176e+24	6247.250480293743	-0.3397122089201709	31.63380518641128	22.080232934325466	38.862851174121104	117.38280603266176	118.54025649769558	53.232146415937564	0.0006193579677440465	-8.101759473055127e+23	0.14539862073616422	0.0015305148799936508	8.9472406726054e+23	0.08167424454879342	-0.09019758302645824	2.465827664229506	323.9985660000001	348.237152	-37.09428	-33.436527000000005	-28.744576	-12.80836	0.0	11952.0	True	0.0	None	0.0	None	0.0	None	0.0	None	0.0	None	0.0	None	0.0	None	0.0	None	7.125399999999998e-07	12
2014-01-16 07:00:00	554.7249720805319	7412856442.9426	1.0187219812929651e+23	11509093433107.812	12.11127222924659	1534471462554.8708	8.192351065014948e+21	-3.3280691319789275e+24	6397.169594460897	-0.33806043002826897	31.46462345958023	21.79968309565508	38.64092136856551	118.43570101103586	119.3533629051602	53.725684532284404	0.0010100302084268694	-8.190985963700728e+23	0.01931080129054436	0.002442071888583371	8.798440293412123e+23	0.08320284607782953	-0.08937327895590677	2.9441613253507426	323.99765	348.128204	-37.099758	-33.353016	-28.748207	-12.709715	0.0	11952.0	True	0.0	None	0.0	None	0.0	None	0.0	None	0.0	None	0.0	None	0.0	None	0.0	None	5.905899999999999e-07	12
2014-01-16 07:12:00	545.1163352106844	7357280886.9676	1.0177539569736176e+23	11351559053611.85	11.204363130831318	953007320216.9608	8.036417852406568e+21	-3.251393728315992e+24	6493.9873266290515	-0.3327665578053908	31.716970904202856	22.46419794932633	39.24432658171917	117.16275487430813	118.38916794566416	53.59092910031521	0.0009494418380502767	-7.76235859333371e+23	0.014961759630402818	0.002285313303431501	8.646870077290697e+23	0.07944449566532827	-0.08849710099246445	2.9843977213670265	323.996796	348.019257	-37.105007	-33.257656	-28.750128000000004	-12.609256	0.0	11952.0	True	0.0	None	0.0	None	0.0	None	0.0	None	0.0	None	0.0	None	0.0	None	0.0	None	5.6555e-07	12
2014-01-16 07:24:00	550.1604678692337	7385137582.8843	1.0198546702373966e+23	11611616083333.42	8.306790118151701	1259729120529.67	8.086727593173158e+21	-3.2618284450212174e+24	6408.021736879506	-0.3325753163189213	31.861693010178556	22.70527369826436	39.718562973337924	117.40523010228412	118.50923752702957	54.249673320676145	0.0006931567188043807	-7.898239925739855e+23	0.012875888994839905	0.0016881571725764107	8.59308172828513e+23	0.08053028189373644	-0.08761487374668414	3.2904712340300133	323.995911	347.910309	-37.111584	-33.148609	-28.736057	-12.508057	0.0	11952.0	True	0.0	None	0.0	None	0.0	None	0.0	None	0.0	None	0.0	None	0.0	None	0.0	None	5.2838e-07	12
2014-01-16 07:36:00	534.9765204581878	7287036741.382502	1.0080655770240274e+23	11157494426505.996	8.66451118853394	862491517624.6917	7.956704565460238e+21	-3.2042077443261844e+24	6440.901928753789	-0.331098486055301	31.95899421269916	22.98684768773865	39.65830552668512	116.79751298662262	117.39145556959043	53.77957225400004	0.0007352152047971097	-8.000456299813759e+23	0.10908358307423674	0.0017865406970342316	8.408176017598365e+23	0.08267063748630253	-0.08688370330678248	2.7742462431578283	323.995026	347.801331	-37.116123	-33.051094	-28.738829	-12.405648	0.0	11952.0	True	0.0	None	0.0	None	0.0	None	0.0	None	0.0	None	0.0	None	0.0	None	0.0	None	5.111e-07	12
2014-01-16 07:48:00	543.0837476049262	7287423858.114902	1.0109344792656974e+23	11410353592798.615	13.22447793177836	1498873664567.1362	7.980310619099098e+21	-3.2046923520652966e+24	6421.092891364224	-0.33113098109099354	32.1941030119969	23.365668494306195	39.797558339139	117.71752606667029	118.12142942993307	54.03199356782933	0.001115519015755239	-8.366392210613355e+23	0.11808605706246733	0.002726551532274188	8.480345374667241e+23	0.08644735146283393	-0.08762479437673074	2.86782641813742	323.9941100000001	347.692352	-37.121014	-32.940182	-28.733027000000003	-12.3118	0.0	11952.0	True	0.0	None	0.0	None	0.0	None	0.0	None	0.0	None	0.0	None	0.0	None	0.0	None	4.988899999999999e-07	12
2014-01-16 08:00:00	536.2582410304278	7270944284.458602	1.0101595105326713e+23	11210151046412.754	5.2950401236605495	1561591515174.3447	7.965189118846667e+21	-3.182329750139842e+24	6453.733811192382	-0.3295656126470823	31.5968071287307	22.806719837094857	39.317828943396	118.91036319491256	118.86826484708595	54.414968190642405	0.0004492652404259758	-8.557795914516897e+23	0.2601918863985363	0.0010954653875631828	8.420359720919083e+23	0.08862548745467133	-0.08720218292939527	2.716222928386007	323.9931640000001	347.58337400000005	-37.125217	-32.845852	-28.706253000000004	-12.212249	0.0	11952.0	True	0.0	None	0.0	None	0.0	None	0.0	None	0.0	None	0.0	None	0.0	None	0.0	None	4.852199999999999e-07	12
2014-01-16 08:12:00	533.3033401790613	7298192428.0054	1.0203719518058659e+23	11252306484043.738	7.663314327483424	1709886634808.3225	8.045633493095e+21	-3.1540298659456314e+24	6352.433069336035	-0.3254152862482791	31.635782837692705	23.092186854071933	39.546860503552594	118.08243215353536	117.99904474258621	54.071982519552726	0.0006335935781300887	-8.873556845273663e+23	0.2776223385707687	0.0015844529594390036	8.371266804068151e+23	0.09155243176428696	-0.08637008205658861	3.2444363180388613	323.992279	347.474365	-37.128185	-32.735240999999995	-28.709112	-12.114597	0.0	11952.0	True	0.0	None	0.0	None	0.0	None	0.0	None	0.0	None	0.0	None	0.0	None	0.0	None	5.4366e-07	12
2014-01-16 08:24:00	534.5730866269605	7330977403.6921015	1.0268544584935117e+23	11416750975874.91	0.3124331944341119	1617264084709.4275	8.122582499118789e+21	-3.161478777359996e+24	6252.693830168047	-0.32472513234466965	31.79534947383164	22.804463852498788	39.5922225015926	117.23276608071592	116.94521481278112	53.901320668085134	2.5265501733310033e-05	-9.049657381602584e+23	0.2568298707447283	6.434273365162369e-05	8.396096427658555e+23	0.09295179243204496	-0.0862388684426578	3.1346330740192587	323.9912720000001	347.365326	-37.130802	-32.624481	-28.711603000000004	-12.015956	0.0	11952.0	True	0.0	None	0.0	None	0.0	None	0.0	None	0.0	None	0.0	None	0.0	None	0.0	None	5.5719e-07	12
2014-01-16 08:36:00	534.1529440635106	7300806854.033502	1.0219206224091888e+23	11421799324601.832	0.6478168718968114	1851294816034.0928	8.144387758538649e+21	-3.173287765211571e+24	6173.22855432795	-0.32728497939268125	31.664260592489715	22.39871640593662	39.235565200567926	117.16808000306801	116.49789894279208	53.99838223726715	-5.197086818265634e-05	-9.20959654806067e+23	0.2916610534730645	-0.00013370486554484026	8.418385927196487e+23	0.0949854800277145	-0.08682513117490444	2.9271703560400053	323.990326	347.256287	-37.13728	-32.515629	-28.688427	-11.924459	0.0	11952.0	True	0.0	None	0.0	None	0.0	None	0.0	None	0.0	None	0.0	None	0.0	None	0.0	None	4.6089e-07	12
2014-01-16 08:48:00	529.5054074742843	7295341060.3794	1.0224805028297208e+23	11428726732646.758	3.634450723125956	1448898318995.1345	8.224073675551341e+21	-3.1669322885754793e+24	6058.027302765721	-0.3268742790673291	31.602588632732548	21.83492013533716	38.99878607639483	116.04551170431299	115.56258181158523	53.43508310561389	-0.00028597456315413924	-9.304490821741111e+23	0.22388429164635093	-0.0007509195390851206	8.37337494393101e+23	0.09603611483633144	-0.08642562103495545	2.931970337496084	323.989319	347.147217	-37.142345	-32.406796	-28.693184	-11.822914	0.0	11952.0	True	0.0	None	0.0	None	0.0	None	0.0	None	0.0	None	0.0	None	0.0	None	0.0	None	4.479600000000001e-07	12
2014-01-16 09:00:00	529.9905378538749	7240182998.796302	1.0068691488737272e+23	11373811143190.615	0.6679879205874304	1569143280531.7632	8.20945331696068e+21	-3.178245776418959e+24	5950.5484594375475	-0.3305410582849041	31.42040620275116	21.83502079899537	39.0672414742155	116.03429272436209	115.54535129197815	52.96824359631655	-5.2428217611445756e-05	-9.378666915834946e+23	0.24185688969931346	-0.00013868221858698694	8.319808112543119e+23	0.09753916801093396	-0.08652691993335701	2.717754914541099	323.98828100000014	347.038116	-37.145535	-32.299358000000005	-28.696226	-11.722329	0.0	11952.0	True	0.0	None	0.0	None	0.0	None	0.0	None	0.0	None	0.0	None	0.0	None	0.0	None	4.4141999999999994e-07	12
2014-01-16 09:12:00	515.8468402302311	7228293828.8023	1.0070407392608301e+23	11273715452220.732	0.5925307641951711	1752444520399.8389	8.255723738204841e+21	-3.1703026076336343e+24	5838.379083335416	-0.33025731799874125	31.53498087633222	21.67385278718817	39.12837043323341	115.80519978248688	114.89796485124286	52.830274701000434	-4.562140161650533e-05	-9.515551067028308e+23	0.2649746395148367	-0.00012324503841480426	8.372394483613114e+23	0.09912556508359632	-0.08721705431928461	2.513295000073705	323.987274	346.929016	-37.149036	-32.20163	-28.699587	-11.624539	0.0	11952.0	True	0.0	None	0.0	None	0.0	None	0.0	None	0.0	None	0.0	None	0.0	None	0.0	None	4.797999999999999e-07	12
2014-01-16 09:24:00	520.1625342283605	7231249181.4933	1.005428148337874e+23	11460366257573.68	5.1123713889733455	2225895005250.3984	8.306133886590765e+21	-3.171969580414468e+24	5745.422364228553	-0.33029587762490425	31.2108043705385	21.036654777263415	38.972237384111466	114.61085280026217	114.15128380553926	52.04165588114433	-0.0003879768831276729	-9.391135068787326e+23	0.3317368813431893	-0.0010628961132184284	8.336018491800888e+23	0.09778950020806376	-0.08680261502656138	3.077392362734207	323.986145	346.819855	-37.151062	-32.091457	-28.701553000000004	-11.52646	0.0	11952.0	True	0.0	None	0.0	None	0.0	None	0.0	None	0.0	None	0.0	None	0.0	None	0.0	None	4.741e-07	12
2014-01-16 09:36:00	526.6268487193618	7255666722.1336	1.0199947897233317e+23	11568799427292.328	6.647504853517464	1645248924936.1936	8.37089640382867e+21	-3.1442389470054234e+24	5723.973636600113	-0.3263064632548051	31.63065223474044	21.493516172305856	39.20679650402564	115.15642961574264	114.52395760958386	52.55776416825486	-0.0004954169662779451	-9.70229293934194e+23	0.24079824390238785	-0.001381552671213257	8.52078368236642e+23	0.10068957696468847	-0.08842797365003971	2.9757997316524296	323.985046	346.710693	-37.154224	-31.972382	-28.704571	-11.432482	0.0	11952.0	True	0.0	None	0.0	None	0.0	None	0.0	None	0.0	None	0.0	None	0.0	None	0.0	None	4.6424e-07	12
2014-01-16 09:48:00	520.7877952468662	7211703398.4919	1.0159957742343186e+23	11383524233859.994	5.4932731993990505	2048781666129.7783	8.368315426560647e+21	-3.09839523029886e+24	5703.657559310605	-0.3235090427904986	31.131710173174266	20.74852754790129	38.92904342363706	114.27265364675024	113.88885442914908	51.891425235803176	-0.00040954843803765387	-9.569868898165332e+23	0.2999739834101829	-0.001151055924227928	8.607492715081322e+23	0.09992072982172152	-0.08987238625504712	2.9841273427543764	323.983917	346.601471	-37.158348	-31.874043	-28.681974	-11.330269	0.0	11952.0	True	0.0	None	0.0	None	0.0	None	0.0	None	0.0	None	0.0	None	0.0	None	0.0	None	8.542e-07	12
2014-01-16 10:00:00	519.7627291154838	7179366841.6794	1.0163733094669564e+23	11554231366429.34	9.55451874945275	2469746404572.1963	8.374707830426028e+21	-3.073437845758226e+24	5650.590839247212	-0.32234864155611914	31.36166888295792	20.65859421145895	38.95956844631942	113.04397587734526	112.69124075061802	51.61679001104542	-0.0007054949973752308	-9.37350238519012e+23	0.3581163456205573	-0.0020128991753247697	8.44641718838473e+23	0.0983112694033888	-0.08858780438490947	2.9139524554054486	323.982758	346.492249	-37.161518	-31.753046	-28.686403	-11.225015	0.0	11952.0	True	0.0	None	0.0	None	0.0	None	0.0	None	0.0	None	0.0	None	0.0	None	0.0	None	8.876700000000002e-07	12
2014-01-16 10:12:00	521.1661213776977	7168089164.444402	1.0151177857760611e+23	11677330983482.846	9.932703613653187	1861025646114.8718	8.400685862562984e+21	-3.0651630209784816e+24	5567.1563846310755	-0.32198652703058217	31.487104051551015	20.946831755280407	39.173088611256354	112.086186445433	111.90937645825231	51.24351987020997	-0.0007234307074765612	-9.200888761551292e+23	0.2661985991483701	-0.002096365694778013	8.525424445782122e+23	0.09665268038438247	-0.08955712273609223	3.417398594719065	323.981567	346.382965	-37.164478	-31.644531	-28.68922	-11.130599	0.0	11952.0	True	0.0	None	0.0	None	0.0	None	0.0	None	0.0	None	0.0	None	0.0	None	0.0	None	8.3884e-07	12
2014-01-16 10:24:00	529.9785087831192	7155888260.742702	1.0114568015791108e+23	11725188447038.668	9.056858578881943	1736176530564.0137	8.369676953658269e+21	-3.0671966354961787e+24	5563.286640209593	-0.3227495270806805	31.777131260032874	21.563184806428048	39.53828719921541	112.56104762962794	112.27790426308356	51.53423901794253	-0.0006615674637605509	-9.327009870311972e+23	0.2490692340964549	-0.0019136672153413094	8.418841065305877e+23	0.09814460507299873	-0.08858828745928539	3.339834296177995	323.980286	346.273651	-37.166904	-31.550339	-28.691576	-11.042979	0.0	11952.0	True	0.0	None	0.0	None	0.0	None	0.0	None	0.0	None	0.0	None	0.0	None	0.0	None	7.464700000000002e-07	12
2014-01-16 10:36:00	527.6703973049719	7172572482.0388	1.006613822869858e+23	11841788592708.818	11.806024336523876	2523691876301.87	8.389038903684729e+21	-3.0933834460783224e+24	5516.902413552721	-0.3247478967856877	31.885503157186445	21.719193536647506	39.61349511992634	112.6533541611669	112.14687800023287	51.83216900664016	-0.000859307397665323	-9.248389419604043e+23	0.3607588102202312	-0.002484994806526277	8.639314280676189e+23	0.09709093828891513	-0.09069677882568952	3.5023002474888965	323.979034	346.164337	-37.16777800000001	-31.446493	-28.682566	-10.93665	0.0	11952.0	True	0.0	None	0.0	None	0.0	None	0.0	None	0.0	None	0.0	None	0.0	None	0.0	None	6.6017e-07	12
2014-01-16 10:48:00	528.0889545408261	7181054746.312402	1.0038807148838242e+23	11929853101828.006	17.21433915243465	2340155432842.1343	8.4429657150411e+21	-3.149534720730496e+24	5515.169164332981	-0.3302521220293492	31.63063887236475	21.136728440099226	39.011851376149394	114.46700648197056	114.18265733236849	52.3341235647525	-0.0012560626889773544	-9.208322702974765e+23	0.3353328730124288	-0.003604384757989049	8.500836880315427e+23	0.09655610693769744	-0.08913759230120112	3.3824611723669573	323.977722	346.054932	-37.16917	-31.402069	-28.685379	-10.835084	0.0	11952.0	True	0.0	None	0.0	None	0.0	None	0.0	None	0.0	None	0.0	None	0.0	None	0.0	None	5.7261e-07	12
2014-01-16 11:00:00	526.9926642993905	7147493102.959802	1.0034138546251684e+23	11681404365776.633	9.660312220259435	1590122772905.4722	8.346211686903885e+21	-3.110286888717868e+24	5614.607214157081	-0.32766816059037085	31.728929929712557	21.037378316118005	39.09506518890829	114.23609996789642	114.25317108363674	52.29916699124649	-0.0007178652166351668	-8.936651552136458e+23	0.23207668671849185	-0.0020360004672628834	8.475059488370741e+23	0.09414746229833257	-0.08928459826396133	2.847573850069136	323.976379	345.945526	-37.146259	-31.322674	-28.688368	-10.733694	0.0	11952.0	True	0.0	None	0.0	None	0.0	None	0.0	None	0.0	None	0.0	None	0.0	None	0.0	None	5.184300000000001e-07	12
2014-01-16 11:12:00	523.7217838246694	7187792779.0718	1.0169313157262743e+23	11937245796302.195	5.441664100399473	1076425854920.4984	8.413838494451561e+21	-3.079853449815747e+24	5553.642017584226	-0.3226428454499877	31.98668836293013	21.424427038004065	39.54612702768743	112.69744689671494	112.33360495847631	52.60276600561881	0.00039466667394832266	-8.897823466520791e+23	0.1533342540002725	0.0011447841055068273	8.580963958748416e+23	0.09321284692041724	-0.08989345348623685	2.8548453492447448	323.975006	345.83606000000015	-37.147511	-31.243763	-28.691038	-10.647428	0.0	11952.0	True	0.0	None	0.0	None	0.0	None	0.0	None	0.0	None	0.0	None	0.0	None	0.0	None	4.8863e-07	12
2014-01-16 11:24:00	529.6131852910216	7205258745.384202	1.0085606899766056e+23	11963364151296.912	0.519502531729549	2355971434353.628	8.414138199232009e+21	-3.133116468661872e+24	5541.285406421249	-0.3274269935314033	32.16294444072175	21.34987230937614	39.62884159112879	112.96933340617666	112.8854673387022	53.19965193746889	3.790605849905501e-05	-8.807366474090159e+23	0.33764076384304426	0.00010863191561422413	8.58020080061731e+23	0.09204156801653313	-0.08966756838253552	2.9329950651835	323.9735720000001	345.726562	-37.150707	-31.164537	-28.694172	-10.554703	0.0	11952.0	True	0.0	None	0.0	None	0.0	None	0.0	None	0.0	None	0.0	None	0.0	None	0.0	None	4.6107e-07	12
2014-01-16 11:36:00	530.867238227009	7223917576.0588	1.0181200476253869e+23	12206290478302.75	5.1656057725027	2181292982719.919	8.397169961267253e+21	-3.1103072832467574e+24	5615.5232444818075	-0.32420375076972463	32.302615065776685	22.026076765309114	39.907132535283324	113.2307931090942	113.2311400137284	53.04141235988003	0.0003783772174408658	-8.562999168010738e+23	0.3138264158645813	0.001079999759101482	8.690625762614152e+23	0.08925666165077957	-0.09058698103405292	3.2063582209615107	323.972076	345.617035	-37.153301	-31.04414	-28.696743	-10.459028	0.0	11952.0	True	0.0	None	0.0	None	0.0	None	0.0	None	0.0	None	0.0	None	0.0	None	0.0	None	4.4977e-07	12
2014-01-16 11:48:00	549.1311591291184	7234053948.0604	1.0233688189258518e+23	12552175758404.102	3.942260718540649	1495912688144.3523	8.416757903941838e+21	-3.1043304044794734e+24	5625.517260791444	-0.3231272901130821	32.41091278958594	22.01051248357424	39.84936755668589	114.70997009764903	114.61191465115988	53.715616030069285	-0.0002877982711739413	-8.600325282972535e+23	0.21450082011293825	-0.0008237434381163124	8.514412349715116e+23	0.08952010387708448	-0.08862584296757957	3.238042896953873	323.970642	345.507477	-37.154457	-30.963261	-28.687712	-10.37635	0.0	11952.0	True	0.0	None	0.0	None	0.0	None	0.0	None	0.0	None	0.0	None	0.0	None	0.0	None	4.3966999999999997e-07	12
2014-01-16 12:00:00	542.44183856718	7219325716.724901	1.0217460394812713e+23	12522772882320.393	1.2164653621448376	926889987423.221	8.400383251633013e+21	-3.0894956578204726e+24	5592.917094838479	-0.3222393245998971	32.63552584132338	22.63739459145101	40.19921700950852	113.88487785475988	113.64366477539757	53.56757531686609	8.843804886549165e-05	-8.745849147792647e+23	0.13235016386692136	0.00025487475804705177	8.50271345618299e+23	0.09122060150184724	-0.08868465746023314	2.8600382204002885	323.969055	345.397858	-37.153851	-30.846302	-28.688585	-10.283401	0.0	11952.0	True	0.0	None	0.0	None	0.0	None	0.0	None	0.0	None	0.0	None	0.0	None	0.0	None	4.5176e-07	12
2014-01-16 12:12:00	536.1067047695389	7235443085.8843	1.0287751925316616e+23	12415317446709.734	1.7249092795226193	1011064763752.674	8.397049148149126e+21	-3.090087772796562e+24	5639.182879113746	-0.32158314473971483	32.90859865274545	22.828856373298393	40.34992723940288	113.92412812369663	113.75435107001327	53.44122510391306	-0.00012556666517599322	-8.698032821352805e+23	0.14457201455777086	-0.00036077516289114304	8.60271719214382e+23	0.09051978304190524	-0.08952784035167771	2.920520774667325	323.967468	345.288208	-37.150887	-30.756365	-28.680464	-10.189021	0.0	11952.0	True	0.0	None	0.0	None	0.0	None	0.0	None	0.0	None	0.0	None	0.0	None	0.0	None	4.785799999999999e-07	12
2014-01-16 12:24:00	540.8372581568544	7168129924.5394	1.0278700499048646e+23	12568193753891.064	0.5555051951464165	1946729811079.2205	8.282259271048595e+21	-3.0219564184170443e+24	5731.859603324699	-0.3174460507109482	32.928086311507734	22.965266977708648	40.39719144757509	114.59423093473758	114.31375297189676	54.35398043326565	-4.114243779783858e-05	-8.589993836011162e+23	0.28319232622553625	-0.00011764660856546787	8.44258943748375e+23	0.0902349088244466	-0.08868647669336839	3.052354841636316	323.965851	345.178497	-37.136246	-30.66256	-28.684607	-10.108422	0.0	11952.0	True	0.0	None	0.0	None	0.0	None	0.0	None	0.0	None	0.0	None	0.0	None	0.0	None	4.908400000000001e-07	12
2014-01-16 12:36:00	542.1013718908915	7131656209.6122	1.0248655025136959e+23	12566560121276.205	12.918789289024742	1771658941692.3684	8.166134109285666e+21	-2.9826276044475545e+24	5840.540161265725	-0.3149170746180045	33.20743512455197	23.439037311738442	40.64623399989951	116.05743418111672	115.69459365685991	55.15636161608413	0.0009777332391602772	-8.548314708642571e+23	0.2633866932569192	0.002755262911751917	8.268952185856566e+23	0.09025633159652847	-0.08730671668977684	3.088411716147627	323.964142	345.068756	-37.139496	-30.555197	-28.687798	-10.00613	0.0	11952.0	True	0.0	None	0.0	None	0.0	None	0.0	None	0.0	None	0.0	None	0.0	None	0.0	None	5.3082e-07	12
2014-01-16 12:48:00	540.0123238191078	7116877372.4424	1.017304610717879e+23	12566145754882.164	15.801963863704279	2052500846678.6875	8.143325490949542e+21	-3.007814200442524e+24	5787.8139060428575	-0.3182357855089389	33.17230638525441	23.25651681148469	40.73673849642515	116.37657769700705	116.29432793942742	55.165840616867456	0.0011939526908730093	-8.500285133761622e+23	0.3046377565141838	0.0033686700871458143	8.317073555188536e+23	0.08993557235665019	-0.08799713877212358	3.0846362754149514	323.9624330000001	344.958984	-37.140205	-30.443417	-28.691309000000004	-9.919166	0.0	11952.0	True	0.0	None	0.0	None	0.0	None	0.0	None	0.0	None	0.0	None	0.0	None	0.0	None	5.6383e-07	12
2014-01-16 13:00:00	535.3231215304013	7097141124.9347	1.0217903296058077e+23	12444569386494.258	14.401091157912106	2195451901051.272	8.110605756365492e+21	-2.9676211984312966e+24	5844.6896455708875	-0.3148564278986999	33.18287889401409	22.92616226071103	40.617573729315794	116.03993047760012	116.03349871798737	54.718841883782154	0.0010939753234512387	-8.401587274909337e+23	0.3276195725359121	0.0030864810872566232	8.253431236659149e+23	0.08913852480415779	-0.08756663008256273	3.244143244586647	323.960693	344.849152	-37.139057	-30.34783	-28.694393	-9.814173	0.0	11952.0	True	0.0	None	0.0	None	0.0	None	0.0	None	0.0	None	0.0	None	0.0	None	0.0	None	5.762300000000001e-07	12
2014-01-16 13:12:00	533.7952293651649	7027106534.861401	1.0121140528513086e+23	12507951769505.055	17.085175613311804	2288998393233.8726	8.026270772456176e+21	-2.930727516361128e+24	5796.8260286890845	-0.3140410197435161	33.519759095265606	24.27930326310185	40.89049126391862	114.31035464005696	114.90523814359129	53.95180689958561	0.0012995493734929491	-8.176520323927314e+23	0.3420283199085144	0.0037005304526502893	8.132758813289845e+23	0.08761520018988064	-0.08714627534615545	3.249814574211648	323.958893	344.739288	-37.136917	-30.238518	-28.696527000000003	-9.710295	0.0	11952.0	True	0.0	None	0.0	None	0.0	None	0.0	None	0.0	None	0.0	None	0.0	None	0.0	None	5.7363e-07	12
2014-01-16 13:24:00	540.2461606345048	7033013418.5613	1.008518905396068e+23	12472462991508.645	21.093275019192518	2158289974512.1348	8.063074788649292e+21	-2.952885372526988e+24	5774.0392186783765	-0.3161495938946672	33.215077621376565	23.684610705596107	40.760324886310364	114.8427245903619	115.32038134537208	54.0705053249967	0.0016038074071770467	-8.221063393935805e+23	0.1870265346176982	0.0045575066462892645	8.226268640922519e+23	0.08801851496019643	-0.0880742447469427	3.248212019501439	323.957092	344.62939500000016	-37.133934	-30.135572	-28.700554	-9.606676	0.0	11952.0	True	0.0	None	0.0	None	0.0	None	0.0	None	0.0	None	0.0	None	0.0	None	0.0	None	6.2761e-07	12
2014-01-16 13:36:00	527.7406244528012	7000909948.459001	1.0122123848127474e+23	12146221317358.846	23.91175883510527	1785940811660.4058	7.96063089219359e+21	-2.8896145833348385e+24	5924.008140349376	-0.3107942504338502	33.18473700480876	23.96238147054252	40.436515743718964	114.58142903140636	115.02079953593771	54.483649046121826	0.0018585231490055394	-8.142019744756832e+23	0.2727006060830724	0.005211377077810662	8.080806428730385e+23	0.0875719875648234	-0.08691360402880684	3.2700619513634583	323.955231	344.51947	-37.125095	-30.030766	-28.703993	-9.502973	0.0	11952.0	True	0.0	None	0.0	None	0.0	None	0.0	None	0.0	None	0.0	None	0.0	None	0.0	None	9.4455e-07	12
2014-01-16 13:48:00	541.3460262605744	7007716256.7754	1.0251005662934137e+23	12658460657611.75	12.191435092898994	1157854776721.201	7.949507687563479e+21	-2.830297399116452e+24	5883.288714933437	-0.3041186726875356	34.01393321244754	25.18292682926829	41.28929170232889	113.40170669257549	113.27919897167278	54.528367009850605	0.0009292252357392528	-8.121498079085759e+23	0.17337741286989225	0.002668033045431373	8.026774269120291e+23	0.08726642001709689	-0.08624860191191834	3.367066758771024	323.9532779999999	344.409485	-37.127823	-29.91621	-28.694109	-9.393637	0.0	11952.0	True	0.0	None	0.0	None	0.0	None	0.0	None	0.0	None	0.0	None	0.0	None	0.0	None	9.9739e-07	12
2014-01-16 14:00:00	538.6394434052122	7014314318.3874	1.023253834298683e+23	12479948137597.61	4.329761810909791	1627003875368.2732	7.9177719717467e+21	-2.8515288229765703e+24	5944.733184564088	-0.3061117778121805	33.94050614380695	24.959493866214032	41.144830045515775	114.11746486877321	114.4311414395305	54.70366727143246	0.00033406078318878104	-8.034764214086586e+23	0.2466221116912348	0.0009452102714356152	8.03758882173129e+23	0.08625323854550221	-0.08628356072428486	3.55947061111368	323.951355	344.299469	-37.127632	-29.814241	-28.696671	-9.287411	0.0	11952.0	True	0.0	None	0.0	None	0.0	None	0.0	None	0.0	None	0.0	None	0.0	None	0.0	None	9.9256e-07	12
