Timestamp	TOTUSJH	TOTBSQ	TOTPOT	TOTUSJZ	ABSNJZH	SAVNCPP	USFLUX	TOTFZ	MEANPOT	EPSZ	MEANSHR	SHRGT45	MEANGAM	MEANGBT	MEANGBZ	MEANGBH	MEANJZH	TOTFY	MEANJZD	MEANALP	TOTFX	EPSY	EPSX	R_VALUE	CRVAL1	CRLN_OBS	LAT_MIN	LON_MIN	LAT_MAX	LON_MAX	QUALITY	NOAA_AR	IS_TMFI	BFLARE	BFLARE_label	CFLARE	CFLARE_label	MFLARE	MFLARE_label	XFLARE	XFLARE_label	BFLARE_loc	BFLARE_label_loc	CFLARE_loc	CFLARE_label_loc	MFLARE_loc	MFLARE_label_loc	XFLARE_loc	XFLARE_label_loc	XR_MAX	XR_QUAL
2014-03-11 12:36:00	34.05304899182139	287623293.6622	1.7759456317140204e+21	750742457254.6787	8.534572778905622	494405640415.0393	5.882197530228431e+20	-2.6662750690024034e+23	1444.1294070995193	-0.6980207430389537	21.174694318436273	0.5399568034557235	26.17583706839169	100.65816923994923	99.86419111219969	37.953778194623425	0.009216601273116222	5.1813327494919374e+22	-1.0284645453695378	0.03494980326200157	8.886380134318218e+22	-0.13564533448852373	-0.2326420756956719	0.0	305.592712	353.928558	1.934284	-49.928848	3.841117	-46.472157	0.0		True	0.0	None	0.0	None	0.0	None	0.0	None	0.0	None	0.0	None	0.0	None	0.0	None	6.6722e-06	12
2014-03-11 12:48:00	34.93186510904192	288665706.53470004	1.8534604579968894e+21	769287686012.3639	8.252026485609122	405961207292.3227	5.841859813421191e+20	-2.6544717705866592e+23	1515.3438597418906	-0.6924212966318289	22.09053262757237	0.5428881650380022	26.470108770047393	103.52172801685974	102.73852286403938	38.12088644461914	0.008959855033234659	5.3091070133531465e+22	-0.8490882498095108	0.033782122656531875	8.814500454020019e+22	-0.13848852351255808	-0.2299270197997057	0.0	305.596375	353.818817	1.938312	-49.83273300000001	3.848671	-46.381664	0.0		True	0.0	None	0.0	None	0.0	None	0.0	None	0.0	None	0.0	None	0.0	None	0.0	None	4.5331e-06	12
2014-03-11 13:00:00	35.148076554691755	283512695.1585	1.721935591736256e+21	749283536694.3577	10.539297381240448	554755280514.5647	5.710834043805667e+20	-2.6410314247314124e+23	1470.0620809021027	-0.7014365886011641	20.73498178192732	0.2267573696145125	25.63308467137893	106.38487103350755	105.84713702743298	37.92374218228829	0.011949316758776021	5.2381728327169045e+22	-1.2116345581996208	0.04369717653019357	8.5476890103857e+22	-0.1391216343689626	-0.2270197076688837	0.0	305.599976	353.709015	1.938186	-49.696079	3.844158	-46.251804	0.0		True	0.0	None	0.0	None	0.0	None	0.0	None	0.0	None	0.0	None	0.0	None	0.0	None	3.5450999999999997e-06	12
2014-03-11 13:12:00	37.08327685257764	286200025.7256	1.8123272767250052e+21	778613388714.2275	8.931089358122096	435710052480.5061	5.732241180643616e+20	-2.6565011167658e+23	1547.2321136440598	-0.6989204750449037	21.19227404966806	0.453514739229025	25.785698682874962	107.29342728610523	106.512197052123	39.08908207831766	0.010125951653199657	5.087237692398342e+22	-0.9516535509981832	0.03673598689260717	8.91041038593265e+22	-0.13384427215924458	-0.2344312306317817	0.0	305.6035770000001	353.599213	1.938263	-49.599857	3.84325	-46.12653	0.0		True	0.0	None	0.0	None	0.0	None	0.0	None	0.0	None	0.0	None	0.0	None	0.0	None	2.8226e-06	12
2014-03-11 13:24:00	37.247457393151116	285704472.47740006	1.84736004239722e+21	787681085042.8408	7.9807221841624365	370361608160.0054	5.748086079608808e+20	-2.624250092799624e+23	1564.7220536758912	-0.691632831940462	21.08376035550394	0.8998875140607425	26.11917688695161	106.98222601490991	106.3490842080773	38.59674463709956	0.008977190308394192	5.292285449094866e+22	-0.8025739398119145	0.03302547282115064	9.16552110097797e+22	-0.13948054656215525	-0.2415614019667098	0.0	305.607117	353.48938	1.937862	-49.464836	3.843445	-46.034218	0.0		True	0.0	None	0.0	None	0.0	None	0.0	None	0.0	None	0.0	None	0.0	None	0.0	None	2.6307e-06	12
2014-03-11 13:36:00	33.97169081254343	276712802.8295	1.7621573893722302e+21	733049877642.1521	9.04507954223354	529119283373.8413	5.5722038478811726e+20	-2.554784888108452e+23	1541.0935976246844	-0.6952044726193329	21.233608905078825	1.5098722415795591	25.96776972028112	104.27072387530457	103.94044455119491	38.804276659983934	0.01050531886438274	5.140668864204073e+22	-1.183919754487169	0.03856479642417834	8.73143026163055e+22	-0.13988715853473088	-0.2375984529462141	0.0	305.610626	353.379486	1.9391080000000005	-49.368423	3.839751	-45.90918	0.0		True	0.0	None	0.0	None	0.0	None	0.0	None	0.0	None	0.0	None	0.0	None	0.0	None	2.7092000000000003e-06	12
2014-03-11 13:48:00	34.19986931571177	272638553.45350003	1.7345115970805438e+21	753508055633.7533	7.280836306804162	324630582091.9393	5.5807751114288176e+20	-2.5417417919652667e+23	1497.7803482177112	-0.7019910352478546	21.456748306004513	1.376146788990826	25.783401324063483	101.56149068578141	101.6515657379556	37.9045200370959	0.008349582920646977	5.15442856200441e+22	-0.7172251845096268	0.03138099615133487	8.395802113334891e+22	-0.1423576011454287	-0.2318794865751897	0.0	305.614166	353.269623	1.944619	-49.234619	3.836009	-45.81879	0.0		True	0.0	None	0.0	None	0.0	None	0.0	None	0.0	None	0.0	None	0.0	None	0.0	None	2.7019e-06	12
2014-03-11 14:00:00	35.162447300708706	272162220.2908	1.780588469071823e+21	743068518173.9844	8.301618143846635	479018648519.8874	5.4678282399757527e+20	-2.5021789393517064e+23	1588.577938067973	-0.6922738741001113	21.686738448909388	1.7772511848341233	26.05436557896596	103.9503897076498	103.55201082914236	37.45422566415832	0.009836040454794592	5.179450958197449e+22	-1.093460907197108	0.036049086138384034	8.736018171657682e+22	-0.1432990472484706	-0.2416980276186541	0.0	305.6176450000001	353.159698	1.93945	-49.136166	3.839145	-45.690506	0.0		True	0.0	None	0.0	None	0.0	None	0.0	None	0.0	None	0.0	None	0.0	None	0.0	None	2.4177e-06	12
2014-03-11 14:12:00	34.27285046179168	262213923.56740004	1.7079081946891983e+21	737756930703.4858	8.406881772223812	594599426303.5696	5.308203497531055e+20	-2.40375624273294e+23	1547.5720451681796	-0.6902748555618765	21.983877318815818	1.6847172081829118	26.395762540707523	99.05156338957121	98.642393017018	36.437684989164154	0.010116584563446223	4.942430303363539e+22	-1.378564943172378	0.03793602785826553	8.551001747227825e+22	-0.14192933971957428	-0.2455549107286425	0.0	305.621094	353.049744	1.94871	-49.000187	3.83415	-45.599823	0.0		True	0.0	None	0.0	None	0.0	None	0.0	None	0.0	None	0.0	None	0.0	None	0.0	None	3.1757999999999997e-06	12
2014-03-11 14:24:00	31.36657790256356	246479125.81599998	1.484552752526788e+21	660706485737.7578	8.449869757590573	478170566918.7496	5.018441112307905e+20	-2.330552763746104e+23	1461.2402612596372	-0.7119774277291289	20.415870267665106	0.0	25.385533423206677	104.10999251241869	103.6470594612632	38.73288159159848	0.011045581382471338	4.654987104030161e+22	-1.2043023787960894	0.04004993645957125	7.66937877155834e+22	-0.14220856940017865	-0.2342974016721024	0.0	305.6245120000001	352.939758	1.943875	-48.903439	3.829103	-45.473114	0.0		True	0.0	None	0.0	None	0.0	None	0.0	None	0.0	None	0.0	None	0.0	None	0.0	None	3.3094e-06	12
2014-03-11 14:36:00	31.813541142904405	247271555.6616	1.524847473634852e+21	682426524691.7274	7.395034929792086	378781542780.802	5.06249906772527e+20	-2.314876839565457e+23	1449.7351497894165	-0.7049221782013039	20.93505113151561	0.6313131313131313	25.438759305395926	99.93340415976364	100.80614104004341	36.36392002392905	0.009337165315394049	5.258770097024684e+22	-0.9214841374355194	0.03508257836481171	7.367285409139933e+22	-0.1601391317280791	-0.22434726501546795	0.0	305.627838	352.829742	1.952796	-48.770073	3.828928	-45.386108	0.0		True	0.0	None	0.0	None	0.0	None	0.0	None	0.0	None	0.0	None	0.0	None	0.0	None	2.8346e-06	12
2014-03-11 14:48:00	31.699583330500808	240427157.6275	1.5123423056900622e+21	677289911078.152	9.110693460139004	538748585815.0294	4.797749751433817e+20	-2.2370751085060244e+23	1566.4016990184964	-0.7006231749305215	21.052523560899747	2.0632737276478683	25.49767991864767	104.41988458342949	105.42335330318384	37.022766141427496	0.01253190297130537	5.190129761047981e+22	-1.4278605382764071	0.04456457970660794	7.319612893314634e+22	-0.16254819418715252	-0.2292408692527665	0.0	305.631226	352.719727	1.953046	-48.675018	3.829163	-45.260983	0.0		True	0.0	None	0.0	None	0.0	None	0.0	None	0.0	None	0.0	None	0.0	None	0.0	None	2.4966999999999997e-06	12
2014-03-11 15:00:00	32.391839611381315	246680778.64680004	1.5860721988876606e+21	701807652545.7556	9.220118147956908	578689094784.001	4.962717832869156e+20	-2.3041552118905126e+23	1583.9415576730944	-0.7033378128111833	21.16152644060545	1.5915119363395225	25.237816281020628	107.58620856507221	108.71352689908731	37.835861981351634	0.012228273405778391	5.190462616289824e+22	-1.4788278270785369	0.04388644310726142	7.608459435512776e+22	-0.1584376176214368	-0.2322463864682761	0.0	305.634521	352.60968	1.963312	-48.541611	3.822237	-45.172302	0.0		True	0.0	None	0.0	None	0.0	None	0.0	None	0.0	None	0.0	None	0.0	None	0.0	None	2.4449e-06	12
2014-03-11 15:12:00	28.32888633876689	232435010.27070004	1.4446097826178188e+21	602797685575.8757	8.218937584312098	478938313465.2336	4.672065874566996e+20	-2.178907296441764e+23	1553.9607433762135	-0.7058700273234267	20.8454775026992	0.8571428571428572	24.73123703483385	105.4305094104664	106.840017164165	37.38729226946722	0.01174133940616014	4.864403156182502e+22	-1.318361057622011	0.04145703094100808	7.207009942404047e+22	-0.15758524441925367	-0.2334753898558492	0.0	305.637848	352.499603	1.95716	-48.443386	3.815898	-45.044243	0.0		True	0.0	None	0.0	None	0.0	None	0.0	None	0.0	None	0.0	None	0.0	None	0.0	None	2.2693e-06	12
2014-03-11 15:24:00	31.94174695697512	231426931.6747	1.5314926511060256e+21	687008033024.3896	7.732136542357483	368461978665.1597	4.6965156816726753e+20	-2.1380690256578682e+23	1601.658478638258	-0.6956572583937523	21.469163541647557	1.1111111111111112	25.051032372336184	103.09712409914872	103.8842420642812	37.763679794581336	0.010739078531052059	4.748288121112002e+22	-0.9861018853125664	0.039407377997408	7.400633913706704e+22	-0.15449366024934724	-0.24079225866905465	0.0	305.641144	352.389496	1.968859	-48.31131	3.812976	-44.957981	0.0		True	0.0	None	0.0	None	0.0	None	0.0	None	0.0	None	0.0	None	0.0	None	0.0	None	4.4766000000000005e-06	12
2014-03-11 15:36:00	31.63320099476721	241820627.6936	1.6236372415816236e+21	680909232342.0054	7.878994346877043	390171287870.16815	4.875280558741672e+20	-2.2221568060836475e+23	1623.6091743553825	-0.6919406195769642	22.009880841964907	2.1248339973439574	25.49797749470355	102.96046643718456	103.60316619670854	38.17773018331382	0.010463471908203244	4.781335881420885e+22	-0.9984592198351068	0.03851432789230217	7.89903149258378e+22	-0.1488824057392555	-0.24596197397379496	0.0	305.644409	352.279358	1.968435	-48.17981	3.808421	-44.833786	0.0		True	0.0	None	0.0	None	0.0	None	0.0	None	0.0	None	0.0	None	0.0	None	0.0	None	4.8854e-06	12
2014-03-11 15:48:00	32.82718221589049	254950450.4064	1.7697220455068643e+21	753836126113.4365	8.134892344527142	500630518615.8254	5.243514034785429e+20	-2.3247436827770682e+23	1588.2928403249184	-0.686604698112766	22.33023375151986	1.4302741358760431	25.98788067515798	107.67758535935043	109.50931268393968	38.402861295284744	0.009695938432094328	5.338810693048631e+22	-1.1498293017858614	0.03783665336923609	8.171804767550106e+22	-0.1576798565510236	-0.2413513191595261	0.0	305.647675	352.16922	1.978871	-48.047096	3.804093	-44.748432	0.0		True	0.0	None	0.0	None	0.0	None	0.0	None	0.0	None	0.0	None	0.0	None	0.0	None	5.6688e-06	12
2014-03-11 16:00:00	34.055275291957216	252877320.1862	1.7708799054674285e+21	812902271947.1426	9.018191659342378	600118304481.6523	5.2910871390887405e+20	-2.320221751706286e+23	1530.9407995341974	-0.6908870552145872	22.905413568767948	2.066590126291619	26.03404248222112	105.2401107986035	106.37647296802996	37.099125622914244	0.010353836577890215	4.891252604869321e+22	-1.3277131233763708	0.042181787229434685	8.27244885262002e+22	-0.1456456955462861	-0.2463267928161132	0.0	305.6508790000001	352.059021	1.977912	-47.949951	3.801045	-44.623249	0.0		True	0.0	None	0.0	None	0.0	None	0.0	None	0.0	None	0.0	None	0.0	None	0.0	None	6.4376e-06	12
2014-03-11 16:12:00	31.044250517282162	251389589.01060003	1.8175390797860163e+21	717346461256.0133	7.71246485430418	379720228114.0825	5.234704103939496e+20	-2.2861663943677263e+23	1604.4351480979385	-0.6847751466037895	23.204721070941485	1.7584994138335288	26.276310342693943	105.66318636798096	107.07674773078465	38.292447536126296	0.009041576617003728	4.94348523508033e+22	-0.842781705391187	0.036419498262926266	8.525999033647071e+22	-0.14807215410591418	-0.25537914705566017	0.0	305.654114	351.948853	1.988169	-47.820671	3.792398	-44.537251	0.0		True	0.0	None	0.0	None	0.0	None	0.0	None	0.0	None	0.0	None	0.0	None	0.0	None	5.9809000000000015e-06	12
2014-03-11 16:24:00	34.12524609576097	254396556.7633	1.871278525717246e+21	814806111355.8115	6.9017629410798635	317602380014.21136	5.434732344545424e+20	-2.3077734299008912e+23	1545.0090993401618	-0.6830765654669777	22.874434721540126	1.6447368421052633	26.13976951043005	104.14014438696758	104.47088465502605	37.23140192277575	0.0075677225231138845	4.783653628047318e+22	-0.6711013342174407	0.03223850781653473	8.729592143022461e+22	-0.14159109591492866	-0.2583867090990549	0.0	305.657288	351.838623	1.987949	-47.687675	3.784091000000001	-44.413197	0.0		True	0.0	None	0.0	None	0.0	None	0.0	None	0.0	None	0.0	None	0.0	None	0.0	None	9.7278e-06	12
2014-03-11 16:36:00	32.292239828221824	254494073.2604	1.9067207865863386e+21	804190183790.4442	7.080790253128147	461412689510.2286	5.594310872623528e+20	-2.318537871392329e+23	1468.0328718023925	-0.6859999045037314	23.883988963736616	2.8629856850715747	26.32651161548511	100.35675892836625	100.99950038852181	34.64630204288457	0.007240071833464364	4.443586401564637e+22	-0.8776147180692198	0.033004754531892194	8.921243996094865e+22	-0.13147509405558488	-0.26395827322416765	0.0	305.660461	351.728394	2.001403	-47.589645	3.782715	-44.32513	0.0		True	0.0	None	0.0	None	0.0	None	0.0	None	0.0	None	0.0	None	0.0	None	0.0	None	9.4631e-06	12
2014-03-11 16:48:00	29.602981118199764	248187107.3477	1.8994082091235025e+21	740771261375.8921	5.454784156754219	344657745287.31	5.4625561238821e+20	-2.268732017466012e+23	1499.1924558820972	-0.6883216581511244	23.69986381973327	2.830188679245284	25.768343164570407	98.29636001836036	99.30479672497064	33.50181667211029	0.00571780309932308	4.1289418284040035e+22	-0.6962263201588881	0.02603593370622534	8.930202107259144e+22	-0.12526997740838985	-0.27093775178254903	0.0	305.6635740000001	351.618134	2.004083	-47.456554	3.780027	-44.202293	0.0		True	0.0	None	0.0	None	0.0	None	0.0	None	0.0	None	0.0	None	0.0	None	0.0	None	6.6951e-06	12
2014-03-11 17:00:00	31.152125370237922	251100305.5815	1.9046428522297423e+21	804911880917.4443	6.155172911690578	379817849752.0601	5.563037378623508e+20	-2.2847762261442675e+23	1442.828336754184	-0.6851472615379216	24.18165893605281	3.8229376257545273	26.717998477764827	104.01163129474457	104.52236492234087	34.68765341023498	0.006192326872928146	4.150186970534276e+22	-0.7305564828166377	0.029092775331994506	8.83165230688592e+22	-0.1244537300937574	-0.2648391699667431	0.0	305.666718	351.507874	2.015527	-47.326183	3.772491000000002	-44.115162	0.0		True	0.0	None	0.0	None	0.0	None	0.0	None	0.0	None	0.0	None	0.0	None	0.0	None	3.8706e-06	12
2014-03-11 17:12:00	28.484706367977573	251439287.90570003	1.7902605101288606e+21	689964741219.8317	4.418166330099657	226797263154.7413	5.57588247895614e+20	-2.299151945535024e+23	1369.962248123364	-0.6885286268812065	23.01502781432189	1.7276422764227644	26.436972358527196	102.9312812376668	103.19564328407756	33.81080832499716	0.004490006433028107	3.966148019057128e+22	-0.4441838951944784	0.020812799061516445	9.059107252434182e+22	-0.11877450965658333	-0.2712937128579643	0.0	305.669861	351.39761400000015	2.02699	-47.195629	3.78873	-43.994488	0.0		True	0.0	None	0.0	None	0.0	None	0.0	None	0.0	None	0.0	None	0.0	None	0.0	None	2.6148000000000004e-06	12
2014-03-11 17:24:00	28.624016469567145	250145080.909	1.816064307037023e+21	724501276088.6241	5.794645194894287	488051465808.4702	5.601457007414016e+20	-2.268110780420876e+23	1363.382696217994	-0.6827469736393896	23.216289450322858	1.9940179461615155	26.663562942059787	104.21228687419821	103.48643143780748	34.811930948411806	0.005777313255128901	3.793649191485754e+22	-0.9377532373610886	0.027532526120254808	9.164803045813859e+22	-0.11419647253983732	-0.27587900897721424	0.0	305.672974	351.287323	2.029887	-47.07046500000001	3.810395	-43.908253	0.0		True	0.0	None	0.0	None	0.0	None	0.0	None	0.0	None	0.0	None	0.0	None	0.0	None	2.1049e-06	12
2014-03-11 17:36:00	29.56609588552756	246197924.2204	1.7742545751755706e+21	721898362332.9547	4.5896479778805634	300263612219.3649	5.473258616302293e+20	-2.240174377282585e+23	1393.1082003087188	-0.6851488934090004	22.455368180760765	0.9384775808133472	25.984530943354894	104.38497166186012	103.39958984179304	34.56057178018727	0.004785868590073579	3.5534622422942475e+22	-0.6034081389363058	0.02212517456969996	9.09994618548448e+22	-0.10868130390955953	-0.27831842566779164	0.0	305.676056	351.177002	2.039831	-46.981564	3.827716000000001	-43.82313900000001	0.0		True	0.0	None	0.0	None	0.0	None	0.0	None	0.0	None	0.0	None	0.0	None	0.0	None	1.7616e-06	12
2014-03-11 17:48:00	27.103502754953904	242142175.2959	1.704274984806405e+21	662813772688.0387	3.8621295869464127	272842896453.20224	5.395309569654772e+20	-2.23830529585308e+23	1372.5098704849916	-0.6960433689642904	22.38109075662938	1.497326203208556	25.47611043372743	105.13777518668152	104.52963028370672	34.256550950310285	0.0041306198790870725	3.4876553397390675e+22	-0.5623808452182895	0.0188082957181692	8.83720732040745e+22	-0.1084552396384814	-0.2748096770770471	0.0	305.679138	351.066681	2.046578	-46.892879	3.841609	-43.738228	0.0		True	0.0	None	0.0	None	0.0	None	0.0	None	0.0	None	0.0	None	0.0	None	0.0	None	2.0868e-06	12
2014-03-11 18:00:00	27.210876267767247	239275033.9268	1.6561204814134266e+21	661697532770.3335	4.048496334846888	235747623489.10226	5.3605390916659695e+20	-2.2062829234208657e+23	1329.463909275024	-0.6943065772730107	22.37789505084681	0.9594882729211088	25.606578146672767	103.01120178512716	101.96528307735198	33.5945672977098	0.004316094173610755	3.4867389706156737e+22	-0.4843684922778209	0.019972588896870324	8.728723238698138e+22	-0.10972599093406436	-0.27468870340650425	0.0	305.6822200000001	350.95636	2.053856	-46.802757	3.837376	-43.65505200000001	66560.0		False	0.0	None	0.0	None	0.0	None	0.0	None	0.0	None	0.0	None	0.0	None	0.0	None	2.0708e-06	12
2014-03-11 18:12:00	28.354210469324972	237508375.3021	1.5744581573077264e+21	700492298006.7002	4.090489441067112	193498150250.09314	5.418634181927111e+20	-2.2114756223208674e+23	1224.7380560669967	-0.7011172853154861	21.90061574336857	0.9297520661157024	25.518873970344863	102.86924256691748	102.02033062524364	33.415796098258014	0.004225712232507346	3.34190480120704e+22	-0.3852423892033099	0.020248464045228048	8.542109511360935e+22	-0.10595039793140933	-0.2708155844461763	0.0	305.685303	350.846039	2.0664	-46.675076	3.853297	-43.537529	66560.0		False	0.0	None	0.0	None	0.0	None	0.0	None	0.0	None	0.0	None	0.0	None	0.0	None	-99999.0	0
2014-03-11 18:24:00	27.594832369917782	229793078.40750003	1.5652938840097334e+21	640373021724.2515	5.144179768644271	327820894982.4271	5.040087294633481e+20	-2.10798385578265e+23	1380.147509665753	-0.6907451205820105	21.576362212519754	0.5854800936768151	25.418588385719968	106.6708560560266	105.55677887980323	35.32658566086901	0.0060236297056724475	3.5603794049045728e+22	-0.7397959872662442	0.02648079667964964	8.2910112619409e+22	-0.11666667629413245	-0.27168023882943204	0.0	305.688354	350.735687	2.075994	-46.584164	3.847683	-43.453537	66560.0		False	0.0	None	0.0	None	0.0	None	0.0	None	0.0	None	0.0	None	0.0	None	0.0	None	-99999.0	0
2014-03-11 18:36:00	29.69388782106161	223378937.1034	1.5717300504317568e+21	707928029089.3595	5.495636352088487	329303032606.2924	4.96495890577736e+20	-2.0499089081499507e+23	1387.4468525103928	-0.6910027458737094	22.313634368246056	0.5861664712778429	25.28182616512473	100.22577632396174	99.57508485205022	32.72815606643961	0.00644271553585989	3.333785991728673e+22	-0.7440116654180606	0.02909788682262861	8.246278730959554e+22	-0.11237842156210133	-0.27797338816755834	0.0	305.691376	350.625336	2.0909999999999997	-46.456615	3.858489	-43.370785	66560.0		False	0.0	None	0.0	None	0.0	None	0.0	None	0.0	None	0.0	None	0.0	None	0.0	None	6.5049e-06	8
2014-03-11 18:48:00	27.17325204790314	215961602.1573	1.4603715777769426e+21	631413498431.7615	4.5820923241649645	151428463796.0274	4.698739082711051e+20	-1.96447068807482e+23	1381.4583683421668	-0.6849462773690573	21.750793426321312	1.256281407035176	25.86972012190405	103.41256838667236	102.55367193970736	34.01145529658082	0.005756397392167041	3.379155309871368e+22	-0.3666289726286154	0.025184378164041604	7.933298308571873e+22	-0.117820024711925	-0.2766080031990574	0.0	305.694427	350.514984	2.1095740000000003	-46.366329	3.854054	-43.28904	0.0		True	0.0	None	0.0	None	0.0	None	0.0	None	0.0	None	0.0	None	0.0	None	0.0	None	5.8016e-06	12
2014-03-11 19:00:00	28.90008464426053	220479450.782	1.5460227614729636e+21	682269615058.5579	7.378603494074513	424715753553.7267	4.860446272429765e+20	-2.0390205187421135e+23	1417.9476526857575	-0.6963714368148031	21.849858295629243	1.5834348355663823	25.440738591308516	105.33884393852935	104.53802956253081	34.469694437673915	0.008987336777191855	3.837930231073815e+22	-0.9969791238694284	0.03945618572230522	7.881485948000291e+22	-0.1310739624658904	-0.26917049845238944	0.0	305.697479	350.404633	2.121878	-46.240284	3.850741	-43.204842	0.0		True	0.0	None	0.0	None	0.0	None	0.0	None	0.0	None	0.0	None	0.0	None	0.0	None	4.1236e-06	12
2014-03-11 19:12:00	29.354507458434128	211875702.3811	1.5154591568750542e+21	686885764924.1919	8.475392133877031	604076013751.239	4.655320599650941e+20	-1.9502977731962756e+23	1472.4138336892677	-0.6931179163533946	21.78313131500161	1.1612903225806452	25.389185496194983	106.00983207868464	105.41847949947895	34.901865770196785	0.010935989850163913	3.7283698514480767e+22	-1.5021679483098351	0.04725213499234378	7.61980642051644e+22	-0.13250284025066342	-0.27080092187917704	0.0	305.700531	350.294281	2.114017	-46.145981	3.861598	-43.120892	0.0		True	0.0	None	0.0	None	0.0	None	0.0	None	0.0	None	0.0	None	0.0	None	0.0	None	3.6843e-06	12
2014-03-11 19:24:00	30.523441436001143	202845075.3504	1.5339623389440225e+21	705349075804.3319	7.946781169766334	427813335258.6161	4.4802055569340695e+20	-1.840590319163561e+23	1552.4913286056255	-0.6832507019457533	22.055770954900517	1.747311827956989	25.29359203305291	104.50383607225763	104.3148931533533	34.16027834710957	0.010681157486245072	4.15088024402978e+22	-1.1081721739356756	0.046548745060049926	7.22962083423923e+22	-0.15408599137449244	-0.268372785533305	0.0	305.703583	350.183929	2.108128	-46.01915	3.855558	-42.998138	0.0		True	0.0	None	0.0	None	0.0	None	0.0	None	0.0	None	0.0	None	0.0	None	0.0	None	5.838e-06	12
2014-03-11 19:36:00	31.16307912982811	211166661.44090003	1.6191746932620324e+21	712880036091.0408	8.944855698625691	477785683430.7271	4.658140762590104e+20	-1.902686960642357e+23	1583.3992362169524	-0.6784681063189392	22.075164316565328	2.0779220779220777	25.35171662565816	100.7392186496484	100.9937079965409	33.72671912875815	0.011616695712500898	4.433139219820541e+22	-1.1958172370132951	0.050473670394909326	7.58418774719019e+22	-0.1580787398944717	-0.2704401514932461	0.0	305.706635	350.073578	2.120463	-45.894238	3.852107	-42.877552	0.0		True	0.0	None	0.0	None	0.0	None	0.0	None	0.0	None	0.0	None	0.0	None	0.0	None	7.716799999999999e-06	12
2014-03-11 19:48:00	32.08605057377973	210729724.5792	1.649181635396985e+21	738315375747.3119	7.360136970875603	408513486808.1605	4.680433433604633e+20	-1.900836500633318e+23	1600.2736556746916	-0.6792137205333189	22.44642571823036	1.804123711340206	25.212609755556088	102.16649888848715	102.22467850017678	34.318119358573234	0.009484712591334538	4.6298417910637295e+22	-1.0145254930788539	0.04159911760787624	7.3675910003838176e+22	-0.16543516853455353	-0.26326140586374513	0.0	305.709686	349.963226	2.1141810000000003	-45.802765	3.85708	-42.756527	0.0		True	0.0	None	0.0	None	0.0	None	0.0	None	0.0	None	0.0	None	0.0	None	0.0	None	8.0486e-06	12
2014-03-11 20:00:00	33.83139471533286	208659831.9152	1.626473632764112e+21	783563678044.9988	9.239589604464703	588720388807.4209	4.5989223685876174e+20	-1.884902783063486e+23	1622.1368735008496	-0.6802014030926714	22.21910409485928	0.6622516556291391	25.261234052085165	102.01368505955195	101.92790314369972	36.043224510464185	0.012237867025781066	4.789135371580578e+22	-1.5027112182517317	0.05270872136169386	7.240296908407646e+22	-0.1728246479670104	-0.26127926385159017	0.0	305.712708	349.852875	2.106879	-45.676807	3.853312	-42.638088	0.0		True	0.0	None	0.0	None	0.0	None	0.0	None	0.0	None	0.0	None	0.0	None	0.0	None	6.8485000000000014e-06	12
2014-03-11 20:12:00	31.22621923383459	213802827.0611	1.7504785199829324e+21	749225882703.3198	7.3751998544262936	405581032140.29706	4.839212156760647e+20	-1.8949096727252468e+23	1586.1462300063608	-0.6673636232280692	23.512942687586516	1.3237063778580025	26.03364133032138	98.52207167134243	98.65378133743904	32.67631101478217	0.008875090077528633	4.72935859489926e+22	-0.9405558376207308	0.041377097554202366	7.82326306915419e+22	-0.16656212867907053	-0.27552559694248285	0.0	305.71582	349.742554	2.119735	-45.551903	3.850198	-42.553066	0.0		True	0.0	None	0.0	None	0.0	None	0.0	None	0.0	None	0.0	None	0.0	None	0.0	None	4.9048e-06	12
2014-03-11 20:24:00	32.12961457224877	224302162.79580003	1.819597691667589e+21	763002112798.1554	6.878099617860732	348210963218.8292	5.071759946806077e+20	-1.977838246695261e+23	1571.2539454103173	-0.6639644065589395	23.417498968387285	1.7201834862385321	25.916539007243024	99.69119023469109	99.85379935833772	33.0702892045052	0.00788772891956506	4.7509030267654175e+22	-0.7695340408237464	0.03685708327195373	8.345933951555722e+22	-0.15948880117249525	-0.28017473585536345	0.0	305.7188720000001	349.632233	2.112688	-45.425228	3.854658	-42.432446	0.0		True	0.0	None	0.0	None	0.0	None	0.0	None	0.0	None	0.0	None	0.0	None	0.0	None	3.8887e-06	12
2014-03-11 20:36:00	32.612606971684286	239669736.31340003	1.9584079821183388e+21	789471281212.1633	6.554735888279438	389280775208.5808	5.459094649693563e+20	-2.1073322041785644e+23	1542.5265975848251	-0.6620749996482898	23.922547944262327	2.301255230125523	26.38110351553986	98.54241922261556	98.83837673752495	33.148026148378236	0.006856418293179329	4.631493187047392e+22	-0.7846935558483464	0.032909507105219976	8.991242501333166e+22	-0.14551079531291725	-0.2824840271554749	0.0	305.721954	349.521912	2.106991	-45.335407	3.848837	-42.311363	0.0		True	0.0	None	0.0	None	0.0	None	0.0	None	0.0	None	0.0	None	0.0	None	0.0	None	3.0227999999999997e-06	12
2014-03-11 20:48:00	30.946845493056887	238747278.6726	1.9147153319915686e+21	747111746004.2114	6.279390451067664	287508584489.7186	5.3346548892102105e+20	-2.087246845987551e+23	1580.8726624602182	-0.6582985466248056	23.363514221389288	3.070175438596491	26.317294859134197	100.27030383810872	100.18591506818485	33.640103785241216	0.006885296547223315	4.429103034622315e+22	-0.6074964673398798	0.03172096083663885	9.132667727734093e+22	-0.13968985489897232	-0.2880359792389633	0.0	305.725037	349.411591	2.118167	-45.20924	3.847615	-42.192562	0.0		True	0.0	None	0.0	None	0.0	None	0.0	None	0.0	None	0.0	None	0.0	None	0.0	None	2.5447999999999998e-06	12
2014-03-11 21:00:00	29.13901198301301	237000909.9949	1.772307036791399e+21	714317534787.5276	4.541570615692307	256285328350.7129	5.4630695875635085e+20	-2.12509416030899e+23	1406.2425346185653	-0.6751738989041999	22.581179380257524	1.2644889357218123	25.78099354931005	95.64116752946163	96.02470083880415	30.14774870444248	0.00478563816195185	3.8584035607429205e+22	-0.5204000143690118	0.022878426709786213	9.125871989751087e+22	-0.1225871975138205	-0.28994247348197394	0.0	305.7281490000001	349.3013	2.1144580000000004	-45.082752	3.844671	-42.073433	0.0		True	0.0	None	0.0	None	0.0	None	0.0	None	0.0	None	0.0	None	0.0	None	0.0	None	2.2291e-06	10
2014-03-11 21:12:00	26.60567739115552	227788858.7548	1.6112512230463706e+21	634049740011.7007	3.683308060505472	216321289344.28226	5.224228980428088e+20	-2.092215005349972e+23	1361.673684941519	-0.6916100927744793	22.194631928773518	1.5712682379349048	25.152383749742647	96.36370279096629	97.46385708234509	30.232181932691212	0.004133903547144188	3.397952804280193e+22	-0.4678350618492774	0.019117684612210032	8.551585460167319e+22	-0.11232394606683477	-0.2826842747208905	0.0	305.731262	349.19101	2.112416	-44.957371	3.838869	-41.987896	0.0		True	0.0	None	0.0	None	0.0	None	0.0	None	0.0	None	0.0	None	0.0	None	0.0	None	2.0162e-06	12
2014-03-11 21:24:00	26.424413081651487	230390415.7032	1.563622184538598e+21	639131160439.51	2.3478061400402916	148944550916.83606	5.303688438124557e+20	-2.136439945616372e+23	1286.7617348952665	-0.6982544131507705	21.597271145978645	0.5464480874316939	25.27504803881282	95.24087785857284	96.11264812957508	29.110924054481536	0.0025659083497708104	3.282439416194222e+22	-0.3136646054152427	0.012001210948290812	8.639606004517022e+22	-0.10728023565372953	-0.2823689490039686	0.0	305.734406	349.08075	2.121232	-44.865273	3.838659	-41.86805	0.0		True	0.0	None	0.0	None	0.0	None	0.0	None	0.0	None	0.0	None	0.0	None	0.0	None	1.5892e-06	12
2014-03-11 21:36:00	26.704730778631856	230681324.9219	1.570196868616629e+21	648372139705.2556	2.6524386975035275	204632563090.77606	5.300981905616217e+20	-2.175545734076292e+23	1307.8955466023194	-0.7101386739406056	21.678286870670238	1.2168141592920354	24.94306805834073	98.95468645354305	99.7098317804013	30.289811263382312	0.002934113603433105	3.12772595797902e+22	-0.4361728115264015	0.013447191370282321	8.36521709956307e+22	-0.10209480451082724	-0.27305627665102805	0.0	305.737549	348.97049	2.115899	-44.742226	3.836877	-41.750389	0.0		True	0.0	None	0.0	None	0.0	None	0.0	None	0.0	None	0.0	None	0.0	None	0.0	None	1.6595e-06	12
2014-03-11 21:48:00	24.27292350797846	227106730.3919	1.51592002488427e+21	592599746949.2903	2.20330515018878	182155108437.9144	5.2873431460225535e+20	-2.117469610618205e+23	1235.3551325244416	-0.7020607384288542	21.83228338817593	0.21645021645021645	25.280589759485263	92.47311732969813	93.30466743524595	28.839908287951523	0.0023845293833211906	3.1053248480437166e+22	-0.3798495043991553	0.011399861800660315	8.273861054888042e+22	-0.10295905286888833	-0.27432521216474715	0.0	305.740723	348.86026	2.109084	-44.617649	3.829802	-41.632893	0.0		True	0.0	None	0.0	None	0.0	None	0.0	None	0.0	None	0.0	None	0.0	None	0.0	None	6.8833000000000015e-06	12
2014-03-11 22:00:00	23.914471103137412	229343016.4811	1.545219864711536e+21	604525867542.5359	2.0772333329734423	135328017174.00085	5.403417528833012e+20	-2.1339202277653114e+23	1200.7536755600347	-0.7006160449543998	22.081436941049308	1.3415892672858616	26.19426493031877	90.55327483489587	91.35883338579448	29.41520190968661	0.002143687650127391	3.1714622400951705e+22	-0.2690886075246876	0.01065181183742683	8.18651555823876e+22	-0.10412654149235014	-0.2687825007581165	0.0	305.743896	348.750031	2.098814	-44.492992	3.824277	-41.516647	0.0		True	0.0	None	0.0	None	0.0	None	0.0	None	0.0	None	0.0	None	0.0	None	0.0	None	6.9752e-06	12
2014-03-11 22:12:00	23.3284869719865	228436767.471	1.5386308701145197e+21	583015187426.7172	1.6252944561141764	126846123089.44055	5.325446438513212e+20	-2.1322247078830776e+23	1231.2103258469886	-0.7028366443645384	22.131188742575027	1.2752391073326248	25.820487427183892	90.62703063264114	91.3759595665217	28.746015139370108	0.0017271992094730884	3.079506897104748e+22	-0.25972140889715073	0.008356473806377747	8.219799062559673e+22	-0.1015085457858431	-0.2709459265302265	0.0	305.74707	348.639832	2.08806	-44.368954	3.820439	-41.430584	0.0		True	0.0	None	0.0	None	0.0	None	0.0	None	0.0	None	0.0	None	0.0	None	0.0	None	5.0199e-06	12
2014-03-11 22:24:00	24.69612964885236	221366282.9137	1.5131467355604464e+21	615592237177.5647	2.5041361620943006	191174486434.2592	5.170942331469156e+20	-2.0621141820032623e+23	1229.1042392493252	-0.7014369535320517	22.343437901039966	1.9417475728155336	26.15078145129173	93.58603791567836	93.6275805789558	29.89769591919969	0.002701333508192341	3.0443366780706832e+22	-0.3973367045707975	0.0132972122768201	8.09688416696071e+22	-0.10355441340873373	-0.2754189759588124	0.0	305.750275	348.529633	2.076453	-44.243923	3.819307	-41.311188	0.0		True	0.0	None	0.0	None	0.0	None	0.0	None	0.0	None	0.0	None	0.0	None	0.0	None	3.6020999999999998e-06	12
2014-03-11 22:36:00	21.57306657644728	212539263.6483	1.3776300318796467e+21	530081248613.9564	1.828326109285341	125713417529.87338	4.8778901296278674e+20	-2.012569147830192e+23	1233.4570467319604	-0.7130156523364435	21.19297094227517	0.4756242568370986	25.36030517382968	98.96060574621129	99.31294728552014	30.796399053977808	0.0021739906174617608	2.896119474701357e+22	-0.2879930793701816	0.010043455369256705	7.602334948983495e+22	-0.10260410275715393	-0.26933652534491537	0.0	305.75351	348.419464	2.069901	-44.118771	3.812523	-41.19458	0.0		True	0.0	None	0.0	None	0.0	None	0.0	None	0.0	None	0.0	None	0.0	None	0.0	None	2.7573000000000003e-06	12
2014-03-11 22:48:00	22.116116401811986	208685667.2455	1.4349239968426932e+21	539336653347.3398	1.4273625203117022	94496885948.7698	4.7844896241123e+20	-1.9607113718191472e+23	1309.6717684916725	-0.7074708679500059	22.0726397738945	1.4545454545454546	25.343924279451713	99.53983489132256	99.65612451587944	32.07171261797638	0.001730136388256609	2.8151235296648883e+22	-0.2206721674451753	0.008011583428290397	7.58747630357918e+22	-0.10157629090867568	-0.27377402524385386	0.0	305.756775	348.309326	2.059597	-43.995968	3.805453	-41.080185	0.0		True	0.0	None	0.0	None	0.0	None	0.0	None	0.0	None	0.0	None	0.0	None	0.0	None	2.1669999999999998e-06	12
2014-03-11 23:00:00	24.7475247576282	209819086.1909	1.4674624230748602e+21	615478210652.4901	0.5651586872277576	6734554381.256233	4.888270629685066e+20	-1.932110138479918e+23	1262.8344532413582	-0.6933848909080312	22.09627471919093	2.057142857142857	26.120367249040108	99.52845482933522	98.70674376166143	33.61208226304176	0.0006458956425460088	3.2244774809153e+22	0.014827636383911056	0.003181264151411527	7.694569421447349e+22	-0.11571824617093884	-0.2761384080864082	0.0	305.76004	348.199188	2.052778	-43.87315	3.7984	-40.995007	0.0		True	0.0	None	0.0	None	0.0	None	0.0	None	0.0	None	0.0	None	0.0	None	0.0	None	1.7763e-06	12
2014-03-11 23:12:00	24.510445199481268	207373872.32820004	1.4646059949199057e+21	614113817195.7617	1.9625703957968808	105841088261.79268	4.7866225346250414e+20	-1.889061909788659e+23	1316.0251889133115	-0.6859296353027438	21.709157508769657	1.0739856801909309	26.26119350192339	102.18859403512913	101.72069251015348	34.04949592090328	0.0023419694460583306	3.2046413918963967e+22	-0.24331456848305874	0.01122694918554868	7.632746032744101e+22	-0.11636243840549905	-0.2771495563734254	0.0	305.763367	348.089111	2.066177	-43.748497	3.791486	-40.876171	0.0		True	0.0	None	0.0	None	0.0	None	0.0	None	0.0	None	0.0	None	0.0	None	0.0	None	1.9085e-06	12
2014-03-11 23:24:00	23.63212572431331	201930630.6941	1.4460418156080957e+21	585205329467.5925	1.7910769258927353	118916996012.9358	4.660028902600911e+20	-1.843896671406673e+23	1332.7427771732184	-0.6875779185141558	22.03643726093672	2.4479804161566707	26.11940196549148	101.48118249317724	100.28736049637257	34.14501102688903	0.002192260619207753	3.0734802712580325e+22	-0.28039245193887696	0.010511826854813616	7.495426540758076e+22	-0.11460822074665165	-0.2794999231349849	0.0	305.7666930000001	347.979034	2.059486	-43.626785	3.784531	-40.759674	0.0		True	0.0	None	0.0	None	0.0	None	0.0	None	0.0	None	0.0	None	0.0	None	0.0	None	1.3888e-06	12
2014-03-11 23:36:00	25.326761710750155	202037838.0512	1.4763686972426931e+21	613132904017.8187	2.9052272025269703	179438256670.73065	4.570104544806063e+20	-1.833740943723793e+23	1398.3474702973779	-0.6834278470788651	22.429194964670714	2.6415094339622645	25.731953233366266	106.34078355403378	104.65738870979051	35.46007823405718	0.0036543738396565663	3.356639042928417e+22	-0.4347888697589491	0.0170837370432827	7.50327439343953e+22	-0.12510058208499958	-0.27964400763921377	0.0	305.7700200000001	347.868988	2.052166	-43.50428	3.773406	-40.64283	0.0		True	0.0	None	0.0	None	0.0	None	0.0	None	0.0	None	0.0	None	0.0	None	0.0	None	1.1705e-06	12
2014-03-11 23:48:00	26.802376048429945	201476478.33170003	1.6000854841738802e+21	663998682469.2751	4.02472417691731	346833187850.3013	4.6791741643093855e+20	-1.8206074593521146e+23	1439.478487993929	-0.6804236782995752	23.382674269280376	2.5089605734767018	25.77665722365849	101.30653773969429	99.28153447234604	35.390836101309716	0.004808511561430478	3.1990078941039258e+22	-0.7981999575434983	0.0237751340758418	7.565732480911886e+22	-0.11955793694211107	-0.28275746631976234	0.0	305.773438	347.758972	2.065591	-43.380638	3.76637	-40.526062	0.0		True	0.0	None	0.0	None	0.0	None	0.0	None	0.0	None	0.0	None	0.0	None	0.0	None	1.3033e-06	12
2014-03-12 00:00:00	22.35751277990229	183079317.2	1.3841626999149423e+21	535846238869.2695	3.2379532625283174	232392269927.8365	4.147839571974141e+20	-1.674817374444993e+23	1467.9669864411637	-0.6888357351203841	22.6261718006118	1.2676056338028172	25.256705689295497	101.19977498128368	100.08302427231837	34.33314434936775	0.004560497552856785	2.8713475852703764e+22	-0.6304717413035859	0.02094468713813507	6.934525027852414e+22	-0.11809567149620112	-0.2852101201096242	0.0	305.776794	347.64898700000015	2.058548	-43.25649600000001	3.755519	-40.408787	0.0		True	0.0	None	0.0	None	0.0	None	0.0	None	0.0	None	0.0	None	0.0	None	0.0	None	2.2413e-06	12
2014-03-12 00:12:00	26.596488557771373	195443923.8263	1.5020717707733862e+21	634669105811.6875	3.2164952535213196	179961547331.07468	4.4882163951703006e+20	-1.7643375995451936e+23	1435.330307878913	-0.6797463821733949	22.53492084179819	1.903553299492386	25.946203526651892	103.6450326917022	102.50115000534088	34.50408400047493	0.00408184676842807	3.1536179388920457e+22	-0.4398871270300027	0.019595079192042324	7.374051315125864e+22	-0.12149944462281904	-0.2841000897282853	0.0	305.7802430000001	347.539032	2.051542	-43.134274	3.744747	-40.292072	0.0		True	0.0	None	0.0	None	0.0	None	0.0	None	0.0	None	0.0	None	0.0	None	0.0	None	1.6665e-06	12
2014-03-12 00:24:00	24.430048537182568	187657864.4021	1.4594043618183938e+21	623856862591.9762	3.9070441005178775	272240362049.67834	4.414470998420417e+20	-1.6749893644979856e+23	1370.2151133308107	-0.6720982521076192	23.143641140572804	1.2468827930174564	26.45098911438239	97.88319381338256	96.93683079812132	33.27321319217943	0.004871626060496107	3.0187171268786446e+22	-0.6538097729503607	0.02490288978366616	7.068538033522568e+22	-0.12112760520067835	-0.2836287894108869	0.0	305.78363	347.429077	2.065468	-43.011684	3.734594	-40.176186	0.0		True	0.0	None	0.0	None	0.0	None	0.0	None	0.0	None	0.0	None	0.0	None	0.0	None	1.474e-06	12
