Timestamp	TOTUSJH	TOTBSQ	TOTPOT	TOTUSJZ	ABSNJZH	SAVNCPP	USFLUX	TOTFZ	MEANPOT	EPSZ	MEANSHR	SHRGT45	MEANGAM	MEANGBT	MEANGBZ	MEANGBH	MEANJZH	TOTFY	MEANJZD	MEANALP	TOTFX	EPSY	EPSX	R_VALUE	CRVAL1	CRLN_OBS	LAT_MIN	LON_MIN	LAT_MAX	LON_MAX	QUALITY	NOAA_AR	IS_TMFI	BFLARE	BFLARE_label	CFLARE	CFLARE_label	MFLARE	MFLARE_label	XFLARE	XFLARE_label	BFLARE_loc	BFLARE_label_loc	CFLARE_loc	CFLARE_label_loc	MFLARE_loc	MFLARE_label_loc	XFLARE_loc	XFLARE_label_loc	XR_MAX	XR_QUAL
2014-01-17 02:12:00	269.696425754588	2949004555.2621	1.8584223627369886e+22	6462486741132.838	1.7565409220395098	69333170431.1514	6.352436560382432e+21	-2.7588812750459685e+24	1280.6515220843464	-0.7044417032679916	21.85712298090024	1.2354717671822093	25.647528948402076	88.64462779599566	89.1361251374004	31.23315542233196	-0.00016076706224048233	4.325774279750104e+23	0.005248903768975137	-0.0006991763126954153	-8.24183800309309e+23	-0.11045258921224364	0.21044379305017472	0.0	390.901733	337.5784	14.365987	42.391216	20.145359	56.28985600000001	0.0	11950.0	True	0.0	None	0.0	None	0.0	None	0.0	None	0.0	None	0.0	None	0.0	None	0.0	None	1.7494e-06	12
2014-01-17 02:24:00	266.91939757051057	2969765975.7579	1.87671975251279e+22	6353454089259.492	1.4609073089837357	332253310892.7322	6.376282920109973e+21	-2.783701786708727e+24	1293.6157227440865	-0.7058103666212172	22.0160025985603	1.2175027462467962	25.708996383213	88.31618780554615	89.00814964780939	31.12760896545267	-0.00013374597720257586	4.361770861159109e+23	0.0597446573945969	-0.0005767788212992438	-8.283536702698908e+23	-0.11059313556256953	0.21002989993281146	0.0	390.904572	337.469025	14.365217	42.509548	20.148943	56.37381	0.0	11950.0	True	0.0	None	0.0	None	0.0	None	0.0	None	0.0	None	0.0	None	0.0	None	0.0	None	3.0529e-06	12
2014-01-17 02:36:00	276.5557929641377	2982432523.3582	1.9038737425552432e+22	6637858339238.482	5.815553219398161	323051629414.7115	6.435193854711566e+21	-2.7857508734205547e+24	1289.781697484248	-0.7033300630818888	22.258593718938283	1.6734143049932524	25.91394322323177	88.64256577299656	89.35327664880418	31.113150354760126	-0.0005232166639134649	4.421572365238077e+23	0.03159010188659542	-0.00228955769457863	-8.313471233474835e+23	-0.11163326915682006	0.2098936521157686	2.521852216980432	390.907471	337.359711	14.367807	42.629456	20.13558	56.447926	0.0	11950.0	True	0.0	None	0.0	None	0.0	None	0.0	None	0.0	None	0.0	None	0.0	None	0.0	None	3.0986000000000007e-06	12
2014-01-17 02:48:00	272.6875423805208	2977357490.5374	1.8686195686222485e+22	6537295099095.595	2.3422834300958444	411852141203.6194	6.408771471156108e+21	-2.7944283792411085e+24	1278.3194156393108	-0.7067233798711241	22.055592644687838	1.2810029980921231	25.712231678241853	88.45437980429053	89.10607392593927	30.891368979523364	-0.00021281877431363297	4.412988108142855e+23	0.07349582497541067	-0.0009221407970135683	-8.24049063038493e+23	-0.1116064342276959	0.2084056772885888	0.0	390.910339	337.250397	14.36737	42.750008	20.135221	56.534592	0.0	11950.0	True	0.0	None	0.0	None	0.0	None	0.0	None	0.0	None	0.0	None	0.0	None	0.0	None	2.7375e-06	12
2014-01-17 03:00:00	274.62520050700584	2979189636.8444004	1.85743661903837e+22	6550778557488.503	5.802789728575281	205944574810.8668	6.401830604268632e+21	-2.804079756483236e+24	1277.633844227858	-0.708728236556523	21.914241765905448	1.214944733717	25.53547274393687	88.27583103029006	89.06446061489152	30.975683027204266	-0.0005301287893819917	4.430148822341557e+23	0.036951772356168526	-0.002279881050751666	-8.185833199571526e+23	-0.11197154985630166	0.2068960811426496	2.643977345095495	390.9133	337.141144	14.37125	42.869778	20.139265	56.622108	0.0	11950.0	True	0.0	None	0.0	None	0.0	None	0.0	None	0.0	None	0.0	None	0.0	None	0.0	None	2.3697e-06	12
2014-01-17 03:12:00	278.82498581447896	3018639300.3351	1.8951721736905586e+22	6667814515978.393	7.914705004200399	355492150119.5837	6.439280127178398e+21	-2.833653811760709e+24	1299.7906746408535	-0.7068432256542332	22.152310447856003	1.5484106020584751	25.66962055022432	89.91009860278022	90.66587288826814	31.53102966869805	-0.0007208948906275983	4.4810065081463686e+23	-0.037199891935539235	-0.003072273490291807	-8.307216631203484e+23	-0.1117768543655559	0.20722008367563508	0.0	390.91626	337.031921	14.374374	42.987179	20.139658	56.708897	0.0	11950.0	True	0.0	None	0.0	None	0.0	None	0.0	None	0.0	None	0.0	None	0.0	None	0.0	None	1.927e-06	12
2014-01-17 03:24:00	270.60430899749656	3029609688.8777	1.8923837019096217e+22	6409678488229.982	4.663447056413438	308774995233.8635	6.391250376475505e+21	-2.8439110772368875e+24	1322.5732716211674	-0.7068330461666761	22.055988319498812	1.5964358641173195	25.66415425643232	91.1417111507744	91.78513474095092	32.01566079075985	-0.00043284268205062546	4.586884933823426e+23	0.05628919329292719	-0.001803679306154022	-8.305388635432522e+23	-0.11400362958396346	0.20642428646132635	0.0	390.919281	336.922729	14.374537	43.108597	20.137053	56.812428	0.0	11950.0	True	0.0	None	0.0	None	0.0	None	0.0	None	0.0	None	0.0	None	0.0	None	0.0	None	1.6313e-06	12
2014-01-17 03:36:00	280.11052924942487	3069229746.3430004	1.931304275466808e+22	6639985329147.522	13.132753701793265	430131877227.08215	6.458573839994178e+21	-2.874995310696312e+24	1332.4603817562554	-0.7053347720350388	22.17387456243264	1.6400952904526298	25.69450216000057	91.25524717302906	91.84775737524672	32.267844644681375	-0.0012032942735746071	4.535772782289551e+23	0.07627414509456934	-0.00501818593558582	-8.502072027596257e+23	-0.11127803407178746	0.20858493275099235	2.552637234229618	390.922302	336.8135680000001	14.381648	43.230198	20.131544	56.902084	0.0	11950.0	True	0.0	None	0.0	None	0.0	None	0.0	None	0.0	None	0.0	None	0.0	None	0.0	None	1.4730000000000001e-06	12
2014-01-17 03:48:00	286.0541453024437	3064884963.5644	1.9756305530146873e+22	6721896814140.527	12.687244019737664	411373454940.7618	6.390920402358479e+21	-2.85443519548259e+24	1391.8638296072816	-0.7012832554282709	22.272510442097968	1.6186377245508985	25.923799175896548	92.51618920181922	92.99677021283527	32.60887393102435	-0.0011870550168167724	4.575540636164229e+23	0.02358777632271976	-0.00486638519891225	-8.594007129103677e+23	-0.11241278266718888	0.2111392581695188	2.7396881901226937	390.925385	336.704437	14.383007999999998	43.34943	20.133022	57.000885	0.0	11950.0	True	0.0	None	0.0	None	0.0	None	0.0	None	0.0	None	0.0	None	0.0	None	0.0	None	1.4815000000000001e-06	12
2014-01-17 04:00:00	287.7507652779656	3051213621.5154	1.9588667193423563e+22	6690566168178.117	14.23756156058727	450259181657.3348	6.306715984185202e+21	-2.856356682492998e+24	1425.3973621040232	-0.7048996692038872	22.162209558804694	1.6911480479319674	25.500600980332035	93.98079660044588	94.37296063605991	33.26662345637636	-0.0013758756823141931	4.556144368344892e+23	0.0010964696117436276	-0.005473866098888048	-8.566569249659788e+23	-0.11243780154544268	0.21140818537504827	2.7502101391238787	390.928467	336.595306	14.370616	43.474106	20.132557	57.087978	0.0	11950.0	True	0.0	None	0.0	None	0.0	None	0.0	None	0.0	None	0.0	None	0.0	None	0.0	None	2.3161e-06	12
2014-01-17 04:12:00	291.0435979669869	3056042812.1147003	1.973654894495768e+22	6745383781001.907	14.070290511487407	497051164285.882	6.269816013507967e+21	-2.8422566241018846e+24	1453.7189513247022	-0.7003118099853943	22.156934442994565	1.7900811894747142	25.561257078130986	94.46456235993944	94.96001814979658	33.90198963901705	-0.0013763367418064573	4.792256946113141e+23	0.05368462266553313	-0.005415580986561581	-8.568711868011557e+23	-0.11807780153940345	0.2111269639287644	2.737122368475426	390.93158	336.486237	14.371199	43.588753	20.133249	57.176777	0.0	11950.0	True	0.0	None	0.0	None	0.0	None	0.0	None	0.0	None	0.0	None	0.0	None	0.0	None	3.2185e-06	12
2014-01-17 04:24:00	290.61409495924363	3039560385.6053	1.9684661271775714e+22	6765761825297.947	14.731815799960373	613915242291.9058	6.283808161187537e+21	-2.828327018262621e+24	1436.1297405703233	-0.7006584348438242	22.217977866016255	1.6858831508574752	25.60115604388	92.50362429943308	92.79404849031708	33.42867674998442	-0.0014273632206143172	4.7168999387990776e+23	0.049009192071171034	-0.005699784060589924	-8.551765261941016e+23	-0.11685125896311813	0.21185196849210355	2.737119487832996	390.934723	336.377167	14.377645	43.712276	20.12829	57.268513	0.0	11950.0	True	0.0	None	0.0	None	0.0	None	0.0	None	0.0	None	0.0	None	0.0	None	0.0	None	3.2147000000000007e-06	12
2014-01-17 04:36:00	295.68001017210133	3034804663.6829004	1.95979174731537e+22	6837471518518.872	16.913644825660334	643277584034.0813	6.19945032390452e+21	-2.8123651934428325e+24	1464.2764874362165	-0.6977960228712008	22.094193149256906	1.9150625124032543	25.78459490448309	94.53742906697214	95.06779462484371	34.16388828582239	-0.0016782739457888802	4.785802445917942e+23	-0.07782675841916889	-0.006565245148844053	-8.504525089409926e+23	-0.11874396400563644	0.2110118485904673	2.7290264785137905	390.937866	336.268127	14.376843	43.84214	20.126581	57.358025	0.0	11950.0	True	0.0	None	0.0	None	0.0	None	0.0	None	0.0	None	0.0	None	0.0	None	0.0	None	2.7625e-06	12
2014-01-17 04:48:00	292.6101455947948	3058114589.9742	1.962919776973955e+22	6758054593552.91	18.69174887875433	641752685351.9165	6.232389862177101e+21	-2.852311624590354e+24	1478.0531449214645	-0.7023130144340731	21.88357697356172	1.5699999999999998	25.32192398220021	95.63771474752878	96.13600439886288	34.07608534351736	-0.0018691748878754328	4.827377331622519e+23	-0.04540472390052677	-0.0071810303001001875	-8.596543538353876e+23	-0.11886253578864965	0.21166917226311688	2.567904726288284	390.94104	336.159088	14.367282	43.963589	20.12281	57.445152	0.0	11950.0	True	0.0	None	0.0	None	0.0	None	0.0	None	0.0	None	0.0	None	0.0	None	0.0	None	2.4509e-06	12
2014-01-17 05:00:00	288.9227601468968	3056958202.4605	1.9731012178011362e+22	6634143845770.945	20.388282042143622	853421195492.4354	6.188346676275707e+21	-2.845280926216172e+24	1493.9364214703232	-0.7008469536509417	22.174068725973743	2.20211161387632	25.78095770774919	96.25790457854477	96.75421759779312	34.298461338647755	-0.0020501037749767344	4.7681288487314544e+23	-0.11765582604194134	-0.007842524629256617	-8.637153799224541e+23	-0.1174481067039186	0.2127495697393669	2.7452388998868726	390.944214	336.050079	14.369519	44.083973	20.116302	57.516476	0.0	11950.0	True	0.0	None	0.0	None	0.0	None	0.0	None	0.0	None	0.0	None	0.0	None	0.0	None	2.4186e-06	12
2014-01-17 05:12:00	293.3818604704398	3061497040.0495005	1.9492571049774027e+22	6695872795161.93	16.88808440651747	405370817788.0987	6.157009873684144e+21	-2.844168744485149e+24	1492.2378773919986	-0.6995342280421322	22.124624565500426	1.911346075640504	25.819145439532644	96.49852143681541	97.1058504032938	34.36986829964057	-0.0017169666944405724	4.823401373637645e+23	-0.08093129481413415	-0.006491523403004672	-8.551452007850895e+23	-0.11863340960297895	0.2103262470115564	2.7447297293462376	390.947388	335.941101	14.371029	44.197571	20.111433	57.577988	0.0	11950.0	True	0.0	None	0.0	None	0.0	None	0.0	None	0.0	None	0.0	None	0.0	None	0.0	None	2.3808e-06	12
2014-01-17 05:24:00	289.81735853235335	3026001589.0967	1.893368998878183e+22	6453828046639.897	16.36009377948043	581205686181.6621	6.030336914787812e+21	-2.8304824610770144e+24	1509.9367765115194	-0.7043342598764218	21.538739448416774	1.3874179199322176	25.262191818443977	99.30731527026413	99.6483477416468	35.181636232984694	-0.0017326936856047904	4.668515710800482e+23	-0.08145317303525597	-0.006344419022633877	-8.496079614849059e+23	-0.11617085083922153	0.2114155459242412	2.73853287588514	390.950623	335.832123	14.376284	44.329906	20.110888	57.624371	0.0	11950.0	True	0.0	None	0.0	None	0.0	None	0.0	None	0.0	None	0.0	None	0.0	None	0.0	None	1.9808e-06	12
2014-01-17 05:36:00	286.00312656969373	3019128873.8350005	1.8548201913859684e+22	6449283346682.107	13.997184484158645	798911992075.4028	6.041799063524481e+21	-2.8401712238762143e+24	1472.1780920502545	-0.7083539296281388	21.263262895937075	1.2965110150732582	25.05582400697968	98.70460725893551	99.2263335228244	34.76831082187221	-0.0014754068181889578	4.44135839713616e+23	-0.1653634074477185	-0.005427641816187639	-8.456146282876345e+23	-0.11076985947363603	0.2109008217050686	2.7489051514446063	390.953857	335.7231450000001	14.361173	44.454205	20.107016	57.671101	0.0	11950.0	True	0.0	None	0.0	None	0.0	None	0.0	None	0.0	None	0.0	None	0.0	None	0.0	None	1.9672999999999998e-06	12
2014-01-17 05:48:00	276.0129755932684	2991147848.7478004	1.7867625056141192e+22	6229572601627.83	13.181064995325361	226418565558.2593	6.018177955646839e+21	-2.8312277930864963e+24	1418.0109059119482	-0.7127288676226015	21.102110553331663	1.4650084317032042	24.98177899371539	96.90226587982664	97.43958772563543	33.721268313546965	-0.0013892353494229929	4.375199507309086e+23	-0.046859840574767074	-0.005145812993729814	-8.301361679655377e+23	-0.11014058982049917	0.20897718382512628	2.6061779943537537	390.957092	335.6141970000001	14.364307	44.5779	20.098139	57.700962	0.0	11950.0	True	0.0	None	0.0	None	0.0	None	0.0	None	0.0	None	0.0	None	0.0	None	0.0	None	1.6427000000000004e-06	12
2014-01-17 06:00:00	279.89190477122384	3014329070.4501	1.7971922676239372e+22	6287659810996.572	19.004606830717886	796652563151.9001	6.102970203588327e+21	-2.859121578070498e+24	1400.6027898832685	-0.7142157779983297	21.003117694442523	1.1591802939350029	24.89744336997916	96.3520271159803	96.712289926325	33.149506404425665	-0.001966943368942029	4.334330387745583e+23	-0.10798771442349596	-0.007355847804105308	-8.47041222381831e+23	-0.10827266576312004	0.21159303272733326	2.6068234336830765	390.960358	335.50524900000005	14.369929999999998	44.701855	20.100924	57.672352	66560.0	11950.0	False	0.0	None	0.0	None	0.0	None	0.0	None	0.0	None	0.0	None	0.0	None	0.0	None	1.2295e-06	12
2014-01-17 06:12:00	275.55734005142415	3007411824.8273	1.7753314002036637e+22	6130453272219.232	17.87672319482948	671235009524.6711	6.116468214792945e+21	-2.8651016989115486e+24	1372.3452739185575	-0.7173558413622941	20.92597427513245	1.5193511959757724	24.924190298690768	96.65167637687892	97.24142290019856	32.831241377319	-0.001835392525136497	4.3714189781691767e+23	-0.13172528627594032	-0.006923003061532093	-8.268320319200249e+23	-0.10945031864743104	0.2070198025252004	2.5832102448862986	390.963593	335.396301	14.373293	44.835312	20.089228	57.745083	66560.0	11950.0	False	0.0	None	0.0	None	0.0	None	0.0	None	0.0	None	0.0	None	0.0	None	0.0	None	1.0551e-06	12
2014-01-17 06:24:00	272.36319526994225	2986432959.2789	1.7146658526072154e+22	6064621132898.263	17.268889823671437	851915714747.9921	6.130832824085212e+21	-2.8694597996261085e+24	1313.5833390941432	-0.7234938474916951	20.629698464954227	1.1903550717265237	24.62719847627145	95.00589316946643	95.44653294262731	31.91928017875765	-0.0017569325286063116	4.10646227227929e+23	-0.15819007470303426	-0.006710145031130855	-8.219728732258256e+23	-0.10353865871680634	0.20724887543691825	2.5966721759036555	390.966858	335.287354	14.359584	44.95798900000001	20.083563	57.802921	0.0	11950.0	True	0.0	None	0.0	None	0.0	None	0.0	None	0.0	None	0.0	None	0.0	None	0.0	None	9.560099999999999e-07	12
2014-01-17 06:36:00	264.3183652069346	3004301354.0954	1.6871851287401044e+22	5884455154292.371	15.345863752132402	592278717132.6802	6.173098604944877e+21	-2.9035203440184154e+24	1296.0910747551752	-0.7277276213856724	20.173087181723734	0.9283819628647214	24.191715931774997	93.55168271331137	93.87336796035255	31.58327543712009	-0.001565584957369149	3.925765392579477e+23	-0.05692839210633852	-0.005912927631932585	-8.255900057963494e+23	-0.09839393469880693	0.2069228315881056	2.7149438202112166	390.970093	335.178436	14.362631	45.081661	20.086725	57.876686	0.0	11950.0	True	0.0	None	0.0	None	0.0	None	0.0	None	0.0	None	0.0	None	0.0	None	0.0	None	8.775399999999998e-07	12
2014-01-17 06:48:00	256.39609703800875	2979625178.6089	1.6482598982954552e+22	5778863617278.545	13.112618170804241	411604350498.2963	6.209163647163892e+21	-2.8934905927139893e+24	1241.739284463893	-0.7312198393979541	20.09792945442259	0.8504252126063032	24.122539573229986	91.63037875986521	92.02805187558498	30.3244584749688	-0.001311917775968408	3.842961213581091e+23	-0.030022680533884162	-0.005084000151786729	-8.1977550992104e+23	-0.09711624736168943	0.20716712133651327	2.6037027928977405	390.973328	335.0694890000001	14.365393	45.206406	20.074934	57.936897	0.0	11950.0	True	0.0	None	0.0	None	0.0	None	0.0	None	0.0	None	0.0	None	0.0	None	0.0	None	8.2001e-07	12
2014-01-17 07:00:00	247.9301335154961	2944979162.9201	1.5895669635606504e+22	5537695809566.19	10.989168226029344	284215580342.2471	6.164165223666417e+21	-2.8821123011497623e+24	1209.7466121477405	-0.7369129103201669	19.721713182118922	0.5558924600768143	23.79404454363481	90.52550367806973	91.10004941554104	29.25558387626101	-0.0011108024083725204	3.769571834226704e+23	0.05640455823711475	-0.004296934594786831	-8.038047406147056e+23	-0.09638230092258243	0.20552082252285225	2.4731037020407385	390.976593	334.9605410000001	14.367978	45.322159	20.071409	57.969753	0.0	11950.0	True	0.0	None	0.0	None	0.0	None	0.0	None	0.0	None	0.0	None	0.0	None	0.0	None	7.610300000000002e-07	12
2014-01-17 07:12:00	240.43300531852825	2950842639.7725	1.5792382842701609e+22	5494533567804.102	10.858263238929236	203242145531.4196	6.284800445356442e+21	-2.9010706197066967e+24	1155.071438049214	-0.7402864199744366	19.786050227616254	0.5148130160271978	23.82410411518671	88.25347568165091	88.76392072493229	28.783567278039907	-0.001054712310726492	3.699751256009205e+23	-0.0252000503502454	-0.004228862652811681	-8.04991278231032e+23	-0.09440913273541354	0.20541523788639976	2.2758486298135487	390.979858	334.8515930000001	14.362433	45.447464	20.058876	58.046951	0.0	11950.0	True	0.0	None	0.0	None	0.0	None	0.0	None	0.0	None	0.0	None	0.0	None	0.0	None	8.1494e-07	12
2014-01-17 07:24:00	233.84534250118944	2945219843.8745003	1.5507911813314684e+22	5373829634466.927	10.8732650961462	570509235881.6682	6.289933560892134e+21	-2.901629534989048e+24	1128.8918664363655	-0.7418426162559161	19.684836750358922	0.6187161639597835	23.82174694487101	87.02763108119116	87.49153691197438	28.76178750636857	-0.0010511663859383408	3.614412417473919e+23	0.01365322306025826	-0.0042389992755174286	-7.964401668877292e+23	-0.09240756380765344	0.2036211893940215	2.852287750956444	390.983063	334.742615	14.358833	45.572853	20.055197	58.107201	0.0	11950.0	True	0.0	None	0.0	None	0.0	None	0.0	None	0.0	None	0.0	None	0.0	None	0.0	None	7.8916e-07	12
2014-01-17 07:36:00	234.5228723342033	2926625629.3973	1.5424288450106454e+22	5360932005673.502	7.582396800723855	138472184849.97168	6.28531732320994e+21	-2.870420868085465e+24	1113.7601137059828	-0.7385262766338209	19.726868049096968	0.4698887610280015	24.024029080722	85.22604157334214	85.80089151222641	28.13963686215268	-0.0007271189874111867	3.671279197710854e+23	0.00575041560613589	-0.0029804927730386808	-7.909759586374669e+23	-0.0944577914170832	0.20350901713901648	2.5864021014603047	390.986298	334.633636	14.358707999999998	45.698681	20.048836	58.169262	0.0	11950.0	True	0.0	None	0.0	None	0.0	None	0.0	None	0.0	None	0.0	None	0.0	None	0.0	None	1.0587000000000001e-06	12
2014-01-17 07:48:00	236.18924837467807	2933486459.6143	1.5280110130783119e+22	5414594578233.145	9.094816706434894	156136826776.22012	6.297497613210211e+21	-2.894464461334677e+24	1104.302390206714	-0.7429707210729939	19.70462765768876	0.7198387561186295	23.88946083924907	86.07380292056769	86.44519564223835	28.57497025903057	-0.0008729068726782699	3.602839546250445e+23	-0.008856071737643762	-0.003557539794907554	-7.838738260422932e+23	-0.09248012305370233	0.2012100371397681	2.4544792134755142	390.989502	334.524658	14.361670000000002	45.824104	20.04385	58.214062	0.0	11950.0	True	0.0	None	0.0	None	0.0	None	0.0	None	0.0	None	0.0	None	0.0	None	0.0	None	9.422799999999999e-07	12
2014-01-17 08:00:00	235.25267816197825	2953724341.8023	1.536289991664434e+22	5439364757316.658	10.084723068436134	392456238884.0172	6.365993783767806e+21	-2.912104425172012e+24	1087.5307050447047	-0.7423769306377839	19.71393730684883	0.6768825796747203	23.9573436215503	85.82080640263563	86.16652667169393	28.47172961884551	-0.0009480796341483627	3.60857076284317e+23	-0.07244417247890364	-0.003919059869753628	-7.855362576060036e+23	-0.09199256948866184	0.20025517999471806	2.564262817160872	390.992737	334.41568	14.354365	45.957748	20.040493	58.058601	0.0	11950.0	True	0.0	None	0.0	None	0.0	None	0.0	None	0.0	None	0.0	None	0.0	None	0.0	None	1.0986e-06	12
2014-01-17 08:12:00	233.78554740286324	2941411031.4560003	1.5305499512205172e+22	5396713279302.144	7.955038627292254	331263149501.81885	6.30999251799101e+21	-2.8985875552395814e+24	1097.9180906011147	-0.7420246570208897	19.73934691916573	0.6954367914642279	23.97137407536016	86.19099853996738	86.88011183797909	28.46982472980723	-0.0007579114545819603	3.552618189235655e+23	-0.061964034544227824	-0.0031051148256512817	-7.896820359407947e+23	-0.09094533951988464	0.20215485325441326	2.5320246783185225	390.995911	334.306671	14.351562	46.072624	20.029877	58.089722	0.0	11950.0	True	0.0	None	0.0	None	0.0	None	0.0	None	0.0	None	0.0	None	0.0	None	0.0	None	9.3145e-07	12
2014-01-17 08:24:00	240.0500389870607	2968405061.8046	1.5606952964850796e+22	5544391226028.488	7.346280487827668	269452687066.2293	6.396139615448387e+21	-2.9166054993057207e+24	1100.4618576856278	-0.7398471176740523	19.84342202914587	0.5805787058713363	24.013331601581267	85.54561438339927	86.16579058445869	28.39427462629469	-0.0006879183900952963	3.689887818940869e+23	-0.04236266658749885	-0.0028448754023576435	-7.971040062269766e+23	-0.09360034697986563	0.2021991323934111	2.4699053756728264	390.999084	334.197632	14.356571	46.199879	20.025433	58.165234	0.0	11950.0	True	0.0	None	0.0	None	0.0	None	0.0	None	0.0	None	0.0	None	0.0	None	0.0	None	1.9225e-06	12
2014-01-17 08:36:00	240.6052968434132	2958731475.6765003	1.5547958151992798e+22	5588341770619.156	11.181673084783249	357876780631.33545	6.351423627164514e+21	-2.9170597687166787e+24	1112.1318024436812	-0.7423817646613837	19.86222897151349	0.6459580127291726	23.83805092183276	85.73951444741645	86.37197238400499	28.177149316760005	-0.0010621899007108623	3.697343830535565e+23	-0.003423278028360904	-0.004337983715286618	-7.94466245822588e+23	-0.09409613978120268	0.2021889506217252	2.452552804721808	391.002197	334.088562	14.35854	46.329456	20.016788	58.228867	0.0	11950.0	True	0.0	None	0.0	None	0.0	None	0.0	None	0.0	None	0.0	None	0.0	None	0.0	None	2.2059e-06	12
2014-01-17 08:48:00	237.43901868018622	2956009813.436	1.558810523443015e+22	5496851597368.906	11.997119330164942	397875695583.926	6.353908942512014e+21	-2.91292595346367e+24	1113.5226619837536	-0.7420123229258315	19.87510102219568	0.7304809790342472	23.953221553018146	84.6484919595746	85.28857815777133	28.11319264938536	-0.0011383546190497145	3.768453737222397e+23	-0.04276822136452075	-0.004659998775027198	-7.877950495577965e+23	-0.09599417067467854	0.2006757617771837	0.0	391.005341	333.979492	14.352265	46.443928	20.01725	58.304039	0.0	11950.0	True	0.0	None	0.0	None	0.0	None	0.0	None	0.0	None	0.0	None	0.0	None	0.0	None	1.3413999999999998e-06	12
2014-01-17 09:00:00	239.2862188519896	2945035479.3465004	1.5443246989692912e+22	5502920141952.121	11.11361460354962	105273022834.89436	6.277903786780763e+21	-2.9085525935965693e+24	1127.0174328737805	-0.7436591573067505	19.77908773640819	0.6978096530335336	23.83464377824377	86.04596283940643	86.81596275014267	28.773127127707216	-0.0010772137834205312	3.845985771923573e+23	-0.004344452182545357	-0.004328628423991489	-7.83604338270922e+23	-0.09833422109881046	0.2003520731044741	2.3166087747604087	391.008453	333.870392	14.352126	46.571404	20.013865	58.37919599999999	4096.0	11950.0	True	0.0	None	0.0	None	0.0	None	0.0	None	0.0	None	0.0	None	0.0	None	0.0	None	1.0166e-06	12
2014-01-17 09:12:00	247.02593521073047	2957858623.9484	1.5794328851359147e+22	5625657939006.707	21.08046565319948	930568187915.2192	6.239339602502834e+21	-2.92425591193025e+24	1176.2364510053258	-0.7444328554079036	20.082618373614867	0.514291365839185	23.74815872305936	87.60289748587023	88.56766552269592	29.04828031226345	-0.0020849041294826905	3.973510050474382e+23	-0.08342484439296144	-0.008171062370496628	-7.895450559107142e+23	-0.10115432855239116	0.200995842411355	0.0	391.011536	333.761292	14.354568	46.6991	19.999371	58.45581800000001	4096.0	11950.0	True	0.0	None	0.0	None	0.0	None	0.0	None	0.0	None	0.0	None	0.0	None	0.0	None	1.1064e-06	12
2014-01-17 09:24:00	252.17090471787748	2962321247.7276	1.6061045143049783e+22	5729161482640.6	15.726624750752526	429187677638.7776	6.201785846458033e+21	-2.9181671330823195e+24	1210.3440850377656	-0.7417635404311343	20.175833196386	0.5204163330664532	23.777441246985827	89.01879482368683	89.86988007306314	29.41068013987363	-0.0015739216123651445	4.241468919964973e+23	0.010735353007937879	-0.006095988947656456	-7.938829277432488e+23	-0.10781311896206212	0.2017956423725011	2.2717325638806387	391.014587	333.65213	14.360373	46.824574	19.998821	58.54277800000001	0.0	11950.0	True	0.0	None	0.0	None	0.0	None	0.0	None	0.0	None	0.0	None	0.0	None	0.0	None	6.0101e-06	12
2014-01-17 09:36:00	252.56335261884655	2945865817.0338	1.6044655206352764e+22	5618101522370.144	22.734802152081322	760322887764.9414	6.118094230683468e+21	-2.9099918041483364e+24	1245.8922399564087	-0.7438173297968171	20.050800764200453	0.4640610498092193	23.51864938462309	89.55084358685205	90.36187472912675	29.83364364124963	-0.0023445191453110572	4.206785540921783e+23	-0.0829616354514642	-0.008851303338333881	-7.877406050254122e+23	-0.10752882477592003	0.2013528397458893	2.266368930868725	391.017578	333.542938	14.363214	46.939728	19.981623000000006	58.616524	0.0	11950.0	True	0.0	None	0.0	None	0.0	None	0.0	None	0.0	None	0.0	None	0.0	None	0.0	None	4.7393e-06	12
2014-01-17 09:48:00	255.03257474701763	2892292690.0111	1.581066692442154e+22	5671691285527.723	17.6523898694343	607506482668.7524	5.985481978265074e+21	-2.852395489168488e+24	1264.4957576039901	-0.7426001152738997	20.05466163212228	0.24429102496016994	23.568319529562963	90.9800553413596	91.70494092153484	30.46166033120789	-0.0018751210823703321	4.311815432796851e+23	0.013272861017569169	-0.007005007344023558	-7.640527683660119e+23	-0.11225493272562052	0.1989154996277684	0.0	391.020599	333.433746	14.369535	47.068268	19.981565	58.708534	0.0	11950.0	True	0.0	None	0.0	None	0.0	None	0.0	None	0.0	None	0.0	None	0.0	None	0.0	None	3.8031e-06	12
2014-01-17 10:00:00	248.14858969630603	2839753121.7385	1.5344886886009844e+22	5407327884817.782	20.155580034479264	413305251313.32	5.847314425242497e+21	-2.821276268577843e+24	1270.702848923255	-0.7480877331897604	19.99524550939068	0.395908940943583	23.25775732346007	91.36277145616236	92.16515809759852	30.107109551524054	-0.002216603984876198	4.267511285527003e+23	-0.08925257739431489	-0.008120475969498664	-7.418268162837784e+23	-0.1131570445442724	0.19670230370344066	2.193251269180406	391.02356	333.324493	14.363032999999998	47.198196	19.971321	58.77089300000001	0.0	11950.0	True	0.0	None	0.0	None	0.0	None	0.0	None	0.0	None	0.0	None	0.0	None	0.0	None	2.7237e-06	12
2014-01-17 10:12:00	241.05183771543483	2777136002.0079	1.502816115148164e+22	5305545370385.541	20.27789965387845	520162055668.9033	5.697060230778036e+21	-2.751296551322653e+24	1279.078784005039	-0.7459809453551589	20.005753086923512	0.5651633322030066	23.55200993320836	92.57539024517577	93.24511471572191	30.734747431748534	-0.002292065067692828	4.241181461917773e+23	-0.11545291274025665	-0.008364044156886609	-7.206558991413239e+23	-0.11499453066457765	0.19539717325592326	0.0	391.026459	333.21521	14.365689	47.317173	19.96382	58.880524	0.0	11950.0	True	0.0	None	0.0	None	0.0	None	0.0	None	0.0	None	0.0	None	0.0	None	0.0	None	2.2579e-06	12
2014-01-17 10:24:00	242.22194724527213	2726439740.448	1.4660663121222285e+22	5283639736540.581	21.10702491816581	745558462941.4181	5.579954736567846e+21	-2.706460517595033e+24	1279.0277015535055	-0.7474691025137912	19.93535071618549	0.6835824354072529	23.55800798029201	93.75753317489031	94.3238197146747	31.979189177061162	-0.0024454900843663314	4.299875842263111e+23	-0.13304402049545694	-0.008860364931526234	-6.900424371425262e+23	-0.1187537862031377	0.1905756237100704	0.0	391.029327	333.105927	14.368116	47.445362	19.953035	58.940151	0.0	11950.0	True	0.0	None	0.0	None	0.0	None	0.0	None	0.0	None	0.0	None	0.0	None	0.0	None	1.8258000000000002e-06	12
2014-01-17 10:36:00	235.9026030516248	2690683579.4536	1.4174227894357811e+22	5142356743690.358	20.30567668301865	675063530852.3965	5.452405935528481e+21	-2.680234133287575e+24	1282.043379936877	-0.7500628519876107	19.70567554388869	0.6006006006006006	23.38306482452693	93.72741838663624	94.65530104958783	31.55110729956381	-0.002439413344908535	4.29616923315006e+23	-0.15923352395438076	-0.008625103513103487	-6.735739401585992e+23	-0.12022818856072727	0.18849949872110053	0.0	391.032166	332.996582	14.371908	47.574562	19.946936	59.04745500000001	0.0	11950.0	True	0.0	None	0.0	None	0.0	None	0.0	None	0.0	None	0.0	None	0.0	None	0.0	None	1.5034999999999999e-06	12
2014-01-17 10:48:00	234.3954322792169	2652412623.9618	1.4033908506344926e+22	5045677956173.238	16.718470263160608	450766031565.448	5.371942163208682e+21	-2.649801102654226e+24	1295.3360750080014	-0.7522456952460711	19.69725633972509	0.6496690365285609	23.247573695540535	94.73282582806999	95.5707055719213	31.613939974332386	-0.0020493344279431977	4.333276785713033e+23	-0.10850457511091588	-0.007194331490432684	-6.580707067227019e+23	-0.12301635791068352	0.18681811846324425	0.0	391.034973	332.887177	14.375334	47.692703	19.937096	59.10854000000001	0.0	11950.0	True	0.0	None	0.0	None	0.0	None	0.0	None	0.0	None	0.0	None	0.0	None	0.0	None	1.3627e-06	12
2014-01-17 11:00:00	234.7944481996019	2634098817.9514003	1.3980940655656251e+22	5105893225202.938	20.35969707501083	644605701992.0283	5.354129494252022e+21	-2.6387934375919136e+24	1291.87223394111	-0.7543290297841286	19.72393329368033	0.6258436617989938	23.168641895717002	94.29917324735202	95.21345201239977	31.04829833344784	-0.002498428896184909	4.454265931121683e+23	-0.1553378337854762	-0.008811669390766627	-6.501425443846088e+23	-0.1273302430708536	0.18585061935525013	0.0	391.037781	332.777771	14.372271	47.823902	19.929897	59.20338100000001	0.0	11950.0	True	0.0	None	0.0	None	0.0	None	0.0	None	0.0	None	0.0	None	0.0	None	0.0	None	1.1786e-06	12
2014-01-17 11:12:00	227.7402704643666	2592315449.1008	1.3587284227356958e+22	4986977185898.408	16.56047365066464	829785202408.3217	5.298527150888724e+21	-2.592461765016788e+24	1261.8462796471292	-0.7530295919951117	19.493046296460086	0.4810064134188456	23.18501691853065	92.23499877016864	93.06017399083393	30.524723836779042	-0.0020429895942098	4.481808769816252e+23	-0.2009771341587339	-0.0072905055876339	-6.377193802196409e+23	-0.13018261927241925	0.18523766528570654	0.0	391.040497	332.668304	14.377684	47.94183	19.912319	59.279079	0.0	11950.0	True	0.0	None	0.0	None	0.0	None	0.0	None	0.0	None	0.0	None	0.0	None	0.0	None	1.0384e-06	12
2014-01-17 11:24:00	218.20246913196587	2538064435.8788004	1.3174404244781675e+22	4707357771291.455	15.313004819224332	753074584361.71	5.133860723794251e+21	-2.542638027264157e+24	1283.6642001376401	-0.7543440199626305	19.361173694833127	0.6858178053830228	23.11698918854453	94.02584913428095	94.75245324369594	31.42856441265735	-0.0019817529208262367	4.418936595943333e+23	-0.19136970593710287	-0.006878665641222428	-6.228106687794324e+23	-0.1310999977189268	0.18477404118281196	0.0	391.043213	332.558807	14.382376999999998	48.072681	19.910261	59.30916600000001	0.0	11950.0	True	0.0	None	0.0	None	0.0	None	0.0	None	0.0	None	0.0	None	0.0	None	0.0	None	9.0956e-07	12
2014-01-17 11:36:00	215.43742401560317	2509076015.9977	1.2823037204874547e+22	4636257099170.954	17.0925552180541	582249907449.0856	5.100234179219143e+21	-2.521824639393508e+24	1249.5899655277808	-0.7568130350408007	19.192308965982573	0.621198395237479	22.99704885393529	94.74584069580416	95.64555162982596	31.176052012193388	-0.0022123421198620365	4.409817154547589e+23	-0.14798193786478772	-0.007757017644949977	-6.062236563363446e+23	-0.13234096663877415	0.18193095511025686	0.0	391.045898	332.44928	14.385782999999998	48.205505	19.910288	59.373142	0.0	11950.0	True	0.0	None	0.0	None	0.0	None	0.0	None	0.0	None	0.0	None	0.0	None	0.0	None	7.8862e-07	12
2014-01-17 11:48:00	206.25698079600232	2437996987.7601004	1.2411634406541484e+22	4419681188702.25	16.518738880202946	662979572348.2496	4.962353994208462e+21	-2.446080843225693e+24	1237.6901819518625	-0.7554836732238572	19.159241700604355	0.5297311614355714	23.08397556930645	94.75567393902365	95.57945638293695	30.76629425742557	-0.0021876226831152095	4.282665776135349e+23	-0.17243045320803488	-0.007719282312557574	-5.897101008801711e+23	-0.13227216429519725	0.1821347623828541	0.0	391.048431	332.339691	14.39006	48.336899	19.914633	59.435017	0.0	11950.0	True	0.0	None	0.0	None	0.0	None	0.0	None	0.0	None	0.0	None	0.0	None	0.0	None	7.1852e-07	12
2014-01-17 12:00:00	209.61865153071116	2401558675.5732	1.226321148407075e+22	4548312776134.684	15.244501203699148	588018248765.3015	4.936277881884407e+21	-2.4074775265367368e+24	1213.5680691641048	-0.7548428522524123	19.11767900068121	0.5125509265343672	23.24523626229205	93.18745786949114	94.04073838699881	30.61408714265399	-0.0020034828760282755	4.2491266930369405e+23	-0.15177143694382247	-0.007234554315720026	-5.765239542145002e+23	-0.13322753285127792	0.18076388302454705	0.0	391.051025	332.230072	14.39729	48.467869	19.921974	59.495987	0.0	11950.0	True	0.0	None	0.0	None	0.0	None	0.0	None	0.0	None	0.0	None	0.0	None	0.0	None	9.0639e-07	12
2014-01-17 12:12:00	210.11687075625062	2381342455.4975004	1.2084384020622018e+22	4566873663977.08	10.762440305869768	478357523852.6146	4.917557202903237e+21	-2.3897949933785195e+24	1192.892392796741	-0.7556596410068871	19.070717084595906	0.6423702149973781	23.16803645427443	92.80470221724752	93.3534693542563	31.06349058120329	-0.0014109124679955124	4.2033678327087055e+23	-0.12316218723661344	-0.005148474556050824	-5.681741480820383e+23	-0.13291162782938604	0.1796582024645086	0.0	391.053589	332.120422	14.403191	48.599098	19.927935	59.55590400000001	0.0		True	0.0	None	0.0	None	0.0	None	0.0	None	0.0	None	0.0	None	0.0	None	0.0	None	1.0294e-06	12
2014-01-17 12:24:00	205.91895478948035	2376743691.6356	1.2005301802191645e+22	4440239935442.755	11.223382616666944	741163829992.1783	4.918628423286829e+21	-2.39740445905638e+24	1188.5136529471913	-0.7595325189719168	18.938131823866765	0.407572968708914	22.85909527550934	93.08929300645408	93.7831764576441	30.374123890364967	-0.0014755959264616018	4.117547936066266e+23	-0.19138252400776504	-0.0053675255055090215	-5.7032459702749904e+23	-0.13044989317734812	0.1806871077492029	0.0	391.056061	332.010712	14.408682999999998	48.730736	19.930021	59.006565	0.0		True	0.0	None	0.0	None	0.0	None	0.0	None	0.0	None	0.0	None	0.0	None	0.0	None	6.3005e-07	12
2014-01-17 12:36:00	204.29193624470702	2343758154.1398	1.1649659083911208e+22	4390869675313.618	15.215145751220494	545162870333.085	4.827826592259365e+21	-2.3674502461719324e+24	1183.3323529023776	-0.7605987143824005	18.727776234876266	0.3912046404964252	22.709879246043077	93.76380367896236	94.43741768336572	30.799014464808675	-0.0020527719578009294	4.0117389995691294e+23	-0.14443947166459506	-0.007375213757111147	-5.66989665616717e+23	-0.12888649003052458	0.18215867954711945	0.0	391.058533	331.9009700000001	14.413634	48.852108	19.934971	58.994217000000006	0.0		True	0.0	None	0.0	None	0.0	None	0.0	None	0.0	None	0.0	None	0.0	None	0.0	None	6.286e-07	12
2014-01-17 12:48:00	202.03762283852672	2330613934.4639	1.153460239432261e+22	4401202644910.244	12.133546040727367	523261289196.5733	4.802897089388908e+21	-2.351218989959753e+24	1172.7525405502772	-0.7596441600900088	18.750101364678226	0.2835538752362949	22.946800638683037	94.60803726027807	94.88638986318985	30.96369163916541	-0.0016383400000982134	3.996324932091903e+23	-0.1387706941374905	-0.005917285813492426	-5.6439485530427147e+23	-0.12911536141249355	0.1823476493034256	0.0	391.060944	331.791199	14.417875	48.961517	19.942719	59.070572	0.0		True	0.0	None	0.0	None	0.0	None	0.0	None	0.0	None	0.0	None	0.0	None	0.0	None	1.4053e-06	12
2014-01-17 13:00:00	200.96921023998482	2328004613.7573004	1.1557388238126836e+22	4399447660228.855	10.813295359815076	721417420508.1798	4.827731553653168e+21	-2.3547759606319005e+24	1161.2709004701485	-0.7616462123074432	18.957505925044746	0.4937283159861222	22.940166793822645	92.64559358822923	93.12198383895569	30.34446972075999	-0.0014429270562870394	3.953477772139061e+23	-0.18907987615408106	-0.0052733370469317895	-5.6214471986451234e+23	-0.12787421907362034	0.1818242600618956	0.0	391.063324	331.681366	14.424487	49.083214	19.942478	59.164688	0.0		True	0.0	None	0.0	None	0.0	None	0.0	None	0.0	None	0.0	None	0.0	None	0.0	None	1.3287999999999999e-06	12
2014-01-17 13:12:00	194.0076127060936	2286641462.1821003	1.1237845808121393e+22	4238427466785.3438	10.510987732774481	282125437986.5354	4.731359806278064e+21	-2.321500534335692e+24	1159.489305294591	-0.7644661347299977	18.902855110505666	0.4521786790901617	22.923226632980857	92.56777483151899	93.12317005605291	29.83287469299735	-0.0014402559239208661	3.8973099109781485e+23	-0.07593121081639045	-0.0052102927243668105	-5.482652585639544e+23	-0.12833774532569445	0.1805428070431459	0.0	391.065643	331.571503	14.428945	49.204659	19.931101	59.272068	0.0		True	0.0	None	0.0	None	0.0	None	0.0	None	0.0	None	0.0	None	0.0	None	0.0	None	7.996599999999998e-07	12
2014-01-17 13:24:00	194.72401098434074	2310164783.2212	1.1396273170688393e+22	4321708302351.905	8.819903449697144	522394662084.6073	4.818520142089828e+21	-2.341604798419208e+24	1138.8513774614	-0.7632346833056941	18.945097300754963	0.4246848042468479	23.06260039532157	92.95929008709423	93.4728098143455	29.909437948834555	-0.0011705246781283534	3.823554972841623e+23	-0.13617800804793204	-0.004330526969676975	-5.565882088090088e+23	-0.12462691273816914	0.1814172167604074	0.0	391.067963	331.461609	14.43385	49.311237	19.932533	59.376335	0.0		True	0.0	None	0.0	None	0.0	None	0.0	None	0.0	None	0.0	None	0.0	None	0.0	None	7.276999999999998e-07	12
2014-01-17 13:36:00	194.50941880809955	2339565596.1301003	1.1535795596042646e+22	4359004237141.753	11.315800098584207	570147139164.8903	4.927275119162426e+21	-2.3683679325825696e+24	1116.635205722278	-0.7622571057010578	18.94721282224273	0.3470883146934053	23.086179856206797	93.30117248222312	93.77628934687228	29.97097539249201	-0.0014548470170460538	3.80751142280486e+23	-0.14396750046979556	-0.005489571034069979	-5.621764235217627e+23	-0.12254441538169933	0.1809359802553107	0.0	391.07019	331.351654	14.440649	49.432762	19.93593	59.485416	0.0		True	0.0	None	0.0	None	0.0	None	0.0	None	0.0	None	0.0	None	0.0	None	0.0	None	6.9554e-07	12
2014-01-17 13:48:00	187.75625346202588	2303072475.3847	1.1245492537385718e+22	4182939936616.1567	12.706199133021762	552038236719.9873	4.84300239116504e+21	-2.3419134168676184e+24	1117.554246367114	-0.7656858975816385	18.744675353021762	0.32994588887422466	22.789215527963012	91.39041089351048	91.90385888953872	29.48757011229599	-0.0016771646162911512	3.711063856585188e+23	-0.14311421696666896	-0.006251457563835989	-5.542110721428417e+23	-0.12133280588198744	0.18119867249018853	0.0	391.072449	331.2416990000001	14.43791	49.544392	19.9408	59.579048	0.0		True	0.0	None	0.0	None	0.0	None	0.0	None	0.0	None	0.0	None	0.0	None	0.0	None	7.8795e-07	12
2014-01-17 14:00:00	186.87699531626384	2282794204.9188004	1.1131388049666928e+22	4176282255931.0674	10.281842408758344	468431773837.9221	4.795556208650232e+21	-2.3185547970167832e+24	1115.6383876255932	-0.7647828111988308	18.65736994726181	0.30613603087980834	22.811960825133987	91.7784463172596	92.41930685417206	29.50980435074957	-0.0013685401848473773	3.701267777065673e+23	-0.12247676290865248	-0.0051043789879427	-5.443235036599908e+23	-0.12208751672317895	0.17954687112261142	0.0	391.074615	331.131653	14.443801	49.654732	19.941933	59.687923	0.0		True	0.0	None	0.0	None	0.0	None	0.0	None	0.0	None	0.0	None	0.0	None	0.0	None	7.2538e-06	12
