Timestamp	TOTUSJH	TOTBSQ	TOTPOT	TOTUSJZ	ABSNJZH	SAVNCPP	USFLUX	TOTFZ	MEANPOT	EPSZ	MEANSHR	SHRGT45	MEANGAM	MEANGBT	MEANGBZ	MEANGBH	MEANJZH	TOTFY	MEANJZD	MEANALP	TOTFX	EPSY	EPSX	R_VALUE	CRVAL1	CRLN_OBS	LAT_MIN	LON_MIN	LAT_MAX	LON_MAX	QUALITY	NOAA_AR	IS_TMFI	BFLARE	BFLARE_label	CFLARE	CFLARE_label	MFLARE	MFLARE_label	XFLARE	XFLARE_label	BFLARE_loc	BFLARE_label_loc	CFLARE_loc	CFLARE_label_loc	MFLARE_loc	MFLARE_label_loc	XFLARE_loc	XFLARE_label_loc	XR_MAX	XR_QUAL
2014-03-24 04:24:00	467.74041020667147	3659509887.691	3.3562133930302654e+22	10137287362285.91	93.59686103047424	2989941780049.0225	5.930611593015872e+21	-2.2931407623611649e+24	2602.126039883565	-0.4718405112543855	25.825642824878997	8.360790774299835	34.823361616623174	128.91518237008168	127.33116575815106	62.7261305418637	-0.009637238573977993	1.033178726389482e+24	0.3922518039854454	-0.034754224514984604	-1.7019310557621289e+22	-0.2125885974722334	0.0035019220479237285	1.7849239362396665	184.717361	187.045807	8.639706	-13.800787	21.134199	10.504264	0.0	12013.0	True	0.0	None	0.0	None	0.0	None	0.0	None	0.0	None	0.0	None	0.0	None	0.0	None	7.4855e-07	12
2014-03-24 04:36:00	465.75191531889686	3673410496.1808	3.3486271200344595e+22	10066353033904.195	95.45716730433728	3021065160888.1206	6.003915247404545e+21	-2.3265732621447283e+24	2542.576047899682	-0.4769081503713258	25.90870803394236	8.742563275184027	35.0421599682305	128.00798458233916	126.43697227784023	61.65879117026701	-0.009625609287520149	1.05802044303368e+24	0.13799585023224326	-0.0351897019469837	8.317927618892838e+21	-0.21687628786600185	-0.0017050344127104405	1.7774742686422995	184.720093	186.936295	8.637647	-13.675199	21.134211	10.629725	0.0	12013.0	True	0.0	None	0.0	None	0.0	None	0.0	None	0.0	None	0.0	None	0.0	None	0.0	None	7.5434e-07	12
2014-03-24 04:48:00	464.02586204962404	3650066151.8365	3.3031060866139303e+22	10024944473704.33	100.44962018519577	3745730182477.669	6.039336931759668e+21	-2.3286410850375105e+24	2485.7040182182527	-0.4803847485791109	25.53365448435984	8.185088946632021	34.67908492325442	129.23513648138686	127.2378436909085	61.69602800883931	-0.010038938655326379	1.0638530673762096e+24	0.25768885243481593	-0.03717944966271794	1.4756310449561503e+22	-0.21946653418614065	-0.003044138717132409	2.0733514363755834	184.722794	186.826797	8.636111999999999	-13.548631	21.134752	10.756282	0.0	12013.0	True	0.0	None	0.0	None	0.0	None	0.0	None	0.0	None	0.0	None	0.0	None	0.0	None	8.2824e-07	12
2014-03-24 05:00:00	456.3745537325527	3562660724.4973	3.21437895576106e+22	9851141440537.35	98.57699654043958	3437205814635.8223	5.911914231161606e+21	-2.277548631844584e+24	2484.484778630966	-0.4813717311965723	25.22378426262797	7.996304660234037	34.51746105944758	129.86353074164478	127.87022197361908	61.685448654617254	-0.010118763759026851	1.0523770439914144e+24	0.4452110128661003	-0.037356575613577005	2.03959403400652e+22	-0.2224253534939433	-0.004310787911882075	0.0	184.725571	186.717316	8.60557	-13.511920000000002	21.137232	10.885593	0.0	12013.0	True	0.0	None	0.0	None	0.0	None	0.0	None	0.0	None	0.0	None	0.0	None	0.0	None	9.5262e-07	12
2014-03-24 05:12:00	467.21481895818846	3576353296.9558	3.27169344243267e+22	10196881279458.457	97.7847655498263	3816166362655.415	5.995411029694464e+21	-2.2911092667549007e+24	2439.392197173825	-0.4823838795902723	25.778960971142073	8.466184770769383	34.79252777819168	126.49237318972445	124.66395702807398	59.97545338163454	-0.009682618630540282	1.046733840955361e+24	0.4174498301922432	-0.036889272974238815	2.141522361847705e+22	-0.22038561775521395	-0.0045088895589890324	2.2344264584481013	184.728302	186.607849	8.606328	-13.418055	21.139565	11.012319	0.0	12013.0	True	0.0	None	0.0	None	0.0	None	0.0	None	0.0	None	0.0	None	0.0	None	0.0	None	1.1138e-06	12
2014-03-24 05:24:00	460.4361056337112	3543837913.8439	3.1780626802587038e+22	9878017151658.242	98.51193371371677	3420878617879.1987	5.977145901316675e+21	-2.3336128827234093e+24	2412.8249518965217	-0.4958409881762727	25.376377606727363	7.985480943738657	34.01063369772675	127.2583319085064	125.52288071917498	59.551878430841505	-0.009932641027799631	1.0484324764509074e+24	0.2766981384894189	-0.0371671756571996	2.5167444017435275e+22	-0.22276865156521766	-0.00534752374906014	2.228218874872433	184.731049	186.498398	8.607068	-13.321392	21.136379	11.139429	0.0	12013.0	True	0.0	None	0.0	None	0.0	None	0.0	None	0.0	None	0.0	None	0.0	None	0.0	None	1.1247e-06	12
2014-03-24 05:36:00	468.30349708336564	3531688016.6743	3.1205959984155114e+22	10133213922064.043	94.36806009216558	2916568936082.3125	5.995653312244415e+21	-2.340079844796069e+24	2336.450011263436	-0.4989255454552797	25.12551714715424	7.348115740280401	33.9464544164436	126.40545139502005	124.96528556238569	58.90234634559114	-0.009383321079065879	1.0322425506811168e+24	0.4268659339710242	-0.03565271686048625	2.8232224262460057e+22	-0.22008316459202149	-0.006019357809900372	0.0	184.733871	186.388977	8.606531	-13.224533	21.114109	11.264868	0.0	12013.0	True	0.0	None	0.0	None	0.0	None	0.0	None	0.0	None	0.0	None	0.0	None	0.0	None	1.015e-06	12
2014-03-24 05:48:00	480.7573407217691	3572586688.0175	3.136834400000497e+22	10412684749072.203	97.6368060039576	3203019713331.2754	6.085433225658234e+21	-2.4058519294203496e+24	2302.812602181287	-0.5070764953869263	25.30115587462781	7.702057131714926	33.946215884385	127.27098239358116	126.08287206594572	58.676977077191154	-0.009519041240514536	1.0321063452464635e+24	0.3232308153739571	-0.0362681570230015	2.948310784866506e+22	-0.21753494552770755	-0.006214094399657365	1.6558968339319258	184.73671	186.279556	8.605783	-13.127365	21.115211	11.392416	0.0	12013.0	True	0.0	None	0.0	None	0.0	None	0.0	None	0.0	None	0.0	None	0.0	None	0.0	None	9.3995e-07	12
2014-03-24 06:00:00	484.36125622305366	3593014089.1831	3.135362073172568e+22	10543956668170.266	100.38416443392047	3096941721022.2163	6.159896418674285e+21	-2.440690123997608e+24	2264.4220712543897	-0.5114946822163841	25.26403041216433	7.9320928448110495	33.60132354084669	125.44387726923055	124.88624991628721	57.20522738609621	-0.009628252871083874	1.0332027841333377e+24	0.512015142466378	-0.03696831536139817	1.4343262691471055e+22	-0.21652799121822586	-0.0030059131719284552	1.6790438307558586	184.739517	186.170166	8.605639	-13.028128	21.114248	11.517895	66560.0	12013.0	False	0.0	None	0.0	None	0.0	None	0.0	None	0.0	None	0.0	None	0.0	None	0.0	None	9.377299999999999e-07	12
2014-03-24 06:12:00	491.9864691603144	3650659160.6764	3.203443833860053e+22	10952516868640.746	91.00900810070364	3610464622715.237	6.286074608537233e+21	-2.4713420987127147e+24	2242.4015974809963	-0.509740368705692	25.306833871420192	8.031979176350282	33.6566022900948	125.75981272526754	125.32991508947485	57.04540741551842	-0.008460445114874373	1.0348448828532148e+24	0.6416548127239619	-0.033024847551744715	2.048948311623396e+22	-0.21344766975545973	-0.0042261719588309685	1.6938617419835225	184.74231	186.06076	8.605802	-12.931571	21.114061	11.641474	66560.0	12013.0	False	0.0	None	0.0	None	0.0	None	0.0	None	0.0	None	0.0	None	0.0	None	0.0	None	8.8685e-07	12
2014-03-24 06:24:00	518.6469702623856	3695779578.4514	3.205275367972739e+22	11465906475356.846	94.36707654454284	3535673929370.089	6.347942192945193e+21	-2.536078421101546e+24	2237.6508621888147	-0.5167066040509298	25.273207650944553	8.093825329130354	33.44806650796694	126.99324393786074	127.02918205090448	57.341361043888156	-0.008749033612510924	1.0104139443086482e+24	0.6266683201646134	-0.033669979928044755	1.5070404661277675e+22	-0.2058641221444005	-0.003070479820107384	1.6897228841558436	184.745178	185.951385	8.605303	-12.804699	21.108284	11.768894	0.0	12013.0	True	0.0	None	0.0	None	0.0	None	0.0	None	0.0	None	0.0	None	0.0	None	0.0	None	8.9087e-07	12
2014-03-24 06:36:00	520.8631184875264	3639920004.7750006	3.1486949662811444e+22	11578312352632.047	104.17408969415692	5027794161396.773	6.2519364110462e+21	-2.5078074540175195e+24	2230.4101008765856	-0.5187877917597057	25.486583307518824	8.19379115710254	33.47359141077128	126.3116928361587	126.62863784402114	56.48496237395853	-0.009800008437832259	9.823280512778844e+23	0.904205845067463	-0.03768779883097028	-2.147854349044746e+22	-0.20321328883908346	0.0044432462826335456	2.3143594918741623	184.748016	185.84201	8.60489	-12.708322	21.17219	11.895943	0.0	12013.0	True	0.0	None	0.0	None	0.0	None	0.0	None	0.0	None	0.0	None	0.0	None	0.0	None	8.367399999999998e-07	12
2014-03-24 06:48:00	525.8536594898163	3616821364.9476	3.081357620580133e+22	11712435499722.006	96.13543845255751	3457260375218.68	6.194425009214343e+21	-2.523891186672358e+24	2232.4854363909585	-0.5254495496754327	25.22514581977016	7.851438468199749	33.035956274561556	127.41516206958096	127.97629849222906	57.189173728637506	-0.009250018132642885	9.757403514989937e+23	0.6359340783055389	-0.03484886182996741	-2.6566076034154578e+22	-0.2031396325652496	0.005530798143161769	2.4001921521585023	184.7509	185.732651	8.605124	-12.639896	21.173494	12.022887	0.0	12013.0	True	0.0	None	0.0	None	0.0	None	0.0	None	0.0	None	0.0	None	0.0	None	0.0	None	9.746e-07	12
2014-03-24 07:00:00	520.0096717937884	3556833532.2114	3.041267086056222e+22	11346866846305.65	124.18722160344272	4958724370528.912	5.975153176359778e+21	-2.458824785078015e+24	2317.3789717975324	-0.5205367449418092	25.293940040783525	7.8627808136004855	33.26841755505974	127.71997460926478	128.5153943832011	57.838792097305536	-0.0125670129127143	9.356475287611127e+23	0.8254093618746156	-0.04592471260264893	-7.311776834035703e+22	-0.19807792811829192	0.015479136764961118	2.374863555405309	184.753738	185.623291	8.605446	-12.546517	21.243181	12.149629	0.0	12013.0	True	0.0	None	0.0	None	0.0	None	0.0	None	0.0	None	0.0	None	0.0	None	0.0	None	8.6507e-07	12
2014-03-24 07:12:00	523.6104391453653	3506293342.7769003	2.9577528363835065e+22	11268323325166.385	126.65752073207136	4561076229505.174	5.830252979563259e+21	-2.4441242563869235e+24	2359.7677427783387	-0.5248828558199163	24.9003365491962	7.289680016952745	32.72525276336861	131.3268695776446	132.20206230024704	58.97701623096577	-0.013421375514683836	9.05011830092261e+23	0.5912008193437956	-0.04737794827655503	-8.048309135029302e+22	-0.19435394607631387	0.017283980027924337	2.3701016470993155	184.756577	185.513931	8.634172	-12.484198	21.279066	12.277541	0.0	12013.0	True	0.0	None	0.0	None	0.0	None	0.0	None	0.0	None	0.0	None	0.0	None	0.0	None	8.9825e-07	12
2014-03-24 07:24:00	503.30892803594895	3446440956.395	2.8848866342232876e+22	10512251867627.23	107.16793338256184	4246530848726.618	5.654672443732466e+21	-2.371356920891176e+24	2421.7188755306565	-0.5180998918058791	24.336810475842892	6.276477146042364	32.68960776345565	132.66465088344341	133.62705769794962	60.24267060649353	-0.01194737272938259	9.020843323598043e+23	0.9050239615161833	-0.04096600933043487	-9.266835729735053e+22	-0.1970896033734778	0.02024641059581312	2.274301873277514	184.759491	185.404587	8.63314	-12.520804	21.381157	12.403564	0.0	12013.0	True	0.0	None	0.0	None	0.0	None	0.0	None	0.0	None	0.0	None	0.0	None	0.0	None	9.1435e-07	12
2014-03-24 07:36:00	508.0787722149949	3447580741.1310005	2.866540564634973e+22	10453671269660.564	118.90710228279474	3656887171901.5986	5.575382545099903e+21	-2.3847545745610143e+24	2501.411028267405	-0.520854813296327	24.12523131053253	5.956657781898251	32.49481227237633	135.54367550239985	136.96925360440858	61.70926351149336	-0.013779940002641643	9.12618557877036e+23	0.5769443780481871	-0.045356087947509095	-8.798780239400534e+22	-0.19932523608275607	0.01921743682857593	2.2093330564762317	184.76239	185.295242	8.6051	-12.423434	21.384695	12.502298	0.0	12013.0	True	0.0	None	0.0	None	0.0	None	0.0	None	0.0	None	0.0	None	0.0	None	0.0	None	9.054899999999999e-07	12
2014-03-24 07:48:00	491.8232858667509	3436817261.9690003	2.8535826313899237e+22	10137505293802.193	132.79713635545085	5574912621447.923	5.537580028513432e+21	-2.340251540871842e+24	2516.938740470804	-0.5127357187021412	23.767635407142574	5.810003514115029	32.48397682837113	136.2377437662446	137.1683905851959	62.78803819834989	-0.015555480421160927	9.312481301887378e+23	0.6278632613729506	-0.051085682873897316	-1.1814528387983407e+23	-0.2040311355353129	0.025884955520135085	2.0376864618582298	184.765244	185.185898	8.606044	-12.329762	21.420975	12.629478	0.0	12013.0	True	0.0	None	0.0	None	0.0	None	0.0	None	0.0	None	0.0	None	0.0	None	0.0	None	9.048600000000001e-07	12
2014-03-24 08:00:00	481.4094660152707	3434737019.6923003	2.8999404346587423e+22	9882083820336.287	129.84457537849252	5081324916117.533	5.543228975498839e+21	-2.30787859899213e+24	2534.9627418025157	-0.5059491137419833	24.09645870601572	5.64197817506385	32.8380560469879	134.39372987838226	134.93620222917352	62.50640599331229	-0.015073667910203446	9.567401193205169e+23	0.5863903121565981	-0.05020535218483665	-1.177802572622081e+23	-0.20974318825219346	0.02582060287059328	2.0207648422268973	184.768097	185.076553	8.605977000000001	-12.230567	21.4221	12.755797	0.0	12013.0	True	0.0	None	0.0	None	0.0	None	0.0	None	0.0	None	0.0	None	0.0	None	0.0	None	8.9156e-07	12
2014-03-24 08:12:00	478.7586888320267	3429665951.793	2.9405579519739017e+22	9978227507880.16	126.72922012171131	5041373310367.717	5.562851881856041e+21	-2.2804808834709e+24	2525.033479007688	-0.5006821195296518	24.523238841386853	6.4659596305165925	33.42286456202904	134.76370956956967	134.51627789080615	62.8586625140401	-0.014451958047863075	9.956025725612036e+23	0.4570347948764645	-0.04924546333723577	-1.177876963967732e+23	-0.21858565439076533	0.025860420016629387	2.268341903492504	184.770996	184.967194	8.609772	-12.133116	21.422619	12.856434	0.0	12013.0	True	0.0	None	0.0	None	0.0	None	0.0	None	0.0	None	0.0	None	0.0	None	0.0	None	1.1041e-06	12
2014-03-24 08:24:00	464.8494540683848	3374864696.6305	2.8880632049616e+22	9714551263528.387	119.89696776965744	5260877149051.901	5.505955467554812e+21	-2.2425848587493187e+24	2509.1426120105875	-0.5003569869986352	24.21185069846099	5.849775008653514	33.346180829952104	135.61637488190678	135.09112383762795	62.772969837257136	-0.01383373344521258	1.0058736384508124e+24	0.907479258477557	-0.04735733168386698	-9.196705552620481e+22	-0.2244266927394173	0.02051933893457712	2.278785752014041	184.773849	184.857849	8.60299	-12.03556	21.455717	12.978885	0.0	12013.0	True	0.0	None	0.0	None	0.0	None	0.0	None	0.0	None	0.0	None	0.0	None	0.0	None	1.2425e-06	12
2014-03-24 08:36:00	461.24222089234166	3399354415.2529	2.9312632239104247e+22	9728743322633.598	106.06015209280405	4095064906438.254	5.613985819327086e+21	-2.253728589509124e+24	2465.5978264184423	-0.49922078673578	24.40660591439232	6.12153708668454	33.504706793246214	134.40507625805867	132.78615815780722	63.63190063846222	-0.01184764880393253	1.0366277575142524e+24	0.4430952141649791	-0.04162173692115422	-1.0072582425991059e+23	-0.22962220343095016	0.02231165964957419	2.2360048234660987	184.776733	184.748489	8.480457000000001	-11.976002	21.42366	13.080621	0.0	12013.0	True	0.0	None	0.0	None	0.0	None	0.0	None	0.0	None	0.0	None	0.0	None	0.0	None	9.8717e-07	1
2014-03-24 08:48:00	456.65378734397046	3346379577.9349003	2.879598630683947e+22	9656578897916.645	122.20570151774515	5427425603762.046	5.543542500454396e+21	-2.2108594391179176e+24	2444.532333658551	-0.4974774257813397	24.05070833415349	5.7497181510710265	33.56060243977541	135.71063656243237	133.52987206995937	63.79847380401288	-0.01377897187030614	1.0371764587487634e+24	0.8058024859891131	-0.04877373100045302	-1.0477058791904484e+23	-0.2333806779616897	0.023574995973673952	2.279220663866344	184.779587	184.63913	8.479994999999999	-11.881541	21.424767000000006	13.202542	0.0	12013.0	True	0.0	None	0.0	None	0.0	None	0.0	None	0.0	None	0.0	None	0.0	None	0.0	None	-99999.0	0
2014-03-24 09:00:00	459.57963091017615	3325359040.3999	2.8684129094731695e+22	9774581990168.918	113.408516782017	4710118773719.104	5.55886811772834e+21	-2.2067731290318136e+24	2420.8444880333864	-0.4996968207117483	24.011496892617078	5.368751401031159	33.222064551383184	136.85538057018252	134.12186859617418	64.47141282473346	-0.012711109255998318	1.0520731511736642e+24	1.0092731064345388	-0.04548138195543997	-8.188916697673432e+22	-0.2382291146658654	0.018542801636777462	2.2604404476434667	184.78241	184.529755	8.476049	-11.804903	21.424856	13.306167000000002	0.0	12013.0	True	0.0	None	0.0	None	0.0	None	0.0	None	0.0	None	0.0	None	0.0	None	0.0	None	-99999.0	0
2014-03-24 09:12:00	454.6480895414605	3289803078.8756	2.838603541772136e+22	9705072495652.225	119.49854493485444	5215895148533.019	5.578408942530187e+21	-2.1967257087886887e+24	2351.668065678269	-0.502797737578003	24.20935529642557	5.69919683133458	33.27798712081954	133.9812666348023	131.26011516036905	63.05122067459157	-0.013147600939031185	1.049148357767466e+24	0.9000457735389191	-0.04834172879105336	-1.0676911906344184e+23	-0.2401344048365677	0.024437858260372817	0.0	184.785263	184.420364	8.445436	-11.709748	21.426924	13.42891	0.0	12013.0	True	0.0	None	0.0	None	0.0	None	0.0	None	0.0	None	0.0	None	0.0	None	0.0	None	-99999.0	0
2014-03-24 09:24:00	445.44613582792397	3232783778.3591003	2.812275331761188e+22	9595276884304.695	108.62544451346405	4753967527733.363	5.512325569022831e+21	-2.1289034237838937e+24	2316.602868345093	-0.49586877725957	24.28593042148764	5.699595230281153	33.65915690207575	131.5141852236336	128.93698028047942	62.12399439593329	-0.011883321793399413	1.0287682697572511e+24	0.9020140185025158	-0.04492534353121245	-9.380982350516073e+22	-0.2396229243228253	0.021850386427469115	0.0	184.788116	184.310974	8.444725	-11.614855	21.427198	13.529768	0.0	12013.0	True	0.0	None	0.0	None	0.0	None	0.0	None	0.0	None	0.0	None	0.0	None	0.0	None	-99999.0	0
2014-03-24 09:36:00	438.59091929919816	3201530682.1221	2.8022090101674322e+22	9666640895503.264	104.77925454934669	5010093978091.678	5.515955636557669e+21	-2.1114871742550715e+24	2262.5205423336524	-0.4966131285557561	24.70479993808523	6.530130817070553	33.840196353854125	128.60739517511274	126.14709822096943	60.96596598850168	-0.011235176340268785	1.0013276325185234e+24	0.8023739334139981	-0.0437359013318707	-1.03880676557411e+23	-0.2355081548007931	0.024432309327128542	0.0	184.790924	184.201569	8.443139	-11.518898	21.460293	13.653087	0.0	12013.0	True	0.0	None	0.0	None	0.0	None	0.0	None	0.0	None	0.0	None	0.0	None	0.0	None	-99999.0	0
2014-03-24 09:48:00	433.63030498865874	3196885170.0174	2.757560507294388e+22	9568670584977.416	103.73914852772842	4720770322279.99	5.547527072593081e+21	-2.1380295946592203e+24	2212.94578586278	-0.5035865422184801	24.2925976822448	5.627198124267292	33.54989716485294	129.57061770929292	127.14757817783271	60.08080230526482	-0.011056074659248473	9.9529217479783e+23	0.6735682892279807	-0.043163555133000304	-9.72150208351859e+22	-0.23442881523042666	0.022897801001623586	1.6156614471215864	184.793701	184.092148	8.443978	-11.42195	21.462095	13.754356	0.0	12013.0	True	0.0	None	0.0	None	0.0	None	0.0	None	0.0	None	0.0	None	0.0	None	0.0	None	8.05e-07	8
2014-03-24 10:00:00	432.9973148098837	3198463954.3884	2.7030019857201827e+22	9691223385119.55	95.47479257776851	4814450950436.499	5.630302097999301e+21	-2.1708488763743223e+24	2108.052765754781	-0.5110642721608433	23.84560335327393	5.468669083376489	33.378669215030044	127.47712950221351	125.42034267376499	58.664368624437714	-0.009889661547313912	9.810976234137416e+23	0.953377129534846	-0.039517521849201716	-9.41998678004912e+22	-0.2309713717456485	0.02217666434501472	1.6173790402093355	184.796509	183.982712	8.444638000000001	-11.323523	21.431639	13.876283	0.0	12013.0	True	0.0	None	0.0	None	0.0	None	0.0	None	0.0	None	0.0	None	0.0	None	0.0	None	7.965999999999998e-07	12
2014-03-24 10:12:00	431.4097722375385	3184984361.4253	2.701375040701236e+22	9653327194183.523	97.6255226560203	4023579086524.245	5.624071093508777e+21	-2.1810597925966232e+24	2108.3125382481353	-0.5156412717907213	24.21957390413641	5.9183250414593696	33.37632367177914	127.42506013014008	125.45725115370334	58.7745007513786	-0.0101187316185759	9.662205610103346e+23	0.4116029472952904	-0.040447309713746916	-9.96246815220552e+22	-0.2284317012311534	0.02355304410092295	1.5217505793136077	184.799255	183.87326	8.444463	-11.226823	21.432526	13.977376	0.0	12013.0	True	0.0	None	0.0	None	0.0	None	0.0	None	0.0	None	0.0	None	0.0	None	0.0	None	8.4524e-07	12
2014-03-24 10:24:00	440.4093921210516	3181514146.9468	2.6670401108483376e+22	9904524965773.03	94.6464610906795	4107631557066.2456	5.708356206361407e+21	-2.1885104730450672e+24	2035.1095932365783	-0.5179670883896768	23.82144873451349	4.9959464937170655	32.77904254414157	126.85314221536652	125.19930224599821	58.51472216659382	-0.009592222670586752	9.736244112849356e+23	0.7958812651626068	-0.039195903683540895	-1.025647082922272e+23	-0.2304331679969924	0.024274566642463344	1.5451443925522783	184.802032	183.763779	8.442606	-11.111902	21.465149	14.099707999999998	0.0	12013.0	True	0.0	None	0.0	None	0.0	None	0.0	None	0.0	None	0.0	None	0.0	None	0.0	None	8.374700000000002e-07	12
2014-03-24 10:36:00	437.4415863887989	3208529795.3653	2.7011023664455193e+22	9902029399621.963	93.48567328179372	3796918552958.362	5.786714463309528e+21	-2.230605696468163e+24	2020.9604224659479	-0.5234848574451436	24.43904076016147	6.548092209856915	32.971107326382786	125.40321445898728	123.91930114696285	57.2497337441993	-0.009289116979510504	9.825571370684916e+23	0.664833150977526	-0.038249946958196224	-9.515956144150347e+22	-0.23058928955682825	0.022332315179962973	1.241298296221414	184.804749	183.654297	8.441935	-11.016397	21.499689	14.201863	0.0	12013.0	True	0.0	None	0.0	None	0.0	None	0.0	None	0.0	None	0.0	None	0.0	None	0.0	None	7.8891e-07	12
2014-03-24 10:48:00	428.20113286178656	3183629488.8993	2.660330670472366e+22	9634590409847.652	90.84928597317831	3603079661154.7583	5.731308890322968e+21	-2.2150784203884497e+24	2013.8674217262667	-0.5239067094782327	24.217870021470546	6.353674474715994	32.87990929757165	125.29671781517773	123.96791328999839	57.03419431472661	-0.00913333527427147	9.762152062298363e+23	0.6485281101881945	-0.03745162050432691	-1.1771750064993442e+23	-0.23089281703570466	0.027842349889668248	1.2576835224890384	184.807434	183.544785	8.441844	-10.919997	21.567553	14.32145	0.0	12013.0	True	0.0	None	0.0	None	0.0	None	0.0	None	0.0	None	0.0	None	0.0	None	0.0	None	7.682600000000002e-07	12
2014-03-24 11:00:00	442.7605450419942	3215874977.0809	2.7293771435136267e+22	10172920617345.902	97.0824608402418	5039889335628.3125	5.815265280848575e+21	-2.2284935004987967e+24	2005.6457712361691	-0.5217946637892219	24.538935334848475	7.1142773494681375	33.29570408457056	124.60130158457659	123.38070069784412	56.58954424989127	-0.009474232540279284	9.696196773819876e+23	0.9404517868784312	-0.03967487422047978	-1.1992563916381027e+23	-0.227033362874832	0.02808020689904709	0.0	184.81015	183.435257	8.442061	-10.823808	21.569101	14.424626000000002	0.0	12013.0	True	0.0	None	0.0	None	0.0	None	0.0	None	0.0	None	0.0	None	0.0	None	0.0	None	7.5298e-07	12
2014-03-24 11:12:00	445.74940211933676	3216889690.6672	2.718225762470841e+22	10183643753742.48	96.90336139303162	4965027592721.037	5.838011801399958e+21	-2.2530258446332712e+24	1984.8606142042984	-0.5273724018799467	24.8382807360258	6.894879751745539	33.31663600460906	125.1864174308468	123.85048449904772	56.385858617493064	-0.009397145208788949	9.724703575995526e+23	0.9206623814159678	-0.03944461576118693	-1.3598345695655299e+23	-0.2276290036645384	0.03183004867961853	0.0	184.812851	183.325699	8.440747	-10.726638	21.602762	14.524129	0.0	12013.0	True	0.0	None	0.0	None	0.0	None	0.0	None	0.0	None	0.0	None	0.0	None	0.0	None	7.5334e-07	12
2014-03-24 11:24:00	452.231200807644	3228881912.2394	2.696924151955904e+22	10471093407905.062	88.16742765406563	4271528008825.663	5.890932585071718e+21	-2.2771060206914228e+24	1936.9977138435995	-0.5310292913988958	24.84306695732479	6.905761159862647	33.37055629692422	122.8774047427672	121.80907240175637	55.349353037931564	-0.008409712672077987	9.60323806501366e+23	0.7790898056615227	-0.035669950283876706	-1.1576683549347655e+23	-0.22395095610219584	0.026997241261927225	0.0	184.815475	183.216125	8.440527000000001	-10.629386	21.60331	14.646929	0.0	12013.0	True	0.0	None	0.0	None	0.0	None	0.0	None	0.0	None	0.0	None	0.0	None	0.0	None	9.074799999999999e-07	12
2014-03-24 11:36:00	451.0023955610198	3228085226.9086003	2.70905024603831e+22	10501488022149.406	91.17125554562521	4622211611123.059	5.929066912207337e+21	-2.2737689869312937e+24	1914.1218499831173	-0.5303820685129875	25.026581397374592	7.197147414844703	33.362399770943945	122.36013096880724	121.20652446138888	55.020642507679774	-0.008555058228922323	9.650673777648356e+23	0.8293848606591069	-0.03690991716808123	-1.248118116601607e+23	-0.2251127687180408	0.029113752198947438	0.0	184.818069	183.106522	8.441022	-10.531378	21.571505	14.748094	0.0	12013.0	True	0.0	None	0.0	None	0.0	None	0.0	None	0.0	None	0.0	None	0.0	None	0.0	None	1.0475e-06	12
2014-03-24 11:48:00	441.3956199259055	3180217328.5408	2.6358320914714805e+22	10171664341049.934	88.69285632927367	4344356616046.971	5.790836884821793e+21	-2.2728822883584523e+24	1946.9755842850973	-0.5381551962980078	24.79279979809681	7.1610751422405325	32.82558839749289	124.33038377280224	123.19816270434605	56.017098400828324	-0.008700496010327022	9.437992703358674e+23	0.8149520461208811	-0.03626282887056306	-1.23907501128779e+23	-0.22346537002597888	0.029337843818085782	0.0	184.820709	182.996902	8.441011999999999	-10.408327	21.572647	14.8663	0.0	12013.0	True	0.0	None	0.0	None	0.0	None	0.0	None	0.0	None	0.0	None	0.0	None	0.0	None	1.593e-06	12
2014-03-24 12:00:00	456.58967581449485	3221631244.5638	2.6728794673996014e+22	10779963563324.207	79.8806200467482	3291557280280.9624	5.952586908962906e+21	-2.321872022420956e+24	1894.7874225011053	-0.5426875588004549	24.84687021445183	7.183204669553758	32.82279545915556	123.073545200773	122.1920751208422	55.09080904506401	-0.007520299383049162	9.62666167067366e+23	0.5925930864914959	-0.03214530992109623	-1.27443818395409e+23	-0.22500247520139324	0.029787246679125506	2.096488645988173	184.823257	182.887253	8.441895	-10.310854	21.575136	14.969604	0.0	12013.0	True	0.0	None	0.0	None	0.0	None	0.0	None	0.0	None	0.0	None	0.0	None	0.0	None	2.0481e-06	12
2014-03-24 12:12:00	462.6405024928514	3230216709.2774	2.6975118055357844e+22	10781301853054.736	83.58460730932696	4427227999104.206	5.942485168943783e+21	-2.2970587993397408e+24	1899.5523444842192	-0.5354611067444834	25.178821263627444	7.210324511362572	33.28030029656144	123.76229390614449	122.94053174107677	55.907979233783635	-0.007817490395559947	9.505913685744887e+23	0.7917793894708877	-0.033704339639772825	-1.417226860908532e+23	-0.2215897592281729	0.0330365885134599	1.6113096690766546	184.825836	182.777588	8.440672	-10.211005	21.608131	15.070332999999998	0.0	12013.0	True	0.0	None	0.0	None	0.0	None	0.0	None	0.0	None	0.0	None	0.0	None	0.0	None	2.2930000000000003e-06	12
2014-03-24 12:24:00	465.0850534807017	3215224970.3466	2.6909181488906526e+22	10793091054553.123	87.19483077867298	3238263027541.535	5.915538680169096e+21	-2.297104338325904e+24	1932.315464074024	-0.5379683812700485	24.8401382813435	7.009345794392522	32.52860164020353	125.14744162851557	124.41314450608982	56.20342934336865	-0.00831535674028924	9.486763366374996e+23	0.5192721394468094	-0.035266467618794935	-1.3174916735760983e+23	-0.22217444138476394	0.030854883304388406	0.0	184.828323	182.667877	8.440769	-10.08475	21.576054	15.169625	0.0	12013.0	True	0.0	None	0.0	None	0.0	None	0.0	None	0.0	None	0.0	None	0.0	None	0.0	None	2.3733000000000002e-06	12
2014-03-24 12:36:00	460.98039797084687	3220694348.3398	2.6536763636924755e+22	10915885588452.367	77.42503535034305	3558229719380.0015	5.95129642180383e+21	-2.3068308249554348e+24	1880.820343204224	-0.539328852276154	24.70829030844929	6.767695783132527	32.79333343398534	125.15973333909908	124.12062414429607	56.80374671688999	-0.007287748056319941	9.587907281044444e+23	0.640528807506645	-0.031234207215345988	-1.499620490644414e+23	-0.22416186630052407	0.03506059435826552	1.5910584306354032	184.830811	182.558167	8.440455	-9.987002	21.576693	15.291373000000002	0.0	12013.0	True	0.0	None	0.0	None	0.0	None	0.0	None	0.0	None	0.0	None	0.0	None	0.0	None	2.3054e-06	12
2014-03-24 12:48:00	455.15711583994164	3180522715.6475	2.5787173412206396e+22	10721595632512.902	85.01657033842206	3221075738155.018	5.877286567155104e+21	-2.2975334691350564e+24	1859.0140149974536	-0.5439396436132352	24.506514613082288	5.935854475825755	32.1216706907756	125.09746588740101	124.11317532613285	56.95219630420164	-0.008139451444559315	9.548488895159164e+23	0.5897876898799215	-0.034626193873728985	-1.4630653669337913e+23	-0.2260598905935895	0.034637983078976975	0.0	184.833328	182.448425	8.468352000000001	-9.859485	21.609083	15.394156	0.0	12013.0	True	0.0	None	0.0	None	0.0	None	0.0	None	0.0	None	0.0	None	0.0	None	0.0	None	2.2063999999999997e-06	12
2014-03-24 13:00:00	467.2769647323522	3233678034.5156	2.623390304612122e+22	10877840245147.693	92.363433787423	4037158068577.265	5.97756271511306e+21	-2.3444935936673e+24	1860.4055496849664	-0.5459334589112395	24.47806292722085	6.536070823130532	32.06292225492189	124.54250612187944	123.55567028333842	56.52018501067569	-0.008699579333844118	9.644850768720682e+23	0.7271881940361568	-0.03695719903824514	-1.5758301490239807e+23	-0.22458780672606152	0.03669442331755665	0.0	184.835785	182.338638	8.467999	-9.762498	21.613932	15.492103	0.0	12013.0	True	0.0	None	0.0	None	0.0	None	0.0	None	0.0	None	0.0	None	0.0	None	0.0	None	1.8519999999999998e-06	12
2014-03-24 13:12:00	462.4318976990588	3236201295.8081	2.6348437030512886e+22	10746375037950.34	93.26148951185205	4045642252604.477	5.952672144566736e+21	-2.3325646295361016e+24	1884.1430698772824	-0.5427321496790631	24.49654108671504	6.5432098765432105	32.49784619716766	125.74179050593406	124.66723629459706	56.88235376459043	-0.008856741644050526	9.64415999003022e+23	0.7348239469142896	-0.03735994993638542	-1.6963759993966993e+23	-0.2243965983604444	0.039470623071209104	0.0	184.838181	182.228836	8.467106	-9.635486	21.648829	15.617337	0.0	12013.0	True	0.0	None	0.0	None	0.0	None	0.0	None	0.0	None	0.0	None	0.0	None	0.0	None	1.5066e-06	12
2014-03-24 13:24:00	459.9084872260439	3236308289.9695	2.611134574943781e+22	10592550757094.047	92.61918400861776	4152482093856.884	5.941436003082677e+21	-2.3373131187508365e+24	1886.1762737369093	-0.543819073661084	24.058942335525842	6.36991557943208	32.08006865491163	126.76182939638966	125.66945326300691	57.2104802598697	-0.008885186493535856	9.661447841943626e+23	0.7619175395431813	-0.03707529865834715	-1.6064145468887582e+23	-0.2247914313867657	0.037376201921616066	0.0	184.840546	182.118988	8.437019	-9.57065	21.650585	15.715909	0.0	12013.0	True	0.0	None	0.0	None	0.0	None	0.0	None	0.0	None	0.0	None	0.0	None	0.0	None	1.4066e-06	12
2014-03-24 13:36:00	462.11948946784736	3211707687.0405	2.572697532277396e+22	10517387565507.92	92.95020225678448	4013229857513.951	5.862558039413195e+21	-2.311656928936548e+24	1897.734609488964	-0.5419694160803465	23.796378675760426	5.632836990595611	32.172383651413625	128.91770147529897	127.94576631379734	58.21337531002172	-0.009105623261832336	9.513809721197704e+23	0.7519660312861339	-0.03753777818983267	-1.765887260794309e+23	-0.22305186529858886	0.04140133752618292	0.0	184.842926	182.009125	8.467052	-9.476731	21.718271	15.837663	0.0	12013.0	True	0.0	None	0.0	None	0.0	None	0.0	None	0.0	None	0.0	None	0.0	None	0.0	None	1.2881e-06	12
2014-03-24 13:48:00	451.9412393219258	3174388732.3552	2.5835215209393388e+22	10298609877548.537	80.5729430405213	4132052318647.706	5.818744743387842e+21	-2.2556157420869063e+24	1910.9606335716605	-0.5350476278004099	24.02132643530067	6.110019646365423	32.22784052877497	128.53807068227826	127.3711465572481	57.77483472841561	-0.007914827410660245	9.625429595218944e+23	0.7763776372287788	-0.0330702333237909	-1.805447046687254e+23	-0.2283218358246113	0.04282645050861026	0.0	184.84523	181.899231	8.465589	-9.50799	21.751869	15.940305	0.0	12013.0	True	0.0	None	0.0	None	0.0	None	0.0	None	0.0	None	0.0	None	0.0	None	0.0	None	2.0456999999999997e-06	12
2014-03-24 14:00:00	448.27770852747216	3158428591.7651	2.5596425633441948e+22	10339660751306.7	84.7198135944185	3576752326005.4053	5.83477942846684e+21	-2.259931050044378e+24	1876.3406197534118	-0.5387800354848926	24.025524737335854	5.996884735202492	32.17400762655912	126.80548216255319	125.76246862723507	57.11745763946771	-0.008247645404441053	9.659370808708176e+23	0.6660375267095887	-0.034863210786839245	-2.047558935051485e+23	-0.2302847313406013	0.04881493511329847	0.0	184.847549	181.789307	8.465311	-9.473045	21.752531	16.054077	0.0	12013.0	True	0.0	None	0.0	None	0.0	None	0.0	None	0.0	None	0.0	None	0.0	None	0.0	None	1.5578e-06	12
2014-03-24 14:12:00	452.8312622742641	3136850016.5557003	2.540062266635564e+22	10269352863334.248	78.52129686648357	3082483298499.8784	5.79716692273617e+21	-2.255583190062837e+24	1894.6347657408544	-0.5414427685271963	23.87227130905808	5.626547795938584	31.902991214650932	127.35303042695305	126.20563396654673	57.15884033448604	-0.007778236440463948	9.771538698365372e+23	0.5840755865842102	-0.03247852522844135	-1.99694033498385e+23	-0.2345614645880647	0.04793566951202368	2.248777086937788	184.849823	181.679367	8.465471	-9.379404	21.75374200000001	16.161047	0.0	12013.0	True	0.0	None	0.0	None	0.0	None	0.0	None	0.0	None	0.0	None	0.0	None	0.0	None	1.1969e-06	12
2014-03-24 14:24:00	445.5192176025783	3140451264.8648005	2.580685257120372e+22	10135816160551.988	78.67683432198496	3497293657766.3613	5.813922053498389e+21	-2.2362854464450425e+24	1908.300542976528	-0.5361948718700124	23.751357978313642	5.401158794068547	31.991003130523247	127.132680872018	125.7384266401908	57.092978718303726	-0.007727051102139556	9.955741568624086e+23	0.6569623406483921	-0.03261711688111496	-2.1148030070698017e+23	-0.2387091318438509	0.05070669887910377	2.2453300574738826	184.852036	181.569382	8.463307	-9.284638	21.752993	16.263861	0.0	12013.0	True	0.0	None	0.0	None	0.0	None	0.0	None	0.0	None	0.0	None	0.0	None	0.0	None	1.1623999999999999e-06	12
2014-03-24 14:36:00	427.37600321463225	3088484260.7316	2.5026726139310545e+22	9580806053275.207	77.48585926149515	3587367996742.105	5.663851615458775e+21	-2.194511118553346e+24	1939.962465134976	-0.5350320251199762	23.177122807638693	4.478072884496602	31.551893794556516	129.93708107377634	128.45384953345294	58.76742226274103	-0.007977541363275524	9.8149373183329e+23	0.7064330921545771	-0.032688675042739763	-2.1529561817779662e+23	-0.2392927402124541	0.05249007381154608	2.239442267418035	184.854279	181.459381	8.462923	-9.188236	21.75367	16.383846	0.0	12013.0	True	0.0	None	0.0	None	0.0	None	0.0	None	0.0	None	0.0	None	0.0	None	0.0	None	1.8953999999999999e-06	12
2014-03-24 14:48:00	423.2306453323256	3043419871.8674	2.480262920976608e+22	9373694570913.646	79.37972841346429	3549736394637.925	5.531001582314683e+21	-2.15666890439038e+24	1988.7185340564288	-0.5335916754531707	23.24008426443213	4.610797572143541	31.54851151277105	130.74235763561532	128.7358235873843	59.09501264822527	-0.008452745012614664	9.781073992410458e+23	0.7230800670943837	-0.034014805338162084	-2.079822798954867e+23	-0.2419981875158069	0.05145788162850745	2.228919172102556	184.856491	181.349335	8.462810000000001	-9.091494	21.754625	16.487478	0.0	12013.0	True	0.0	None	0.0	None	0.0	None	0.0	None	0.0	None	0.0	None	0.0	None	0.0	None	1.9176e-06	12
2014-03-24 15:00:00	427.1055318949305	3055191849.0255003	2.458554385920597e+22	9375587822025.377	82.22612990892935	3533474372264.209	5.558394443327912e+21	-2.1610101547042405e+24	1963.1597254746948	-0.5326057242232184	22.904006647929112	3.806998939554613	31.40953576246815	130.22740263320176	128.1040793443533	59.654459874787065	-0.008719632015793144	9.777776876249457e+23	0.7168049102462762	-0.03512132692536195	-2.1938910092991583e+23	-0.2409845193522755	0.05407095877504129	2.228115539198948	184.858643	181.239288	8.460311	-8.996383999999997	21.753674	16.586613	0.0	12013.0	True	0.0	None	0.0	None	0.0	None	0.0	None	0.0	None	0.0	None	0.0	None	0.0	None	1.4612999999999999e-06	12
2014-03-24 15:12:00	427.6404757385213	3035603434.1476	2.4269616040061685e+22	9358596688487.775	75.43147327063136	3843961232950.1104	5.463474128964263e+21	-2.131030209967636e+24	1979.9243700071047	-0.5286058530518772	22.829359294882245	3.661971830985917	31.59007658719352	131.39305135716313	129.13131548670734	60.61517552194606	-0.008172423972982812	9.747759936316327e+23	0.7967022744333133	-0.03251187616919743	-2.135943308290954e+23	-0.2417949277480989	0.05298245558737228	2.214150088383481	184.860748	181.129196	8.460194	-8.900321	21.754654	16.70907	0.0	12013.0	True	0.0	None	0.0	None	0.0	None	0.0	None	0.0	None	0.0	None	0.0	None	0.0	None	1.0859999999999999e-06	12
2014-03-24 15:24:00	422.2046356448568	3066967285.5255003	2.481164428198487e+22	9260723207935.06	86.43773257336798	3581501827575.9946	5.486400053838417e+21	-2.143876015043542e+24	2032.953751018008	-0.5263540706453609	22.858648347934352	3.808487486398259	31.66020649238485	133.10651167989485	130.65708493659636	61.296983794570856	-0.009405629224523177	9.945984514062324e+23	0.6848596610207958	-0.0369291174583664	-2.263403842498211e+23	-0.2441890015475593	0.05556999647617628	2.190938291569023	184.862885	181.019089	8.430444	-8.803198	21.757069	16.812031	0.0	12013.0	True	0.0	None	0.0	None	0.0	None	0.0	None	0.0	None	0.0	None	0.0	None	0.0	None	9.0359e-07	12
2014-03-24 15:36:00	415.32827720659037	3051187407.4899	2.493614011377456e+22	9112331209266.406	78.92776861050605	3009566593043.0435	5.422934639031411e+21	-2.1068761345182504e+24	2073.615265801236	-0.5199451445515156	23.125485010730078	3.61126449475428	31.800644816859588	133.17747010077505	130.63263246539128	61.66126386447428	-0.008716484661568859	9.87090214310468e+23	0.6358422036781969	-0.034037920757524036	-2.2224807522543103e+23	-0.24359892627593724	0.054847461464935916	2.2025185721175644	184.864944	180.908951	8.458552000000001	-8.676784	21.755442	16.909779	0.0	12013.0	True	0.0	None	0.0	None	0.0	None	0.0	None	0.0	None	0.0	None	0.0	None	0.0	None	7.9947e-07	12
2014-03-24 15:48:00	425.43400620013983	3079960859.561	2.519905876893652e+22	9249123449285.35	83.07430935587288	3460357174673.2754	5.416042939831082e+21	-2.123443595968018e+24	2116.5157176488765	-0.5191382209995689	22.98714714032605	3.4021193530395983	31.856171448247856	136.0150216232201	133.1043638494483	63.28495948577736	-0.0092675490133727	1.005796843145202e+24	0.7384335527178951	-0.03551162945649893	-2.173909067786166e+23	-0.2458966109713643	0.053147598938264366	0.0	184.86705	180.798798	8.458714	-8.58095	21.75672	17.032284	0.0	12013.0	True	0.0	None	0.0	None	0.0	None	0.0	None	0.0	None	0.0	None	0.0	None	0.0	None	7.383199999999998e-07	12
2014-03-24 16:00:00	418.1968581935662	3089268622.3197	2.5040521507088766e+22	9105034660932.355	91.86689571081736	3907845938480.272	5.397002890305122e+21	-2.1290318313591343e+24	2129.085837146081	-0.5189361085118989	23.099324763260626	3.7149954832881664	31.955502561473107	136.3966258838574	133.5542963684207	63.725627334517355	-0.010373407374753542	1.0085855386461177e+24	0.4338719199045527	-0.03915559765778971	-2.395665039799565e+23	-0.2458354294272201	0.05839260243741661	2.6011392328221925	184.869064	180.688614	8.45847	-8.455906	21.757586	17.136215	0.0	12013.0	True	0.0	None	0.0	None	0.0	None	0.0	None	0.0	None	0.0	None	0.0	None	0.0	None	7.331699999999998e-07	12
2014-03-24 16:12:00	428.93169010155543	3119201612.3236003	2.5512797953968174e+22	9285810024472.86	98.78426130731798	4269546078643.05	5.41022549678308e+21	-2.1522616594322256e+24	2186.7734156666857	-0.5195640389614126	23.25050489858273	3.927148548662493	31.92098517995275	137.04627352629174	134.05803303775403	64.1772056263846	-0.01124465125865885	9.910074876747876e+23	0.585727645600294	-0.04168264775756534	-2.566862616980134e+23	-0.2392329253651925	0.06196502655207275	0.0	184.871048	180.5784	8.459222	-8.357042999999999	21.759531	17.237152	0.0	12013.0	True	0.0	None	0.0	None	0.0	None	0.0	None	0.0	None	0.0	None	0.0	None	0.0	None	7.188800000000002e-07	12
