Timestamp	TOTUSJH	TOTBSQ	TOTPOT	TOTUSJZ	ABSNJZH	SAVNCPP	USFLUX	TOTFZ	MEANPOT	EPSZ	MEANSHR	SHRGT45	MEANGAM	MEANGBT	MEANGBZ	MEANGBH	MEANJZH	TOTFY	MEANJZD	MEANALP	TOTFX	EPSY	EPSX	R_VALUE	CRVAL1	CRLN_OBS	LAT_MIN	LON_MIN	LAT_MAX	LON_MAX	QUALITY	NOAA_AR	IS_TMFI	BFLARE	BFLARE_label	CFLARE	CFLARE_label	MFLARE	MFLARE_label	XFLARE	XFLARE_label	BFLARE_loc	BFLARE_label_loc	CFLARE_loc	CFLARE_label_loc	MFLARE_loc	MFLARE_label_loc	XFLARE_loc	XFLARE_label_loc	XR_MAX	XR_QUAL
2014-02-26 06:36:00	3131.068522361769	34960477669.018906	4.169368712616272e+23	65926482578967.19	92.49266947904738	10766023755085.8	4.674309012549335e+22	-1.99539291181552e+25	4324.651057033018	-0.4297724232551182	29.155382184272558	17.070046146428815	36.295352672576364	98.54455409117685	100.39803476381731	46.4457906499995	0.0012741265615010724	2.3134461836215784e+24	-0.16190804364420427	0.003700789031754462	5.585795985282507e+24	-0.04982754857541927	-0.12030818903828595	4.5774948007395055	118.003174	168.476776	-7.112258	-73.23037	20.623537	-11.754352	0.0	11987;11989	True	0.0	None	0.0	None	0.0	None	0.0	None	0.0	None	0.0	None	0.0	None	0.0	None	1.1241e-06	12
2014-02-26 06:48:00	3122.158162502021	34571907370.0916	4.124407877196657e+23	65159779656648.05	143.0037937177534	14521229572937.375	4.6280234618010275e+22	-1.9856152774276334e+25	4346.876471786714	-0.4324732964090777	28.790526030445644	16.609979704667925	35.98091005660043	99.20688296999654	101.27154863156204	46.65286207940871	0.002001592745717033	2.22292891965259e+24	-0.20295303181085286	0.0057752086476959156	5.596644922904799e+24	-0.04841609593227268	-0.12189669903101255	4.569004384071682	118.007202	168.367599	-7.106679	-73.095711	20.641018	-11.632819	0.0	11987;11989	True	0.0	None	0.0	None	0.0	None	0.0	None	0.0	None	0.0	None	0.0	None	0.0	None	1.0799e-06	12
2014-02-26 07:00:00	3056.1297434942658	34468855445.2026	4.0483485253737146e+23	63234218661604.84	70.40297763605133	9653985661516.64	4.624796543994444e+22	-1.993977656843356e+25	4269.523151868541	-0.4355930582827088	28.528087145102766	16.298775876074966	35.9157920093014	98.74460077520617	100.34797514321959	45.987772648382034	0.0009860913445578368	2.2552450333227665e+24	-0.13606937948165526	0.002845533668617496	5.547616927904417e+24	-0.04926680486466088	-0.12119009536106595	4.575754004648887	118.011208	168.258408	-7.0829020000000025	-73.01445799999998	20.676384	-11.512517	0.0	11987;11989	True	0.0	None	0.0	None	0.0	None	0.0	None	0.0	None	0.0	None	0.0	None	0.0	None	1.0797e-06	12
2014-02-26 07:12:00	3017.178117188229	34620664107.1705	4.076011713714401e+23	62832066688912.82	51.88719106412442	8700429247599.581	4.663900152964521e+22	-1.996237092565438e+25	4233.356768365622	-0.4341743674116596	28.49669221270228	16.168275862068967	35.87177310350665	98.56257174263828	99.83809744111963	45.70397023336521	0.0007156952656467597	2.317340080215368e+24	-0.1555649549741571	0.00209003137479784	5.672185736511523e+24	-0.05040131090401577	-0.12336799387022705	4.542323738740752	118.015213	168.149216	-7.060017	-72.892776	20.72884	-11.419133	0.0	11987;11989	True	0.0	None	0.0	None	0.0	None	0.0	None	0.0	None	0.0	None	0.0	None	0.0	None	1.0732e-06	12
2014-02-26 07:24:00	3006.3514633991717	34521634551.461	4.007742822145988e+23	62761540270279.73	31.63692627566453	10384766060468.496	4.6967181857398804e+22	-2.0146697142581394e+25	4106.1000770806295	-0.4394404052634749	28.16851073909772	15.72351860670794	35.67689624551301	97.86979078732573	99.07896642670168	45.38475040231186	0.00043048122619692656	2.277245421458364e+24	-0.12602558147525045	0.001273431916989122	5.640190141479616e+24	-0.04967135028674158	-0.12302400855057898	4.5514638529644165	118.019226	168.040024	-7.035123	-72.80613699999998	20.752943	-11.296867	0.0	11987;11989	True	0.0	None	0.0	None	0.0	None	0.0	None	0.0	None	0.0	None	0.0	None	0.0	None	1.0444e-06	12
2014-02-26 07:36:00	2955.5009767051174	34548998524.271614	3.975312430791626e+23	62315529707908.09	12.38241851532185	8253982669505.26	4.75132718926052e+22	-2.026481225990639e+25	3988.060800516103	-0.44166665668404376	28.051942809328608	15.606597564550082	35.59620970909669	96.93725558660287	98.08364629094929	45.10553803159768	0.00016497573165798673	2.276962415426233e+24	-0.11101386446109723	0.0004972483456392974	5.71028917940562e+24	-0.04962584229838677	-0.12445436445305624	4.5510865139696435	118.02316299999998	167.930817	-7.0102910000000005	-72.683716	20.775095	-11.204189	0.0	11987;11989	True	0.0	None	0.0	None	0.0	None	0.0	None	0.0	None	0.0	None	0.0	None	0.0	None	1.0725e-06	12
2014-02-26 07:48:00	2916.740255632854	34735366821.077995	3.980418212595644e+23	62261372426138.94	23.637785520756804	7202522565998.367	4.817886458660991e+22	-2.0433672824872837e+25	3907.1362325483033	-0.4429574798043515	27.921087730217923	15.20903129929215	35.536963047690406	96.91428210641348	97.8500387119384	45.02348137810584	0.00030814878985199664	2.295849889353276e+24	-0.09998637897089784	0.0009432235193481233	5.87133555094635e+24	-0.049769020465039934	-0.12727775476404468	4.543959009219083	118.027115	167.821609	-6.971989	-72.59833499999998	20.797718	-11.082409	0.0	11987;11989	True	0.0	None	0.0	None	0.0	None	0.0	None	0.0	None	0.0	None	0.0	None	0.0	None	1.0572e-06	12
2014-02-26 08:00:00	2888.645329548811	34777558654.435104	3.999808916603954e+23	62373652084203.12	11.493405870237147	6749063405622.372	4.8654629620819476e+22	-2.0393246561285983e+25	3840.9500684428385	-0.4415447906908096	28.086347678035153	15.3265402420517	35.654100269182884	96.36848341817804	96.95787163821993	44.85817398395429	0.00014657526010020212	2.3261716605740785e+24	-0.06275932042362344	0.0004585128444900832	5.980601219357389e+24	-0.0503651527917537	-0.12948910835116376	4.544505495130999	118.031082	167.712387	-6.953607000000001	-72.48011	20.821146	-10.960981	0.0	11987;11989	True	0.0	None	0.0	None	0.0	None	0.0	None	0.0	None	0.0	None	0.0	None	0.0	None	9.6204e-07	12
2014-02-26 08:12:00	2897.8644513305385	34878536300.136	3.995810132967049e+23	63333370863796.5	22.92338309674405	4354581423018.5127	4.9350544642405395e+22	-2.0582396041117845e+25	3740.791078990075	-0.444349971975807	28.04896361719998	15.062412969962207	35.62669009860858	95.34900772922282	96.15883273247768	44.66457667958499	-0.0002850174453765362	2.3192354164708765e+24	-0.0962212019274548	-0.0009101131276518392	5.996220520193991e+24	-0.05006959297913515	-0.12945142124299794	4.5146980884559635	118.035065	167.603165	-6.949889999999999	-72.40033000000003	20.809731	-10.840159	0.0	11987;11989	True	0.0	None	0.0	None	0.0	None	0.0	None	0.0	None	0.0	None	0.0	None	0.0	None	1.0237e-06	12
2014-02-26 08:24:00	2863.31988954197	34790170485.475006	4.023343490911277e+23	63880026992485.99	1.4585845171348837	5490432491950.205	4.966833727539876e+22	-2.0393075642075653e+25	3685.1499381201365	-0.4413809544966288	28.320326202147765	15.393691688257976	35.80559713526301	94.47348023702601	95.04173227036513	44.41542720342728	-1.7742610416685518e-05	2.3354848486290243e+24	-0.07075105403689545	-5.817396777627655e-05	6.175226235000261e+24	-0.05054845820183365	-0.1336545451836326	4.529365763998216	118.039032	167.493927	-6.932022999999999	-72.287666	20.834143	-10.749085	0.0	11987;11989	True	0.0	None	0.0	None	0.0	None	0.0	None	0.0	None	0.0	None	0.0	None	0.0	None	1.0756e-06	12
2014-02-26 08:36:00	2917.003946237019	34921361138.0192	4.015202631137986e+23	65076495723189.95	6.996461564104153	4872014115905.914	5.03364832461526e+22	-2.0649918355571533e+25	3612.00779117121	-0.44526094061125054	28.266503050613853	15.03631845550989	35.665522269276465	94.16869449870264	94.5136396382632	44.154022793033675	8.358774657838705e-05	2.4047403904656127e+24	-0.06489469451848895	0.00027725028883959004	6.180718538121953e+24	-0.05185187416955043	-0.13327086831774573	4.520382288748172	118.042969	167.384674	-6.928102	-72.204918	20.846117	-10.627665	0.0	11987;11989	True	0.0	None	0.0	None	0.0	None	0.0	None	0.0	None	0.0	None	0.0	None	0.0	None	9.9568e-07	12
2014-02-26 08:48:00	2960.0539422536144	34965951150.2388	4.0379116171630846e+23	66368763286132.02	8.164096214351082	6237222411578.611	5.08258300540747e+22	-2.0655109179307096e+25	3572.3455894715985	-0.4448049396564001	28.334581179873762	14.99083560485008	35.59880651700216	93.78768891362459	94.09462020040787	44.14573066893227	9.593081658148952e-05	2.4394347007385814e+24	-0.05727542103926925	0.00032322432483088804	6.301725819092195e+24	-0.052532891278290174	-0.1357068001122284	4.489673265785958	118.04686	167.275406	-6.9109979999999975	-72.123085	20.869541	-10.506166	0.0	11987;11989	True	0.0	None	0.0	None	0.0	None	0.0	None	0.0	None	0.0	None	0.0	None	0.0	None	9.381399999999999e-07	12
2014-02-26 09:00:00	2984.5626332791553	34998094930.409615	4.078228775132021e+23	67367156351649.31	6.555201395274336	5723698999422.6875	5.095512597041697e+22	-2.052833749777767e+25	3575.4995306529545	-0.4416689733669138	28.65837885443175	15.39133269683068	35.752334346005675	93.76405340331144	94.15993747954134	44.239769130165094	-7.632622368863043e-05	2.446006746228503e+24	-0.053325141223688255	-0.00025984322101776317	6.357591458899285e+24	-0.05262604867891717	-0.13678413524925173	4.472935486652848	118.05072	167.166122	-6.907247	-72.03698	20.893164	-10.412919	0.0	11987;11989	True	0.0	None	0.0	None	0.0	None	0.0	None	0.0	None	0.0	None	0.0	None	0.0	None	9.303e-07	12
2014-02-26 09:12:00	2990.7332537639063	34956405287.3719	4.084551059701714e+23	68124794720536.01	24.32201792006243	7667941428874.67	5.097128390427128e+22	-2.0477091972012488e+25	3567.004271188275	-0.4410917969058063	28.95087762363832	15.653414362590466	35.87982992937079	93.44667941153799	93.79680470816757	44.169680656861374	0.00028208271482159554	2.4678732494074776e+24	-0.03083905077207033	0.000965630973649633	6.396536959190848e+24	-0.053159825995054685	-0.1377861653969316	4.474625982396177	118.054626	167.056824	-6.889992	-71.918701	20.904963	-10.29112	0.0	11987;11989	True	0.0	None	0.0	None	0.0	None	0.0	None	0.0	None	0.0	None	0.0	None	0.0	None	-99999.0	0
2014-02-26 09:24:00	3003.499785176123	34858946423.3326	4.039520198661367e+23	68319209940094.45	17.65706363985648	6195975491229.621	5.080138926522188e+22	-2.0543103985596085e+25	3567.607181727297	-0.4437509415834421	28.68120446862336	15.287535626737355	35.60602865910824	93.85588917694677	93.98488018453013	44.33357654741865	0.00020709911727625802	2.5563775850135605e+24	-0.0668114475968313	0.0007016845928068742	6.347810268409187e+24	-0.05522023162555965	-0.13711884949687586	4.436318608252376	118.058495	166.947495	-6.8863460000000005	-71.838852	20.928663	-10.170418	0.0	11987;11989	True	0.0	None	0.0	None	0.0	None	0.0	None	0.0	None	0.0	None	0.0	None	0.0	None	1.0338e-06	8
2014-02-26 09:36:00	3078.020733694291	35021485162.501884	4.067339507084316e+23	70588644720424.58	25.593364996955923	6991741919568.598	5.104428819266518e+22	-2.066963271508584e+25	3559.610970739121	-0.4444118859634629	29.079281458080754	15.744023059310312	35.741180641630564	94.12796535948156	94.19982523423216	44.59701351560298	0.0002974796591691182	2.55716690461944e+24	-0.11006589049192636	0.0010119436543164447	6.380481482156777e+24	-0.05498091729398959	-0.13718491508418024	4.4396643280192505	118.062347	166.83815	-6.8743490000000005	-71.72045899999998	20.950552	-10.077476	0.0	11987;11989	True	0.0	None	0.0	None	0.0	None	0.0	None	0.0	None	0.0	None	0.0	None	0.0	None	1.0229e-06	12
2014-02-26 09:48:00	3127.095817822067	34982141000.79541	4.083160940255804e+23	71619854102571.69	59.68842911718112	9163831922720.688	5.0749940934972015e+22	-2.050367061546578e+25	3606.0228951893732	-0.44133942797096254	29.174947903357204	15.815955525321947	35.84027248610065	94.61188565313006	94.9174999555488	45.007842226384476	0.0007000836171803692	2.5494389819979e+24	-0.0972469396618839	0.002367638297805168	6.296479803349329e+24	-0.05487641520699808	-0.13553108839667066	4.448872540331231	118.066193	166.72879	-6.8527869999999975	-71.686424	20.938568	-9.956918	0.0	11987;11989	True	0.0	None	0.0	None	0.0	None	0.0	None	0.0	None	0.0	None	0.0	None	0.0	None	9.6655e-07	12
2014-02-26 10:00:00	3164.212331763288	34893630294.8552	4.091252828309338e+23	72173455760515.72	54.13669093146828	8126591894638.548	5.049440248026878e+22	-2.0363111993686568e+25	3646.139193289717	-0.43942561606950814	29.200181148124177	15.686877892319892	35.704855211069386	95.20275602059898	95.55277206515758	45.35344791381614	0.0006407618943692391	2.503003788089124e+24	-0.07704055389717976	0.0021557953206282664	6.246509131287732e+24	-0.05401355067665427	-0.13479649496358653	4.473217206323401	118.07001499999998	166.619415	-6.853785	-71.655006	20.962051	-9.837194	0.0	11987;11989	True	0.0	None	0.0	None	0.0	None	0.0	None	0.0	None	0.0	None	0.0	None	0.0	None	1.0503e-06	12
2014-02-26 10:12:00	3204.234468237033	34800588821.1984	4.121526176444173e+23	73403552835901.0	71.94946955134027	9711685139386.463	4.991669375221433e+22	-2.011190253092924e+25	3727.158534323025	-0.4351651110372648	29.5288362821145	16.43287776523431	35.98410622165404	95.91820218588995	96.30691054546507	46.07647613191451	0.0008641540902154728	2.5831379259105794e+24	-0.08683928200055517	0.002881276250888103	6.19159797157587e+24	-0.05589185312651325	-0.13396879855873228	4.462647647913592	118.07373	166.510025	-6.833621000000001	-71.572624	20.961842	-9.744482	0.0	11987;11989	True	0.0	None	0.0	None	0.0	None	0.0	None	0.0	None	0.0	None	0.0	None	0.0	None	1.0856e-06	12
2014-02-26 10:24:00	3198.505852208228	34503890192.2148	4.095248639026224e+23	72746024695473.25	71.19690879176454	9444695909071.076	4.904762164074299e+22	-1.985212716412073e+25	3806.0584564661353	-0.4332378619012892	29.462889960432964	16.33053567020489	35.93160511729239	97.14503089541942	97.54249881495414	46.61705352450774	0.0008787897452604335	2.561066503135908e+24	-0.06515683427110296	0.002879453016227227	6.111553927206705e+24	-0.05589078524597267	-0.13337394700467262	4.435809285944426	118.077484	166.400589	-6.8281399999999985	-71.48625200000002	20.972652	-9.622189	0.0	11987;11989	True	0.0	None	0.0	None	0.0	None	0.0	None	0.0	None	0.0	None	0.0	None	0.0	None	1.0726000000000001e-06	12
2014-02-26 10:36:00	3195.472574675014	34226010655.0405	4.054433453891827e+23	71888063956132.42	61.24406073678074	8224254967522.604	4.849996668679645e+22	-1.969539123737127e+25	3835.3457448055897	-0.43330703734732856	29.33933211105907	16.054020100502512	35.85832393055661	97.13209015425976	97.53974854607344	46.615186633290406	0.0007694460799897073	2.594335713117306e+24	-0.12801648734612606	0.002496990511293243	5.976074204612382e+24	-0.057076496129825925	-0.13147619041224995	4.424985464721192	118.08123799999998	166.291138	-6.804595	-71.53362299999998	20.975168	-9.502173	0.0	11987;11989	True	0.0	None	0.0	None	0.0	None	0.0	None	0.0	None	0.0	None	0.0	None	0.0	None	1.0267e-06	12
2014-02-26 10:48:00	3156.0056151883696	33893099909.346508	4.0202167149057817e+23	71262535910674.69	88.49055437444997	10517579317214.838	4.777711986613536e+22	-1.94251217438685e+25	3865.081375899728	-0.4315586824714648	29.489732105168127	16.372365010661248	36.08816777745542	96.83872845153546	97.23647544046088	46.725837022438725	0.0011299022482277154	2.4883382616006565e+24	-0.18596207430646453	0.003647678106051989	5.873259427142416e+24	-0.05528222658674855	-0.13048340873285647	4.456105221955452	118.084961	166.181656	-6.784077000000001	-71.56594799999998	20.980618	-9.410951	0.0	11987;11989	True	0.0	None	0.0	None	0.0	None	0.0	None	0.0	None	0.0	None	0.0	None	0.0	None	1.8519999999999998e-06	12
2014-02-26 11:00:00	3147.925080211599	33533525925.676506	3.993261782389973e+23	70351039349743.19	96.94867068002712	11319382612049.445	4.6951863724221615e+22	-1.9124427980361053e+25	3943.079023392541	-0.42943422000267895	29.290331126815108	16.015578897674967	35.895687022881496	97.57337178020771	97.98448178740944	47.032560915665066	0.0012713746073047948	2.457894607824552e+24	-0.1846943059841098	0.004045135808414735	5.730244415420378e+24	-0.05519140519359994	-0.12867119704117286	4.4633314120313825	118.088638	166.07214399999995	-6.774978	-71.48835	20.980631	-9.290795	0.0	11987;11989	True	0.0	None	0.0	None	0.0	None	0.0	None	0.0	None	0.0	None	0.0	None	0.0	None	1.9671e-06	12
2014-02-26 11:12:00	3103.810677334217	33159420455.3852	3.972369695650439e+23	68576757436317.26	87.76599224648729	12418102693659.207	4.6206225031782705e+22	-1.8790163258754598e+25	4017.868990660511	-0.4266886606849125	29.06783498057261	15.760416946511564	35.66090705618733	97.37144394835644	97.99246384865086	46.706750401995905	0.0011789690400237404	2.4348768978684754e+24	-0.10578079543477976	0.00371057650079204	5.636855235556818e+24	-0.05529139625756471	-0.12800219869371635	4.461461656465353	118.092316	165.962616	-6.748183	-71.410744	20.975834	-9.170535	0.0	11987;11989	True	0.0	None	0.0	None	0.0	None	0.0	None	0.0	None	0.0	None	0.0	None	0.0	None	1.429e-06	12
2014-02-26 11:24:00	3030.798916775456	32868216613.2936	3.910524642505981e+23	66400917429537.88	57.93542790374262	9371256822372.336	4.58200570681206e+22	-1.869832050137647e+25	4010.315939126598	-0.4283649966457166	28.75114824179369	15.417092271024856	35.47683196430623	97.15074394437548	97.94335974015759	46.27993072336933	0.0007890637525535952	2.4101897396242607e+24	-0.12938939363474802	0.0024682166902083905	5.52133784351554e+24	-0.05521570344532732	-0.12648985595488604	4.392311935983232	118.09584	165.853043	-6.703692	-71.326836	20.984728	-9.078154	0.0	11987;11989	True	0.0	None	0.0	None	0.0	None	0.0	None	0.0	None	0.0	None	0.0	None	0.0	None	1.6115000000000004e-06	12
2014-02-26 11:36:00	3041.8430655021284	32627846946.4827	3.871445808862448e+23	65950706155722.26	51.238712947766025	8426265057443.625	4.546686359403874e+22	-1.859278391162668e+25	4024.2799413215557	-0.4290851171537177	28.589341016151533	15.221082566021064	35.321280685718435	97.80739898057767	98.60285926309321	46.2939835397912	0.0007073555358141008	2.3826227306719848e+24	-0.1570923322367341	0.002197777567583571	5.446363740017863e+24	-0.05498627630928319	-0.12569143139376515	4.412206491111445	118.099457	165.743454	-6.617156	-71.242073	20.979359	-8.956092	0.0	11987;11989	True	0.0	None	0.0	None	0.0	None	0.0	None	0.0	None	0.0	None	0.0	None	0.0	None	1.8852000000000002e-06	12
2014-02-26 11:48:00	3015.433762316684	32421515976.4661	3.846022229990856e+23	65393834814096.59	20.443830752496076	6668173701890.247	4.508433798549512e+22	-1.8473683955074361e+25	4046.790435925465	-0.42904975153299785	28.499636797330844	15.161466120760727	35.22682169935445	97.59341300524116	98.44233410442465	46.12418206591246	0.000285687964679934	2.4007060207756607e+24	-0.14981572692937395	0.0008825122458804807	5.387127638166362e+24	-0.05575619482407797	-0.1251155849722622	4.409793827500236	118.103035	165.633835	-6.562558	-71.130402	20.973675	-8.835013	0.0	11987;11989	True	0.0	None	0.0	None	0.0	None	0.0	None	0.0	None	0.0	None	0.0	None	0.0	None	1.7049000000000004e-06	12
2014-02-26 12:00:00	2995.0609176203284	32407230071.803	3.827371776237424e+23	65329673326525.41	33.80735137069381	8282433694706.058	4.523800354859155e+22	-1.8540826135491804e+25	4003.057567916474	-0.4307989721961717	28.454277408247524	15.19154373975609	35.09555359316244	97.05029654947529	97.87881906060629	45.973455382497995	0.0004695987244512419	2.4202141102657614e+24	-0.12216140445143388	0.0014582434101082606	5.355762052079488e+24	-0.056234050391169695	-0.1244419623215404	4.3930268482060315	118.106583	165.52418500000005	-6.686189	-71.052254	20.985106	-8.743586	0.0	11987;11989	True	0.0	None	0.0	None	0.0	None	0.0	None	0.0	None	0.0	None	0.0	None	0.0	None	1.5153e-06	12
2014-02-26 12:12:00	2965.4187125984527	32347041899.267307	3.84174978802505e+23	64935745090401.06	42.97529745512139	10187530476809.344	4.5164126448362535e+22	-1.839575544577922e+25	3998.3793237348877	-0.4282235091484164	28.709449996800984	15.44872769492322	35.410554403619145	96.7259169392858	97.62416077866357	45.70685436266498	0.0005940163027509281	2.3934302845311447e+24	-0.1070852400640254	0.001860481674772032	5.367384083581692e+24	-0.055715195734414975	-0.12494404233592213	4.429021318514646	118.110107	165.414505	-6.689817	-70.963539	20.980629	-8.622738	0.0	11987;11989;11993	True	0.0	None	0.0	None	0.0	None	0.0	None	0.0	None	0.0	None	0.0	None	0.0	None	1.3734999999999999e-06	12
2014-02-26 12:24:00	2946.9822836337453	32185430648.3346	3.809024925060073e+23	64059407694907.77	32.31696259210547	10633360223017.87	4.486517061368264e+22	-1.8337627649255559e+25	4004.784131397295	-0.42901384830227457	28.659027058119	15.42628948029825	35.343435321065506	96.95796807100064	97.8930662477455	45.85494740676359	0.00045125968850248514	2.3815415454672664e+24	-0.1488284418115968	0.001405352269458879	5.33692310376742e+24	-0.055716820237329684	-0.12485878558743285	4.415331358516804	118.113594	165.304794	-6.696126	-70.861542	20.974636	-8.501742	0.0	11987;11989;11993	True	0.0	None	0.0	None	0.0	None	0.0	None	0.0	None	0.0	None	0.0	None	0.0	None	1.2594e-06	12
2014-02-26 12:36:00	2920.694756662029	32157295397.313908	3.806111114819453e+23	63578937678942.6	13.788418551140518	9037923663257.543	4.489471017426023e+22	-1.830524587323609e+25	3999.9331675684657	-0.4286309417868968	28.55630073579337	15.081646894626658	35.146614986542076	97.02345334372177	97.98284703549841	45.91097293956111	0.0001924466635654941	2.3534893809032617e+24	-0.07384132654431896	0.000600321340847365	5.335336324625619e+24	-0.05510870363653242	-0.12493086678053082	4.432378086996193	118.11702	165.195068	-6.7023	-70.769165	20.983654	-8.409541	0.0	11987;11989;11993	True	0.0	None	0.0	None	0.0	None	0.0	None	0.0	None	0.0	None	0.0	None	0.0	None	1.3822999999999999e-06	12
2014-02-26 12:48:00	2931.5257480563273	32187638964.6805	3.830346869160057e+23	64023135725563.81	20.2934152792821	8542904108602.772	4.500624693790252e+22	-1.8214835157181248e+25	4001.777955400256	-0.42611184460845225	28.50965525683586	15.065281034506679	35.13705506300217	96.71987410844437	97.67113086978901	45.81384082163312	0.0002815714185714576	2.3855691470507207e+24	-0.1150907107555062	0.0008841933842935837	5.378100828661572e+24	-0.055807217628869366	-0.12581351655481382	4.38918203271541	118.120392	165.085297	-6.705665	-70.676323	20.974077	-8.290163	0.0	11987;11989;11993	True	0.0	None	0.0	None	0.0	None	0.0	None	0.0	None	0.0	None	0.0	None	0.0	None	1.5991e-06	12
2014-02-26 13:00:00	2923.100234468721	32190295277.334	3.836705044436552e+23	63515418370707.7	19.29039924369475	8623327717771.737	4.493195508585192e+22	-1.8145647947338138e+25	4033.660775394473	-0.4244581953956033	28.332430365067633	14.86694032559828	35.06694533101029	97.01394455020036	97.86993041444151	45.90839536799774	0.00026934374816663993	2.3765702124906409e+24	-0.13578858958592904	0.0008414026389124683	5.369753513610278e+24	-0.055592101563543314	-0.12560785333877095	4.408201430575351	118.123795	164.975494	-6.711192	-70.589249	20.969524	-8.16981	0.0	11987;11989;11993	True	0.0	None	0.0	None	0.0	None	0.0	None	0.0	None	0.0	None	0.0	None	0.0	None	1.3478999999999998e-06	12
2014-02-26 13:12:00	2900.6323215539333	32066837337.297005	3.815178305123853e+23	63186291503087.05	6.128445587893134	9183228973452.318	4.4754571925438335e+22	-1.812786918175752e+25	4028.918000569424	-0.4256749677331665	28.353579248800365	14.771962302255131	35.076446303216684	97.06053363613556	98.07546096561487	46.04031696868717	8.594933716524039e-05	2.3463379840044472e+24	-0.12393805897886295	0.0002681065341600632	5.360452683975063e+24	-0.05509623528380754	-0.12587306872130827	4.468426632482418	118.127182	164.865677	-6.759233	-70.499641	20.977646	-8.078118	0.0	11987;11989;11993	True	0.0	None	0.0	None	0.0	None	0.0	None	0.0	None	0.0	None	0.0	None	0.0	None	1.0184999999999999e-06	12
2014-02-26 13:24:00	2937.6137072185297	32046958100.394894	3.814901469871596e+23	63833777249349.89	8.201387386110756	7075583513432.866	4.461727698568192e+22	-1.8086132324104016e+25	4036.0406787398547	-0.4249583554427366	28.472099368703237	14.76543071108426	35.228041988984764	97.45938051732904	98.20215238740525	46.174060470258596	0.00011523496067374009	2.3840242178694096e+24	-0.08503483730531318	0.00035919778850091903	5.382344935613949e+24	-0.05601590173103136	-0.12646553786492634	4.425991272419192	118.130524	164.755829	-6.7620000000000005	-70.42462900000002	20.968807	-7.957414999999999	0.0	11987;11989;11993	True	0.0	None	0.0	None	0.0	None	0.0	None	0.0	None	0.0	None	0.0	None	0.0	None	1.0738e-06	12
2014-02-26 13:36:00	2909.851925706041	31900121293.0093	3.813483644673458e+23	63119345604518.61	24.95805695775462	8404236241933.327	4.433205262956597e+22	-1.7916456075447898e+25	4059.925418714445	-0.4229093820318461	28.48022788428845	14.882366248161974	35.24089313053126	97.54875617563488	98.23398323110668	46.35502462000857	0.0003528737834769062	2.381510025208572e+24	-0.0807350709399643	0.0010996923144803645	5.383026385787599e+24	-0.056214405841330715	-0.12706376488117194	4.376027705163743	118.133835	164.645935	-6.766448	-70.34728199999999	20.987499	-7.836119999999997	0.0	11987;11989;11993	True	0.0	None	0.0	None	0.0	None	0.0	None	0.0	None	0.0	None	0.0	None	0.0	None	1.0551e-06	12
2014-02-26 13:48:00	2924.437032506347	31846719147.133007	3.806147892184676e+23	63693442072972.84	17.895709020886756	7204717435313.781	4.424169136265131e+22	-1.7881820379642016e+25	4054.408045365713	-0.4227995536390933	28.60401039176476	15.117134449977364	35.23321672626433	97.89273058730082	98.5443745994383	46.47078454030712	0.00025317190137915226	2.3420545950251072e+24	-0.0645369340684928	0.0007899029039351666	5.336053658356883e+24	-0.055375773626623714	-0.1261661876167837	4.386157919679556	118.137077	164.536026	-6.773269	-70.239693	20.979445	-7.715742999999999	0.0	11987;11989;11993	True	0.0	None	0.0	None	0.0	None	0.0	None	0.0	None	0.0	None	0.0	None	0.0	None	1.0735e-06	12
2014-02-26 14:00:00	2911.670628662935	31740980016.0551	3.798716765940613e+23	63486752507303.49	24.434293532199195	8245951780782.1	4.398886642083972e+22	-1.7794201735664746e+25	4074.157619556111	-0.4221294900239492	28.60027651587366	15.050991340018232	35.278580487910325	98.26931659827656	99.09100474327879	46.69950526249963	0.00034802719821386735	2.346433587244188e+24	-0.08648424166476447	0.0010826056979842812	5.32039764729568e+24	-0.05566413308517276	-0.12621508842827805	4.3203504606350585	118.140274	164.426071	-6.780084	-70.16686999999999	20.995667	-7.596367999999999	0.0	11987;11989;11993	True	0.0	None	0.0	None	0.0	None	0.0	None	0.0	None	0.0	None	0.0	None	0.0	None	1.0344e-06	12
2014-02-26 14:12:00	2935.6543276111684	31751499984.876305	3.78256863881654e+23	63803373615122.4	25.645155326702383	9280024863518.307	4.414943999272507e+22	-1.7882537912516327e+25	4048.6492296142046	-0.4240844452834488	28.35980630334984	14.828713574982233	35.145587531114785	98.20458184436905	99.01638282183686	46.59899704980109	0.000364552224355017	2.382956926156291e+24	-0.0838429605674235	0.0011343423039588776	5.312895476702408e+24	-0.05651183132434586	-0.12599533366621782	4.35873070315983	118.143501	164.316101	-6.786069	-70.060867	20.996822	-7.475849	0.0	11987;11989;11993	True	0.0	None	0.0	None	0.0	None	0.0	None	0.0	None	0.0	None	0.0	None	0.0	None	1.0458e-06	12
2014-02-26 14:24:00	2920.54494141221	31780379692.8297	3.802841559874414e+23	63354650577458.74	30.57817444231657	9423800565534.62	4.378892290761755e+22	-1.7749866383165331e+25	4130.470647450537	-0.4205556366282373	28.42463545656535	15.033320832011075	35.192963300753384	99.26153506464551	100.01860169787949	47.315925966864405	0.00044107801463111345	2.357221937826764e+24	-0.04989356556992839	0.0013546410133827946	5.274480375255205e+24	-0.05585072875123221	-0.12497065635392254	4.333379036177941	118.146698	164.2061	-6.788031	-69.978882	21.005016	-7.385103999999999	0.0	11987;11989;11993	True	0.0	None	0.0	None	0.0	None	0.0	None	0.0	None	0.0	None	0.0	None	0.0	None	1.0532e-06	12
2014-02-26 14:36:00	2956.201047437049	31935760556.8079	3.842573713414081e+23	64459034117867.47	38.38620879495734	9033193344046.02	4.39810813978555e+22	-1.7728950940009586e+25	4135.567017199643	-0.4180163429102517	28.614507966652713	15.074895660625465	35.409818478574685	99.17540913552088	99.99942602383638	47.46279439517715	0.0005486722620130549	2.3816027256309176e+24	-0.06940979993490927	0.0016953161556136512	5.337393415354184e+24	-0.05615385055788222	-0.12584600655217376	4.2992760632083975	118.149872	164.096069	-6.791815	-69.880356	21.009531	-7.263139	0.0	11987;11989;11993	True	0.0	None	0.0	None	0.0	None	0.0	None	0.0	None	0.0	None	0.0	None	0.0	None	1.0656e-06	12
2014-02-26 14:48:00	2946.470315519454	31888003563.3623	3.8256635501051936e+23	64016712166799.94	11.82344885164278	7131574567467.959	4.39924820268279e+22	-1.7795296770785126e+25	4121.904202086119	-0.4202090720212348	28.462048686626677	14.667963999027	35.202636192770534	99.43421537978791	100.07549862771214	47.12170308837629	0.00016918435789715648	2.3818256628183647e+24	-0.06678324406332818	0.0005221524559619932	5.302642076293587e+24	-0.05624321776596645	-0.1252138885257699	4.275321602569808	118.153023	163.986023	-6.7982929999999975	-69.776146	21.015532	-7.1429860000000005	0.0	11987;11989;11993	True	0.0	None	0.0	None	0.0	None	0.0	None	0.0	None	0.0	None	0.0	None	0.0	None	1.6138e-06	12
2014-02-26 15:00:00	2943.1073083336023	31745907427.418407	3.785059860758773e+23	64577094755599.57	29.199395323641767	8594058510837.742	4.390483621305199e+22	-1.7773137402849754e+25	4071.281827056493	-0.4215643014919202	28.523156989526072	14.71466323834012	35.31388708521324	99.48904770090341	100.11505831206492	47.4206513393525	0.0004171103840300805	2.3656887922637464e+24	-0.09250006771841064	0.0012940608944229126	5.270567817557565e+24	-0.056112205777356136	-0.12501356345324774	4.203588782810433	118.156097	163.875946	-6.8020809999999985	-69.67690999999999	21.02035	-7.0237240000000005	0.0	11987;11989;11993	True	0.0	None	0.0	None	0.0	None	0.0	None	0.0	None	0.0	None	0.0	None	0.0	None	1.1119000000000001e-05	12
2014-02-26 15:12:00	2983.665721771501	31882708723.2968	3.806338740698349e+23	65551177340768.72	10.946533992955763	5127089242833.174	4.42193150784878e+22	-1.7862170230449453e+25	4045.911464127172	-0.4218582091958409	28.659487334854536	14.920948616600793	35.402025384054525	99.50945705755241	100.00937478514929	47.41299927568696	0.00015453566729661558	2.361747610411942e+24	-0.05496808680009179	0.0004829732864173065	5.334979462090368e+24	-0.05577836313543343	-0.12599840069475154	4.2511618887677285	118.159149	163.765854	-6.8051119999999985	-69.573288	21.046148	-6.932179	0.0	11987;11989;11993	True	0.0	None	0.0	None	0.0	None	0.0	None	0.0	None	0.0	None	0.0	None	0.0	None	8.2135e-06	12
2014-02-26 15:24:00	3017.01894932226	31936349588.736305	3.824948496885773e+23	66439154784851.61	18.10868351118271	6842885712226.854	4.441414574669628e+22	-1.7880476732187933e+25	4032.788107560813	-0.4215812781573716	28.776364135978174	14.766585454647286	35.31674992419666	99.81121318274276	100.30611084127176	47.57470774834018	0.000253566196807196	2.3686210448293865e+24	0.02116577355484612	0.0007977527682055947	5.364747873962225e+24	-0.055846737338497834	-0.12648864454635195	4.317677600757953	118.162231	163.655731	-6.8094839999999985	-69.480049	21.064049	-6.811942	0.0	11987;11989;11993	True	0.0	None	0.0	None	0.0	None	0.0	None	0.0	None	0.0	None	0.0	None	0.0	None	4.4502999999999996e-06	12
2014-02-26 15:36:00	3047.538812455344	32161308041.1416	3.857528228716192e+23	68003630782592.2	38.59471553694458	6652395195416.452	4.492666191597535e+22	-1.7979912641867564e+25	3988.011938422741	-0.42096048880916825	29.065653270019784	15.223450264296012	35.657467071354795	99.91655360428085	100.3601606410022	48.024706542379406	0.0005299069863515793	2.3874259211288305e+24	-0.03882690682219474	0.0016890567975821784	5.450326263848861e+24	-0.05589637740585158	-0.1276075170052077	4.30221895333116	118.165283	163.545578	-6.81491	-69.378387	21.056337	-6.692056	0.0	11987;11989;11993	True	0.0	None	0.0	None	0.0	None	0.0	None	0.0	None	0.0	None	0.0	None	0.0	None	2.4440000000000002e-06	12
2014-02-26 15:48:00	3076.250087847954	32430596080.510708	3.876668151937096e+23	69370616903682.44	18.60099067695091	6016489319068.111	4.572512876707908e+22	-1.8241540973651417e+25	3898.5011159752135	-0.4235396409479254	29.19340913098085	15.374547591383205	35.7329325726465	100.11101716268793	100.48544117235993	47.77085715190387	0.00024843057238762336	2.459434531758404e+24	-0.058977095478563085	0.0008058497284461702	5.611892415765968e+24	-0.057104167900096675	-0.13029923854816347	4.2945953669042485	118.168304	163.43541000000005	-6.819585000000001	-69.276344	21.073839000000003	-6.571986	0.0	11987;11989;11993	True	0.0	None	0.0	None	0.0	None	0.0	None	0.0	None	0.0	None	0.0	None	0.0	None	2.1905e-06	12
2014-02-26 16:00:00	3101.0694007697807	32558836908.7102	3.891549699667233e+23	70543919544205.0	39.42064783396996	8463414767864.475	4.616498308061873e+22	-1.8316562519637843e+25	3828.788245308557	-0.4236064795554814	29.530292552535702	15.942142605150721	36.01425642444667	98.81449999295315	99.20014549871551	47.45797875200613	0.0005150938552216743	2.4274737318576287e+24	0.0010398272358037623	0.0017009637830325884	5.668214390230131e+24	-0.05614009728425552	-0.1310885893920766	4.368092081777851	118.171326	163.325226	-6.82368	-69.177925	21.068975	-6.48104	0.0	11987;11989;11993	True	0.0	None	0.0	None	0.0	None	0.0	None	0.0	None	0.0	None	0.0	None	0.0	None	2.1187e-06	12
2014-02-26 16:12:00	3109.2001589941888	32777469673.1398	3.919218263722073e+23	71072852787809.22	44.81143221187757	9115016886931.027	4.6784116646146726e+22	-1.8497194821733798e+25	3787.3716628767097	-0.42493046211228797	29.37341266442696	15.515913757700204	35.915588961412624	98.81869763306791	99.18918105079031	47.19588215127202	0.0005750953825959648	2.4271062444865846e+24	0.002924042312916458	0.001918888433606636	5.790828962195687e+24	-0.055757177669637184	-0.13303096229638914	4.360475207417669	118.17426299999998	163.215012	-6.827501	-69.07511099999999	21.082426	-6.359705	0.0	11987;11989;11993	True	0.0	None	0.0	None	0.0	None	0.0	None	0.0	None	0.0	None	0.0	None	0.0	None	2.1243e-06	12
2014-02-26 16:24:00	3087.9862856104633	32954988916.1698	3.919549791179033e+23	71197431207623.1	26.899703717900394	7987192276075.589	4.730973483783337e+22	-1.8714794489197327e+25	3726.4296611232453	-0.4276133938051418	29.324782231970506	15.377331094304367	35.783747416121564	98.22403808580908	98.48629812142806	46.9349690674846	0.0003396427237108636	2.4686992662248e+24	0.01992428218828425	0.001143525117958152	5.938412767758447e+24	-0.056407184814345576	-0.13568649331964353	4.364036725709977	118.177185	163.104782	-6.8295600000000025	-68.98252099999999	21.077574	-6.2413089999999976	0.0	11987;11989;11993	True	0.0	None	0.0	None	0.0	None	0.0	None	0.0	None	0.0	None	0.0	None	0.0	None	2.6192000000000003e-06	12
2014-02-26 16:36:00	3095.618759469454	33008345331.8835	3.885392989657353e+23	71017240530280.88	9.37565883167788	7006112904320.174	4.786363549718308e+22	-1.8923285420824865e+25	3622.6933196164614	-0.43167841790360456	29.125954232446947	15.062098341980462	35.769279450611165	97.62283978340628	97.83543016477672	46.534486117191115	0.00011609716596304816	2.4389357293608734e+24	0.014462576998129719	0.00039679781612376585	6.012923870542055e+24	-0.055637057392816235	-0.13716695624925307	4.384847546759088	118.180138	162.994537	-6.831109	-68.888725	21.073339	-6.122129	0.0	11987;11989;11993	True	0.0	None	0.0	None	0.0	None	0.0	None	0.0	None	0.0	None	0.0	None	0.0	None	2.1688999999999997e-06	12
2014-02-26 16:48:00	3048.072252381933	32910570030.220707	3.84799159177586e+23	69668103797149.33	1.9930747904980457	7798189477477.082	4.8118968617557046e+22	-1.8959047298526448e+25	3548.537527145721	-0.4337790159336709	28.95575696726568	14.54202540016901	35.55556368343301	96.93165372972028	97.11924186187456	45.95333037688176	2.440968010799679e-05	2.423331986419412e+24	0.006341991848808362	8.447677758173512e-05	6.017340175498597e+24	-0.055445326328781394	-0.13767547803252728	4.297022959936795	118.18309	162.884293	-6.836709	-68.79136700000001	21.090572	-6.002481	0.0	11987;11989;11993	True	0.0	None	0.0	None	0.0	None	0.0	None	0.0	None	0.0	None	0.0	None	0.0	None	1.702e-06	12
2014-02-26 17:00:00	2962.907161187271	32802221825.0368	3.818145197540753e+23	68191629401949.93	1.5031862982492488	7272897700462.849	4.81346028198374e+22	-1.895797874008358e+25	3503.336662354581	-0.4351872656798236	28.803572255345696	14.559190885273864	35.57304654511393	96.29567730265705	96.54915382890387	45.467994585092185	1.8317467046650118e-05	2.4240826829000294e+24	0.04023935760132685	6.386109155082422e-05	6.011223421205616e+24	-0.055645695620630486	-0.13798980998611735	4.293647556229964	118.18602	162.774017	-6.8401229999999975	-68.694237	21.109713	-5.882206	0.0	11987;11989;11993	True	0.0	None	0.0	None	0.0	None	0.0	None	0.0	None	0.0	None	0.0	None	0.0	None	1.5233e-06	12
2014-02-26 17:12:00	2917.9441978944733	32666331415.2396	3.804971016322312e+23	67217304769064.11	39.133633357157905	3747925382402.357	4.80163417327698e+22	-1.885524303362916e+25	3494.6982945115	-0.4346295092902174	28.723475282734537	14.466237314597974	35.53489527339915	96.17160200617249	96.26586256592712	45.403167773571006	-0.0004773383915831075	2.4333194747465035e+24	0.0008878153293595375	-0.0016701022140032163	5.979817879120027e+24	-0.05609009904402395	-0.1378399263171185	4.30083153024826	118.188927	162.663727	-6.8451830000000005	-68.582275	21.133177	-5.760551	0.0	11987;11989;11993	True	0.0	None	0.0	None	0.0	None	0.0	None	0.0	None	0.0	None	0.0	None	0.0	None	1.4190999999999999e-06	12
2014-02-26 17:24:00	2888.905784227789	32493941184.1464	3.7666226896246306e+23	66408648218738.08	34.36055790132872	4258809019484.7695	4.784437917305217e+22	-1.8816438505708221e+25	3473.8841900489183	-0.4360361811780635	28.489638962134052	14.361128803096369	35.395939843699864	96.18447570573844	96.24556403246085	45.08904206281961	-0.0004208634898439391	2.4064716140369515e+24	0.03549022612432419	-0.0014727354966946012	5.91425073757112e+24	-0.055765531419761566	-0.13705182866341756	4.342197440238733	118.191788	162.553436	-6.849208999999999	-68.485451	21.156782	-5.640254	0.0	11987;11989;11993	True	0.0	None	0.0	None	0.0	None	0.0	None	0.0	None	0.0	None	0.0	None	0.0	None	1.3588e-06	12
2014-02-26 17:36:00	2831.96828350578	32398616078.626907	3.744202707315414e+23	65205170831487.04	44.21666836618796	5079969280569.733	4.76958395922641e+22	-1.879421282505336e+25	3446.831651431967	-0.43680254194945456	28.447517652128692	14.291827128797605	35.45661051391829	95.92200662675283	95.80772223451912	44.86576996405903	-0.0005405923290035575	2.3710711269661973e+24	0.0483778125978828	-0.001899732794083332	5.873248675318726e+24	-0.05510685151022559	-0.13650212300781492	4.319505134713046	118.194626	162.44313	-6.852817999999999	-68.361511	21.175911	-5.51997	0.0	11987;11989;11993	True	0.0	None	0.0	None	0.0	None	0.0	None	0.0	None	0.0	None	0.0	None	0.0	None	1.3174e-06	12
2014-02-26 17:48:00	2793.4575164333532	32205543773.9354	3.70501513228564e+23	63725607905657.49	87.25210808502398	2289701866547.58	4.715758033905888e+22	-1.872060220692096e+25	3489.0728604433416	-0.4377000389729137	28.28176593036191	14.158506234445154	35.256168502948405	96.85148053867071	96.70513984937875	45.196990138048534	-0.001091251539409475	2.3781196518196693e+24	0.0555467123345589	-0.0037691041279750118	5.735525007810725e+24	-0.05560200749839672	-0.13410036128649602	4.316450248568609	118.19751	162.332809	-6.922031	-68.26847099999999	21.169312	-5.400702	0.0	11987;11989;11993	True	0.0	None	0.0	None	0.0	None	0.0	None	0.0	None	0.0	None	0.0	None	0.0	None	1.4952e-06	12
2014-02-26 18:00:00	2775.386953126999	32304989579.0002	3.7093451213424673e+23	62995474940571.06	87.23307896921543	2925867666524.4766	4.722895844510699e+22	-1.8779629857834333e+25	3491.798049039845	-0.4377286726513917	28.09407762161741	13.994249281160144	35.261939648891804	96.962608386792	96.87465437962477	44.93802666584568	-0.0010905770736762443	2.3630083949899083e+24	0.03149540091165237	-0.0037563476737580382	5.704935569424356e+24	-0.055078642978233325	-0.13297460563761146	4.293332836215645	118.200394	162.222488	-6.974929	-68.146393	21.183462	-5.280427	66560.0	11987;11989;11993	False	0.0	None	0.0	None	0.0	None	0.0	None	0.0	None	0.0	None	0.0	None	0.0	None	1.3627e-06	12
2014-02-26 18:12:00	2777.4767329630517	32272927030.787907	3.687153382170947e+23	62327419364698.63	113.29946288784274	861813525047.085	4.7039201178707475e+22	-1.8855202149964025e+25	3506.9889820680487	-0.4399265997217384	27.938216810909122	13.826468099081687	35.17266610142984	97.20501928180904	97.37559865747316	44.759557313839686	-0.0014311812402935987	2.415606592907357e+24	0.003585912567563492	-0.004876182854727925	5.677523166307124e+24	-0.056360551652063565	-0.13246707415436834	4.258553124998399	118.203262	162.112167	-6.977795	-68.046341	21.179876	-5.161206	66560.0	11987;11989;11993	False	0.0	None	0.0	None	0.0	None	0.0	None	0.0	None	0.0	None	0.0	None	0.0	None	1.3238e-06	12
2014-02-26 18:24:00	2764.496039721991	32098671735.713306	3.658817391265908e+23	61355661159247.7	109.10762424635988	1450215689054.0537	4.634916447419259e+22	-1.8784781293269647e+25	3577.3723803493044	-0.4406629505047703	27.6859941742065	13.661329905340658	34.971081404426826	98.79539852922926	98.84553818023701	45.263237456917714	-0.0014167797359644714	2.357495377667126e+24	-0.019230351101340068	-0.004718933847245877	5.615976613170864e+24	-0.05530332521339304	-0.13174243477683353	4.231531200118776	118.206131	162.001831	-6.9807130000000015	-67.928322	21.176088	-5.041437	0.0	11987;11989;11993	True	0.0	None	0.0	None	0.0	None	0.0	None	0.0	None	0.0	None	0.0	None	0.0	None	1.3887000000000001e-06	12
