Timestamp	TOTUSJH	TOTBSQ	TOTPOT	TOTUSJZ	ABSNJZH	SAVNCPP	USFLUX	TOTFZ	MEANPOT	EPSZ	MEANSHR	SHRGT45	MEANGAM	MEANGBT	MEANGBZ	MEANGBH	MEANJZH	TOTFY	MEANJZD	MEANALP	TOTFX	EPSY	EPSX	R_VALUE	CRVAL1	CRLN_OBS	LAT_MIN	LON_MIN	LAT_MAX	LON_MAX	QUALITY	NOAA_AR	IS_TMFI	BFLARE	BFLARE_label	CFLARE	CFLARE_label	MFLARE	MFLARE_label	XFLARE	XFLARE_label	BFLARE_loc	BFLARE_label_loc	CFLARE_loc	CFLARE_label_loc	MFLARE_loc	MFLARE_label_loc	XFLARE_loc	XFLARE_label_loc	XR_MAX	XR_QUAL
2014-02-13 13:12:00	331.00609024227884	4078710056.3774	4.400920862806657e+22	7535933526093.639	60.27495382839511	3699383490004.357	5.934949575830949e+21	-2.5162466923009414e+24	3520.863351138924	-0.4645344346517787	27.43163748198749	13.312792180195494	34.125723149233195	114.07204755049592	113.02285709757544	49.513059532382314	-0.0064040537429234075	2.7305078743561568e+23	0.04275549797875148	-0.020181082645603688	-1.0500962763700428e+24	-0.05040900542889082	0.19386250226023327	3.5655721625931114	373.359253	336.069611	1.553798	31.184776	9.889463	43.406773	0.0		True	0.0	None	0.0	None	0.0	None	0.0	None	0.0	None	0.0	None	0.0	None	0.0	None	2.4394999999999997e-06	12
2014-02-13 13:24:00	322.602390248297	4042566630.5387	4.315803622994388e+22	7297746599427.263	53.70280528708576	3248871357515.2744	5.84689239890318e+21	-2.5071531518655674e+24	3536.558892152361	-0.4669938358423373	27.277921927487697	13.233213624986398	34.22623651538393	114.50081894270187	113.87187165454591	49.512075392224034	-0.005844249133429728	2.773517833832208e+23	0.012412537972255987	-0.01811096088204524	-1.0378870510717008e+24	-0.051660814220091236	0.19332159855907127	3.5637545393254704	373.36264	335.959747	1.560422	31.303082	9.887306	43.523838	0.0		True	0.0	None	0.0	None	0.0	None	0.0	None	0.0	None	0.0	None	0.0	None	0.0	None	1.9736e-06	12
2014-02-13 13:36:00	327.295742863528	4043935537.010101	4.358804429131932e+22	7471418949733.537	59.3765735376296	3886019117242.098	5.920269689553389e+21	-2.49966847269508e+24	3483.098328129173	-0.4654421724921277	27.198593218690075	13.148678764724613	33.98211581669344	112.9632710377517	112.14405833962765	48.81478966165921	-0.0063012388345144435	2.674116707711809e+23	-0.0555814550834599	-0.020038823410975532	-1.0442389454400946e+24	-0.04979247062283157	0.1944389220713328	3.6025121042857404	373.365967	335.849823	1.569016	31.414165	9.876499	43.637096	0.0		True	0.0	None	0.0	None	0.0	None	0.0	None	0.0	None	0.0	None	0.0	None	0.0	None	2.3090000000000003e-06	12
2014-02-13 13:48:00	330.47749173672236	4037290719.6939	4.369722535142788e+22	7513656851115.652	56.22397348420842	3371843015412.9497	5.888147723027423e+21	-2.477004392980096e+24	3525.873209266392	-0.4619812110934416	27.24307684334199	12.92327475353622	33.96255760248131	113.44538062631041	112.48934188803354	49.35949962808862	-0.00602485785300133	2.7747202403052524e+23	-0.14362079266138872	-0.0190510850536052	-1.0512377810887788e+24	-0.05175076074530023	0.19606428823094893	3.5219305759188857	373.369202	335.739868	1.578606	31.52923	9.872172	43.73167	0.0		True	0.0	None	0.0	None	0.0	None	0.0	None	0.0	None	0.0	None	0.0	None	0.0	None	2.4763999999999997e-06	12
2014-02-13 14:00:00	321.03116907960367	3998977848.699701	4.284233410747996e+22	7199680753863.881	58.34777084981712	3403720513440.323	5.786373802591375e+21	-2.4754743588695926e+24	3551.267980372741	-0.4661190806136609	27.33205969553168	12.868780273007484	33.945800883310056	114.17152959384757	113.41360671099501	49.444612567415454	-0.006423136377126498	2.6866290578910643e+23	-0.003465385132231564	-0.01990380095827839	-1.0399623090515356e+24	-0.0505878423635128	0.19581955015252814	3.4814051029384787	373.372528	335.629883	1.586911	31.656391	9.876806	43.844402	0.0		True	0.0	None	0.0	None	0.0	None	0.0	None	0.0	None	0.0	None	0.0	None	0.0	None	2.8881999999999997e-06	12
2014-02-13 14:12:00	333.6796843750924	4022947813.6309	4.273350241076184e+22	7462695354703.826	55.03930698794198	2983162471075.9404	5.843984218386996e+21	-2.514463430993078e+24	3518.6189404224438	-0.4706395088549893	27.068002807503845	12.509568069983597	33.819341512513326	115.61884691509596	115.40000541803332	49.719029346526355	-0.006018513612678183	2.688950736024173e+23	0.14937949745179255	-0.01860597035306448	-1.043916780946613e+24	-0.05032988104495376	0.1953929713251606	3.6088681325326433	373.375732	335.519867	1.5936709999999998	31.764349	9.864225	43.937172	0.0		True	0.0	None	0.0	None	0.0	None	0.0	None	0.0	None	0.0	None	0.0	None	0.0	None	2.5989999999999996e-06	12
2014-02-13 14:24:00	327.49223978259056	3999033172.2149	4.267742004930212e+22	7310490678787.372	58.25821378888988	3280028645544.5645	5.79175433042016e+21	-2.487645374621946e+24	3528.664223611354	-0.4684044113223074	27.523186504421158	13.539035906445589	34.29875671085742	113.74719576195696	113.54968226549042	48.878716016003466	-0.0063977831966714116	2.771800275640808e+23	0.07377776021997043	-0.019842515848073446	-1.0246090716822658e+24	-0.05219085845834645	0.19292597488087065	3.5660218395441836	373.378906	335.409851	1.602536	31.878681	9.86157	44.048733	0.0		True	0.0	None	0.0	None	0.0	None	0.0	None	0.0	None	0.0	None	0.0	None	0.0	None	1.8451e-06	12
2014-02-13 14:36:00	318.2991340506066	3959630547.4544	4.193227983271128e+22	7071635912924.236	53.99317018495922	3034830568422.5234	5.734815499345007e+21	-2.4908344186432014e+24	3525.9026431569696	-0.4736719020797482	27.554669495053677	13.601340033500838	34.046696144615396	113.42409724853016	112.93943942573021	48.549896435284566	-0.006029388072022248	2.591070522128696e+23	0.16543953808933035	-0.018506033932848668	-1.030981980302866e+24	-0.04927333962680689	0.1960576712626345	3.523938395953331	373.382141	335.299774	1.612237	31.993582	9.85713	44.145607	0.0		True	0.0	None	0.0	None	0.0	None	0.0	None	0.0	None	0.0	None	0.0	None	0.0	None	1.9840999999999998e-06	12
2014-02-13 14:48:00	321.31194995919964	3946157958.5059	4.137090627816423e+22	7065660671998.119	59.78133416204342	3259336972295.7886	5.728540325951507e+21	-2.485718111226192e+24	3491.175304928347	-0.474312889076435	27.07082374182965	12.574246329709739	33.71356014911437	113.67277531649799	113.0225631868388	48.59586315233953	-0.006699690032729287	2.597758546843178e+23	0.008333028578446124	-0.0205509295780436	-1.0262733285086058e+24	-0.04956919112877107	0.19582858781476334	3.5127639718730306	373.385223	335.189667	1.622456	32.118008	9.853449	44.258629	0.0		True	0.0	None	0.0	None	0.0	None	0.0	None	0.0	None	0.0	None	0.0	None	0.0	None	1.9448e-06	12
2014-02-13 15:00:00	322.1876918153328	3949880009.9085	4.100542852053767e+22	7106929609290.643	53.49819570220644	2667227321824.084	5.728010365000285e+21	-2.4994234997924e+24	3473.9597401870674	-0.4764786200152693	26.95723504694437	12.432493249324931	33.69147815131197	114.1954737576137	113.79195892596796	48.75603763120176	-0.006019148931391364	2.556764678081868e+23	0.02763791806662011	-0.01834670447208241	-1.0164667810490822e+24	-0.0487409878965057	0.19377456007989727	3.344702274088245	373.388367	335.079559	1.630678	32.227055	9.855291	44.347122	0.0		True	0.0	None	0.0	None	0.0	None	0.0	None	0.0	None	0.0	None	0.0	None	0.0	None	1.7582e-06	12
2014-02-13 15:12:00	317.9410834188392	3960543284.4667	4.106147183457783e+22	6992489309868.428	53.37765649898263	2534872916536.002	5.694864409384918e+21	-2.50983158689391e+24	3521.899946805802	-0.4771746539803762	26.84977101419738	12.495728442875045	33.826295639071766	115.64864653340705	115.258996563659	49.643970557213926	-0.006080152238180047	2.624263866594505e+23	0.08952361327505012	-0.01824747960655284	-1.0068473651330014e+24	-0.04989307685162895	0.19142401648668927	3.4996633436404734	373.391449	334.9693910000001	1.637329	32.345341	9.84229	44.439411	0.0		True	0.0	None	0.0	None	0.0	None	0.0	None	0.0	None	0.0	None	0.0	None	0.0	None	1.7704e-06	12
2014-02-13 15:24:00	325.5732726482478	3973522280.1459	4.111522352201351e+22	7049780085966.662	55.64654133944585	2569892853681.765	5.689077049103661e+21	-2.52297903835128e+24	3572.9056231289424	-0.4781073782044942	26.88496976713117	12.129255626081939	33.510716875428805	116.70688376808451	116.24787219986187	49.685076900919725	-0.006421989767968361	2.672803382679132e+23	-0.0015429224235627345	-0.018949010421130768	-1.0186127561013712e+24	-0.050649926072469424	0.1930282680998928	3.5464861685286	373.39447	334.8592220000001	1.646137	32.474018	9.842006	44.551369	0.0		True	0.0	None	0.0	None	0.0	None	0.0	None	0.0	None	0.0	None	0.0	None	0.0	None	1.8277e-06	12
2014-02-13 15:36:00	323.9429567660842	3968410550.7668	4.066223069440339e+22	6990100206602.348	55.621300475650166	2617716688196.3994	5.62132076239194e+21	-2.5183491351161147e+24	3606.8007918391577	-0.477844765960767	26.702853344837326	12.145128990458241	33.83182258047307	117.17442577576207	116.75060010677494	50.46422531608882	-0.006552161676952547	2.667652530785548e+23	0.046225869774969695	-0.018968182569198626	-1.0022803151663892e+24	-0.05061743748962329	0.19017792090439625	3.5936210584667925	373.397583	334.749023	1.654375	32.584972	9.841669	44.650623	0.0		True	0.0	None	0.0	None	0.0	None	0.0	None	0.0	None	0.0	None	0.0	None	0.0	None	1.72e-06	12
2014-02-13 15:48:00	327.4917960988433	3981963735.8081	4.04296531363914e+22	6980376458718.659	60.07060587955613	2862272725919.1177	5.650449778458884e+21	-2.5626734959382226e+24	3606.563918468913	-0.4846000952800477	26.494352150091	11.361213126406824	33.329655763711045	117.73563224492256	117.38239111222569	50.37807428593929	-0.007116527174452805	2.6768186973738254e+23	-0.10345376154153638	-0.02032287862199994	-1.0148976732228566e+24	-0.05061848877161992	0.1919165706918253	3.6489163068556048	373.400543	334.638794	1.667187	32.699139	9.839193	44.766567	0.0		True	0.0	None	0.0	None	0.0	None	0.0	None	0.0	None	0.0	None	0.0	None	0.0	None	1.3079000000000001e-05	12
2014-02-13 16:00:00	337.20961908093165	3989780708.2086	4.0549600200985e+22	7227115973380.324	64.8438959802964	3306627142872.37	5.639544440302884e+21	-2.574709312544616e+24	3636.6508732507723	-0.4859220881228534	26.53268138792119	11.553120533587425	33.334685698568734	118.84270391476132	118.80924930001785	50.5204491777614	-0.007723189135337827	2.594151803388819e+23	-0.0890346252301477	-0.0218753006975936	-1.0086713057087304e+24	-0.04895914482728688	0.19036543842504086	3.6047518439116937	373.403503	334.528564	1.678582	32.830307	9.833193	44.85569	0.0		True	0.0	None	0.0	None	0.0	None	0.0	None	0.0	None	0.0	None	0.0	None	0.0	None	1.4525e-05	12
2014-02-13 16:12:00	327.1563390197583	4000034167.9232	4.0907121103087275e+22	7094550233345.532	66.80730105025114	3176926647794.0264	5.65348382654794e+21	-2.563071830091052e+24	3640.9613340915002	-0.4824858596239008	26.862913940658718	12.080378250591016	33.695088969754345	118.135181128914	118.603020979905	50.22518856627856	-0.007896844095774366	2.673265763593952e+23	-0.11113884270774244	-0.022531995821326544	-9.971535401955826e+23	-0.05032293339609414	0.18770932494747533	3.610457545327142	373.406555	334.418304	1.703718	32.942593	9.829703	44.969955	0.0		True	0.0	None	0.0	None	0.0	None	0.0	None	0.0	None	0.0	None	0.0	None	0.0	None	7.7005e-06	12
2014-02-13 16:24:00	330.0775169934606	3983550397.182501	4.066986093936715e+22	7028156259358.308	65.896933498272	3323963364283.784	5.6041707801438e+21	-2.5604081754142467e+24	3717.843941618678	-0.4839788952967459	26.40547278352393	11.824693456355467	33.23977621106033	118.68893997820614	119.77934054205942	50.62907787139207	-0.008000113329886125	2.708542768290251e+23	-0.04749203080280706	-0.022294470407910816	-9.878927083079556e+23	-0.051197990595738485	0.1867355471794024	3.57503436162054	373.409454	334.308014	1.722546	33.058956	9.830075	45.07170900000001	0.0		True	0.0	None	0.0	None	0.0	None	0.0	None	0.0	None	0.0	None	0.0	None	0.0	None	3.5214999999999997e-06	12
2014-02-13 16:36:00	337.42608303237927	3963316044.5652	4.03956143131422e+22	7158810823823.664	67.47432550815238	3262327826952.0117	5.604164542590448e+21	-2.5734499846469085e+24	3699.059928678014	-0.4889275025089213	26.41617266053536	12.100206737200534	32.83521827003954	117.89227302493643	119.24352927979021	49.921319365681704	-0.008205560684440274	2.586494521996324e+23	-0.33851591990205304	-0.02286842686233815	-9.795116094198644e+23	-0.04914058227038675	0.18609655043980086	3.632323078711232	373.412415	334.197723	1.7313759999999998	33.190234999999994	9.818935	45.195591	0.0		True	0.0	None	0.0	None	0.0	None	0.0	None	0.0	None	0.0	None	0.0	None	0.0	None	2.8131000000000002e-06	12
2014-02-13 16:48:00	342.64253553344935	3958094563.5317	3.995997363317847e+22	7267382501488.662	66.71496710821515	3262136456464.6465	5.600705916512291e+21	-2.5840382854522363e+24	3673.0152041353913	-0.4915868476243687	26.257123120181863	12.0361328125	32.827358089084875	116.84116173686935	118.72736381588815	49.60458262696204	-0.008143916883327044	2.620130613693136e+23	-0.1679777094596442	-0.02260052672537413	-9.596614795728868e+23	-0.049845304382713215	0.18256577860540868	3.62735663557771	373.415344	334.087402	1.74066	33.301231	9.814857	45.320488	0.0		True	0.0	None	0.0	None	0.0	None	0.0	None	0.0	None	0.0	None	0.0	None	0.0	None	3.2447000000000013e-06	12
2014-02-13 17:00:00	343.5944332543417	3968314621.9207	4.0400362686370806e+22	7243078940174.051	66.62836807093143	3142904498041.808	5.613951345154279e+21	-2.59756382349361e+24	3729.8859085701424	-0.4928873030985158	26.242520330167128	11.463952918097107	32.40538545914001	116.87636011963112	118.82566939633386	49.79486604959152	-0.00817024746424665	2.505743909564501e+23	-0.31601220757211584	-0.022494928692759958	-9.732527996063304e+23	-0.04754644897154791	0.18467455671055025	3.5782166636868618	373.418243	333.977081	1.768593	33.41885	9.809821	45.415241	0.0		True	0.0	None	0.0	None	0.0	None	0.0	None	0.0	None	0.0	None	0.0	None	0.0	None	3.2251e-06	12
2014-02-13 17:12:00	344.01679518873163	3943019634.2362	4.015354396758767e+22	7176948617193.79	69.16504138180609	2868515596223.2617	5.587257445252734e+21	-2.5869937532281897e+24	3719.869194544936	-0.4940306818018015	26.187881666565445	11.466535433070867	32.27084332412896	115.84199868665544	117.92895774060229	48.256608412924024	-0.008509478516462365	2.468665828727373e+23	-0.2877311052643692	-0.023481626766035747	-9.768458317947516e+23	-0.04714339418041171	0.18654541074736072	3.576620010105956	373.421204	333.86676	1.778619	33.548565	9.80407	45.53746	0.0		True	0.0	None	0.0	None	0.0	None	0.0	None	0.0	None	0.0	None	0.0	None	0.0	None	2.3981999999999998e-06	12
2014-02-13 17:24:00	344.6346523679747	3950701103.866901	4.0418999588528725e+22	7279100060497.451	75.2740889828028	3232055721756.976	5.624284888931613e+21	-2.5982525641826576e+24	3686.4077374581952	-0.4952160183191659	26.618974319142666	12.14874031007752	32.60997806355899	115.81978912244057	118.01932142293322	48.22786565197157	-0.009117501088033284	2.576013231415473e+23	-0.26691893943465195	-0.025485748262473042	-9.62215983629736e+23	-0.049097729496530115	0.1833943223014093	3.575479597103975	373.424072	333.756409	1.7879580000000002	33.662579	9.795871	45.659595	0.0		True	0.0	None	0.0	None	0.0	None	0.0	None	0.0	None	0.0	None	0.0	None	0.0	None	1.8943e-06	12
2014-02-13 17:36:00	340.43964835369684	3980231036.5287	4.052385910267368e+22	7243424062901.035	62.23223584081453	2481111259155.2207	5.720603401267188e+21	-2.6477144444827664e+24	3623.5526426633032	-0.5008991660208427	26.64243810476122	12.171951074694213	32.2865174184655	115.32204046345288	117.3342218731297	46.99282925505208	-0.0073901241943729375	2.6901824218869605e+23	-0.3521262276535335	-0.02083462086412548	-9.696680176524904e+23	-0.05089333309243426	0.1834434609711469	3.601766833593716	373.42691	333.646057	1.796123	33.78146	9.7911	45.778111	0.0		True	0.0	None	0.0	None	0.0	None	0.0	None	0.0	None	0.0	None	0.0	None	0.0	None	1.8127e-06	12
2014-02-13 17:48:00	339.12361277968915	3981702993.2092	3.98953378167896e+22	7310866718686.759	66.46129422846941	3113991454807.6387	5.834175671091918e+21	-2.6937378788400014e+24	3434.790471658047	-0.5094177194885088	26.53024717393617	11.936885433340954	32.15447244820127	113.60812166790458	115.44123055581514	46.02105507325885	-0.007599050334835286	2.665713338816368e+23	-0.2201561160129097	-0.02211670800801879	-9.905849003109444e+23	-0.05041179472349806	0.1873313305054972	3.5141857676228985	373.42981	333.535675	1.801713	33.912224	9.790403	45.87950900000001	0.0		True	0.0	None	0.0	None	0.0	None	0.0	None	0.0	None	0.0	None	0.0	None	0.0	None	1.7606e-06	12
2014-02-13 18:00:00	340.89110557099093	4013053965.7790003	4.015927645381564e+22	7407596530546.081	66.02941402865967	3152017757534.0083	5.970847530713906e+21	-2.730679930755122e+24	3312.819013842344	-0.5123694894174852	26.740504343100252	11.71121822962314	32.0437661933383	111.86064890696652	113.28256894547584	45.29164180873935	-0.007233721957565695	2.7717830890069763e+23	-0.01623434946253513	-0.021758779521792743	-1.0218108738368176e+24	-0.05200818558393984	0.1917268698584632	3.5078065289538864	373.432678	333.425323	1.80822	34.027809000000005	9.770618	46.003613	66560.0		False	0.0	None	0.0	None	0.0	None	0.0	None	0.0	None	0.0	None	0.0	None	0.0	None	1.5747e-06	12
2014-02-13 18:12:00	333.34516794949	4032616172.3885	4.042096495735315e+22	7354216234509.545	66.0291031209811	3088466399334.5166	6.081294103747943e+21	-2.7505315230232446e+24	3195.4291632659674	-0.5135908063081015	27.08326422801941	12.356955380577428	32.546928478837145	109.85109735502891	111.01686769098538	43.69160468021997	-0.006932189304040011	2.757980780017993e+23	-0.060440914825259436	-0.021635653889434784	-1.0385097396347548e+24	-0.051498176288296886	0.1939149033825935	3.5589352732222093	373.435547	333.3149410000001	1.809408	34.156498	9.76302	46.099823	66560.0		False	0.0	None	0.0	None	0.0	None	0.0	None	0.0	None	0.0	None	0.0	None	0.0	None	1.6236000000000004e-06	12
2014-02-13 18:24:00	339.1541443841103	4061129562.770001	4.103408078085644e+22	7753328518303.893	58.875124434353104	2849235250408.5083	6.244320121283979e+21	-2.7746098645229706e+24	3079.650174950351	-0.514449288365421	27.26733218091125	12.199740855177913	32.385360931598875	109.31565278024011	110.42273892874498	43.363314267480376	-0.005868147556498864	2.84606180127985e+23	-0.042159240527739714	-0.01914521523509577	-1.0749583041825788e+24	-0.05276974204674914	0.19931145696561006	3.559165331183929	373.438446	333.20459	1.79512	34.274849	9.751568	46.220627	0.0		True	0.0	None	0.0	None	0.0	None	0.0	None	0.0	None	0.0	None	0.0	None	0.0	None	1.8331999999999999e-06	12
2014-02-13 18:36:00	332.3322816464613	4055957407.3514	4.081075144438647e+22	7473626136450.049	56.34148025434108	2722007711071.911	6.24661417840443e+21	-2.765471651962486e+24	3066.556851631211	-0.5134088096796399	27.079733743418608	12.104580381199481	32.21421224280749	109.11658932902832	110.18112226995804	43.62426660477225	-0.005622341109104988	2.846112589875938e+23	-0.06523244971240569	-0.018357291541630783	-1.0697429629928936e+24	-0.05283797705702405	0.1985973932886305	3.550685770617345	373.441254	333.094208	1.800568	34.389472999999995	9.739461	46.340675	0.0		True	0.0	None	0.0	None	0.0	None	0.0	None	0.0	None	0.0	None	0.0	None	0.0	None	2.5163e-06	12
2014-02-13 18:48:00	332.7038429913923	3999065960.6532	3.95219594426192e+22	7385495886370.223	64.98623197886774	3502225224392.6733	6.242630708021322e+21	-2.749823600755448e+24	2957.0267097249275	-0.5177661747325105	26.536583026317352	10.820747217806039	31.83061235196525	107.75610625346144	108.3303948148143	42.77838143987349	-0.0064579381873067394	2.843934383290563e+23	0.07527184033105783	-0.02141951509796557	-1.0732829083344734e+24	-0.05354863586239074	0.20208917608440632	3.612977214390503	373.444214	332.983856	1.805085	34.520828	9.734579	46.443287	0.0		True	0.0	None	0.0	None	0.0	None	0.0	None	0.0	None	0.0	None	0.0	None	0.0	None	2.5095e-06	12
2014-02-13 19:00:00	331.55735815820924	3963923882.677301	3.8474515858588655e+22	7279360122529.27	53.47188164132251	2215965973319.323	6.221597301750967e+21	-2.783201390031893e+24	2926.9360424014258	-0.5286969983787931	25.99056121078967	9.870680945645583	31.180943477573074	109.81495330642169	110.0598994776404	43.221473342159214	-0.005402291537817995	2.770168379793467e+23	-0.03874706900900213	-0.017648538366542604	-1.0666192550422904e+24	-0.05262212474620344	0.202615017574212	3.531112116082378	373.447021	332.8734740000001	1.789478	34.641857	9.721801	46.56731	0.0		True	0.0	None	0.0	None	0.0	None	0.0	None	0.0	None	0.0	None	0.0	None	0.0	None	3.0792e-06	12
2014-02-13 19:12:00	316.9866097454949	3948176550.1833	3.8273681713361655e+22	7038701166951.657	52.8723618863887	2347600118406.332	6.217194341313267e+21	-2.765492568450318e+24	2901.6901329738234	-0.5274283061642779	25.744022771032444	9.655658477648004	31.14811338307549	108.8647582192278	109.08065246850306	42.51231504333375	-0.005323435550381464	2.880161869084413e+23	-0.005660637910465693	-0.01753481982303162	-1.0729731818832807e+24	-0.05492977682964339	0.20463494797872966	3.6115032354974415	373.44989	332.763123	1.796311	34.758495	9.699575	46.66444	0.0		True	0.0	None	0.0	None	0.0	None	0.0	None	0.0	None	0.0	None	0.0	None	0.0	None	2.9783999999999997e-06	12
2014-02-13 19:24:00	313.71867333264686	3923915442.542101	3.844651608099977e+22	7025305038084.353	57.877325983542825	3077706347045.0254	6.167699159315226e+21	-2.722449353857922e+24	2936.673420006153	-0.5224294420596465	25.77694951669392	9.890444309190503	31.065899612238933	108.24446413408307	108.09599459286964	42.1744496055805	-0.005871102250308665	2.8684336141443644e+23	0.0849325871059702	-0.019376781379999847	-1.0639356513107572e+24	-0.05504433610487585	0.2041658949188492	3.6190101341758134	373.45282	332.652771	1.801349	34.891941	9.695526	46.785179	0.0		True	0.0	None	0.0	None	0.0	None	0.0	None	0.0	None	0.0	None	0.0	None	0.0	None	3.5583999999999997e-06	12
2014-02-13 19:36:00	315.3018936430975	3888462442.1769	3.7767513590430417e+22	7046587351512.269	54.55003685803204	2528665225914.2563	6.134199061355306e+21	-2.7114879584134266e+24	2917.661594834583	-0.5250700686402091	25.4695051477213	9.613214322355596	30.86489543201577	109.41076048146994	109.40178642720149	42.49099812257329	-0.005597171850813877	2.790670192119069e+23	-0.08221132398125224	-0.018399080543633938	-1.051223457264791e+24	-0.0540403428597756	0.20356571053525668	3.629304745684808	373.455658	332.542419	1.805794	35.011658000000004	9.682021	46.907642	0.0		True	0.0	None	0.0	None	0.0	None	0.0	None	0.0	None	0.0	None	0.0	None	0.0	None	3.8821e-06	12
2014-02-13 19:48:00	317.33595525768817	3851604292.9962	3.7561526805645937e+22	6967894923609.264	49.790898047535656	2625808483737.313	6.083028429649062e+21	-2.683443280509644e+24	2934.5662722741017	-0.5246121740705499	25.355815000935337	9.410666113301515	30.69903678097379	109.53271486775962	109.54296965937849	42.86519942817941	-0.005166102723338418	2.6929018731676813e+23	0.02160318151364081	-0.016958167075425117	-1.0493326120882152e+24	-0.052646132545527316	0.20514413960192865	3.6319044512714083	373.458588	332.432098	1.791802	35.153641	9.659444	47.005798	0.0		True	0.0	None	0.0	None	0.0	None	0.0	None	0.0	None	0.0	None	0.0	None	0.0	None	6.5458e-06	12
2014-02-13 20:00:00	316.81028075590064	3857471045.7896	3.7976026167358735e+22	6971999609958.3125	56.51538956519389	3046639323526.9062	6.058554604190085e+21	-2.664118441536416e+24	2967.256183134366	-0.5200417827287606	25.836578961263967	9.94085296254021	31.053150639267226	109.16983695466531	108.89705751631209	43.05121060590093	-0.0058644173046792465	2.7624674948569783e+23	-0.11455652434387985	-0.019276958853287254	-1.057948090623975e+24	-0.053923973437426435	0.20651379552227764	3.655414233316741	373.461517	332.321777	1.800876	35.27435300000001	9.636229	47.129276	0.0		True	0.0	None	0.0	None	0.0	None	0.0	None	0.0	None	0.0	None	0.0	None	0.0	None	6.6689e-06	6
2014-02-13 20:12:00	324.3766360307053	3847977832.1079	3.725884179122917e+22	7000942932671.768	51.76722661443021	2226568803740.2827	5.979406032705683e+21	-2.687123860023174e+24	2999.2972983573686	-0.5258267249138776	25.73414394237548	9.696386572589264	30.90769643985105	111.69867395938914	111.20256850233149	43.86886777799741	-0.005534234190125104	2.7323775314711545e+23	-0.0484944489982274	-0.017633848918179186	-1.0557820476529726e+24	-0.05346821372757087	0.2065994889924584	3.6508015026220586	373.464447	332.2114870000001	1.804354	35.418571	9.613971	47.226257	0.0		True	0.0	None	0.0	None	0.0	None	0.0	None	0.0	None	0.0	None	0.0	None	0.0	None	3.9281e-06	9
2014-02-13 20:24:00	328.67301405618724	3816412242.934	3.629222836629106e+22	7045742963755.521	57.62506629687072	2763624840067.42	5.850770630569178e+21	-2.6933223645111097e+24	3057.4599878796325	-0.5313987819052997	25.37502255779495	9.095994629671068	30.74174903076281	114.80859835277948	114.3691652066328	45.11038275525341	-0.006447199182912366	2.614215113192906e+23	-0.1155835485080735	-0.01971958886270304	-1.0458634964171952e+24	-0.051579073678441764	0.20635130623741665	3.6384202044434906	373.467438	332.101196	1.794037	35.567383	9.59173	47.350273	0.0		True	0.0	None	0.0	None	0.0	None	0.0	None	0.0	None	0.0	None	0.0	None	0.0	None	3.8536e-06	12
2014-02-13 20:36:00	326.4835673436627	3799721718.0311	3.65557834534311e+22	7001032992334.905	51.830774670954675	2446386960012.293	5.790464974080267e+21	-2.6667443203869594e+24	3129.024355654104	-0.5284659707300345	25.737664713618322	9.42366715925884	30.9066391058677	114.55223386380682	114.2167380465067	45.63620561149565	-0.005891869349886857	2.688350494321998e+23	-0.1003919916639473	-0.01784884549810051	-1.0268932282468542e+24	-0.05327476439279682	0.2034983716109789	3.6228830495066138	373.470367	331.990906	1.798328	35.71446599999999	9.595178	47.447437	0.0		True	0.0	None	0.0	None	0.0	None	0.0	None	0.0	None	0.0	None	0.0	None	0.0	None	2.5542e-06	12
2014-02-13 20:48:00	325.04074572771333	3776195300.1124	3.6908681979753885e+22	7034634285913.669	60.61605450224074	2625127874963.3657	5.751458791435355e+21	-2.604527527372144e+24	3153.4955738427543	-0.5193521857059207	25.819201889919356	9.168274140474301	31.229245352825266	112.82687618128813	112.91432865727668	45.26775737570885	-0.0068780272894860715	2.651132147021331e+23	-0.2618322302516121	-0.021130255968870044	-1.026350056241371e+24	-0.052864531500650416	0.2046579041328706	3.638286830163872	373.473297	331.880646	1.804204	35.85627	9.572063	47.567513	0.0		True	0.0	None	0.0	None	0.0	None	0.0	None	0.0	None	0.0	None	0.0	None	0.0	None	1.7801e-06	12
2014-02-13 21:00:00	336.32052601854167	3760495897.1551	3.721466369260011e+22	7276851589943.674	60.62069289613561	2476011803595.4355	5.691291016764745e+21	-2.5760693736607625e+24	3229.4750831555157	-0.5158220132289366	25.9906346512315	10.153278782989512	31.29240498977566	113.53517470114542	113.76795769306149	45.61082777673006	-0.006987170688812311	2.615037022199964e+23	-0.2570787814382981	-0.02126951381625768	-1.00767714768234e+24	-0.05236247421172989	0.20177331414939845	3.599164096170739	373.476379	331.770416	1.810938	35.99958	9.549861	47.666943	0.0		True	0.0	None	0.0	None	0.0	None	0.0	None	0.0	None	0.0	None	0.0	None	0.0	None	1.294e-06	12
2014-02-13 21:12:00	339.2842784012838	3728590614.1308	3.701448014236036e+22	7303596591453.44	63.16251259380005	2727913112810.812	5.62607756917637e+21	-2.548322049864397e+24	3255.246666711618	-0.5146323494590243	26.043291328536053	9.729035272132679	31.406511235733465	113.49817546143093	113.78287797389022	45.87384735276096	-0.007377074584653124	2.604491440449932e+23	-0.3902516822710893	-0.022368530973737068	-9.989494173514978e+23	-0.052597572948677764	0.2017373297341601	3.5665333989904773	373.47937	331.660217	1.813801	36.11965900000001	9.527107	47.787067	0.0		True	0.0	None	0.0	None	0.0	None	0.0	None	0.0	None	0.0	None	0.0	None	0.0	None	1.0017e-06	12
2014-02-13 21:24:00	331.5878401152412	3728266113.1740003	3.66718497926726e+22	7252096508021.77	65.37569696195743	3092947807989.71	5.689821722319854e+21	-2.580179998330979e+24	3188.985702282056	-0.5211114256156443	25.893434551048824	9.135004042037188	31.105258789322995	113.2533217419882	113.3818891548175	45.50315196278596	-0.007550028520840447	2.5632309602856003e+23	-0.4147162738805322	-0.02305570440848664	-9.89829461494015e+23	-0.05176882778568232	0.1999129681375604	3.5328837703425893	373.482422	331.550018	1.819929	36.264492	9.504311	47.884991	0.0		True	0.0	None	0.0	None	0.0	None	0.0	None	0.0	None	0.0	None	0.0	None	0.0	None	9.9151e-07	12
2014-02-13 21:36:00	335.8908509897359	3697462070.6448	3.6038060088685696e+22	7385527678174.918	56.35801216234556	2272984019035.7456	5.692242824108724e+21	-2.5844354186629487e+24	3120.5368183916858	-0.5263194186827261	25.953082824984552	9.970101195952164	31.111176629654583	112.78590768773192	113.44171384574226	45.21025162850993	-0.006480912162183252	2.54359012706094e+23	-0.2155111706986	-0.01997268740713291	-9.77333045121893e+23	-0.05180012885500656	0.1990335515654291	3.527269092521382	373.485504	331.43985	1.812602	36.38356	9.481459	47.9813	0.0		True	0.0	None	0.0	None	0.0	None	0.0	None	0.0	None	0.0	None	0.0	None	0.0	None	2.791e-06	12
2014-02-13 21:48:00	337.30131729978285	3665067387.602101	3.563878556537489e+22	7536471427438.946	55.42869710769677	2451010958193.2573	5.726023773511536e+21	-2.5801791122508056e+24	2995.038352506717	-0.530097055784183	26.401216396535354	11.004464285714283	31.410805307455693	110.19914138115186	111.00896139322869	44.241842882449035	-0.0061862385164840146	2.4901849097876955e+23	-0.29357160611742616	-0.019768045057971244	-9.730811715548294e+23	-0.05116077727972648	0.19991924654806587	3.5502893112686427	373.488556	331.32971200000014	1.817787	36.52692	9.46269	48.09993	0.0		True	0.0	None	0.0	None	0.0	None	0.0	None	0.0	None	0.0	None	0.0	None	0.0	None	2.0093e-06	12
2014-02-13 22:00:00	331.856337970975	3677780537.329301	3.5801989681637145e+22	7418784605504.558	61.65020897783826	3026259139288.91	5.742025927631511e+21	-2.5853325737427705e+24	3009.4255978485194	-0.52931976820992	26.35221809700802	10.939941951328423	31.30036515072863	110.30841494978131	111.35496492605853	43.97441920671913	-0.0068829082257271705	2.4257385484952688e+23	-0.18441226424807752	-0.021922660881757983	-9.70189221534062e+23	-0.04966445629734036	0.1986360822889115	3.572890054189568	373.49176	331.219604	1.823725	36.647083	9.458274	48.200535	0.0		True	0.0	None	0.0	None	0.0	None	0.0	None	0.0	None	0.0	None	0.0	None	0.0	None	1.6185e-06	12
2014-02-13 22:12:00	328.23999521197845	3703992591.8301	3.595206803236398e+22	7331538894283.706	60.54543883054512	2867802335524.464	5.833404124877663e+21	-2.626741196251961e+24	2949.6012499389235	-0.5339918897851363	26.276034830395712	10.448899542383963	31.177562405747718	110.19897427204675	110.98180567096571	43.803003417979404	-0.0065968009185601575	2.534829118743846e+23	-0.16577119288814413	-0.021311707850566186	-9.746167601066292e+23	-0.051530702504373437	0.19813046153469802	3.572120784900988	373.494843	331.1094970000001	1.830798	36.791538	9.452229	48.294559	0.0		True	0.0	None	0.0	None	0.0	None	0.0	None	0.0	None	0.0	None	0.0	None	0.0	None	1.5568e-06	12
2014-02-13 22:24:00	322.7736244977111	3720256488.8645	3.5634324005720863e+22	7380984531405.508	47.216108421034	1844471434581.808	5.90345840650642e+21	-2.660616675774442e+24	2848.427012486452	-0.5385138778721095	26.32689088412939	10.75371549893843	31.367787517836327	108.92656004312694	109.80470035076912	42.87226360109863	-0.005012325734716984	2.6254021329993827e+23	-0.193056708963306	-0.01649855406062154	-9.786593584425698e+23	-0.053138638740722666	0.1980825163690052	3.549832335253301	373.498047	330.999451	1.837062	36.915726	9.445544	48.415184	0.0		True	0.0	None	0.0	None	0.0	None	0.0	None	0.0	None	0.0	None	0.0	None	0.0	None	1.817e-06	12
2014-02-13 22:36:00	318.5420597426894	3684853909.0337	3.488037350008796e+22	7447254968335.635	47.2393745294365	2322996387137.972	5.930639969386797e+21	-2.664438968691353e+24	2735.597270779079	-0.5444688112919571	26.20553112935319	10.853036142068534	30.98476873409751	107.29216820793141	108.18422272294686	42.25784417773218	-0.0049207681801496355	2.5821324547874485e+23	-0.10159621716766834	-0.01660146314112141	-9.716082836439672e+23	-0.05276497622112969	0.19854476437749846	3.6075336374342752	373.501251	330.889404	1.839898	37.057671	9.438837	48.510098	0.0		True	0.0	None	0.0	None	0.0	None	0.0	None	0.0	None	0.0	None	0.0	None	0.0	None	1.5877e-06	12
2014-02-13 22:48:00	317.511091025788	3692638482.889701	3.4278941263502946e+22	7322342888806.423	49.740111731214704	2412257741372.412	6.030461358562652e+21	-2.7035553827068464e+24	2617.013241000382	-0.5512975119072624	25.707995584108357	9.723207948899928	30.53912995018375	106.00948085865423	106.74523713142729	41.27221660029445	-0.005043101665944915	2.5509518862069882e+23	-0.11238757739748406	-0.017366202659605378	-9.684806994263938e+23	-0.05201792561219905	0.19748846402007314	3.57360228735734	373.504456	330.779419	1.841411	37.205132	9.433399	48.610699	0.0		True	0.0	None	0.0	None	0.0	None	0.0	None	0.0	None	0.0	None	0.0	None	0.0	None	1.7822e-06	12
2014-02-13 23:00:00	309.6472623017396	3649964494.043101	3.421555765135916e+22	7249604593751.395	47.89868980238265	2545559994287.2617	5.976098045302341e+21	-2.6576600230459085e+24	2596.641184981567	-0.5482748505144963	26.28197925447516	10.663172747429952	31.01311321572843	104.1652692456556	105.18291045253824	40.44091148431737	-0.004827523664823892	2.552223715287277e+23	-0.06784943487314077	-0.016951843356809278	-9.690667839732483e+23	-0.0526523356578522	0.19991832721800265	3.539681812887832	373.507751	330.669434	1.842615	37.335331	9.428727	48.708244	0.0		True	0.0	None	0.0	None	0.0	None	0.0	None	0.0	None	0.0	None	0.0	None	0.0	None	1.5897e-06	12
2014-02-13 23:12:00	298.3119022971378	3653582570.5446	3.3478684832283465e+22	6928647490365.272	47.922765847127344	2466983034769.5967	6.028905787057169e+21	-2.690479023225836e+24	2527.219921925349	-0.5544957673541839	25.492468921346397	9.132832080200501	30.753777293168394	103.72276584366541	104.46374991756987	39.800360353039615	-0.004804287302970159	2.427225703668072e+23	-0.13071629085107175	-0.016875762326559626	-9.715715393617252e+23	-0.050024042836934415	0.2002365755715632	3.535832799172697	373.511047	330.559509	1.848055	37.480488	9.420959	48.82535900000001	4096.0		True	0.0	None	0.0	None	0.0	None	0.0	None	0.0	None	0.0	None	0.0	None	0.0	None	1.3980000000000002e-06	12
2014-02-13 23:24:00	300.88936201184094	3636211193.8569	3.40085444994286e+22	6989312324445.053	44.78798729001298	1936262029999.584	6.024359269889804e+21	-2.644448286228626e+24	2533.1872714324645	-0.5476125939626221	25.706398894282174	9.545949154219013	30.913246803158625	101.86443951441215	102.5575599982962	39.73563498574717	-0.004430506211298147	2.538780968972573e+23	-0.08815793592391233	-0.015917695308471223	-9.787355821051852e+23	-0.05257309962013807	0.20267665422359485	3.5302593301070733	373.514313	330.449554	1.850712	37.628506	9.411278	48.9221	0.0		True	0.0	None	0.0	None	0.0	None	0.0	None	0.0	None	0.0	None	0.0	None	0.0	None	1.5034e-06	12
2014-02-13 23:36:00	298.4387409044632	3628123845.1886	3.4002257832213712e+22	6815734399977.919	42.584722911116735	1707814902724.02	5.985143750748669e+21	-2.6428161589949423e+24	2572.158052785885	-0.5484946324916188	25.63019445810159	9.553948161543095	30.67139536806256	102.58103391599907	103.23848761280944	39.422688392839646	-0.004278151789342649	2.579332070512831e+23	-0.124590820552393	-0.015159749110455171	-9.696164170870852e+23	-0.053531903506591545	0.2012358667241821	3.4720482028562194	373.517731	330.339691	1.85732	37.775047	9.407841	49.014248	0.0		True	0.0	None	0.0	None	0.0	None	0.0	None	0.0	None	0.0	None	0.0	None	0.0	None	1.8105e-06	12
2014-02-13 23:48:00	282.98207421272235	3587483903.1382008	3.307406489649757e+22	6419034692182.048	39.894828389645575	1523721165323.27	5.930033896914263e+21	-2.6254390377727204e+24	2539.963493474544	-0.5510607460114486	25.08898201799014	8.495665476797551	30.299921312680674	101.48753477788284	101.91004398660358	38.61435723871202	-0.004068824925002098	2.614837685757332e+23	0.02504922072644512	-0.014339295970735428	-9.6968784304706e+23	-0.05488355985727612	0.2035304947095876	3.493260360736325	373.521118	330.2298580000001	1.861442	37.892597	9.408133	49.11129	0.0		True	0.0	None	0.0	None	0.0	None	0.0	None	0.0	None	0.0	None	0.0	None	0.0	None	1.6344e-06	12
2014-02-14 00:00:00	275.48474365417565	3563346096.8600006	3.2593072319641353e+22	6340117104626.112	36.66283951311895	1108982308665.404	5.933680685586647e+21	-2.612939900863636e+24	2484.7787820385697	-0.5521523159338235	25.02854507232993	8.443859471499444	30.299361347504128	101.0365425574312	101.53198891777399	38.439385873906076	-0.003711940823440209	2.51211072731198e+23	-0.04074625453218196	-0.01325756454254919	-9.589287018564604e+23	-0.053084564077002086	0.20263562256845488	3.4933196357094918	373.524536	330.120026	1.867912	38.012817	9.398972	49.208866	0.0		True	0.0	None	0.0	None	0.0	None	0.0	None	0.0	None	0.0	None	0.0	None	0.0	None	1.1865e-06	12
2014-02-14 00:12:00	275.96068239208165	3542015237.4158	3.186383494021151e+22	6300700543624.76	39.47478938378833	1517641140938.7378	5.927258730905146e+21	-2.626944230345432e+24	2447.022463447216	-0.5584546843648698	24.49803990560865	7.669556348801631	29.85109802991021	102.156934735268	102.69137191576435	38.58317138629178	-0.00402598565872395	2.51523806753583e+23	0.0389221629966976	-0.01430227793335705	-9.522031907047602e+23	-0.05347073854413429	0.202426197775171	3.4867083020793728	373.528015	330.0102540000001	1.869297	38.144318	9.401199	49.303783	0.0		True	0.0	None	0.0	None	0.0	None	0.0	None	0.0	None	0.0	None	0.0	None	0.0	None	1.44e-06	12
2014-02-14 00:24:00	274.2140309157909	3500874246.2048	3.112543227728612e+22	6185323002689.343	42.17925550516577	1894134543261.8364	5.891801625388327e+21	-2.619015071440576e+24	2410.7227591010856	-0.5633119699154809	24.36237242999734	7.2413083727628065	29.73612494695929	101.8923199248162	102.02933998695892	38.567159367420224	-0.004338536875659924	2.5011267539734757e+23	0.06506288014873067	-0.015413694302478359	-9.410483215883116e+23	-0.0537955911041835	0.20240577826380668	3.4044574871283837	373.531464	329.900513	1.872818	38.259521	9.395693	49.400806	67584.0		False	0.0	None	0.0	None	0.0	None	0.0	None	0.0	None	0.0	None	0.0	None	0.0	None	1.3631e-06	12
2014-02-14 00:36:00	271.8025809291049	3513422736.7277	3.1279640474689347e+22	6174944738684.041	43.91647478626764	2008923866369.2632	5.919998136942248e+21	-2.621966899219793e+24	2412.739941292251	-0.5619327728263956	24.22966566880497	7.385781602130711	29.633561228547954	101.4063494971031	101.66741834583277	38.551817644234006	-0.0044987169418426185	2.486653555147165e+23	-0.03521551059116732	-0.01600533329724592	-9.472925532245978e+23	-0.05329327871066026	0.20302114846289346	3.3218935928538444	373.535004	329.790802	1.874262	38.375744	9.398515	49.495625	0.0		True	0.0	None	0.0	None	0.0	None	0.0	None	0.0	None	0.0	None	0.0	None	0.0	None	1.0079000000000001e-06	12
2014-02-14 00:48:00	279.7189818852384	3528806972.0646	3.1119524476017183e+22	6289443682112.855	36.87484585780229	1703008989215.231	5.997182907611606e+21	-2.6455851639693173e+24	2348.191200682619	-0.5645226485726667	24.123490318956538	6.94458362561379	29.68981781641677	100.55042294635162	100.9462765000656	38.102050577589075	-0.00369524459943905	2.542332962666684e+23	0.02163785064247209	-0.013358277216566964	-9.548589936582231e+23	-0.054249039387750206	0.2037505862425613	3.2014298453076546	373.538574	329.681122	1.87848	38.491394	9.395638	49.618969	0.0		True	0.0	None	0.0	None	0.0	None	0.0	None	0.0	None	0.0	None	0.0	None	0.0	None	9.728e-07	12
2014-02-14 01:00:00	266.4438729181996	3492194846.996201	3.0699974043171312e+22	6007778917392.362	43.153025993913424	2199256425709.791	5.913462539427738e+21	-2.624050368045541e+24	2373.8638367109743	-0.5657978153205693	23.885792072465893	7.445060587389609	29.358518882897066	100.57379601485071	100.84091951872652	38.38686699926672	-0.004431405421432885	2.4369209116835432e+23	-0.0002855703397863266	-0.015783637594986716	-9.407235628727348e+23	-0.05254489565939723	0.2028388415007505	3.2456237665107945	373.542114	329.571472	1.882036	38.607006	9.390811	49.716362	0.0		True	0.0	None	0.0	None	0.0	None	0.0	None	0.0	None	0.0	None	0.0	None	0.0	None	1.2803e-06	12
