Timestamp	TOTUSJH	TOTBSQ	TOTPOT	TOTUSJZ	ABSNJZH	SAVNCPP	USFLUX	TOTFZ	MEANPOT	EPSZ	MEANSHR	SHRGT45	MEANGAM	MEANGBT	MEANGBZ	MEANGBH	MEANJZH	TOTFY	MEANJZD	MEANALP	TOTFX	EPSY	EPSX	R_VALUE	CRVAL1	CRLN_OBS	LAT_MIN	LON_MIN	LAT_MAX	LON_MAX	QUALITY	NOAA_AR	IS_TMFI	BFLARE	BFLARE_label	CFLARE	CFLARE_label	MFLARE	MFLARE_label	XFLARE	XFLARE_label	BFLARE_loc	BFLARE_label_loc	CFLARE_loc	CFLARE_label_loc	MFLARE_loc	MFLARE_label_loc	XFLARE_loc	XFLARE_label_loc	XR_MAX	XR_QUAL
2014-01-16 03:24:00	651.8357803077895	10573219035.4759	1.8692189115958334e+23	13843626558324.467	171.27720810011283	4205758249648.424	8.523762990782597e+21	-2.36742127374882e+24	10391.269795830025	-0.16859930523303146	41.9902393580308	43.38870431893688	52.00339898110703	103.14990064730034	105.48877089904629	61.030834251032715	0.012645050431902016	-5.406371993389916e+23	0.477597580638128	0.02772405283662118	-6.279627216283708e+23	0.03850225441598229	0.044721266870739435	3.6803072401460257	365.336945	350.090393	-24.10133	-0.886048	-11.555127	27.312057	0.0	11949.0	True	0.0	None	0.0	None	0.0	None	0.0	None	0.0	None	0.0	None	0.0	None	0.0	None	4.869700000000001e-07	12
2014-01-16 03:36:00	645.2104829176135	10525814082.6193	1.8567868001915408e+23	14093558022186.404	168.05864535493143	4258960004960.7593	8.536214106837972e+21	-2.392081671633808e+24	10242.758371578177	-0.17112278815476456	42.03542108301525	42.84249084249085	51.89040268612853	103.65403438067123	105.44230626860224	61.30067863636725	0.012311988670690948	-5.331099105837959e+23	0.6128867609997107	0.02726670928096074	-6.51912866936841e+23	0.038137182092836966	0.046636011114120524	3.5482650822189647	365.339539	349.981201	-24.134241	-0.792914	-11.559874	27.416506	0.0	11949.0	True	0.0	None	0.0	None	0.0	None	0.0	None	0.0	None	0.0	None	0.0	None	0.0	None	5.094700000000001e-07	12
2014-01-16 03:48:00	634.3070137208956	10552197233.5357	1.8637244033808555e+23	13610739702494.605	172.26554291122218	3802119766900.665	8.607308744359406e+21	-2.4067956129604032e+24	10209.22642777132	-0.17174487840023642	41.75659130003015	42.57965953731995	51.52383210558302	102.32528512507595	104.69649905422231	60.12240880063186	0.012532048807742049	-5.4677939848966165e+23	0.5209760466636052	0.0278645766290219	-6.59717764788412e+23	0.039017256305305684	0.04707634777208882	3.445180163638613	365.342163	349.87207	-24.1644	-0.699693	-11.559138	27.520769	0.0	11949.0	True	0.0	None	0.0	None	0.0	None	0.0	None	0.0	None	0.0	None	0.0	None	0.0	None	4.8993e-07	12
2014-01-16 04:00:00	629.8444571409439	10490051203.6257	1.8532244180593757e+23	13361629063794.154	170.8475189732047	4202845955010.165	8.521440988967275e+21	-2.3904795936738447e+24	10319.115099504565	-0.17159116523735954	41.83509846734035	42.793758781335505	51.65343496338393	101.6215085482068	103.48295634353524	59.96165146471408	0.012634781761071192	-5.565575799314384e+23	0.610465558964468	0.027802572368265936	-7.027335809736695e+23	0.0399502944575859	0.05044296313166794	3.515483066450624	365.344879	349.76297	-24.163792	-0.606233	-11.572308	27.625164	0.0	11949.0	True	0.0	None	0.0	None	0.0	None	0.0	None	0.0	None	0.0	None	0.0	None	0.0	None	4.927399999999999e-07	12
2014-01-16 04:12:00	634.3052535377391	10508435947.191	1.8566633387573477e+23	13524396775291.77	180.51956353849303	4191705622752.277	8.611614293636462e+21	-2.3805468224319245e+24	10174.248923478715	-0.17057924310543635	41.435750570849606	41.663634378866156	51.40006469496958	102.72033753351984	104.47564148350278	60.360802291047506	0.01313729448646336	-5.539930009651494e+23	0.5586517683194652	0.029350490954214256	-7.246676243196427e+23	0.03969663856214566	0.05192641190446246	3.574200958572751	365.347565	349.65387000000015	-24.162279	-0.513742	-11.570688	27.728849	0.0	11949.0	True	0.0	None	0.0	None	0.0	None	0.0	None	0.0	None	0.0	None	0.0	None	0.0	None	4.7265e-07	12
2014-01-16 04:24:00	633.4539321843231	10498916523.309	1.856521175532535e+23	13370856599040.738	175.1564413775646	4396303242223.09	8.610262989846325e+21	-2.3816317489646032e+24	10172.729733623957	-0.1708117223956348	41.58718817181335	41.76975694949789	51.29400028931154	102.51433178554402	104.3144372410522	59.82743517024394	0.012746066175052	-5.610515395735964e+23	0.6283637190364701	0.0284986681388506	-7.232838216832715e+23	0.040238873985851034	0.05187424773637958	3.6810911285345216	365.350281	349.54483	-24.160753	-0.419368	-11.568983	27.834909000000003	0.0	11949.0	True	0.0	None	0.0	None	0.0	None	0.0	None	0.0	None	0.0	None	0.0	None	0.0	None	4.7131999999999996e-07	12
2014-01-16 04:36:00	646.8735943332117	10527046102.0223	1.871878098897457e+23	13966083549443.178	169.26646763130998	4155986180074.5186	8.674434729487502e+21	-2.3373029510717704e+24	10077.933199749814	-0.1671844646091749	41.637952759576095	41.88474188474189	51.479171173705595	102.84445786631056	103.80633726851102	60.02043222002465	0.012102564538203202	-5.640827883486461e+23	0.5836408217864328	0.02755211252831813	-7.546930180589214e+23	0.04034816236469259	0.053982282489570516	3.6936930206092575	365.352997	349.435791	-24.160557	-0.326315	-11.568571	27.939718	0.0	11949.0	True	0.0	None	0.0	None	0.0	None	0.0	None	0.0	None	0.0	None	0.0	None	0.0	None	4.645e-07	12
2014-01-16 04:48:00	642.1683632184461	10508304587.7846	1.8448307724066365e+23	13486567855630.805	168.67273593790762	4557082678069.663	8.742431251355901e+21	-2.45961062954044e+24	10057.44075734354	-0.17624679462471285	40.791796468662135	40.73269620619751	50.813017991557714	103.262719709832	104.48296290421035	60.48246245305411	0.012212042856784507	-5.751849343603698e+23	0.6480188746680318	0.027292528948311728	-7.669673646025012e+23	0.04121567039104157	0.05495810514455731	3.646388971590085	365.355743	349.326752	-24.186243	-0.234099	-11.569331	28.043962	0.0	11949.0	True	0.0	None	0.0	None	0.0	None	0.0	None	0.0	None	0.0	None	0.0	None	0.0	None	4.6057e-07	12
2014-01-16 05:00:00	645.9187844685138	10484702909.3975	1.8376863636460783e+23	13704338230169.465	163.96409356130638	4316951414268.777	8.768585123064778e+21	-2.475335084395202e+24	9868.450859715507	-0.17777284443883287	40.87128772070047	40.721723006703755	50.85876243424228	103.73622071155584	104.66775643027547	60.0273661607302	0.011693345711118698	-5.746283109674191e+23	0.6046681162780452	0.026555903539132567	-7.992116309408836e+23	0.04126847713658911	0.05739753209035677	3.629949349954149	365.358582	349.217773	-24.215113	-0.109522	-11.566761	28.14916	0.0	11949.0	True	0.0	None	0.0	None	0.0	None	0.0	None	0.0	None	0.0	None	0.0	None	0.0	None	5.2638e-07	12
2014-01-16 05:12:00	639.0050920649211	10446507395.5689	1.833614778725273e+23	13583483984350.42	152.25208647449563	4698148944097.852	8.728689493931849e+21	-2.4505372528920887e+24	9897.405408050097	-0.17663536483247874	40.97062348236043	41.08243727598565	50.89842928018368	104.0005666318874	105.35835445874277	59.93887946874636	0.010914910493547607	-5.832780427936696e+23	0.6614473344159177	0.024773093123827642	-8.1471395944504e+23	0.04204283357294094	0.05872479485502643	3.496506179868528	365.361328	349.108765	-24.213451	-0.016872	-11.565025	28.253584000000004	0.0	11949.0	True	0.0	None	0.0	None	0.0	None	0.0	None	0.0	None	0.0	None	0.0	None	0.0	None	5.221200000000001e-07	12
2014-01-16 05:24:00	661.5119966008333	10485245156.9476	1.8373537639644e+23	13994152063305.062	153.47446672603138	4216278553329.121	8.858525637110097e+21	-2.498108359484754e+24	9833.701268631068	-0.17939905074074566	40.811072844977524	40.51460658184661	50.356859566674395	105.21605552573051	106.59428404933048	60.439389404921435	0.010908697613620823	-5.873795206042621e+23	0.5885753601534971	0.024821428132910904	-8.369895955173134e+23	0.04218204867730118	0.060107536306654386	3.610438061055696	365.364075	348.999786	-24.21319	0.07760800000000001	-11.565285	28.360437	0.0	11949.0	True	0.0	None	0.0	None	0.0	None	0.0	None	0.0	None	0.0	None	0.0	None	0.0	None	4.6939999999999995e-07	12
2014-01-16 05:36:00	647.2647824818152	10425077355.7292	1.820195038505303e+23	13688003438268.793	147.79221435423366	3912472384211.103	8.853229910962237e+21	-2.528984333825157e+24	9640.454882128068	-0.18266461106515225	40.954382813318965	40.59224871632552	50.284549529929045	104.02491792633694	105.35787573863449	58.86600997643411	0.010396188404208896	-5.713817903877037e+23	0.540471989633901	0.023974009001289327	-8.533875590828657e+23	0.04127001939668638	0.06163885813081845	3.6423355106288513	365.366943	348.890839	-24.212688	0.170262	-11.56592	28.465416	0.0	11949.0	True	0.0	None	0.0	None	0.0	None	0.0	None	0.0	None	0.0	None	0.0	None	0.0	None	4.5479e-07	12
2014-01-16 05:48:00	639.0451475724774	10366329524.986	1.8109398698888802e+23	13628759879124.404	154.116230538612	4152366648267.7783	8.807277290031875e+21	-2.503523851692544e+24	9631.405659192309	-0.18185040642027486	40.62132165336649	40.50007063144512	50.27484594140365	103.80072795263027	104.98813264821979	59.0813022911033	0.010885452079291707	-5.94636950796214e+23	0.5759938422962818	0.025158854005147703	-8.494594762973769e+23	0.043193106030005805	0.06170284772713356	3.6405512653321033	365.369751	348.78186	-24.24649800000001	0.26315900000000003	-11.566899	28.57072800000001	0.0	11949.0	True	0.0	None	0.0	None	0.0	None	0.0	None	0.0	None	0.0	None	0.0	None	0.0	None	1.1423999999999999e-06	12
2014-01-16 06:00:00	622.178356038668	10273039803.8438	1.7946564517679007e+23	13294209756069.967	145.99950274948785	4115423134211.206	8.782414463163483e+21	-2.471530431232316e+24	9503.855868232313	-0.18115676735737649	40.788150147533024	40.53027639074478	50.10770983645578	103.05385929679173	103.94816174387823	58.52179332415162	0.010269360817998724	-5.914290616139908e+23	0.5684132168862732	0.024072266709879855	-8.415797956854231e+23	0.043350215546314776	0.061685615249995725	3.5291900268953795	365.372559	348.672913	-24.277018	0.35620300000000005	-11.57107	28.676041	66560.0	11949.0	False	0.0	None	0.0	None	0.0	None	0.0	None	0.0	None	0.0	None	0.0	None	0.0	None	1.1312999999999999e-06	12
2014-01-16 06:12:00	644.8843018596483	10350602616.0421	1.802575004260712e+23	14104156839455.955	157.9477634424706	4542398526046.441	8.977686533597171e+21	-2.540188493507229e+24	9236.581197697344	-0.1847939749850522	40.55550080306062	39.91833957128275	49.7993219620077	102.2826326988138	102.92239611280641	58.564095344375495	0.010748401731369216	-5.9760589509916e+23	0.6070569355142705	0.02575935616454253	-8.460927973127958e+23	0.043474714223824436	0.061551672886202974	3.5802317096608856	365.375366	348.563965	-24.277098	0.448476	-11.588621	28.780487	66560.0	11949.0	False	0.0	None	0.0	None	0.0	None	0.0	None	0.0	None	0.0	None	0.0	None	0.0	None	1.0072e-06	12
2014-01-16 06:24:00	646.4852219719318	10344951690.3678	1.812594272385723e+23	14161680525219.234	144.7652797756744	4690861133388.158	8.983160245545433e+21	-2.503119606147205e+24	9283.498454559383	-0.18219674736916905	40.520312964515256	40.171405250986254	49.85636555699174	102.79604390027708	103.3163426246402	58.6033969449572	0.009846638537319707	-5.970305302359484e+23	0.6265929967599021	0.02367424744839704	-8.711950906886177e+23	0.043456581308357625	0.06341243600890871	3.5762569938322057	365.378235	348.455048	-24.303499	0.5424	-11.588166	28.886681	0.0	11949.0	True	0.0	None	0.0	None	0.0	None	0.0	None	0.0	None	0.0	None	0.0	None	0.0	None	8.9979e-07	12
2014-01-16 06:36:00	648.8543896477048	10369585916.5911	1.810494922972136e+23	14273131730166.555	142.21822079808152	4501736337339.424	9.027374987838582e+21	-2.585615867704799e+24	9257.007139299467	-0.18775441764736686	40.53481530687369	40.04888979425545	49.74939936355028	102.6533054876667	103.30230001266487	58.378633928770455	0.009657627380013684	-6.045309929459601e+23	0.6003041456341514	0.023093993750195344	-8.56876915295454e+23	0.04389799967893452	0.06222209116065736	3.4363181383619184	365.381104	348.3461	-24.302752	0.635437	-11.587321	28.992342	0.0	11949.0	True	0.0	None	0.0	None	0.0	None	0.0	None	0.0	None	0.0	None	0.0	None	0.0	None	7.2801e-07	12
2014-01-16 06:48:00	658.4113517942262	10472012824.3444	1.8192594112815577e+23	14338855978875.408	149.06312008569515	5628719035742.722	9.186775439911107e+21	-2.636797147498918e+24	9138.61597199004	-0.1895981017714711	40.10759930242812	39.28619079386257	49.50161022427826	102.86149416670143	104.28887288899872	57.953471984508454	0.009944170786237166	-5.765312706900977e+23	0.73741162290142	0.02393149198396528	-8.475039914616085e+23	0.041455306730144116	0.0609395183005567	3.50525055439866	365.383911	348.237152	-24.30377	0.7275189999999999	-11.586273	29.096922	0.0	11949.0	True	0.0	None	0.0	None	0.0	None	0.0	None	0.0	None	0.0	None	0.0	None	0.0	None	7.125399999999998e-07	12
2014-01-16 07:00:00	662.9406049236167	10489658042.8682	1.8172148959477625e+23	14183924472534.898	146.89901785144795	5082329978156.138	9.224310819816896e+21	-2.6759251707922507e+24	9132.613930705103	-0.1920879953610436	39.99819590516034	38.59040245611693	49.1928992996471	103.19339700233371	105.05162242177204	57.88519919107765	0.009805033897440123	-5.875822101762293e+23	0.666136763814618	0.023495259083617395	-8.510207978936765e+23	0.042178865872077816	0.061089480700820174	3.427070973395602	365.386719	348.128204	-24.302299	0.852032	-11.586758	29.203348	0.0	11949.0	True	0.0	None	0.0	None	0.0	None	0.0	None	0.0	None	0.0	None	0.0	None	0.0	None	5.905899999999999e-07	12
2014-01-16 07:12:00	689.7180006060031	10573215541.7572	1.8159487178597954e+23	14845805885548.414	140.82414986149837	5333318765977.182	9.387396424666411e+21	-2.7974339213485767e+24	9022.670275017834	-0.19922333166605669	39.35320612185889	37.466182777961066	48.528685827551136	104.42812596137951	106.27072102059664	57.79047706965354	0.0092934831295122	-5.832352171153948e+23	0.6910960708693811	0.02221262982001269	-8.542664284833072e+23	0.04153594557210862	0.0608378280945643	3.6313070110966654	365.389557	348.019257	-24.300774	0.944192	-11.585196	29.307972	0.0	11949.0	True	0.0	None	0.0	None	0.0	None	0.0	None	0.0	None	0.0	None	0.0	None	0.0	None	5.6555e-07	12
2014-01-16 07:24:00	692.7654439982326	10620799183.7545	1.809443819399648e+23	15102703795723.262	132.1127583405125	6455515246103.8125	9.463080210028816e+21	-2.8697153540145606e+24	8923.22812418298	-0.20345534869354592	39.33561696778418	36.99652891479468	48.422286236875685	104.47908063904751	106.40275216609687	57.677814030387104	0.008652918413709227	-5.783017226180959e+23	0.8302623518353911	0.020672241997199338	-8.509684395197843e+23	0.0410000868067788	0.06033144728012695	3.47146548727612	365.392395	347.910309	-24.361946	1.067819	-11.588844	29.408722	0.0	11949.0	True	0.0	None	0.0	None	0.0	None	0.0	None	0.0	None	0.0	None	0.0	None	0.0	None	5.2838e-07	12
2014-01-16 07:36:00	703.4677245295959	10701544603.6922	1.827588141557236e+23	15459558046287.305	143.44607232340582	5335821173774.929	9.508611627357926e+21	-2.8874984738217875e+24	9006.21821962283	-0.20317149948001434	39.291424451344454	37.212041884816756	48.38924246010438	105.50228153637434	107.28249116456787	57.97050045026039	0.009387831958338077	-5.5034741956201397e+23	0.6857591901401897	0.022281511843852887	-8.467191909035125e+23	0.03872379898416944	0.059577246261425576	3.565515350295565	365.395172	347.801331	-24.391117	1.161576	-11.609648	29.515163	0.0	11949.0	True	0.0	None	0.0	None	0.0	None	0.0	None	0.0	None	0.0	None	0.0	None	0.0	None	5.111e-07	12
2014-01-16 07:48:00	715.5087128451194	10754101282.9224	1.833667937331549e+23	15918254900789.705	137.09675705245226	6140745021548.875	9.595968729562697e+21	-2.929990726791703e+24	8854.795064839069	-0.2051538282675034	39.60255027041738	37.57455268389662	48.563671026913006	105.78259372564429	107.81707001252369	57.683244063965425	0.008792762766319413	-5.5671702477280754e+23	0.7733647074435888	0.02115665253330172	-8.531878693158594e+23	0.03898054278789378	0.05973901419585838	3.439437058454548	365.39801	347.692352	-24.38924200000001	1.25578	-11.609156	29.612236	0.0	11949.0	True	0.0	None	0.0	None	0.0	None	0.0	None	0.0	None	0.0	None	0.0	None	0.0	None	4.988899999999999e-07	12
2014-01-16 08:00:00	702.389661193207	10713991317.6512	1.831975564701671e+23	15810143402899.91	149.91573114358306	6206156290945.6	9.46589311482058e+21	-2.8902338540104754e+24	8968.558243669933	-0.20312773318822389	40.147609956548905	38.118457837591826	48.98812302925354	104.79695071889981	106.77752628103501	57.624005051593855	0.009747446758360407	-5.553041854624037e+23	0.7923752139979715	0.023273332735978727	-8.286051615941184e+23	0.039027181231855536	0.05823497221483491	3.503752287456535	365.400787	347.58337400000005	-24.388233	1.378135	-11.60881	29.717051	0.0	11949.0	True	0.0	None	0.0	None	0.0	None	0.0	None	0.0	None	0.0	None	0.0	None	0.0	None	4.852199999999999e-07	12
2014-01-16 08:12:00	716.1689255082052	10740000215.2685	1.8334050728618125e+23	15959648552386.045	151.1786363101029	5336639298795.497	9.494270534486535e+21	-2.9218860719773855e+24	8981.978675748625	-0.20485494254758696	40.17441880169631	38.69876382563435	49.14513055468128	105.57514866357315	108.06865855795769	57.54463039155569	0.009835955517898691	-5.7113873024174014e+23	0.6818470183664812	0.02336583822815976	-8.083844197025946e+23	0.040042831543802566	0.05667624944133042	3.5953541543154426	365.403564	347.474365	-24.415277	1.471649	-11.607327	29.817774	0.0	11949.0	True	0.0	None	0.0	None	0.0	None	0.0	None	0.0	None	0.0	None	0.0	None	0.0	None	5.4366e-07	12
2014-01-16 08:24:00	710.4208509126089	10701529017.5259	1.8359605753312762e+23	15833976672171.654	171.2173329007131	5199405565300.184	9.407067614823912e+21	-2.855036301956519e+24	9080.75771561058	-0.20088768490070555	40.5778173712224	39.1684182869154	49.46767832015	104.80185327257006	107.35453726967914	58.11569039124794	0.011246540521591769	-5.796415572024243e+23	0.6706852460514764	0.026645845089942527	-8.449637554123646e+23	0.04078506827350607	0.0594538193904832	3.6169870379768776	365.406281	347.365326	-24.412693	1.596167	-11.631124	29.919926	0.0	11949.0	True	0.0	None	0.0	None	0.0	None	0.0	None	0.0	None	0.0	None	0.0	None	0.0	None	5.5719e-07	12
2014-01-16 08:36:00	714.647375399026	10628662611.1878	1.8189685136790624e+23	15369286387927.16	191.6408375867704	6411908075498.258	9.261314591032374e+21	-2.8582860015686835e+24	9370.319739767156	-0.20249510854411026	40.48290271132915	39.22145447082165	49.08115746243186	106.1031199995279	108.77092790981457	58.696617622428505	0.013110818744391487	-5.787365327411273e+23	0.4834376996081896	0.029988594804182124	-8.302995477471792e+23	0.041000556610339085	0.0588225240416518	3.587192531883065	365.409027	347.256287	-24.412315	1.690032	-11.632149	30.026411	0.0	11949.0	True	0.0	None	0.0	None	0.0	None	0.0	None	0.0	None	0.0	None	0.0	None	0.0	None	4.6089e-07	12
2014-01-16 08:48:00	704.842310938146	10620279508.7841	1.832829727955193e+23	15441479937908.402	183.12071677817696	6080594317405.478	9.201783202589552e+21	-2.78364748351622e+24	9506.11138921591	-0.1973630553812302	40.818823834989054	40.08127841300455	49.46913948941948	106.13203348005152	108.05687115584655	59.92729255631832	0.012614225857834057	-5.782398656416306e+23	0.5241822874653439	0.028801591388053414	-8.2340139745263e+23	0.04099771515684423	0.05837988343306647	3.6664870944819454	365.411713	347.147217	-24.411959	1.813357	-11.633161	30.133274	0.0	11949.0	True	0.0	None	0.0	None	0.0	None	0.0	None	0.0	None	0.0	None	0.0	None	0.0	None	4.479600000000001e-07	12
2014-01-16 09:00:00	699.5389070033432	10574669034.678	1.7989204886018126e+23	14988052305162.975	175.87357918653268	4676479323625.07	9.24458794823917e+21	-2.8774378083180703e+24	9316.119263437142	-0.20489277292669195	40.366417487064645	39.11966987620358	49.21840021863657	105.68783355613913	108.36678348062134	58.70143742951421	0.012095844510765659	-5.809471379629893e+23	0.3353028882800365	0.027606758393436855	-8.483792735932959e+23	0.0413673128492877	0.06041026546518787	3.6795809439451066	365.414429	347.038116	-24.410017	1.906378	-11.658256	30.23865300000001	0.0	11949.0	True	0.0	None	0.0	None	0.0	None	0.0	None	0.0	None	0.0	None	0.0	None	0.0	None	4.4141999999999994e-07	12
2014-01-16 09:12:00	686.2375138993327	10475060832.0059	1.783871292476953e+23	14554653831406.14	185.41472337934638	5097076233781.426	9.121240038576328e+21	-2.8163083276777926e+24	9457.382614278244	-0.20244692083658397	40.165511421627905	39.139618390480884	49.327113991231954	107.0435634385695	109.47141045134951	59.57208329975733	0.013055536077971152	-5.679631505479759e+23	0.2899422707015697	0.029440944930710894	-8.922564947790081e+23	0.04082734473604048	0.06413877990177208	3.6067835532125696	365.417114	346.929016	-24.436106	2.029464	-11.684334	30.345037	0.0	11949.0	True	0.0	None	0.0	None	0.0	None	0.0	None	0.0	None	0.0	None	0.0	None	0.0	None	4.797999999999999e-07	12
2014-01-16 09:24:00	682.7012841721835	10495678667.4963	1.785963956092313e+23	14524297077819.768	185.73133941058646	4621018282048.843	9.187201259201188e+21	-2.830962163259704e+24	9391.11456374139	-0.2031005061308344	40.16739735626594	39.26675977653631	49.238915126711426	107.02866373812084	108.63389263341013	59.63260218955736	0.012970065601297941	-5.776848562634399e+23	0.17360051053076112	0.029417296027321807	-9.467899125335603e+23	0.0414445972517435	0.06792514323600803	3.6060450549247705	365.419708	346.819855	-24.433868	2.123799	-11.716388	30.45182800000001	0.0	11949.0	True	0.0	None	0.0	None	0.0	None	0.0	None	0.0	None	0.0	None	0.0	None	0.0	None	4.741e-07	12
2014-01-16 09:36:00	670.5478299431978	10448017597.6042	1.790931553428139e+23	14265813034355.89	180.67005498141654	5337887872220.659	9.090547771128135e+21	-2.7296611587774873e+24	9458.849110079122	-0.1967262455597813	40.47430159641555	39.55250052605738	49.52461228905426	106.14022170126276	107.7204849465527	59.72243948882741	0.012672375323098586	-5.817492865832056e+23	0.1819648526578498	0.0288993091752022	-9.665338947055247e+23	0.04192657855667736	0.06965794406396163	3.5653479198599127	365.422302	346.710693	-24.431812	2.24717	-11.715144	30.55777	0.0	11949.0	True	0.0	None	0.0	None	0.0	None	0.0	None	0.0	None	0.0	None	0.0	None	0.0	None	4.6424e-07	12
2014-01-16 09:48:00	676.3607389779858	10441624159.2361	1.790030209460725e+23	14367772339170.225	185.9265901011562	5700205713582.197	9.059716426464783e+21	-2.7296348602114823e+24	9554.614299529892	-0.19684480834087686	40.39374101798099	40.10774792656128	49.59815438591079	107.51256788786579	108.93115807136029	61.207873690138776	0.013179739852637429	-5.690970218639523e+23	0.31141049936598664	0.029755386983285656	-9.526866161925252e+23	0.041039845962215736	0.0687020147298408	3.603967167118367	365.424866	346.601471	-24.430649	2.341207	-11.713364	30.665329	0.0	11949.0	True	0.0	None	0.0	None	0.0	None	0.0	None	0.0	None	0.0	None	0.0	None	0.0	None	8.542e-07	12
2014-01-16 10:00:00	681.4708503381291	10498538376.3858	1.792412039518142e+23	14382440617057.41	183.3424191419737	5764379251999.105	9.182465618317444e+21	-2.7703211172977896e+24	9377.871045559672	-0.19869586392487207	40.164980923323455	38.938299055030576	49.49561722221179	107.27014734328152	108.85658358208248	60.623995418668834	0.012739189768063763	-5.953139632313787e+23	0.22264793760420265	0.02913768917589211	-9.672132419030247e+23	0.04269772969358026	0.0693714780931079	3.72106123044086	365.42746	346.492249	-24.4286	2.464596	-11.711421	30.777267	0.0	11949.0	True	0.0	None	0.0	None	0.0	None	0.0	None	0.0	None	0.0	None	0.0	None	0.0	None	8.876700000000002e-07	12
2014-01-16 10:12:00	681.200115207324	10475565807.5829	1.771469631242467e+23	14704886757532.244	173.1461463510471	4693589343719.204	9.29257805154822e+21	-2.863589900365549e+24	9078.430102022654	-0.20583577257379912	40.11931277687114	38.63744640304907	49.272498554262896	107.7732671619338	108.99178482921364	60.649111215942106	0.011784260964476084	-6.118868321859047e+23	0.28854890121947663	0.027414300736183585	-1.001396993773799e+24	0.04398262433270995	0.07198074132060507	3.582722274355844	365.429932	346.382965	-24.426308	2.5879	-11.708515	30.884865	0.0	11949.0	True	0.0	None	0.0	None	0.0	None	0.0	None	0.0	None	0.0	None	0.0	None	0.0	None	8.3884e-07	12
2014-01-16 10:24:00	680.6666365866726	10520009009.0748	1.787316376146177e+23	14462122164204.293	181.56200914090752	5191020964954.854	9.311044905309584e+21	-2.81652941048864e+24	9175.879220944356	-0.20159777040773827	39.73146373330997	38.02413581509512	49.15051594862817	108.5029234867082	109.8201594472515	60.87996330403126	0.012379790613726138	-6.128217403798241e+23	0.3842657837418946	0.028726303861628038	-1.0160238506895468e+24	0.04386373387683845	0.07272359458322211	3.7807104145903896	365.432343	346.273651	-24.423624	2.68226	-11.706031	30.993362	0.0	11949.0	True	0.0	None	0.0	None	0.0	None	0.0	None	0.0	None	0.0	None	0.0	None	0.0	None	7.464700000000002e-07	12
2014-01-16 10:36:00	678.578472959805	10516005317.0461	1.789111462657965e+23	14246006155683.547	163.25773199501538	3746376056684.795	9.23709614210712e+21	-2.799856020540244e+24	9386.036721181024	-0.200480638778937	39.40963811881458	37.65066536612553	48.98282621872168	109.5951679840208	110.72858176825838	61.6306683904754	0.011376052678908464	-6.226654664920514e+23	0.3317710116306031	0.025865993971213547	-1.0200806311345936e+24	0.04458528208312095	0.07304176180331735	3.6744242284640922	365.434845	346.164337	-24.421555	2.806962	-11.703356	31.101252	0.0	11949.0	True	0.0	None	0.0	None	0.0	None	0.0	None	0.0	None	0.0	None	0.0	None	0.0	None	6.6017e-07	12
2014-01-16 10:48:00	666.8811625977663	10475223162.241	1.7908426252087216e+23	14099941842048.213	172.80586498587277	4329677027785.813	9.185524299998012e+21	-2.74608154335692e+24	9297.946221857519	-0.19739565980024773	39.96745924201764	38.8747155760877	49.39284334866455	108.82458526525072	109.1899474773607	61.22107644353721	0.011915180651304749	-6.282301484966412e+23	0.3207079290496059	0.027554181221974467	-1.0334062768575755e+24	0.045158857343073434	0.07428399726712165	3.7233400841054793	365.437225	346.054932	-24.419273	2.8998630000000003	-11.700482	31.208363	0.0	11949.0	True	0.0	None	0.0	None	0.0	None	0.0	None	0.0	None	0.0	None	0.0	None	0.0	None	5.7261e-07	12
2014-01-16 11:00:00	664.3459266397183	10434962159.9823	1.798510350456973e+23	14327390097710.508	174.05179055876022	4535471714628.108	9.12403640216798e+21	-2.6553243056101703e+24	9240.277707730025	-0.1916082616502072	40.26101049509878	39.54694323144105	49.95493460925864	107.53235971729114	107.34067324817549	60.69642900460432	0.011876614845360643	-6.029553278577346e+23	0.388103894424824	0.027995234325786208	-1.032163138413095e+24	0.043509270027565695	0.07448091529644975	3.5062991459910604	365.439575	345.945526	-24.443308	2.992427	-11.697216	31.314987	0.0	11949.0	True	0.0	None	0.0	None	0.0	None	0.0	None	0.0	None	0.0	None	0.0	None	0.0	None	5.184300000000001e-07	12
2014-01-16 11:12:00	660.520339251888	10385549448.768398	1.784647833048452e+23	14153626569485.045	180.0259000798574	4896365064368.613	9.17514044863677e+21	-2.693015945212992e+24	9136.017368093242	-0.19525267048647807	39.85444029841438	38.5886192127269	49.47092975824889	107.56245533972306	107.50884631748664	60.447890762872134	0.012239166502131851	-5.877565450108732e+23	0.3856099987202118	0.02900519476610684	-1.0443227292678847e+24	0.04261431693832856	0.0757168935823567	3.5316045274777412	365.441864	345.83606000000015	-24.440903	3.116092	-11.694985	31.422018	0.0	11949.0	True	0.0	None	0.0	None	0.0	None	0.0	None	0.0	None	0.0	None	0.0	None	0.0	None	4.8863e-07	12
2014-01-16 11:24:00	662.604764500087	10330536416.6767	1.7724847270252355e+23	14194635242736.328	175.82015232565118	4473151906435.501	9.17225311005544e+21	-2.689903951328204e+24	8970.079252104764	-0.1960656087381651	40.10388588404246	39.102090194233476	49.6022120677241	105.07108135221796	105.10676125263949	59.229285346763106	0.011816664582677008	-5.947114102223567e+23	0.4206633497677528	0.0284590744400593	-1.0593150165527974e+24	0.04334818520609398	0.07721288466948761	3.6529186923687775	365.444153	345.726562	-24.438848	3.209061	-11.693117	31.52952800000001	0.0	11949.0	True	0.0	None	0.0	None	0.0	None	0.0	None	0.0	None	0.0	None	0.0	None	0.0	None	4.6107e-07	12
2014-01-16 11:36:00	667.9356495860537	10302633815.0345	1.7616939444911204e+23	14161073128598.46	180.5679076623436	4979013943847.16	9.228189156002909e+21	-2.7227793482587874e+24	8853.585827648309	-0.1989993709604086	39.72822077960547	38.3367816859107	49.27088088682946	104.93760689329616	105.46050067146774	58.5434658253397	0.012051518898908334	-6.01869349010403e+23	0.3901480420064857	0.029235016416483437	-1.0668219391549732e+24	0.0439887359693743	0.07797065706200779	3.60574701183962	365.446442	345.617035	-24.43626	3.334256	-11.69075	31.638439	0.0	11949.0	True	0.0	None	0.0	None	0.0	None	0.0	None	0.0	None	0.0	None	0.0	None	0.0	None	4.4977e-07	12
2014-01-16 11:48:00	664.5914406666782	10237612228.7043	1.75674717833491e+23	14085597077383.453	169.67745557128032	3999635553510.292	9.154375332966674e+21	-2.6960891340768114e+24	8984.023908783061	-0.1983001366785151	39.85835526259011	38.9228470524314	49.0873641332969	106.42663026221126	106.45704151574348	59.155860733932286	0.011523869571534931	-6.084429391048518e+23	0.4063064225287822	0.02766239981976536	-1.0883479828215804e+24	0.044751605746478317	0.08004911670741408	3.726442723442204	365.448639	345.507477	-24.433687	3.4285	-11.689176	31.747555	0.0	11949.0	True	0.0	None	0.0	None	0.0	None	0.0	None	0.0	None	0.0	None	0.0	None	0.0	None	4.3966999999999997e-07	12
2014-01-16 12:00:00	663.0304700803397	10185647693.2566	1.744956228671227e+23	14136134899649.062	156.44224210022165	3182698533302.127	9.199110163324032e+21	-2.6901201724822127e+24	8804.728815638415	-0.19887061490564456	39.35555726008527	38.01514440796087	48.802512650767746	105.23931544763194	105.83834845404408	58.290675946027285	0.010483297064948176	-6.0111662178222695e+23	0.4189168456345665	0.025622592003775854	-1.0752094935389896e+24	0.044438324141307724	0.07948625318666849	3.7014312053346856	365.450745	345.397858	-24.430889	3.551152	-11.687375	31.859289	0.0	11949.0	True	0.0	None	0.0	None	0.0	None	0.0	None	0.0	None	0.0	None	0.0	None	0.0	None	4.5176e-07	12
2014-01-16 12:12:00	647.6955073151478	10075518359.445	1.717626136302857e+23	13724520345894.465	157.44715738172772	3522936116458.6143	9.130657753553208e+21	-2.695039546922193e+24	8784.558145573477	-0.20141199798446727	39.07888168240125	37.7776268423555	48.408671529176175	105.65830654262872	106.17459654357648	58.42635423385325	0.010693958933758593	-5.977324322752849e+23	0.4700083912816873	0.026013899392856383	-1.073638523841838e+24	0.044671137973529784	0.08023766495264785	3.8298176912078974	365.452911	345.288208	-24.42915	3.644119	-11.686634	31.967333	0.0	11949.0	True	0.0	None	0.0	None	0.0	None	0.0	None	0.0	None	0.0	None	0.0	None	0.0	None	4.785799999999999e-07	12
2014-01-16 12:24:00	643.866933960214	9997560155.7303	1.715387410062475e+23	13668844521908.002	162.67318795374698	4616828814336.959	9.029519665004422e+21	-2.621918001739604e+24	8829.48104337538	-0.19747525326917964	39.46132700236657	38.34848588420261	48.64121455799491	104.20411709529594	104.23623036370779	58.1144099777254	0.011120671859020164	-5.85222659422476e+23	0.6199193621409597	0.02717599164076505	-1.07710528629299e+24	0.044077271986247966	0.08112444365809918	3.785061385539567	365.454987	345.178497	-24.426586	3.770959	-11.709382000000002	32.070705	0.0	11949.0	True	0.0	None	0.0	None	0.0	None	0.0	None	0.0	None	0.0	None	0.0	None	0.0	None	4.908400000000001e-07	12
2014-01-16 12:36:00	636.4103061687698	9941723860.921	1.706124900928655e+23	13515182333716.395	155.09321971758467	4604303937755.639	9.000479297834684e+21	-2.614380703712488e+24	8827.058925759542	-0.19801345799118075	39.55311719957057	38.085749622097026	48.6512010572001	104.26670302049143	104.60012641291742	57.840047965470816	0.010657130469153077	-5.676257297224998e+23	0.6214365004339076	0.026043691523192043	-1.1069902389247664e+24	0.04299202997769688	0.08384355226486648	3.7990889980294718	365.457001	345.068756	-24.424618	3.864426	-11.707612	32.179508	0.0	11949.0	True	0.0	None	0.0	None	0.0	None	0.0	None	0.0	None	0.0	None	0.0	None	0.0	None	5.3082e-07	12
2014-01-16 12:48:00	644.7482277397855	9965097682.0141	1.709583339737846e+23	13724481941698.902	154.63016554298602	3380468004621.4287	9.124277429412684e+21	-2.624010397103417e+24	8612.390913373896	-0.19827660908983194	39.52338227136086	37.92734327958788	48.355785171087206	103.44115451430643	103.57641675566494	56.93878604389992	0.010345230851875695	-5.535647359256487e+23	0.4442701396387213	0.02589915379223848	-1.115350064491362e+24	0.04182869811499458	0.08427856420827927	3.724810573941002	365.459045	344.958984	-24.421749	3.961325	-11.705797	32.286911	0.0	11949.0	True	0.0	None	0.0	None	0.0	None	0.0	None	0.0	None	0.0	None	0.0	None	0.0	None	5.6383e-07	12
2014-01-16 13:00:00	643.3464549072547	9946597603.988602	1.690162043518303e+23	13664763580826.613	150.5032007204287	3651632084998.327	9.156910283981914e+21	-2.702646892862584e+24	8563.826314888149	-0.20459843133844466	38.9558347466593	37.070183702308064	48.06868332014065	104.539627154485	104.37997135327879	57.38216748809378	0.010128075418602202	-5.484478857783426e+23	0.4724883138859382	0.02512302315366451	-1.1135981951039984e+24	0.04151914088276746	0.08430270504863392	3.7757951972908415	365.460938	344.849152	-24.41831	4.0805440000000015	-11.702616	32.39490900000001	0.0	11949.0	True	0.0	None	0.0	None	0.0	None	0.0	None	0.0	None	0.0	None	0.0	None	0.0	None	5.762300000000001e-07	12
2014-01-16 13:12:00	648.910262983128	9895409100.6715	1.6935918616074806e+23	13794815505633.2	159.53514038873647	3752821663860.75	9.105399305540052e+21	-2.652426422497854e+24	8615.407678127967	-0.20183527307550805	39.06218968216557	37.049047426023506	47.929777378849174	104.95584641151129	104.41377917097736	57.74530869721165	0.01077794489857698	-5.635334344065003e+23	0.4623789013175333	0.026829195780817067	-1.125053720431055e+24	0.042881839683040976	0.08561048968663786	3.783748737498944	365.462891	344.739288	-24.41523	4.206483	-11.700617	32.505505	0.0	11949.0	True	0.0	None	0.0	None	0.0	None	0.0	None	0.0	None	0.0	None	0.0	None	0.0	None	5.7363e-07	12
2014-01-16 13:24:00	636.1979913687196	9901738331.2642	1.6895992787287527e+23	13608834667365.602	149.61676122673305	3714641152328.3096	9.096324534870058e+21	-2.6592325333888224e+24	8529.978638351333	-0.20222384140726413	39.47489496389524	37.91485082132082	48.423440366809004	103.84913292137249	103.38264094500799	57.10967670036414	0.01003196736132044	-5.552557081486458e+23	0.4892676135217242	0.025137001059764155	-1.141525623296364e+24	0.04222494304476528	0.0868083906575985	3.7169350815923794	365.464752	344.62939500000016	-24.412678	4.301132	-11.699964	32.615971	0.0	11949.0	True	0.0	None	0.0	None	0.0	None	0.0	None	0.0	None	0.0	None	0.0	None	0.0	None	6.2761e-07	12
2014-01-16 13:36:00	652.4963971247032	9931477018.0198	1.685916507234141e+23	14039236894045.855	156.1841496453277	3597038889469.459	9.184499172128648e+21	-2.723457545276236e+24	8329.878041067646	-0.20648776075255795	39.60082220164949	37.572178477690294	48.52983763454841	103.45951596055372	102.95242406218144	56.968056892271	0.01024897628750756	-5.839662877691365e+23	0.4493916382351299	0.026069349262412764	-1.1573254862444308e+24	0.04427529679160189	0.08774638272991296	3.580037717693304	365.466614	344.51947	-24.410135	4.424047	-11.722566	32.723438	0.0	11949.0	True	0.0	None	0.0	None	0.0	None	0.0	None	0.0	None	0.0	None	0.0	None	0.0	None	9.4455e-07	12
2014-01-16 13:48:00	641.7927577220514	9876609968.5755	1.6684491122770813e+23	13597734376601.967	161.46251641302655	4355447283897.0913	9.081878462112526e+21	-2.722877203668256e+24	8458.362760078579	-0.20759059576983707	39.279970197468074	37.31906012253417	48.304559620878564	103.45132611634274	103.2205621218691	56.87992202163069	0.010870700627013166	-5.798096363413933e+23	0.4963561920293098	0.02707535044237351	-1.1444058017864828e+24	0.04420435401164972	0.08724884173082173	3.7496890528817923	365.468384	344.409485	-24.409149	4.51596	-11.722547	32.830399	0.0	11949.0	True	0.0	None	0.0	None	0.0	None	0.0	None	0.0	None	0.0	None	0.0	None	0.0	None	9.9739e-07	12
2014-01-16 14:00:00	626.7427686396989	9869360087.3315	1.6757704337327587e+23	13543752932859.855	145.72978430547272	5133493372499.197	9.075340127010672e+21	-2.68038827501144e+24	8494.334606747736	-0.20450136533117536	39.48970903828732	37.43520700100977	48.28559047151239	102.98278655273731	102.39250670769421	57.026806302117	0.0098121319893262	-5.906440096408724e+23	0.6789257564182339	0.02452101496940161	-1.1311938209410372e+24	0.04506343633954405	0.08630491447573725	3.6837977116663225	365.470154	344.299469	-24.405281	4.640255000000002	-11.720675	32.940174	0.0	11949.0	True	0.0	None	0.0	None	0.0	None	0.0	None	0.0	None	0.0	None	0.0	None	0.0	None	9.9256e-07	12
2014-01-16 14:12:00	639.7892615170172	9874894735.4661	1.6753761343523953e+23	13647960433095.275	147.22940439543027	4839663188714.541	9.107137375777044e+21	-2.6838670986316326e+24	8400.162075665425	-0.2046519902151961	39.39299559410849	37.222000266347045	48.509315360571286	103.35472335204949	103.09790995504049	57.24987143533089	0.009804182219846191	-6.033081004134366e+23	0.6331324779470097	0.024753149998089537	-1.1578559096783e+24	0.046003844052303976	0.08828958647725252	3.6964756451316383	365.471893	344.189392	-24.401464	4.738331	-11.717988	33.049507	0.0	11949.0	True	0.0	None	0.0	None	0.0	None	0.0	None	0.0	None	0.0	None	0.0	None	0.0	None	1.0202e-06	12
2014-01-16 14:24:00	660.7537311251772	9950895606.203102	1.6898497430894474e+23	14031735509670.77	161.9318897559047	3910493520357.576	9.170678887111424e+21	-2.706457175666634e+24	8507.287079322961	-0.20479836328043827	39.13181405391998	37.03282743865749	48.17031787929483	105.06229987809392	104.97570694889528	58.23065830158764	0.010826495270168128	-5.932157660708149e+23	0.513674850718136	0.02701380999186913	-1.1684421642662731e+24	0.044888801144074925	0.08841634184388836	3.6965351201676095	365.47357200000016	344.079315	-24.426292	4.860316	-11.741652	33.160835	0.0	11949.0	True	0.0	None	0.0	None	0.0	None	0.0	None	0.0	None	0.0	None	0.0	None	0.0	None	8.9559e-07	12
2014-01-16 14:36:00	652.1532779050531	9943102919.5966	1.6822410445383196e+23	13875676857017.348	160.9626832812708	4154568313007.223	9.15516132406143e+21	-2.7226210300126407e+24	8515.66780483288	-0.20618293653995232	38.95495385960921	36.94789915966387	48.00575924863706	104.76500008483299	104.84302409487651	58.1338076035779	0.010821020724791314	-5.844225978264535e+23	0.4819202252878317	0.02684232211834981	-1.1468406367908092e+24	0.04425807560871086	0.08684975530207377	3.731870921643558	365.475189	343.969177	-24.423658	4.956484	-11.741007000000002	33.270847	0.0	11949.0	True	0.0	None	0.0	None	0.0	None	0.0	None	0.0	None	0.0	None	0.0	None	0.0	None	6.7681e-07	12
2014-01-16 14:48:00	649.4973613628426	9928044965.7868	1.6671483871969572e+23	13603024018752.953	164.68515659443267	4869737543443.144	9.125603129599473e+21	-2.773541590912922e+24	8558.950253449095	-0.21035773444506056	38.82229213740942	36.89234335583282	47.90497298150018	106.07636492529488	106.69118891249585	58.29630964963507	0.01122980951888392	-5.6462156683444475e+23	0.5192441179168216	0.02741004787890012	-1.1545855994723616e+24	0.04282341177332758	0.08756890890825057	3.771469708403428	365.476807	343.859009	-24.42075	5.04915	-11.739216	33.373829	0.0	11949.0	True	0.0	None	0.0	None	0.0	None	0.0	None	0.0	None	0.0	None	0.0	None	0.0	None	5.85e-07	12
2014-01-16 15:00:00	640.0655094208541	9940564205.6083	1.6704569735732867e+23	13507251233308.414	162.60382899430178	4743142332755.423	9.151109889949464e+21	-2.7837668731770114e+24	8579.4457516691	-0.21086735963537084	38.72798093509068	36.7028169974763	47.8065626286813	106.67239008866156	106.49769056423985	58.7469618725389	0.011091666370689071	-5.488545937564172e+23	0.4544786357254622	0.02701800118051317	-1.1792276783336104e+24	0.04157514773393185	0.08932523385313855	3.79689259900856	365.478394	343.74881	-24.417742	5.143029	-11.740791	33.484146	0.0	11949.0	True	0.0	None	0.0	None	0.0	None	0.0	None	0.0	None	0.0	None	0.0	None	0.0	None	5.3407e-07	12
2014-01-16 15:12:00	639.8436238222288	9927016616.2424	1.6656483890078323e+23	13438627607104.633	155.63574128381651	3645605673648.21	9.101891631455214e+21	-2.794783845409418e+24	8701.94879096322	-0.21199082070576566	38.726191795363675	36.369943800735456	47.64265119926336	107.63531881809764	107.20206284786349	59.13295660148647	0.010798289133686016	-5.428107769157976e+23	0.4675842442540153	0.025871478877639263	-1.186916152197338e+24	0.04117345327987508	0.09003033620168334	3.8041300780308736	365.479889	343.63855	-24.416275	5.235826	-11.741297	33.581619	0.0	11949.0	True	0.0	None	0.0	None	0.0	None	0.0	None	0.0	None	0.0	None	0.0	None	0.0	None	1.0027e-06	12
