Timestamp	TOTUSJH	TOTBSQ	TOTPOT	TOTUSJZ	ABSNJZH	SAVNCPP	USFLUX	TOTFZ	MEANPOT	EPSZ	MEANSHR	SHRGT45	MEANGAM	MEANGBT	MEANGBZ	MEANGBH	MEANJZH	TOTFY	MEANJZD	MEANALP	TOTFX	EPSY	EPSX	R_VALUE	CRVAL1	CRLN_OBS	LAT_MIN	LON_MIN	LAT_MAX	LON_MAX	QUALITY	NOAA_AR	IS_TMFI	BFLARE	BFLARE_label	CFLARE	CFLARE_label	MFLARE	MFLARE_label	XFLARE	XFLARE_label	BFLARE_loc	BFLARE_label_loc	CFLARE_loc	CFLARE_label_loc	MFLARE_loc	MFLARE_label_loc	XFLARE_loc	XFLARE_label_loc	XR_MAX	XR_QUAL
2014-02-11 12:12:00	448.81579181981033	5880988711.7631	8.595087361554033e+22	9994448014545.672	90.2063624064418	2409594623286.4795	6.000440925474288e+21	-1.8722010467169788e+24	6244.080521819352	-0.2397119274976237	36.716772965357606	32.4939700916546	49.34389640029367	114.937186909505	113.19057461703234	67.4929513986955	-0.008703817291242939	5.462839187371415e+23	0.4535933522364526	-0.024745488997371785	-5.312843449397867e+23	-0.06994482315404416	0.06802431533630106	2.657935392338844	12.500718	2.954268	0.6393260000000001	2.635624	9.748763	16.612463	0.0	11973.0	True	0.0	None	0.0	None	0.0	None	0.0	None	0.0	None	0.0	None	0.0	None	0.0	None	3.4691000000000016e-06	12
2014-02-11 12:24:00	456.1783431176033	5856052242.9164	8.57771047786041e+22	10168938321693.44	91.88117859889664	2732500813083.6543	5.957732131718954e+21	-1.860099603288092e+24	6292.775095180164	-0.2391766219710611	36.7235118750731	32.50194855806703	49.28512611850997	115.052064499054	113.84393270314163	67.14113405689355	-0.008952662827525739	5.2225584220032265e+23	0.5194523867725361	-0.025323189158797308	-5.258034254329887e+23	-0.06715306423447391	0.06760922205110392	2.752245039432276	12.504196	2.844546	0.642096	2.727335	9.748863	16.73477	0.0	11973.0	True	0.0	None	0.0	None	0.0	None	0.0	None	0.0	None	0.0	None	0.0	None	0.0	None	3.0704000000000007e-06	12
2014-02-11 12:36:00	468.05434297286126	5902245809.3274	8.635077787538114e+22	10265802704788.266	104.70468787072916	2846428869779.535	6.019372630473696e+21	-1.9071963519769608e+24	6312.108085569375	-0.24331320238830456	36.580185810509725	31.492088146781867	48.88715870191411	115.93809871699608	114.49269674019605	67.36128062472001	-0.010164516830475602	5.479899708854501e+23	0.5391796015077659	-0.028536340887695126	-5.326483654565337e+23	-0.06991057557057623	0.06795334911991838	2.5940033630966965	12.507741	2.734791	0.644297	2.846734	9.745943	16.832245	0.0	11973.0	True	0.0	None	0.0	None	0.0	None	0.0	None	0.0	None	0.0	None	0.0	None	0.0	None	2.7328e-06	12
2014-02-11 12:48:00	466.75802149960856	5852202447.8499	8.516122584803974e+22	10276549067194.797	96.76750002339146	2188244636730.88	6.015151232393707e+21	-1.904646359070553e+24	6223.944886404134	-0.24506570715635714	36.22281380820169	31.107444433660106	48.464533735622815	116.71133694819498	114.84364315276207	67.15333394977418	-0.009392167332174264	5.325060028936052e+23	0.4144337806166127	-0.02656121296289673	-5.468100815965524e+23	-0.06851611037537099	0.07035657758119315	3.0035976445402883	12.511151	2.625002	0.6467930000000001	2.965081	9.743868	16.952473	0.0	11973.0	True	0.0	None	0.0	None	0.0	None	0.0	None	0.0	None	0.0	None	0.0	None	0.0	None	2.5573e-06	12
2014-02-11 13:00:00	456.3617574866488	5804589364.4324	8.571041602350788e+22	9965360084500.033	88.33672229020706	3392321860943.9946	5.910677748357565e+21	-1.844144696489212e+24	6344.753953316963	-0.2392274580431385	37.071838397193524	32.088084939048365	48.93223875842637	115.65862031475662	113.85843719356907	66.85029209774149	-0.008684302230653466	5.3877462915285855e+23	0.650765180057011	-0.024561152806303173	-5.658801732912174e+23	-0.06989130800622452	0.07340751280047975	3.0008069113169142	12.514529	2.5151790000000003	0.649436	3.084991	9.720597	17.073357	0.0	11973.0	True	0.0	None	0.0	None	0.0	None	0.0	None	0.0	None	0.0	None	0.0	None	0.0	None	2.8337e-06	12
2014-02-11 13:12:00	455.38370409022	5782627220.8952	8.649854609379672e+22	10175745769692.773	79.56536544399478	3241145822686.575	5.893394691608059e+21	-1.7748765271603374e+24	6319.22782455242	-0.2311162227731333	37.02729854556966	32.279033666440284	49.235642016715744	114.99183245433643	112.62124994408484	66.56151490847552	-0.007719546467836883	5.508437365853157e+23	0.6136356594514291	-0.022352690615365257	-5.44374201400266e+23	-0.07172832689467208	0.07088589390725812	2.511416207026185	12.517972	2.405322	0.651471	3.204647	9.719084	17.172318	0.0	11973.0	True	0.0	None	0.0	None	0.0	None	0.0	None	0.0	None	0.0	None	0.0	None	0.0	None	2.7226e-06	12
2014-02-11 13:24:00	452.8116323988925	5762374523.3592	8.543416816087171e+22	10058159292039.406	89.32053102272795	3018050658086.9883	5.893183264742069e+21	-1.8199954833946048e+24	6286.6045542492175	-0.23782436742374405	36.96354779036936	32.463598162806605	49.07947121829083	115.5969317382457	113.5425796373131	66.71564747976967	-0.008728674975347205	5.506582585895643e+23	0.5755442194032989	-0.025044985380594777	-5.605059426220656e+23	-0.07195619616124582	0.07324302310504144	2.4298553965169316	12.521282	2.295432	0.653351	3.294938	9.71738	17.294516	0.0	11973.0	True	0.0	None	0.0	None	0.0	None	0.0	None	0.0	None	0.0	None	0.0	None	0.0	None	3.0401e-06	12
2014-02-11 13:36:00	457.56701543260726	5756130350.190101	8.53466452627495e+22	10065190392386.102	98.89986347689323	2887915678512.4336	5.899140628237391e+21	-1.8234289469247453e+24	6344.646961416788	-0.23853153471178	36.60658874467892	31.503603514660877	48.67439134378479	116.64708517302643	114.73602559539465	67.3351344348052	-0.00976499441912453	5.444052956702504e+23	0.5563959856460774	-0.027745208882198717	-5.6014567766434046e+23	-0.07121628232372497	0.0732753576062207	2.447679878886766	12.524611	2.18551	0.656411	3.414184	9.692353	17.391954000000002	0.0	11973.0	True	0.0	None	0.0	None	0.0	None	0.0	None	0.0	None	0.0	None	0.0	None	0.0	None	5.284e-06	12
2014-02-11 13:48:00	466.35734535846564	5766019648.9474	8.543553982694664e+22	10367896434996.264	99.57698950544552	3185492535582.56	5.953977211573157e+21	-1.845735664450736e+24	6210.8376978492115	-0.241035441433557	36.9087276132592	32.023556671172045	48.63655995381052	115.66270113458168	114.10050269176969	66.3045153836121	-0.009614462634493144	5.41646279957834e+23	0.6001744894294143	-0.027836486406171184	-5.599313790536791e+23	-0.07073382863267808	0.0731216878571109	2.5498102872395947	12.527905	2.075556	0.6590520000000001	3.5056580000000004	9.690788	17.513711999999998	0.0	11973.0	True	0.0	None	0.0	None	0.0	None	0.0	None	0.0	None	0.0	None	0.0	None	0.0	None	8.379099999999999e-06	12
2014-02-11 14:00:00	454.9518889087796	5753224806.4926	8.526297405753314e+22	9967515435413.77	101.97803336371064	3171552705553.9746	5.901982431133362e+21	-1.834130082034658e+24	6288.140310028771	-0.24005252483661604	36.785795669700796	32.69343780607248	48.79942482963216	115.310596408331	113.67501826771955	66.2934996472676	-0.009988054198208682	5.414667299444804e+23	0.6062249878106805	-0.028588094087370362	-5.714072218542869e+23	-0.0708676319697059	0.07478626933801417	2.566850391925976	12.531119	1.96557	0.66227	3.625931	9.64	17.634644	0.0	11973.0	True	0.0	None	0.0	None	0.0	None	0.0	None	0.0	None	0.0	None	0.0	None	0.0	None	8.488200000000001e-06	12
2014-02-11 14:12:00	436.7972394191252	5681744711.2995	8.488513926705885e+22	9867478545348.7	97.07067273431852	2444988806154.306	5.826887511040621e+21	-1.7894730514368532e+24	6255.373299671101	-0.23715424947751976	37.30228843226993	33.56821295752594	49.160216404117975	113.4023431151681	112.03577872107729	65.67181329099914	-0.009500897791359356	5.516752922505556e+23	0.4514524508930304	-0.027619287290911232	-5.6781850336117024e+23	-0.07311210402633364	0.07525152217069794	2.549116371178773	12.534402	1.855553	0.665215	3.717281	9.639231	17.734056	0.0	11973.0	True	0.0	None	0.0	None	0.0	None	0.0	None	0.0	None	0.0	None	0.0	None	0.0	None	7.041e-06	12
2014-02-11 14:24:00	437.87501837719805	5644376474.8283	8.407202380118762e+22	9952771932265.463	98.90412975330395	2517018761865.787	5.769969664546438e+21	-1.780605701722338e+24	6240.649578403402	-0.23754140569521204	37.554448185712	33.22160883280757	49.4849374469901	113.1053712585313	111.57483320257788	65.48012501205326	-0.009750012791138008	5.497966028813458e+23	0.4598385660752068	-0.028318399879866382	-5.834346723561788e+23	-0.07334552381167903	0.07783300484141854	2.7906789068459315	12.537556	1.7455060000000002	0.666709	3.837098	9.63818	17.856842	0.0	11973.0	True	0.0	None	0.0	None	0.0	None	0.0	None	0.0	None	0.0	None	0.0	None	0.0	None	5.1908e-06	12
2014-02-11 14:36:00	446.60387894700125	5684908643.1976	8.392608690300372e+22	10056247399495.877	100.01140336535885	2860099074674.1904	5.837379931697195e+21	-1.837912133238764e+24	6268.748916221694	-0.2434382237510825	36.86536729942585	32.18926693780379	48.89456486286298	115.18311933940313	113.84130237284259	66.43722401434249	-0.009920782002317115	5.540596765067818e+23	0.376981679975705	-0.028296440878494318	-5.78596172485571e+23	-0.07338724254637045	0.07663719170886182	2.7865524728828723	12.540679	1.63543	0.66982	3.956699	9.640841	17.953083	0.0	11973.0	True	0.0	None	0.0	None	0.0	None	0.0	None	0.0	None	0.0	None	0.0	None	0.0	None	5.248200000000002e-06	12
2014-02-11 14:48:00	451.3426501797479	5676437099.8857	8.469014171890271e+22	10112186089283.88	96.77027889185732	2997637841513.2656	5.85117041417105e+21	-1.791006417854875e+24	6225.772310650844	-0.23757944253744226	37.05699971478273	32.56858342282534	49.03187237608749	112.68168631757402	111.81752965306136	65.47658129854543	-0.009447454739027366	5.608142526539537e+23	0.5711919155476652	-0.027550093165929858	-5.891697358451216e+23	-0.07439277502542979	0.07815416852032643	3.008210160424264	12.543875	1.525325	0.670871	4.075628	9.725941	18.076378	0.0	11973.0	True	0.0	None	0.0	None	0.0	None	0.0	None	0.0	None	0.0	None	0.0	None	0.0	None	5.0297e-06	12
2014-02-11 15:00:00	452.6036509919768	5638042760.0218	8.34852348472938e+22	10067264773544.426	99.79021411001764	3074287083512.8643	5.84565691530964e+21	-1.835228359771281e+24	6175.784168155664	-0.2451033784101448	37.20380799037344	32.675115433736124	48.88461562934966	112.30240350679315	110.89102615058829	64.61213137847675	-0.009803538079380848	5.923466349034551e+23	0.3906636939237761	-0.028430478769299324	-6.237197975770141e+23	-0.07911067886004743	0.08330071228109738	3.0151402004888754	12.546943	1.415194	0.673465	4.167718	9.727838	18.173819	0.0	11973.0	True	0.0	None	0.0	None	0.0	None	0.0	None	0.0	None	0.0	None	0.0	None	0.0	None	4.484e-06	12
2014-02-11 15:12:00	447.4895793647045	5650377659.160001	8.323468812138608e+22	9861716362640.156	98.42697754771272	3017869636685.1167	5.854318101564209e+21	-1.8383780884277968e+24	6206.6391669652185	-0.2449880305380136	36.86335962566528	31.798375916022977	48.52325615078498	112.89108706830942	111.3331362671183	65.29049344955826	-0.00974717543550334	5.839542833433663e+23	0.4429055591209687	-0.027983465223541896	-6.244457326378192e+23	-0.07781957949840265	0.08321559704164998	2.8941883326325004	12.550035	1.305036	0.676349	4.288535	9.72999	18.297007	0.0	11973.0	True	0.0	None	0.0	None	0.0	None	0.0	None	0.0	None	0.0	None	0.0	None	0.0	None	4.4032e-06	12
2014-02-11 15:24:00	440.9182571948144	5626579248.378	8.27405539226745e+22	9818576064215.57	102.68261516359665	3351270551266.1104	5.809797490929149e+21	-1.812096335999976e+24	6207.289485173426	-0.2425070351115638	36.79666213604403	32.47982464879944	48.85947301485509	113.28938632337614	111.58426991879128	65.74028779595908	-0.010230409003048384	6.036805274475099e+23	0.4850224289741027	-0.02937538857071417	-6.210228224555983e+23	-0.08078862693858603	0.08310949060399417	2.8903244071214065	12.553103	1.1948530000000002	0.679165	4.408494	9.732092	18.416197	0.0	11973.0	True	0.0	None	0.0	None	0.0	None	0.0	None	0.0	None	0.0	None	0.0	None	0.0	None	3.7370999999999998e-06	12
2014-02-11 15:36:00	457.0503469500412	5716970075.606601	8.410162007719323e+22	9925555739725.242	97.79970630270996	2821508981685.6416	5.933076383778512e+21	-1.865133956184266e+24	6197.02813063536	-0.24565839763287264	36.88112353472004	32.840786769742635	48.8551991165497	113.06909699453784	111.58460224075942	65.05893426063133	-0.009570379323095207	6.0118874514324594e+23	0.5389424031840111	-0.02746645860058634	-6.52154854055376e+23	-0.0791830867252821	0.08589587676774668	3.0218133731711214	12.556097	1.084647	0.682396	4.5268190000000015	9.734631	18.541803	0.0	11973.0	True	0.0	None	0.0	None	0.0	None	0.0	None	0.0	None	0.0	None	0.0	None	0.0	None	3.759e-06	12
2014-02-11 15:48:00	456.8261201623571	5701528662.580601	8.333266355504665e+22	9752082671078.273	90.76631654281715	2387567382292.0986	5.864854644185996e+21	-1.8899886358780965e+24	6369.104254750011	-0.2496062056968536	36.162064386335146	32.05440519691433	48.479709740557844	115.53147276660135	113.8661069909026	67.11464777968888	-0.009212983814739863	5.955305059195297e+23	0.4692562707034459	-0.02547946013329641	-6.577435874037637e+23	-0.07865026653466564	0.0868665970031153	2.9403848227001332	12.559169	0.974418	0.68453	4.619141	9.736037	18.666702	0.0	11973.0	True	0.0	None	0.0	None	0.0	None	0.0	None	0.0	None	0.0	None	0.0	None	0.0	None	3.1902e-06	12
2014-02-11 16:00:00	449.2867384457075	5728207403.2925005	8.33794963186701e+22	9599509495797.012	102.73287907434091	3556563133855.277	5.842848405058639e+21	-1.910159931450052e+24	6432.095164906714	-0.2510952535755547	36.67587064445975	32.588874090769394	48.59025312775692	115.43053273377205	113.95840841433514	66.99795454623248	-0.010525909741223456	6.080619629617888e+23	0.5455686161403672	-0.0286701977507572	-6.68506124060901e+23	-0.07993125092077259	0.08787678558960098	2.9465579476394392	12.562118	0.8641690000000001	0.687141	4.738835	9.737944	18.766737	0.0	11973.0	True	0.0	None	0.0	None	0.0	None	0.0	None	0.0	None	0.0	None	0.0	None	0.0	None	2.5833999999999997e-06	12
2014-02-11 16:12:00	448.77498890659126	5745821052.639101	8.335269330777134e+22	9421177146335.383	102.45618631202015	3327456712018.7817	5.822126349739628e+21	-1.9107780308284e+24	6581.742689604634	-0.2504065287296847	36.3065053494752	31.63800335570469	48.00886807025858	117.4876904300379	115.86260649499992	68.75275217758407	-0.010745273865969598	6.19362869870112e+23	0.5340077854684959	-0.028521006860560593	-6.86690659852815e+23	-0.08116720192820685	0.08999047595826293	2.8164773237894933	12.56505	0.753899	0.689739	4.858996	9.738973	18.889271	0.0	11973.0	True	0.0	None	0.0	None	0.0	None	0.0	None	0.0	None	0.0	None	0.0	None	0.0	None	2.5182e-06	12
2014-02-11 16:24:00	443.8616262471705	5797614609.6339	8.381354166727956e+22	9502089459245.914	98.98041311428149	2876443613947.0234	5.825122822244682e+21	-1.9134027511627327e+24	6660.036440045527	-0.2485103700208661	36.1274181692717	30.550865344027013	48.30015366157834	118.68514951619836	116.39235590542398	70.2602754975567	-0.010445379180485593	5.979842539032742e+23	0.5814546231484131	-0.02734876762253656	-6.96214319706738e+23	-0.07766545130859144	0.09042345010688872	2.8029717052853806	12.568062	0.643612	0.6933020000000001	4.9787040000000005	9.741863	19.014341	0.0	11973.0	True	0.0	None	0.0	None	0.0	None	0.0	None	0.0	None	0.0	None	0.0	None	0.0	None	2.9548e-06	12
2014-02-11 16:36:00	437.26812797915045	5824948906.3	8.414117519659352e+22	9237768603224.992	97.63631174106537	3058900536659.352	5.828463304666749e+21	-1.915547070857392e+24	6758.1023337208935	-0.2476214000390605	36.07785581737409	30.57066666666667	48.2050030087631	120.23699958890894	117.7228480748656	71.10990370685231	-0.010414539919046973	6.057955672640674e+23	0.4838468814927698	-0.02686992320980814	-7.130329280168651e+23	-0.07831075977487842	0.09217325671378997	2.7373468251294275	12.570958	0.533308	0.6963739999999999	5.0972040000000005	9.744258	19.139565	0.0	11973.0	True	0.0	None	0.0	None	0.0	None	0.0	None	0.0	None	0.0	None	0.0	None	0.0	None	1.0285e-05	12
2014-02-11 16:48:00	448.54471089253184	5863535874.2367	8.435102450405456e+22	9464161061459.23	109.0710147923206	3889973949650.1694	5.846374835033062e+21	-1.944898378844214e+24	6756.9380076206735	-0.2497610744411012	36.41597523846377	31.563829787234038	48.52456406299606	120.2804451616088	118.01747314838259	71.13938675397223	-0.011603299445991555	6.046515997624238e+23	0.4824338913844093	-0.029768213310284883	-7.106354029156839e+23	-0.07764849560363082	0.09125878436568068	2.7353283076061627	12.573889	0.4229890000000001	0.699101	5.189466	9.745589	19.264811	0.0	11973.0	True	0.0	None	0.0	None	0.0	None	0.0	None	0.0	None	0.0	None	0.0	None	0.0	None	1.8531e-05	12
2014-02-11 17:00:00	449.50125956228516	5907979345.015301	8.541422263532611e+22	9373920532997.043	113.7849768803602	4012376256623.2544	5.849132561366617e+21	-1.929760963658912e+24	6922.378095447571	-0.2459530047258039	35.96923191796021	30.222796254439782	48.231857162332936	121.80062965640735	119.65481167376193	72.1741740324227	-0.012246795488145541	6.042621746813314e+23	0.6495268720626033	-0.030915358797688974	-6.973173906533119e+23	-0.07701477038028161	0.0888748973103663	2.721201183623837	12.576806	0.312657	0.700756	5.3107370000000005	9.74649	19.363129	0.0	11973.0	True	0.0	None	0.0	None	0.0	None	0.0	None	0.0	None	0.0	None	0.0	None	0.0	None	1.8027000000000002e-05	12
2014-02-11 17:12:00	456.7114703334974	6003917352.4173	8.644697405705669e+22	9562286053027.906	105.6890754625647	3230513458756.2373	5.962771610228212e+21	-1.9881560583547585e+24	6930.7332507048595	-0.2493464776203748	35.561692669621245	29.610306643952303	48.03866321730359	122.42725806054956	120.23704397690823	72.9280739176195	-0.011253095769012426	6.087620909804136e+23	0.5080603353848457	-0.02818009757309627	-7.137584919094649e+23	-0.07634847498862436	0.08951669818944315	2.7812328489213805	12.579662	0.202313	0.723762	5.431437	9.74737	19.488659	0.0	11973.0	True	0.0	None	0.0	None	0.0	None	0.0	None	0.0	None	0.0	None	0.0	None	0.0	None	1.2485999999999999e-05	12
2014-02-11 17:24:00	465.9997248225512	6020457270.8106	8.565396710006822e+22	9611807928386.07	115.93672423131342	3584821807393.897	6.004291406055483e+21	-2.0623321128510675e+24	6892.842345004594	-0.25793876632748114	35.41925759267791	29.87068504862669	47.44602429790922	122.70624560540008	121.67412191390518	71.40947498935878	-0.012390373435001968	6.158790338630345e+23	0.26237526885424306	-0.030616958210956863	-7.106616189406473e+23	-0.07702885350603282	0.08888344419581788	2.7825622909393948	12.582609	0.091959	0.727491	5.551726	9.750533	19.614367	0.0	11973.0	True	0.0	None	0.0	None	0.0	None	0.0	None	0.0	None	0.0	None	0.0	None	0.0	None	7.864600000000001e-06	12
2014-02-11 17:36:00	473.23267114349005	5984998689.6553	8.432797143401986e+22	9563284660727.484	125.12601023104988	3799594039774.615	5.947302708413867e+21	-2.08690940592806e+24	6988.5385739864705	-0.26255904419517995	35.096195610961864	29.760070438036536	47.12891432529656	124.57042655583037	123.53793219506012	72.2243944508321	-0.013771297626133598	6.096857237931048e+23	0.3673069255642377	-0.03311782718715446	-6.967675484302302e+23	-0.0767060134205377	0.08766198524113915	2.86742932757424	372.585449	359.981598	0.730359	5.6702879999999976	9.752821	19.710485	0.0	11973.0	True	0.0	None	0.0	None	0.0	None	0.0	None	0.0	None	0.0	None	0.0	None	0.0	None	5.3278e-06	12
2014-02-11 17:48:00	473.3831610621849	5932462189.6124	8.371978381276592e+22	9501989010896.7	128.3847477602236	4043231579933.0063	5.835241227205218e+21	-2.0515159207669388e+24	7180.762510189434	-0.26039187393825225	34.92571896073875	28.83016288871169	47.021336538794	125.271002244409	124.96862296475916	72.26324832740451	-0.014624074240827385	5.958842779821291e+23	0.3490022626422432	-0.03434020270377837	-6.819760023217112e+23	-0.07563354601513535	0.0865608730733522	2.8624037974946406	372.588257	359.871216	0.732305	5.789857	9.753423	19.834661	0.0	11973.0	True	0.0	None	0.0	None	0.0	None	0.0	None	0.0	None	0.0	None	0.0	None	0.0	None	4.9706e-06	12
2014-02-11 18:00:00	488.4775588952232	5922780589.184	8.345884754784444e+22	9569426730728.957	124.41630279016005	3677251351016.609	5.84619456858946e+21	-2.0777047946088844e+24	7178.8244997525535	-0.2641470061524505	34.62252538638345	28.832533698880514	46.646074266671455	125.3043282309617	125.4919279180352	71.59076396166171	-0.01421250888624172	5.741467183529925e+23	0.6119608835719739	-0.033234110713486545	-6.590460711177718e+23	-0.07299359232298737	0.08378719010227093	2.7679238478495822	372.591217	359.760864	0.735368	5.908353	9.755874	19.960644	66560.0	11973.0	False	0.0	None	0.0	None	0.0	None	0.0	None	0.0	None	0.0	None	0.0	None	0.0	None	3.4131e-06	12
2014-02-11 18:12:00	489.50038911164665	5908185623.372601	8.337541697846806e+22	9563761416068.734	123.18093094797588	3932059247841.472	5.795207979636765e+21	-2.0907527337241453e+24	7315.381304706664	-0.26646244044646805	34.585239582070976	28.68795152645071	46.3284502203267	126.16321376279026	126.7601559624283	71.36920782979801	-0.014353406076436247	5.6463406729681885e+23	0.3908375891551622	-0.032925094619441216	-6.600769794727517e+23	-0.07196153285096052	0.08412554961463416	2.694160584330924	372.594025	359.650482	0.738162	6.0278550000000015	9.758094	20.05673	66560.0	11973.0	False	0.0	None	0.0	None	0.0	None	0.0	None	0.0	None	0.0	None	0.0	None	0.0	None	2.89e-06	12
2014-02-11 18:24:00	509.7865314137545	5956779162.7015	8.409220434331416e+22	9811616987271.08	120.25590584067731	3419530515718.3604	5.873075679800996e+21	-2.1437664986601007e+24	7350.863212662798	-0.27099011664092315	33.85380676289163	27.69909449732993	45.553842938511885	127.97300890027357	128.57277658518174	71.64537997087446	-0.013960518439827877	5.61379284245618e+23	0.30007792188618515	-0.031767477908093124	-6.569078945206503e+23	-0.07096306328725695	0.0830386831167283	2.6824215933951687	372.596893	359.5401	0.741123	6.120634	9.757869	20.181751	0.0	11973.0	True	0.0	None	0.0	None	0.0	None	0.0	None	0.0	None	0.0	None	0.0	None	0.0	None	2.4031e-06	12
2014-02-11 18:36:00	493.1140853301789	5881800498.39	8.306527763865105e+22	9580184564476.957	125.4564578122576	3570445155222.826	5.759738777130048e+21	-2.1195152850548167e+24	7347.2425931165135	-0.2713399590746502	34.34581597927833	29.36685069893105	45.984421743536785	126.58616364097456	126.8113859154528	71.15662829103344	-0.01473704426315724	5.4067040938091846e+23	0.4594755669627907	-0.033554519939615154	-6.597500037429807e+23	-0.06921652690534788	0.08446107479262213	2.675156639588727	372.599762	359.42971800000015	0.743449	6.241356	9.759583	20.282375	0.0	11973.0	True	0.0	None	0.0	None	0.0	None	0.0	None	0.0	None	0.0	None	0.0	None	0.0	None	2.1857e-06	12
2014-02-11 18:48:00	525.0680382762572	5940646756.5914	8.161017982888244e+22	10278572745018.264	124.03398294272829	3308467192777.368	5.996392474640111e+21	-2.2781278988921968e+24	6846.953933352667	-0.2887565882858949	33.79042918360886	27.68802228412257	45.07234557891208	125.94794562036202	126.72807791218521	69.3522340670103	-0.013819942389161923	5.5248681207313386e+23	0.5860894280758294	-0.032401570281162376	-6.407112702790805e+23	-0.07002864369676806	0.08121124392185147	2.523039058554745	372.6026	359.319336	0.746598	6.360876	9.760441	20.405886	0.0	11973.0	True	0.0	None	0.0	None	0.0	None	0.0	None	0.0	None	0.0	None	0.0	None	0.0	None	2.4784e-06	12
2014-02-11 19:00:00	511.0060869664642	5949645580.5564	8.185686634493615e+22	10346280601246.596	122.67149491570831	3653484286224.5215	6.075043541120271e+21	-2.280408624237748e+24	6643.365882817569	-0.2886084246437446	33.855953550608405	27.66760077602932	44.91724246304236	125.10598202092442	125.44693887211425	68.65477358932891	-0.01322318582685225	5.762724680601006e+23	0.3597799630047511	-0.03200116238225239	-6.364168671700733e+23	-0.07293302060194654	0.08054489335746026	2.43617556337438	372.60553	359.208984	0.75034	6.4807510000000015	9.763598	20.532091	1024.0	11973.0	True	0.0	None	0.0	None	0.0	None	0.0	None	0.0	None	0.0	None	0.0	None	0.0	None	2.7841e-06	12
2014-02-11 19:12:00																																	False	0.0	None	0.0	None	0.0	None	0.0	None	0.0	None	0.0	None	0.0	None	0.0	None	2.8558e-06	12
2014-02-11 19:24:00																																	False	0.0	None	0.0	None	0.0	None	0.0	None	0.0	None	0.0	None	0.0	None	0.0	None	3.0204000000000008e-06	12
2014-02-11 19:36:00	492.51381725565767	5958718946.643801	8.270539332536662e+22	10183397430551.188	102.42456346417471	2918788299382.08	6.221128142290931e+21	-2.258049121328724e+24	6308.354828989578	-0.2853434528837225	34.18445649857832	27.96799027552675	45.34331232535529	122.1961317753942	121.91417875738205	67.12671580682462	-0.010375259670195978	5.635371113043706e+23	0.5772420665003808	-0.02674619618930296	-6.455922572374726e+23	-0.071212633794736	0.08158171675500897	1.8203615128285948	372.614136	358.877899	0.745447	6.813414	9.770676	20.854279	0.0	11973.0	True	0.0	None	0.0	None	0.0	None	0.0	None	0.0	None	0.0	None	0.0	None	0.0	None	3.4894e-06	12
2014-02-11 19:48:00	474.2095373477781	5866509170.9754	8.112667969311853e+22	9830967473150.127	97.39969989094206	2488250411205.636	6.125628405008607e+21	-2.211429969788714e+24	6229.587398096441	-0.2838447770480069	34.26194101204597	28.044054660412	45.83362448326982	120.39640882285308	120.196254382633	67.24851799919206	-0.009933676684440802	5.70030337847752e+23	0.3791159774572324	-0.02586434284162256	-6.456342914604852e+23	-0.0731653890773914	0.08286942115180725	2.2731112185174838	372.617004	358.767548	0.760323	6.933892	9.771546	20.980537	0.0	11973.0	True	0.0	None	0.0	None	0.0	None	0.0	None	0.0	None	0.0	None	0.0	None	0.0	None	4.6432e-06	12
2014-02-11 20:00:00	456.600825770878	5795858150.796801	8.069261146971509e+22	9573369134322.752	91.89572119438576	1934388244871.1282	6.027735481237858e+21	-2.153008411916145e+24	6228.011711208829	-0.27971478333680805	34.95441779521847	28.99753997539975	46.490430671161725	118.95364000457529	118.66729074185392	66.01401595874654	-0.009419405616480707	5.558220350419335e+23	0.34833872246837944	-0.024779603403398773	-6.772991803088657e+23	-0.07221134819775774	0.08799342929909125	2.2705829888825497	372.619934	358.657227	0.763215	7.053878	9.773047	21.079147	0.0	11973.0	True	0.0	None	0.0	None	0.0	None	0.0	None	0.0	None	0.0	None	0.0	None	0.0	None	5.6948e-06	12
2014-02-11 20:12:00	453.7112331031916	5667813639.1591	7.945039489343742e+22	9276585857662.623	96.47319965587342	2390131533451.618	5.868502215785815e+21	-2.0646714528760143e+24	6344.800681811051	-0.27429819529675953	34.98871904314719	29.419874854173287	46.3930876670146	118.33306808218704	117.37666828450894	67.08590315877443	-0.01023154095406442	5.499541613821754e+23	0.2722865874842789	-0.026714684426341444	-7.030951344780915e+23	-0.0730631664195012	0.09340843369565116	2.23815322145608	372.622894	358.546936	0.766888	7.1732619999999985	9.774357	21.204426	0.0	11973.0	True	0.0	None	0.0	None	0.0	None	0.0	None	0.0	None	0.0	None	0.0	None	0.0	None	5.7813e-06	12
2014-02-11 20:24:00	448.8296218724744	5677121124.406301	7.93286858613681e+22	9218709915613.953	94.84167845317734	2683136254538.286	5.936792415333136e+21	-2.0833673943439911e+24	6225.478976364848	-0.27632819024694594	34.84760430232224	28.99426784783741	46.3868910191386	117.58846720422906	117.00357605135436	66.34181686472658	-0.0098855199555115	5.379558103846515e+23	0.3777520491866212	-0.02618277495538198	-7.108786352478534e+23	-0.07135196409427702	0.09428764571076127	2.377574771492149	372.625793	358.436646	0.76904	7.2939289999999986	9.775901	21.302477	0.0	11973.0	True	0.0	None	0.0	None	0.0	None	0.0	None	0.0	None	0.0	None	0.0	None	0.0	None	5.5742e-06	12
2014-02-11 20:36:00	433.7308499767372	5642135139.2869	7.90095821188872e+22	9024219679583.916	90.53005726354252	2352653729883.7363	5.888224588381024e+21	-2.047322144935994e+24	6261.123088885334	-0.2732311455620224	35.08473080203709	29.435908229846355	46.4463740914724	117.01624564731476	116.04098412533622	66.27366592441797	-0.00952847671440296	5.264157843019481e+23	0.23513569864354045	-0.02520414984540061	-7.106382142450782e+23	-0.07025430176805343	0.09484022523695357	2.448081490188144	372.628815	358.326355	0.772828	7.3882910000000015	9.778307	21.428928	0.0	11973.0	True	0.0	None	0.0	None	0.0	None	0.0	None	0.0	None	0.0	None	0.0	None	0.0	None	4.3642000000000005e-06	12
2014-02-11 20:48:00	441.7113548022378	5623872053.6286	7.951188447323608e+22	9301977704743.543	90.57873919144829	2664340430975.135	5.895119376054103e+21	-2.0088211134615567e+24	6265.321847511552	-0.2689634783509769	35.120658711663964	29.62536626203433	46.41326402211829	116.80635753832551	115.35256817746208	66.48934487117805	-0.00947872950936043	5.467493257935754e+23	0.25268497049306005	-0.02538468112257658	-7.306387718376003e+23	-0.0732049257477628	0.09782610515920756	2.467507084444543	372.631744	358.216095	0.775824	7.508924	9.779887	21.528004	0.0	11973.0	True	0.0	None	0.0	None	0.0	None	0.0	None	0.0	None	0.0	None	0.0	None	0.0	None	3.8050999999999998e-06	12
2014-02-11 21:00:00	441.6565600747285	5681419952.0275	7.95095342226071e+22	9516586491742.63	102.45617044292685	3702710512031.648	5.963669622936426e+21	-2.0642953458022248e+24	6202.1800408434265	-0.27359137825423263	34.59351561641645	28.28136330674402	46.2784770021949	116.99399383051346	115.6604273432962	66.66771237135822	-0.010615019730929013	5.3378090189453306e+23	0.31627922829028565	-0.028319208577109775	-7.440181095435189e+23	-0.07074465043584137	0.09860843820146956	2.5780132438208376	372.634705	358.105865	0.7797029999999999	7.628537	9.782382	21.65229200000001	0.0	11973.0	True	0.0	None	0.0	None	0.0	None	0.0	None	0.0	None	0.0	None	0.0	None	0.0	None	3.3294e-06	12
2014-02-11 21:12:00	438.9886698338996	5707203218.506201	8.003555860576935e+22	9455156748163.977	97.90621228662643	2830485936497.536	5.949758204809324e+21	-2.07563367649516e+24	6277.681137089185	-0.27385134408738976	35.0957043927326	29.67708333333333	46.590102592086865	117.7320928911241	115.92942764497887	66.90888156855003	-0.010198563779856921	5.3001804398208277e+23	0.3527732218875631	-0.026933832712730053	-7.438784687457591e+23	-0.06992859837394387	0.09814454294636248	2.552554272407186	372.637787	357.995636	0.782327	7.746944	9.765616	21.751778	0.0	11973.0	True	0.0	None	0.0	None	0.0	None	0.0	None	0.0	None	0.0	None	0.0	None	0.0	None	3.134e-06	12
2014-02-11 21:24:00	439.84808447514564	5710894410.6942005	7.94654631038586e+22	9380312831704.07	91.45967704229356	2844660947341.492	5.932690494928836e+21	-2.084583286047222e+24	6334.5818790001795	-0.2748543390419638	34.61785489419399	29.134024984120263	46.14256348769579	119.40493336599285	118.10803361871643	67.7173962931529	-0.009682371061009273	5.304362995949274e+23	0.2607782732405844	-0.0251243573690245	-7.670210297309613e+23	-0.0699385433553391	0.10113247072883524	2.3106947740473243	372.640778	357.885437	0.785684	7.867821000000001	9.765135	21.877117	0.0	11973.0	True	0.0	None	0.0	None	0.0	None	0.0	None	0.0	None	0.0	None	0.0	None	0.0	None	2.7463e-06	12
2014-02-11 21:36:00	453.0231536389357	5712303272.6071005	7.951130725431599e+22	9618664137428.775	103.21244399914562	3185897765175.081	5.889629461968e+21	-2.0835132416013725e+24	6432.206723230737	-0.2746454969819681	34.819020648758844	29.05027932960894	46.168657345076035	120.2619864554121	118.90748498819711	68.49336160383285	-0.01108976512293388	5.4248957881821984e+23	0.2520240330257812	-0.02835054349171785	-7.624468907579609e+23	-0.07151013826413419	0.10050457134298377	2.297782060982467	372.64386	357.775269	0.788378	7.989885000000001	9.763747	21.97852300000001	0.0	11973.0	True	0.0	None	0.0	None	0.0	None	0.0	None	0.0	None	0.0	None	0.0	None	0.0	None	2.6552e-06	12
2014-02-11 21:48:00	452.4565563389559	5770241206.076	8.12804946495076e+22	9557535612851.273	96.07571043720623	2474994730940.326	5.894165929929305e+21	-2.0861574696162048e+24	6589.48711900944	-0.27223289499494635	35.28266968186389	29.69422911283377	46.666838129996364	119.75721885793169	118.97063273579258	67.99220529477249	-0.01034406873785597	5.416902212156576e+23	0.17481153891876852	-0.026174778298792462	-7.499463084888039e+23	-0.0706878072531701	0.09786416300023598	2.3036043997043154	372.646973	357.66513100000014	0.790976	8.111464999999999	9.761033	22.102249	0.0	11973.0	True	0.0	None	0.0	None	0.0	None	0.0	None	0.0	None	0.0	None	0.0	None	0.0	None	2.7583e-06	12
2014-02-11 22:00:00	464.5052445949542	5799571044.3451	8.04003978628641e+22	9832586545270.443	104.87745833877821	3002946453975.7524	5.958383847931299e+21	-2.156810102905869e+24	6492.970285877414	-0.2800293283003469	34.64338639071477	28.27112827112827	46.11616838429672	122.68058352766528	122.34197810957323	69.2666217894374	-0.011248118654952616	5.61569147454997e+23	0.241638065517035	-0.02825506796175108	-7.580881071410532e+23	-0.07291130125185827	0.09842633023147307	1.9756368727182718	372.650085	357.555023	0.792428	8.231284	9.764407	22.202389	0.0	11973.0	True	0.0	None	0.0	None	0.0	None	0.0	None	0.0	None	0.0	None	0.0	None	0.0	None	3.2089999999999997e-06	12
2014-02-11 22:12:00	450.3079211964121	5709677595.7078	7.82856080818689e+22	9490887291905.344	103.80979534295065	3267455411805.3184	5.806564676171406e+21	-2.1591830726862103e+24	6585.6384552693835	-0.2847510888461388	34.59148888937113	28.443749301753996	45.99426308494114	122.49723586469013	121.98559821468213	68.87866553046345	-0.01159756399764838	5.255235793974211e+23	0.2496407745990928	-0.028303344020132824	-7.577042016335415e+23	-0.0693055690092858	0.09992533711836893	1.9590793579607424	372.65329	357.444946	0.794564	8.326532	9.765058	22.303186	0.0	11973.0	True	0.0	None	0.0	None	0.0	None	0.0	None	0.0	None	0.0	None	0.0	None	0.0	None	5.965e-06	12
2014-02-11 22:24:00	458.3634628069979	5712863737.7306	7.916857854151217e+22	9560616242789.805	113.3226111106267	2960194255854.3096	5.811840976859639e+21	-2.1485886397778576e+24	6669.6039798480615	-0.2831958992270109	34.532838802354476	28.507496084135145	45.60791726087768	122.47105644385508	122.09608285219582	67.93565322200412	-0.012678743691052437	5.463710373920644e+23	-0.06909209174076436	-0.03091717042013363	-7.374448959296611e+23	-0.07201473301182397	0.09719932730108913	1.9360010598789368	372.656433	357.334869	0.798091	8.446177	9.749973	22.429211	0.0	11973.0	True	0.0	None	0.0	None	0.0	None	0.0	None	0.0	None	0.0	None	0.0	None	0.0	None	5.332000000000002e-06	12
2014-02-11 22:36:00	458.5868217468239	5728631943.1295	8.009571523295407e+22	9662509620808.152	112.24410093390438	3502345762554.533	5.88099910345215e+21	-2.1322912582242528e+24	6529.286908637641	-0.28027413350674824	34.64251220311865	28.126014939915557	45.51112516711827	121.02534282223999	121.31318622569565	66.87051625421843	-0.01215289096296063	5.3442518319653756e+23	0.02365826200153661	-0.030609907600094542	-7.278056037197903e+23	-0.07024629237064657	0.09566473818112274	1.9581492879077256	372.659668	357.224854	0.800876	8.566009	9.752501	22.52807	0.0	11973.0	True	0.0	None	0.0	None	0.0	None	0.0	None	0.0	None	0.0	None	0.0	None	0.0	None	3.4595e-06	12
2014-02-11 22:48:00	472.20077787769264	5697518118.4765005	7.931989973070195e+22	9929408606122.262	117.55736730221172	4180427697360.806	5.880597150461414e+21	-2.1347659757383755e+24	6520.399312397073	-0.2821318180603044	34.064990809006616	27.35807860262009	44.951331240147546	122.84152343705692	123.19489989741044	67.20465346224894	-0.01283377372294888	5.221025196308316e+23	0.18644629488233108	-0.03218558848339083	-7.075760865947016e+23	-0.06900134944598008	0.093513635684544	2.647957436989995	372.662903	357.114838	0.802967	8.685546	9.753209	22.652796	0.0	11973.0	True	0.0	None	0.0	None	0.0	None	0.0	None	0.0	None	0.0	None	0.0	None	0.0	None	3.1686e-06	12
2014-02-11 23:00:00	453.3443057769304	5615428158.1167	7.79679862421557e+22	9520190571611.066	121.8850111629862	4996278317224.757	5.769215505262037e+21	-2.1553884910411483e+24	6663.892104445032	-0.2890215540847048	33.726044695509216	27.082860385925088	44.31619821365671	123.31219225270736	124.11375202317065	66.48699101587765	-0.01383484803212102	5.130167538590621e+23	0.2496340848924548	-0.033677298190717436	-6.892902553713739e+23	-0.06879172830704604	0.0924286928555722	2.3050537080510844	372.666138	357.004883	0.80511	8.807364	9.753956	22.753014	0.0	11973.0	True	0.0	None	0.0	None	0.0	None	0.0	None	0.0	None	0.0	None	0.0	None	0.0	None	3.1759e-06	12
2014-02-11 23:12:00	467.472332048752	5620747546.1042	7.786722517493474e+22	9877393062619.172	112.9835013057333	3822252699798.916	5.864352450062e+21	-2.184059525100488e+24	6467.3517787720675	-0.29258893033345146	33.281724751356364	26.27399073461284	43.767048882539406	123.05917660796813	124.03886374587046	65.28196652725305	-0.012462331933127431	5.078673981031776e+23	0.4146769399498732	-0.031102157263142083	-6.871838357584786e+23	-0.06803678061631814	0.09205902180608404	2.305962268158525	372.669434	356.894928	0.808237	8.928908	9.755857	22.853897	0.0	11973.0	True	0.0	None	0.0	None	0.0	None	0.0	None	0.0	None	0.0	None	0.0	None	0.0	None	3.2241e-06	12
2014-02-11 23:24:00	459.5759210331418	5592076206.3437	7.76890712556583e+22	9805762447656.078	106.01386548421793	4003343700623.59	5.870120986438278e+21	-2.178839327207458e+24	6420.684539946154	-0.29338612705655664	33.55583100302353	26.550323784436397	43.65329133266361	121.56799215425741	122.21794800123602	64.33581743702118	-0.0116370873198922	4.874687711179624e+23	0.3152619262078483	-0.02931662539121652	-6.993662725161019e+23	-0.06563888077172601	0.09417140563111512	2.293020267887804	372.67276	356.785004	0.811841	9.049359	9.75809	22.978283	0.0	11973.0	True	0.0	None	0.0	None	0.0	None	0.0	None	0.0	None	0.0	None	0.0	None	0.0	None	3.4081e-06	12
2014-02-11 23:36:00	473.373828624086	5647107217.6785	7.87255477844733e+22	10154962612019.484	89.54478944741196	2502117747144.933	6.033207629359484e+21	-2.207883025230477e+24	6208.55821923264	-0.2943997956123364	33.53173113254694	26.581483033095946	43.52798457847484	120.62422879676865	121.66925565156372	63.58146463156831	-0.009378381802200663	4.876554757160812e+23	0.4225491035879305	-0.024500550699348842	-6.871209009130499e+23	-0.06502412978380699	0.09162091038253706	2.293589823389077	372.676086	356.67514	0.814458	9.168817	9.759299	23.078098	0.0	11973.0	True	0.0	None	0.0	None	0.0	None	0.0	None	0.0	None	0.0	None	0.0	None	0.0	None	5.1298e-06	12
2014-02-11 23:48:00	467.79521170656665	5602436445.0481	7.883146386340068e+22	10054339085791.707	97.74492137473915	2768687931827.535	5.960116224747686e+21	-2.1554628614607345e+24	6330.958892785871	-0.28970174214518296	33.44540050780702	26.503839590443683	43.12452960693543	119.61866079060252	120.1987414467442	63.372256427839105	-0.010425012945258015	4.754713924261858e+23	0.4702331629680476	-0.027055650007955703	-6.936299822405928e+23	-0.06390501696360182	0.09322629392141472	2.447320344934689	372.679565	356.565308	0.817434	9.262411	9.761026	23.177732	0.0	11973.0	True	0.0	None	0.0	None	0.0	None	0.0	None	0.0	None	0.0	None	0.0	None	0.0	None	6.0885e-06	12
2014-02-12 00:00:00	465.7350177534553	5601909846.1964	7.922092842632465e+22	10328541971224.305	101.96953116068556	3814252540600.958	6.017605796485255e+21	-2.143090008139221e+24	6161.795100812957	-0.2880658931447617	33.68927837181809	26.91870674517095	43.442911852360666	118.84440945430971	119.12266797194712	62.465956246049565	-0.010532954360157585	4.885516289077897e+23	0.5147465106687942	-0.028263518268039838	-6.97175932058567e+23	-0.06566922564808493	0.0937116998281652	2.287018084358373	372.682953	356.455505	0.819952	9.383308	9.758368	23.30061700000001	0.0	11973.0	True	0.0	None	0.0	None	0.0	None	0.0	None	0.0	None	0.0	None	0.0	None	0.0	None	5.5425e-06	12
