Timestamp	TOTUSJH	TOTBSQ	TOTPOT	TOTUSJZ	ABSNJZH	SAVNCPP	USFLUX	TOTFZ	MEANPOT	EPSZ	MEANSHR	SHRGT45	MEANGAM	MEANGBT	MEANGBZ	MEANGBH	MEANJZH	TOTFY	MEANJZD	MEANALP	TOTFX	EPSY	EPSX	R_VALUE	CRVAL1	CRLN_OBS	LAT_MIN	LON_MIN	LAT_MAX	LON_MAX	QUALITY	NOAA_AR	IS_TMFI	BFLARE	BFLARE_label	CFLARE	CFLARE_label	MFLARE	MFLARE_label	XFLARE	XFLARE_label	BFLARE_loc	BFLARE_label_loc	CFLARE_loc	CFLARE_label_loc	MFLARE_loc	MFLARE_label_loc	XFLARE_loc	XFLARE_label_loc	XR_MAX	XR_QUAL
2014-02-07 06:12:00	6.985247529189882	45761349.8846	3.4903661285554055e+20	179924030067.56766	0.5253890995426604	56278435063.10159	1.0507863240775433e+20	-3.530482000305899e+22	1383.2634280719062	-0.5809285023680278	21.02763192368984	2.631578947368421	28.90955579700253	131.86201078858898	130.21459696544113	54.80072117058784	0.002765205787066634	-1.5371861577446743e+22	0.5786109328468504	0.014524460084782134	-1.3353487578793595e+22	0.2529386220924233	0.21972698175111727	0.0	74.288124	58.901577	-24.289927	12.057315	-22.46045100000001	15.973337	66560.0		False	0.0	None	0.0	None	0.0	None	0.0	None	0.0	None	0.0	None	0.0	None	0.0	None	2.1001e-06	12
2014-02-07 06:24:00	5.736503025817938	37419655.0526	2.474796274587296e+20	141361275690.58936	1.050785363346458	103662824898.28044	8.548688432604963e+19	-3.049982983322898e+22	1267.6800255539094	-0.6137410402612538	19.012593366210265	0.0	27.107921259440765	134.20434629183762	132.0310406966998	55.48674689217322	0.007148199750656176	-1.2320790496205573e+22	1.3775219686707767	0.03480249555765855	-1.118278509801792e+22	0.24792842508726945	0.22502860496612	0.0	74.28968	58.792530000000006	-24.288383	12.159578	-22.45805	16.074676999999998	0.0		True	0.0	None	0.0	None	0.0	None	0.0	None	0.0	None	0.0	None	0.0	None	0.0	None	2.1464e-06	12
2014-02-07 06:36:00	4.61474826913575	34862500.592300005	2.2706313099218728e+20	110415632736.6922	0.11269644761727785	1832208256.234364	8.133950344971877e+19	-2.9194146117033335e+22	1187.3306764257707	-0.6305576533587867	18.53113095772362	0.6944444444444444	27.238207160162656	123.91889610798836	122.90746272042507	50.68929719268466	-0.0007826142195644295	-1.0624020710307257e+22	0.024854233651291042	-0.003965021333525371	-1.093948765450737e+22	0.2294657819917509	0.2362794800272976	0.0	74.291229	58.683483	-24.285681	12.288105	-22.453585	16.174969	0.0		True	0.0	None	0.0	None	0.0	None	0.0	None	0.0	None	0.0	None	0.0	None	0.0	None	2.1401e-06	12
2014-02-07 06:48:00	6.040567763619335	43676976.4235	2.575232732948362e+20	146132490716.30875	0.09925202760719	26613673300.865425	9.94398567856236e+19	-3.7806996066245915e+22	1127.3934792732139	-0.6517890909679123	18.11538009316606	0.0	26.287011349699487	129.1737759779817	131.24579502311678	50.77556186506453	-0.0005770466721348253	-1.141106298090527e+22	0.3022456797390879	-0.0027514537908238123	-1.3901002108690693e+22	0.1967256630034708	0.23965198166208634	0.0	74.292778	58.574429	-24.28433	12.386834	-22.452257	16.275658	0.0		True	0.0	None	0.0	None	0.0	None	0.0	None	0.0	None	0.0	None	0.0	None	0.0	None	2.1222e-06	12
2014-02-07 07:00:00	6.704356916511602	43227923.8803	2.5054552752195355e+20	159241742525.81665	0.9134938868316996	39816876876.36824	9.761207698034885e+19	-3.7441848624132255e+22	1136.4911924234355	-0.6521994269807699	18.207967776146386	0.0	26.385303077439538	130.55926428230146	133.94975107029342	47.65456058745128	0.005502975221877707	-1.1688139406388549e+22	0.4685319751637096	0.025580486262548455	-1.1678271910806968e+22	0.2035956584260304	0.2034237765558629	0.0	74.294373	58.465374	-24.307787	12.487587	-22.44742	16.379295000000006	0.0		True	0.0	None	0.0	None	0.0	None	0.0	None	0.0	None	0.0	None	0.0	None	0.0	None	1.8947999999999998e-06	12
2014-02-07 07:12:00	6.902794380533468	41002133.5204	2.7192372194913767e+20	173272757747.60254	0.8035515382175893	102060134116.29958	9.344262667422938e+19	-3.4612736554560267e+22	1204.441456511342	-0.635648464274006	21.08769425950557	2.3529411764705883	28.069940690310702	126.00433057964264	129.07418646079708	46.6046144826331	0.0047267737542211145	-1.1472860082568948e+22	1.1726930369326003	0.0239633376255526	-1.201559491930126e+22	0.21069428823750933	0.22066138705193247	0.0	74.295914	58.356312	-24.304543	12.615865	-22.444241	16.483437	0.0		True	0.0	None	0.0	None	0.0	None	0.0	None	0.0	None	0.0	None	0.0	None	0.0	None	2.0534e-06	12
2014-02-07 07:24:00	6.857210100770723	41448215.8542	2.495201636084838e+20	167826579159.60416	0.3430735351496039	9632522923.44258	9.486946512476312e+19	-3.576744478978844e+22	1098.7453531257627	-0.6497848624157584	19.970066514822733	0.5847953216374269	27.514508969565412	127.56841004061444	130.95448748612577	44.603543139295894	-0.0020062779833310168	-1.1005314863517158e+22	-0.1100319160272074	-0.010034230147982588	-1.299443021073408e+22	0.19993284525804944	0.23606897546854266	0.0	74.29744000000002	58.24724200000001	-24.301872	12.718054	-22.441631	16.598209	0.0		True	0.0	None	0.0	None	0.0	None	0.0	None	0.0	None	0.0	None	0.0	None	0.0	None	1.9028e-06	12
2014-02-07 07:36:00	8.632775341240949	48436775.9832	3.683135346674639e+20	215236333923.0499	0.32832273454086897	36748284693.88982	1.119494997675719e+20	-4.0969116703612046e+22	1352.8551715588262	-0.6368964984106263	21.329651092573254	5.365853658536587	27.83769346059687	129.6343418555705	131.38754499475013	49.99730527488795	0.0016015743148335075	-1.1907364984791511e+22	0.35015162611530243	0.008281986229266809	-1.603839416818394e+22	0.1851091669604483	0.24932919983957505	0.0	74.298965	58.138161	-24.29961	12.820602	-22.438478	16.71579	0.0		True	0.0	None	0.0	None	0.0	None	0.0	None	0.0	None	0.0	None	0.0	None	0.0	None	1.5527000000000004e-06	12
2014-02-07 07:48:00	7.4563858510518575	44792395.2147	3.0776567780298274e+20	184838500402.18945	1.5380556737596882	153337183964.9837	1.0325802084002788e+20	-3.790095449152443e+22	1245.933130995985	-0.6371377743901955	20.62194064230948	2.1505376344086025	27.62056959612588	121.4036364288892	122.97747899549113	49.493270895470104	0.008269116525589721	-1.0880650618834612e+22	1.6102982857163013	0.04194812332241253	-1.5560853522279475e+22	0.18291026208197086	0.2615872796294373	0.0	74.30046800000002	58.029068	-24.297567	12.923317	-22.436493	16.821533	0.0		True	0.0	None	0.0	None	0.0	None	0.0	None	0.0	None	0.0	None	0.0	None	0.0	None	1.3983e-06	12
2014-02-07 08:00:00	8.465877972669308	51585383.7816	3.632021098220769e+20	216081815654.00064	0.4754654217034163	65989425380.74926	1.176961614990478e+20	-4.406928554175599e+22	1314.8389388931128	-0.6432752960080966	21.159016423685166	1.9230769230769231	26.81188349591496	125.65813632942766	126.78567700772464	51.57334171040557	0.002285891450497193	-1.343049871076731e+22	0.6197011657120749	0.01121790974819922	-1.6537650891816377e+22	0.19604375082321684	0.2413985645996441	0.0	74.301964	57.919964	-24.29464	13.04976	-22.433624	16.923012	0.0		True	0.0	None	0.0	None	0.0	None	0.0	None	0.0	None	0.0	None	0.0	None	0.0	None	1.3418e-06	12
2014-02-07 08:12:00	9.505617125425726	51431104.122	3.490895432586245e+20	218641079846.3977	0.6260767721864301	98239309974.22687	1.1146906701929336e+20	-4.384662896442848e+22	1390.7929190717014	-0.6419449645545761	20.576078862494523	2.1164021164021163	27.248716437457343	139.00565715153098	141.36535992067076	54.904927492062384	0.003312575514213916	-1.1422872378515965e+22	1.0153009688019086	0.01482767789461177	-1.7188884280763463e+22	0.16723874964451224	0.2516571506397729	0.0	74.303444	57.810844	-24.29278900000001	13.151931	-22.431828	17.028278	0.0		True	0.0	None	0.0	None	0.0	None	0.0	None	0.0	None	0.0	None	0.0	None	0.0	None	1.4266e-06	12
2014-02-07 08:24:00	7.0125520970198165	44718404.87710001	2.511550024189484e+20	164135043526.17474	0.2896264980001514	18616768437.497658	9.306987880718174e+19	-3.7334377393393664e+22	1228.0289282767924	-0.6286517011409797	18.391065871626747	0.0	27.13056079233479	140.41908944865983	144.39711189794454	53.40594266982002	-0.0018806915454555285	-1.0451900981407417e+22	-0.23613243196077746	-0.007953417266135977	-1.470899530645948e+22	0.1759934352964868	0.2476761517688164	0.0	74.304901	57.70170600000001	-24.289259	13.254682999999998	-22.428368	17.147017	0.0		True	0.0	None	0.0	None	0.0	None	0.0	None	0.0	None	0.0	None	0.0	None	0.0	None	1.535e-06	12
2014-02-07 08:36:00	7.1792167834364164	42495624.0983	2.719778208866808e+20	159748222728.98666	0.2473809455951437	12302702385.77639	8.786622225225558e+19	-3.5032430573286e+22	1422.1929499256591	-0.6207455029270946	19.552344816437	2.7777777777777777	27.58077360268167	151.82661787635868	157.11462886858553	54.73469263052882	-0.001717923233299609	-7.428540872724675e+21	0.16688275188401613	-0.00718351832406443	-1.4833192860086518e+22	0.1316275595096806	0.26283182785981984	0.0	74.306351	57.592548	-24.286001	13.361815	-22.42518	17.253004	0.0		True	0.0	None	0.0	None	0.0	None	0.0	None	0.0	None	0.0	None	0.0	None	0.0	None	2.7521e-06	12
2014-02-07 08:48:00	5.734975310890842	36702437.0627	2.4443859352736222e+20	122824251320.84125	0.5806615949367847	77085224031.38417	7.5710310947816e+19	-3.1105715675127423e+22	1533.825965017395	-0.6381648072766141	19.402062584636784	1.6666666666666667	27.110226073653703	137.28028795735875	142.0946206390239	53.457287149543845	0.004838846624473207	-6.297285080918489e+21	1.2547733356858473	0.019315262022866084	-1.3574717447208824e+22	0.12919508948137332	0.2784988789201687	0.0	74.307823	57.483376	-24.307127	13.487791	-22.421219	17.366697	0.0		True	0.0	None	0.0	None	0.0	None	0.0	None	0.0	None	0.0	None	0.0	None	0.0	None	1.9774e-06	12
2014-02-07 09:00:00	5.384468426529543	33121529.561900005	2.1845559373349555e+20	122208006482.73766	0.9237040435717856	84857590519.79033	6.9118939906348786e+19	-2.679682634741677e+22	1455.7012711522505	-0.6092008667108946	19.75976196406072	3.5398230088495577	28.03863821106941	142.94461054025132	147.35402697885868	54.791273047867975	-0.008174372067006953	-6.246894988383813e+21	-1.4668650068836395	-0.0346610885794434	-1.248137624043578e+22	0.14201733413636972	0.2837524535494571	0.0	74.309227	57.374176	-24.303455	13.589829	-22.421555	17.47179	0.0		True	0.0	None	0.0	None	0.0	None	0.0	None	0.0	None	0.0	None	0.0	None	0.0	None	2.5528e-06	12
2014-02-07 09:12:00	3.5505299332308726	27569476.3597	1.473002183086796e+20	84795102655.04677	0.0866708800550986	8034346209.994821	5.791345020472944e+19	-2.114018918566715e+22	1109.1516187197901	-0.5773881667034033	18.79787000074829	1.0	30.135525398948808	132.9482381759741	140.5344058066625	49.752669209625175	0.0008667088005509863	-5.938417988838575e+21	0.15693923968621185	0.003985989094473208	-1.0571095534238695e+22	0.16219212825298135	0.2887214214099283	0.0	74.310608	57.264957	-24.300508	13.719160999999998	-22.41972	17.573238	0.0		True	0.0	None	0.0	None	0.0	None	0.0	None	0.0	None	0.0	None	0.0	None	0.0	None	1.9783e-06	12
2014-02-07 09:24:00	4.286626642000346	31032310.03800001	1.5984164576223596e+20	103028051129.5639	0.16525277862650994	25950145541.34787	6.494208621118318e+19	-2.35409507037344e+22	1084.3127398817978	-0.5712122190676084	17.27579760071675	0.0	29.62125607174805	143.24269228638587	145.40050527461966	60.71576220988962	0.0014887637714099998	-7.30113697402322e+21	0.4566690525499274	0.006778440883652868	-1.1750035868310955e+22	0.17715931294086534	0.28511015323595995	0.0	74.311966	57.15571600000001	-24.297985	13.822766	-22.41832	17.680006	0.0		True	0.0	None	0.0	None	0.0	None	0.0	None	0.0	None	0.0	None	0.0	None	0.0	None	1.471e-06	12
2014-02-07 09:36:00	4.7234157031843	31085832.9406	1.5939142208189596e+20	104553597009.61597	0.7678496325119113	61020564130.90862	6.160546372089201e+19	-2.465328436761351e+22	1224.690673939759	-0.597172523846218	16.094572646390695	1.020408163265306	29.18362768584627	165.64267174068388	168.29403391410767	60.943681454857476	0.0078352003317542	-6.662742461890131e+21	1.2162955047457438	0.030930848747568088	-1.1782105349607064e+22	0.1613905341120052	0.2853960341726254	0.0	74.313293	57.046444	-24.294184	13.92546	-22.415659	17.802326	0.0		True	0.0	None	0.0	None	0.0	None	0.0	None	0.0	None	0.0	None	0.0	None	0.0	None	1.4898e-06	12
2014-02-07 09:48:00	4.1769021898058885	30774431.0126	2.072137388906942e+20	95464898595.00768	1.063669934269226	75217369726.8548	6.401525603332422e+19	-2.4440340960496526e+22	1500.281091309157	-0.5980047811530662	19.004231163219217	0.0	28.10636291260288	143.7749908182036	143.66486746625617	60.606951913140286	-0.010227595521819479	-7.608093086902282e+21	-1.4127927225152734	-0.043258232738864484	-1.1575045706935838e+22	0.18615436048044087	0.28321751672781403	0.0	74.314598	56.937149	-24.291359	14.051003	-22.413984	17.907639	0.0		True	0.0	None	0.0	None	0.0	None	0.0	None	0.0	None	0.0	None	0.0	None	0.0	None	1.4053e-06	12
2014-02-07 10:00:00																																	False	0.0	None	0.0	None	0.0	None	0.0	None	0.0	None	0.0	None	0.0	None	0.0	None	2.7952e-06	12
2014-02-07 10:12:00	4.345934180689512	27499510.6451	1.7492779573783498e+20	106623900057.4275	0.05339502093344034	8386022728.97133	6.0991098242237374e+19	-2.155921755883848e+22	1197.4397552139924	-0.5903309644236386	19.28063584895368	0.9090909090909092	28.225266097999484	135.66083794684508	135.7356648006645	51.00292245913922	-0.00048540928121309406	-7.127264835808632e+21	-0.14892522940446093	-0.0024418460305423912	-1.0820956631699372e+22	0.1951575984955308	0.2962976623313789	0.0	74.317123	56.718472	-24.286324	14.258805	-22.408197	18.121742	0.0		True	0.0	None	0.0	None	0.0	None	0.0	None	0.0	None	0.0	None	0.0	None	0.0	None	3.1516000000000013e-06	12
2014-02-07 10:24:00	5.235083591786356	30864246.9089	2.0555347614586087e+20	126834796731.03046	0.1476524182347266	22592300044.49948	6.842142744878193e+19	-2.596298154117724e+22	1300.664783117637	-0.6334121609577529	19.72313284299653	0.8403361344537815	26.939207491631585	129.82857569471045	128.16835712020588	59.154311978868996	0.001240776623821232	-7.672501527244751e+21	0.37087258835188736	0.00585759162517365	-1.1652363574096133e+22	0.1871840398844808	0.2842797072450167	0.0	74.31839000000002	56.609089	-24.282835	14.385662	-22.423529	18.224241	0.0		True	0.0	None	0.0	None	0.0	None	0.0	None	0.0	None	0.0	None	0.0	None	0.0	None	1.9390999999999998e-05	12
2014-02-07 10:36:00	4.926353238473725	32848061.8377	1.6896710123824647e+20	121276524944.5209	0.9536758008940436	93870417049.16023	7.303173660911896e+19	-2.596032008922497e+22	978.6927525812317	-0.5950971419526748	17.249110522794854	0.7692307692307693	28.81076746638516	139.76286708295112	141.8368407519682	51.707929205189245	0.007335967699184952	-8.04123884091474e+21	1.410598802564776	0.0364027230773219	-1.291447999384603e+22	0.18433202038881585	0.2960429650993649	0.0	74.31958	56.499676	-24.27973	14.491016	-22.420513	18.329369	0.0		True	0.0	None	0.0	None	0.0	None	0.0	None	0.0	None	0.0	None	0.0	None	0.0	None	1.0664000000000003e-05	12
2014-02-07 10:48:00	5.580954015001172	35808685.032800004	1.9705108585171547e+20	121910037412.64046	0.0773501909999941	4416371578.538014	7.593305999552355e+19	-3.0645306918124757e+22	1206.3163711043762	-0.6444112340641192	17.520257550870276	0.0	26.05035230175508	143.87970834445719	143.5306808831645	58.96380048196432	-0.0006288633414633668	-9.312916242653199e+21	0.07014323709870819	-0.002627196627205564	-1.2868976763086444e+22	0.19583252550538208	0.2706095657387029	0.0	74.320724	56.390228	-24.27557	14.615273	-22.416451	18.440792	0.0		True	0.0	None	0.0	None	0.0	None	0.0	None	0.0	None	0.0	None	0.0	None	0.0	None	1.8959000000000001e-06	12
2014-02-07 11:00:00	5.617234692456359	37579053.2839	1.991655707488668e+20	141969835510.19147	1.2913971685834715	127936132939.8532	8.389126256432387e+19	-3.017714267699098e+22	993.1729077269437	-0.6046719568381255	17.713951081554264	0.0	28.554455218915038	132.5070843402803	132.22307374918543	54.31526811289876	0.008552299129691864	-9.763199418316209e+21	1.6551955893238046	0.04283095201561605	-1.4196726757959303e+22	0.19562928672419835	0.2844657176895912	0.0	74.321854	56.280754	-24.271999	14.721797	-22.412985	18.545967	0.0		True	0.0	None	0.0	None	0.0	None	0.0	None	0.0	None	0.0	None	0.0	None	0.0	None	1.7616e-06	12
2014-02-07 11:12:00	6.1441326681821575	36998062.9876	1.8919350633104536e+20	145636732131.1671	1.626700416867458	131468621216.3718	8.173080672671377e+19	-3.098223909900974e+22	1010.3564709753861	-0.6305526099844431	17.50347176108382	1.4184397163120568	27.22170933840341	138.47933106119385	138.7798167843514	53.493494373258116	0.011536882389130908	-1.010346260698501e+22	1.8215626349137284	0.053929174217671946	-1.2975658971397288e+22	0.2056263492240058	0.2640814824434082	0.0	74.322937	56.17124200000001	-24.268492	14.829581	-22.410643	18.648853	0.0		True	0.0	None	0.0	None	0.0	None	0.0	None	0.0	None	0.0	None	0.0	None	0.0	None	1.6233000000000004e-06	12
2014-02-07 11:24:00	5.647156442383591	36774425.9086	2.215489640251236e+20	129499593690.48265	0.21576939836758674	46899668180.89668	8.234305703375027e+19	-3.1364836315415448e+22	1158.4966158333825	-0.6422212355972333	18.79268729198164	1.3888888888888888	26.97984233976635	133.98907226655436	133.4046629955043	51.80832274990151	0.001498398599774908	-1.0082905153798505e+22	0.6362926292035314	0.0071456588963617436	-1.2635790419893334e+22	0.20645590945104267	0.2587283687568032	0.0	74.32399699999998	56.06169499999999	-24.262999	14.956734	-22.406338	18.751719	0.0		True	0.0	None	0.0	None	0.0	None	0.0	None	0.0	None	0.0	None	0.0	None	0.0	None	1.539e-06	12
2014-02-07 11:36:00	6.56210104385064	38243177.0561	2.3688209565219904e+20	167892694721.63922	0.0021107693489569312	12176788554.027756	9.008477019508875e+19	-3.067109520784676e+22	1037.0300151532365	-0.6038969787217567	18.859200398937467	1.162790697674419	28.17767815055373	123.40420954330018	122.89142224892916	47.92967266037141	1.227191481951704e-05	-9.707689008186354e+21	-0.13831292340917506	6.882406835718919e-05	-1.4471880048742085e+22	0.19113905201905945	0.2849433506901029	0.0	74.32502	55.95211800000001	-24.258562	15.062307999999998	-22.402031	18.855804	0.0		True	0.0	None	0.0	None	0.0	None	0.0	None	0.0	None	0.0	None	0.0	None	0.0	None	1.4049e-06	12
2014-02-07 11:48:00	7.20134979138145	45435783.47180001	2.976734941407017e+20	169424490174.3363	0.6691060860523818	43546377144.041664	1.046808764324468e+20	-3.88582934542249e+22	1205.0765884362445	-0.6439811135326908	19.160193213294033	1.6129032258064515	26.262722238426193	132.09400979379885	133.06753739101714	48.347665420119725	-0.0035973445486687187	-1.139965637298637e+22	-0.4574109684684842	-0.017915549393160018	-1.6431642903354892e+22	0.1889214052494018	0.27231426687688265	0.0	74.326004	55.842503	-24.256441	15.16449	-22.401102	18.961113	0.0		True	0.0	None	0.0	None	0.0	None	0.0	None	0.0	None	0.0	None	0.0	None	0.0	None	1.8049e-06	12
2014-02-07 12:00:00	6.23349716475746	41162158.90100001	2.5332379788465947e+20	146642158623.27914	0.8486636629030382	59604976644.256775	9.346187181486055e+19	-3.508733440521773e+22	1184.7797613692715	-0.6418591602676637	17.924198598805148	0.0	26.322357520306163	132.26016630333334	132.00706862008207	51.54745472039004	0.00527120287517415	-1.0880542752633371e+22	0.7233253262986941	0.025114906052950352	-1.4993076887707084e+22	0.19903980033955312	0.2742711552217861	0.0	74.327003	55.73285300000001	-24.25223	15.290156	-22.398098	19.067314	0.0		True	0.0	None	0.0	None	0.0	None	0.0	None	0.0	None	0.0	None	0.0	None	0.0	None	1.4628e-06	12
2014-02-07 12:12:00	6.070484153708893	34828566.946600005	2.352970709246504e+20	145275252137.60754	0.18499560171855736	39802075262.48819	8.210132187678582e+19	-2.911040049500818e+22	1205.2764701742626	-0.6293613475515055	19.563232123847285	1.3605442176870748	26.54805296499144	124.04688917799999	123.72625882943085	49.66771660410366	0.0012584734810786216	-8.523846307407066e+21	0.5290236735725987	0.0065198617050628745	-1.3451461663217657e+22	0.18428394344047405	0.29081805454211435	0.0	74.327919	55.623169	-24.248503	15.398869	-22.398827	19.170906	0.0		True	0.0	None	0.0	None	0.0	None	0.0	None	0.0	None	0.0	None	0.0	None	0.0	None	1.5046000000000004e-06	12
2014-02-07 12:24:00	6.604715623708207	38781978.13940001	2.4558902122414807e+20	161099620864.40372	0.18681386623583146	1997154871.1744688	9.24119081629751e+19	-3.2997379014916127e+22	1120.7597109391472	-0.6406738447608336	19.07188253134377	0.0	25.962779238302588	128.0128006829953	129.29865197822386	46.88723988990049	-0.00113220524991413	-8.425856296145201e+21	-0.02364963800310394	-0.005872011429808971	-1.4341725221251474e+22	0.16359559182604802	0.2784575173030891	0.0	74.328796	55.513451	-24.244873	15.525562	-22.418577	19.273678	0.0		True	0.0	None	0.0	None	0.0	None	0.0	None	0.0	None	0.0	None	0.0	None	0.0	None	1.5329e-06	12
2014-02-07 12:36:00	5.113279074859267	33571314.2153	2.434333340250424e+20	125472814943.37187	0.1532915810878528	5297868381.74736	7.74970391783894e+19	-2.7035672605723455e+22	1328.2765054406211	-0.6063960530690854	20.254186976074255	3.6231884057971016	27.52245876776189	133.15533596300895	131.04413318179922	54.30806162792511	0.001110808558607629	-7.957965074001799e+21	-0.07501169266499241	0.005684958883960293	-1.3063028607240548e+22	0.1784930111305877	0.2929969268411049	0.0	74.329651	55.403698	-24.241476	15.629517000000002	-22.417519	19.376133	0.0		True	0.0	None	0.0	None	0.0	None	0.0	None	0.0	None	0.0	None	0.0	None	0.0	None	1.4447e-06	12
2014-02-07 12:48:00	5.964693237724696	39361866.13690001	2.876488747865371e+20	139698564840.40167	0.5815604212838152	45716704113.706604	9.36459059226075e+19	-3.476809711186153e+22	1320.7066751444622	-0.6651089368996527	20.434628130262045	1.8292682926829267	24.739917510828967	121.58021449803772	121.299741833877	46.949128359091986	0.003546100129779361	-8.958606987471762e+21	0.5446886251744499	0.01774624636372137	-1.4339090700236692e+22	0.17137692495418022	0.2743048416212703	0.0	74.33046	55.293907	-24.237858	15.745712	-22.414032	19.47954	0.0		True	0.0	None	0.0	None	0.0	None	0.0	None	0.0	None	0.0	None	0.0	None	0.0	None	1.3136000000000002e-06	12
2014-02-07 13:00:00	6.965606192551053	43370267.6229	3.1624949356505e+20	161800981399.9142	0.07415863735997774	15574349266.977097	9.712971616213716e+19	-3.612300080463159e+22	1443.222898799759	-0.6271612762365804	19.580060350154746	0.6060606060606061	25.975624467266112	135.87931198718456	134.94092930065602	55.19355322335458	0.0004494462870301682	-9.704487828526043e+21	0.18443938657592449	0.002101691823377667	-1.6727241937015336e+22	0.16848763491931126	0.29041547400434964	0.0	74.33123	55.184082	-24.23351700000001	15.864792	-22.412083	19.582285	0.0		True	0.0	None	0.0	None	0.0	None	0.0	None	0.0	None	0.0	None	0.0	None	0.0	None	1.2611e-06	12
2014-02-07 13:12:00	7.22150065610233	47881556.7236	3.0968348451421146e+20	167878193841.7576	1.2227116137469742	65529346393.14503	1.0771169776196175e+20	-3.982325968695132e+22	1246.9928983290745	-0.6262620363723517	19.056187735731395	0.53475935828877	26.540564751934706	126.17869093451736	127.69216289335415	49.09954604247925	0.006538564779395583	-1.147917786224712e+22	0.6847508166640088	0.031404743261861615	-1.7717127926539042e+22	0.18052197033601627	0.2786202008867553	0.0	74.33197	55.074223	-24.229221	15.972614000000002	-22.409058	19.684662	0.0		True	0.0	None	0.0	None	0.0	None	0.0	None	0.0	None	0.0	None	0.0	None	0.0	None	1.2651e-06	12
2014-02-07 13:24:00	6.601454672142812	43686909.5142	2.9350475961001807e+20	155354601023.1195	0.7097755416019156	34355981419.924862	1.0134986232450582e+20	-3.626265966803477e+22	1194.6230916288118	-0.625022736898445	19.984478298448085	0.5405405405405406	26.951322666939358	127.51321950778078	125.7632520686858	50.65864883551285	0.0038366245491995438	-8.945533011203612e+21	0.36289383034482303	0.019995867968364143	-1.667753545359559e+22	0.1541850922370824	0.2874537871560394	0.0	74.33268699999998	54.964333	-24.224438	16.099792	-22.427334	19.788103	0.0		True	0.0	None	0.0	None	0.0	None	0.0	None	0.0	None	0.0	None	0.0	None	0.0	None	1.3209000000000001e-06	12
2014-02-07 13:36:00	6.9141092581515124	48009807.2254	2.6935145568839323e+20	160667795315.31622	0.5360202806026649	60755202315.00848	1.0854881591625454e+20	-4.164955775422847e+22	1084.5893102413372	-0.6532328723246338	17.660600161208887	0.0	26.42084930315889	127.2587923977398	128.4663641922734	49.71473309370944	0.0028664186128484767	-1.0786612176493333e+22	0.6348946421150653	0.013506636849359469	-1.6294468331198772e+22	0.16917753836143065	0.2555629141082804	0.0	74.333359	54.854404	-24.219835	16.208652	-22.424007	19.891468	0.0		True	0.0	None	0.0	None	0.0	None	0.0	None	0.0	None	0.0	None	0.0	None	0.0	None	1.4325e-06	12
2014-02-07 13:48:00	7.429033015243433	46504155.51130001	2.800882033376888e+20	169243220188.04514	0.6155069505934434	57132729364.09978	1.0146355804814267e+20	-4.02725260260399e+22	1247.9455802575412	-0.6520856494970957	18.517927684622602	1.183431952662722	26.63390313522963	137.20672080777084	137.55497734753172	54.55657427296915	0.003642052962091381	-8.658425343263849e+21	0.6606459001741091	0.016022808278897394	-1.7274705577485032e+22	0.1401956984256125	0.27970899066728105	0.0	74.33404499999997	54.74444200000001	-24.214777	16.320353	-22.41909	19.993622	0.0		True	0.0	None	0.0	None	0.0	None	0.0	None	0.0	None	0.0	None	0.0	None	0.0	None	1.3824e-06	12
2014-02-07 14:00:00	7.9663728287296305	51616136.78830001	2.979953420718824e+20	174626189650.17636	0.04183538421649721	21571670425.58664	1.1276147991676068e+20	-4.6833248968974805e+22	1206.3796917347386	-0.6832132443025761	17.954907191788813	1.6129032258064515	25.779885134259978	139.7058887856703	140.78527408757282	51.136526043450075	0.0002249214205188022	-9.591301895714274e+21	0.2266480510444753	0.0009630506333979826	-1.8065978729469783e+22	0.13991992077247173	0.2635502812849709	0.0	74.33465600000002	54.634453	-24.209431	16.444886999999998	-22.413893	20.098427	0.0		True	0.0	None	0.0	None	0.0	None	0.0	None	0.0	None	0.0	None	0.0	None	0.0	None	1.3021e-06	12
2014-02-07 14:12:00	8.589567724260828	57253856.12450001	3.5382398068490915e+20	197640939202.68527	0.9309376659346208	95444654643.58524	1.2587005874372488e+20	-5.057806413578059e+22	1274.7601128313593	-0.6651888307939293	19.177969285970878	0.9569377990430622	26.184300599609045	136.0792108886109	136.0990354369903	53.53165582364845	0.004454247205428807	-1.0724833812204229e+22	0.8924772633873078	0.019529106169091873	-2.0671476922496498e+22	0.14105007350315873	0.2718655962779648	0.0	74.335228	54.524426	-24.200457	16.558058	-22.408695	20.20192	0.0		True	0.0	None	0.0	None	0.0	None	0.0	None	0.0	None	0.0	None	0.0	None	0.0	None	1.2936000000000002e-06	12
2014-02-07 14:24:00	8.91385783845697	59815971.75480001	3.71115144016266e+20	218210845713.6206	1.0669942668461492	66366046036.03227	1.2998340102865396e+20	-4.904278615184679e+22	1231.0348198226386	-0.6173699541550391	18.674676467823172	2.643171806167401	28.502268205164352	142.35648510597284	143.02688683529232	55.867659968402265	0.004700415272449996	-1.2480405338524282e+22	0.5713767282075863	0.02205797031965277	-2.22285515915386e+22	0.15710826966120267	0.2798217832590315	0.0	74.33577	54.414368	-24.175808	16.680198999999998	-22.404385	20.309086	0.0		True	0.0	None	0.0	None	0.0	None	0.0	None	0.0	None	0.0	None	0.0	None	0.0	None	1.6797e-06	12
2014-02-07 14:36:00	7.637745249877392	59547987.4025	3.903976303852386e+20	180477216817.0421	1.6531588351317392	148091258685.12445	1.2862501968585946e+20	-4.916837458153057e+22	1336.201441571024	-0.6217362759559136	19.841187325755925	2.272727272727273	27.800996924792987	134.52973934564088	133.34656785393472	55.20717114944822	0.007514358341507907	-1.3069360390551347e+22	1.3155871160681427	0.03423712267528314	-2.2550646379491587e+22	0.16526264143373626	0.28515392301885106	0.0	74.336288	54.304283	-24.170853	16.810999	-22.400719	20.451574	0.0		True	0.0	None	0.0	None	0.0	None	0.0	None	0.0	None	0.0	None	0.0	None	0.0	None	1.4422e-06	12
2014-02-07 14:48:00	7.414100073022079	54866996.61120001	3.096760676353932e+20	181362412151.32846	2.011113883050028	148582108154.48154	1.192102798119952e+20	-4.511694708731561e+22	1115.7038401382147	-0.6191788131093947	18.61380976464379	2.8708133971291865	28.23221248243318	136.31099563031592	134.90520008766524	53.76292541966004	0.0096225544643542	-1.3317541406807347e+22	1.3894520326952808	0.04527522939345398	-1.9562512372997137e+22	0.18276811739596835	0.2684732450781368	0.0	74.33676899999998	54.19416800000001	-24.159702	16.915155	-22.395811	20.588087	0.0		True	0.0	None	0.0	None	0.0	None	0.0	None	0.0	None	0.0	None	0.0	None	0.0	None	3.1e-06	12
2014-02-07 15:00:00	6.9241392051809	51654913.1041	2.8815423477969388e+20	161397006759.572	0.6961394324369761	82217884855.65193	1.123046163340745e+20	-4.2407044273926566e+22	1124.230198692162	-0.6181785305910323	18.014509919525427	1.0362694300518136	28.451125350364066	134.88112005399398	134.3371116221707	54.91412374011221	0.0036069400644402907	-1.1482526371033173e+22	0.8326115936439996	0.01665666918513791	-1.8220402901998736e+22	0.1673837778852778	0.26560355916291384	0.0	74.33721899999998	54.084023	-24.13414	17.015383	-22.390371	20.719688	0.0		True	0.0	None	0.0	None	0.0	None	0.0	None	0.0	None	0.0	None	0.0	None	0.0	None	2.5843e-06	12
2014-02-07 15:12:00	7.999663659315273	60869961.2623	2.9886111552081645e+20	176795374868.4452	0.13190117663179468	561405396.6663551	1.2711806572863432e+20	-5.472968322625166e+22	1103.1301767106993	-0.6770292443347421	17.749938007333736	0.9803921568627452	26.44482699053681	130.57092579495597	132.42373356192928	51.931982561990424	0.0006465743952538955	-1.3837437003853931e+22	0.0053788544719008645	0.002584252850780456	-1.9124608446193897e+22	0.17117492676725746	0.2365794654976895	0.0	74.337654	53.973854	-24.129293	17.115651999999994	-22.386806	20.827087	0.0		True	0.0	None	0.0	None	0.0	None	0.0	None	0.0	None	0.0	None	0.0	None	0.0	None	1.9382e-06	12
2014-02-07 15:24:00	9.544668035578377	66075793.5759	3.621453206612407e+20	203869555989.0041	1.510007171976384	87964964707.3038	1.3555462127117224e+20	-5.860584941862472e+22	1233.8944413117035	-0.6678608418559416	19.304961081104565	3.1674208144796383	26.990029065298533	141.7439846798228	142.1621151988341	55.1254040851713	0.006832611637902191	-1.5964769518803443e+22	0.7779835738678326	0.02740354862997756	-1.869532032654616e+22	0.1819314030362936	0.21304822805086165	0.0	74.338104	53.863659	-24.116255	17.217154999999998	-22.382563	20.93581	0.0		True	0.0	None	0.0	None	0.0	None	0.0	None	0.0	None	0.0	None	0.0	None	0.0	None	1.8674000000000001e-06	12
2014-02-07 15:36:00	8.62808662377622	66809264.45999999	3.057847137615663e+20	209034993639.0724	2.0203569569289974	169349275281.66516	1.4355810137612894e+20	-5.87629600268324e+22	951.4542432607184	-0.6622995742018982	17.068676863875783	0.8264462809917356	26.73290972195573	138.94162560195804	139.8673170912877	50.225313151495726	0.00834858246664875	-1.6033016051853846e+22	1.3678248173681955	0.03638414041595507	-1.9822667378699595e+22	0.1807032814457661	0.22341529695685566	0.0	74.338486	53.753437	-24.091192000000003	17.320235999999998	-22.378649	21.041145	0.0		True	0.0	None	0.0	None	0.0	None	0.0	None	0.0	None	0.0	None	0.0	None	0.0	None	1.6525999999999999e-06	12
2014-02-07 15:48:00	7.410876455133918	63062734.3494	3.024387835287734e+20	178048315297.32675	0.9937753021798992	74582179920.98962	1.307481282136025e+20	-5.356029771605975e+22	1054.3170996736853	-0.6395252612065611	17.432968448202082	0.9259259259259258	27.772411514224416	145.17495184346632	146.46706080863262	54.28870741185313	0.0046008115841662	-1.5008280478884859e+22	0.6749210562852572	0.0192232708431862	-1.9201991878055777e+22	0.17920315798846306	0.2292772705745761	0.0	74.338844	53.643196	-24.080299	17.420618	-22.376616	21.173046	0.0		True	0.0	None	0.0	None	0.0	None	0.0	None	0.0	None	0.0	None	0.0	None	0.0	None	1.4244e-06	12
2014-02-07 16:00:00	7.822099770227113	61506199.4654	2.980163605455995e+20	179263853552.48145	1.3352307302018316	91467755800.31807	1.2800320509132738e+20	-5.238252122550793e+22	1063.5187047082986	-0.6412907658355426	17.440208949112588	1.4218009478672986	27.53392225161168	143.6340199683271	144.8606776631116	54.863107067907066	0.006328107726075031	-1.382609498190388e+22	0.847356167719716	0.02645342420346436	-1.895662751225928e+22	0.16926537386945173	0.232075697973012	0.0	74.33918800000002	53.532932	-24.055054	17.521841000000002	-22.373648	21.276487	0.0		True	0.0	None	0.0	None	0.0	None	0.0	None	0.0	None	0.0	None	0.0	None	0.0	None	1.7703e-06	12
2014-02-07 16:12:00	8.956430103057938	69053171.2116	3.8188272584660274e+20	197074127411.95905	0.5896795141449366	28487917296.108673	1.4081945387351114e+20	-6.04240579574243e+22	1283.717680002803	-0.6588913214424084	17.976097807950907	0.8928571428571428	26.897833932391052	147.7781391256151	146.69355384784083	57.60610839440036	0.002632497831004181	-1.5661320463799584e+22	0.2486002766444604	0.010295429591852513	-2.1510281563137007e+22	0.1707781384559928	0.2345578619317505	0.0	74.339493	53.42264599999999	-24.022505	17.624249	-22.369675	21.386337	0.0		True	0.0	None	0.0	None	0.0	None	0.0	None	0.0	None	0.0	None	0.0	None	0.0	None	1.2311e-06	12
2014-02-07 16:24:00	10.350248097220703	69951508.1397	3.906525252989903e+20	230429514949.62146	1.3780862267176843	155665482036.7771	1.4052089919441466e+20	-5.960201841631479e+22	1295.8427311598082	-0.6415808656572659	18.73320831363594	0.8810572687224669	27.35004558571765	145.2372652510329	144.90406354764806	55.45370513715867	0.006070864434879668	-1.3864187532470202e+22	1.3404896113521665	0.024001977501354903	-2.3277095404440687e+22	0.14923986930419272	0.2505643167191788	0.0	74.339798	53.312344	-23.989462	17.728373	-22.36644200000001	21.488485	0.0		True	0.0	None	0.0	None	0.0	None	0.0	None	0.0	None	0.0	None	0.0	None	0.0	None	1.253e-06	12
2014-02-07 16:36:00	8.72516942829844	70631784.2204	3.651671266504584e+20	187350183822.65866	1.6221862203161008	119302207471.8752	1.4002346581756704e+20	-6.080780592091511e+22	1238.5860388061326	-0.6482561370745548	17.974741889037762	0.0	27.84476490945931	149.379288967707	149.89885376380425	57.2480851132604	0.007307145136559011	-1.33553253954888e+22	1.050509831696941	0.027868001492237667	-2.3700181554862045e+22	0.14237763588301788	0.2526614455174092	0.0	74.340073	53.202023	-23.919342	17.838501	-22.363533	21.597643	0.0		True	0.0	None	0.0	None	0.0	None	0.0	None	0.0	None	0.0	None	0.0	None	0.0	None	1.4053e-06	12
2014-02-07 16:48:00	11.950720123865011	82001676.1	4.815324037917077e+20	256133286287.1552	0.5997906148628225	69601614982.60173	1.5866269385491127e+20	-6.775430820095237e+22	1462.0469867156064	-0.6221594175219548	18.503362304340907	1.2096774193548387	28.271345975374288	157.7289117299351	157.30629743978696	62.85198009550001	0.0024185105438017033	-1.453573702269702e+22	0.5486299321472892	0.009018065804052785	-2.8370373284297135e+22	0.13347558139729296	0.2605132483249328	0.0	74.34033199999998	53.091686	-23.914799	17.962353	-22.359037	21.70282000000001	0.0		True	0.0	None	0.0	None	0.0	None	0.0	None	0.0	None	0.0	None	0.0	None	0.0	None	1.2254000000000002e-06	12
2014-02-07 17:00:00	12.170993496093937	85415705.132	4.6408964959417e+20	266062148382.758	0.23025974631243906	8286137008.000773	1.6955062767774014e+20	-7.171520931738728e+22	1313.7346706288754	-0.632209409463381	18.193657656049425	0.3759398496240601	27.805271446332466	151.01111213993775	152.51458016798932	58.19368904928847	0.0008656381440317257	-1.347807823160591e+22	-0.06089603778682224	0.0033031965012813892	-2.832514325878333e+22	0.11881674697195545	0.2497018730482802	0.0	74.340637	52.981335	-23.925154	18.067663	-22.356579	21.830105	0.0		True	0.0	None	0.0	None	0.0	None	0.0	None	0.0	None	0.0	None	0.0	None	0.0	None	1.045e-06	12
2014-02-07 17:12:00	12.629679817897372	80558268.978	4.6272955579544496e+20	268796944383.78284	0.41881399467774416	75792244695.14706	1.5981768928135945e+20	-6.908661733938137e+22	1404.9572217388557	-0.6457603049217298	18.647428742014338	0.8064516129032258	27.59392475678864	145.54358900082772	148.54097006008215	57.25624729012734	0.001688766107571549	-1.2411966809574377e+22	0.5974452048760887	0.006317925088275407	-2.5928845276207223e+22	0.1160160358156697	0.24235980391947	0.0	74.340874	52.870975	-23.924744	18.167656	-22.35358	21.937712	0.0		True	0.0	None	0.0	None	0.0	None	0.0	None	0.0	None	0.0	None	0.0	None	0.0	None	1.1152e-06	12
2014-02-07 17:24:00	11.442584780542893	85779766.04570001	4.676470661576327e+20	256599309038.2885	0.5337242765138404	86179333150.66115	1.7412203638359648e+20	-7.274973404186818e+22	1239.9020731392695	-0.6386075734353908	18.412361248327105	1.056338028169014	28.914476574631976	139.8423403925188	142.57174495120967	53.620742333105795	0.0018793108327952125	-1.2551257093681822e+22	0.5932196867681678	0.007594289305993467	-2.8473582416994478e+22	0.11017673042690418	0.2499451800588673	0.0	74.341103	52.76060500000001	-23.920963	18.298508	-22.349751	22.04142	0.0		True	0.0	None	0.0	None	0.0	None	0.0	None	0.0	None	0.0	None	0.0	None	0.0	None	1.1517e-06	12
2014-02-07 17:36:00	12.179510890589	85832627.7922	5.1343830507551687e+20	272685840428.1565	0.23640373686917185	87581218986.24086	1.7338083010461735e+20	-7.267282115958311e+22	1375.8448232259686	-0.6375395314923914	19.966299027070868	2.491103202846975	28.49384488637197	141.36702591026574	144.13880865714253	53.7127599990764	0.0008412944372568393	-1.3017121000169088e+22	0.6093133809867715	0.003363877183089757	-2.8777082322931803e+22	0.1141957762394259	0.2524537686736085	0.0	74.341324	52.650227	-23.932835	18.405579	-22.34618900000001	22.146479	0.0		True	0.0	None	0.0	None	0.0	None	0.0	None	0.0	None	0.0	None	0.0	None	0.0	None	1.4023e-06	12
2014-02-07 17:48:00	12.65853852322108	92967374.7858	5.2180690276764864e+20	271221640353.0117	1.2458635364382358	77833545988.3717	1.85317734719592e+20	-7.997215425019346e+22	1373.8245736153324	-0.6477325487564246	18.75435547672567	0.6993006993006993	27.23715851284336	142.19664326161654	145.23665322833315	53.32083524973532	-0.004356166211322503	-1.212786904275453e+22	-0.532036678024455	-0.016266090440113592	-3.0713740283829897e+22	0.09822938496156026	0.24876520411903105	0.0	74.341537	52.539841	-23.930738	18.508423	-22.344122	22.257179	0.0		True	0.0	None	0.0	None	0.0	None	0.0	None	0.0	None	0.0	None	0.0	None	0.0	None	1.3245e-06	12
2014-02-07 18:00:00	11.801569968406081	86211472.3721	5.477803334337934e+20	243686664337.9819	2.5908434176507997	163549103443.08267	1.6941166569020788e+20	-7.3162432597702675e+22	1611.2169078674995	-0.6390143553948686	19.418502471162533	0.390625	27.290819057379853	142.44968843902691	145.96571751818013	51.40940852418221	-0.010120482100198436	-1.0713758554616628e+22	-1.2489735502439625	-0.036671049756459996	-3.0108564238312288e+22	0.09357596888938843	0.2629738253018976	0.0	74.341751	52.429447	-23.940054	18.612915	-22.34289	22.359606	66560.0		False	0.0	None	0.0	None	0.0	None	0.0	None	0.0	None	0.0	None	0.0	None	0.0	None	1.1429e-06	12
