Timestamp	TOTUSJH	TOTBSQ	TOTPOT	TOTUSJZ	ABSNJZH	SAVNCPP	USFLUX	TOTFZ	MEANPOT	EPSZ	MEANSHR	SHRGT45	MEANGAM	MEANGBT	MEANGBZ	MEANGBH	MEANJZH	TOTFY	MEANJZD	MEANALP	TOTFX	EPSY	EPSX	R_VALUE	CRVAL1	CRLN_OBS	LAT_MIN	LON_MIN	LAT_MAX	LON_MAX	QUALITY	NOAA_AR	IS_TMFI	BFLARE	BFLARE_label	CFLARE	CFLARE_label	MFLARE	MFLARE_label	XFLARE	XFLARE_label	BFLARE_loc	BFLARE_label_loc	CFLARE_loc	CFLARE_label_loc	MFLARE_loc	MFLARE_label_loc	XFLARE_loc	XFLARE_label_loc	XR_MAX	XR_QUAL
2014-01-16 09:48:00	70.7433281996404	463610473.68530005	3.3551600326875236e+21	1529999581056.7466	7.6374284071167615	267372346990.6001	8.75831572975343e+20	-3.459942721998684e+23	1816.241420651838	-0.5619570662550387	21.81847828877399	1.7972681524083391	30.76425902051122	137.83936771279465	138.14411921731343	61.7004112474741	-0.005490602736963883	6.251913940781271e+22	0.3774880379272255	-0.02109379965744993	-1.4894591492344263e+23	-0.10154235196734444	0.24191501451416875	0.0	364.813538	346.601471	4.212774	13.726598	8.663058	23.760687	0.0	11954.0	True	0.0	None	0.0	None	0.0	None	0.0	None	0.0	None	0.0	None	0.0	None	0.0	None	8.542e-07	12
2014-01-16 10:00:00	68.65301139237921	465608777.2969	3.3179782092060555e+21	1474140271224.432	8.963934144398452	491928961146.7878	8.72262821165201e+20	-3.434399034257243e+23	1811.7439416697337	-0.5554144175993432	21.54967572688767	1.5953589557650472	30.99165692867156	138.4589427822207	139.84183783759522	62.76584229157554	-0.006500314825524621	6.262578553794688e+22	0.5050377843390708	-0.02475491126643072	-1.526468666326391e+23	-0.10127904141104764	0.2468620264664957	0.0	364.817505	346.492249	4.215267	13.846457	8.656346000000001	23.862032	0.0	11954.0	True	0.0	None	0.0	None	0.0	None	0.0	None	0.0	None	0.0	None	0.0	None	0.0	None	8.876700000000002e-07	12
2014-01-16 10:12:00	70.12426208334233	467182423.12100005	3.355661919885525e+21	1508322354906.5713	7.755337931354933	528884876334.6356	8.69454659077996e+20	-3.4176354808409e+23	1832.3205594550573	-0.5508416443936893	21.58024439778801	1.95794053662074	30.99016863431577	143.86866664881418	143.41489047786732	64.99574285524096	-0.005623885374441576	6.935885588355984e+22	0.7532182377960358	-0.02140803335798872	-1.5462426966745153e+23	-0.11178999762363363	0.2492175875521855	0.0	364.82135	346.382965	4.217984	13.94387	8.647601	23.961641	0.0	11954.0	True	0.0	None	0.0	None	0.0	None	0.0	None	0.0	None	0.0	None	0.0	None	0.0	None	8.3884e-07	12
2014-01-16 10:24:00	68.78996436619002	475146280.7265	3.413772760702975e+21	1501740931889.734	7.6685322546228445	327200731688.97345	9.01202921845268e+20	-3.5600052758835624e+23	1770.3353370218745	-0.5641711233185487	21.528474345190908	1.7906336088154269	30.62720303479954	138.0993538092047	137.00840607943604	63.190706569170196	-0.005281358302081849	7.793389404386085e+22	0.3513510488022605	-0.02063624361571113	-1.5406659327656986e+23	-0.12350558254833267	0.2441567252260085	0.0	364.825256	346.273651	4.2209379999999985	14.064504	8.643678	24.08939	0.0	11954.0	True	0.0	None	0.0	None	0.0	None	0.0	None	0.0	None	0.0	None	0.0	None	0.0	None	7.464700000000002e-07	12
2014-01-16 10:36:00	70.51048899362597	481148278.8623	3.499877455141025e+21	1527488792971.959	4.89185744639753	15674376245.94098	9.030273435390385e+20	-3.548986241243e+23	1795.2061122969567	-0.5554090023075399	21.62323737465738	1.8392370572207088	31.402789886468806	142.11769798714388	140.42617885237902	64.7871458650371	-0.0033323279607612604	8.016361098725134e+22	0.0033119254137660512	-0.01307314998103448	-1.5406978890455962e+23	-0.12545439224978516	0.2411160312395125	0.0	364.829132	346.164337	4.2232	14.186383	8.643207	24.190712	0.0	11954.0	True	0.0	None	0.0	None	0.0	None	0.0	None	0.0	None	0.0	None	0.0	None	0.0	None	6.6017e-07	12
2014-01-16 10:48:00	66.90556110142784	470266188.7915	3.292644222532409e+21	1460639830905.8171	7.218297048978631	365953304722.4541	8.786125748910976e+20	-3.507760330996288e+23	1769.6774852225492	-0.5616601499050278	21.249867671240693	1.5703069236259817	30.748225097447357	144.97705334480915	143.6651670733595	65.76952732640585	-0.005152246287636424	7.59653114509895e+22	0.5130145601733771	-0.01965777965696448	-1.5253474028155136e+23	-0.12163512951589407	0.2442375675875425	0.0	364.83294700000016	346.054932	4.225803	14.27951	8.625942	24.317055	0.0	11954.0	True	0.0	None	0.0	None	0.0	None	0.0	None	0.0	None	0.0	None	0.0	None	0.0	None	5.7261e-07	12
2014-01-16 11:00:00	71.33107017666048	494035527.7402	3.4996196507648493e+21	1565893778654.6355	7.243245599136177	421208862851.86346	9.325926114663443e+20	-3.669903703654297e+23	1733.6634651198929	-0.5593504935801282	21.691465333778087	1.776315789473684	31.015127616111666	143.96791382408242	142.36497514460032	63.589936182458075	-0.004765293157326433	7.989778193823874e+22	0.5195646493201904	-0.018804478043279668	-1.591566950222134e+23	-0.12177666601608778	0.24257959637636056	0.0	364.836731	345.945526	4.229546	14.372389000000002	8.626806	24.415956	0.0	11954.0	True	0.0	None	0.0	None	0.0	None	0.0	None	0.0	None	0.0	None	0.0	None	0.0	None	5.184300000000001e-07	12
2014-01-16 11:12:00	73.63457457679577	487595240.2939	3.483204083413152e+21	1632370814640.2458	10.730731171625603	698922281072.8231	9.330079105811293e+20	-3.6118077505280564e+23	1691.0430291722034	-0.5577668557301182	21.88555405784137	1.7408123791102514	31.16710468682437	141.5415058527299	139.53360213963904	63.07233627569783	-0.006918588763137075	7.687571534866528e+22	0.30208627008224737	-0.028255135469376164	-1.5984218685762913e+23	-0.11871818489165055	0.2468422466936984	0.0	364.840454	345.83606000000015	4.2322690000000005	14.467351	8.629017	24.516428	0.0	11954.0	True	0.0	None	0.0	None	0.0	None	0.0	None	0.0	None	0.0	None	0.0	None	0.0	None	4.8863e-07	12
2014-01-16 11:24:00	70.5191308401038	476119035.171	3.37041823029419e+21	1580994776609.5874	7.002366798170147	314654026709.6243	9.159827199574663e+20	-3.541022749911827e+23	1688.5438245153962	-0.5600163340821633	21.333859946346237	1.1976047904191618	30.656618410497433	140.49207554950942	138.16494509541667	61.564629816397236	-0.004658926678755921	7.895520894303013e+22	0.4111858934138667	-0.018855157367028072	-1.5718420774620113e+23	-0.12486846256513875	0.24858841643937085	0.0	364.844177	345.726562	4.235564	14.587573	8.631611	24.643015	0.0	11954.0	True	0.0	None	0.0	None	0.0	None	0.0	None	0.0	None	0.0	None	0.0	None	0.0	None	4.6107e-07	12
2014-01-16 11:36:00	65.81975488518299	481853065.4241	3.2697098311985545e+21	1462795572512.8467	6.288616416737713	588861264958.9246	9.186442582681872e+20	-3.653095148777286e+23	1670.318338683177	-0.5708656053537728	20.695111158920923	1.0854816824966078	30.134541458546767	139.46081338212835	138.29072239279046	63.00209350637842	-0.0042663612053851505	7.4635468202355074e+22	0.7846704147917224	-0.016616189780179008	-1.5453652039841877e+23	-0.11663211605769555	0.2414927087131488	0.0	364.847839	345.617035	4.238395	14.684157999999998	8.63391	24.745228	0.0	11954.0	True	0.0	None	0.0	None	0.0	None	0.0	None	0.0	None	0.0	None	0.0	None	0.0	None	4.4977e-07	12
2014-01-16 11:48:00	67.95971298816461	484219872.9263	3.3546814484659055e+21	1513405156960.452	7.340793525052573	431470933024.58777	9.270238351947158e+20	-3.663287729664252e+23	1670.65563164266	-0.5696601829650308	20.92361055605752	1.3888888888888888	30.602774146924844	139.1627264366416	137.16156744995254	61.361311125289966	-0.004858235291232675	8.068259460244021e+22	0.4815773407158103	-0.019352107232715892	-1.5516998026887338e+23	-0.1254656062944092	0.2412973423705053	0.0	364.851471	345.507477	4.241203	14.80578	8.636996	24.846218	0.0	11954.0	True	0.0	None	0.0	None	0.0	None	0.0	None	0.0	None	0.0	None	0.0	None	0.0	None	4.3966999999999997e-07	12
2014-01-16 12:00:00	74.73350949927115	508098687.3867	3.551719384427579e+21	1644775132629.8623	9.525824017161987	880325589810.4985	9.710168819977912e+20	-3.8906750996634786e+23	1692.6577129406573	-0.5765865115438371	21.233083417860698	2.5949367088607596	30.618931421837612	139.35298515533802	137.5075278755103	61.6802280223021	-0.006029002542507587	7.4809377465553725e+22	1.094396509228885	-0.023783001870342588	-1.6189246599743348e+23	-0.11086527884932006	0.2399198335084912	0.0	364.855011	345.397858	4.2442660000000005	14.926799	8.639546000000001	24.970272	0.0	11954.0	True	0.0	None	0.0	None	0.0	None	0.0	None	0.0	None	0.0	None	0.0	None	0.0	None	4.5176e-07	12
2014-01-16 12:12:00	68.47107340991533	503174552.5271	3.4169188014283576e+21	1472768654405.9956	10.473333297439387	612849024944.2294	9.478037735375024e+20	-3.862013293067645e+23	1688.2520488250852	-0.577939914288964	20.613286224871775	1.7060367454068242	30.49272280411534	139.6760006447297	138.21652871039498	61.95971216599746	-0.006872265943201699	7.546285281820612e+22	0.7898883132420882	-0.026381882955483403	-1.6115360553155836e+23	-0.11292813198763592	0.24116204140324546	0.0	364.858551	345.288208	4.246403	15.022251999999998	8.640137	25.071306	0.0		True	0.0	None	0.0	None	0.0	None	0.0	None	0.0	None	0.0	None	0.0	None	0.0	None	4.785799999999999e-07	12
2014-01-16 12:24:00	68.82957481956362	508963498.2731	3.4400524200555195e+21	1542396217540.3506	4.391766001629545	641460972932.6677	9.551475501987404e+20	-3.857345331649145e+23	1661.5237189018994	-0.5706758369372266	21.090180624078368	2.5016035920461834	30.9274944883432	139.06265293982491	137.80794709664244	61.7609471914425	-0.002817040411564814	7.810632316511476e+22	0.8082211154895059	-0.010987426642498138	-1.6031288828911505e+23	-0.1155545783692764	0.2371752690783877	0.0	364.862	345.178497	4.24925	15.145491	8.643267	25.174175	0.0		True	0.0	None	0.0	None	0.0	None	0.0	None	0.0	None	0.0	None	0.0	None	0.0	None	4.908400000000001e-07	12
2014-01-16 12:36:00	71.54265342877653	519000158.1021	3.573422526173074e+21	1576550737771.0981	8.269083688440041	713081836791.2754	9.707945391811448e+20	-3.9016768393417486e+23	1706.2405232872384	-0.5660716176589373	21.08140665634897	2.473050095117312	30.86786944188487	144.05007352478344	141.67692929794399	63.78599104015127	-0.0052435533851870894	7.890649142737206e+22	0.8882246581993002	-0.0203473696050841	-1.648312549521131e+23	-0.11448084268716448	0.23914408848693144	0.0	364.865448	345.068756	4.252445	15.242659	8.644917999999999	25.27606	0.0		True	0.0	None	0.0	None	0.0	None	0.0	None	0.0	None	0.0	None	0.0	None	0.0	None	5.3082e-07	12
2014-01-16 12:48:00	74.69697018097455	537286146.1237001	3.548511245513431e+21	1618670187651.2454	6.7831985772451695	367249717743.0055	1.0034245435408893e+21	-4.132804634436138e+23	1651.41095141275	-0.5791975619342569	20.795601022126746	1.792336217552534	30.548273148162107	141.4590105361728	140.02245171603994	63.504813974579314	-0.00419233533822322	7.4096305820302595e+22	0.4458690044497815	-0.015989041123926295	-1.665229009013625e+23	-0.1038432819249625	0.2333757986153832	2.0515170288318587	364.868896	344.958984	4.2554870000000005	15.363544	8.64743	25.401119	0.0		True	0.0	None	0.0	None	0.0	None	0.0	None	0.0	None	0.0	None	0.0	None	0.0	None	5.6383e-07	12
2014-01-16 13:00:00	74.54727285519067	537476896.6584	3.59250789765043e+21	1603869277425.4668	5.930794796371008	444183083001.1613	1.0060905987307197e+21	-4.134812129254312e+23	1678.1092625069473	-0.579273313021452	20.99204589464589	2.2952853598014893	30.24557165843309	144.76417117228436	143.01918234863015	64.70069083022075	-0.0036791530994857357	7.283803297701818e+22	0.5412909459473708	-0.013974162718306487	-1.6235341118233554e+23	-0.10204364154308593	0.2274516844683977	2.044198093128576	364.872253	344.849152	4.240327	15.4849	8.651407	25.501022	0.0		True	0.0	None	0.0	None	0.0	None	0.0	None	0.0	None	0.0	None	0.0	None	0.0	None	5.762300000000001e-07	12
2014-01-16 13:12:00	72.8840722418424	533081582.8872	3.6676092174390206e+21	1581765100154.7542	8.492661267746676	785808525336.9585	1.0093007665537648e+21	-4.086956544026503e+23	1672.7207988494854	-0.5772897095822541	21.31607437325826	2.301635372501514	30.673260904186282	139.85118923626356	138.20285692035532	60.93314078730931	-0.005143949889610343	7.68027892600812e+22	0.9350027864740992	-0.020200803753567684	-1.6501488384717735e+23	-0.1084852736490751	0.2330863892157613	2.0433587787420087	364.87558	344.739288	4.2436370000000005	15.582694	8.654119999999999	25.601789	0.0		True	0.0	None	0.0	None	0.0	None	0.0	None	0.0	None	0.0	None	0.0	None	0.0	None	5.7363e-07	12
2014-01-16 13:24:00	72.95850441465248	539909885.3988	3.766106917630768e+21	1615045937050.3848	9.147074240548562	913478806695.7352	1.0339267432887884e+21	-4.10424106243468e+23	1650.6575076939318	-0.5723992654061653	21.52868707262024	1.9790454016298016	30.89569272006569	139.26412137045827	137.98674196020815	60.13688546130345	-0.0053242574159188365	7.871132953861394e+22	1.0445474603484135	-0.02154904798273821	-1.6904103686936858e+23	-0.10977500230047044	0.23575361158275784	0.0	364.878906	344.62939500000016	4.246386	15.705961	8.656253	25.705254	0.0		True	0.0	None	0.0	None	0.0	None	0.0	None	0.0	None	0.0	None	0.0	None	0.0	None	6.2761e-07	12
2014-01-16 13:36:00	77.10173780904125	549213633.5798001	3.7872867825265856e+21	1646718199140.9749	12.116504112355802	560772613366.4603	1.0492008564136739e+21	-4.2733223017724027e+23	1667.7065279277924	-0.5858843355898709	21.11901542954724	1.9883040935672518	30.392402947051693	139.31987887050906	138.02870959691074	59.92272903633393	-0.0070856749195063184	8.349888078724206e+22	0.6442482889950712	-0.02782239491300324	-1.6535104328076324e+23	-0.11447928061087465	0.2267008647849039	2.037333898881889	364.882172	344.51947	4.2493940000000014	15.826418	8.657612	25.828516	0.0		True	0.0	None	0.0	None	0.0	None	0.0	None	0.0	None	0.0	None	0.0	None	0.0	None	9.4455e-07	12
2014-01-16 13:48:00	76.65832163474623	540540951.3645	3.79084066576171e+21	1683413112393.4995	8.579531511655286	605455413469.8676	1.0211752274819112e+21	-4.111355541090419e+23	1722.6638706078681	-0.5727221193884028	21.346419674801112	1.8105009052504528	30.666104652261854	143.83858768192292	140.98658354221953	64.04523933783291	-0.0051777498561588935	8.694096957469611e+22	0.7178470495871004	-0.02018426654994384	-1.6871110816910227e+23	-0.12111094712887915	0.23501879725378225	2.040169130754426	364.885376	344.409485	4.25177	15.922801000000002	8.657478	25.928436	0.0		True	0.0	None	0.0	None	0.0	None	0.0	None	0.0	None	0.0	None	0.0	None	0.0	None	9.9739e-07	12
2014-01-16 14:00:00	79.66092648380818	547009805.8316	3.774552925372634e+21	1687988330701.9363	10.404332917419916	1022138824683.4872	1.0153632494732862e+21	-4.298914936036824e+23	1778.5916181511927	-0.5917676731924139	21.47856062287796	2.065081351689612	30.123743654924073	145.72549196370355	143.1896374595841	63.36658261755971	-0.006510846631677044	8.767379221057667e+22	1.2566520529204337	-0.02389843400348164	-1.7292051390382432e+23	-0.12068746832250347	0.2380339496888013	2.0350520763727844	364.88858	344.299469	4.253672	16.045563	8.648947	26.030003	0.0		True	0.0	None	0.0	None	0.0	None	0.0	None	0.0	None	0.0	None	0.0	None	0.0	None	9.9256e-07	12
2014-01-16 14:12:00	82.27978973298153	556947767.7383001	3.856712245393145e+21	1809867600673.0176	8.355366174958187	419915328369.0384	1.036113036822022e+21	-4.316051676655912e+23	1747.3248695366885	-0.5835251906796555	21.49967223377555	2.0457280385078223	30.524473951118146	148.28013506401606	146.31255219629313	64.86264780252085	-0.005027296134150533	8.458751282074401e+22	0.4136625351736557	-0.018947679899769625	-1.7857416858941313e+23	-0.11436133819900388	0.2414302088647248	2.033247715724672	364.891632	344.189392	4.257725	16.167854000000002	8.642669	26.131155	0.0		True	0.0	None	0.0	None	0.0	None	0.0	None	0.0	None	0.0	None	0.0	None	0.0	None	1.0202e-06	12
2014-01-16 14:24:00	71.7989020824745	544494693.8384	3.680187523091698e+21	1571207222848.4111	8.055676976425469	608324184500.3009	1.001629266265654e+21	-4.198102058676294e+23	1730.8766080351288	-0.5805596289344528	21.608687392450765	2.498438475952529	30.99390951045441	145.53548347613332	143.51330330416047	64.0484285620968	-0.0050316533269365825	8.48566495997377e+22	0.7465260673566205	-0.018720933564885318	-1.7263623250229532e+23	-0.11734908850638608	0.2387403299903973	2.0339516407843683	364.894775	344.079315	4.261233	16.267029	8.640986999999999	26.232229	0.0		True	0.0	None	0.0	None	0.0	None	0.0	None	0.0	None	0.0	None	0.0	None	0.0	None	8.9559e-07	12
2014-01-16 14:36:00	71.56462754322844	545561738.1515	3.647762357318338e+21	1549311924691.9702	5.567768268528707	377645542396.4586	9.91702579621589e+20	-4.112641421854432e+23	1741.7359052751667	-0.5676287730634516	21.0565042035062	1.014584654407102	31.61078375497305	146.90169895357462	145.15174215241208	64.98247225177104	-0.003530607652840017	8.552865573901965e+22	0.4705040927385226	-0.013020390715415043	-1.742533655556264e+23	-0.11804706741735592	0.2405053442464168	2.0303004092038592	364.897766	343.969177	4.2651010000000005	16.389570000000006	8.642296	26.35936	0.0		True	0.0	None	0.0	None	0.0	None	0.0	None	0.0	None	0.0	None	0.0	None	0.0	None	6.7681e-07	12
2014-01-16 14:48:00	75.62220459966952	544373572.7836001	3.6393533175093626e+21	1621985804813.9092	4.328367918800973	270645598974.7317	1.003965017984368e+21	-4.163568344642968e+23	1711.6715239695661	-0.5759120980584915	20.979663717655512	1.4366021236727045	30.969149744988783	146.07130559375437	144.2880995197616	63.92773692985558	-0.002703540236602732	8.464709284493518e+22	0.3321466549539968	-0.010090789388580443	-1.7389813205780578e+23	-0.11708534795063842	0.2405389555108925	2.3066380607509034	364.900818	343.859009	4.268274	16.512291	8.644889	26.461372	0.0		True	0.0	None	0.0	None	0.0	None	0.0	None	0.0	None	0.0	None	0.0	None	0.0	None	5.85e-07	12
2014-01-16 15:00:00	70.4568073926705	519122662.4671	3.608840832596497e+21	1506456772515.8704	0.6079684227588453	237734134221.9668	9.507756055937168e+20	-3.940734396918022e+23	1807.9910646032536	-0.5716032751117002	21.297661829019965	1.996007984031936	30.910674159880532	146.58237744309562	144.08229895882684	64.72866397628985	0.0004045032752886529	8.042142460300044e+22	0.3107864674393145	0.0014903837441129324	-1.696349870483975e+23	-0.11665122553850715	0.24605544145839564	2.293149611712144	364.903809	343.74881	4.272518	16.635113	8.647449	26.563192	0.0		True	0.0	None	0.0	None	0.0	None	0.0	None	0.0	None	0.0	None	0.0	None	0.0	None	5.3407e-07	12
2014-01-16 15:12:00	68.47898885347034	519260008.1873	3.621037941062103e+21	1488227792966.8591	0.042537815339271416	427250171960.09	9.513088022613582e+20	-3.895322602502881e+23	1802.1117905271021	-0.5648669117370202	21.056477302988934	1.784534038334435	31.2379111443984	146.96660265953346	145.03922441900568	64.48715064678542	2.8114881255301672e-05	8.510397041447766e+22	0.5548582393375883	0.00010469908679333656	-1.7265008650780462e+23	-0.123410617938798	0.2503626300787776	2.27647249673394	364.906738	343.63855	4.2753	16.733589000000002	8.647617	26.663828	0.0		True	0.0	None	0.0	None	0.0	None	0.0	None	0.0	None	0.0	None	0.0	None	0.0	None	1.0027e-06	12
2014-01-16 15:24:00	67.42016406422798	507508003.92280006	3.454515690539158e+21	1470786974903.5334	5.079149902846759	669472590983.852	9.31848728092272e+20	-3.835094113745422e+23	1755.1993839500492	-0.5690109473629654	20.990982857862445	2.631578947368421	31.150133131371174	145.04705048004783	143.98607557043866	64.27376262024592	-0.00342722665509228	8.272855401646487e+22	0.8876304175899993	-0.012757105775517644	-1.6626677969482515e+23	-0.1227439314361549	0.2466891685657915	2.289068668343844	364.909698	343.52829	4.2793470000000005	16.855789	8.64906	26.765133	0.0		True	0.0	None	0.0	None	0.0	None	0.0	None	0.0	None	0.0	None	0.0	None	0.0	None	2.4055e-06	12
2014-01-16 15:36:00	72.49918111472978	515484751.2244	3.556481126097353e+21	1595712391352.9343	3.7816447887952265	463139164567.9928	9.530859361306627e+20	-3.857681365577875e+23	1745.7524387616386	-0.5635053441938759	21.07787249591105	2.216427640156454	31.087687460526748	145.3024534540208	143.80672289354004	64.97101821481836	-0.002465218245629221	8.797594012529186e+22	0.5932564599791075	-0.009384162851537802	-1.660567669082519e+23	-0.12850960907098188	0.2425650714113333	2.282153257633402	364.912598	343.417999	4.282556	16.979076	8.649633	26.866047	0.0		True	0.0	None	0.0	None	0.0	None	0.0	None	0.0	None	0.0	None	0.0	None	0.0	None	2.8583e-06	12
2014-01-16 15:48:00	71.1221356781777	510787754.446	3.537076961596744e+21	1543806914048.2612	3.3371047557076725	653715516445.7937	9.247318660356334e+20	-3.8099282815026455e+23	1798.3610579155607	-0.5616474122284952	21.645246786542625	1.8906144496961512	31.663281900856727	148.38362394791466	146.7616048624087	65.98053953013722	-0.0022532780254609537	8.637188597766005e+22	0.8673581917939528	-0.0083671272259707	-1.650195832974383e+23	-0.1273266651347955	0.2432665789957508	2.2297128537075075	364.915466	343.3076779999999	4.28469	17.101744	8.637135	26.966251	0.0		True	0.0	None	0.0	None	0.0	None	0.0	None	0.0	None	0.0	None	0.0	None	0.0	None	2.8579e-06	12
2014-01-16 16:00:00	71.79217880060607	492898298.80500007	3.375947007586457e+21	1517012455255.86	4.747861374558238	415325455575.2536	9.043241335289661e+20	-3.767790082393279e+23	1791.4337451774634	-0.5755948569054424	21.356907901449173	0.7047216349541932	30.448982036315517	145.13085351025057	143.70321200644028	63.68955563623525	-0.003345920630414545	8.37876447534177e+22	0.5751474763824289	-0.01222717567761152	-1.5918853632595258e+23	-0.1280000645939742	0.24318791860432376	2.2258347151407136	364.918335	343.1973270000001	4.288957	17.201735	8.636918	27.066984	0.0		True	0.0	None	0.0	None	0.0	None	0.0	None	0.0	None	0.0	None	0.0	None	0.0	None	2.6463999999999998e-06	12
2014-01-16 16:12:00	78.12322693057881	505949061.091	3.625479839085458e+21	1706421595166.2688	5.951250524674586	418503780991.2764	9.539124473645488e+20	-3.896800667887558e+23	1774.9929154520753	-0.5799477418332926	21.614844072680263	1.3654096228868662	30.56446300649836	147.50355853364348	145.29088989228947	63.68535530146257	-0.0038694736831434242	8.652060915839445e+22	0.3018170756281464	-0.014889794763501841	-1.6603022214431698e+23	-0.12876571367108894	0.2470971974578171	2.173002484230227	364.921143	343.086945	4.293992	17.325182	8.636512	27.168493	0.0		True	0.0	None	0.0	None	0.0	None	0.0	None	0.0	None	0.0	None	0.0	None	0.0	None	2.1506000000000002e-06	12
2014-01-16 16:24:00	71.11324563614474	476497010.3772	3.2431638722904693e+21	1528378188341.6636	3.9507632909919317	361570883121.6646	8.919178338155405e+20	-3.696530405632658e+23	1731.9579125885928	-0.5841463348083968	20.99576895203133	1.1347517730496457	30.157480544564052	148.41117456912653	147.52560098270192	64.55617624864928	-0.002801959780845341	7.594429000337867e+22	0.5039216249963888	-0.010467802702971152	-1.5538609022984934e+23	-0.12001139930433498	0.2455497591732604	2.236582490427964	364.923889	342.976532	4.297744000000002	17.448141	8.636642	27.290268	0.0		True	0.0	None	0.0	None	0.0	None	0.0	None	0.0	None	0.0	None	0.0	None	0.0	None	1.5899e-06	12
2014-01-16 16:36:00	73.18680996926327	492438381.2551001	3.39742448682992e+21	1626355691484.6436	8.192918448733561	530275511062.7604	9.38905121488095e+20	-3.8189439552484e+23	1675.3223032058972	-0.5839544664678223	21.3461962226829	1.5717092337917484	30.58080326114352	144.22767729975382	143.6479761418893	61.62833996216251	-0.005365368990657211	7.78149099479599e+22	0.5426882046992167	-0.02100748391696491	-1.6292437060555628e+23	-0.11898672710148984	0.2491275468466126	1.91436526196178	364.926666	342.866119	4.316531	17.572195	8.634501	27.392128000000003	0.0		True	0.0	None	0.0	None	0.0	None	0.0	None	0.0	None	0.0	None	0.0	None	0.0	None	1.2088e-06	12
2014-01-16 16:48:00	62.39505814768215	461455361.9398	3.1989778530469665e+21	1396246705138.1077	2.8929618568250888	242107561390.8843	8.743916028463675e+20	-3.581388107736553e+23	1718.1092554880227	-0.5843987093035031	21.51282259128965	1.9258202567760343	30.55137191689425	142.6931357551933	141.93543578193663	62.278132345037356	-0.00206345353553858	6.82608128620904e+22	0.1498902778477349	-0.007913680758031155	-1.567095623461096e+23	-0.11138566872001243	0.25571332459821744	2.2331161732016827	364.929382	342.755676	4.320197	17.672311999999994	8.635523	27.494143	0.0		True	0.0	None	0.0	None	0.0	None	0.0	None	0.0	None	0.0	None	0.0	None	0.0	None	9.8708e-07	12
2014-01-16 17:00:00	66.82541678359429	468286085.7733	3.4015153413251227e+21	1520099656263.9543	1.090735856048142	257325065844.1711	8.959718329770042e+20	-3.586181195504651e+23	1748.325631565153	-0.5766449466795078	21.99516221129252	2.525597269624573	30.589461900042	141.4362935959769	140.44675227331172	60.98118938189728	0.0007445295945721107	6.931597317515436e+22	-0.3451865634370254	0.002954639018713416	-1.601472191188731e+23	-0.11145757416197806	0.25751092762806904	1.9196507727568919	364.932098	342.645203	4.325002	17.796194	8.635404	27.597736	0.0		True	0.0	None	0.0	None	0.0	None	0.0	None	0.0	None	0.0	None	0.0	None	0.0	None	8.3132e-07	12
2014-01-16 17:12:00	66.41831590717652	464706266.0037	3.293605207651572e+21	1482020234783.484	0.05403378388159952	36707026904.84062	8.871139542854912e+20	-3.591740232848712e+23	1744.0520111321412	-0.581987797650111	21.591427151461755	1.6174402250351618	30.1296781867956	140.71607793219218	139.94206989776484	60.39428417675662	3.799844154824157e-05	6.314811468876146e+22	0.05073003570241258	0.00014699877624364628	-1.5793938601563524e+23	-0.1023220773522374	0.2559171584537083	2.249888269181464	364.934814	342.534729	4.328826	17.920671	8.621497	27.698824	0.0		True	0.0	None	0.0	None	0.0	None	0.0	None	0.0	None	0.0	None	0.0	None	0.0	None	6.8529e-07	12
2014-01-16 17:24:00	69.89130502087716	473548557.0287	3.480677028896855e+21	1540073707978.1782	1.5058573224513143	142022763019.62488	8.941453588235551e+20	-3.626422689257592e+23	1844.4088508667007	-0.57663560406362	22.14550550658401	1.9000703729767767	30.44322082990261	142.3034098649613	141.56140190022668	60.40834147503499	-0.0010597166238221776	6.6470207816658615e+22	-0.196419792445582	-0.004033833547516323	-1.5942638092338296e+23	-0.1056939351006545	0.2535030671955452	2.17034608059107	364.937561	342.424255	4.332285	18.043446	8.620341	27.801046000000003	0.0		True	0.0	None	0.0	None	0.0	None	0.0	None	0.0	None	0.0	None	0.0	None	0.0	None	5.86e-07	12
2014-01-16 17:36:00	68.57642947099613	449408573.2642	3.2434209296387303e+21	1501730049803.6365	1.4368046334164135	171996558882.61102	8.487205816153018e+20	-3.4264804652278875e+23	1791.8225960229654	-0.5741091347901821	21.97689335614975	1.760821716801174	30.665545198662823	140.5625316150199	141.8960035236436	59.097040270208645	-0.0010541486672167378	6.290356880791594e+22	0.2479993798672902	-0.004062108536110529	-1.4742416608413404e+23	-0.10539535780229664	0.2470101939778526	2.2111472948817883	364.940247	342.313751	4.335971	18.142298	8.621347	27.903364	0.0		True	0.0	None	0.0	None	0.0	None	0.0	None	0.0	None	0.0	None	0.0	None	0.0	None	5.299100000000001e-07	12
2014-01-16 17:48:00	67.25590766217016	443558363.9607	3.148464339817668e+21	1461480208209.6646	1.5527271899978878	88074510093.03723	8.360166458307458e+20	-3.469283694338975e+23	1791.9525203926667	-0.5889475315051113	22.154691474343856	3.325774754346183	30.377585589123374	137.68012969493134	139.48727973377314	57.025334309265105	-0.0011736411111095144	5.456011334227223e+22	-0.1308344082354965	-0.004406206269979043	-1.4544732230580894e+23	-0.09262155217805797	0.2469121841370657	2.2066402922503356	364.942932	342.2032470000001	4.340535	18.268885	8.623207	28.005409000000004	0.0		True	0.0	None	0.0	None	0.0	None	0.0	None	0.0	None	0.0	None	0.0	None	0.0	None	5.082e-07	12
2014-01-16 18:00:00	72.97969915148023	464775647.62250006	3.4401169510492825e+21	1599069586907.4766	1.0456097842093584	367104717178.714	8.857315764601853e+20	-3.644835599356177e+23	1826.7725311559047	-0.5905029556501523	22.565942334895965	3.8787023977433006	30.021118753937234	139.95851443294472	141.4671002210115	58.53284812219287	-0.0007373834867484897	5.877473749563189e+22	0.5088030002840306	-0.002828927314212547	-1.4853392779475336e+23	-0.09522145858886756	0.2406410961104012	2.2504399485751554	364.945648	342.0927430000001	4.343568	18.394602	8.624503	28.108215	66560.0		False	0.0	None	0.0	None	0.0	None	0.0	None	0.0	None	0.0	None	0.0	None	0.0	None	5.168e-07	12
2014-01-16 18:12:00	71.65659133098704	463642096.4794	3.3665229724649385e+21	1568444879060.4185	0.7537919085017064	337703421052.4358	8.829744655221245e+20	-3.7274020753312996e+23	1814.5654835968485	-0.6053559996510591	22.40127503144335	3.2927702219040804	29.68874464897745	140.71467533344756	142.30032542311568	56.21838305214055	-0.0005395790325710139	5.3021582181344096e+22	0.4750932890828979	-0.002025476694693616	-1.463387860890651e+23	-0.08611073406030524	0.2376643580443215	1.966083579419357	364.948303	341.982208	4.34849	18.519421	8.628687	28.211758000000003	66560.0		False	0.0	None	0.0	None	0.0	None	0.0	None	0.0	None	0.0	None	0.0	None	0.0	None	7.139700000000002e-07	12
2014-01-16 18:24:00	78.72982228585524	484066782.189	3.534824392275652e+21	1702971023790.2527	2.3655832764875315	258818785299.9322	9.31496275974194e+20	-3.915359062249683e+23	1806.977084804372	-0.6090512839054701	21.926354929228367	3.122878479293958	29.149394337542702	139.30388240066583	141.6267747872999	56.50320700180677	-0.0016059628489392616	6.7020912258265555e+22	0.3453316795962039	-0.006074255692878855	-1.44733558707298e+23	-0.1042539700968285	0.22513940191283088	1.9815689814447328	364.950989	341.871704	4.353237	18.647175	8.648284	28.316504	0.0		True	0.0	None	0.0	None	0.0	None	0.0	None	0.0	None	0.0	None	0.0	None	0.0	None	7.5976e-07	12
2014-01-16 18:36:00	77.59929157647218	485476765.7137	3.572824222013865e+21	1719816266668.309	4.895110771421359	389728230906.0297	9.421410574400317e+20	-3.921167997930117e+23	1758.3600281956024	-0.6081834291357682	22.546384454932905	3.986928104575163	29.890601999161678	136.23186337214344	138.20307109659495	55.84254931281477	-0.003199418804850561	6.2518700037693055e+22	0.5006299145469112	-0.012539738697879471	-1.494407820158319e+23	-0.096968141620318	0.2317865679488779	1.9568598984147263	364.953674	341.761169	4.356832	18.774256	8.649808	28.419125	0.0		True	0.0	None	0.0	None	0.0	None	0.0	None	0.0	None	0.0	None	0.0	None	0.0	None	7.5734e-07	12
2014-01-16 18:48:00	76.65544230112623	492847619.0284	3.650896464814081e+21	1744737721916.7651	0.04187461508175061	432538302486.8176	9.809383490112874e+20	-4.0500525592755305e+23	1695.9148020791242	-0.6187789412536995	22.4173417582902	3.0228254164096238	29.56776030816641	132.09484461583855	133.5435530044392	53.226976504586894	2.583258179009908e-05	6.574996158580167e+22	0.5244333590190061	0.00010497372654043242	-1.520144099611026e+23	-0.10045472502413992	0.2322520862985117	1.9556208473141043	364.956299	341.650635	4.3622190000000005	18.901163	8.651906	28.521547	0.0		True	0.0	None	0.0	None	0.0	None	0.0	None	0.0	None	0.0	None	0.0	None	0.0	None	7.0232e-07	12
2014-01-16 19:00:00	77.46469500280476	513655912.4371	3.937774593146117e+21	1807188209322.6848	3.1658511538275307	334287972824.62885	1.0382376629530438e+21	-4.139624485657889e+23	1678.0382550896607	-0.6068428091442838	22.881033904277462	4.357668364459536	29.927101203914148	131.39598201457991	132.51170012869042	53.55753354655682	-0.0017916531713794738	6.412270328036355e+22	0.3718218525947022	-0.007671403084081135	-1.6601529148456586e+23	-0.09399983385786996	0.2433679339622277	1.950892135559804	364.958923	341.5401310000001	4.38035	19.026676	8.654710000000001	28.622492	0.0		True	0.0	None	0.0	None	0.0	None	0.0	None	0.0	None	0.0	None	0.0	None	0.0	None	6.4932e-07	12
2014-01-16 19:12:00	78.23349585606012	524181443.2728	3.974979747501659e+21	1849971126734.989	2.316906107922276	377587126936.3132	1.0651075379036349e+21	-4.283968441793718e+23	1649.0954617424914	-0.6153923968539287	22.80260139010584	4.90358126721763	29.443865614643283	132.4600727168367	132.9413564848565	53.33598018123989	-0.0012765322908662676	7.574512853594187e+22	0.40887693914993695	-0.005472411582131606	-1.686258438878013e+23	-0.10880793552303833	0.24223115471453144	1.9881905319891908	364.961639	341.429626	4.385725	19.151472	8.659335	28.748135	0.0		True	0.0	None	0.0	None	0.0	None	0.0	None	0.0	None	0.0	None	0.0	None	0.0	None	6.051700000000001e-07	12
2014-01-16 19:24:00	78.13648432273033	523913195.8629	3.952880939784115e+21	1842350122057.2144	1.4521105218397357	613144747939.1198	1.0624638922898334e+21	-4.273068433116783e+23	1644.4575005787647	-0.614140878847989	22.594623210512772	4.530386740331491	29.462277168994884	133.2168560351292	133.074219060756	53.86421087253036	-0.0008022710065412902	8.04087688731102e+22	0.66579016147778	-0.0034342261779810672	-1.7068864374130307e+23	-0.11556639626947696	0.2453199037587008	1.7175699287299002	364.964325	341.319122	4.389615	19.277414	8.662453	28.849541	0.0		True	0.0	None	0.0	None	0.0	None	0.0	None	0.0	None	0.0	None	0.0	None	0.0	None	5.6576e-07	12
2014-01-16 19:36:00	75.86297209287984	525281986.5461	3.93573852324777e+21	1748065132988.9844	1.5125721171482025	273037545003.2556	1.0613074818602314e+21	-4.315273461330158e+23	1655.620065936571	-0.6185905614937416	22.65510292379991	4.860335195530726	29.12525519291993	133.6582144211702	133.78505878864996	53.48921648818342	-0.0008450123559487164	7.849014246091592e+22	0.2997937686578208	-0.003558087095329281	-1.749191749503091e+23	-0.11251491181663256	0.25074506081285663	1.7311621510202482	364.96701	341.208618	4.393498	19.406137	8.663294	28.953932	0.0		True	0.0	None	0.0	None	0.0	None	0.0	None	0.0	None	0.0	None	0.0	None	0.0	None	5.4185e-07	12
2014-01-16 19:48:00	77.83723529758251	526271212.7484	4.0778436330696286e+21	1785514967498.501	4.479404301224378	650724431152.944	1.0634386040858372e+21	-4.2507480655474886e+23	1688.978757485684	-0.6081955651946747	23.07801643731405	4.455445544554455	29.558636019537662	137.7730400386357	137.09049828318166	54.87789293212398	-0.0024639187575491626	7.91384395964033e+22	0.7034874140668823	-0.010585266185526942	-1.787830788275749e+23	-0.1132310060647169	0.2558022117473483	1.7120968328145232	364.969757	341.0981450000001	4.396099	19.531668	8.665083000000001	29.054888	0.0		True	0.0	None	0.0	None	0.0	None	0.0	None	0.0	None	0.0	None	0.0	None	0.0	None	5.397699999999999e-07	12
2014-01-16 20:00:00	72.6453476388447	493409835.4025	3.717221229470612e+21	1662807877619.8738	3.7869614898723007	657967248704.3918	9.934734531436547e+20	-4.003480318964265e+23	1664.1021650634616	-0.6109665926788548	22.465131938157484	4.280618311533888	29.334421788470078	135.80322520523188	134.83337781251458	53.67639858760932	-0.002251463430364032	7.2416740283970365e+22	0.7688307268024231	-0.009528544088378868	-1.6977769890904115e+23	-0.11051436634926007	0.2590958215129901	1.7213206371140908	364.972473	340.987671	4.400526	19.6586	8.668724000000001	29.160843	0.0		True	0.0	None	0.0	None	0.0	None	0.0	None	0.0	None	0.0	None	0.0	None	0.0	None	5.286e-07	6
2014-01-16 20:12:00	71.88667521559769	488602190.0873	3.500765513098716e+21	1642866090027.6497	7.3355623933227	553403998964.1726	9.859909059793534e+20	-4.032468027498501e+23	1565.3393762808262	-0.6214455730680369	22.2048719814216	3.9192399049881232	29.43935564067093	134.8788836060722	134.09705746145656	53.170194240327476	-0.004356034675369775	6.9361757412031914e+22	0.645879355030505	-0.01851849234736849	-1.6369081886246162e+23	-0.10689373552371548	0.2522647025103946	0.0	364.97522	340.877228	4.405017	19.786337	8.670132	29.264172	0.0		True	0.0	None	0.0	None	0.0	None	0.0	None	0.0	None	0.0	None	0.0	None	0.0	None	5.3914e-07	9
2014-01-16 20:24:00	68.2824016709844	478869197.975	3.27685017197285e+21	1560229992556.9546	6.391570880239224	410413315512.6439	9.542879294437694e+20	-3.927911609117968e+23	1538.2953885297013	-0.6176356003558219	21.5351130057558	2.8678304239401498	29.22129100592329	137.46382273093806	136.05051589893387	55.19228093866624	-0.003984769875460862	7.051843740157358e+22	0.5028823910021001	-0.016502130069556413	-1.6151695836060054e+23	-0.1108851261305642	0.2539736976593958	0.0	364.977997	340.766785	4.408559	19.91004	8.672884	29.364948	0.0		True	0.0	None	0.0	None	0.0	None	0.0	None	0.0	None	0.0	None	0.0	None	0.0	None	5.5542e-07	12
2014-01-16 20:36:00	66.68480932011082	473469487.92600006	3.2967694009702353e+21	1494313269754.7925	4.940213602476124	483064288355.4464	9.358763110345264e+20	-3.89942356519153e+23	1617.214737031564	-0.6201488098783061	21.461688926925827	1.8241042345276872	28.91482454233555	140.54287677841654	138.6356853252376	56.78960176814165	-0.0032183801970528496	7.40639198376631e+22	0.6185054998073582	-0.012880384272955837	-1.6283815352098787e+23	-0.11778831146288422	0.2589713208133147	1.6557362456585658	364.980774	340.6563720000001	4.412458	20.037291	8.674918	29.467812	0.0		True	0.0	None	0.0	None	0.0	None	0.0	None	0.0	None	0.0	None	0.0	None	0.0	None	5.697999999999999e-07	12
2014-01-16 20:48:00	64.98509792887933	470797168.7772	3.093622373045332e+21	1478869925943.495	4.702750093374009	350723970954.37616	9.251561141030472e+20	-3.799646092959964e+23	1505.790330216519	-0.6077106154281015	20.95669343525905	2.1978021978021984	29.497270492826203	140.06698746802843	139.47942856459076	56.90886075371507	-0.003039916026744673	6.960543678328803e+22	0.4455734700122979	-0.012426252511184751	-1.625154215292515e+23	-0.11132605982196007	0.2599251204397351	1.9762564243971328	364.983582	340.54599	4.417051	20.165514	8.67634	29.573198	0.0		True	0.0	None	0.0	None	0.0	None	0.0	None	0.0	None	0.0	None	0.0	None	0.0	None	5.7333e-07	12
2014-01-16 21:00:00	69.11099894506324	490119382.7589001	3.476721946458103e+21	1548233379110.412	8.484112803428102	548308426862.7525	9.591830764083912e+20	-3.96564456335248e+23	1651.6889249600656	-0.6092555198678838	21.78266871689549	3.4700315457413247	29.32096957901845	140.12792671922017	139.2517664782784	56.030875743048924	-0.005352752557367889	7.860909078602152e+22	0.5064466451169511	-0.02151342438816437	-1.7271102763081703e+23	-0.12076983125459782	0.2653418511042113	2.3067622129105065	364.986359	340.435608	4.421895	20.295225	8.679074	29.678684000000004	0.0		True	0.0	None	0.0	None	0.0	None	0.0	None	0.0	None	0.0	None	0.0	None	0.0	None	5.5714e-07	12
2014-01-16 21:12:00	72.39362653749016	481560702.5037	3.4418926043876955e+21	1586903648678.6533	7.044922525581633	412525529313.3334	9.338159998041828e+20	-3.884888244046602e+23	1706.1887103218482	-0.6074562620101926	21.613692432893988	1.579986833443055	29.18761750119988	142.94388537515223	141.18215404821956	58.26514206979008	-0.0046378686804355715	7.729123229651611e+22	0.2286023042463906	-0.01820187019595591	-1.715184516297542e+23	-0.1208555822138598	0.26819293361257546	2.300882934843957	364.989227	340.325287	4.426279	20.421259	8.681561	29.782036	0.0		True	0.0	None	0.0	None	0.0	None	0.0	None	0.0	None	0.0	None	0.0	None	0.0	None	6.625199999999999e-07	12
2014-01-16 21:24:00	69.53216147320944	479641176.3541	3.3660064216111147e+21	1547195406185.749	7.362630821454395	384254566007.8901	9.47121337641424e+20	-3.858926146635862e+23	1611.2897950215329	-0.6058114069747469	21.56460428737239	1.9707565162110616	29.00635715688785	137.86523949148034	135.582153881756	56.5142909150968	-0.0046806298928508535	7.64864855659762e+22	0.4688803828774102	-0.019118421057589968	-1.7402432997669158e+23	-0.1200758544593368	0.2732001603164275	0.0	364.992065	340.214966	4.444096	20.547207	8.682673	29.885284	0.0		True	0.0	None	0.0	None	0.0	None	0.0	None	0.0	None	0.0	None	0.0	None	0.0	None	3.3901999999999997e-06	12
2014-01-16 21:36:00	67.09212979508814	479203818.8539	3.612256659937727e+21	1505101774419.829	9.550966649698807	547632224537.4055	9.377095522630082e+20	-3.8010867540347126e+23	1754.8274613681397	-0.5972759548528599	22.237045984348182	2.129032258064516	29.254417257700805	138.44405311853	135.59105351014645	57.88210057405853	-0.006161913967547617	7.62061901617617e+22	0.4962636280901693	-0.024956121996453102	-1.7895197023483942e+23	-0.11974503067116572	0.2811925004904484	0.0	364.994965	340.104675	4.4491010000000015	20.674707	8.686926	30.013784	0.0		True	0.0	None	0.0	None	0.0	None	0.0	None	0.0	None	0.0	None	0.0	None	0.0	None	6.2856e-06	12
