Timestamp	TOTUSJH	TOTBSQ	TOTPOT	TOTUSJZ	ABSNJZH	SAVNCPP	USFLUX	TOTFZ	MEANPOT	EPSZ	MEANSHR	SHRGT45	MEANGAM	MEANGBT	MEANGBZ	MEANGBH	MEANJZH	TOTFY	MEANJZD	MEANALP	TOTFX	EPSY	EPSX	R_VALUE	CRVAL1	CRLN_OBS	LAT_MIN	LON_MIN	LAT_MAX	LON_MAX	QUALITY	NOAA_AR	IS_TMFI	BFLARE	BFLARE_label	CFLARE	CFLARE_label	MFLARE	MFLARE_label	XFLARE	XFLARE_label	BFLARE_loc	BFLARE_label_loc	CFLARE_loc	CFLARE_label_loc	MFLARE_loc	MFLARE_label_loc	XFLARE_loc	XFLARE_label_loc	XR_MAX	XR_QUAL
2014-03-23 21:24:00	91.26678052220116	690673291.5830001	5.111138973198774e+21	1673060039336.452	6.218388907610418	639370715562.8319	9.1750554291174e+20	-4.198600583208423e+23	2859.3022119613147	-0.4577404898947182	25.926362730166954	9.806835066864783	37.73477363943041	169.16844963140213	168.39523771152992	89.73687253546288	0.004619902605951277	-1.8539536871539723e+23	0.9091877582032662	0.012352503816126448	-4.379973366493184e+22	0.20212202903841964	0.047751414186017686	2.2125639766521887	196.21933	190.894928	-30.839687	1.369939	-25.57683	9.650047	67584.0	12016.0	False	0.0	None	0.0	None	0.0	None	0.0	None	0.0	None	0.0	None	0.0	None	0.0	None	1.2839e-06	12
2014-03-23 21:36:00	91.26248020497765	687316288.8599	4.617771036848417e+21	1633917081636.1248	5.925132079915178	579578355813.3765	9.188683848077165e+20	-4.510849651516318e+23	2714.3800262151844	-0.4941844784902738	23.930611002177983	6.0109289617486334	35.63540860740714	177.06657641982414	177.66317416270715	89.7027337319445	0.00462539584692832	-1.8000916408526275e+23	0.8659611551898826	0.011538973457752842	-4.5812640197943725e+22	0.1972083792396908	0.05018986987711505	2.211195961348809	196.218506	190.784561	-30.84008	1.475689	-25.576607	9.752381	0.0	12016.0	True	0.0	None	0.0	None	0.0	None	0.0	None	0.0	None	0.0	None	0.0	None	0.0	None	1.0959e-06	12
2014-03-23 21:48:00	87.68736228401156	679489063.5201	4.3220378780298846e+21	1539272343564.64	4.819616228800687	597947097608.1364	8.957223562528576e+20	-4.522409998349524e+23	2641.5893236933694	-0.5011582699388462	23.00636351881989	4.626623376623376	35.8194492051493	179.77781223073364	180.95013954639322	89.09093093733853	0.003912026159740817	-1.7962280768675278e+23	0.9289161963804136	0.009450036795441466	-5.448914521819611e+22	0.19905195587021995	0.060383038596597376	2.2130450410512874	196.217728	190.674225	-30.840517	1.608447	-25.577106	9.876438	0.0	12016.0	True	0.0	None	0.0	None	0.0	None	0.0	None	0.0	None	0.0	None	0.0	None	0.0	None	9.5435e-07	12
2014-03-23 22:00:00	90.72418791888796	678453359.8091	4.3736003451461336e+21	1580477487036.5269	6.3017203412250495	692750460182.6877	9.016276972394915e+20	-4.5397021764524015e+23	2662.298824513693	-0.5038424668388163	23.726180552375073	6.952303961196443	35.580065096353	180.94658268938988	181.98182564719392	88.67197246054282	0.005094357591936176	-1.827350955574475e+23	1.0718157935929078	0.012352838956617854	-5.966467466194791e+22	0.20281000326686632	0.06621931504833474	2.2136219757058377	196.216995	190.563889	-30.872053	1.7139259999999998	-25.57695	9.982447	0.0	12016.0	True	0.0	None	0.0	None	0.0	None	0.0	None	0.0	None	0.0	None	0.0	None	0.0	None	8.8803e-07	12
2014-03-23 22:12:00	82.7996819932801	647564023.7969	4.324329581433191e+21	1486435586796.9832	5.9802794056452	779105378037.1603	8.862919696780312e+20	-4.377950787700533e+23	2596.621620988383	-0.5090677457815224	24.15718110110327	7.0175438596491215	34.96024516274118	172.73980951708046	174.99023248388855	83.4450845867143	0.004768962843417225	-1.7971730211410106e+23	1.1890492860367003	0.012239396977952557	-6.416347714530343e+22	0.20897512626727216	0.0746092367315531	2.223419423063407	196.216217	190.453568	-30.871056	1.819787	-25.577078	10.087021	0.0	12016.0	True	0.0	None	0.0	None	0.0	None	0.0	None	0.0	None	0.0	None	0.0	None	0.0	None	8.900200000000002e-07	12
2014-03-23 22:24:00	83.56015516562286	653657747.0847001	4.2471823964124013e+21	1556002353808.1724	7.142089701128883	676213223042.7637	9.005057923552927e+20	-4.410711797003871e+23	2488.772735976752	-0.5080959396469361	23.24426929224225	4.9027237354085615	34.46464467616609	174.78387831542298	176.20835694869072	85.12959317498833	0.005558046460022477	-1.81316201281515e+23	0.8064022517671651	0.014490251142490584	-6.728851527636536e+22	0.20886884000429173	0.07751361451459182	0.0	196.215454	190.343262	-30.872684000000003	1.954415	-25.577812	10.195127	0.0	12016.0	True	0.0	None	0.0	None	0.0	None	0.0	None	0.0	None	0.0	None	0.0	None	0.0	None	8.904700000000002e-07	12
2014-03-23 22:36:00	94.48857574720651	664148329.537	4.349981275513007e+21	1796325309029.4077	4.026915017991223	860753801638.6595	9.376639902296045e+20	-4.614289302638967e+23	2392.6076243727452	-0.5231512632432864	23.657494440165692	7.012417823228634	33.68947859439797	172.5960980629114	172.455219148034	83.98338824825738	0.002941501108832157	-1.811150912817696e+23	1.2032390405791922	0.007961489755019823	-6.7337536208468785e+22	0.2053416736187129	0.07634483843699143	0.0	196.214783	190.232986	-30.8727	2.059358	-25.599304	10.297009	0.0	12016.0	True	0.0	None	0.0	None	0.0	None	0.0	None	0.0	None	0.0	None	0.0	None	0.0	None	1.5024e-06	12
2014-03-23 22:48:00	89.5631835466877	668039120.2522	4.541544733441984e+21	1740532208414.2512	2.0685866901982157	1161978231865.8677	9.517538129421587e+20	-4.548030497070919e+23	2396.4427262454315	-0.512635766633417	24.838955408273787	8.899789768745617	35.80819266368446	167.34224221271282	170.28180211222798	81.1676237177472	0.0014496052489125556	-1.7752004189459334e+23	1.5582506905975142	0.004094184983400607	-6.194290605014102e+22	0.2000934752483304	0.06981956068888827	0.0	196.214127	190.122726	-30.872398	2.165846	-25.597075	10.40099	0.0	12016.0	True	0.0	None	0.0	None	0.0	None	0.0	None	0.0	None	0.0	None	0.0	None	0.0	None	1.3328e-06	12
2014-03-23 23:00:00	89.90586707298746	662869948.7814	4.6882442558225064e+21	1769610169836.3782	0.8646779338715431	1380119037843.227	9.437106710157437e+20	-4.410373930233761e+23	2446.421997577507	-0.5009963429217363	25.30142499977066	9.424809424809423	36.50927572495456	165.78379756734373	170.31215425678243	80.09975398613494	0.0005996379569150784	-1.777211055891477e+23	1.830207176831252	0.0017452024938079981	-5.045235629693924e+22	0.2018822561728945	0.05731134456259423	0.0	196.213379	190.012482	-30.903372	2.300225	-25.595295	10.505309	0.0	12016.0	True	0.0	None	0.0	None	0.0	None	0.0	None	0.0	None	0.0	None	0.0	None	0.0	None	1.5714e-06	12
2014-03-23 23:12:00	92.22856375783442	656604111.0086	4.869939812958141e+21	1920911425047.816	7.437743026392334	837773555408.938	9.524281706350054e+20	-4.2781380162674695e+23	2430.086749529068	-0.490612508822353	26.026330653035807	11.663353214049039	36.0592448302146	165.12141576651948	166.88399512876103	82.12355773943098	-0.004928921820008174	-1.889867787586006e+23	1.0623650901513806	-0.015198572733946085	-5.322258352681216e+22	0.2167281123433845	0.061035116517531365	0.0	196.212769	189.902267	-30.903374	2.40618	-25.593817	10.608463	0.0	12016.0	True	0.0	None	0.0	None	0.0	None	0.0	None	0.0	None	0.0	None	0.0	None	0.0	None	1.2184999999999999e-06	12
2014-03-23 23:24:00	90.31141496870504	653510408.5108	4.462614328511397e+21	1761265724950.005	7.546400141574651	890221852166.9691	9.446992996713944e+20	-4.445525675914885e+23	2336.7802839934993	-0.5122217601363085	24.198588321684518	8.553546592489571	34.989637710527646	167.74719181578345	168.78823387138002	81.1420068916062	0.005247844326547045	-1.835136127932289e+23	1.1845731146513658	0.01527220810081492	-5.456184756354524e+22	0.2114478075409512	0.06286717844574473	0.0	196.212189	189.792084	-30.93545300000001	2.511939	-25.592094	10.711208	0.0	12016.0	True	0.0	None	0.0	None	0.0	None	0.0	None	0.0	None	0.0	None	0.0	None	0.0	None	9.3254e-07	12
2014-03-23 23:36:00	81.21970503634427	628461425.4262	4.259251282754363e+21	1589892116469.5332	1.041148510107109	716030854317.8463	9.112650222282632e+20	-4.18012105756747e+23	2287.5605464408704	-0.5008383562967967	24.526480460553174	8.91583452211127	35.58665517576381	161.45455953583505	161.67618651698132	78.9882721277252	0.0007426166263246141	-1.7969442575265466e+23	0.9772193961454168	0.002207649540674119	-5.302261885251541e+22	0.2152996518288124	0.06352868949709058	0.0	196.211563	189.681915	-30.964077000000003	2.6469150000000004	-25.587267	10.8174	0.0	12016.0	True	0.0	None	0.0	None	0.0	None	0.0	None	0.0	None	0.0	None	0.0	None	0.0	None	2.1151e-06	12
2014-03-23 23:48:00	80.73608610860843	625532947.1573	4.304690277911663e+21	1628862615025.1309	9.063599783831414	1136088608285.0671	9.00195625263987e+20	-4.184493124830829e+23	2326.902670531202	-0.503709445167029	25.65734308409337	10.4091888011486	36.052758478673226	160.34324470448757	161.001152430449	77.73894142648625	0.006506532508134539	-1.779259552122853e+23	1.5604693286793183	0.019271547920051285	-6.22754750834347e+22	0.21417883004507784	0.0749642646456928	0.0	196.210968	189.571762	-30.996069	2.752928	-25.585754	10.92029	0.0	12016.0	True	0.0	None	0.0	None	0.0	None	0.0	None	0.0	None	0.0	None	0.0	None	0.0	None	2.1608e-06	12
2014-03-24 00:00:00	77.87388194859948	627354794.2303001	4.4286926269133147e+21	1574824136001.5142	2.9808553248622034	412557257970.1647	9.144192075999982e+20	-4.2837104530034e+23	2380.262147446513	-0.5141552482232089	25.119334565347785	9.921484653818695	35.41542357427213	161.77227582424706	161.88473255822382	77.94646535383994	0.002127662615890224	-1.918666386657464e+23	0.5634115715611181	0.006276062594897988	-5.904388272015274e+22	0.2302892324568168	0.07086782010384883	0.0	196.210434	189.461639	-31.000933000000003	2.858709	-25.588873	11.023166	0.0	12016.0	True	0.0	None	0.0	None	0.0	None	0.0	None	0.0	None	0.0	None	0.0	None	0.0	None	2.4102000000000002e-06	12
2014-03-24 00:12:00	85.47927267197036	651322144.6068001	4.4484321180475777e+21	1663350108012.2864	2.7266213161481723	659507708348.8308	9.5650429276684e+20	-4.52979979793105e+23	2266.313895201163	-0.5236856719071225	24.76509255867073	9.539918809201623	35.54270711591662	156.3239320644121	157.33338927507597	75.64499674886689	0.0018448046793965985	-1.846387100909793e+23	0.853710610601933	0.005494948081914537	-5.994824882460134e+22	0.21345898553446552	0.06930557721271853	0.0	196.2099	189.351547	-30.998123	2.991648	-25.585781	11.124707	0.0	12016.0	True	0.0	None	0.0	None	0.0	None	0.0	None	0.0	None	0.0	None	0.0	None	0.0	None	4.5077999999999994e-06	12
2014-03-24 00:24:00	79.59661749200097	640482026.3668	4.4774240891414585e+21	1620860806277.5996	6.596183417128992	642556463326.3738	9.439147238111171e+20	-4.333154314274119e+23	2247.627847633932	-0.5094301453904361	25.421182965452253	10.866666666666665	36.67110942877386	156.06582429027588	156.27855276121863	75.21163267214973	0.004397455611419328	-1.822434865031991e+23	0.8195406815744007	0.01364591786882625	-5.508503417148934e+22	0.2142557571050573	0.06476108380072736	0.0	196.209381	189.241486	-31.023811	3.09876	-25.58296	11.2305	0.0	12016.0	True	0.0	None	0.0	None	0.0	None	0.0	None	0.0	None	0.0	None	0.0	None	0.0	None	4.1249e-06	12
2014-03-24 00:36:00	88.29002634606329	653555749.0176	4.6135040319918304e+21	1760890212951.5254	1.955792914519284	811436975222.0205	9.471452648389455e+20	-4.386883612744455e+23	2326.796966594192	-0.5054298245141814	25.780684704351305	10.314802411252511	36.96355771954892	160.2094940228118	159.0265382636774	78.72585136389952	0.0013099751604281873	-1.8375814275257382e+23	1.0397542538994728	0.003975664328168335	-6.4332953974108395e+22	0.21171486194588396	0.074120483942519	0.0	196.208923	189.131424	-30.997152000000003	3.234285	-25.583467	11.335274	0.0	12016.0	True	0.0	None	0.0	None	0.0	None	0.0	None	0.0	None	0.0	None	0.0	None	0.0	None	3.9916e-06	12
2014-03-24 00:48:00	88.1920322523442	639142924.3706	4.651717260416148e+21	1761716051103.0178	5.881308738195268	943981793728.7328	9.35884453173914e+20	-4.347286216908573e+23	2358.7085813673	-0.5121623858011962	26.432717873733026	11.245791245791247	36.814006944106936	158.32735521138474	157.68361256860044	77.3590625659832	0.00396047726477796	-1.836115473878789e+23	1.2160688978028171	0.01217047580791221	-6.381158228364956e+22	0.21631639482366105	0.07517768693726343	0.0	196.208466	189.021408	-30.998301	3.341269	-25.583607	11.437707	0.0	12016.0	True	0.0	None	0.0	None	0.0	None	0.0	None	0.0	None	0.0	None	0.0	None	0.0	None	3.0847000000000007e-06	12
2014-03-24 01:00:00	88.93136082495974	633687012.9902999	4.684481194519247e+21	1845029038472.6848	2.399106311621676	361251889084.5477	9.368081025045496e+20	-4.201148592406506e+23	2323.684339760729	-0.4992069681304047	26.073552504132252	10.408432147562582	37.092185940271385	156.06453909638282	155.01028292357287	76.5392813289387	0.0015804389404622367	-1.807326949814824e+23	0.4552444007187586	0.005050601347048335	-6.298221077919691e+22	0.21475798515391564	0.07483943449670469	0.0	196.208023	188.911423	-30.996555	3.475589	-25.581572	11.540304	0.0	12016.0	True	0.0	None	0.0	None	0.0	None	0.0	None	0.0	None	0.0	None	0.0	None	0.0	None	2.4422e-06	12
2014-03-24 01:12:00	84.37811815460776	638642524.9685	4.652005974914055e+21	1735014386206.0498	1.1841468591467348	546426918101.8704	9.395531361794861e+20	-4.226579821651232e+23	2306.056411817647	-0.4983318887726706	26.240173884505005	9.809084924292298	37.125544469311286	151.75569376912568	151.0175139416912	76.38265510098377	-0.0007795568526311617	-1.7883335149938447e+23	0.6881227547978116	-0.0024749686780707663	-6.122898223094584e+22	0.2108521915798542	0.07219159616120778	0.0	196.207672	188.801468	-30.995422	3.614101	-25.58074	11.66925	0.0	12016.0	True	0.0	None	0.0	None	0.0	None	0.0	None	0.0	None	0.0	None	0.0	None	0.0	None	1.9629e-06	12
2014-03-24 01:24:00	81.97541704915992	629096616.3316001	4.4043222276101374e+21	1753590361885.2593	5.711745379834232	1207980309336.8906	9.207090424617869e+20	-4.278463231189989e+23	2245.359995031173	-0.5121036196974018	25.78350424442369	9.61408259986459	35.30003373638836	154.1119661077401	151.96162547175066	76.23606713756676	0.0038671261881071312	-1.7646288729797016e+23	1.564430658441904	0.012008808861678221	-6.54348615139197e+22	0.2112143506779908	0.0783211812862918	0.0	196.207275	188.691528	-31.021709	3.753831	-25.57929	11.778441	0.0	12016.0	True	0.0	None	0.0	None	0.0	None	0.0	None	0.0	None	0.0	None	0.0	None	0.0	None	2.0265e-06	12
2014-03-24 01:36:00	82.44514840358958	623728058.0648	4.254406336690015e+21	1729314867710.2869	3.165361422392221	885223651615.458	9.242882503280595e+20	-4.396240554150868e+23	2177.7786873288023	-0.530729974543824	25.95921851331775	9.585316111488783	35.13504423747439	151.94335552504504	150.5532531482489	73.73263606328528	0.0021518432511163977	-1.7594812849878994e+23	1.1510729956992038	0.0066307008263422965	-6.668063990062839e+22	0.21241091020605607	0.08049926722870569	0.0	196.20694	188.581635	-31.020235	3.889791	-25.580759	11.910349	0.0	12016.0	True	0.0	None	0.0	None	0.0	None	0.0	None	0.0	None	0.0	None	0.0	None	0.0	None	1.2564e-06	12
2014-03-24 01:48:00	77.98101258817779	595362196.4546001	4.160652207954889e+21	1568134727399.4248	5.316987633274771	900407785190.078	8.735992063177409e+20	-4.133478146457728e+23	2343.2437920481084	-0.5227834843970217	24.896223001259703	9.050112191473447	34.393205853557404	157.76022217103167	156.962447417525	75.51122169236093	0.003976804512546575	-1.683087911713883e+23	1.2881191709049225	0.01172941177536355	-6.529543771402111e+22	0.2128692911528592	0.08258269484893176	0.0	196.20665	188.471756	-31.019148	4.029342	-25.599695	12.051517	0.0	12016.0	True	0.0	None	0.0	None	0.0	None	0.0	None	0.0	None	0.0	None	0.0	None	0.0	None	8.920999999999998e-07	12
2014-03-24 02:00:00	80.91126757215571	612033313.7028	4.477588522313994e+21	1666904843353.7542	7.200015967484468	732942069449.9741	9.175412490417664e+20	-4.229620272344336e+23	2270.4144434283344	-0.5203717732751627	26.113000122568145	11.515151515151516	36.693421081642754	147.86262600849088	148.42200191801203	69.0636084550443	0.00484849560099964	-1.766155130695515e+23	0.9440113077905532	0.015475282837285402	-6.9471929909720555e+22	0.2172907301509715	0.08547157671894663	0.0	196.20636	188.361908	-31.018139	4.139729	-25.597481	12.187093	0.0	12016.0	True	0.0	None	0.0	None	0.0	None	0.0	None	0.0	None	0.0	None	0.0	None	0.0	None	8.869499999999998e-07	12
2014-03-24 02:12:00	84.1186344868636	614914361.1620001	4.35209260116109e+21	1688207431887.1104	8.936851914140249	988387362948.4148	9.3512365621426e+20	-4.419024698439547e+23	2272.585785197781	-0.5411270096525481	24.226258372076845	7.42024965325936	33.747681841066445	151.64462199175932	152.73558308774636	69.36558710261158	0.006197539468890601	-1.724577908833586e+23	1.3109375070154583	0.018860859911786584	-6.799940694365014e+22	0.2111813692848338	0.08326795672936088	0.0	196.206085	188.25209	-31.020378000000004	4.260211	-25.593412	12.293782	0.0	12016.0	True	0.0	None	0.0	None	0.0	None	0.0	None	0.0	None	0.0	None	0.0	None	0.0	None	8.456999999999998e-07	12
2014-03-24 02:24:00	79.27033527862542	595887004.7326	4.3766487291206597e+21	1634557815330.2544	9.243999010863119	988105134038.3048	9.0499705888316e+20	-4.245207160023197e+23	2319.182945867718	-0.5364415009618215	25.769938584246173	10.063335679099225	35.22814595569478	150.52154081225325	151.86623818292549	70.49225832499269	0.0065098584583543105	-1.714522110338498e+23	1.3298891068338017	0.02019342297897024	-6.4342461872934335e+22	0.21665392986315127	0.08130573025441486	0.0	196.205887	188.142288	-31.018797	4.365469	-25.59087	12.427528	0.0	12016.0	True	0.0	None	0.0	None	0.0	None	0.0	None	0.0	None	0.0	None	0.0	None	0.0	None	1.1591e-06	12
2014-03-24 02:36:00	81.09925824448132	582672518.6678001	4.184933803630632e+21	1634368935059.7246	7.263427136595727	574835793556.2328	8.798786573749264e+20	-4.13183669040643e+23	2283.47821642572	-0.5339566245683544	25.69580603309948	9.92753623188406	35.71314085068763	148.81953326144423	148.55931785709168	69.98294930263383	0.005263352997533136	-1.6859483228851325e+23	0.7966317795958431	0.0162530160866532	-6.2977364448826446e+22	0.21787484432156307	0.08138555191056861	0.0	196.205688	188.032532	-31.015999	4.469915	-25.586767	12.534578	0.0	12016.0	True	0.0	None	0.0	None	0.0	None	0.0	None	0.0	None	0.0	None	0.0	None	0.0	None	9.335299999999999e-07	12
2014-03-24 02:48:00	84.44931329293654	583402684.7525	4.175018741220567e+21	1694399898893.1453	9.275438967608034	545106007915.3413	8.935067764190037e+20	-4.163626644488125e+23	2274.771318998798	-0.537391401588946	25.098066675345322	8.104196816208391	34.41163114060214	153.77411566580798	154.21651567469146	71.84792090938211	0.0067116056205557394	-1.6536806596284206e+23	0.7543149724584918	0.02068290783099661	-5.747779449454197e+22	0.213437429274474	0.07418550024064581	0.0	196.205475	187.922775	-31.013975	4.5754800000000015	-25.583076	12.63925	0.0	12016.0	True	0.0	None	0.0	None	0.0	None	0.0	None	0.0	None	0.0	None	0.0	None	0.0	None	3.5862e-06	12
2014-03-24 03:00:00	82.1809664707052	577884780.9972	4.134628371958044e+21	1594217660268.5432	10.02675919024122	652778667813.1748	8.694584759467335e+20	-4.103571731371495e+23	2355.0081682558616	-0.5346975137673632	24.917685757259456	7.639939485627838	34.29250818477705	156.7736649441003	158.48514587693631	70.66779974458554	0.007584537965386702	-1.5580064777055235e+23	0.9442817093569914	0.0226113521460537	-6.2212040101877546e+22	0.20300904787258686	0.08106260922543135	2.175735132331209	196.205368	187.813065	-31.014675	4.678677	-25.581573	12.765015	0.0	12016.0	True	0.0	None	0.0	None	0.0	None	0.0	None	0.0	None	0.0	None	0.0	None	0.0	None	1.4196000000000001e-06	12
2014-03-24 03:12:00	81.48362819159266	568616853.4580001	4.090881415733126e+21	1609074403244.1816	14.057120410879907	910690218130.5082	8.50821332098113e+20	-4.002791165838839e+23	2386.042337203332	-0.5300669199557287	25.447509734258013	8.520526723470178	35.01937724086184	153.71715559592346	154.9780197472568	71.03965861420568	0.01088855182872185	-1.5702472247630316e+23	1.3489604761402905	0.03231440822122338	-7.1585788740290816e+22	0.20793892949065296	0.09479699783991978	2.118018763152853	196.205292	187.703384	-31.013065	4.751	-25.558447	12.875552	0.0	12016.0	True	0.0	None	0.0	None	0.0	None	0.0	None	0.0	None	0.0	None	0.0	None	0.0	None	1.2959e-06	12
2014-03-24 03:24:00	81.55100579743825	587977070.7265	4.330194642394439e+21	1619306573463.7788	10.021184582250298	615487738358.5872	8.80500665439112e+20	-4.057025798478439e+23	2453.4084705060113	-0.5195589160458935	25.011692568717013	7.44920993227991	34.518762779178644	156.02867815179403	157.47541918078403	72.04894948036433	0.0075403947195261814	-1.680144909500708e+23	0.885599080504418	0.02243216154308901	-7.128520775807852e+22	0.2151660628600395	0.0912906821711216	0.0	196.205139	187.593735	-31.044886	4.855180000000002	-25.556225	12.982654	0.0	12016.0	True	0.0	None	0.0	None	0.0	None	0.0	None	0.0	None	0.0	None	0.0	None	0.0	None	1.12e-06	12
2014-03-24 03:36:00	79.46020592173592	594118762.9378	4.3556054440874596e+21	1506422073375.6492	8.55231759637153	414318471270.5881	8.706681869800875e+20	-4.117168302268998e+23	2566.2865774360866	-0.5218105154936111	24.998957282122074	7.902973395931142	34.47570616419583	162.5437589531834	163.0692689181594	73.2808067905782	0.006691954300760196	-1.6881145458005075e+23	0.6199185930590656	0.018918206741699816	-7.720808481803495e+22	0.2139518855401101	0.09785364012680826	0.0	196.205093	187.4841	-31.044197	4.958642	-25.549021	13.127785	0.0	12016.0	True	0.0	None	0.0	None	0.0	None	0.0	None	0.0	None	0.0	None	0.0	None	0.0	None	1.0538e-06	12
2014-03-24 03:48:00	85.20826851668238	593423180.5155001	4.367008075219828e+21	1620300870024.0698	12.353196088138285	784316299181.422	8.767227094978067e+20	-4.0875248451247375e+23	2587.175253650649	-0.5186606532143393	23.874443131494807	4.169944925255703	33.65850077497609	163.10924045380347	161.22150589601773	77.57398003461817	0.009719273082720916	-1.697351198415763e+23	1.1799557702741816	0.027414736944325373	-8.518838389470568e+22	0.2153746618456568	0.10809442024505568	1.602234669787734	196.205093	187.374496	-31.040321	5.064303	-25.543142	13.270543	0.0	12016.0	True	0.0	None	0.0	None	0.0	None	0.0	None	0.0	None	0.0	None	0.0	None	0.0	None	1.0343e-06	12
2014-03-24 04:00:00	80.92942299422171	614299100.2265	4.5068615963968353e+21	1542037732355.495	10.880356930967086	768455068545.5002	8.988084309087957e+20	-4.269683727188636e+23	2649.1866297585143	-0.5233633299572769	24.065593755514822	4.839968774395004	34.20139327148461	162.34926750984312	162.15203638808362	77.02467003279547	0.008493643193573056	-1.722271703174865e+23	1.1470406573199925	0.023253576674153082	-8.923984401574172e+22	0.2111102159452677	0.10938716990098764	1.5707614150233058	196.205063	187.264908	-31.071165	5.1664910000000015	-25.540777	13.406311	0.0	12016.0	True	0.0	None	0.0	None	0.0	None	0.0	None	0.0	None	0.0	None	0.0	None	0.0	None	9.2693e-07	12
2014-03-24 04:12:00	84.91250095682656	641619346.9169999	4.834464118674216e+21	1634791675040.276	10.755053554381886	730164174641.2197	9.371889207996525e+20	-4.26690707303435e+23	2653.271170368953	-0.5007525183023548	24.210448249305163	4.591836734693878	34.68624406987433	161.15079594089917	158.29525088936168	78.87013702366734	0.007838960316604873	-1.810218785707361e+23	1.0175732487009956	0.022338604612287274	-9.559228943661704e+22	0.21244231479748804	0.11218449065410008	1.8669315538259976	196.205048	187.15535	-31.066236	5.27026	-25.533442	13.512807	0.0	12016.0	True	0.0	None	0.0	None	0.0	None	0.0	None	0.0	None	0.0	None	0.0	None	0.0	None	8.140900000000002e-07	12
2014-03-24 04:24:00	82.69584006862074	629897478.7143	4.675025937679719e+21	1591505074592.316	7.7801849528244285	1024084440942.8398	9.138358384711287e+20	-4.137899660277879e+23	2634.905251136617	-0.494649439893728	23.595914328797626	4.341317365269461	35.13217161104285	164.10730299046503	162.4228861645384	80.35115472185613	0.005827853897246761	-1.8026071217745976e+23	1.465611945367125	0.01653059462899532	-9.366877073041975e+22	0.2154857962588612	0.11197276101717914	1.8749995397395969	196.205109	187.045807	-31.091944	5.377553	-25.531475	13.62318	0.0	12016.0	True	0.0	None	0.0	None	0.0	None	0.0	None	0.0	None	0.0	None	0.0	None	0.0	None	7.4855e-07	12
2014-03-24 04:36:00	89.10882445265392	656257505.0574	4.981904044923972e+21	1705550999858.9656	11.002608988488962	919197840848.1312	9.638552677341181e+20	-4.401064278244655e+23	2681.4216923190656	-0.5049761918959149	23.754341140149933	4.0028591851322375	34.298641218289845	163.66112497323903	161.41594950341897	80.37879868987082	0.007864624008927066	-1.876856123529949e+23	1.2562380220512563	0.02228033734569038	-1.0140625547680512e+23	0.2153496513744844	0.1163530943599972	1.902752272963396	196.205139	186.936295	-31.091219	5.48051	-25.529888	13.752010999999998	0.0	12016.0	True	0.0	None	0.0	None	0.0	None	0.0	None	0.0	None	0.0	None	0.0	None	0.0	None	7.5434e-07	12
2014-03-24 04:48:00	85.19798145251687	647214881.6921	5.068218554235021e+21	1658803332053.337	7.284607249055583	953482970975.9633	9.508626902873335e+20	-4.218166659306111e+23	2712.368098019869	-0.4907526243288743	24.531622069629307	5.046197583511017	34.79924717250957	163.41813063014175	159.45936958994992	79.74562110135507	0.005177403872818466	-1.93374866997262e+23	1.2956595558674242	0.015100177769834763	-1.0355678313053965e+23	0.2249774158372498	0.1204806902928972	2.0231421015432325	196.2052	186.826797	-31.095362	5.584459	-25.527002	13.855154	0.0	12016.0	True	0.0	None	0.0	None	0.0	None	0.0	None	0.0	None	0.0	None	0.0	None	0.0	None	8.2824e-07	12
2014-03-24 05:00:00	75.3137449591973	628235273.2262001	4.729637528574361e+21	1479645746503.2898	4.5759061718624086	627076500800.1133	9.259916209966222e+20	-4.136824906884542e+23	2605.2339756902074	-0.4958293288072722	23.7424681468968	4.169714703730797	34.489033078477114	160.63140512984344	156.9649884133393	79.23313263821036	0.003347407587317051	-1.889603963034021e+23	0.8770334103194566	0.009738739415150443	-1.0149739327755609e+23	0.22648313278705304	0.12165219828556532	2.0227058893687766	196.205322	186.717316	-31.092785	5.685593	-25.523048	13.965059	0.0	12016.0	True	0.0	None	0.0	None	0.0	None	0.0	None	0.0	None	0.0	None	0.0	None	0.0	None	9.5262e-07	12
2014-03-24 05:12:00	78.57836722733425	632242268.7205	4.750137159441574e+21	1547847830069.1038	7.241313031731651	990843992237.1562	9.507995501086051e+20	-4.255455509874325e+23	2529.5550746955732	-0.5068155438126124	23.512286612811604	3.4653465346534658	33.96939419316224	159.86911851991766	156.2521450899596	78.51704939508619	0.005121154902214746	-1.8828781225308004e+23	1.339715772572165	0.01520210397431015	-1.0750341584267785e+23	0.22424671046120287	0.1280342422464411	2.1014754056978298	196.205399	186.607849	-31.089067	5.789434	-25.51849	14.088482999999998	0.0	12016.0	True	0.0	None	0.0	None	0.0	None	0.0	None	0.0	None	0.0	None	0.0	None	0.0	None	1.1138e-06	12
2014-03-24 05:24:00	79.91080769738956	632691444.6798	4.682976256559346e+21	1555832985445.1362	3.519690699968886	537856116769.3038	9.688046265129181e+20	-4.313377258916304e+23	2420.192244920201	-0.5133492635156058	23.401509358149088	4.392587508579274	33.74219952828633	159.6256159875831	156.70898556346648	76.85774837317831	0.002415710844179057	-1.875756408222533e+23	0.7057594372820384	0.0073519638789029985	-1.0825251071689978e+23	0.22323996091583226	0.12883488578552368	2.072154786923804	196.205505	186.498398	-31.11471	5.893541	-25.513968	14.218344	0.0	12016.0	True	0.0	None	0.0	None	0.0	None	0.0	None	0.0	None	0.0	None	0.0	None	0.0	None	1.1247e-06	12
2014-03-24 05:36:00	78.4453658898044	624910929.9097	4.542946986043846e+21	1523907840456.5884	4.747438765787794	755800613402.4412	9.564137305029016e+20	-4.432540019196794e+23	2477.0306862088264	-0.5340992168364365	22.560576036812108	3.5481535119478638	32.59004058547615	164.37820707952812	162.5553231499242	76.51182230439673	0.003437681944813754	-1.9030393512221314e+23	1.0463031322076484	0.009904163439319312	-1.0451118493933367e+23	0.22930685852687266	0.12593082473028847	0.0	196.205673	186.388977	-31.113333	5.997886	-25.510719	14.356758	0.0	12016.0	True	0.0	None	0.0	None	0.0	None	0.0	None	0.0	None	0.0	None	0.0	None	0.0	None	1.015e-06	12
2014-03-24 05:48:00	76.5535282071234	621832423.7458	4.3808618699587096e+21	1520155026128.8523	4.56780540934134	950056418789.2754	9.718024849649785e+20	-4.444979445388174e+23	2278.1292440877064	-0.5382496481930364	22.247652541507698	3.3839779005524857	32.707812925307195	158.06967246304654	156.1340796114794	73.60478474151577	0.003154561746782694	-1.8665608714272646e+23	1.2543516058639528	0.009550748354590088	-1.0164157606630857e+23	0.22602483199759216	0.12307940504930436	0.0	196.205811	186.279556	-31.114248	6.10264	-25.508148	14.461031	0.0	12016.0	True	0.0	None	0.0	None	0.0	None	0.0	None	0.0	None	0.0	None	0.0	None	0.0	None	9.3995e-07	12
2014-03-24 06:00:00	76.95798174861379	615863538.45	4.5124128332152114e+21	1572669710311.9011	2.057031852209536	580045566931.0277	9.820478768591667e+20	-4.312125563127867e+23	2232.4491349073987	-0.5272229475253488	23.15824736868545	4.270696452036794	32.99782135785305	154.15539199587369	151.87432494151096	71.9705388258747	0.0013515320973781445	-1.858493123705328e+23	0.7285865040907638	0.004374053375928813	-9.818587088297885e+22	0.2272290563646697	0.12004716350309212	0.0	196.205963	186.170166	-31.144701	6.2068879999999975	-25.504852	14.59519	66560.0	12016.0	False	0.0	None	0.0	None	0.0	None	0.0	None	0.0	None	0.0	None	0.0	None	0.0	None	9.377299999999999e-07	12
2014-03-24 06:12:00	79.26208638480702	618751534.1365	4.41032531793091e+21	1613184792505.0488	6.364085505459156	542783514816.8065	9.987502188517534e+20	-4.400473383130572e+23	2134.265684303988	-0.5355136664146071	22.53534650119863	3.727506426735218	33.119383088841225	155.37058459257526	152.71107243415938	71.84436289589128	0.004090029245153699	-1.863828064167824e+23	0.6668783019098574	0.013396644314141944	-1.0714726277506857e+23	0.2268177337545629	0.1303923885892159	0.0	196.206161	186.06076	-31.172777000000004	6.311186	-25.501287	14.733642	66560.0	12016.0	False	0.0	None	0.0	None	0.0	None	0.0	None	0.0	None	0.0	None	0.0	None	0.0	None	8.8685e-07	12
2014-03-24 06:24:00	83.30224284018018	625653960.1302	4.6388551684997015e+21	1663511746971.6	7.443127071064111	1081198843409.6992	1.0178280862727632e+21	-4.540515846479784e+23	2192.7162372203275	-0.5464600189428208	23.54512740012667	5.4613935969868175	32.750097796860466	151.98500422893642	149.39889135033144	68.67350818345493	0.004672396152582619	-1.933706506891328e+23	1.297525037284942	0.015385532598564797	-1.0883285807033172e+23	0.23272538410034066	0.1309824867780683	0.0	196.206329	185.951385	-31.17272800000001	6.41573	-25.498238	14.876708	0.0	12016.0	True	0.0	None	0.0	None	0.0	None	0.0	None	0.0	None	0.0	None	0.0	None	0.0	None	8.9087e-07	12
2014-03-24 06:36:00	81.30830031570585	613794133.1541	4.452183740343513e+21	1642435342099.671	0.502836906210061	648660878082.1064	1.0018037493124862e+21	-4.440732958745397e+23	2146.2457470348722	-0.5447777012139505	22.942728752634448	4.737516005121639	32.80690094686961	152.937182821152	149.67889560641984	69.79898936296568	0.000321918633937299	-1.8441735319082542e+23	0.7938889578872023	0.001060641013179697	-1.0229892982091597e+23	0.2262384670922501	0.12549769675911976	0.0	196.206512	185.84201	-31.170519	6.454321	-25.495174	15.010706	0.0	12016.0	True	0.0	None	0.0	None	0.0	None	0.0	None	0.0	None	0.0	None	0.0	None	0.0	None	8.367399999999998e-07	12
2014-03-24 06:48:00	88.58495280442581	629589523.4189	4.5812631066413173e+21	1847329340972.7969	5.801868897238783	748866133314.7917	1.0504374308604344e+21	-4.620687451145803e+23	2039.9949080505746	-0.5526326721612268	23.36736619343872	5.499704316972205	32.92597599847468	149.94540073126342	148.21124978143274	67.43584615505112	0.0034310283248011725	-1.847999183589004e+23	0.8466063470614905	0.011870573276004643	-1.0824186587996331e+23	0.2210200836512565	0.12945690920109307	0.0	196.206757	185.732651	-31.168177000000004	6.527519	-25.49147	15.127121	0.0	12016.0	True	0.0	None	0.0	None	0.0	None	0.0	None	0.0	None	0.0	None	0.0	None	0.0	None	9.746e-07	12
2014-03-24 07:00:00	87.08119281319034	606815065.9922001	4.1623381686911055e+21	1767512280999.5532	4.749400831713069	825508747379.8027	1.0027284322339574e+21	-4.515335586466348e+23	1962.5457738201874	-0.560300523025528	23.14828028992488	5.6981840951784575	32.7633189154888	151.16643906190362	149.32010398117606	68.85029855619905	0.0029739516792192033	-1.7440102597305806e+23	0.9881799728485412	0.01003238547310149	-1.0232806640589763e+23	0.21641134794449549	0.12697720474921498	0.0	196.20694	185.623291	-31.197727	6.631147	-25.487282	15.26505	0.0	12016.0	True	0.0	None	0.0	None	0.0	None	0.0	None	0.0	None	0.0	None	0.0	None	0.0	None	8.6507e-07	12
2014-03-24 07:12:00	89.20317101418058	600478774.3003	4.0642555824359436e+21	1784944980755.5393	7.0254358483774615	834361809283.2603	9.833016673060093e+20	-4.56953139231613e+23	2025.3677959523006	-0.5730088879032141	22.783103240404	5.691594970218397	32.142062755576426	152.6929917726863	152.74325937230302	69.32283116554785	0.004649527364908974	-1.6572696056638527e+23	1.0556218124158896	0.014875597917792154	-1.0285292571937788e+23	0.20781785530439464	0.12897523952490075	0.0	196.207138	185.513931	-31.22686	6.7360190000000015	-25.483236	15.369463	0.0	12016.0	True	0.0	None	0.0	None	0.0	None	0.0	None	0.0	None	0.0	None	0.0	None	0.0	None	8.9825e-07	12
2014-03-24 07:24:00	86.7138222267696	587865329.9999	4.02360793538749e+21	1736461663465.2903	1.4778174915835132	608806628220.0696	9.516541045081647e+20	-4.433759806104972e+23	2101.0568994877594	-0.5679128981781538	23.25945013140833	6.38002773925104	31.993896762953955	155.4974475463676	155.7482895281591	69.77718074487004	0.0010248387597666527	-1.610045422318952e+23	0.8071092955702122	0.003206645994181112	-1.0443152510792323e+23	0.20622803263465228	0.13376459862246576	0.0	196.207382	185.404587	-31.22519500000001	6.841075	-25.481562	15.504497	0.0	12016.0	True	0.0	None	0.0	None	0.0	None	0.0	None	0.0	None	0.0	None	0.0	None	0.0	None	9.1435e-07	12
2014-03-24 07:36:00	79.80076809792317	554415328.2612	3.717946512827169e+21	1562561438176.7998	1.4677758238663459	462163757407.75397	8.772847106087201e+20	-4.16891579402542e+23	2135.4425068318483	-0.5662071267714062	23.459261451579884	6.712433257055683	32.78670717542989	157.43876868132813	157.048979435212	71.40095168319995	0.0011195849152298596	-1.4560310469092186e+23	0.673925472256652	0.003380689625783574	-1.0012465818089015e+23	0.1977528921888808	0.13598570426588302	0.0	196.207596	185.295242	-31.253168	6.9465179999999975	-25.476713	15.609404	0.0	12016.0	True	0.0	None	0.0	None	0.0	None	0.0	None	0.0	None	0.0	None	0.0	None	0.0	None	9.054899999999999e-07	12
2014-03-24 07:48:00	77.2427505688911	538916922.1371	3.5717865600133544e+21	1466588835757.2422	4.695746185260873	321298242699.6647	8.419416623755472e+20	-4.046996522552785e+23	2184.8162622050368	-0.5654555672641804	22.9007253943996	5.767668562144598	32.696493708821336	162.22583231067605	163.477955581005	71.6046238442308	0.003814578542047826	-1.3774344577497345e+23	0.3873751176215192	0.011131970424324185	-1.032113120151458e+23	0.19245827821586567	0.14420919479019242	0.0	196.207794	185.185898	-31.249340000000004	7.050383	-25.498562	15.71739	0.0	12016.0	True	0.0	None	0.0	None	0.0	None	0.0	None	0.0	None	0.0	None	0.0	None	0.0	None	9.048600000000001e-07	12
2014-03-24 08:00:00	81.20421232667603	538391008.293	3.57409328911059e+21	1575600491964.6853	6.557260578468733	467899529809.2206	8.54930363831587e+20	-4.08185390179566e+23	2134.2150001097843	-0.5708828924162332	22.708505148408545	5.551149881046787	32.00786909033819	161.19377554408032	161.37436885649151	70.72725955286134	0.005200048040022785	-1.4574263507645305e+23	0.07945747103589804	0.015506394542530581	-1.018734038175228e+23	0.20383379479654445	0.1424788462077244	0.0	196.208054	185.076553	-31.2465	7.1576070000000005	-25.495768	15.824292000000002	0.0	12016.0	True	0.0	None	0.0	None	0.0	None	0.0	None	0.0	None	0.0	None	0.0	None	0.0	None	8.9156e-07	12
2014-03-24 08:12:00	78.68882447937057	538172222.396	3.702567998009244e+21	1513658572739.545	7.138512811522645	480982554256.863	8.439978846466706e+20	-3.964999471281846e+23	2248.375405308641	-0.5547653448815738	22.92334628456749	5.564516129032258	32.452879654691685	166.08186537103663	165.09145028161169	75.11905115387052	0.005756865170582778	-1.4688457459621628e+23	0.19932448583234114	0.017062851422973292	-1.0045773931303176e+23	0.20551445788039246	0.1405560651386422	0.0	196.208298	184.967194	-31.274117	7.263068	-25.492668	15.934134	0.0	12016.0	True	0.0	None	0.0	None	0.0	None	0.0	None	0.0	None	0.0	None	0.0	None	0.0	None	1.1041e-06	12
2014-03-24 08:24:00	73.30109902011087	515126927.0405	3.42609408863352e+21	1384921985991.7754	9.333387018497737	522944043606.5044	7.883681524930039e+20	-3.730475977710136e+23	2305.4549915160273	-0.5453024445247361	22.086866469667978	2.949061662198391	32.41813578974496	170.80953832687982	169.16270459468996	78.56984240558101	0.008340828434761156	-1.4541267846419085e+23	-0.05046114522788571	0.02344992869771681	-9.9288600674742e+22	0.2125570289292826	0.14513514357117274	0.0	196.20845	184.857849	-31.272327	7.3663880000000015	-25.490074	16.05348	0.0	12016.0	True	0.0	None	0.0	None	0.0	None	0.0	None	0.0	None	0.0	None	0.0	None	0.0	None	1.2425e-06	12
2014-03-24 08:36:00	74.55520766274344	528444348.0575	3.4572513259794323e+21	1421830514694.172	11.995397098294813	639734492896.5032	8.170646367657139e+20	-3.885738002033008e+23	2206.1571104461627	-0.5536837149452551	21.634533294807625	2.7966101694915246	32.32249838548529	168.34399750564717	166.38032882914825	77.4053746001712	0.010165590761266793	-1.4801834600848243e+23	0.7612015279186627	0.02922017107221958	-1.1189763125335737e+23	0.21091321045101324	0.15944434785237205	0.0	196.208694	184.748489	-31.272615	7.470581	-25.486467	16.166726999999998	0.0	12016.0	True	0.0	None	0.0	None	0.0	None	0.0	None	0.0	None	0.0	None	0.0	None	0.0	None	9.8717e-07	1
2014-03-24 08:48:00	72.68643912359758	540133917.7641	3.771556165370666e+21	1424095045494.2268	8.039974767309195	352077095415.1419	8.44605982863496e+20	-3.857653706379657e+23	2281.070329616663	-0.5377856841316966	22.209514399238387	3.7751004016064265	32.97720133727495	170.04372342062263	166.93795313027823	78.17127733727914	0.006457811058079675	-1.540977456887974e+23	0.2346691580493483	0.01935920051739361	-1.213256797559888e+23	0.2148237449394484	0.16913704198594584	0.0	196.208923	184.63913	-31.271076	7.5753910000000015	-25.48286400000001	16.276035	0.0	12016.0	True	0.0	None	0.0	None	0.0	None	0.0	None	0.0	None	0.0	None	0.0	None	0.0	None	-99999.0	0
2014-03-24 09:00:00	69.9142151122673	523226441.4313	3.674518813942996e+21	1414963567243.593	6.9395682071507	519217008120.1835	8.258969299720304e+20	-3.7533389980790686e+23	2256.822731272648	-0.5401514552429368	22.74078115538321	4.159869494290375	32.7614719630355	167.37668282698485	163.7475908047411	78.99623343470033	0.005660332958524225	-1.516168690467059e+23	0.8096503375707109	0.017223020983858382	-1.1612488072309336e+23	0.21819524561162687	0.1671179271166115	1.8456735816673373	196.209106	184.529755	-31.269028	7.681682	-25.479959	16.382168	0.0	12016.0	True	0.0	None	0.0	None	0.0	None	0.0	None	0.0	None	0.0	None	0.0	None	0.0	None	-99999.0	0
2014-03-24 09:12:00	67.56787674363363	512612901.5385	3.5941198012075066e+21	1374172696851.0242	10.192855686595145	633880132301.6377	8.09701815933443e+20	-3.648714434367385e+23	2216.482312898517	-0.5359666009168231	23.372347379515404	4.995904995904995	33.74105929502499	162.97238036496026	158.9950031549087	77.79600239965174	0.00834795715527858	-1.4744730942452423e+23	0.9436434589491288	0.02589134230301372	-1.153178556218132e+23	0.21658815637156054	0.16939259077247082	0.0	196.209259	184.420364	-31.26516	7.787219	-25.475327	16.487454999999994	0.0	12016.0	True	0.0	None	0.0	None	0.0	None	0.0	None	0.0	None	0.0	None	0.0	None	0.0	None	-99999.0	0
