Timestamp	TOTUSJH	TOTBSQ	TOTPOT	TOTUSJZ	ABSNJZH	SAVNCPP	USFLUX	TOTFZ	MEANPOT	EPSZ	MEANSHR	SHRGT45	MEANGAM	MEANGBT	MEANGBZ	MEANGBH	MEANJZH	TOTFY	MEANJZD	MEANALP	TOTFX	EPSY	EPSX	R_VALUE	CRVAL1	CRLN_OBS	LAT_MIN	LON_MIN	LAT_MAX	LON_MAX	QUALITY	NOAA_AR	IS_TMFI	BFLARE	BFLARE_label	CFLARE	CFLARE_label	MFLARE	MFLARE_label	XFLARE	XFLARE_label	BFLARE_loc	BFLARE_label_loc	CFLARE_loc	CFLARE_label_loc	MFLARE_loc	MFLARE_label_loc	XFLARE_loc	XFLARE_label_loc	XR_MAX	XR_QUAL
2014-03-28 07:24:00	183.45230144260188	2437608873.5192	1.0533960967392242e+22	4383380564884.9614	17.72624048655113	1263913583057.852	5.685972101242616e+21	-2.5571457202852105e+24	829.0065312795184	-0.7899122865857231	17.659115181952536	0.1254180602006689	21.810727685208807	79.55891843997756	80.04317341733861	25.27544395959538	-0.0018526589137281696	1.1014174705256416e+23	0.06279488963114478	-0.00812551434303233	-6.484687484598241e+23	-0.034023215248419045	0.20031452561027693	0.0	185.875122	132.65358	10.640521	46.372913	19.545902	60.13938100000001	0.0		True	0.0	None	0.0	None	0.0	None	0.0	None	0.0	None	0.0	None	0.0	None	0.0	None	5.5334e-07	12
2014-03-28 07:36:00	183.18608524293134	2412502788.1367	1.0678938858768176e+22	4440348939976.672	16.4845636054737	856871759538.6799	5.672091123080936e+21	-2.521335080568838e+24	830.6923131500376	-0.7869555299199612	18.13821659570077	0.23760330578512395	22.157218968247207	78.77468647225916	79.37082591980506	25.54194441734053	-0.0017031267285332885	1.1177267512614463e+23	0.0010769385367466141	-0.007648392610877416	-6.336076791149318e+23	-0.034886328859003606	0.19776073030592747	0.0	185.878021	132.54422	10.652007	46.504745	19.523891	60.243824	0.0		True	0.0	None	0.0	None	0.0	None	0.0	None	0.0	None	0.0	None	0.0	None	0.0	None	5.512600000000001e-07	12
2014-03-28 07:48:00	180.16780622640687	2380745633.3293004	1.04192216442479e+22	4334615535920.955	15.855452986835079	927767653726.4	5.544175137870506e+21	-2.480642339782498e+24	837.0357526258267	-0.7845822966171274	17.92976797269748	0.2027099114477755	22.237744482034245	78.93526258821083	79.54579310428879	26.12726402679441	-0.0016916091952240565	9.734341074660649e+22	0.06675392537511915	-0.007463784180906481	-6.283899781476776e+23	-0.030787959851887925	0.19874838235225786	0.0	185.880859	132.43486	10.652624	46.61578	19.502655	60.360069	0.0		True	0.0	None	0.0	None	0.0	None	0.0	None	0.0	None	0.0	None	0.0	None	0.0	None	5.2376e-07	12
2014-03-28 08:00:00	180.18108929620644	2380873677.2281	1.0379243499880568e+22	4274600878142.95	17.079298677393428	1193032719471.7031	5.463232106624446e+21	-2.4881077152809674e+24	862.4402972032183	-0.7869012262411635	17.79886314281684	0.2427720150077245	21.86987199061501	81.35235860685813	81.86053048588572	26.472093242318177	-0.0018847162521952586	8.341693073876289e+22	0.07758285233600251	-0.00802903088839678	-6.259321760736391e+23	-0.02638185022475777	0.1979603993312348	0.0	185.883759	132.3255	10.66541	46.72887	19.497383	60.465576	0.0		True	0.0	None	0.0	None	0.0	None	0.0	None	0.0	None	0.0	None	0.0	None	0.0	None	5.139899999999999e-07	12
2014-03-28 08:12:00	186.3658109545892	2356590659.8478003	1.0437898547832725e+22	4372122519561.2886	18.3575138376045	1201628974972.2607	5.384824425221111e+21	-2.456680067220004e+24	883.2005007083293	-0.7849678904436768	17.996497432327985	0.2921676592875604	21.86626204763316	80.70084167462153	81.38295587476932	26.392435801212468	-0.002063105623466453	8.120202635357114e+22	0.10605102050905517	-0.008728889877671073	-6.291947492391599e+23	-0.025945984655073258	0.2010427330683721	2.014802085983547	185.886597	132.216141	10.671626	46.850342	19.488993	60.557625	0.0		True	0.0	None	0.0	None	0.0	None	0.0	None	0.0	None	0.0	None	0.0	None	0.0	None	5.1463e-07	12
2014-03-28 08:24:00	185.30465573954132	2350104087.5159	1.0549796986769526e+22	4318902655449.5815	15.121079693228081	1012350397388.9167	5.334112538111977e+21	-2.443255644557847e+24	907.6621636620712	-0.7828332282654493	18.039218425402247	0.13711151736745886	21.839440836975708	80.80594751771756	81.53253987035016	26.60642195672236	-0.0017277284841439762	7.0746056815528615e+22	0.08288978495796337	-0.007217968464089754	-6.2950177583005e+23	-0.02266744545021757	0.20169600691173345	0.0	185.889481	132.106781	10.674689	46.959003	19.473869	60.670788	0.0		True	0.0	None	0.0	None	0.0	None	0.0	None	0.0	None	0.0	None	0.0	None	0.0	None	5.140800000000001e-07	12
2014-03-28 08:36:00	182.65779766361	2305094526.2212	1.0280656386917304e+22	4217172966529.3066	18.338302438238014	1552779836857.5688	5.17748175177277e+21	-2.4046391239989787e+24	925.2061945648953	-0.7855044078997767	17.941871014388333	0.31074459184893033	21.686387012452677	82.16466892048105	82.73229135656192	26.984870628157104	-0.002192003638326323	4.389401411809623e+22	0.0448960555405053	-0.008912628922617197	-6.210597452681584e+23	-0.014338509768917098	0.2028766656120738	0.0	185.892303	131.997406	10.681752	47.08218400000001	19.468452	60.777855	0.0		True	0.0	None	0.0	None	0.0	None	0.0	None	0.0	None	0.0	None	0.0	None	0.0	None	5.0875e-07	2
2014-03-28 08:48:00	181.79701954248446	2277663570.8318005	1.0377931461225945e+22	4150662399087.366	19.25155239067012	1570040012126.0034	5.06891636233837e+21	-2.365116474351732e+24	963.3192968831461	-0.7818984664350656	18.016605726824935	0.3081854043392505	21.83033605402483	82.6149044610486	83.23500848349241	27.21422709026917	-0.002373218983070774	3.6566607185754085e+22	0.1334883718055822	-0.009486875941875285	-6.190180499730722e+23	-0.012088780570145641	0.2046450013005109	0.0	185.895187	131.888031	10.695036	47.187298	19.454895	60.87445400000001	0.0		True	0.0	None	0.0	None	0.0	None	0.0	None	0.0	None	0.0	None	0.0	None	0.0	None	-99999.0	0
2014-03-28 09:00:00	178.9001411062821	2236314707.6377	1.011380346726305e+22	4106311688392.277	12.886295007122458	1074056040804.0107	4.938503067450469e+21	-2.3287942660925112e+24	973.607934442698	-0.7841255571232368	17.879127735301584	0.21733571976476604	21.754162736607185	84.74902760787947	85.11963991166965	27.926970038636068	-0.0016474424708671	2.518480718057716e+22	0.04695428540737389	-0.006459512316820961	-6.035000199044127e+23	-0.008479946575378107	0.2032037764011884	2.0273280423476816	185.89801	131.778656	10.708016	47.31073	19.442755	60.980518	0.0		True	0.0	None	0.0	None	0.0	None	0.0	None	0.0	None	0.0	None	0.0	None	0.0	None	-99999.0	0
2014-03-28 09:12:00	170.50482601377942	2153219596.9273	9.654367435541394e+21	3838745114946.4297	14.653654059101171	1153095475240.3467	4.727425941501465e+21	-2.246496214670532e+24	985.1759397149484	-0.7856061071743133	17.632106539514986	0.08131183087139178	21.40171513110465	84.86993049767452	85.2113283052854	27.9500481991701	-0.0019858590675025304	7.74832263013818e+21	0.045748725720076606	-0.007622579171268692	-5.823242759854799e+23	-0.002709610431943784	0.20364045333463715	0.0	185.900818	131.669266	10.719491	47.411461	19.427124	61.07073199999999	0.0		True	0.0	None	0.0	None	0.0	None	0.0	None	0.0	None	0.0	None	0.0	None	0.0	None	-99999.0	0
2014-03-28 09:24:00	169.52034678362924	2129019692.4187	9.571718434142667e+21	3838722519892.924	16.337933350484832	1215898145661.5068	4.702343222370759e+21	-2.2210143507430328e+24	972.2619597968253	-0.7855232895193912	17.690373739625713	0.18885741265344666	21.491659544501122	83.93174050344811	84.42639254625179	27.23461976591739	-0.002203957014769301	-3.7527808902782766e+20	-0.003241605349418373	-0.008595713226170856	-5.809239944846031e+23	0.000132727498531952	0.2054598733032169	0.0	185.903656	131.55986	10.729911	47.53174600000001	19.403744	61.172417	0.0		True	0.0	None	0.0	None	0.0	None	0.0	None	0.0	None	0.0	None	0.0	None	0.0	None	-99999.0	0
2014-03-28 09:36:00	159.49767470880826	2067141025.7705	9.305109707220917e+21	3581844343830.7417	14.615311450212069	1187122635310.2627	4.543415140669504e+21	-2.1608508526803563e+24	985.5994033890917	-0.7871221499792073	17.69466903686061	0.2532001688001125	21.36516406656783	84.40904991849858	84.94380404936929	27.47842628836901	-0.002055888514588841	-1.750693205340832e+22	0.08138573407519636	-0.007912500059184806	-5.648114217832765e+23	0.006377161098520794	0.205740983971849	0.0	185.906464	131.450455	10.742556	47.6451	19.382786	61.254257	0.0		True	0.0	None	0.0	None	0.0	None	0.0	None	0.0	None	0.0	None	0.0	None	0.0	None	-99999.0	0
2014-03-28 09:48:00	156.97485178998016	2010576577.8588	8.706293267896716e+21	3502961997043.1533	14.590190956436707	1045940118005.3568	4.40187709866635e+21	-2.1181922118770024e+24	962.9442131770456	-0.7932902754869419	17.223528883832582	0.17626321974148065	21.050323549371484	85.63828521374741	86.28962198920965	27.67963943118527	-0.002143409865790614	-2.2685260625204147e+22	0.04072973396547526	-0.008093926998769492	-5.418958641867708e+23	0.008495922395500831	0.2029469832697693	0.0	185.909271	131.341019	10.755913	47.768391	19.362555	61.360134	0.0		True	0.0	None	0.0	None	0.0	None	0.0	None	0.0	None	0.0	None	0.0	None	0.0	None	5.8563e-07	10
2014-03-28 10:00:00	156.74390859127436	1987818252.4146	8.809327057622048e+21	3502811314563.273	17.249206288063526	1195079080871.6997	4.38380955022944e+21	-2.0849005583028945e+24	966.8135761139308	-0.7897617519589837	17.3534175906866	0.2040518874799592	21.13950309605353	84.84073382251718	85.47044278693582	27.352383699203305	-0.002514095071864673	-2.4477295160699392e+22	-0.01781407905483763	-0.009696772686674451	-5.331794782235707e+23	0.009272016083619208	0.2019687496142196	0.0	185.912033	131.231583	10.765926	47.87839500000001	19.33872	61.435745	0.0		True	0.0	None	0.0	None	0.0	None	0.0	None	0.0	None	0.0	None	0.0	None	0.0	None	6.0201e-07	12
2014-03-28 10:12:00	150.15502863770962	1966598064.7645	8.751003273256298e+21	3406496303686.6084	14.574168819447491	965801199787.643	4.355116076566382e+21	-2.0660467765548192e+24	957.20394313769	-0.7910647576360732	17.543957717968684	0.305055200464846	21.398051967871137	84.47398380164955	84.99337666206331	26.93358242652516	-0.002117107614678601	-2.0939288568108807e+22	-0.09520640713788013	-0.008275359995935991	-5.277755474353793e+23	0.00801740474812686	0.2020789849755545	0.0	185.914825	131.122131	10.778131	48.003056	19.317253	61.51718100000001	0.0		True	0.0	None	0.0	None	0.0	None	0.0	None	0.0	None	0.0	None	0.0	None	0.0	None	5.953999999999999e-07	12
2014-03-28 10:24:00	147.62124251822303	1959464505.1981	8.486195974998618e+21	3312667752710.3438	16.75676320636243	1171546319862.6104	4.3140638372183047e+21	-2.061963558320312e+24	944.5668650749782	-0.7923754939296184	17.17385634478382	0.19216555801921656	21.185542805851647	84.20018458488117	84.5691813970992	27.341839680658932	-0.002476979040112702	-3.6194678880938284e+22	-0.07640594678985249	-0.009542314584422252	-5.252832453871099e+23	0.013908963832159152	0.2018568996222324	0.0	185.917542	131.01265	10.793274	48.118324	19.298943	61.587032	0.0		True	0.0	None	0.0	None	0.0	None	0.0	None	0.0	None	0.0	None	0.0	None	0.0	None	6.255699999999999e-07	12
2014-03-28 10:36:00	144.45053354671666	1934204010.1209	8.131773142258277e+21	3296815470517.2754	17.88724938658236	1215999342775.916	4.3055302859618674e+21	-2.0373276893470525e+24	899.4005281349292	-0.7931330353724217	16.826979731908093	0.17626321974148065	21.263771094528124	83.53998547584177	84.05217323086322	27.330745600496893	-0.0026273868076648593	-3.2544840812079195e+22	0.03017840158843957	-0.010314751429680878	-5.081481306809298e+23	0.012669728347563622	0.19782240795782616	0.0	185.920319	130.903168	10.805415	48.24305	19.27739	61.68146899999999	0.0		True	0.0	None	0.0	None	0.0	None	0.0	None	0.0	None	0.0	None	0.0	None	0.0	None	6.3204e-07	12
2014-03-28 10:48:00	140.17032954763494	1905975017.3238	8.025846867592509e+21	3243221794726.68	13.050637681073345	832177636475.6473	4.296653411603282e+21	-2.0113808992440207e+24	876.8656678193555	-0.7946293168262967	17.015821405828994	0.1596053395240859	21.337531487615312	81.85503519844812	82.17131254352476	26.785859264102587	-0.0018935922346304914	-1.975560067629811e+22	-0.001693345904016132	-0.007630794649759902	-4.983481087508927e+23	0.007804777043870773	0.1968806690703072	2.0728103369589945	185.923004	130.793655	10.817453	48.359207	19.25572	61.75013000000001	0.0		True	0.0	None	0.0	None	0.0	None	0.0	None	0.0	None	0.0	None	0.0	None	0.0	None	6.804300000000001e-07	12
2014-03-28 11:00:00	136.3963884559572	1879300698.9653	7.87827640505735e+21	3158606078897.373	10.978574697561408	901296476326.0624	4.248221008705911e+21	-1.977906115491248e+24	866.7794994835613	-0.7924955207537011	16.901354703793164	0.17533606078316774	21.42323701363332	81.40379204945805	81.71653577544464	27.023349746167305	-0.0016041167004034785	-1.9633318037461527e+22	-0.00031698719270974716	-0.006518108755168368	-4.927363819663506e+23	0.007866559732212909	0.1974266485968836	2.0752639208519152	185.925659	130.684113	10.817527	48.482658	19.234545	61.84399000000001	0.0		True	0.0	None	0.0	None	0.0	None	0.0	None	0.0	None	0.0	None	0.0	None	0.0	None	6.572799999999999e-07	12
2014-03-28 11:12:00	140.9779958810918	1885100320.9591	7.901131784301771e+21	3338310551092.4907	14.88339241967849	1202987561905.8071	4.318848289604051e+21	-1.9834916127205395e+24	840.0803255677089	-0.7922884625313819	17.041671675255284	0.3247670149675233	21.580839077385484	78.59057302748081	79.447697919932	25.469517791337317	-0.002101580403795325	-1.4387285262578494e+22	-0.0062964288558243755	-0.008810276771210945	-4.892666342174931e+23	0.005746875886736986	0.1954332989895519	2.095175491251382	185.928375	130.57457	10.824227	48.597511	19.20697	61.938049	0.0		True	0.0	None	0.0	None	0.0	None	0.0	None	0.0	None	0.0	None	0.0	None	0.0	None	6.229899999999999e-07	12
2014-03-28 11:24:00	140.74647382576882	1889072077.9011	7.635827963160075e+21	3281033031153.195	15.156524083519914	1148953203915.8765	4.317297523735e+21	-2.0020381756839207e+24	819.976962985339	-0.7980153574168829	16.592084127510788	0.2281802624073017	21.19469462349839	79.15741017330127	79.72992989987421	26.488170260122203	-0.0021615122766001017	-1.2325990537287971e+22	0.035423341637168225	-0.008924577883295495	-4.796817222778291e+23	0.004913157932550796	0.19120183905540208	2.0970660954026497	185.931	130.464996	10.835453	48.722378000000006	19.177542000000006	62.032963	0.0		True	0.0	None	0.0	None	0.0	None	0.0	None	0.0	None	0.0	None	0.0	None	0.0	None	6.154800000000001e-07	12
2014-03-28 11:36:00	141.36446602113824	1869489739.0764003	7.412192849826784e+21	3309570933841.64	15.45776444173657	1040144985089.9244	4.2622168628490776e+21	-1.9829664474275908e+24	807.4774643023868	-0.7986926903959755	16.50941874417693	0.2459490740740741	21.199771229140424	80.20933029701558	80.89281926869738	26.712818698874326	-0.0022363663833530915	3.225085482050802e+21	0.08197106508348204	-0.009193833299585863	-4.673468509378221e+23	-0.001298989301487016	0.1882364243771432	2.1073627132140103	185.93364	130.355392	10.84381	48.830395	19.151741	62.14501600000001	0.0		True	0.0	None	0.0	None	0.0	None	0.0	None	0.0	None	0.0	None	0.0	None	0.0	None	6.3041e-07	12
2014-03-28 11:48:00	142.08789536937644	1907867755.3538	7.624502566586497e+21	3277415142699.212	16.422283817967944	1234862144193.252	4.3596541525734777e+21	-2.0200143373998664e+24	809.0685755545302	-0.7972483132696656	16.564966688587607	0.3382187147688839	21.530457944946352	79.40846713016286	80.12606091245426	26.57360706349719	-0.0023143015527012324	-3.216337036789652e+21	0.01235890991904068	-0.00957871378086249	-4.736962138389865e+23	0.0012694064740094526	0.18695585496262807	2.113624177102272	185.936218	130.245773	10.855504	48.96526	19.122744	62.226624	0.0		True	0.0	None	0.0	None	0.0	None	0.0	None	0.0	None	0.0	None	0.0	None	0.0	None	7.654600000000002e-07	12
2014-03-28 12:00:00	135.17512585609256	1894188448.9546	7.420133747638798e+21	3111940225535.9683	11.575826917000695	942757435031.6425	4.2855561057679657e+21	-2.0147295272508232e+24	815.7780417582712	-0.8009050120107458	16.296035804747618	0.23361074609432034	21.096505189771143	81.00222686377198	81.80503801466612	27.174742873453003	-0.0016901484767120301	-1.4354733953606889e+22	0.05041071964998192	-0.006786846544240127	-4.630705511942949e+23	0.005706363168862864	0.18408204195635305	2.3960880164072456	185.938843	130.136139	10.865841	49.088081	19.092222	62.332188	0.0		True	0.0	None	0.0	None	0.0	None	0.0	None	0.0	None	0.0	None	0.0	None	0.0	None	7.518899999999998e-07	12
2014-03-28 12:12:00	137.28441692412878	1905784938.8745	7.444298885763159e+21	3179655915464.9526	10.826664417555692	876030732224.3525	4.330434612935239e+21	-2.021036187618104e+24	800.2084392311783	-0.7985234320399438	16.44693699699941	0.21413276231263384	21.50091227751009	81.2022710809252	81.74215998438926	27.259012082020558	-0.0015455623722420687	-5.504615010130091e+21	0.08887020657125437	-0.006317346242287342	-4.674881742077298e+23	0.0021749061678742482	0.1847073612998475	0.0	185.94136	130.02645900000002	10.865444	49.213875	19.064178	62.42795600000001	0.0		True	0.0	None	0.0	None	0.0	None	0.0	None	0.0	None	0.0	None	0.0	None	0.0	None	6.438e-07	12
2014-03-28 12:24:00	134.2168296153098	1912565879.2215	7.367876690149068e+21	3090002593269.0176	11.388415475154991	940794668540.978	4.324617044294853e+21	-2.0398757335749703e+24	799.7571315565178	-0.8031095220855454	16.308844094320623	0.2594781605881505	21.37430903517285	82.22571407104964	82.93591787612677	27.25479655634168	-0.0016416917219482473	-1.0625974052290982e+22	0.0270038733180042	-0.006604725735796695	-4.637796587329695e+23	0.0041835003977781175	0.1825924265618229	0.0	185.943909	129.91676299999997	10.873084	49.332111	19.009691	62.540195	0.0		True	0.0	None	0.0	None	0.0	None	0.0	None	0.0	None	0.0	None	0.0	None	0.0	None	6.0589e-07	12
2014-03-28 12:36:00	137.04943705483	1912548100.7983005	7.290812115165888e+21	3152910086327.5664	10.229290829752678	796011114487.7107	4.325694288799131e+21	-2.0425326862062712e+24	792.4199482498683	-0.8041628775510202	16.14137330258025	0.2453810623556582	21.099760559017643	81.86411553225662	82.63093636796067	26.63445104852758	-0.001476514265264532	-1.584742439489547e+22	-0.0236771067229264	-0.005929081400916757	-4.658478299599761e+23	0.00623926877118499	0.18340834101280126	0.0	185.946381	129.807037	10.879405	49.459473	18.974663	62.638401	0.0		True	0.0	None	0.0	None	0.0	None	0.0	None	0.0	None	0.0	None	0.0	None	0.0	None	5.916899999999999e-07	12
2014-03-28 12:48:00	133.69275308424142	1920599724.2592	7.389637737050891e+21	3090238468386.6064	13.01615723495609	959688860058.6588	4.328899765866775e+21	-2.0456332610536088e+24	805.2533465899941	-0.8020073560036186	16.377916136734008	0.3183791606367584	21.346526221468746	81.62201354271406	82.55408619436494	26.99533991643038	-0.001883669643264268	-1.473976689030851e+22	0.06247636761784117	-0.007521758062687141	-4.6402962926432376e+23	0.005778846920839254	0.18192663521805474	0.0	185.948837	129.697281	10.886167	49.595398	18.954466	62.733982	0.0		True	0.0	None	0.0	None	0.0	None	0.0	None	0.0	None	0.0	None	0.0	None	0.0	None	6.0435e-07	12
2014-03-28 13:00:00	140.00205060244642	1945556774.5374	7.6771978236205e+21	3338753424283.4976	13.635354473891221	915127405317.3364	4.395090250109345e+21	-2.059376008116142e+24	813.742872719319	-0.7970382415219468	16.732106865641253	0.5208333333333333	21.79311881430263	80.13670043004242	81.32162087751354	27.27511280723121	-0.0019193911140049575	-1.4288144170933786e+22	0.07708523364786417	-0.00780001073541748	-4.693950490251886e+23	0.0055299261813925435	0.18166949744956187	0.0	185.951309	129.587509	10.887163	49.732685	18.94812	62.83152	0.0		True	0.0	None	0.0	None	0.0	None	0.0	None	0.0	None	0.0	None	0.0	None	0.0	None	7.335299999999998e-07	12
2014-03-28 13:12:00	139.77105812397508	1946750866.5324	7.757145674589257e+21	3281965144699.784	15.708857182249535	1431508575137.5818	4.380711540783275e+21	-2.053745509339706e+24	824.7710971300243	-0.7943715076770775	16.858855472554808	0.6212934199378707	21.87515303520028	79.49072756911279	80.55621900298385	27.18172635712841	-0.0022181385459262267	-1.7838235013440468e+22	0.09609681285944707	-0.008993978513408456	-4.6896041796137255e+23	0.006899679428382806	0.18138994951551649	0.0	185.95369	129.477692	10.897489	49.866436	18.938295	62.938015	0.0		True	0.0	None	0.0	None	0.0	None	0.0	None	0.0	None	0.0	None	0.0	None	0.0	None	1.1912000000000001e-06	12
2014-03-28 13:24:00	138.7601429429818	1947637040.7571	7.593225055703687e+21	3269821618113.323	13.406323660575044	897624557841.6943	4.3767675643575576e+21	-2.0687324038897936e+24	809.9729736083939	-0.7998042902441248	16.566101497089036	0.3116588751947868	21.316777964870127	79.85995992179521	80.56061824155995	26.659636095450374	-0.0018991817057054886	-2.883850153827084e+22	-0.013699576084574571	-0.007649030409934536	-4.727417586086249e+23	0.011149415560539336	0.18276935479997106	0.0	185.956116	129.367859	10.902943	50.003609	18.936834	63.048977	0.0		True	0.0	None	0.0	None	0.0	None	0.0	None	0.0	None	0.0	None	0.0	None	0.0	None	6.996999999999999e-07	12
2014-03-28 13:36:00	137.07171153545005	1930025652.6083	7.590605763666398e+21	3175939466420.3086	13.114411743247128	1141388926602.6665	4.3157515696125515e+21	-2.0479487057758103e+24	825.3611740770218	-0.7989937287846327	16.761200118974973	0.2888086642599278	21.484325153438594	79.99656368675397	80.54307403231529	26.82615872244352	-0.0018937778690609566	-2.8439263673787567e+22	0.07314547160098724	-0.00755415826924108	-4.697152637855869e+23	0.011095391824279582	0.18325632327638366	0.0	185.958435	129.25798	10.915178	50.141796	18.928911	63.13306400000001	0.0		True	0.0	None	0.0	None	0.0	None	0.0	None	0.0	None	0.0	None	0.0	None	0.0	None	7.4554e-07	12
2014-03-28 13:48:00	135.19894427712552	1911338977.2857003	7.39681918843807e+21	3101200332756.136	12.84542853576198	1026641825604.9686	4.2500260881828555e+21	-2.0346218268613032e+24	826.4887946293146	-0.8015551455351791	16.484940693769587	0.1929069594895385	21.234821940273847	80.85067261039454	81.85124647469067	26.617156842518824	-0.0019061327401338449	-3.2875878362982298e+22	0.0523905249674979	-0.007460936028397122	-4.541424257446184e+23	0.012951708822709629	0.17891295244924235	0.0	185.960785	129.148087	10.916434	50.282051	18.922556	63.233448	0.0		True	0.0	None	0.0	None	0.0	None	0.0	None	0.0	None	0.0	None	0.0	None	0.0	None	9.1727e-07	12
2014-03-28 14:00:00	137.2782275928625	1918366510.0934	7.430046938389337e+21	3111682371534.4927	11.625142989251607	903179518471.3	4.216141974813664e+21	-2.044012781898729e+24	846.531534052155	-0.8023047404245317	16.544535464000106	0.3631411711302769	20.984802350836922	81.6253848255507	82.48002396853579	27.105277772372734	-0.001758986683197398	-2.6257496147789e+22	0.05742226666930916	-0.006724631489966554	-4.544553197540624e+23	0.010306449068034124	0.17838032158054054	0.0	185.963058	129.038162	10.924762	50.435013	18.917255	63.33836	0.0		True	0.0	None	0.0	None	0.0	None	0.0	None	0.0	None	0.0	None	0.0	None	0.0	None	9.3765e-07	12
2014-03-28 14:12:00	133.67051035085044	1916135897.6037	7.35541067320485e+21	3027086231249.4795	16.055404330419627	1116963330819.285	4.226603185404008e+21	-2.04872289760575e+24	834.366852568186	-0.805089715593104	16.484676033356603	0.3314251280506177	20.911443831513605	80.02241918329177	81.15236784464001	26.357248553351866	-0.0024187111073244393	-3.96568506004632e+22	0.09005269862853038	-0.009283807861922944	-4.481166719327787e+23	0.015584012170975959	0.1760970819335839	0.0	185.965363	128.928207	10.931973	50.584553	18.911095	63.437569	0.0		True	0.0	None	0.0	None	0.0	None	0.0	None	0.0	None	0.0	None	0.0	None	0.0	None	6.441e-07	12
2014-03-28 14:24:00	136.88399755389685	1904564255.4543	7.471671238396049e+21	3065607130093.5864	12.454318129625408	972465608111.8992	4.186764715326593e+21	-2.02330353641392e+24	856.7185525961041	-0.7999315852233565	16.63229621271051	0.16750418760469013	21.013371471242333	80.59919940736795	81.3740095612018	26.95561956504548	-0.0018965004004302434	-4.7585928153393365e+22	0.02009064887829244	-0.007266049017820277	-4.520953016619897e+23	0.01881353255060067	0.17874001840153111	0.0	185.96759	128.818237	10.937154	50.723114	18.895859	63.53532	0.0		True	0.0	None	0.0	None	0.0	None	0.0	None	0.0	None	0.0	None	0.0	None	0.0	None	6.0887e-07	12
2014-03-28 14:36:00	135.09085072241498	1900371792.5958	7.451762752102438e+21	3035331039349.378	16.65835977365538	1178614838196.9492	4.17329212367665e+21	-2.024036352502816e+24	859.2771172007808	-0.8019866540488918	16.702149166018494	0.33690658499234305	20.934179234201327	79.80410856198105	80.72566275421259	26.857869562830004	-0.0025510505013254803	-4.734687570094902e+22	0.034823263214970916	-0.009729087008617096	-4.504103445228253e+23	0.018760316422241758	0.17846669834076845	0.0	185.969772	128.708221	10.943238	50.873867	18.902235	63.621216	0.0		True	0.0	None	0.0	None	0.0	None	0.0	None	0.0	None	0.0	None	0.0	None	0.0	None	7.036799999999999e-07	12
2014-03-28 14:48:00	137.58809976404987	1913718548.8322	7.541063038531237e+21	3065119228746.995	14.693089385619311	1086104547086.139	4.162641885701601e+21	-2.043016878170404e+24	885.9918508179152	-0.8038616606142788	16.646241868369806	0.2184428147916992	20.692604401519834	81.32576642152928	82.06195555950269	26.98111122014469	-0.002292571288129087	-4.737118659781476e+22	0.040081245691754606	-0.008512592063811025	-4.498591811538553e+23	0.01863904362742717	0.17700516930078702	0.0	185.971985	128.59819	10.950743	51.017288	18.882492000000006	63.72500600000001	0.0		True	0.0	None	0.0	None	0.0	None	0.0	None	0.0	None	0.0	None	0.0	None	0.0	None	6.8242e-07	12
2014-03-28 15:00:00	139.2321751537671	1923096600.1482	7.774815593866234e+21	3137260580728.9907	15.140772215269784	1423806908788.965	4.139387971263174e+21	-2.0407692057458312e+24	919.7697071804358	-0.7990614979695659	16.920379348715368	0.3770620581304006	21.01027881087296	83.0608442878073	83.68806448763792	28.44170087471723	-0.0023787544721555038	-5.54407068121719e+22	0.09087740479334223	-0.008752475668502948	-4.524038244310372e+23	0.021707762989120208	0.17713834402205705	0.0	185.974121	128.488129	10.952162	51.158989	18.882309	63.81194300000001	0.0		True	0.0	None	0.0	None	0.0	None	0.0	None	0.0	None	0.0	None	0.0	None	0.0	None	7.206e-07	12
2014-03-28 15:12:00	143.8035579713802	1955370289.324	7.719237094178989e+21	3239358130886.6367	14.219239623981846	1193835715729.9285	4.185040656277631e+21	-2.0810811460920467e+24	907.20836645202	-0.8013964106591516	16.816436138134733	0.3589823630404246	21.06256617106887	83.5353986695914	84.29120570579131	28.369113597159892	-0.0022193288003717567	-6.498630300760255e+22	0.12275513197012555	-0.008073615518312562	-4.63157683820591e+23	0.0250253528412857	0.17835580610589544	0.0	185.976288	128.378036	10.958539	51.309166	18.868523	63.895847	0.0		True	0.0	None	0.0	None	0.0	None	0.0	None	0.0	None	0.0	None	0.0	None	0.0	None	9.0949e-07	12
2014-03-28 15:24:00	141.44831619663475	1942662920.2456	7.668108677320869e+21	3160591813236.3066	17.779791412208027	1431925134627.6072	4.1553974289346315e+21	-2.0659329110419425e+24	909.7187556466592	-0.8007669697173876	16.742907283418194	0.3623759256341579	20.98661067565353	81.83539961947211	82.76515527536243	27.85308221818216	-0.002801290595904841	-6.492506228073091e+22	0.13448979587330126	-0.010164866761037722	-4.571969848747466e+23	0.025165311566208	0.17721206830353087	2.6075036643208453	185.978363	128.267914	10.964071	51.502518	18.859819	64.009842	0.0		True	0.0	None	0.0	None	0.0	None	0.0	None	0.0	None	0.0	None	0.0	None	0.0	None	7.3905e-07	12
2014-03-28 15:36:00	139.3420043524236	1936353178.7214	7.887164119489772e+21	3142160911245.1187	17.396077441735766	1403656172983.2195	4.161550013017511e+21	-2.0491519865025952e+24	927.088889177386	-0.7968508335645945	17.13414736004622	0.4527005931938807	21.300177906456607	79.44140998391882	80.55352565389633	27.244400907214068	-0.0027155912334898163	-6.424091201583036e+22	0.17935995114904088	-0.009999648395987795	-4.604989680997865e+23	0.02498127255857377	0.1790735821466534	2.71902395728514	185.980469	128.15776100000002	10.970665	51.706638	18.853628	64.095863	0.0		True	0.0	None	0.0	None	0.0	None	0.0	None	0.0	None	0.0	None	0.0	None	0.0	None	6.5434e-07	12
2014-03-28 15:48:00	142.40179168027427	1962667640.1848	7.799095528132181e+21	3111848802693.7764	21.98019143812261	1513816323947.4216	4.200737610540565e+21	-2.0926944905245347e+24	918.7447217232616	-0.8028722590427124	16.795814792577588	0.3285356695869837	20.76429055871388	79.69606027178035	80.557432726273	27.248737912458854	-0.003438703291320809	-6.43659679268622e+22	0.1882125622765929	-0.012423665450172322	-4.634416389472003e+23	0.02469431171578112	0.17780160328263336	2.7219951732997347	185.982483	128.04759199999998	10.96565	51.876797	18.840322	64.175827	0.0		True	0.0	None	0.0	None	0.0	None	0.0	None	0.0	None	0.0	None	0.0	None	0.0	None	6.278799999999999e-07	12
2014-03-28 16:00:00	143.20129723731782	1992557422.4034	7.916801677833332e+21	3149524719210.165	24.99595870269843	1592023107720.166	4.273682305814492e+21	-2.125330346434966e+24	913.3212932513527	-0.8031617685586602	16.807161824501048	0.2144936417956182	20.77183357648021	80.59630303901966	81.43118664793789	27.65157399101484	-0.003829624437367615	-6.1330039327220686e+22	0.24106460954152306	-0.013914072357791246	-4.689333129769175e+23	0.023176605431926445	0.1772097733504684	2.448030040246228	185.984543	127.937393	10.971675	52.03072	18.831934	64.291595	0.0		True	0.0	None	0.0	None	0.0	None	0.0	None	0.0	None	0.0	None	0.0	None	0.0	None	7.7035e-07	12
2014-03-28 16:12:00	148.4379424718957	2013860125.6441	8.125000765681689e+21	3273522764582.239	23.27406555791077	1527568184892.8655	4.319419317171831e+21	-2.1391450649935367e+24	923.0566157524142	-0.7998312393355167	16.976069973389322	0.2112251056125528	20.967899184708067	80.10444437952674	81.27150194738276	27.649491311434588	-0.003512006270999061	-5.495830741607263e+22	0.17082761137060895	-0.01284277582451252	-4.790991066788501e+23	0.020549037020316567	0.17913625332400795	2.5982081114444293	185.986526	127.827171	10.978003	52.183651	18.825787	64.39061	0.0		True	0.0	None	0.0	None	0.0	None	0.0	None	0.0	None	0.0	None	0.0	None	0.0	None	1.0982e-06	12
2014-03-28 16:24:00	141.67436630424803	1980457588.3702	7.794325418968614e+21	3132092113836.467	22.51847217715968	1482910642316.5337	4.284191291509328e+21	-2.1197723502694365e+24	886.8275431915778	-0.8059555281745499	16.758984339181414	0.1511030522816561	20.65168370442354	77.86704397827305	78.84779383580761	27.00289370200697	-0.0034026098786883755	-4.709470616100169e+22	0.17304105581996146	-0.012592046508331615	-4.666335073629809e+23	0.017905808976794547	0.1774180396507536	2.605966948474541	185.98848	127.716927	10.977892	52.337971	18.813082	64.49189	0.0		True	0.0	None	0.0	None	0.0	None	0.0	None	0.0	None	0.0	None	0.0	None	0.0	None	6.6535e-07	12
2014-03-28 16:36:00	136.47097601400975	1938986298.115	7.542971612156258e+21	3119381966732.2334	25.39106012964073	1772960854297.567	4.287970665796031e+21	-2.0722299548866167e+24	837.7225413718422	-0.8047308104675714	16.793601771106328	0.38348082595870203	21.07304121139776	74.62199900868285	75.96779390739509	26.41167553816321	-0.0037449941194160376	-5.221350396426224e+22	0.2170763141470413	-0.014511879273785343	-4.450022294833126e+23	0.020276618076786528	0.17281238693973827	2.6046153306211446	185.990448	127.606659	10.981177	52.489059	18.806074	64.588806	0.0		True	0.0	None	0.0	None	0.0	None	0.0	None	0.0	None	0.0	None	0.0	None	0.0	None	6.951699999999999e-07	12
2014-03-28 16:48:00	131.22318089585303	1875752670.5999	7.190013433133186e+21	3033891803852.0195	22.313661117083004	1489990669785.5046	4.2262835537050316e+21	-2.0130019437029724e+24	799.2302432859419	-0.8080830936938668	16.545093810869485	0.22143489813994688	20.82518233324459	72.67378420129954	73.67710790961995	25.39482870802279	-0.003294015517727045	-4.693430102628664e+22	0.1884916703652254	-0.013158514697530807	-4.224223187256533e+23	0.018840923274973845	0.16957377275713684	2.6007240472013966	185.992371	127.496368	10.988301	52.646648	18.786097	64.69651800000001	0.0		True	0.0	None	0.0	None	0.0	None	0.0	None	0.0	None	0.0	None	0.0	None	0.0	None	9.0178e-07	12
2014-03-28 17:00:00	122.65357034013651	1810996536.0965	6.741621647188155e+21	2830049565858.5923	20.986435639561254	1398061930530.1885	4.137114006167261e+21	-1.9506183041856093e+24	756.7611646462423	-0.8110398452337154	16.294289201241867	0.2534287418008348	20.766015835576095	69.56404341709947	70.269150064455	25.20153410994069	-0.003128568222951887	-4.24355852295202e+22	0.20864218270632864	-0.012797438593499784	-3.9395745732464714e+23	0.01764412361101134	0.16380200807694595	2.7174482460175	185.994308	127.386055	10.992731	52.80035400000001	18.763306	64.796097	0.0		True	0.0	None	0.0	None	0.0	None	0.0	None	0.0	None	0.0	None	0.0	None	0.0	None	8.2064e-07	12
2014-03-28 17:12:00	126.19694288332308	1805327299.6192	6.747062761394043e+21	2900604768699.1323	21.329691398855978	1460118969432.6035	4.136032383712566e+21	-1.9415938605069235e+24	754.7838745457719	-0.8098226031855722	16.271875165249494	0.2674194027633338	20.828440651776976	69.41858761379694	70.23867771068993	25.261660198762822	-0.003168874075004603	-4.686176378467647e+22	0.2197594407704656	-0.013056374853810636	-3.935008243027319e+23	0.0195456507717149	0.1641259113836029	2.410625891343392	185.996185	127.275726	10.999607	52.981247	18.750765	64.90097800000001	0.0		True	0.0	None	0.0	None	0.0	None	0.0	None	0.0	None	0.0	None	0.0	None	0.0	None	8.3964e-07	12
2014-03-28 17:24:00	114.8418503620837	1709098379.4377005	6.363701492001905e+21	2636723442081.036	20.670038285922686	1336135113587.6086	3.908983511088057e+21	-1.8349164806410763e+24	752.4786680692438	-0.8084193253200989	16.287476051805054	0.5182160804020101	21.013742376434525	68.17302783641182	69.25523875648464	25.247565792158927	-0.0032459230976637386	-4.726681585708832e+22	0.2626804292280415	-0.013375347526336826	-3.645378117906632e+23	0.02082460307504924	0.16060644447343572	2.70514138595281	185.998077	127.165382	11.000565	53.308155000000006	18.736671	64.996429	0.0		True	0.0	None	0.0	None	0.0	None	0.0	None	0.0	None	0.0	None	0.0	None	0.0	None	9.420200000000002e-07	12
2014-03-28 17:36:00	107.6839529854038	1637448493.9158	5.93615588361423e+21	2516385765049.1025	17.827034352634477	1221811153159.543	3.7625623301707646e+21	-1.7619003945351766e+24	731.5625865219632	-0.8102165398657237	15.934012051881142	0.37643207855973815	20.99594112653505	67.211553857682	68.3424205284898	24.962721872291368	-0.0029176815634426308	-6.230977467273953e+22	0.2696818115809716	-0.01202848470279819	-3.406653601610068e+23	0.028653384829100226	0.15665625038615136	2.709460267249025	185.999908	127.055016	11.005419	53.720379	18.734171	65.101395	0.0		True	0.0	None	0.0	None	0.0	None	0.0	None	0.0	None	0.0	None	0.0	None	0.0	None	1.2356e-06	12
2014-03-28 17:48:00	106.08539079694118	1605436229.5009	5.85344938691837e+21	2494962742912.753	18.809296276974386	1337287125238.5725	3.7369136752165e+21	-1.7344602259406084e+24	716.2122599692001	-0.8135020677297902	16.006327475296256	0.4874878128046799	20.732902787010946	65.75403834321689	66.651012977661	24.211588968488744	-0.003056434234152484	-6.0824969185310965e+22	0.2820304095388299	-0.012920860229071886	-3.375071847881859e+23	0.02852832106600615	0.15829869638547206	2.7088912338702937	186.001785	126.944633	11.009097	58.999695	18.721924	65.21129599999999	0.0		True	0.0	None	0.0	None	0.0	None	0.0	None	0.0	None	0.0	None	0.0	None	0.0	None	1.2022e-06	12
2014-03-28 18:00:00	101.54247640106493	1572998085.2563	5.578728782806603e+21	2389271002390.3755	19.39218700809826	1484277650098.3308	3.6881816540816443e+21	-1.712044313004325e+24	693.4152926454062	-0.8195477148097421	15.66672184897682	0.13205678441729946	20.33707916399908	66.03913925762859	66.94865023247728	23.56135300704228	-0.003201087323885484	-6.356629137454127e+22	0.3191161094307436	-0.013550806492433756	-3.2223524050016115e+23	0.030428890443564068	0.15425252312520465	2.715120520527589	186.003601	126.834244	11.017681	59.109673	18.719004	65.302452	66560.0		False	0.0	None	0.0	None	0.0	None	0.0	None	0.0	None	0.0	None	0.0	None	0.0	None	2.328e-06	12
2014-03-28 18:12:00																																	False	0.0	None	0.0	None	0.0	None	0.0	None	0.0	None	0.0	None	0.0	None	0.0	None	1.5991e-06	12
2014-03-28 18:24:00	103.1638686611584	1592189922.7608	5.719584469078628e+21	2301648351176.4746	17.704001052671835	1263842562198.2815	3.637276203241661e+21	-1.7354270481043848e+24	739.6140340591223	-0.8207274258653362	15.841412227517038	0.29194573244032285	20.314554964223564	68.0242367020647	68.78500982752175	23.404489416866628	-0.0030403573849685445	-7.302425276947573e+22	0.2117827686285676	-0.012214104108506095	-3.315788952660605e+23	0.034535019531184895	0.15681206160768388	2.5690216159946364	186.007202	126.613411	11.02445	59.348286	18.71077	65.50026700000001	66560.0		False	0.0	None	0.0	None	0.0	None	0.0	None	0.0	None	0.0	None	0.0	None	0.0	None	1.3356e-06	12
2014-03-28 18:36:00	103.59766421599821	1583233138.3850002	5.662497307993136e+21	2273239709586.321	18.00922948841562	1304479508749.6106	3.551215219546403e+21	-1.7223261734442982e+24	768.3881335419351	-0.8191395506326442	15.6203575231522	0.3243827716705713	20.10886546600779	69.23711403161332	70.63734615166919	24.041022752842395	-0.003245490987279802	-7.3311394742278535e+22	0.2789046350838149	-0.012505879517554878	-3.325493959028086e+23	0.03486695137736323	0.15816072874177556	2.5604219533885795	186.008972	126.502983	11.029853	59.452259	18.708687	65.612923	0.0		True	0.0	None	0.0	None	0.0	None	0.0	None	0.0	None	0.0	None	0.0	None	0.0	None	1.0105e-06	12
2014-03-28 18:48:00	108.1427675105252	1611382238.6056	5.971783770505591e+21	2421657079362.8467	18.972575792655785	1400003085163.6145	3.610963915088839e+21	-1.7411492673595943e+24	792.6449980244611	-0.8136260871519349	15.860989638442547	0.31729243786356426	20.403236127099323	68.93334487090026	70.3011966938504	24.65371204393189	-0.0033443637921127768	-7.675011611101986e+22	0.3514232006950106	-0.012984043616607743	-3.415613282459022e+23	0.035864757738182484	0.1596090652495083	2.557260507925652	186.010788	126.39254	11.033379	59.578091	18.703529	65.717285	0.0		True	0.0	None	0.0	None	0.0	None	0.0	None	0.0	None	0.0	None	0.0	None	0.0	None	1.0017e-06	12
2014-03-28 19:00:00	108.0690664053977	1629090204.8528	6.0647506861856e+21	2417311141341.629	18.67387876509088	1354971776382.0938	3.605771850460992e+21	-1.7630533821546725e+24	814.6055200551233	-0.8149065706374157	15.980909948427515	0.4459507670353193	20.296417604165388	70.83957920279244	72.26180527830067	24.374634604195546	-0.0033310522235267337	-8.248704228958228e+22	0.3379812648535598	-0.0126317966372013	-3.529324572867621e+23	0.03812660094958477	0.1631300454911352	2.416997329762082	186.012543	126.282097	11.041511	59.674778	18.704262	65.797913	0.0		True	0.0	None	0.0	None	0.0	None	0.0	None	0.0	None	0.0	None	0.0	None	0.0	None	9.8527e-07	12
2014-03-28 19:12:00	109.7929077773586	1637407645.8657	6.207064406188538e+21	2421228058736.821	17.691908810867126	1332200993439.1252	3.582399429843201e+21	-1.760776368198558e+24	844.7203377406479	-0.8097197936867614	16.128303372474342	0.3072474245436472	20.305381681598913	72.15434714458388	73.31918406215202	24.759903519109315	-0.0031975255396470485	-1.0256201496612684e+23	0.30297853570307065	-0.011940885595050332	-3.702178402991034e+23	0.047164702513264205	0.17025030474076866	2.1186981724198493	186.014343	126.171638	11.043642	59.791679	18.695002	65.896851	0.0		True	0.0	None	0.0	None	0.0	None	0.0	None	0.0	None	0.0	None	0.0	None	0.0	None	1.8418e-05	12
