Timestamp	TOTUSJH	TOTBSQ	TOTPOT	TOTUSJZ	ABSNJZH	SAVNCPP	USFLUX	TOTFZ	MEANPOT	EPSZ	MEANSHR	SHRGT45	MEANGAM	MEANGBT	MEANGBZ	MEANGBH	MEANJZH	TOTFY	MEANJZD	MEANALP	TOTFX	EPSY	EPSX	R_VALUE	CRVAL1	CRLN_OBS	LAT_MIN	LON_MIN	LAT_MAX	LON_MAX	QUALITY	NOAA_AR	IS_TMFI	BFLARE	BFLARE_label	CFLARE	CFLARE_label	MFLARE	MFLARE_label	XFLARE	XFLARE_label	BFLARE_loc	BFLARE_label_loc	CFLARE_loc	CFLARE_label_loc	MFLARE_loc	MFLARE_label_loc	XFLARE_loc	XFLARE_label_loc	XR_MAX	XR_QUAL
2014-01-18 04:12:00	1310.282914533202	15785371300.5232	1.3521220606300578e+23	29057809484030.64	180.24918875739	10434645654524.166	2.7072812958028407e+22	-1.2394903419229618e+25	2412.17410656647	-0.5912564232782067	23.395671178553876	7.162149355572402	28.75529749780514	94.66217924485404	96.02048530796296	37.90200755368178	0.004270498217337708	-4.6536587336717885e+23	0.24917913454214824	0.01435186507952981	3.819414874204908e+24	0.0221986854190364	-0.18219210760726784	3.8818768237893218	274.48822	323.318726	-27.608	-68.709244	-5.400365	-22.962532	0.0	11955;11956	True	0.0	None	0.0	None	0.0	None	0.0	None	0.0	None	0.0	None	0.0	None	0.0	None	5.5705e-07	12
2014-01-18 04:24:00	1309.193347138399	15814761653.1774	1.3618512425501495e+23	29202746845320.15	180.706686766554	10498938211065.0	2.695295086045822e+22	-1.2372969941839991e+25	2449.66994737478	-0.5891132741983469	23.632652753849435	7.438904947325673	29.01425452930502	95.09373723910338	96.90180350345749	38.05459432147981	0.004316826802191872	-4.648515138884092e+23	0.19785600246650933	0.014380921396150268	3.858471228347689e+24	0.022132939678194564	-0.18371309632341945	3.9040014003726937	274.490753	323.209656	-27.64482700000001	-68.650368	-5.406233	-22.840233	0.0	11955;11956	True	0.0	None	0.0	None	0.0	None	0.0	None	0.0	None	0.0	None	0.0	None	0.0	None	6.889399999999999e-07	12
2014-01-18 04:36:00	1319.5031934577119	15820373791.807102	1.3594266472158636e+23	28857389234998.61	179.8305940176749	9260397317316.54	2.680739132938436e+22	-1.2400758661557184e+25	2485.807856446009	-0.5902270219495426	23.602832704959024	7.336263629519903	28.859287076299466	96.12558733817932	97.91533013952795	38.41620072424692	0.004367258275679989	-4.869937680832187e+23	0.18128524149811587	0.014296666642130373	3.8580083196136656e+24	0.02317897551984537	-0.18362592348492604	3.9401729077543552	274.493317	323.100616	-27.697422	-68.568558	-5.411507	-22.737654	0.0	11955;11956	True	0.0	None	0.0	None	0.0	None	0.0	None	0.0	None	0.0	None	0.0	None	0.0	None	5.9224e-07	12
2014-01-18 04:48:00	1332.399048316121	15737806644.757504	1.351668972775183e+23	29028879476654.77	186.7699917803844	9959421513236.438	2.6536108599388936e+22	-1.2327868251667223e+25	2512.129401835325	-0.5898360114226537	23.567263125940052	7.207207207207206	28.821244971540555	97.13965295841899	98.79124595831713	38.703502538461706	0.004610238738654827	-4.954625887094128e+23	0.2357949168314753	0.014930174775754698	3.8503853637755344e+24	0.023705775497234075	-0.1842245471030549	4.02472479041516	274.495972	322.991608	-27.708481	-68.489609	-5.416777	-22.633984	0.0	11955;11956	True	0.0	None	0.0	None	0.0	None	0.0	None	0.0	None	0.0	None	0.0	None	0.0	None	4.7419e-07	12
2014-01-18 05:00:00	1355.9984313711304	15710118584.465303	1.3444738491985356e+23	29438731822107.77	184.1156873733497	9582984770032.805	2.6409902923231902e+22	-1.2345275902104125e+25	2531.9414965387964	-0.5917099647378178	23.49790253846136	7.1028411364545825	28.721593363878817	98.04161399078352	99.80046461118692	38.97807744734689	0.004604734077964929	-5.122084001503282e+23	0.197558875527996	0.01472574890797448	3.855963558136479e+24	0.024550185576630832	-0.18481661156121829	3.8973041998750846	274.498535	322.882568	-27.719593	-68.405609	-5.421825	-22.513847	0.0	11955;11956	True	0.0	None	0.0	None	0.0	None	0.0	None	0.0	None	0.0	None	0.0	None	0.0	None	4.7102e-07	12
2014-01-18 05:12:00	1352.7163118530846	15623421995.5904	1.3460933203648301e+23	29357883428164.45	189.34868485058425	9527933731176.65	2.6124707477945754e+22	-1.2241969433448936e+25	2577.9311797700652	-0.5900145148998682	23.60837634662307	7.157027315733253	28.683114231142834	98.71909343782423	100.76176506688965	39.498854981503854	0.00481607195163761	-5.140780483838272e+23	0.21439171074904845	0.015244920991891156	3.808433040218572e+24	0.0247765289716462	-0.18355141180254805	3.904866928914468	274.501129	322.77359	-27.800541	-68.325829	-5.427139	-22.411955	0.0	11955;11956	True	0.0	None	0.0	None	0.0	None	0.0	None	0.0	None	0.0	None	0.0	None	0.0	None	4.5438e-07	12
2014-01-18 05:24:00	1359.3783462958008	15499768659.0992	1.3350359210619134e+23	29344998273685.45	178.20404833126807	8959009805440.465	2.5824284229223257e+22	-1.2134012473105826e+25	2592.3580849668833	-0.5894767315721086	23.534155071384834	7.109701377069472	28.77372859398233	99.3920623182922	101.34856000504088	39.52534757959327	0.0045956120466067035	-5.586750465462218e+23	0.2043448512941407	0.014466736428867285	3.75918376014504e+24	0.02714072868961441	-0.1826231315668041	3.8954275567339414	274.503754	322.6646120000001	-27.811888	-68.25550799999999	-5.457904	-22.311586	0.0	11955;11956	True	0.0	None	0.0	None	0.0	None	0.0	None	0.0	None	0.0	None	0.0	None	0.0	None	7.266599999999998e-07	12
2014-01-18 05:36:00	1372.943301067548	15383161608.0854	1.336764161141819e+23	29475568346227.85	181.8555076683365	8858970629580.227	2.5448298171532585e+22	-1.1963636531073629e+25	2652.627560317924	-0.5856054286424675	23.59051690980701	7.1469983660991945	28.794644597230306	101.10350163160149	103.38734099386947	39.85088228180658	0.0047927342311916655	-5.596528102602772e+23	0.1620300989514529	0.014911644109232297	3.709219894069724e+24	0.0273943230381657	-0.1815617935528286	3.8005551505396857	274.506378	322.555634	-27.823078	-68.176117	-5.46317	-22.190792	0.0	11955;11956	True	0.0	None	0.0	None	0.0	None	0.0	None	0.0	None	0.0	None	0.0	None	0.0	None	1.336e-06	12
2014-01-18 05:48:00	1368.575038536217	15134447140.1286	1.325393581343574e+23	29299627359142.8	188.1004489163314	9498524412237.367	2.498396713168732e+22	-1.1725708317256307e+25	2676.188486670713	-0.5833914182636852	23.71756116960741	7.484178912367263	28.87491757977633	101.09842767741905	103.16501908556108	40.01698536525025	0.005044124558642339	-5.8144265892422794e+23	0.2099707893595248	0.015698879401759288	3.627992881448664e+24	0.02892862829698845	-0.1805042267207051	3.7963463999276565	274.509033	322.446686	-27.834122	-68.09745799999999	-5.495604	-22.087337	0.0	11955;11956	True	0.0	None	0.0	None	0.0	None	0.0	None	0.0	None	0.0	None	0.0	None	0.0	None	1.5067e-06	12
2014-01-18 06:00:00	1342.7242675195532	14860611991.991001	1.289042056553508e+23	28794330784673.664	205.99639191643527	10909413671102.176	2.461616634041435e+22	-1.1559930897956494e+25	2643.26092797752	-0.5857414958942204	23.625906722820698	7.164837558890008	28.85899807342658	100.74227623161993	102.90077302634873	39.955720961746714	0.00561007630699189	-5.954183519279646e+23	0.2287880088883593	0.017483882118425994	3.5299938025719294e+24	0.03016983745143405	-0.1788647240773144	3.913929451513064	274.511688	322.337738	-27.84380100000001	-67.99359100000001	-5.528008	-21.986078	66560.0	11955;11956	False	0.0	None	0.0	None	0.0	None	0.0	None	0.0	None	0.0	None	0.0	None	0.0	None	7.4203e-07	12
2014-01-18 06:12:00	1320.8277739872144	14630156273.4685	1.2547968111106178e+23	28179490879442.434	182.5555382466007	9414164044004.18	2.430064622199745e+22	-1.1490024864254862e+25	2609.998699645129	-0.5913702264986767	23.35970961925971	7.068865500953013	28.576973230451845	100.6629350188424	102.90617864838416	39.61180764511985	0.005042831365061758	-6.079228223772802e+23	0.1641280532891495	0.015682121522828805	3.4320218427131653e+24	0.03128865789328136	-0.17663978611462394	3.8663491993613635	274.514343	322.22879	-27.849035	-67.91313199999999	-5.561104	-21.867022	66560.0	11955;11956	False	0.0	None	0.0	None	0.0	None	0.0	None	0.0	None	0.0	None	0.0	None	0.0	None	5.6157e-07	12
2014-01-18 06:24:00	1312.4406295092876	14394786281.55	1.2245069389923277e+23	27846997808077.77	186.41110266002988	9734155945314.102	2.401182253465262e+22	-1.137001937919081e+25	2581.7989706728445	-0.5947623793263513	23.13891797115514	6.7398426343348365	28.357140111932	101.42317839403124	103.37022268196256	39.744172395620936	0.005219991113663293	-6.172555025363253e+23	0.1935031216018684	0.016243992594387347	3.38600980342395e+24	0.03228845431984787	-0.1771211798277607	3.827448247512359	274.516998	322.119843	-27.856655	-67.834427	-5.625208	-21.763199	0.0	11955;11956	True	0.0	None	0.0	None	0.0	None	0.0	None	0.0	None	0.0	None	0.0	None	0.0	None	5.0911e-07	12
2014-01-18 06:36:00	1285.2426901499525	14285896128.067	1.238354109991347e+23	27517897483033.016	183.68449054822293	9395951679958.17	2.391331256625854e+22	-1.1115842417238863e+25	2587.017794480133	-0.5858985732710309	23.3202410644022	7.263344800799023	28.70672542987355	100.91175704019408	102.76002631923754	39.39760335511382	0.0050962597605144645	-5.942533683652354e+23	0.1829287973046708	0.016215173616173386	3.347248603731322e+24	0.03132216053609552	-0.17642821008943144	3.795623071199424	274.519653	322.010895	-27.863075	-67.756264	-5.667457	-21.659676	0.0	11955;11956	True	0.0	None	0.0	None	0.0	None	0.0	None	0.0	None	0.0	None	0.0	None	0.0	None	5.5036e-07	12
2014-01-18 06:48:00	1289.0808214439146	14217645906.5793	1.1956947204116614e+23	27431639041047.03	166.35821952005978	7932465729798.85	2.4023891537388416e+22	-1.1277342155084243e+25	2490.9189300816124	-0.5972643237517062	22.87680222516055	6.736754737861393	28.293144915580626	100.24260154135794	102.12479038256741	38.658476264878935	0.00460265104913844	-6.013618260500508e+23	0.10425488927112964	0.014651890306191769	3.329865727545856e+24	0.03184899060670487	-0.17635449688382734	3.8219611495510737	274.522308	321.901947	-27.87237	-67.68249499999999	-5.671965	-21.541117	0.0	11955;11956	True	0.0	None	0.0	None	0.0	None	0.0	None	0.0	None	0.0	None	0.0	None	0.0	None	5.5244e-07	12
2014-01-18 07:00:00	1252.0448454097268	14077592110.925596	1.1856216433065634e+23	26808222913423.914	165.05162158174215	7523673556989.348	2.3890098268547976e+22	-1.1148135886613976e+25	2465.7050666007212	-0.5962953559812346	22.843099189447738	6.6810285303946735	28.337024927966713	99.47731487032189	101.26282838124679	38.346007038227	0.004558555571622674	-5.777879366335138e+23	0.15308369264816954	0.014689538889828654	3.320950137554104e+24	0.03090492140217255	-0.17763213191961022	3.942590494142328	274.524963	321.792999	-27.876999	-67.571556	-5.6772300000000016	-21.417128	0.0	11955;11956	True	0.0	None	0.0	None	0.0	None	0.0	None	0.0	None	0.0	None	0.0	None	0.0	None	5.4004e-07	12
2014-01-18 07:12:00	1233.1926326101998	14060946177.1172	1.2155882355546536e+23	26687570702444.93	173.34861271871742	8126838538562.3955	2.381767808168513e+22	-1.091800253257994e+25	2505.535681373263	-0.5846772524493445	23.045527045937558	7.251177050257309	28.78982039664363	99.84157831362042	101.31609467861851	38.544985437416265	0.004745246851132392	-5.542218068952025e+23	0.1428615208959482	0.01555972229000745	3.3314047354369185e+24	0.029679502485554645	-0.17840228207491782	3.970673148083763	274.527557	321.684021	-27.877573	-67.49323299999999	-5.681853	-21.290228	0.0	11955;11956	True	0.0	None	0.0	None	0.0	None	0.0	None	0.0	None	0.0	None	0.0	None	0.0	None	5.7581e-07	12
2014-01-18 07:24:00	1247.9971203148152	14168579676.3013	1.2274524485979773e+23	27534161183893.8	160.5850965376072	8305619065729.95	2.427028621060819e+22	-1.098587798827942e+25	2432.700251519899	-0.5838428495378557	23.398086049916703	7.498749769694418	29.139324176157626	99.62651556454612	100.99182352156576	38.582669726845545	0.0042269247068412825	-5.399942820562734e+23	0.13184954629614298	0.014313012909602425	3.402622265971076e+24	0.028697915697428963	-0.18083185356554687	4.084791018585209	274.530212	321.575073	-27.883301	-67.383537	-5.687481	-21.183367	0.0	11955;11956	True	0.0	None	0.0	None	0.0	None	0.0	None	0.0	None	0.0	None	0.0	None	0.0	None	5.454699999999999e-07	12
2014-01-18 07:36:00	1227.055393452298	14085144979.5307	1.2101209389155346e+23	26942320786083.58	158.82539239640008	7680671192523.803	2.423562993261808e+22	-1.098032902444224e+25	2410.0863427791487	-0.5870046785180895	22.966086556120647	6.8054380025391445	28.64698236727673	99.66200573422472	100.92265808583817	38.147627444802396	0.004201063122160506	-5.327451004669773e+23	0.16164728532895198	0.014211234560228481	3.4024375698732046e+24	0.028480373013921638	-0.18189316253050472	4.036207396657475	274.53283700000003	321.466095	-27.878859	-67.273636	-5.717488	-21.055067	0.0	11955;11956	True	0.0	None	0.0	None	0.0	None	0.0	None	0.0	None	0.0	None	0.0	None	0.0	None	5.2792e-07	12
2014-01-18 07:48:00	1198.3373308705834	14010917881.011805	1.1946469366112608e+23	26528578246120.24	155.208798767048	7892976689115.567	2.422887456555443e+22	-1.093442440361099e+25	2356.2717943686953	-0.5876475738640913	22.95345593226548	6.85491264373838	28.820386799328126	98.87452108955698	99.95178454170488	38.03843450467416	0.004065505376720224	-5.182375388182234e+23	0.17997639043861394	0.013954865070969132	3.4016780598049906e+24	0.02785158332351312	-0.18281601162754985	4.0335435327633515	274.535461	321.357117	-27.878578000000005	-67.185234	-5.721815	-20.926611	0.0	11955;11956	True	0.0	None	0.0	None	0.0	None	0.0	None	0.0	None	0.0	None	0.0	None	0.0	None	5.202900000000001e-07	12
2014-01-18 08:00:00	1203.7650808682915	14028743536.816202	1.213176546598779e+23	26915282718626.35	153.9016150251353	8022638294365.088	2.443085417285048e+22	-1.0881568931439338e+25	2344.788801166273	-0.5840637707271209	23.403597402103085	7.643933365846148	29.25859554679834	97.74032974694107	98.68879286086329	37.801601533251855	0.0039503481872002685	-4.964850467026923e+23	0.2262431611367573	0.013851019344730452	3.469050319694876e+24	0.02664863222517388	-0.18619985990339247	3.9551039017119978	274.538055	321.248108	-27.882788	-67.073006	-5.725371	-20.797758	0.0	11955;11956	True	0.0	None	1.0	C1.1@7449	0.0	None	0.0	None	0.0	None	1.0	C1.1@7449	0.0	None	0.0	None	9.8699e-07	12
2014-01-18 08:12:00	1198.7131993096116	14064617206.7689	1.221457780357218e+23	26953559515870.9	152.22391631157083	7872443298083.518	2.4725508034109823e+22	-1.0877189228826535e+25	2304.078066565066	-0.5823395288327579	23.31747393298817	7.279923843879954	29.337973668758888	96.44044675871284	97.22160717793312	37.35174493474585	0.003813415409378497	-4.949413562335228e+23	0.2037930205921208	0.013679974650607302	3.51441626681676e+24	0.026498014342255804	-0.18815371047480106	3.964102732930149	274.54064900000003	321.1390990000001	-27.884832	-66.964577	-5.7318050000000005	-20.669233	0.0	11955;11956	True	0.0	None	0.0	None	0.0	None	0.0	None	0.0	None	0.0	None	0.0	None	0.0	None	1.1476e-06	12
2014-01-18 08:24:00	1229.3645503749335	14138384131.6279	1.2307308276290528e+23	28072527894512.844	149.84749933732527	7976158729911.933	2.5057406687159817e+22	-1.090723661972036e+25	2258.540758199769	-0.5809014989266988	23.49704469261691	7.655000974848898	29.492734197733	95.5683064966945	96.43578506925716	37.361616473692585	0.003652322787787005	-4.6529924975901066e+23	0.22527663837001244	0.013410722365101432	3.56882476330746e+24	0.024781073433924224	-0.1900697423822071	3.945962450815753	274.543213	321.03006	-27.949852000000003	-66.853996	-5.735027	-20.542912	0.0	11955;11956	True	0.0	None	0.0	None	0.0	None	0.0	None	0.0	None	0.0	None	0.0	None	0.0	None	4.808e-07	12
2014-01-18 08:36:00	1213.7195568389486	14219339092.1721	1.2446794077306472e+23	27904170030798.28	158.83648815996975	8481600246718.554	2.5207685869319817e+22	-1.0954623319248644e+25	2263.8890051799403	-0.5801035379488553	23.59106579818904	7.64994323534385	29.64491272222576	95.0811412205916	96.01008405489135	37.22390808089526	0.003836815502197443	-4.628724784651535e+23	0.2105905572977156	0.014138899352218503	3.580371334357245e+24	0.024511473790703352	-0.18959904121776394	3.9488171199546542	274.545746	320.92099	-28.06731	-66.74575	-5.767025	-20.443054	0.0	11955;11956	True	0.0	None	0.0	None	0.0	None	0.0	None	0.0	None	0.0	None	0.0	None	0.0	None	4.5203e-07	12
2014-01-18 08:48:00	1229.7942562982014	14307574613.648603	1.253695620411076e+23	28562951779937.01	151.48254187827897	7991189294513.85	2.5473480373404703e+22	-1.1028597725624783e+25	2240.8829205607817	-0.5804193292509472	23.755496792718425	7.534360386450494	29.70170180056364	95.22520063241022	96.21235894306366	37.66348248493032	0.0035959393694696617	-4.747864911168914e+23	0.2424740835818027	0.013399786296578826	3.623971855576216e+24	0.024987334162273583	-0.19072445708583466	3.9495592320019126	274.548309	320.8119200000001	-28.077536	-66.63679499999999	-5.771521	-20.316761	0.0	11955;11956	True	0.0	None	0.0	None	0.0	None	0.0	None	0.0	None	0.0	None	0.0	None	0.0	None	5.4197e-07	12
2014-01-18 09:00:00	1239.5406980075422	14402403060.5608	1.2737012981669216e+23	29027029897505.176	151.57439960139078	7837815681643.295	2.57268156489676e+22	-1.1055685542130646e+25	2239.848164351132	-0.5780138236634831	24.00309524080563	7.849319227445759	29.867906055614792	94.46367488668007	95.56109578208441	37.52714319121905	0.003539886489674929	-4.848157028784653e+23	0.20334988303311333	0.013338595058005873	3.664477068145765e+24	0.025347155282681368	-0.1915863465738445	3.9492969501182538	274.550812	320.7028200000001	-28.087908	-66.527725	-5.803575	-20.190208	0.0	11955;11956	True	0.0	None	0.0	None	0.0	None	0.0	None	0.0	None	0.0	None	0.0	None	0.0	None	5.4909e-07	12
2014-01-18 09:12:00	1249.874904848009	14370723412.1013	1.281277512979087e+23	29557962160225.066	144.26154192316162	7522332278935.362	2.565165248298436e+22	-1.097404426647219e+25	2252.7505920715603	-0.5750103193179774	24.195818131962238	8.188759427463982	30.013717770351988	94.67175476294666	95.70539478274472	37.71320657223472	0.0033686291167113053	-4.676951552781041e+23	0.20014393628637134	0.012747397802245769	3.6852645508874446e+24	0.024505964624324056	-0.1930979222173509	3.978336290666873	274.553284	320.5936890000001	-28.097897	-66.40815699999999	-5.8079800000000015	-20.092224	0.0	11955;11956	True	0.0	None	0.0	None	0.0	None	0.0	None	0.0	None	0.0	None	0.0	None	0.0	None	5.8925e-07	12
2014-01-18 09:24:00	1269.5482176027385	14429908488.1431	1.283617090145621e+23	30451918905632.12	137.78409909081438	6818420114788.638	2.5940269547995064e+22	-1.1051864959039714e+25	2214.2608617667497	-0.5767126574963329	24.268827333911506	7.844035646376944	29.90303778258931	94.58886689928076	95.46523461871556	38.1588671752631	0.003156493530292877	-4.759984734452432e+23	0.12360573276281515	0.01211191921947584	3.716844410010424e+24	0.024838734964841284	-0.19395380102289567	4.02879752009061	274.555786	320.4845279999999	-28.106749	-66.304253	-5.83999	-19.968061	0.0	11955;11956	True	0.0	None	0.0	None	0.0	None	0.0	None	0.0	None	0.0	None	0.0	None	0.0	None	5.2159e-07	12
2014-01-18 09:36:00	1272.8245477678654	14457668971.6856	1.2817269611458468e+23	30597778695656.82	144.2858961250632	7685584966426.865	2.5870993533172082e+22	-1.108898246441861e+25	2228.6660582320433	-0.5775385019839405	24.268357917867732	7.7543008890428355	29.97328669889401	95.66848699684436	96.53882299565024	38.48584209116458	0.003331929986261389	-4.8562613825956906e+23	0.16282427178772707	0.012652485646808079	3.721193945095228e+24	0.025292473255740005	-0.19380793355368392	4.04726446379904	274.558197	320.375336	-28.112286	-66.197456	-5.874523	-19.868168	0.0	11955;11956	True	0.0	None	0.0	None	0.0	None	0.0	None	0.0	None	0.0	None	0.0	None	0.0	None	5.0956e-07	12
2014-01-18 09:48:00	1323.793092241052	14563523950.4381	1.3124216075697915e+23	32053168643513.17	151.85336030764506	9299478592989.348	2.6039753290156123e+22	-1.1087792341989672e+25	2247.8825215446304	-0.5732791784813831	24.895099562430072	8.400245661124126	30.263398896501517	95.54944125022725	96.53849403263685	38.92721435676396	0.0034541173329309892	-5.112106409803779e+23	0.16993213058431694	0.01325507327733636	3.7982548168954206e+24	0.026431448863118084	-0.19638358420969693	4.048151489961003	274.56054700000004	320.266113	-28.123037	-66.08788299999999	-5.9113	-19.741858	0.0	11955;11956	True	0.0	None	0.0	None	0.0	None	0.0	None	0.0	None	0.0	None	0.0	None	0.0	None	5.359700000000001e-07	12
2014-01-18 10:00:00	1300.6426176553628	14506992609.7015	1.3194731522953347e+23	31441107861169.41	152.52413791689594	8197963921680.419	2.577145980109633e+22	-1.1006075466558532e+25	2302.967397112474	-0.5712715587304367	24.92739562269384	8.372351768578183	30.15171488600727	96.32233218967829	97.17345238807566	38.871202346196135	0.0035353979397546686	-5.111329149766702e+23	0.14590662191072398	0.013382582684203328	3.795893370305737e+24	0.02653041022155172	-0.19702626326867706	4.028311136963333	274.562927	320.1568910000001	-28.128206	-65.982513	-6.66193	-19.642679	0.0	11955;11956	True	0.0	None	0.0	None	0.0	None	0.0	None	0.0	None	0.0	None	0.0	None	0.0	None	5.341600000000001e-07	12
2014-01-18 10:12:00	1358.6683584847042	14904268049.6015	1.3495884554867554e+23	33190539528925.65	156.29541817173202	8572841227596.335	2.6560355164838093e+22	-1.13582513737367e+25	2277.6070396470723	-0.5738367582120327	25.03809397796061	8.626563270428974	30.28800627164152	96.1563773628783	97.31784406158995	38.97473840866918	0.003503046331481992	-4.607094307470451e+23	0.13314431185905815	0.013326683377855928	3.901638431421485e+24	0.023275766446663945	-0.19711692192156666	3.9556090719251458	274.565247	320.047607	-28.132921000000003	-65.862495	-6.665008	-19.517923	0.0	11955;11956	True	0.0	None	0.0	None	0.0	None	0.0	None	0.0	None	0.0	None	0.0	None	0.0	None	5.000899999999999e-07	12
2014-01-18 10:24:00	1379.420687742958	14910068669.4677	1.3509054894310894e+23	33643291395828.066	158.8614381596758	9610231972327.65	2.647941363407323e+22	-1.1367423731585073e+25	2304.674903986937	-0.5740767024965339	24.995574959481	8.382989328681152	30.07409747668273	96.99300997626959	98.2716909412573	39.5370932985588	0.0035993619303896092	-4.775573952562297e+23	0.14220763837530928	0.013537912700659058	3.931171395092847e+24	0.02411756447151479	-0.1985316958998337	3.9216876939559695	274.567535	319.9382930000001	-28.138487	-65.754494	-6.642391	-19.417414	0.0	11955;11956	True	0.0	None	0.0	None	0.0	None	0.0	None	0.0	None	0.0	None	0.0	None	0.0	None	4.5777e-07	12
2014-01-18 10:36:00	1401.4255541092969	14845051257.252502	1.3510372277419498e+23	33736804050902.523	161.22026686725184	9320067181024.877	2.626140564756748e+22	-1.1283976951615244e+25	2337.308514719211	-0.5723583114446756	25.04211040185864	8.356117174037909	29.993425260823674	97.77818640854755	98.90978839805156	39.99498587687797	0.003704254460107341	-4.862526003542619e+23	0.20342625097625866	0.01381452113066818	3.9262632524222266e+24	0.024664240140486047	-0.1991522505832473	3.9047989156156278	274.569794	319.828949	-28.14328	-65.63134000000001	-6.645761	-19.294672	0.0	11955;11956	True	0.0	None	0.0	None	0.0	None	0.0	None	0.0	None	0.0	None	0.0	None	0.0	None	4.8806e-06	12
2014-01-18 10:48:00	1394.1881577855606	14724115846.4297	1.3578188832344558e+23	33368081831581.945	173.43266861434796	9915621252469.217	2.586839442489849e+22	-1.1111415770652346e+25	2394.033633038416	-0.5682345561293494	25.167338276063518	8.520851382677312	30.103773087507964	98.00311571397938	99.28554513791357	39.93612046714899	0.004060989266732572	-4.7530030992837376e+23	0.16377048764521648	0.015021754403604178	3.8913803686482375e+24	0.024306718982979363	-0.1990040551222642	3.856583229419008	274.572021	319.719574	-28.147795	-65.52711500000001	-6.648726	-19.195723	0.0	11955;11956	True	0.0	None	0.0	None	0.0	None	0.0	None	0.0	None	0.0	None	0.0	None	0.0	None	3.35e-06	12
2014-01-18 11:00:00	1396.3715642787301	14557198901.9468	1.3395521034677616e+23	33039386046930.75	186.83421980107968	11533607250838.275	2.550765542272438e+22	-1.0996455457629874e+25	2413.652677614162	-0.5688037350756575	25.031051153539433	8.341708542713567	29.986713413993613	98.10062926922484	99.64787609057136	40.078812027599824	0.004470787743505139	-4.971957563345979e+23	0.17762395595533034	0.01636213561046753	3.8332370340711874e+24	0.025717996526840904	-0.19827839532575814	3.8417825212718797	274.574188	319.610138	-28.146259000000004	-65.420547	-6.650586	-19.07192	0.0	11955;11956	True	0.0	None	0.0	None	0.0	None	0.0	None	0.0	None	0.0	None	0.0	None	0.0	None	1.5487e-06	12
2014-01-18 11:12:00	1405.6554892772638	14412568394.4234	1.3270644538964674e+23	33202684235502.203	173.7451867171112	9707366387583.48	2.5175951798457764e+22	-1.0874277447805318e+25	2427.751407319537	-0.5681285212519945	25.05674935574953	8.3600583090379	30.029912047864734	99.2252122924163	100.6395842910651	40.40560449714746	0.004221317007631653	-5.115363336105439e+23	0.13068954457773005	0.01537605795034026	3.7697648749224414e+24	0.02672530493871837	-0.19695202317002167	3.8838417882274543	274.576324	319.500671	-28.144373	-65.310875	-6.653708	-18.971869	0.0	11955;11956	True	0.0	None	0.0	None	0.0	None	0.0	None	0.0	None	0.0	None	0.0	None	0.0	None	1.1487000000000001e-06	12
2014-01-18 11:24:00	1388.710538014756	14238858585.4734	1.3115372314240121e+23	32972256839062.586	173.56499172784908	9719823433060.473	2.478081942301761e+22	-1.0719648061702654e+25	2447.207182647155	-0.5668821955203679	25.225442311298014	8.59620864824681	30.125751250663342	98.95973875767072	100.56542910584658	40.65038663653853	0.004301060408580291	-5.046897339906983e+23	0.17932657619978298	0.015558968195307232	3.7025097299323073e+24	0.026689274014821983	-0.1957981113333467	3.918868664849706	274.578461	319.391205	-28.144587	-65.22509000000001	-6.65715	-18.847776	0.0	11955;11956	True	0.0	None	0.0	None	0.0	None	0.0	None	0.0	None	0.0	None	0.0	None	0.0	None	1.3129e-06	12
2014-01-18 11:36:00	1376.7945897549093	14028354583.1382	1.2918583971285635e+23	32182153867139.39	180.14249639363018	9288743718459.832	2.431490604861523e+22	-1.054606109617776e+25	2475.071466761927	-0.5660711620126125	25.05154247297752	8.442318457075976	30.050429416566374	98.94093350205245	100.53487356258844	40.596661984501466	0.004583545274887543	-4.922014941693546e+23	0.1853243067897853	0.016399399489867718	3.647478214958836e+24	0.02641944411357262	-0.1957823127258162	3.852296001010615	274.580505	319.281647	-28.14938900000001	-65.123352	-6.6603949999999985	-18.748287	0.0	11955;11956	True	0.0	None	0.0	None	0.0	None	0.0	None	0.0	None	0.0	None	0.0	None	0.0	None	1.0981000000000001e-06	12
2014-01-18 11:48:00	1379.0699161325101	13939352033.3985	1.2878666974346631e+23	32222780328385.906	202.8691631265773	12178403922856.516	2.4151807090065226e+22	-1.0424282263029091e+25	2483.1558851290924	-0.5631071590485529	24.97725567836277	8.439812562415181	30.09167532379582	98.8773964405184	100.70035272992672	40.400008601024105	0.005194846950900782	-5.2929828816786487e+23	0.17606044265172152	0.018622084379951827	3.60969114465227e+24	0.028592055339535738	-0.1949911633453038	3.859885610599661	274.58255	319.172089	-28.148174	-65.048523	-6.6624940000000015	-18.650852	0.0	11955;11956	True	0.0	None	0.0	None	0.0	None	0.0	None	0.0	None	0.0	None	0.0	None	0.0	None	7.5594e-07	12
2014-01-18 12:00:00	1361.2805287790648	13862482672.0636	1.2816491107181024e+23	31509693127532.953	191.39151692036305	10442836891326.8	2.394956508263745e+22	-1.0402335475421271e+25	2519.8843747770943	-0.5650376763263855	24.776525377321306	8.16752833046112	29.81338718667129	99.78207770042728	101.61894431610465	40.50322723094598	0.004997558997319972	-5.012946460141833e+23	0.11503539439258008	0.01764401787788014	3.568071590575804e+24	0.027229496934412338	-0.19381175364597586	3.8932519823972975	274.584534	319.062469	-28.141209000000003	-64.953484	-6.665943	-18.527763	0.0	11955;11956	True	0.0	None	0.0	None	0.0	None	0.0	None	0.0	None	0.0	None	0.0	None	0.0	None	6.078200000000001e-06	12
2014-01-18 12:12:00	1353.3713304567455	13706680916.589	1.2706905344022622e+23	31203338212198.65	178.58518717797637	9649787791491.316	2.3648798584681204e+22	-1.0242092280154674e+25	2527.240974686138	-0.5626571612897678	24.78441564216721	8.048071843634443	29.88081513121163	99.17740656217349	101.19421987785076	40.56138548778516	0.004717113161414098	-4.982904799729709e+23	0.16844022921587348	0.0166756612130343	3.518492296937306e+24	0.02737396806144317	-0.19329106140261826	3.913898515649828	274.586426	318.952789	-28.1422	-64.870255	-6.644517	-18.430735	0.0	11955	True	0.0	None	0.0	None	0.0	None	0.0	None	0.0	None	0.0	None	0.0	None	0.0	None	5.1987e-06	12
2014-01-18 12:24:00	1340.0481652070735	13528066862.2974	1.2475556406577922e+23	30738811311076.28	173.7257950634203	9422046434702.566	2.3223242416936247e+22	-1.0097757268024829e+25	2548.1979228765813	-0.5620522066147846	24.5581173355283	7.5356028753560285	29.73880869206139	99.34905327310403	101.54222986265523	40.585709071956295	0.004712485964015197	-4.949969026956146e+23	0.11255583989130664	0.01644231703276025	3.46757455057444e+24	0.027552068646820825	-0.1930089896221936	3.9920655804746006	274.588318	318.843079	-28.142284000000004	-64.75948299999999	-6.647849000000001	-18.307167	0.0	11955	True	0.0	None	0.0	None	0.0	None	0.0	None	0.0	None	0.0	None	0.0	None	0.0	None	1.8575e-06	12
2014-01-18 12:36:00	1320.318036811197	13463494582.255402	1.2448577169053003e+23	29939601900446.73	192.0069081949566	10782162867609.037	2.3066592417478007e+22	-1.004386996410693e+25	2566.4973553047917	-0.5617341536392898	24.502035266817067	7.682829997535799	29.676480844669648	99.59604321897177	101.73127329601758	40.320168295610536	0.0052574384106392645	-5.095726953686812e+23	0.16071814358571634	0.01826407547055308	3.437747413035704e+24	0.028499411857535906	-0.19226654072467134	3.9431338931455886	274.590179	318.733337	-28.142311	-64.661163	-6.651317999999999	-18.210073	0.0	11955	True	0.0	None	0.0	None	0.0	None	0.0	None	0.0	None	0.0	None	0.0	None	0.0	None	1.5199e-06	12
2014-01-18 12:48:00	1310.4240005025495	13337152120.8492	1.2263844102444698e+23	29669574519092.69	189.4337629016183	10902769161910.162	2.285754094253527e+22	-9.971633771261983e+24	2549.773495471736	-0.5629770220289066	24.433619752680997	7.568269044923655	29.596031060659925	99.21943984010271	101.33437499882649	40.09596765629465	0.005231098304520981	-5.06790924263038e+23	0.18500712720286272	0.0181758923319529	3.4128442981824654e+24	0.02861232691428598	-0.19268185772891028	3.9229502457151137	274.59201	318.6235660000001	-28.135416	-64.554634	-6.655049000000001	-18.112991	0.0	11955	True	0.0	None	0.0	None	0.0	None	0.0	None	0.0	None	0.0	None	0.0	None	0.0	None	1.3105000000000002e-06	12
2014-01-18 13:00:00	1297.2753181178173	13277236893.8394	1.2208946880430593e+23	29205255776428.8	182.49456339572959	9715842269148.867	2.2765949114638647e+22	-9.939444673390893e+24	2554.654171433528	-0.5636920439482014	24.35947121756497	7.383426888234314	29.466804107859694	99.36485831125904	101.41834373023985	39.8785832072922	0.005071406513706534	-4.920211774403186e+23	0.11634090797185045	0.017580321182304282	3.399154775009992e+24	0.0279038147794745	-0.19277500562493616	3.9690475872838737	274.593781	318.513733	-28.135532	-64.446053	-6.6583830000000015	-17.989824	0.0	11955	True	0.0	None	0.0	None	0.0	None	0.0	None	0.0	None	0.0	None	0.0	None	0.0	None	1.1206000000000001e-06	12
2014-01-18 13:12:00	1295.0736033743915	13150016906.1845	1.2045837519683453e+23	29182330797418.17	181.6977525126296	10394441361690.336	2.2541637766344874e+22	-9.8614779157403e+24	2544.9943324781634	-0.5646810444294281	24.40889672397501	7.572951739618407	29.503999941824013	98.93886377515707	100.89871946781705	39.70126384162104	0.005098284253560133	-4.937402938601118e+23	0.06487414020010612	0.017661994955084262	3.3729545295931546e+24	0.028272211041390414	-0.1931397608814349	3.901970928441364	274.59552	318.4038700000001	-28.135738	-64.3451	-6.6628240000000005	-17.893072	0.0	11955	True	0.0	None	0.0	None	0.0	None	0.0	None	0.0	None	0.0	None	0.0	None	0.0	None	1.05e-06	12
2014-01-18 13:24:00	1272.6824746655811	13114278218.2695	1.2163585848982151e+23	28720982400512.023	174.29265715261127	9768498202593.904	2.2439061503209986e+22	-9.741279714802031e+24	2578.8440644189473	-0.5593184250193832	24.447881221863607	7.740173442955288	29.640319214224395	98.8907234138636	101.09122967687807	39.79023532861615	0.004907716876516621	-4.9156564440135255e+23	0.07945010054262322	0.017046950583549998	3.341339569663577e+24	0.028224394542579894	-0.1918508491979132	3.8962342846324916	274.59729	318.293976	-28.126276	-64.230751	-6.665347	-17.769935999999994	0.0	11955	True	0.0	None	0.0	None	0.0	None	0.0	None	0.0	None	0.0	None	0.0	None	0.0	None	9.9595e-07	12
2014-01-18 13:36:00	1260.4445501112727	13149647382.3752	1.2225342476733143e+23	28718314137622.69	178.53027013925202	10321251628875.064	2.2440621881374783e+22	-9.724172254787904e+24	2588.58482242297	-0.5568344295703089	24.435105783033446	7.749845340532029	29.790113263196634	99.16223548955305	101.50246986076205	39.72771086413389	0.0050203950996668256	-4.758128761274402e+23	0.1347792252424149	0.017441678924940942	3.3277839900365166e+24	0.027246431317604226	-0.19055860501780128	3.94887983277319	274.598938	318.184021	-28.12619	-64.130478	-6.6684899999999985	-17.6716	0.0	11955	True	0.0	None	0.0	None	0.0	None	0.0	None	0.0	None	0.0	None	0.0	None	0.0	None	9.7912e-07	12
2014-01-18 13:48:00	1263.5222054280546	13083335820.804	1.2126878044764478e+23	28367269089730.85	175.51692444074558	10533371024233.623	2.2327000328971422e+22	-9.687642451801142e+24	2591.345113555347	-0.5575542232194821	24.36855758854529	7.599750269595322	29.654158843230853	99.3251507505648	101.63621424634395	39.8806628873938	0.004981040509712678	-4.93819251032888e+23	0.1622748626315366	0.01722675551317046	3.341958443098906e+24	0.028420847516856727	-0.19234019556815585	3.8732020142185655	274.600525	318.074036	-28.11421	-64.019257	-6.67235	-17.550383	0.0	11955	True	0.0	None	0.0	None	0.0	None	0.0	None	0.0	None	0.0	None	0.0	None	0.0	None	9.737799999999998e-07	12
2014-01-18 14:00:00	1266.2247588854534	13039071334.3352	1.2125616974133156e+23	28481540288290.86	188.38425231482685	11030574250943.73	2.2277084165114048e+22	-9.660898056640824e+24	2590.2673935651324	-0.5579026084701678	24.378164101674518	7.77043320377883	29.73203319486253	99.03667160125146	101.19393554763676	39.77702051579228	0.005344537344383422	-5.074791049444146e+23	0.1686753646985991	0.01854778684037325	3.34246256980256e+24	0.02930616954372868	-0.19302228172513644	3.867574242324866	274.602173	317.96402	-28.114138	-63.921017000000006	-6.676489	-17.451151	0.0	11955	True	0.0	None	0.0	None	0.0	None	0.0	None	0.0	None	0.0	None	0.0	None	0.0	None	7.6085e-07	12
2014-01-18 14:12:00	1280.9483216733188	13127005017.3926	1.21618036194583e+23	28798846403043.906	187.2438477369577	11051476255384.508	2.2442271610341125e+22	-9.73546843441832e+24	2574.262392120662	-0.5584428413180179	24.471977284771032	7.7584752909428225	29.800855807368396	98.28071238475128	100.67602384189982	39.275492415855176	0.0052636507389581325	-5.045553182240649e+23	0.12048632488723827	0.01830552441628089	3.384212092034252e+24	0.028942141552739636	-0.19412409675295905	3.948595299741412	274.603699	317.853943	-28.216465000000003	-63.801437	-6.680325999999999	-17.331148000000002	0.0	11955	True	0.0	None	0.0	None	0.0	None	0.0	None	0.0	None	0.0	None	0.0	None	0.0	None	6.9631e-07	12
2014-01-18 14:24:00	1285.5818302187884	13070030556.7152	1.2157981163354771e+23	29040694119115.45	190.42992088504752	11075307597885.896	2.2316961047567646e+22	-9.67226575340044e+24	2585.0799619363665	-0.5572359353993284	24.60845453166409	8.13520076805783	29.88966766048012	99.32398238886208	101.62950439832727	39.75494803878872	0.005377553396731264	-4.870918314219431e+23	0.11535057952665408	0.01871362097286059	3.3557734226615585e+24	0.02806220168344264	-0.1933319027661751	4.0180193392091965	274.605225	317.743866	-28.227266	-63.686947	-6.684993	-17.229076	0.0	11955	True	0.0	None	0.0	None	0.0	None	0.0	None	0.0	None	0.0	None	0.0	None	0.0	None	6.782600000000001e-07	12
2014-01-18 14:36:00	1280.548438693649	13107516104.3992	1.226876423895156e+23	29144928377336.273	185.16622574828708	11448263912698.89	2.2436575662551694e+22	-9.671200733143485e+24	2583.250472502004	-0.5555811378462383	24.636869583382648	8.131536267546558	29.90188348746426	98.8614891833224	101.31970921086508	39.71180451732874	0.00517802644709975	-4.937015979186011e+23	0.1553213416804333	0.01816303784654124	3.368337430732408e+24	0.028361658815344224	-0.1935007652155432	3.9578943478594097	274.606689	317.633728	-28.23435	-63.580814	-6.687221000000001	-17.107809	0.0	11955	True	0.0	None	0.0	None	0.0	None	0.0	None	0.0	None	0.0	None	0.0	None	0.0	None	6.179600000000001e-07	12
2014-01-18 14:48:00	1300.968059738918	13156992364.6435	1.23175719199706e+23	29956313568657.21	180.2034590687167	10457192401869.193	2.261604827433639e+22	-9.690378358866867e+24	2559.9550100097144	-0.5545895203952876	24.569009363929855	8.114597996191106	29.87844872743845	99.88328552350089	101.88360751601697	40.07970482408846	0.0049741486990371175	-5.1954164287557904e+23	0.124301654619726	0.017623038224911014	3.3920984872042866e+24	0.02973385969848133	-0.19413300528465485	3.908850521719272	274.608093	317.5235600000001	-28.242573	-63.46896	-6.690571	-17.007680999999998	0.0	11955	True	0.0	None	0.0	None	0.0	None	0.0	None	0.0	None	0.0	None	0.0	None	0.0	None	6.021e-07	12
2014-01-18 15:00:00	1319.6411177437192	13189045722.1864	1.2345158910798689e+23	30200797579652.625	187.2675698021185	10761012931889.934	2.262916390193748e+22	-9.724953299951566e+24	2564.3431344377386	-0.5552155417590802	24.783223254712762	8.281379310344827	30.047620891733125	100.23730650981916	102.39232354156741	40.313788483497355	0.00516628696209773	-5.087030096263799e+23	0.1725755779586017	0.018261885195732543	3.4155890927274767e+24	0.02904279417831155	-0.19500228844847367	3.9462734898923015	274.60952799999995	317.413391	-28.251516	-63.361835	-6.694812	-16.887688	0.0	11955	True	0.0	None	0.0	None	0.0	None	0.0	None	0.0	None	0.0	None	0.0	None	0.0	None	6.969e-07	12
2014-01-18 15:12:00	1317.8111013818234	13240071202.9139	1.2496150071594064e+23	30121731652421.266	185.1773192325781	10928245008537.104	2.2579964173909162e+22	-9.7067692377968e+24	2612.2092131365553	-0.5520416871118567	24.855081407337888	8.397879015019017	30.09123784301228	101.46410891680617	103.66321114466295	40.8714802801224	0.00514095833516319	-5.048237744948519e+23	0.18800429187257706	0.01802315795870964	3.421837940020143e+24	0.028710249655586537	-0.19460617051413875	3.911940134832275	274.610901	317.303162	-28.259232	-63.245365	-6.697453	-16.785625	0.0	11955	True	0.0	None	0.0	None	0.0	None	0.0	None	0.0	None	0.0	None	0.0	None	0.0	None	6.389999999999999e-07	12
2014-01-18 15:24:00	1329.453731452386	13337527580.3963	1.265804635225497e+23	30598352125743.26	199.19547857326089	11736846980899.938	2.2765863743775102e+22	-9.733897337141055e+24	2607.398656034856	-0.5495395766721943	25.11505515192183	8.904390644234715	30.292402287380447	101.42656650082495	103.53999436917029	41.270698247345535	0.005449199249713058	-5.26066761926225e+23	0.09381661551020644	0.019276645848274643	3.448373174730646e+24	0.029699769335676977	-0.19468230134486048	3.93474637473562	274.612244	317.192902	-28.267912	-63.137348	-6.701482	-16.665091	0.0	11955	True	0.0	None	0.0	None	0.0	None	0.0	None	0.0	None	0.0	None	0.0	None	0.0	None	5.9645e-07	12
2014-01-18 15:36:00	1343.1191524683868	13485993876.764	1.2897292660801618e+23	31313969552708.05	187.9086718567105	11528054914642.445	2.3161847621251244e+22	-9.807869456015294e+24	2585.663931268422	-0.5476199506495771	25.186105173924823	8.740914294842781	30.341952313437147	101.49133547305357	103.31915848677065	40.925111440388896	0.005003159695849366	-5.3610941378583566e+23	0.1918074908420601	0.01800731365975966	3.533208090643244e+24	0.02993353572218624	-0.1972757945963553	3.953912997257592	274.613556	317.082611	-28.273558	-63.018787	-6.706059	-16.569828	0.0	11955	True	0.0	None	0.0	None	0.0	None	0.0	None	0.0	None	0.0	None	0.0	None	0.0	None	5.6558e-07	12
2014-01-18 15:48:00	1346.675570598442	13532844797.0973	1.3063090491440462e+23	31551487679360.53	196.56753669241985	11982738018020.887	2.3255403463177427e+22	-9.815998239765632e+24	2599.5234736353627	-0.5461762726724749	25.36701657365339	8.993366632310577	30.430784213253695	101.49388906203673	103.07784958696355	41.01390728156434	0.005194976919827154	-5.129580057399813e+23	0.22897038834960504	0.018788755513699084	3.5711369863254114e+24	0.028541721867633325	-0.19870320274635644	3.95869616548424	274.614838	316.97229	-28.282516	-62.911243000000006	-6.710248	-16.447594	0.0	11955	True	0.0	None	0.0	None	0.0	None	0.0	None	0.0	None	0.0	None	0.0	None	0.0	None	5.4882e-07	12
2014-01-18 16:00:00	1382.4568901086795	13730459454.345	1.3232392412938142e+23	32756355920400.023	193.4414745878342	11677211391718.613	2.370903327049621e+22	-9.98032908071184e+24	2563.8321087545028	-0.5473275695998259	25.490631884666186	9.126933072588322	30.575195923291968	101.33832385570787	102.81183323339232	40.904052236264896	0.004977779125288444	-5.160916280000253e+23	0.197629740329328	0.018211942544952228	3.6429724302946513e+24	0.028302791837794213	-0.1997829160008148	3.909887710303685	274.616089	316.861938	-28.30131	-62.804222	-6.715531	-16.34679	0.0	11955	True	0.0	None	0.0	None	0.0	None	0.0	None	0.0	None	0.0	None	0.0	None	0.0	None	1.2683e-06	12
