Timestamp	TOTUSJH	TOTBSQ	TOTPOT	TOTUSJZ	ABSNJZH	SAVNCPP	USFLUX	TOTFZ	MEANPOT	EPSZ	MEANSHR	SHRGT45	MEANGAM	MEANGBT	MEANGBZ	MEANGBH	MEANJZH	TOTFY	MEANJZD	MEANALP	TOTFX	EPSY	EPSX	R_VALUE	CRVAL1	CRLN_OBS	LAT_MIN	LON_MIN	LAT_MAX	LON_MAX	QUALITY	NOAA_AR	IS_TMFI	BFLARE	BFLARE_label	CFLARE	CFLARE_label	MFLARE	MFLARE_label	XFLARE	XFLARE_label	BFLARE_loc	BFLARE_label_loc	CFLARE_loc	CFLARE_label_loc	MFLARE_loc	MFLARE_label_loc	XFLARE_loc	XFLARE_label_loc	XR_MAX	XR_QUAL
2014-01-19 01:48:00	3.1731735208792062	15277266.799900005	8.356812126134596e+19	78729338013.8051	1.2652353462182797	119848646918.3266	3.379658034382981e+19	-1.0308498005217717e+22	983.2143702624118	-0.5080860613333537	18.31728416886947	3.125	32.698924610716524	120.27269682765288	128.50975284934202	58.63005141820903	0.019769302284660617	-5.607884018449683e+21	3.677598207367837	0.1098321594838754	-3.912996522230106e+21	0.27640182904494665	0.19286408068223865	0.0	320.435211	311.462372	-15.809855	6.530884	-14.083260999999998	10.039197	0.0		True	0.0	None	0.0	None	0.0	None	0.0	None	0.0	None	0.0	None	0.0	None	0.0	None	5.3353e-07	12
2014-01-19 02:00:00	3.6319895238163182	18035796.5159	1.3717863202502528e+20	89289646324.04404	0.6152718524607939	17736098190.01756	3.990597926412295e+19	-1.220174742872581e+22	1395.8614670931174	-0.5094179864693114	21.38821591623897	0.0	32.159067076324256	128.52596344732828	134.0546187097375	56.308378562443856	0.008314484492713431	-7.259782413483261e+21	0.4706808218027747	0.04520143217979286	-4.2839440520611816e+21	0.30309295950310944	0.1788529197064426	0.0	320.438324	311.352936	-15.81237	6.625991	-14.082653	10.157664	0.0		True	0.0	None	0.0	None	0.0	None	0.0	None	0.0	None	0.0	None	0.0	None	0.0	None	7.2023e-07	12
2014-01-19 02:12:00	3.2422456582720103	18512762.148800004	1.1571921249084757e+20	78422378041.47522	0.40299849306813706	23531602116.415657	3.8581792107423056e+19	-1.214056183782063e+22	1320.2283177824381	-0.4938045347270106	17.868758040850874	0.0	31.499501502890826	144.09305899910268	146.97620627959512	68.20387110600753	0.0061060377737596535	-7.347249865894429e+21	0.7001589834269997	0.02914529281985563	-5.097831299184833e+21	0.2988416310560447	0.2073489057951743	0.0	320.441559	311.243561	-15.842006	6.7177419999999985	-14.082691	10.259065	0.0		True	0.0	None	0.0	None	0.0	None	0.0	None	0.0	None	0.0	None	0.0	None	0.0	None	9.098399999999999e-07	12
2014-01-19 02:24:00	4.244495632000168	20920949.8626	1.1867231185801277e+20	100710970675.29964	1.6022207860965565	113685005344.34364	4.212411115422104e+19	-1.460110373971606e+22	1276.553049743631	-0.5255230779389498	16.596687976714794	0.0	31.07896091365746	146.78267138081003	150.74170964514	71.52026135673155	0.022888868372807947	-7.774329424808293e+21	3.1892115303098927	0.10040426855740098	-5.727510402722953e+21	0.2798137456638637	0.2061446140937324	0.0	320.444733	311.134186	-15.843602	6.808903	-14.082836	10.37244	0.0		True	0.0	None	0.0	None	0.0	None	0.0	None	0.0	None	0.0	None	0.0	None	0.0	None	9.9676e-07	12
2014-01-19 02:36:00	3.996816521448027	20960841.116	1.1535743542672158e+20	94800929305.48503	0.0806131846162026	7642982300.830888	4.2204251192918114e+19	-1.3253945710723398e+22	1189.8995855977769	-0.4761283729583709	17.352272738601226	0.0	33.447403880232365	165.54886531408584	174.2606667334134	63.212515270046815	-0.0011042902002219533	-8.935808277248715e+21	-0.20559256754023209	-0.005210786027396058	-4.399767233830143e+21	0.3210056800422913	0.15805512261486102	0.0	320.447968	311.024872	-15.844017	6.902561	-14.083501	10.47597	0.0		True	0.0	None	0.0	None	0.0	None	0.0	None	0.0	None	0.0	None	0.0	None	0.0	None	8.656e-07	12
2014-01-19 02:48:00	5.110617111522632	24752031.081200004	1.618908976100514e+20	117407225097.49738	1.0536353133800072	56385768657.12647	4.942827524455717e+19	-1.7734877496605116e+22	1504.9598222734446	-0.5395166411673955	19.374634417830066	1.2345679012345678	32.137776194550035	154.48432533187236	159.93612428277163	69.66925494510288	0.013007843375061815	-8.785634627335601e+21	1.366913666913732	0.055299993997384576	-5.42728344677026e+21	0.2672697392790796	0.16510459327533591	0.0	320.451294	310.915588	-15.866267	6.9953850000000015	-14.083425	10.569753	0.0		True	0.0	None	0.0	None	0.0	None	0.0	None	0.0	None	0.0	None	0.0	None	0.0	None	7.698999999999998e-07	12
2014-01-19 03:00:00	2.8556282578705323	18890127.9222	1.018733470464858e+20	65537437774.8222	0.9312838766894826	72566865232.67609	3.9001296770876236e+19	-1.3242098916722217e+22	1144.9150358941756	-0.5278486500603184	18.25213801406661	0.0	31.345867588154874	146.79280321754283	150.8350023356973	59.5875168455161	0.013899759353574369	-8.087186107712282e+21	2.1267162997351137	0.06453522759491044	-4.691990722850466e+21	0.32236658981242056	0.18702933611412706	0.0	320.45459	310.806335	-15.864763	7.087955	-14.083529	10.692934	0.0		True	0.0	None	0.0	None	0.0	None	0.0	None	0.0	None	0.0	None	0.0	None	0.0	None	8.3586e-07	12
2014-01-19 03:12:00	4.0054540972409525	21438897.09320001	1.3161946634659493e+20	93122571753.35394	0.23756757117735944	6456363023.944675	4.4408761433343115e+19	-1.4969963690883174e+22	1270.6121406582085	-0.5257820859625898	19.241306471073734	1.282051282051282	32.566383238715545	127.05020320511429	131.12856101334552	62.77178031631178	0.0030457380920174285	-8.723997207415851e+21	0.16252826586778907	0.014525202710374881	-4.776675297826169e+21	0.30640832164745896	0.16776863016618634	0.0	320.457916	310.697113	-15.872255	7.1810800000000015	-14.081841	10.788559	0.0		True	0.0	None	0.0	None	0.0	None	0.0	None	0.0	None	0.0	None	0.0	None	0.0	None	7.6682e-07	12
2014-01-19 03:24:00	3.4418314062356554	23202434.7397	1.4052630392843153e+20	81243923849.6437	0.43628982226906576	32750785334.846382	4.730424106690258e+19	-1.5706085252632955e+22	1339.4238515122004	-0.5097085122392165	17.878666280838765	0.0	31.955433039334284	149.9284443376617	155.36965296373683	61.15805610440795	0.00552265597808944	-9.209009568785585e+21	0.8139916894048023	0.02491026880505476	-4.529023809069952e+21	0.2988593587135614	0.14698010041872414	0.0	320.461304	310.587891	-15.871444	7.304297	-14.107679999999998	10.900574	0.0		True	0.0	None	0.0	None	0.0	None	0.0	None	0.0	None	0.0	None	0.0	None	0.0	None	6.678e-07	12
2014-01-19 03:36:00	5.879193516020403	30102849.7772	1.5571748468944414e+20	134295156234.80765	0.3604102054478672	681199964.9393425	6.114142824475487e+19	-2.238532182935946e+22	1160.9234208755274	-0.5599423271801557	16.827824175475087	0.99009900990099	30.67364945538786	153.2251625262453	160.27915323023183	68.23165904036216	0.003568417875721457	-1.097150724535083e+22	-0.013242459049655313	0.015350089855856475	-4.783342955888836e+21	0.27443926634006643	0.1196496618113549	0.0	320.464661	310.478699	-15.871939	7.397064	-14.107918	11.005237	0.0		True	0.0	None	0.0	None	0.0	None	0.0	None	0.0	None	0.0	None	0.0	None	0.0	None	5.604e-07	12
2014-01-19 03:48:00	4.634039660725133	29128966.565	1.8813241896353995e+20	99522120209.4742	1.5893473246012104	115615312767.176	5.496300413981503e+19	-1.8853307434189789e+22	1647.224116036146	-0.4873601058630622	19.35912885894648	0.0	32.10657637469604	144.1147615425156	149.1478877281836	72.05508306492897	0.018480782844200117	-1.2920300681032695e+22	2.6395048465077	0.0733681562263323	-5.897154334810798e+21	0.3339912177038815	0.15244209913493714	0.0	320.468079	310.369568	-15.87182	7.520022	-14.108016	11.117877	0.0		True	0.0	None	0.0	None	0.0	None	0.0	None	0.0	None	0.0	None	0.0	None	0.0	None	5.395899999999999e-07	12
2014-01-19 04:00:00	5.3765700427303225	33212200.5098	2.0022881889788586e+20	115711731382.22675	0.0632613962783212	11025919000.734587	6.345941687566068e+19	-2.458243674324628e+22	1570.518146186122	-0.557333162520747	18.4618380578982	0.0	29.83827071736784	138.08291767269108	141.50145926615403	71.21740029491889	-0.0006589728778991791	-1.3571048119866489e+22	-0.2254964540601031	-0.0024461866177408306	-6.0120441348919e+21	0.3076828894696305	0.1363051029444499	0.0	320.471558	310.260468	-15.871157	7.612723	-14.107163	11.213557000000002	0.0		True	0.0	None	0.0	None	0.0	None	0.0	None	0.0	None	0.0	None	0.0	None	0.0	None	5.3796e-07	12
2014-01-19 04:12:00	5.189026631524339	33479155.2728	1.6166163749480022e+20	117659962371.49275	0.23802392706696365	54087495615.40664	6.504521452663867e+19	-2.498371984640988e+22	1193.4226379341044	-0.5619142937600957	16.78389146613586	0.0	30.483948835684465	149.18262753945078	156.09133733881583	67.34424046516217	-0.0023335679124212123	-1.2500385178653725e+22	-1.0410785617869276	-0.009103720610049344	-6.645624201532717e+21	0.2811488902603003	0.1494681837915288	0.0	320.474976	310.151367	-15.87046	7.736960000000002	-14.106218	11.335801	0.0		True	0.0	None	0.0	None	0.0	None	0.0	None	0.0	None	0.0	None	0.0	None	0.0	None	5.2973e-07	12
2014-01-19 04:24:00	5.831576369275955	33795974.8034	1.6347823115373914e+20	123622045342.44235	0.7574863130693449	19385006843.715115	6.665989828157629e+19	-2.565424554314568e+22	1161.2923643626452	-0.5715862531610305	16.876103466609546	0.0	30.30001362062745	146.39886302259688	153.06997071840988	67.1102394148544	0.007146097293107028	-1.2697967589806202e+22	0.3590360310627818	0.028523419333960142	-7.095663705462082e+21	0.28291550048552194	0.15809405988083766	0.0	320.478516	310.042328	-15.869365	7.832859	-14.104933	11.434246	0.0		True	0.0	None	0.0	None	0.0	None	0.0	None	0.0	None	0.0	None	0.0	None	0.0	None	5.3979e-07	12
2014-01-19 04:36:00	5.793571395577513	35554999.4154	2.0007668667115137e+20	127532379420.09862	0.9069240335237344	41053730663.784935	6.829298191088531e+19	-2.3561642455703575e+22	1333.231685681464	-0.4989907199524674	18.30985107115347	0.0	33.29298461472525	142.1880421371906	146.65687737183114	73.34036501652244	0.008025876402864906	-1.5027274240081242e+22	0.7132530643182258	0.034033082499526	-7.646281980187709e+21	0.3182490527168724	0.1619336919073671	0.0	320.482056	309.933258	-15.868425	7.9579559999999985	-14.10374	11.552433	0.0		True	0.0	None	0.0	None	0.0	None	0.0	None	0.0	None	0.0	None	0.0	None	0.0	None	6.0716e-07	12
2014-01-19 04:48:00	6.634893386199115	40313629.04270001	2.0319378122615308e+20	150824658006.15784	0.8059822700842242	5321252173.979157	7.76560918412231e+19	-2.5384965949181324e+22	1159.1083948371188	-0.4741461846427658	17.02057714882475	0.0	34.42110111925807	160.85108830437758	164.09297980983973	75.60935317102529	0.006105926288516848	-1.6036688153333534e+22	-0.07914093208715957	0.027124580862469144	-7.724556210619273e+21	0.2995369195070424	0.14428102297461734	0.0	320.485535	309.824249	-15.866875	8.050656	-14.102015	11.653038	0.0		True	0.0	None	0.0	None	0.0	None	0.0	None	0.0	None	0.0	None	0.0	None	0.0	None	6.070300000000001e-07	12
2014-01-19 05:00:00	6.38573589406259	36063130.6003	1.825453541352992e+20	149742683900.2528	0.08939065012420994	60713870476.93769	7.074569297651603e+19	-2.321982961426412e+22	1117.5145204268044	-0.4848228785704632	17.700629005999502	0.0	33.46642122878082	146.44110880289205	151.90453399960262	71.08850905948597	-0.0007267532530423573	-1.551755772052142e+22	-0.9690276677490876	-0.003338750885451048	-6.755319801058085e+21	0.3240018177318971	0.14104899329670745	0.0	320.489136	309.71524	-15.867662	8.170200999999999	-14.073546	11.769036	0.0		True	0.0	None	0.0	None	0.0	None	0.0	None	0.0	None	0.0	None	0.0	None	0.0	None	5.6148e-07	12
2014-01-19 05:12:00	6.5590226203389275	41706852.6594	2.262643327391608e+20	147935561692.04816	1.0700734478480092	54166001532.08557	8.032684720877004e+19	-2.7129379045162833e+22	1234.594900941961	-0.4898012643635882	17.615952113836	0.0	33.948533199024446	150.9945341183024	157.14335543414546	70.65849595128358	0.007754155419188472	-1.7375202663187444e+22	0.7705372030421844	0.034443543708599415	-7.957071412679807e+21	0.3136966835413137	0.14365915386687908	0.0	320.4927370000001	309.606232	-15.867002	8.261292	-14.072657	11.871097	0.0		True	0.0	None	0.0	None	0.0	None	0.0	None	0.0	None	0.0	None	0.0	None	0.0	None	5.5967e-07	12
2014-01-19 05:24:00	7.324523393970345	42417261.21690001	2.8212348084893087e+20	155203789296.82513	1.189066753759768	60683065946.80868	7.732769603487295e+19	-2.8905278557238896e+22	1831.3392283623896	-0.5131237178705023	18.653565624143557	0.0	31.96517126548545	166.1196214691074	167.25138502169196	85.88895027153933	0.010250575463446276	-1.7773887471463757e+22	1.0269482110901185	0.037052641083753377	-8.387583208350466e+21	0.3155203366163515	0.1488955683749724	0.0	320.496246	309.497253	-15.866079	8.354489	-14.071054	11.98981	0.0		True	0.0	None	0.0	None	0.0	None	0.0	None	0.0	None	0.0	None	0.0	None	0.0	None	6.263499999999999e-07	12
2014-01-19 05:36:00	5.750320103525822	36118025.5538	1.9795815772132747e+20	118214584586.57796	0.563619936521095	33927458525.64926	6.371588131818692e+19	-2.3885338120658203e+22	1536.7001886065552	-0.497960469805021	17.108482467935698	0.0	32.9633460393854	179.48844138646922	179.23535917038691	88.82983996996114	0.005810514809495825	-1.6261850257757825e+22	0.6866129318319846	0.020834927264650496	-5.93262694490992e+21	0.3390263329472532	0.12368314343058005	0.0	320.499908	309.388306	-15.864578	8.449241	-14.069314000000002	12.092396	0.0		True	0.0	None	0.0	None	0.0	None	0.0	None	0.0	None	0.0	None	0.0	None	0.0	None	1.0088e-06	12
2014-01-19 05:48:00	6.0994191938922055	34419952.668400005	1.7130219788377706e+20	128030023919.38615	1.8181246060407448	93337967034.11008	6.186087328658605e+19	-2.2479097132487925e+22	1302.912589620871	-0.4917633233336697	16.886535141277992	0.0	34.279224901535876	177.3221796137127	176.75439744697198	88.27708476104223	0.01836489501051258	-1.3610956105206622e+22	1.8507573933869823	0.07081796551601152	-6.488326264552319e+21	0.2977596906404002	0.1419416833302434	0.0	320.50354	309.279327	-15.864843	8.542538	-14.042956	12.211175	0.0		True	0.0	None	0.0	None	0.0	None	0.0	None	0.0	None	0.0	None	0.0	None	0.0	None	1.4721e-06	12
2014-01-19 06:00:00	5.947662932672412	33466633.693000004	1.7237455564309214e+20	133513907108.89992	0.7566343891667869	84938291910.28578	6.405083474441491e+19	-2.249561494556076e+22	1201.8130607356504	-0.5061431396353139	17.251445049223815	0.0	33.08668004189313	162.86636968092043	164.20256744024422	78.61959896607938	-0.007005873973766547	-1.3657785198686702e+22	-1.5438335105800718	-0.030021873707043168	-6.13640986731566e+21	0.3072951905363301	0.13806698611478418	0.0	320.50708	309.17038	-15.864608	8.664207000000001	-14.068869	12.309791	66560.0		False	0.0	None	0.0	None	0.0	None	0.0	None	0.0	None	0.0	None	0.0	None	0.0	None	1.2461e-06	12
2014-01-19 06:12:00	6.4229656181481305	37813947.8622	1.7486777184794817e+20	137016670484.38455	1.808861223074293	111188499371.05827	7.273551135659086e+19	-2.954361592124124e+22	1165.2490984612261	-0.5883003007003602	16.2911964686962	0.0	30.22254001307108	162.57448375603371	168.23434495473032	73.73030189090473	0.01600762144313534	-1.1978634008322814e+22	1.9315097399457035	0.06023523448118999	-5.849811675634516e+21	0.2385298403506932	0.1164869587050763	0.0	320.510742	309.061432	-15.8628	8.757267	-14.066351	12.428207	66560.0		False	0.0	None	0.0	None	0.0	None	0.0	None	0.0	None	0.0	None	0.0	None	0.0	None	9.0652e-07	12
2014-01-19 06:24:00	6.314466869438119	36991778.5568	2.0541467075891367e+20	129436955651.93234	1.3061822362554696	33316188818.6204	6.952710233787984e+19	-2.928521681916872e+22	1445.5569514268066	-0.5961159710864027	17.321543625627992	0.9345794392523364	30.42992289580145	166.37442682910282	170.4052196105601	74.61845192270032	0.012207310619209995	-1.2366305175565523e+22	0.6111987358886319	0.044244991190610934	-5.933403403673585e+21	0.2517226375342336	0.1207775429380838	0.0	320.5143740000001	308.952484	-15.859921	8.881157	-14.062287	12.53092	0.0		True	0.0	None	0.0	None	0.0	None	0.0	None	0.0	None	0.0	None	0.0	None	0.0	None	8.5275e-07	12
2014-01-19 06:36:00	5.194221183322492	32829976.2072	1.751704927285891e+20	114003059784.15033	0.8952235146293603	45294715739.875465	6.474798002183871e+19	-2.3948375172151014e+22	1199.1012577192896	-0.5492791034690178	18.36228214802432	0.9090909090909092	31.49438214817345	145.38322455980662	147.83419628317608	68.1328250932629	0.00813839558753964	-1.312726291570465e+22	0.8082797263368423	0.035201506137325256	-6.730291961071022e+21	0.3010864475567965	0.15436574330774466	0.0	320.517944	308.843536	-15.859392	8.974135	-14.062056	12.632236	0.0		True	0.0	None	0.0	None	0.0	None	0.0	None	0.0	None	0.0	None	0.0	None	0.0	None	7.675700000000002e-07	12
2014-01-19 06:48:00	5.1801102865806525	34372805.4112	2.212569259844755e+20	115005160200.72467	1.2576740851784387	59067793135.65903	6.964309436414263e+19	-2.6736336768572406e+22	1448.7270067585143	-0.5856989503696479	18.364564478767115	2.608695652173913	29.941554839593522	147.77307668390532	149.62069961147674	67.00060443916277	0.010936296392855987	-1.3418269457325043e+22	1.0082217004941163	0.04614901008746099	-7.557663851576874e+21	0.2939470131963041	0.16556179043639274	0.0	320.521576	308.734589	-15.857042000000002	9.098347	-14.059467	12.748829	0.0		True	0.0	None	0.0	None	0.0	None	0.0	None	0.0	None	0.0	None	0.0	None	0.0	None	2.6947000000000002e-06	12
2014-01-19 07:00:00	5.6183716112312965	32135070.3452	1.9849719092350848e+20	130941752022.71992	2.46478913466722	187928733668.77966	6.755205356608548e+19	-2.4098759505602073e+22	1277.4858042494154	-0.5646807881007321	18.039254107036136	2.564102564102564	30.379870107780327	143.1318479093953	144.3276498253141	63.21902077382633	0.021066573800574525	-1.2620379351343239e+22	3.1528798203777235	0.0980403293341742	-8.189679536967626e+21	0.2957200247834359	0.1919001139520181	0.0	320.525146	308.62561	-15.855567	9.19216	-14.05726	12.851601	0.0		True	0.0	None	0.0	None	0.0	None	0.0	None	0.0	None	0.0	None	0.0	None	0.0	None	2.755e-06	12
2014-01-19 07:12:00	6.812184230736321	38770495.4452	1.992136673123482e+20	136078517278.39896	1.70292586136897	94035574601.53316	7.67528245633345e+19	-3.119532206964361e+22	1190.5182858722985	-0.6058646419518002	17.374874678940248	0.7936507936507936	30.11151321664771	143.9793000442567	148.6329187390681	65.53544163972221	0.013515284614039443	-1.3383324831530042e+22	1.4649373927781821	0.054703542310110966	-7.947226088885886e+21	0.25992625718296425	0.15434824741041248	0.0	320.528748	308.516663	-15.853744	9.314867	-14.055754	12.962346	0.0		True	0.0	None	0.0	None	0.0	None	0.0	None	0.0	None	0.0	None	0.0	None	0.0	None	2.1387999999999997e-06	12
2014-01-19 07:24:00	6.106908371381196	31451393.3887	1.7905880822117912e+20	122060988729.36896	2.4943640222302483	153085395789.1612	6.136031939457293e+19	-2.35983429857603e+22	1361.908551484466	-0.5649747909637673	18.404127499463453	2.0202020202020203	29.67556858028594	150.5356239536214	154.5280378909985	68.01503809266858	0.025195596184143926	-1.1966814114139781e+22	3.0352462287057502	0.10135439661183387	-7.242752714134703e+21	0.2865009762218504	0.17340084865872524	0.0	320.532379	308.407684	-15.852102	9.410504	-14.053874	13.068883	0.0		True	0.0	None	0.0	None	0.0	None	0.0	None	0.0	None	0.0	None	0.0	None	0.0	None	1.5079e-06	12
2014-01-19 07:36:00	9.423809426018027	43701498.0843	2.3313626327876764e+20	202558744018.55945	1.484650884990653	65457986788.075325	8.585791055939151e+19	-3.5063782608513607e+22	1245.0253483985064	-0.6041571440084172	17.988629082132295	2.8368794326241136	29.407240944691715	150.7242586215371	154.14904028327877	71.9372868198662	0.010529438900642929	-1.3908301016397823e+22	0.9112497556997928	0.04235562578479643	-6.817301188563407e+21	0.2396432670682839	0.11746368787170205	0.0	320.53595	308.298706	-15.852159	9.535233	-14.054251999999998	13.170768	0.0		True	0.0	None	0.0	None	0.0	None	0.0	None	0.0	None	0.0	None	0.0	None	0.0	None	1.1697e-06	12
2014-01-19 07:48:00	5.976876726433064	33842320.4075	1.7350359730055302e+20	127888510671.839	2.216829233792989	115631382368.2001	7.084596098409544e+19	-2.902190725415475e+22	1097.865202021728	-0.6457334954566827	18.32090424185616	2.5210084033613445	28.277861043148288	138.19800570942564	142.4946539487168	56.59849266857354	0.018628817090697386	-1.0177514170767542e+22	1.9073119293313825	0.0796054119870499	-5.995892956283111e+21	0.2264483082726691	0.13340780408188088	0.0	320.5395200000001	308.189728	-15.851285	9.657296	-14.053152	13.281078	0.0		True	0.0	None	0.0	None	0.0	None	0.0	None	0.0	None	0.0	None	0.0	None	0.0	None	8.985200000000002e-07	12
2014-01-19 08:00:00	5.992719703596951	25637321.0044	1.4005500821535806e+20	139797014198.02545	1.8031829143440352	116780668723.73724	5.494102935855437e+19	-1.9958743006192475e+22	1076.1186095504236	-0.5862031111917156	18.123215066208306	1.020408163265306	29.933324992060875	148.61194786912029	152.43546162739995	65.12579622197998	0.018399825656571788	-8.922185454348768e+21	2.339039333254211	0.08868258436824121	-5.237715190368732e+21	0.2620512158679519	0.15383558669890368	0.0	320.543121	308.080719	-15.848413	9.752282	-14.050117000000002	13.389183	0.0		True	0.0	None	0.0	None	0.0	None	0.0	None	0.0	None	0.0	None	0.0	None	0.0	None	6.9902e-07	12
2014-01-19 08:12:00	4.677908653576799	25668597.8847	1.3119582674180538e+20	113968563750.62927	1.232877115407418	73345076229.41748	5.79140266267534e+19	-2.1866976691503288e+22	968.5171948677955	-0.6414666498832973	18.705024307819677	1.96078431372549	28.216986797579683	127.77575856331468	133.91338553076105	52.65094234470993	0.012087030543209979	-6.846922013512705e+21	1.4114434728017686	0.05852151720912315	-6.489029325251166e+21	0.2008541092800814	0.1903553454593808	0.0	320.546631	307.97168	-15.846329999999998	9.87622	-14.047809	13.484619	0.0		True	0.0	None	0.0	None	0.0	None	0.0	None	0.0	None	0.0	None	0.0	None	0.0	None	5.821100000000001e-07	12
2014-01-19 08:24:00	4.19047347261695	21751706.3574	1.0741383843956536e+20	101094638755.17607	1.6290074279001674	152372999119.37933	4.904069713076437e+19	-1.7877208573312512e+22	940.4794143847388	-0.618862096371599	17.406941404832764	1.162790697674419	28.029971108635184	132.6148035894647	141.82322036765134	52.937305310553185	0.018941946836048457	-6.259599841380309e+21	3.4777869061046784	0.09252303573431526	-5.837784677604542e+21	0.2166909372007262	0.20208880200355148	0.0	320.55014	307.86264	-15.845051000000002	9.979394	-14.046893	13.596866	0.0		True	0.0	None	0.0	None	0.0	None	0.0	None	0.0	None	0.0	None	0.0	None	0.0	None	5.1242e-07	12
2014-01-19 08:36:00	4.937226028723246	24764499.57940001	9.680635656655474e+19	109061927468.71747	1.0958926658122623	79689741314.34549	5.29843405854698e+19	-2.02825437864709e+22	837.8612485642502	-0.6167090870394251	14.885834126828067	0.0	26.93651031839937	133.42786730334694	145.41646713722128	55.17037654368967	0.012596467423129452	-5.260649036945419e+21	1.7979506381886905	0.054744006709296834	-5.513176419889153e+21	0.1599547916161031	0.16763311507627807	0.0	320.553711	307.753601	-15.84397	10.071765	-14.045054	13.704016	0.0		True	0.0	None	0.0	None	0.0	None	0.0	None	0.0	None	0.0	None	0.0	None	0.0	None	4.681300000000001e-07	12
2014-01-19 08:48:00	4.929267216622967	24002611.9393	8.558792622070034e+19	104111786310.24533	1.1927885718423945	45024358463.06232	4.963763850610742e+19	-2.089023241164704e+22	826.2384849492282	-0.6553484655453187	14.931516762229233	0.0	26.508610289574328	139.73482487491296	151.93973293477822	56.90610747765082	0.015292161177466597	-4.268996715464418e+21	1.1330506506372031	0.060040670119370025	-4.914844907579335e+21	0.1339228971592392	0.15418383123299073	0.0	320.557159	307.644501	-15.842003	10.164695	-14.043469	13.798082	0.0		True	0.0	None	0.0	None	0.0	None	0.0	None	0.0	None	0.0	None	0.0	None	0.0	None	5.8202e-07	12
2014-01-19 09:00:00	4.013847629955007	20643664.450500004	9.75929059849088e+19	93581055699.03644	0.2892614605675169	48027769276.38506	4.499656286989317e+19	-1.6795401313518082e+22	979.8159500457016	-0.6126199174388192	16.568803284042968	0.0	27.13479314949994	136.45010005810178	145.30779681221887	55.19476434398825	-0.00385681947423356	-4.406355601396467e+21	-1.2569842323373523	-0.017378078700138667	-5.67178295766908e+21	0.16072382876382385	0.2068808683042007	0.0	320.560608	307.5354	-15.839993	10.258206	-14.041244	13.910354000000002	0.0		True	0.0	None	0.0	None	0.0	None	0.0	None	0.0	None	0.0	None	0.0	None	0.0	None	5.9513e-07	12
2014-01-19 09:12:00	3.8903100645302766	19475550.963200007	8.413176839477371e+19	82697544308.43869	0.5665503832772409	21895338127.63	4.1631992825993175e+19	-1.6273609732245894e+22	931.6195461326988	-0.6291897382597381	14.652078847316465	0.0	27.2886863094158	142.68183317839637	150.26213716155164	62.20223430098457	0.008331623283488838	-2.2375645692267665e+21	0.6320394612506357	0.035711419608064614	-5.041094686994884e+21	0.08651139414148637	0.1949048243653028	0.0	320.564056	307.4262700000001	-15.837998	10.352399	-14.039648	14.017673	0.0		True	0.0	None	0.0	None	0.0	None	0.0	None	0.0	None	0.0	None	0.0	None	0.0	None	6.931e-07	12
2014-01-19 09:24:00	3.2239917744551394	15807734.6971	8.249538518352745e+19	69698197234.62354	0.4309823635798379	29314632556.93699	3.5034827141329875e+19	-1.3651073631470976e+22	1070.9992077946556	-0.6502564356792845	17.449450916891813	1.7241379310344829	25.95314648902833	130.7340719786553	134.97510720606832	62.3321569671964	0.00743073040654893	-3.4827342942590893e+21	0.9921132005262802	0.03304215929950813	-4.0061943581197536e+21	0.16589687007342682	0.1908314125523255	0.0	320.567444	307.317108	-15.836293	10.472392	-14.038353	14.112172	0.0		True	0.0	None	0.0	None	0.0	None	0.0	None	0.0	None	0.0	None	0.0	None	0.0	None	6.033600000000001e-07	12
2014-01-19 09:36:00	3.366928129359386	19593871.9571	8.38354401976127e+19	80308238819.87277	1.3463565892993734	112183670831.55437	4.477966512994712e+19	-1.6861776780539451e+22	830.6184821704329	-0.6479934316657228	15.58616701045545	0.0	26.39566581225574	117.53143677174313	124.75656996556343	48.66212585348357	0.01771521828025491	-3.4560864664100977e+21	2.897508247670159	0.08339007295171195	-6.223112181780291e+21	0.1328164498113403	0.23915248498406244	0.0	320.570801	307.207916	-15.834282	10.570737	-14.036765	14.207153	0.0		True	0.0	None	0.0	None	0.0	None	0.0	None	0.0	None	0.0	None	0.0	None	0.0	None	5.556e-07	12
2014-01-19 09:48:00	2.7902748468620824	21135450.3164	7.390998284561498e+19	60329924230.198524	0.4894878325908244	15585082769.229618	4.402116678448069e+19	-1.7340938943197987e+22	772.961978366631	-0.6178010332747945	13.983505959281974	0.0	29.319324902086137	134.59463173794256	146.62627478642074	45.4551442522262	0.006798442119317006	-4.238570872472373e+21	0.4249027463703714	0.028630918624002424	-3.7792561365795697e+21	0.15100644049317913	0.13464255619819288	0.0	320.574188	307.098694	-15.832567999999998	10.690965	-14.035481	14.301972	0.0		True	0.0	None	0.0	None	0.0	None	0.0	None	0.0	None	0.0	None	0.0	None	0.0	None	5.0499e-07	12
2014-01-19 10:00:00	3.8851546434861435	22401793.5206	9.4340416557561e+19	93051515955.91368	0.8753340322990921	37415467279.8204	4.60956105838768e+19	-1.795659091382716e+22	877.0014370067938	-0.6035713726477494	16.78925177140066	0.0	31.37714769902609	133.73328981722537	140.43690907923093	54.61867340931735	0.010806592991346816	-6.21077576357191e+21	0.9067422665724694	0.04873407473780341	-4.859071929739508e+21	0.2087615890352489	0.16332703287062544	0.0	320.577484	306.989441	-15.830007	10.788542	-14.03279	14.396069	0.0		True	0.0	None	0.0	None	0.0	None	0.0	None	0.0	None	0.0	None	0.0	None	0.0	None	4.8794e-07	12
2014-01-19 10:12:00	4.1542564057714335	26305398.1418	1.1374966439357394e+20	94347377977.26666	0.6876277672819535	20022087132.72395	5.722435601944232e+19	-2.2233981012341837e+22	883.0105790089152	-0.6364435185490183	15.576397097938592	0.0	27.41382037236644	138.10096652690936	143.27159495775857	48.472838988250246	0.00708894605445313	-5.826121307345702e+21	0.4051916967822469	0.03194754581890887	-6.974559004086219e+21	0.16677162503117354	0.1996454377839209	0.0	320.58075	306.880157	-15.826718	10.909191	-14.029956	14.491379	0.0		True	0.0	None	0.0	None	0.0	None	0.0	None	0.0	None	0.0	None	0.0	None	0.0	None	4.8903e-07	12
2014-01-19 10:24:00	3.791981178824975	23632110.8899	1.0411449293835416e+20	75544430351.79709	0.14747511007214606	44495418.34249306	4.583914324657082e+19	-2.109063525248793e+22	1187.8312434220036	-0.6720082992707724	15.947277261009864	0.0	25.295710952498048	151.4707775277019	162.27129333970984	61.114368115881106	0.0022344713647294854	-5.157611613098242e+21	0.0013234268379827064	0.007464621305430784	-5.515709655219409e+21	0.1643363401303181	0.1757463737010069	0.0	320.584045	306.770844	-15.824957	11.00877	-14.028709	14.587422	0.0		True	0.0	None	0.0	None	0.0	None	0.0	None	0.0	None	0.0	None	0.0	None	0.0	None	4.902e-07	12
2014-01-19 10:36:00	4.233024512888202	24157038.95790001	1.2320938213782846e+20	91098095301.32764	0.5539612269440041	48626694429.72566	5.0273238594048975e+19	-1.9265431498054875e+22	1117.771692845484	-0.6005130651476615	17.730183662700316	0.0	27.704163662675786	144.7275746879271	147.42717918694268	60.576367029874106	0.00667423164992776	-6.627176839059795e+21	1.1500885211341079	0.02865539773306681	-6.601884825956778e+21	0.2065723924896879	0.205784027883695	0.0	320.58725	306.66149900000005	-15.822763	11.132362	-14.031453	14.680933	0.0		True	0.0	None	0.0	None	0.0	None	0.0	None	0.0	None	0.0	None	0.0	None	0.0	None	7.560299999999998e-07	12
2014-01-19 10:48:00	3.787371455012635	28600553.0824	1.595177606243239e+20	92656392111.20067	0.14419707914095553	12127985560.24033	6.176864099594279e+19	-2.271046205319487e+22	1112.1742254335181	-0.5979144866650602	19.268752654034774	2.7777777777777777	29.11997085058515	131.29165955853966	132.61902759722275	59.122456005906194	0.0013351581401940327	-5.896350053418559e+21	-0.2204479990927672	0.0063104233121606046	-9.090618798493284e+21	0.15523740147291692	0.2393351865601613	0.0	320.5904240000001	306.55212400000005	-15.820423000000002	11.250541	-14.051862	14.773879999999998	0.0		True	0.0	None	0.0	None	0.0	None	0.0	None	0.0	None	0.0	None	0.0	None	0.0	None	5.3052e-07	12
2014-01-19 11:00:00	4.1902848288396335	27649996.1365	1.512532440058578e+20	100176076250.14436	0.2525189037026819	46711418229.02269	5.85682287990893e+19	-2.169637570106707e+22	1127.6407306255128	-0.5908531398937109	18.63826507673984	2.9702970297029703	29.252901498445464	136.57435011047264	137.1015025110053	59.25091121382704	-0.0025001871653730877	-7.797414610462287e+21	-0.9079244699646358	-0.01148150254548232	-7.97430224716141e+21	0.21234546124761985	0.21716260753011696	0.0	320.5935970000001	306.442688	-15.817632	11.351803	-14.049541	14.871486	0.0		True	0.0	None	0.0	None	0.0	None	0.0	None	0.0	None	0.0	None	0.0	None	0.0	None	5.4592e-07	12
2014-01-19 11:12:00	2.9649307047156133	24442089.165700004	1.0971309672506224e+20	68209627806.72765	0.2682785283701631	8041493945.694245	5.030156382238348e+19	-2.0074198070806144e+22	971.9123463538954	-0.6184255617114757	17.324410434122928	0.0	29.20141933011449	133.0058470890545	134.68921209444648	53.69006522008266	0.003156217980825448	-6.928502443192537e+21	0.18572623204267527	0.013563908698933577	-6.583892947923363e+21	0.213446285631803	0.20282990534446885	0.0	320.59668	306.333221	-15.815082	11.471899	-14.048141	14.987392000000002	0.0		True	0.0	None	0.0	None	0.0	None	0.0	None	0.0	None	0.0	None	0.0	None	0.0	None	6.128899999999999e-07	12
2014-01-19 11:24:00	4.190889961238874	27513985.0852	1.5951422438310062e+20	101723365027.58258	0.20408943918563047	27006024406.974426	6.164237178661321e+19	-2.084516462444454e+22	1044.4532640031243	-0.570478481012301	19.937183272726887	1.7391304347826086	30.00837671215346	126.17561858415598	126.07051172240162	51.73638675198501	-0.0017746907755272219	-7.638972660227388e+21	-0.4610263541257866	-0.009446371918695773	-7.962173507044213e+21	0.2090590119202352	0.21790418687931112	0.0	320.599731	306.223724	-15.812672	11.571579	-14.046903	15.083247	0.0		True	0.0	None	0.0	None	0.0	None	0.0	None	0.0	None	0.0	None	0.0	None	0.0	None	5.842799999999999e-07	12
2014-01-19 11:36:00	3.771495754522984	28759623.3166	1.6629332520817728e+20	85797053057.5015	1.274196984942541	89207950759.37802	6.105223505186784e+19	-2.212115918867536e+22	1148.7771920580014	-0.5791781539984789	19.64925753737132	2.752293577981652	30.191564511669718	134.01207982002984	134.16696485567272	53.91900072421132	0.011689880595803129	-6.718569324992875e+21	1.6067488356772517	0.056111547699872096	-9.684616301662175e+21	0.17590617860352706	0.2535634838996951	0.0	320.602783	306.1141970000001	-15.8116	11.694747	-14.046339	15.176248	0.0		True	0.0	None	0.0	None	0.0	None	0.0	None	0.0	None	0.0	None	0.0	None	0.0	None	5.6456e-07	12
2014-01-19 11:48:00	5.378386759660993	36632316.3545	2.059787488868473e+20	118844168323.79825	1.1861150516606105	59126408455.90167	7.537131002135581e+19	-2.8149681892493256e+22	1193.0717648284594	-0.5786242283119014	19.309260937649128	0.7692307692307693	31.307226061362254	145.5160207752931	145.6636124550131	61.98829381562394	0.00912396193585085	-9.431389683399368e+21	0.892929843956255	0.04102170127550005	-9.80185682490628e+21	0.19386473347398928	0.20147978449616505	0.0	320.605774	306.004608	-15.808585999999998	11.815562	-14.071132	15.272	0.0		True	0.0	None	0.0	None	0.0	None	0.0	None	0.0	None	0.0	None	0.0	None	0.0	None	5.292799999999999e-07	12
2014-01-19 12:00:00	5.601999268425528	37379465.82560001	2.4396064889131152e+20	130991794208.68402	0.022542013957988646	45801243133.61556	7.82129862989929e+19	-2.8195191613265352e+22	1321.5769147885433	-0.5679752663201469	21.306674843518266	2.1582733812949644	31.485744488743624	139.74677842700498	140.4627767851683	61.75005840229184	-0.00016217276228768808	-1.0773539596022535e+22	-0.6469193432494574	-0.0007692197237159418	-1.0442099795850384e+22	0.2170265095266321	0.21034985304725887	0.0	320.608704	305.894989	-15.80562	11.914668	-14.069372	15.367126999999998	0.0		True	0.0	None	0.0	None	0.0	None	0.0	None	0.0	None	0.0	None	0.0	None	0.0	None	5.0603e-07	12
2014-01-19 12:12:00	6.0692141161807145	43585292.387	3.016963399878414e+20	133984867802.44984	1.2514874478401847	47937986852.75021	8.81568430619911e+19	-3.384174381268523e+22	1545.3975030961346	-0.5846558090178265	20.90845515382567	3.401360544217688	29.777736185737204	142.43596437468344	143.4005569462409	61.09314936512272	0.00851352005333459	-9.940050453579233e+21	0.6402637817613664	0.03623944876073423	-1.2085914760511666e+22	0.17172602782475402	0.2087983500832125	0.0	320.611633	305.785339	-15.803391	12.038865	-14.068370000000002	15.462875	0.0		True	0.0	None	0.0	None	0.0	None	0.0	None	0.0	None	0.0	None	0.0	None	0.0	None	5.199600000000001e-07	12
2014-01-19 12:24:00	4.881596649499817	39333529.31590001	2.2149626534790346e+20	99731503120.81996	1.422842028495218	87067681448.90042	7.344659453912715e+19	-2.967803338542339e+22	1516.2164154084455	-0.5681456344489911	18.13898234854266	0.0	29.266804948263683	151.8888608907809	156.0667069904136	66.16419426207915	0.012934927531774708	-9.238730976065704e+21	1.5540670142699748	0.046135727247051485	-1.0950019884447714e+22	0.1768629546214628	0.20962325615329386	0.0	320.614441	305.675629	-15.800203	12.161412	-14.066422	15.558744	0.0		True	0.0	None	0.0	None	0.0	None	0.0	None	0.0	None	0.0	None	0.0	None	0.0	None	5.0712e-07	12
2014-01-19 12:36:00	6.29756649280389	52282080.1292	3.173714966843184e+20	143673584209.9525	0.05369533748881662	42538085041.45735	9.96775955088201e+19	-3.975675786047671e+22	1541.7847194927704	-0.5725924505302974	18.44586901736645	0.0	29.57724977042697	154.42587881991773	154.25856253317792	72.14218828710996	0.00034642153218591363	-1.2836905576578723e+22	-0.5388413631996686	0.0013061634510995214	-1.153589141313571e+22	0.18488215882981748	0.16614444156839472	0.0	320.617279	305.5658870000001	-15.777963	12.260209	-14.065219	15.653428	0.0		True	0.0	None	0.0	None	0.0	None	0.0	None	0.0	None	0.0	None	0.0	None	0.0	None	4.853999999999999e-07	12
2014-01-19 12:48:00	8.268033593389314	55790622.77850001	3.449605555632607e+20	176783489884.15906	0.3261281633300233	53898244461.28435	1.0377377964548307e+20	-4.30545222831307e+22	1603.4001467786422	-0.5810922193504082	19.088499593494745	0.6172839506172839	29.44132073833212	161.3926956709578	161.20579466683614	69.96882689940422	0.0020131368106791558	-1.412141831075001e+22	-0.6532563564788946	0.007394348060154514	-1.3563295790387712e+22	0.1905919720257672	0.1830591825107888	0.0	320.620117	305.456116	-15.776735999999998	12.385652	-14.09236	15.748656	0.0		True	0.0	None	0.0	None	0.0	None	0.0	None	0.0	None	0.0	None	0.0	None	0.0	None	5.0042e-07	12
2014-01-19 13:00:00	6.386321756789902	49209956.306	2.847258090515581e+20	125682046828.81598	1.0933808095019202	71911680251.96088	8.63204541866659e+19	-3.875974619991956e+22	1786.623885865326	-0.59308302153159	17.797509628504134	0.0	28.603088067808343	171.54190245069597	172.87965245988246	74.51741947811506	0.009111506745849336	-1.2257143562302543e+22	1.176662184412964	0.02789395232111864	-1.3435336501463393e+22	0.1875529241543887	0.2055810666685456	0.0	320.622772	305.346283	-15.774515	12.507477	-14.092091	15.843853	0.0		True	0.0	None	0.0	None	0.0	None	0.0	None	0.0	None	0.0	None	0.0	None	0.0	None	4.708400000000001e-07	12
2014-01-19 13:12:00	6.529771448495897	47157545.34910001	2.778454911962468e+20	143419696042.33704	1.993287113235356	146828946101.01926	8.793818458582145e+19	-3.7522453482415873e+22	1561.2988322511205	-0.5991388983022888	19.246367828103605	0.7462686567164178	29.085580793079448	156.4177677595869	157.32068591014362	68.89978640652622	0.01487527696444296	-1.2221062122520105e+22	2.1515431283254207	0.0528642988215105	-1.2843774742605911e+22	0.19513952358157727	0.20508267277708447	0.0	320.625519	305.23642	-15.772267	12.607335	-14.091102	15.939432	0.0		True	0.0	None	0.0	None	0.0	None	0.0	None	0.0	None	0.0	None	0.0	None	0.0	None	4.7201999999999996e-07	12
2014-01-19 13:24:00	4.858228127038527	37309773.934	1.9667494994209584e+20	97554920562.17543	0.9119115588256941	10227125346.67542	6.591831639090022e+19	-2.860511961024815e+22	1592.404996841383	-0.5773093381992187	17.660436592861934	0.0	29.35876718314455	156.2729649333835	161.33511484444858	68.42263388316424	0.009805500632534344	-1.0262736580989296e+22	0.21593521756790984	0.030991544772499224	-1.1523278387729308e+22	0.20712284179931265	0.2325631324234011	0.0	320.628204	305.1264950000001	-15.76983	12.731144	-14.0913	16.034809	0.0		True	0.0	None	0.0	None	0.0	None	0.0	None	0.0	None	0.0	None	0.0	None	0.0	None	5.13e-07	12
2014-01-19 13:36:00	6.5488782823834075	39081376.55760001	2.0153872452442096e+20	135657003598.78952	1.5131265385128858	78817645103.86981	7.23059481385031e+19	-2.965990012243329e+22	1405.1485410342484	-0.5714619494705819	17.01417321935309	0.0	30.078215765842945	161.1637063555336	163.43295093110444	70.99085225722649	0.014010430912156351	-1.1253194049496839e+22	1.4330534434011728	0.04927555470428111	-1.0753774953028454e+22	0.2168170554435649	0.2071946693501337	0.0	320.630768	305.016571	-15.767073000000002	12.853622	-14.096132999999998	16.128857	0.0		True	0.0	None	0.0	None	0.0	None	0.0	None	0.0	None	0.0	None	0.0	None	0.0	None	5.030600000000001e-07	12
