Timestamp	TOTUSJH	TOTBSQ	TOTPOT	TOTUSJZ	ABSNJZH	SAVNCPP	USFLUX	TOTFZ	MEANPOT	EPSZ	MEANSHR	SHRGT45	MEANGAM	MEANGBT	MEANGBZ	MEANGBH	MEANJZH	TOTFY	MEANJZD	MEANALP	TOTFX	EPSY	EPSX	R_VALUE	CRVAL1	CRLN_OBS	LAT_MIN	LON_MIN	LAT_MAX	LON_MAX	QUALITY	NOAA_AR	IS_TMFI	BFLARE	BFLARE_label	CFLARE	CFLARE_label	MFLARE	MFLARE_label	XFLARE	XFLARE_label	BFLARE_loc	BFLARE_label_loc	CFLARE_loc	CFLARE_label_loc	MFLARE_loc	MFLARE_label_loc	XFLARE_loc	XFLARE_label_loc	XR_MAX	XR_QUAL
2014-03-11 12:12:00	174.29984873578155	1909392208.0133	1.0794667348977735e+22	4089511898559.3496	8.485726867637805	555734325294.1213	4.253574033421696e+21	-1.872066823483965e+24	1134.595757073242	-0.7382673628711492	19.956398776350838	0.4187604690117253	23.68105730797493	99.6174514638302	99.67430894555206	30.91852294310555	-0.0011844956543324687	8.047333932372065e+22	-0.1494193751095509	-0.005113371217890652	-6.300425138766587e+23	-0.03173542699367605	0.2484632596345001	0.0	406.979553	354.14801	-18.076551	47.195477	-10.533866	56.464222	0.0		True	0.0	None	0.0	None	0.0	None	0.0	None	0.0	None	0.0	None	0.0	None	0.0	None	1.7298e-05	12
2014-03-11 12:24:00	176.33445420748382	1923048779.6397	1.0700050807363515e+22	4137653367035.164	11.540694674958253	747475282603.0275	4.3024749890876216e+21	-1.892935260029283e+24	1109.4736510124717	-0.7411956429439885	19.713976436478212	0.3717984026438997	23.4340071647608	99.20450164978834	99.2101980968235	30.78509111544715	-0.0015891895724260885	8.46436118144126e+22	-0.19826523293780826	-0.006893250716657013	-6.251460585751948e+23	-0.033142959299577106	0.24478150130309995	0.0	406.982208	354.0383	-18.064394	47.318748	-10.543368	56.57004499999999	0.0		True	0.0	None	0.0	None	0.0	None	0.0	None	0.0	None	0.0	None	0.0	None	0.0	None	7.5208e-06	12
2014-03-11 12:36:00	177.54326567959419	1932720549.715	1.0888887262720603e+22	4193742477469.058	14.505591456413212	1072534114637.9238	4.331557207957221e+21	-1.904526216107824e+24	1117.9696864075597	-0.7420024221171915	20.01553309497815	0.4635942187073902	23.554502827743143	98.58224749969641	98.48558836607208	30.614595632388234	-0.0019778553935660232	7.309557976730432e+22	-0.28170016665081804	-0.00861683185492948	-6.308221576194586e+23	-0.028477999816795163	0.24576798414222056	0.0	406.984802	353.928558	-18.055662	47.429333	-10.543451	56.66970799999999	0.0		True	0.0	None	0.0	None	0.0	None	0.0	None	0.0	None	0.0	None	0.0	None	0.0	None	6.6722e-06	12
2014-03-11 12:48:00	175.09548499111668	1931218502.5025	1.061164020596358e+22	4143376593448.129	11.667725731183314	1118680337633.783	4.3473964460044887e+21	-1.902023846991633e+24	1076.2968070514667	-0.7416039641588127	19.920267382530035	0.3502155172413793	23.69822947655656	97.07990384948441	96.79627098012381	30.53206946280613	-0.0015718342625870017	7.073591573286747e+22	-0.2902658657403261	-0.00694068739504364	-6.267597698363609e+23	-0.02758011451794852	0.2443752377874129	0.0	406.987427	353.818817	-18.04784	47.55292100000001	-10.543393	56.766094	0.0		True	0.0	None	0.0	None	0.0	None	0.0	None	0.0	None	0.0	None	0.0	None	0.0	None	4.5331e-06	12
2014-03-11 13:00:00	176.63849939038926	1945927943.2285	1.0757231977771934e+22	4199977959332.149	10.93921287951078	898765639587.7379	4.3655249862708927e+21	-1.917100240100752e+24	1084.0542807675115	-0.7418317634256777	20.144576783495104	0.6290149892933619	23.82365613507956	95.80884477101036	95.89960698233305	30.29813244462429	-0.0014640274196347405	7.356398943226029e+22	-0.2317119273105719	-0.006454804737847657	-6.279896491623127e+23	-0.028465962740839026	0.2430038133147737	0.18069072446006468	406.98996	353.709015	-18.038824	47.6618	-10.543283	56.848476	0.0		True	0.0	None	0.0	None	0.0	None	0.0	None	0.0	None	0.0	None	0.0	None	0.0	None	3.5450999999999997e-06	12
2014-03-11 13:12:00	177.3728447716873	1944237919.1879	1.0591177324506485e+22	4143330525140.317	9.40449140467344	652791726179.2029	4.351225840372863e+21	-1.9231297753294327e+24	1080.918668325298	-0.7448119088152348	19.83820224835225	0.6641366223908919	23.42787517911805	95.66532668378834	95.56985086577349	30.04706180629274	-0.0012746667666946926	6.9187544563335024e+22	-0.17044562888903805	-0.005544562504359236	-6.237439497532621e+23	-0.026795751276654886	0.2415707602198087	0.11841113463888825	406.992523	353.599213	-18.030994	47.781097	-10.548081	56.936459	0.0		True	0.0	None	0.0	None	0.0	None	0.0	None	0.0	None	0.0	None	0.0	None	0.0	None	2.8226e-06	12
2014-03-11 13:24:00	173.9435095576809	1913880763.3447	1.030300758980331e+22	4070711791508.44	8.027581150350539	546504136075.6946	4.268662181746362e+21	-1.8920583913142367e+24	1077.354494296201	-0.7444012208336853	19.696223865167788	0.2916261630329121	23.52990331873725	96.78966909079139	96.89094820995977	30.70790315468144	-0.001114786994910504	7.066042409567844e+22	-0.14620475445889994	-0.004808985204685449	-6.118033680128324e+23	-0.02780025510994556	0.24070460835120955	0.3655501660739462	406.995026	353.48938	-18.022465	47.904625	-10.543376	57.022854	0.0		True	0.0	None	0.0	None	0.0	None	0.0	None	0.0	None	0.0	None	0.0	None	0.0	None	2.6307e-06	12
2014-03-11 13:36:00	171.36016132012253	1915863300.6961	1.0147668984738204e+22	4019633594205.333	8.088835325505935	902045110055.7266	4.268043425771565e+21	-1.8958423375868056e+24	1062.1438307924423	-0.7451182000963341	19.488750762863376	0.13900472616068948	23.45869018318081	97.25584785474207	97.37874891308209	30.67189622389992	-0.0011243863393808641	7.0299628866613964e+22	-0.2415625760227664	-0.004838676901707166	-6.051271144387867e+23	-0.02762968833959447	0.2378316051924713	0.0	406.997498	353.379486	-18.012434	48.022949	-10.542365	57.08436999999999	0.0		True	0.0	None	0.0	None	0.0	None	0.0	None	0.0	None	0.0	None	0.0	None	0.0	None	2.7092000000000003e-06	12
2014-03-11 13:48:00	168.6252710573135	1924458299.8914	1.0258607129786017e+22	3974142783923.415	6.28404763414733	559133985085.3043	4.2819622435230497e+21	-1.9043961598326995e+24	1070.0369170054773	-0.7451371169758898	19.754998929895265	0.6926167059149467	23.59811572448973	96.27355775446944	96.39185226372372	30.72085899148745	-0.0008704872744351472	7.778552004636312e+22	-0.14921807523404382	-0.0037422379919728795	-6.032237555423834e+23	-0.030435305096870775	0.2360246358277196	2.0019268253906595	406.999969	353.269623	-18.003308999999994	48.138569	-10.545648	57.18291899999999	0.0		True	0.0	None	0.0	None	0.0	None	0.0	None	0.0	None	0.0	None	0.0	None	0.0	None	2.7019e-06	12
2014-03-11 14:00:00	173.68118958244722	1974445192.3116	1.077946226181797e+22	4087870313864.6953	11.981750778333645	778501998668.6809	4.338720725003909e+21	-1.940418273455116e+24	1118.6320012296603	-0.7400101726258567	20.198025060417155	1.3919514884233737	24.08407008680868	96.74564265438477	97.10762609582805	30.982610643802644	-0.001651288696021726	7.5215778102124145e+22	-0.20670726670490874	-0.006975147686561768	-6.190481968639547e+23	-0.028684764361877425	0.2360841315977315	0.0	407.002411	353.159698	-17.994919	48.255219	-10.546303	57.237717	0.0		True	0.0	None	0.0	None	0.0	None	0.0	None	0.0	None	0.0	None	0.0	None	0.0	None	2.4177e-06	12
2014-03-11 14:12:00	174.9806568064505	1977732284.4117	1.050626107712432e+22	4031660289217.048	14.485314028512938	1056932599160.7584	4.3407763720346733e+21	-1.9600682744331915e+24	1101.3610155819374	-0.7462615638618276	19.598559858583844	0.3898092718919671	23.35331677974649	97.25226210554396	97.37577219940522	31.12226477856921	-0.002016610612350402	9.370284759305155e+22	-0.2834948637055504	-0.008388438258954594	-6.129108796518128e+23	-0.035675713185714636	0.2333550507005465	0.0	407.004852	353.049744	-17.986094	48.367165	-10.549638	57.293148	0.0		True	0.0	None	0.0	None	0.0	None	0.0	None	0.0	None	0.0	None	0.0	None	0.0	None	3.1757999999999997e-06	12
2014-03-11 14:24:00	175.9360356915619	1970425765.0586	1.0712751233126952e+22	4072807995173.272	16.990698704206054	1312674987043.8342	4.298113616648382e+21	-1.936922226149412e+24	1129.9287744556934	-0.7401837313017602	20.0442002567954	1.6669001260680767	23.799013575832014	96.6406170798398	96.89166496004488	31.15010801178865	-0.0023799830094139315	8.269893366376847e+22	-0.3542696652862561	-0.009910282908245593	-5.970100814367576e+23	-0.031602923683525866	0.2281439821056292	2.4682606556102145	407.007202	352.939758	-17.980185000000006	48.493427	-10.550253	57.352966	0.0		True	0.0	None	0.0	None	0.0	None	0.0	None	0.0	None	0.0	None	0.0	None	0.0	None	3.3094e-06	12
2014-03-11 14:36:00	178.5610128684475	1999004474.1691003	1.0935061999219764e+22	4132551474508.912	14.384348838744385	1189588868634.5571	4.335810956266565e+21	-1.9651809393222067e+24	1152.8925949177972	-0.7402462617010251	20.00871591461879	0.9661159339120694	23.686700574918	98.42069101523904	98.76127637454323	31.555505383716802	-0.0020140505234870322	7.663244332442942e+22	-0.3209233244683791	-0.008269813713518419	-6.09780063518234e+23	-0.02886598305573315	0.2296925455804953	0.0	407.009552	352.829742	-17.972285999999997	48.603661	-10.551599	57.360641	0.0		True	0.0	None	0.0	None	0.0	None	0.0	None	0.0	None	0.0	None	0.0	None	0.0	None	2.8346e-06	12
2014-03-11 14:48:00	181.23220384659768	1987398619.3720002	1.0845666143873654e+22	4154540599131.3	12.109715847369307	1433340966721.1448	4.261145571702286e+21	-1.957993302374272e+24	1174.043297650874	-0.7418458531738736	20.090148747979704	1.1932144910868314	23.71270510666177	100.14765736794271	100.72199167682459	31.904548515279714	-0.0017409022207258925	8.591801684812229e+22	-0.3970306175714894	-0.006996313240155888	-6.102830070012021e+23	-0.032552677496094404	0.2312244467115052	0.0	407.011871	352.719727	-17.97423	48.718876	-10.554331	57.445595	0.0		True	0.0	None	0.0	None	0.0	None	0.0	None	0.0	None	0.0	None	0.0	None	0.0	None	2.4966999999999997e-06	12
2014-03-11 15:00:00	182.7208951716639	1995413079.0788	1.0825332804798636e+22	4168159380998.3633	13.198884838251331	1204662926801.079	4.279326527119969e+21	-1.96763168168662e+24	1167.4786813984672	-0.7425035575036896	19.91791402039653	0.7590948152391865	23.497365359276515	99.25799255619431	99.64535092796179	31.939231249456725	-0.0018904160467274886	9.617329920638614e+22	-0.3324523157372522	-0.007592079503649878	-6.16349812999045e+23	-0.03629186166406812	0.2325851596505309	0.0	407.014191	352.60968	-17.969309	48.840778	-10.554093	57.535603	0.0		True	0.0	None	0.0	None	0.0	None	0.0	None	0.0	None	0.0	None	0.0	None	0.0	None	2.4449e-06	12
2014-03-11 15:12:00	180.775157211034	2000686729.8298	1.0791797020121629e+22	4059861967705.2246	9.607551757920616	654786881619.2551	4.277451381352956e+21	-1.9817766346183096e+24	1180.9451916389846	-0.7458700076931819	19.661649914474165	0.4359831419851766	23.093093990691692	99.32588817796619	99.91887714126469	31.63511857689373	-0.0013962435340678125	1.1286083633170576e+23	-0.1833585803109109	-0.0055011277768356685	-6.124678228280276e+23	-0.04247679147715922	0.23051103325403324	2.2632090245140044	407.016449	352.499603	-17.961610999999994	48.960247	-10.558327	57.638222	0.0		True	0.0	None	0.0	None	0.0	None	0.0	None	0.0	None	0.0	None	0.0	None	0.0	None	2.2693e-06	12
2014-03-11 15:24:00	177.72523113039642	1976236588.4604	1.071106691409161e+22	3992866292068.197	14.780374976322674	1156815245667.5332	4.219317011411036e+21	-1.9444418644935096e+24	1186.9454711312515	-0.7408725834663591	19.7490358766642	0.5592347314201619	23.30664052950098	97.64421463561432	98.12172139482956	31.99058293674715	-0.0021751839553087087	1.0591822613871744e+23	-0.32804705861822336	-0.008592301868706284	-6.053393057478771e+23	-0.04035703574815083	0.2306468007671611	2.2562883810089303	407.018707	352.389496	-17.960285	49.071507	-10.557076	57.737278	0.0		True	0.0	None	0.0	None	0.0	None	0.0	None	0.0	None	0.0	None	0.0	None	0.0	None	4.4766000000000005e-06	12
2014-03-11 15:36:00	177.64240164437683	1976471699.4229	1.0720861830970574e+22	3952173333925.5684	12.326880662833366	1117957996756.9907	4.1800496959171896e+21	-1.9470803444998904e+24	1212.8409565819757	-0.7417896016467055	19.820248462059432	0.9314903846153846	23.34220447193761	99.4248913488153	99.9012890795476	32.787014242194104	-0.0018519952918920315	1.1563579774732196e+23	-0.3236548908919754	-0.007161382877466788	-6.038292455947945e+23	-0.0440543876832761	0.2300440538150677	0.0	407.020905	352.279358	-17.95595	49.193573	-10.565235	57.836498	0.0		True	0.0	None	0.0	None	0.0	None	0.0	None	0.0	None	0.0	None	0.0	None	0.0	None	4.8854e-06	12
2014-03-11 15:48:00	176.3412865193293	1979811081.7817	1.0746439411581621e+22	3913225274571.503	12.595358332785022	1077150185248.4672	4.1717923045122376e+21	-1.96013313034774e+24	1229.0293390131285	-0.7455028300751997	19.795504061981735	0.6379100850546779	23.141217486955448	99.72149347787978	100.22353582607279	32.769065553775384	-0.0019130252631812	1.1725560605767494e+23	-0.3152567906735164	-0.0072894743990835065	-5.970341397458431e+23	-0.04459614747834579	0.2270716381152521	0.0	407.023132	352.16922	-17.948713	49.309784	-10.565801	57.927937	0.0		True	0.0	None	0.0	None	0.0	None	0.0	None	0.0	None	0.0	None	0.0	None	0.0	None	5.6688e-06	12
2014-03-11 16:00:00	178.51231793577537	2014976147.5498	1.124005312856752e+22	3986352294627.82	12.013463137042615	1263400545398.7815	4.257314464675756e+21	-1.981814506457788e+24	1253.497212779666	-0.7405945908517104	20.060149794787787	0.7701421800947867	23.29451413386332	98.60817934077934	99.01946881192622	32.19701772145094	-0.0017795086856825086	1.3538150673806942e+23	-0.3605737908113831	-0.006851628180508689	-6.122780361730784e+23	-0.05059142077366977	0.2288053701340429	2.415328898811915	407.025269	352.059021	-17.949202	49.428257	-10.573934	58.029415	0.0		True	0.0	None	0.0	None	0.0	None	0.0	None	0.0	None	0.0	None	0.0	None	0.0	None	6.4376e-06	12
2014-03-11 16:12:00	177.63925681894167	2017224345.1015	1.120208443927968e+22	3937450938391.675	7.215966441527327	835507789662.8303	4.243204457556434e+21	-1.9946478661687407e+24	1268.9970257243401	-0.7445596159065427	19.95080364979032	0.7371746652625245	23.034640524385427	98.75581511849023	99.87738047152935	31.892552789447212	-0.0010855974787915342	1.2790294932113293e+23	-0.24222414505565176	-0.004100950098237207	-6.110579150865518e+23	-0.04774345007711775	0.2280949205472475	2.2482000427985134	407.027466	351.948853	-17.945044	49.552021	-10.574549	58.132961	0.0		True	0.0	None	0.0	None	0.0	None	0.0	None	0.0	None	0.0	None	0.0	None	0.0	None	5.9809000000000015e-06	12
2014-03-11 16:24:00	184.1242465708409	2089708939.672	1.1800535583447537e+22	4138233132471.0254	6.179197480106567	585747040178.4478	4.4348745967831755e+21	-2.0539055546397625e+24	1257.8778634571665	-0.7400858739951356	20.256364574688785	0.7927519818799547	23.356912821147734	97.86023072098492	98.46911884591104	32.010158376463146	-0.0008748686790466612	1.4020431231606193e+23	-0.1597933142617191	-0.0033993548824584594	-6.355593439630178e+23	-0.050519962217307916	0.2290117437435645	0.0	407.029633	351.838623	-17.935453	49.670422	-10.581861	58.244175	0.0		True	0.0	None	0.0	None	0.0	None	0.0	None	0.0	None	0.0	None	0.0	None	0.0	None	9.7278e-06	12
2014-03-11 16:36:00	178.01987062934018	2090274230.8597	1.1566361803382428e+22	4009840770622.135	10.121428681923415	995476945930.912	4.42164179995019e+21	-2.067638852906628e+24	1248.8272425504233	-0.7448330717302901	20.01959996491135	0.6595927731574419	23.048234724546862	96.7943045598725	97.21163672964512	31.43099568519412	-0.0014513089592663342	1.3224054383999715e+23	-0.275077204104768	-0.005550277075758105	-6.418533444567544e+23	-0.04763749256170376	0.2312171670986073	2.2320908049694537	407.031738	351.728394	-17.931507	49.797878	-10.582644	58.349125	0.0		True	0.0	None	0.0	None	0.0	None	0.0	None	0.0	None	0.0	None	0.0	None	0.0	None	9.4631e-06	12
2014-03-11 16:48:00	187.9467494664275	2149234854.4095	1.1843414070109082e+22	4227453887349.155	3.4102090078237177	388856504337.5401	4.578579746944391e+21	-2.131131132107129e+24	1225.3278775215856	-0.7466442942265579	20.07956843705938	0.4671613080516625	23.096353629308897	96.20931855264412	96.61912160935823	31.12830338209413	-0.0004685640296542617	1.211905249540008e+23	-0.10296463538772828	-0.0018168649567069032	-6.633985078217782e+23	-0.042459242703549116	0.23242244609030666	2.4135238823100957	407.033844	351.618134	-17.928638	49.907284	-10.590719	58.452381	0.0		True	0.0	None	0.0	None	0.0	None	0.0	None	0.0	None	0.0	None	0.0	None	0.0	None	6.6951e-06	12
2014-03-11 17:00:00	187.99714727498002	2159067869.4894	1.1820790332084097e+22	4287417620082.268	0.4203444477223504	110117460888.65567	4.621173427924417e+21	-2.1344957294124133e+24	1196.3577712637034	-0.7444173594731414	20.185137155487077	0.6720430107526881	23.298563009283427	95.40580962968578	95.92843872599191	31.245291615141397	-5.649790964010085e-05	1.048314065263198e+23	0.0182421716685396	-0.0002232125539496816	-6.685710254185515e+23	-0.036560541096824266	0.23316789558503115	2.4246842357180047	407.035919	351.507874	-17.923454	50.032555	-10.588699	58.564587	0.0		True	0.0	None	0.0	None	0.0	None	0.0	None	0.0	None	0.0	None	0.0	None	0.0	None	3.8706e-06	12
2014-03-11 17:12:00	182.81291432977272	2188577005.2132	1.1767612370741128e+22	4207422143945.5454	1.001168913595888	107276838530.81377	4.742824009214139e+21	-2.1700697574642888e+24	1146.8882840499448	-0.7466195001583784	19.8624095984402	0.36241263266891016	23.102033780377045	94.14879560865127	94.65157735565049	29.97992913067965	-0.00012960115386354538	8.980823812869742e+22	0.02254553734397409	-0.0005239711683013357	-6.733974095044247e+23	-0.030898814027113645	0.23168455095177465	2.421869683478319	407.038025	351.39761400000015	-17.918285	50.151134000000006	-10.588363	58.666332	0.0		True	0.0	None	0.0	None	0.0	None	0.0	None	0.0	None	0.0	None	0.0	None	0.0	None	2.6148000000000004e-06	12
2014-03-11 17:24:00	182.0740939707943	2206606230.8338003	1.1721717244490693e+22	4236141791468.672	1.1602962792262392	161932213202.49847	4.766790291736601e+21	-2.1980538937284323e+24	1140.6436929501378	-0.7500685987338994	19.764543582251	0.5427759110881365	22.96326558734656	95.3472842079223	96.04957277814992	30.38663572531577	0.0001499478262117135	7.95441464189349e+22	-0.040330017449332636	0.0006009232158140001	-6.830525867117807e+23	-0.027143814176790158	0.23308632151299266	2.431072513918207	407.04007	351.287323	-17.914133	50.277081	-10.596319	58.769073	0.0		True	0.0	None	0.0	None	0.0	None	0.0	None	0.0	None	0.0	None	0.0	None	0.0	None	2.1049e-06	12
2014-03-11 17:36:00	187.92807288563046	2227743961.5867004	1.176427976203148e+22	4330266573196.52	2.172558186269596	155904232420.82034	4.857430529779903e+21	-2.229844442048912e+24	1119.1851693802046	-0.7536970471563567	19.60553999844071	0.4548325963360708	22.79365557703968	95.32352570085558	95.98172044080887	29.890543100896288	-0.00027452087266484647	6.840457504799518e+22	-0.035873592485795434	-0.0011123373896308902	-6.888279469665073e+23	-0.023121041653599114	0.23282681959212834	0.0	407.042114	351.177002	-17.911074	50.39777	-10.597589	58.87612900000001	0.0		True	0.0	None	0.0	None	0.0	None	0.0	None	0.0	None	0.0	None	0.0	None	0.0	None	1.7616e-06	12
2014-03-11 17:48:00	181.73427347946145	2188014681.3744	1.1283745675891549e+22	4178469317015.197	2.3747586600922443	288604946995.1873	4.827760635029576e+21	-2.2038666944866247e+24	1068.4749270101577	-0.7584422322350217	19.4993988414926	0.3395372233400403	22.77600203687049	93.05084526723135	93.44181394752859	28.73310645882181	-0.0002986742120604005	5.731096511997272e+22	-0.06305850414672731	-0.0012344923682711287	-6.705522616294235e+23	-0.019723087801034583	0.2307649348360115	0.0	407.044128	351.066681	-17.906919	50.514446	-10.599775	58.980412	0.0		True	0.0	None	0.0	None	0.0	None	0.0	None	0.0	None	0.0	None	0.0	None	0.0	None	2.0868e-06	12
2014-03-11 18:00:00	184.59693083901675	2199129773.6139	1.1281357747813859e+22	4287746356748.58	0.9376989591070476	63414471182.41265	4.910354503466482e+21	-2.2202966440256884e+24	1037.3324475327238	-0.7602345561563146	19.402730572183586	0.5006716326779826	22.676420272530432	92.6231753804768	93.08372712767807	28.32944172337201	0.00011452112348644942	5.480026510627524e+22	-0.001840333316121217	0.00048450107556160296	-6.697293811560352e+23	-0.01876373381566734	0.22931684385418136	0.0	407.046143	350.95636	-17.902094	50.635124	-10.599841	59.084564	66560.0		False	0.0	None	0.0	None	0.0	None	0.0	None	0.0	None	0.0	None	0.0	None	0.0	None	2.0708e-06	12
2014-03-11 18:12:00	178.75590981010586	2145055413.6191	1.0618106923142418e+22	4150453684680.299	0.18632299401870844	61304544084.81551	4.817595514705293e+21	-2.1793404522356545e+24	993.9452879469078	-0.7650221524996449	19.123205593487388	0.2859273993038289	22.53756651737823	91.65266775071821	92.33846797892599	28.014437674975106	-2.3165857766841777e-05	5.0689252616648725e+22	0.0146876803465438	-9.843602453331512e-05	-6.404792313614755e+23	-0.017793640780451	0.2248298560717452	0.0	407.048187	350.846039	-17.896324	50.751205	-10.605814	59.188267	66560.0		False	0.0	None	0.0	None	0.0	None	0.0	None	0.0	None	0.0	None	0.0	None	0.0	None	-99999.0	0
2014-03-11 18:24:00	171.3193512964929	2114319219.387	1.0240352818138054e+22	3977701994362.842	2.7746174172995532	425489597089.185	4.786089422756154e+21	-2.1552568813302696e+24	959.4192766988227	-0.7675664280824721	18.981501863305322	0.2986188876446435	22.561937032984662	89.63033803878972	90.43737808503424	27.301676504283535	-0.000345230486163936	4.9131747645670126e+22	-0.08203402510648429	-0.001484864423620356	-6.285920510187739e+23	-0.017497626557888474	0.22386480215004104	0.0	407.050171	350.735687	-17.897607999999995	50.870293	-10.607043	59.295177	66560.0		False	0.0	None	0.0	None	0.0	None	0.0	None	0.0	None	0.0	None	0.0	None	0.0	None	-99999.0	0
2014-03-11 18:36:00	166.98393482943072	2086390524.9665	9.998461953073629e+21	3886386086204.6265	0.7065431505884604	156427240112.30487	4.730246726872357e+21	-2.13420128537394e+24	947.7229408116484	-0.7702420170715178	18.780750587444988	0.2391742195367573	22.457076747777347	89.55622541145546	90.29309520541484	27.03502421138228	-8.894047716370347e-05	5.137535068308983e+22	0.016025558376934285	-0.00038259601291385837	-6.20405579793952e+23	-0.01854157525304192	0.2239069240834004	0.0	407.052246	350.625336	-17.892866	51.002945	-10.613873	59.400639	66560.0		False	0.0	None	0.0	None	0.0	None	0.0	None	0.0	None	0.0	None	0.0	None	0.0	None	6.5049e-06	8
2014-03-11 18:48:00	171.28805989039338	2074147798.2938	1.00318134835856e+22	3982812024922.768	1.6025297577920508	349948453698.77405	4.695213099016525e+21	-2.115101064148053e+24	958.7289591385021	-0.7678544777612827	18.774180780767573	0.2284553877395609	22.397299407645487	90.17100093694916	90.525317928939	27.402983566796607	0.00020341834955471576	5.355229062907344e+22	-0.08559833386223709	0.0008741049124234926	-6.229458429166754e+23	-0.019441324507332984	0.2261507797401701	0.0	407.05423	350.514984	-17.888737	51.120293	-10.614707	59.487976	0.0		True	0.0	None	0.0	None	0.0	None	0.0	None	0.0	None	0.0	None	0.0	None	0.0	None	5.8016e-06	12
2014-03-11 19:00:00	172.74064913482633	2073695199.8277	1.0175235307079924e+22	4001388894643.72	1.7696708038714144	286382688548.925	4.682123629271717e+21	-2.1055877644860447e+24	975.1584304615276	-0.7645676130751689	18.978639393411665	0.15273004963726616	22.61508912628737	90.36380320114269	90.60645859812664	27.93018771358809	-0.00022526359519748146	7.309457484071768e+22	-0.07024588045754178	-0.0009673304714977027	-6.255662675672041e+23	-0.0265416362866988	0.22715163722037754	0.0	407.056244	350.404633	-17.88327	51.241322	-10.620633	59.592674	0.0		True	0.0	None	0.0	None	0.0	None	0.0	None	0.0	None	0.0	None	0.0	None	0.0	None	4.1236e-06	12
2014-03-11 19:12:00	171.52652538267404	2085878532.6594	1.0295765495933728e+22	3962238263485.959	2.5665570229717574	564533143096.0106	4.6250458585815303e+21	-2.115316728819284e+24	1019.1370288878802	-0.7636137588189498	18.944482185192808	0.21033258840541608	22.57849906898532	92.33314513827264	92.59488847759235	28.468321578191713	-0.0003373941137073429	6.4148966182101e+22	-0.14302258723135758	-0.0013953669124934375	-6.305943409831429e+23	-0.023157304304970944	0.2276399124763101	0.0	407.058228	350.294281	-17.883004999999994	51.36196500000001	-10.620825	59.701244	0.0		True	0.0	None	0.0	None	0.0	None	0.0	None	0.0	None	0.0	None	0.0	None	0.0	None	3.6843e-06	12
2014-03-11 19:24:00	169.12093850790637	2061250375.2854	1.038097301049941e+22	3869436268076.411	0.4664678511662932	231133346839.2125	4.528878222994162e+21	-2.0757035954418888e+24	1060.04023607362	-0.7582667478534676	19.1375783689763	0.12205044751830756	22.63902072466001	92.26726077201107	92.70066787270193	28.551048556943165	-6.325845554194375e-05	7.953308238958886e+22	-0.060406730935056274	-0.00025741639430849547	-6.27834236687443e+23	-0.02905390339099782	0.22935154416529485	0.0	407.060242	350.183929	-17.874464	51.499146	-10.628518	59.783974	0.0		True	0.0	None	0.0	None	0.0	None	0.0	None	0.0	None	0.0	None	0.0	None	0.0	None	5.838e-06	12
2014-03-11 19:36:00	169.5045542336771	2027995340.7844	1.0274722663034937e+22	3860106445340.523	4.751724067909954	628650493775.395	4.436431302337884e+21	-2.0422715886152776e+24	1074.6953838057318	-0.7582876652861535	19.208503186118648	0.11112654535352133	22.657286545546288	93.2658077166394	93.90839241899175	28.74498153544079	-0.000660053350175018	8.590437946873838e+22	-0.16829045694057773	-0.0026651663824999875	-6.122775678473119e+23	-0.031895969031901616	0.2273363298095041	0.0	407.062225	350.073578	-17.874294	51.617519	-10.628305	59.86906800000001	0.0		True	0.0	None	0.0	None	0.0	None	0.0	None	0.0	None	0.0	None	0.0	None	0.0	None	7.716799999999999e-06	12
2014-03-11 19:48:00	171.42745948575566	2029198261.809	1.030460972767342e+22	3879070465648.7637	8.511808643211698	722898097524.7089	4.395896787239452e+21	-2.039351256016788e+24	1096.5569982211855	-0.7567545486671327	19.17114198973425	0.18371961560203506	22.598899820492715	94.4372462318324	94.7199673172327	29.88768155063909	-0.0012030824937401693	9.772989704568824e+22	-0.1968826944319048	-0.004776324593927032	-6.142689963626989e+23	-0.0362652308727567	0.22794055498345225	0.0	407.064209	349.963226	-17.872309	51.751339	-10.633281	59.937321	0.0		True	0.0	None	0.0	None	0.0	None	0.0	None	0.0	None	0.0	None	0.0	None	0.0	None	8.0486e-06	12
2014-03-11 20:00:00	179.29919659965165	2065251277.1371	1.0917087091835613e+22	4044412501880.882	6.4846440879044405	468696162347.2747	4.4265398345589153e+21	-2.0565603655604543e+24	1161.568965925944	-0.749818209781114	19.555909491985236	0.4097781545852762	22.969720733135503	96.65846097658184	96.73103914380407	30.836855127223128	-0.0009164279378044717	1.1058605308035914e+23	-0.12763083349834567	-0.0035899187051166397	-6.32578460928615e+23	-0.04031947602222555	0.23063696892277946	0.0	407.066223	349.852875	-17.863424	51.881744	-10.639311	59.994762	0.0		True	0.0	None	0.0	None	0.0	None	0.0	None	0.0	None	0.0	None	0.0	None	0.0	None	6.8485000000000014e-06	12
2014-03-11 20:12:00	182.97063494159755	2099020423.3169	1.1296037928945265e+22	4224442059617.3086	6.812947995401224	1238915988098.723	4.5360276807477184e+21	-2.0848918751750675e+24	1158.1929977134475	-0.7479185999390748	19.73964933204118	0.4493464052287581	23.011673166013022	95.29715111320117	95.46621280181117	30.77096315308919	-0.0009276889971951556	1.2803612781129022e+23	-0.32510014279677363	-0.0037138743085843094	-6.422894286445504e+23	-0.045930727916621394	0.23041013107078426	0.0	407.068237	349.742554	-17.861667999999995	52.016586	-10.644518	60.053368000000006	0.0		True	0.0	None	0.0	None	0.0	None	0.0	None	0.0	None	0.0	None	0.0	None	0.0	None	4.9048e-06	12
2014-03-11 20:24:00	186.43468203959893	2106544650.5110002	1.15448118916115e+22	4231715967675.5713	1.3985431290329675	502554837967.8275	4.493169161841701e+21	-2.0815506387195408e+24	1215.6472498076696	-0.744052877568671	19.87018524462012	0.27968116347364	23.022194907337862	97.41926576711764	97.61149743804563	31.71253422225637	0.00019557308474800272	1.2780119951418264e+23	-0.13543114819380575	0.0007613345565130568	-6.489067563357785e+23	-0.045682698506796966	0.2319525311295786	0.0	407.070282	349.632233	-17.85148	52.13798900000001	-10.650197	60.123299	0.0		True	0.0	None	0.0	None	0.0	None	0.0	None	0.0	None	0.0	None	0.0	None	0.0	None	3.8887e-06	12
2014-03-11 20:36:00	193.5498216466159	2155423361.5593004	1.2120349834736766e+22	4514088038970.117	2.498550065203688	403323948507.4492	4.649237820879238e+21	-2.1205944570660768e+24	1203.383947281376	-0.7408195235112142	20.386056395778148	0.6460970464135021	23.40221190084004	95.97085864606608	96.1404666874192	31.605915958694357	0.00032949361271313304	1.29489585952442e+23	-0.10248273517068132	0.0013318028320193742	-6.664632414192806e+23	-0.045236567060386035	0.2328257434139782	2.3067238362067566	407.072327	349.521912	-17.842985000000006	52.276245	-10.657866	60.223587	0.0		True	0.0	None	0.0	None	0.0	None	0.0	None	0.0	None	0.0	None	0.0	None	0.0	None	3.0227999999999997e-06	12
2014-03-11 20:48:00	190.8544018328505	2138228024.5091	1.197844441086859e+22	4485008737312.102	4.720435026853067	460238103383.6482	4.6806237560060217e+21	-2.1089692901410352e+24	1165.9273058106664	-0.7426834588079461	20.277622469720843	0.6980351602895553	23.30307185111179	93.13948801591265	93.11348816053874	31.077439098657926	0.0006101906704825575	1.3009701465351384e+23	-0.11464467537499305	0.0025336084200228287	-6.594347974929951e+23	-0.04581427585273101	0.23222306676057075	2.301087016447777	407.074402	349.411591	-17.844254	52.399025	-10.664483	60.30481700000001	0.0		True	0.0	None	0.0	None	0.0	None	0.0	None	0.0	None	0.0	None	0.0	None	0.0	None	2.5447999999999998e-06	12
2014-03-11 21:00:00	185.38269429908027	2097542934.4579	1.1581332221167084e+22	4358509485878.322	5.327956098146615	566070425802.467	4.664801547067448e+21	-2.0795677159460472e+24	1114.5951749250364	-0.7465341651867528	20.159041030574347	0.7029652351738241	23.191136733996053	91.21668627751959	91.33145266584322	30.28525108996601	0.0006811501020386878	1.1264399177906067e+23	-0.1394188164795299	0.002909042316680451	-6.442527525518766e+23	-0.04043753310905228	0.2312772443559423	2.293456834292421	407.076447	349.3013	-17.839154999999995	52.53678100000001	-10.664481	60.404377	0.0		True	0.0	None	0.0	None	0.0	None	0.0	None	0.0	None	0.0	None	0.0	None	0.0	None	2.2291e-06	10
2014-03-11 21:12:00	214.04823593762114	2326901511.1853	1.3830309838743784e+22	5322022471874.786	1.2950666652712588	1717993317717.7866	5.142419854177392e+21	-2.2527365597753787e+24	1164.491083528199	-0.7289871856462166	21.564726260321592	3.690036900369003	25.699159650055922	90.33443958686195	91.81550930433235	30.50926568751657	-0.0001448296427277185	1.212964458758941e+23	-0.3701770137410715	-0.000643983101033697	-6.973611660823241e+23	-0.03925161791522283	0.2256665794477126	2.940744175399919	407.078491	349.19101	-18.405066	52.659397	-10.6744	60.485252	0.0		True	0.0	None	0.0	None	0.0	None	0.0	None	0.0	None	0.0	None	0.0	None	0.0	None	2.0162e-06	12
2014-03-11 21:24:00	208.61398915549407	2405480657.0610003	1.343828381957297e+22	5136570518703.896	3.1428749557191846	1093970854533.4364	5.36416789841543e+21	-2.3498795746005284e+24	1076.702636916872	-0.7355820882800509	20.944041871474788	3.2985741647158973	25.718952405701213	89.06169505851351	90.13350936504676	29.964162167060906	0.0003344195526409007	1.2811562517696925e+23	-0.22430156332218348	0.0015056016065244985	-7.028995017144124e+23	-0.0401039951696247	0.22002841716260715	2.9285813798298275	407.080597	349.08075	-18.428465	52.798088	-10.68569	60.567799	0.0		True	0.0	None	0.0	None	0.0	None	0.0	None	0.0	None	0.0	None	0.0	None	0.0	None	1.5892e-06	12
2014-03-11 21:36:00	229.34512589652002	2579651939.6921	1.4899583655214137e+22	5468789844133.895	2.203391058567324	1551646873572.0786	5.544891268819029e+21	-2.483536410250558e+24	1172.0842430511066	-0.7249312196901674	21.349913498316006	4.220643543669033	26.14344565276672	89.658241088861	91.4367720512406	30.45261074737132	0.00023019129320594689	1.1579173400250145e+23	-0.3123506959637479	0.0009903499481617511	-7.61121433487418e+23	-0.033798998321109434	0.22216734445004446	3.4027238519900944	407.082703	348.97049	-18.654394	52.922588	-10.687425	60.734703	0.0		True	0.0	None	0.0	None	0.0	None	0.0	None	0.0	None	0.0	None	0.0	None	0.0	None	1.6595e-06	12
2014-03-11 21:48:00	254.63899911902408	2802911230.9068003	1.6477109540081891e+22	6186331676673.625	3.661835801277815	2225481745777.457	6.012965163627282e+21	-2.6648857109904936e+24	1176.9161496349448	-0.7159072320868383	21.286315273257586	4.354012521343199	26.62054736928676	89.81647394364391	91.57882562538269	31.32095373439527	-0.00034735683943064067	1.1425791457459474e+23	-0.4067646510658144	-0.0015227398510902642	-8.29920972975653e+23	-0.030694775025346045	0.22295381155125826	3.4265508289430118	407.084808	348.86026	-18.872	53.047047	-10.697954	61.185326	0.0		True	0.0	None	0.0	None	0.0	None	0.0	None	0.0	None	0.0	None	0.0	None	0.0	None	6.8833000000000015e-06	12
2014-03-11 22:00:00	260.6001128922113	2875595629.6769	1.6912047865510777e+22	6263105017155.357	1.2405003599866038	2066320789562.12	6.146416327332431e+21	-2.7203406516800126e+24	1183.2884640124519	-0.7123327236423902	21.336929188495947	4.618100724772346	26.750915564633146	89.79350163446053	91.51746848666843	31.232420504698272	-0.00011527742402997898	1.0668534704672322e+23	-0.36994411862170745	-0.0005038612653653268	-8.5522175407293e+23	-0.02793601006829536	0.22394343922360047	3.632668273327208	407.086914	348.750031	-18.895237	53.186573	-10.708777	61.32693100000001	0.0		True	0.0	None	0.0	None	0.0	None	0.0	None	0.0	None	0.0	None	0.0	None	0.0	None	6.9752e-06	12
2014-03-11 22:12:00	263.8030468265794	2995507744.9492	1.7475721860496646e+22	6294692632005.643	11.49549863599314	2181471906575.0525	6.340813853084148e+21	-2.8457769016819493e+24	1197.4692821212336	-0.7153487690848684	20.8322487974242	4.368004368004368	26.255455010706	89.66524467647233	91.26348947185429	31.111156346928677	-0.0010460914219667977	7.07170839814378e+22	-0.38248255036505135	-0.004474401252448055	-8.733948868254652e+23	-0.01777629825777768	0.21954706176944072	3.619996982048189	407.089081	348.639832	-19.113663	53.31216	-10.709014	61.824257	0.0		True	0.0	None	0.0	None	0.0	None	0.0	None	0.0	None	0.0	None	0.0	None	0.0	None	5.0199e-06	12
2014-03-11 22:24:00	270.99256218171627	3046770897.640201	1.7553060327646854e+22	6484468713106.647	17.940892447506553	1389594097422.0107	6.433871279207214e+21	-2.883556803878092e+24	1185.4012573195935	-0.7126497185684393	20.59179851971824	4.0	26.12409877695168	88.3688568666516	90.7071914705122	31.396036403475968	-0.0016091929722402505	6.131865001425072e+22	-0.2401162658142809	-0.006876747399848609	-8.748153160058216e+23	-0.015154450440123824	0.21620412953628987	3.597657563760339	407.091248	348.529633	-19.177881	53.427933	-10.720654	62.023735	0.0		True	0.0	None	0.0	None	0.0	None	0.0	None	0.0	None	0.0	None	0.0	None	0.0	None	3.6020999999999998e-06	12
2014-03-11 22:36:00	266.41303169296805	3104441568.3061004	1.7783744591451136e+22	6380820916431.902	20.889486850569753	1543577177348.6057	6.475935207530917e+21	-2.923826068418557e+24	1194.2323044422888	-0.709178349338357	20.669495153120124	4.468028181574957	26.693469992777338	88.5585225008968	91.08094021536085	31.097493610947264	-0.0018629703781833367	5.6590171599193546e+22	-0.2652179665602885	-0.007873845602909057	-8.785979744702817e+23	-0.013726030052532293	0.2131052417915789	3.5652620995405018	407.093414	348.419464	-19.200787	53.57836500000001	-10.730967	62.168274	0.0		True	0.0	None	0.0	None	0.0	None	0.0	None	0.0	None	0.0	None	0.0	None	0.0	None	2.7573000000000003e-06	12
2014-03-11 22:48:00	268.9993399437167	3140566184.1082	1.8021141934134188e+22	6287684482788.588	23.20885939912011	881278968256.398	6.481386635022044e+21	-2.9500259974649824e+24	1216.1397001704386	-0.7073028516329684	20.732431617043254	4.965047499551892	26.98813808816245	88.27683813655693	90.53243607430248	31.37634469862176	-0.002080019662943189	5.97033342103956e+22	-0.1182229248492419	-0.008656957339515717	-8.786299809684938e+23	-0.014314564880206698	0.21066169979629584	3.5773389588236784	407.095642	348.309326	-19.21796	53.704758	-10.737494	62.311459	0.0		True	0.0	None	0.0	None	0.0	None	0.0	None	0.0	None	0.0	None	0.0	None	0.0	None	2.1669999999999998e-06	12
2014-03-11 23:00:00	282.735746334909	3217344278.7301	1.948590488625077e+22	6681304740890.723	29.051434045058144	1690984660608.1628	6.579235862923454e+21	-2.953800464658463e+24	1286.7344834845067	-0.6913072385430232	21.12091073202972	5.305621327720775	27.519052284941157	88.89072882314278	91.74913404996576	32.35884853215395	-0.002548371407461241	4.139333246992234e+22	-0.2597987489639267	-0.010679733921180122	-9.09741444723438e+23	-0.009687692417363059	0.2129158192859242	3.3187189257733665	407.0979	348.199188	-19.260227	53.82004499999999	-10.748137	62.505863	0.0		True	0.0	None	0.0	None	0.0	None	0.0	None	0.0	None	0.0	None	0.0	None	0.0	None	1.7763e-06	12
2014-03-11 23:12:00	281.7692709859588	3236011192.0237	2.0047940922265538e+22	6515261325853.159	28.40406543888267	1743626073289.1204	6.51261082607031e+21	-2.948232028232742e+24	1352.1888766706834	-0.6860236026329051	21.46725239042453	5.956646363310641	27.48993929242189	89.66800354955816	92.47258022899904	32.41812828657041	-0.002544483153174117	4.86959107408592e+22	-0.1482599217460384	-0.010412826109467723	-9.20762596272565e+23	-0.0113310430793873	0.2142520898679643	3.4257875691832185	407.100159	348.089111	-19.283186	53.960663	-10.760458	62.653519	0.0		True	0.0	None	0.0	None	0.0	None	0.0	None	0.0	None	0.0	None	0.0	None	0.0	None	1.9085e-06	12
2014-03-11 23:24:00	271.58344142644216	3286889241.9904003	2.021860060419725e+22	6395522706082.006	22.21205470708943	1154052112941.0977	6.548845868315595e+21	-2.99500797858662e+24	1356.7726276667474	-0.6861205957464346	21.57558694380571	5.757062650387666	27.624135253770557	89.39183078765562	91.68178939385211	32.72386248018184	-0.001979507593537957	6.2860482026982e+22	-0.1250175719201156	-0.00801576593186964	-9.249085165475832e+23	-0.014400586471096629	0.21188550645666512	3.458943747616785	407.102417	347.979034	-19.306614	54.101677	-10.764865	62.800175	0.0		True	0.0	None	0.0	None	0.0	None	0.0	None	0.0	None	0.0	None	0.0	None	0.0	None	1.3888e-06	12
2014-03-11 23:36:00	282.33498060891367	3303174385.7468004	1.9817300736571404e+22	6633430623674.02	26.0642925876586	1440193419145.3394	6.572764826713949e+21	-3.023423357936374e+24	1327.713068847414	-0.6892152257261749	21.53969220306048	5.427529139603168	27.563177672437	89.01066434544373	91.82640869989092	32.66290023739133	-0.002319093565945244	5.891741484263817e+22	-0.11524657351649388	-0.009342421307749676	-9.257796528645944e+23	-0.013430728866792759	0.21103939372132047	3.5427562525676097	407.104736	347.868988	-19.376635	54.22948100000001	-10.776013	62.94769300000001	0.0		True	0.0	None	0.0	None	0.0	None	0.0	None	0.0	None	0.0	None	0.0	None	0.0	None	1.1705e-06	12
2014-03-11 23:48:00	288.42666449017014	3343796607.5343003	2.015491123006652e+22	6693292399811.459	25.90281975427773	1564366725511.5815	6.646007457562322e+21	-3.0413627815587723e+24	1335.1267009781184	-0.6848821160182389	21.49950182327087	5.929444884314242	27.566867242909325	88.76390180417302	90.89929108690245	33.23579395736266	-0.002278773621384511	5.4052800504535095e+22	-0.18964922273271287	-0.00919533732752912	-9.298059254278842e+23	-0.012172108046671164	0.20938227216911195	3.6338881611421066	407.107056	347.758972	-19.429029	54.359703	-10.782358	63.18034399999999	0.0		True	0.0	None	0.0	None	0.0	None	0.0	None	0.0	None	0.0	None	0.0	None	0.0	None	1.3033e-06	12
2014-03-12 00:00:00	289.17819513269336	3381365576.6199	1.9614501452846606e+22	6551991969838.228	24.436028828027005	1443024339022.4011	6.757626622538227e+21	-3.133129977996335e+24	1311.7919169448594	-0.6977081250497688	20.565094178031927	4.263256061817213	25.902818495618416	90.25169233982884	92.4029028643067	34.18765532341695	-0.0021705479506152962	6.463587659296851e+22	-0.11088120941049906	-0.008513871795560717	-9.232293541707648e+23	-0.014393586153571647	0.20559141376615647	3.6728404927129614	407.109436	347.64898700000015	-19.471476000000006	54.503002	-10.786272	63.434898	0.0		True	0.0	None	0.0	None	0.0	None	0.0	None	0.0	None	0.0	None	0.0	None	0.0	None	2.2413e-06	12
