Timestamp	TOTUSJH	TOTBSQ	TOTPOT	TOTUSJZ	ABSNJZH	SAVNCPP	USFLUX	TOTFZ	MEANPOT	EPSZ	MEANSHR	SHRGT45	MEANGAM	MEANGBT	MEANGBZ	MEANGBH	MEANJZH	TOTFY	MEANJZD	MEANALP	TOTFX	EPSY	EPSX	R_VALUE	CRVAL1	CRLN_OBS	LAT_MIN	LON_MIN	LAT_MAX	LON_MAX	QUALITY	NOAA_AR	IS_TMFI	BFLARE	BFLARE_label	CFLARE	CFLARE_label	MFLARE	MFLARE_label	XFLARE	XFLARE_label	BFLARE_loc	BFLARE_label_loc	CFLARE_loc	CFLARE_label_loc	MFLARE_loc	MFLARE_label_loc	XFLARE_loc	XFLARE_label_loc	XR_MAX	XR_QUAL
2014-02-05 19:12:00	87.70098129667284	561526013.3427	4.707167778117584e+21	1999963015395.0127	0.593125800075012	126054130025.49706	1.1528437718718792e+21	-4.4113841491934086e+23	1831.7501492395984	-0.5915514522273349	22.85800918303659	2.635658914728681	29.124405483295217	131.7935749787042	129.20590180201728	52.99916385409155	-0.000306524961279076	1.9436288781105682e+23	0.12744077751927585	-0.0013273524256278526	1.6382697689327127e+23	-0.26063395219106394	-0.21968634518702787	0.0	57.061272	78.10022	6.609295	-29.511141	15.091168	-12.530974	0.0		True	0.0	None	0.0	None	0.0	None	0.0	None	0.0	None	0.0	None	0.0	None	0.0	None	2.6758e-06	12
2014-02-05 19:24:00	90.08571215643093	553598054.1421	4.669451876844416e+21	2062156725788.667	3.6420533082524535	426153780304.81305	1.1267477850589965e+21	-4.31962508991842e+23	1868.244730860756	-0.5875420866468766	23.68643636287171	4.1976620616365565	29.265502293051792	130.48106980789592	127.972375352952	54.25502221456779	-0.001935203670697372	2.0222532423706293e+23	0.4429749190473221	-0.008288128798325299	1.5247451740788578e+23	-0.2750606511023138	-0.2073911375489224	0.0	57.063686	77.989838	6.604635000000001	-29.407246	15.087481	-12.4094	0.0		True	0.0	None	0.0	None	0.0	None	0.0	None	0.0	None	0.0	None	0.0	None	0.0	None	2.2107e-06	12
2014-02-05 19:36:00	94.84447735749585	547541995.8229	4.6301497492196027e+21	2139944811655.994	0.4505022977309458	89825451320.91347	1.110768581735692e+21	-4.3442939374858424e+23	1905.1600058759464	-0.5974330938423678	23.688207407740503	5.191256830601093	28.964469947093672	130.00509673548572	128.79443407617958	52.02727732468344	0.00024617611897865887	1.976917522108225e+23	-0.09602411076026916	0.0010301178054709524	1.4818242395298275e+23	-0.2718683331514682	-0.20378244490179684	0.0	57.066162	77.879463	6.599806	-29.30216	15.083628	-12.286675	0.0		True	0.0	None	0.0	None	0.0	None	0.0	None	0.0	None	0.0	None	0.0	None	0.0	None	2.3669e-06	12
2014-02-05 19:48:00	101.10066039453638	568389972.844	4.742690079063182e+21	2313216577792.671	2.876422318368923	68281908704.49224	1.1625852842704989e+21	-4.445063394525261e+23	1822.0329617614136	-0.5888695615843729	23.422099698957105	5.153061224489796	29.692035514222546	132.48843116350375	131.8630436677752	53.09265734849996	0.001467562407331083	2.060354778725722e+23	-0.06815230079115113	0.0063701255567522545	1.4431513941831552e+23	-0.2729500363821165	-0.1911846588823002	0.0	57.068611	77.76911199999998	6.59342	-29.196518	15.078136	-12.190456	0.0		True	0.0	None	0.0	None	0.0	None	0.0	None	0.0	None	0.0	None	0.0	None	0.0	None	3.5952999999999997e-06	12
2014-02-05 20:00:00	99.99749964354679	551134182.0376999	4.52850831360482e+21	2299498870355.891	0.2699969517127441	150404526545.53888	1.1278453836410118e+21	-4.350876208883249e+23	1813.7809377679928	-0.5944384495489153	23.328613237060765	3.8297872340425534	29.07238556988528	130.53888767060351	130.42103587648316	51.18600237854887	0.00014361539984720432	2.0594936407552025e+23	0.15259446199477286	0.0006145026364843115	1.3143355618024335e+23	-0.28137831275613395	-0.17957109235828558	0.0	57.07111	77.65876	6.58818	-29.089643	15.073834	-12.067356	0.0		True	0.0	None	0.0	None	0.0	None	0.0	None	0.0	None	0.0	None	0.0	None	0.0	None	4.9137e-06	12
2014-02-05 20:12:00	106.99492016057562	574490012.2243	4.7222784203357364e+21	2472660325403.658	1.6922596545513664	153364472241.996	1.1885102443378531e+21	-4.584692113564352e+23	1767.303580431708	-0.6009180341128614	23.389846960273648	4.025844930417495	28.950847737754607	128.1179565642035	129.021554802182	50.22278343828473	0.0008410833273118124	2.1001795432228323e+23	0.14911581256475756	0.0036799796456462213	1.374921081452913e+23	-0.2752716499028648	-0.18021163752361027	0.0	57.073582	77.54843100000002	6.5832770000000025	-28.98494	15.069865	-11.971816	0.0		True	0.0	None	0.0	None	0.0	None	0.0	None	0.0	None	0.0	None	0.0	None	0.0	None	4.6217e-06	12
2014-02-05 20:24:00	114.69595566351936	600951710.0333	5.009305064147969e+21	2655589776997.626	2.1224500060698754	41385380303.41809	1.2496115258470462e+21	-4.847492762231243e+23	1766.7176100142576	-0.607386493846692	23.400918548547487	4.6838407494145216	28.969834696017266	131.23252683698593	132.14737805323125	50.07618817451983	0.0009941217827025178	2.158196211417497e+23	-0.037920411500071576	0.0043944808354408615	1.3960201208399843e+23	-0.27042004891673416	-0.17492006860597029	0.0	57.076069	77.438118	6.577875	-28.878605	15.064254	-11.850899	0.0		True	0.0	None	0.0	None	0.0	None	0.0	None	0.0	None	0.0	None	0.0	None	0.0	None	4.0562e-06	12
2014-02-05 20:36:00	115.37864634736464	607386046.4514	5.116005977558207e+21	2776829497619.375	0.6243076073497518	143826694162.2533	1.2803754725862088e+21	-4.897490840915766e+23	1739.1810605229525	-0.607150429453449	23.29364359846713	4.469525959367946	28.939576199933143	131.01072795061782	131.20907215703826	51.73568175152809	-0.0002818544502707683	2.1445200158056484e+23	0.10913687132431384	-0.001279108200760426	1.497162918586691e+23	-0.2658598639307411	-0.18560588238113312	0.0	57.078575	77.327827	6.573038	-28.771641	15.059238	-11.727492	0.0		True	0.0	None	0.0	None	0.0	None	0.0	None	0.0	None	0.0	None	0.0	None	0.0	None	4.2217e-06	12
2014-02-05 20:48:00	116.94864359847212	624043572.4077001	5.343226559131413e+21	2779691304088.3613	0.624874655340423	1162590824.7698364	1.3127025943225528e+21	-5.043981714030954e+23	1770.0751228286608	-0.6086198799864662	23.79572418062461	6.071271447426309	28.858863083577	134.87584760754493	134.72369673675138	52.680546575962296	-0.0002749118589267149	2.166622778833868e+23	0.0010005614058146537	-0.001244957597674774	1.5881477539280003e+23	-0.26143030851235954	-0.1916300157686304	0.0	57.08115400000001	77.217552	6.5668440000000015	-28.643208	15.053926	-11.632159	0.0		True	0.0	None	0.0	None	0.0	None	0.0	None	0.0	None	0.0	None	0.0	None	0.0	None	3.6871e-06	12
2014-02-05 21:00:00																																	False	0.0	None	0.0	None	0.0	None	0.0	None	0.0	None	0.0	None	0.0	None	0.0	None	3.7020999999999997e-06	12
2014-02-05 21:12:00																																	False	0.0	None	0.0	None	0.0	None	0.0	None	0.0	None	0.0	None	0.0	None	0.0	None	2.9287e-06	12
2014-02-05 21:24:00	106.83790884929668	623999572.8569	5.066528078954439e+21	2587966808856.1016	5.808351002038312	236336694406.1525	1.326415535364784e+21	-5.0058818359025615e+23	1624.107899085565	-0.6040650971845164	22.83306342099258	3.8739889314601954	29.04025746033335	133.77795682089243	132.6368000769981	53.1719545856711	-0.0024726909331793576	2.014507933005676e+23	0.1968105459962538	-0.011605839686963932	1.7788584181154673e+23	-0.2430928196511548	-0.21465674149750968	0.0	57.088913	76.886864	6.555427000000001	-28.301712	15.06964	-11.295028	0.0		True	0.0	None	0.0	None	0.0	None	0.0	None	0.0	None	0.0	None	0.0	None	0.0	None	2.9422000000000012e-06	12
2014-02-05 21:36:00	99.44053528531065	597388305.6161001	4.649483285823108e+21	2359306326042.7183	6.792304545334775	559191007340.5123	1.2586100838680358e+21	-4.796938622382113e+23	1587.0355528051361	-0.6046372762449426	22.357595470845666	3.4451495920217585	28.92486492385913	130.97400458410124	130.02258856137908	52.91570654675692	-0.0030790138464799523	1.9188004013026498e+23	0.4958478910077835	-0.014171425965091966	1.739655734045152e+23	-0.2418580556540879	-0.21927749913852607	0.0	57.091537	76.77668800000002	6.550313	-28.193481	15.06329	-11.173142	0.0		True	0.0	None	0.0	None	0.0	None	0.0	None	0.0	None	0.0	None	0.0	None	0.0	None	2.1725e-06	12
2014-02-05 21:48:00	94.15685488427334	593268829.4888	4.437510513014449e+21	2203064962901.647	1.084817651252718	58785987600.525215	1.246388423023563e+21	-4.81277426300137e+23	1546.2228213193291	-0.6108455465955699	22.15581805571804	3.7019898195279963	28.76347952244361	131.05133035746834	130.41753617383594	51.77246168565614	-0.0005019979876227294	1.8451334721807462e+23	-0.0532115397106494	-0.002270289847190154	1.781831934936098e+23	-0.2341874982628308	-0.22615315881420825	0.0	57.094234	76.666534	6.546503	-28.090216	15.057267	-11.079621	0.0		True	0.0	None	0.0	None	0.0	None	0.0	None	0.0	None	0.0	None	0.0	None	0.0	None	2.1308e-06	12
2014-02-05 22:00:00	88.03549317889599	581460349.7468001	4.263319345434281e+21	1987610666559.0488	3.05814690073158	167555153182.83606	1.194806389385996e+21	-4.762109015799693e+23	1617.241496045484	-0.6166897789050377	21.016417440962908	1.7128463476070532	28.110710017127428	136.15738069552006	135.41750669438704	54.31514541445305	-0.001540628161577622	1.8090798390332262e+23	0.16511122155234015	-0.0065064117135885035	1.74024468912965e+23	-0.2342745708368908	-0.2253604671836373	0.0	57.096912	76.556412	6.542381	-27.980051	15.051996	-10.958903	0.0		True	0.0	None	0.0	None	0.0	None	0.0	None	0.0	None	0.0	None	0.0	None	0.0	None	2.3844e-06	12
2014-02-05 22:12:00	87.55596659800287	572949900.9527	4.20881693919992e+21	2008250485672.9082	6.432620955424004	478762476080.2091	1.1871741914042002e+21	-4.609839292706791e+23	1572.0159986040546	-0.6058381105323835	21.185203237464574	2.728174603174604	28.63585152590473	133.7326996902849	132.59113367634322	53.1321612659994	-0.003190784204079367	1.827115024959748e+23	0.4645161034613942	-0.013982973918095372	1.7193143200907606e+23	-0.24012462130691226	-0.22595714795155844	0.0	57.099663	76.446312	6.537091	-27.858112	15.045537	-10.865654	0.0		True	0.0	None	0.0	None	0.0	None	0.0	None	0.0	None	0.0	None	0.0	None	0.0	None	2.2018000000000002e-06	9
2014-02-05 22:24:00	91.06497322197492	594790566.8051	4.298574086067945e+21	2110436731869.661	3.766621086076591	90534740277.32332	1.240048309786244e+21	-4.830638277580176e+23	1538.3890308857085	-0.6115443246198793	21.30756268213693	2.376425855513308	28.239423695457397	133.09511576237324	131.35679653075306	54.14442892304177	-0.0017902191473748055	1.8534321847138854e+23	0.0841651352366706	-0.007859150434364111	1.757405018546689e+23	-0.234638958352598	-0.2224822069867524	0.0	57.10240200000001	76.33625	6.533055	-27.74641	15.040411	-10.743665	0.0		True	0.0	None	0.0	None	0.0	None	0.0	None	0.0	None	0.0	None	0.0	None	0.0	None	1.6525999999999999e-06	10
2014-02-05 22:36:00	91.59558258639	584929708.5413	4.1868277676795353e+21	2047605038003.1355	8.099172173362327	436700929986.0016	1.204202029114868e+21	-4.815669915605484e+23	1577.1017419106408	-0.6199268419331739	20.83479538142611	1.8009004502251125	27.996207812644066	136.15197884448344	134.75650493781015	54.00784629574027	-0.004051611892627478	1.85400762973784e+23	0.4272921645671768	-0.017095096065450913	1.6577205385308362e+23	-0.2386685788199165	-0.21340031112368527	0.0	57.105171	76.226219	6.529905	-27.64002	15.012743	-10.650117	0.0		True	0.0	None	0.0	None	0.0	None	0.0	None	0.0	None	0.0	None	0.0	None	0.0	None	1.9911000000000003e-06	12
2014-02-05 22:48:00	89.4284602601302	590955600.5688	4.247251354590458e+21	2061751705421.5908	6.4361173496902575	344769522773.96625	1.2139362070539091e+21	-4.761835544178928e+23	1570.0174967774576	-0.6067462451579827	21.266767419192977	1.8163966617574867	28.64118994734131	135.6124183765608	133.85054291854942	54.449764350665426	-0.003159605964501845	1.880388151011271e+23	0.3310412641361923	-0.013556631874740814	1.691611909610094e+23	-0.2395963572199292	-0.2155427596980201	0.0	57.107967	76.116219	6.5259870000000015	-27.521042	15.007695000000002	-10.528781	0.0		True	0.0	None	0.0	None	0.0	None	0.0	None	0.0	None	0.0	None	0.0	None	0.0	None	3.2554e-06	12
2014-02-05 23:00:00	83.3977893858312	566984045.4967	4.0084329232852415e+21	1887761522294.4	9.273949106975444	531621964546.6673	1.1537558909460256e+21	-4.586692177520195e+23	1570.394324575831	-0.6091387618064997	21.220024261422022	1.873048907388137	28.777008454818176	134.41965247126672	132.62081624212922	54.51539056809292	-0.0048251556227759855	1.8865252600428024e+23	0.5402550357554742	-0.020329671875487298	1.567885568291317e+23	-0.2505412651521017	-0.20822410503240013	0.0	57.110847	76.006248	6.519184	-27.414215	15.000725	-10.434688	0.0		True	0.0	None	0.0	None	0.0	None	0.0	None	0.0	None	0.0	None	0.0	None	0.0	None	2.5594e-06	12
2014-02-05 23:12:00	78.34276345405618	551337200.3912001	3.8636808311950226e+21	1759785498278.2512	14.558948310256815	1077900765040.7112	1.1078698670944686e+21	-4.4073110446006384e+23	1602.9213105965628	-0.6019272351107925	20.84345814221161	1.5977961432506886	28.67622032631813	134.68840413946876	134.01198464524705	53.20924081870886	-0.00802145912410844	1.893256828020772e+23	1.1615189289133367	-0.03296855541624092	1.4831723405647686e+23	-0.2585710053846303	-0.20256383475422485	0.0	57.113716	75.89631700000002	6.514003	-27.308405	14.993371	-10.313974	0.0		True	0.0	None	0.0	None	0.0	None	0.0	None	0.0	None	0.0	None	0.0	None	0.0	None	1.5703999999999996e-06	12
2014-02-05 23:24:00	83.59628142157689	565216051.3672	4.147372886620053e+21	1858929862925.6519	7.225969154624312	508153010613.8297	1.1314536447958438e+21	-4.484406332206373e+23	1685.3309499914099	-0.5974175850714266	21.27811231826773	2.1046950890447924	28.75713844704236	139.5356511887544	137.93485565796436	56.42664207743484	-0.0038996055880325476	1.919609660518443e+23	0.5363304995465862	-0.016006381040097332	1.525169562315477e+23	-0.2557325279447788	-0.20318478060275494	0.0	57.116673	75.786423	6.509882	-27.184931	14.968706	-10.21966	0.0		True	0.0	None	0.0	None	0.0	None	0.0	None	0.0	None	0.0	None	0.0	None	0.0	None	2.1553999999999997e-06	12
2014-02-05 23:36:00	85.4634188887708	566305415.6863	4.096801820485741e+21	1901576448822.5728	6.770854672187097	333789060922.02954	1.1136084416604285e+21	-4.4024278111190656e+23	1674.7224000026956	-0.5853680678062417	21.62316593954041	2.7144408251900107	29.89356645008186	139.14181830344384	137.50078704450232	57.36572481814373	-0.0036758168687226365	1.9565288370629863e+23	0.3543927489326809	-0.015083171413164882	1.4871117836293945e+23	-0.26014952523835466	-0.19773356628277244	0.0	57.11961	75.676559	6.506655	-27.076378	14.959208	-10.099114	0.0		True	0.0	None	0.0	None	0.0	None	0.0	None	0.0	None	0.0	None	0.0	None	0.0	None	1.6680000000000004e-06	12
2014-02-05 23:48:00	90.06708757344944	583736109.8275001	4.345589497065244e+21	1975512929894.956	16.122951929774878	1230039801612.5566	1.1301478463159725e+21	-4.543647637330033e+23	1795.9235566731522	-0.5861052421088069	21.569815659473466	2.1405049396267843	29.545473780688987	145.21297214870717	143.7990887089229	60.16355162660102	-0.008849040576166235	2.040920106729043e+23	1.3202671468463802	-0.03482779622752374	1.4523528258886832e+23	-0.2632673280937059	-0.18734542653600286	0.0	57.122578	75.566727	6.502394000000002	-26.970774	14.951823	-10.004645	0.0		True	0.0	None	0.0	None	0.0	None	0.0	None	0.0	None	0.0	None	0.0	None	0.0	None	1.599e-06	12
2014-02-06 00:00:00	88.15004790615801	558051106.9097	4.0852509102376847e+21	1946990805282.1528	9.717471386519486	615412740539.0553	1.0933398537930227e+21	-4.308602079911128e+23	1731.086488919531	-0.5813663247656587	21.412290437852523	1.6882386043894204	29.35371218692601	142.08871709540037	140.34406913533687	58.80637468893734	-0.0054684701105905936	1.928694311575556e+23	0.6772645900267288	-0.02202301659358604	1.4389125975718718e+23	-0.2602416985186624	-0.1941546963479676	0.0	57.12558000000001	75.456932	6.497048	-26.841101	14.926719	-9.884116	0.0		True	0.0	None	0.0	None	0.0	None	0.0	None	0.0	None	0.0	None	0.0	None	0.0	None	2.0286e-06	12
2014-02-06 00:12:00	91.33687691566804	580805715.2173	4.476070862378176e+21	2016372391458.636	8.748434009472216	438082913248.5048	1.1455157474075395e+21	-4.537253623884673e+23	1816.940038725736	-0.5882334685389189	21.971649572155858	2.587601078167116	29.01395920157929	143.50893536076902	141.93987615217713	59.08743416841464	-0.004716136932330036	2.01719059513308e+23	0.4437132858387521	-0.018967718300054302	1.456408982793607e+23	-0.2615192181968662	-0.1888165349739545	0.0	57.128677	75.347176	6.494626	-26.736094	14.916125	-9.791043	0.0		True	0.0	None	0.0	None	0.0	None	0.0	None	0.0	None	0.0	None	0.0	None	0.0	None	2.0738e-06	12
2014-02-06 00:24:00	88.93028524723873	558088099.7104	4.155514314692173e+21	1912847667554.5288	9.057261648179184	641479969516.3362	1.074078304701668e+21	-4.351824100456541e+23	1849.3194372208154	-0.5871594855759179	21.547320357700844	2.0094562647754137	29.26189247863984	145.12292008986913	143.7334613351983	61.040515734477	-0.0053529915178363975	1.9354918160632328e+23	0.7413751660001235	-0.020450483420775826	1.3672904284354612e+23	-0.2611416162102841	-0.18447839941619426	0.0	57.131752	75.23745	6.49019	-26.609726	14.908617	-9.669352	0.0		True	0.0	None	0.0	None	0.0	None	0.0	None	0.0	None	0.0	None	0.0	None	0.0	None	5.1973e-06	12
2014-02-06 00:36:00	90.5613509926628	575791901.9448001	4.147052424093303e+21	1949480209554.212	15.397625208956521	1116766082456.4468	1.1059577585871885e+21	-4.45959267284857e+23	1785.4071945384217	-0.5831995835457104	21.29288737061221	1.943967981703831	29.484973455163146	143.94656012247083	143.46803007593113	59.941079994244575	-0.008803673647202127	1.971370068954812e+23	1.2485771671502726	-0.03378177931201036	1.3391236069724173e+23	-0.25780430805456306	-0.1751227942088473	0.0	57.134918000000006	75.127769	6.486002	-26.503296	14.883514000000002	-9.574986	0.0		True	0.0	None	0.0	None	0.0	None	0.0	None	0.0	None	0.0	None	0.0	None	0.0	None	5.4124e-06	12
2014-02-06 00:48:00	86.05436950859924	550611173.8687	3.9412916465285543e+21	1825221015276.368	12.443108106884342	782077317149.6318	1.0440254724584003e+21	-4.239529544420049e+23	1814.0232631343679	-0.579775987462297	21.34217090474545	2.750611246943765	29.655373120870863	146.1585124912963	145.50486656880574	61.3398360364194	-0.0076058118012740485	1.9428371396938946e+23	0.9347529516405442	-0.028610031843406505	1.189254403413052e+23	-0.2656922918787068	-0.16263624037959346	0.0	57.138069	75.01812	6.483015	-26.392477000000003	14.871498999999998	-9.45461	0.0		True	0.0	None	0.0	None	0.0	None	0.0	None	0.0	None	0.0	None	0.0	None	0.0	None	4.6082e-06	12
2014-02-06 01:00:00	89.32234908785735	547196816.1800001	3.954951458080434e+21	1896603037728.8647	8.07570948570653	380108796913.2484	1.0449055967795155e+21	-4.214468094352113e+23	1805.9593423811648	-0.5799448224168942	21.312791635182176	2.607640994542147	29.51361461852233	144.27974793171882	144.16695173306402	59.78017872151587	-0.004897337468590983	1.9087400975438985e+23	0.4507180168665635	-0.01868207886683624	1.2543704313264344e+23	-0.2626580418045077	-0.17261149467841555	0.0	57.141243	74.908493	6.479638	-22.01449	14.853217	-9.362319	0.0		True	0.0	None	0.0	None	0.0	None	0.0	None	0.0	None	0.0	None	0.0	None	0.0	None	2.8898000000000007e-06	12
2014-02-06 01:12:00	92.55981061222192	571979598.7014	4.074214642741003e+21	2019180958940.152	9.567846247562436	609315475353.9149	1.1039584373348397e+21	-4.412361789365577e+23	1731.2815950919528	-0.5808688677954883	21.50074981805728	2.3702031602708806	29.57501652383547	143.43778703056552	143.48082532457232	59.16289788525111	-0.005399461764990088	2.0328768942373798e+23	0.6660946816407924	-0.021162540279977247	1.2146682057468831e+23	-0.2676196912885196	-0.15990595946141065	0.0	57.144463	74.798912	6.475807	-21.888268	14.850221	-9.241345	0.0		True	0.0	None	0.0	None	0.0	None	0.0	None	0.0	None	0.0	None	0.0	None	0.0	None	1.8566e-06	12
2014-02-06 01:24:00	88.98930345247106	563812296.1261001	4.009383699325398e+21	1889577767751.66	12.154112737622096	868255556964.7937	1.0647817148115517e+21	-4.387694566549036e+23	1809.960632008778	-0.585988913674573	21.23789412861777	3.0575539568345325	29.48398717931364	145.85421501803566	146.25045310127103	60.88475911802463	-0.007286638331907735	2.024907702915663e+23	1.0177557769383216	-0.02718432575206965	1.1162796746142505e+23	-0.2704321021269435	-0.14908228090240289	0.0	57.14777	74.689369	6.496745	-21.76314	14.872188	-9.147888	0.0		True	0.0	None	0.0	None	0.0	None	0.0	None	0.0	None	0.0	None	0.0	None	0.0	None	2.1744999999999997e-06	12
2014-02-06 01:36:00	84.77738470015458	553836990.7153	3.742613822657621e+21	1770349524500.0989	7.2632441987846255	389518217130.8223	1.0367596118312781e+21	-4.304860593125762e+23	1737.447299002218	-0.5852812428466512	20.900739552035887	2.4044389642416766	29.748794435478786	147.07618033517062	148.41075643745322	60.092127596433365	-0.00447795573291284	1.9945816134558082e+23	0.4695220100774439	-0.01654521296523099	1.0875353401262211e+23	-0.27117979326593034	-0.14785938400076198	0.0	57.151054	74.57985699999998	6.494473	-21.656746	14.869267	-9.028038	0.0		True	0.0	None	0.0	None	0.0	None	0.0	None	0.0	None	0.0	None	0.0	None	0.0	None	2.4104e-06	12
2014-02-06 01:48:00	88.21607403242224	561203464.894	3.8575738917852036e+21	1856878701111.0889	4.460706635012653	129752996914.44125	1.0571118720940152e+21	-4.3343154896314415e+23	1736.2240840872591	-0.5815507761610922	21.031881925367593	2.271368798565452	29.879428122082953	146.41960531899406	147.07313714776967	59.658595911322244	-0.002666292071137271	2.036075094500583e+23	0.15163083402440686	-0.01005148374071068	1.0817861598568038e+23	-0.2731875550733777	-0.14514715931731748	0.0	57.154434	74.470383	6.490689	-21.530756	14.865951999999998	-8.934756	0.0		True	0.0	None	0.0	None	0.0	None	0.0	None	0.0	None	0.0	None	0.0	None	0.0	None	1.9787000000000002e-06	12
2014-02-06 02:00:00	82.55166255203766	530628008.8439	3.5312695923123143e+21	1778351244953.6694	3.7180254276927727	129141990290.21553	1.0010505742508744e+21	-4.146157694202493e+23	1680.7837256474884	-0.5883599257647611	20.890723735711475	1.9595448798988624	29.63836998111094	142.83540267803028	144.37067126298544	60.17761272326383	-0.002350205706506177	1.907751233238838e+23	0.159593095122263	-0.008822735504385046	1.0057222451892259e+23	-0.2707191710376888	-0.14271687407039627	0.0	57.157784	74.36093100000002	6.4877660000000015	-21.404594	14.861438	-8.841269	0.0		True	0.0	None	0.0	None	0.0	None	0.0	None	0.0	None	0.0	None	0.0	None	0.0	None	1.9879e-06	12
2014-02-06 02:12:00	85.89664165155874	533827157.8636001	3.5371932040181333e+21	1804161216727.568	12.386674026914273	779070832079.0609	9.960875453614148e+20	-4.139709703895445e+23	1702.979853048988	-0.58392450335666	20.63123874379512	1.278772378516624	29.912006551884733	146.27790636443345	147.05916737646876	61.91001699932367	-0.007919868303653627	1.8795436626054266e+23	0.9738239275051764	-0.029298781749377632	1.051047197302272e+23	-0.26511801025354004	-0.14825489142671522	0.0	57.161167000000006	74.251518	6.485352	-21.295929	14.857465	-8.720701	0.0		True	0.0	None	0.0	None	0.0	None	0.0	None	0.0	None	0.0	None	0.0	None	0.0	None	1.7238e-06	12
2014-02-06 02:24:00	84.05679941665497	544065226.8399	3.717962037144178e+21	1717193083235.086	11.965590175414624	590882958290.0547	1.0091654095872494e+21	-4.2910065416412814e+23	1813.197413757823	-0.5938758199534401	21.111527542375406	3.0440414507772022	29.218722116315703	147.0466290160315	147.9383487649831	60.953446408996726	-0.0077497345695690546	1.8998827585345293e+23	0.7481377293434438	-0.027596796309040786	1.066749451211952e+23	-0.26294400162077874	-0.14763825197550606	0.0	57.16464200000001	74.142143	6.483269	-21.170773	14.854976	-8.629038000000001	0.0		True	0.0	None	0.0	None	0.0	None	0.0	None	0.0	None	0.0	None	0.0	None	0.0	None	1.5669e-06	12
2014-02-06 02:36:00	85.57206357116587	529873619.21	3.6021803239967283e+21	1798287351970.956	9.555560211281607	674014240590.0112	9.874078637302696e+20	-4.10029759824565e+23	1756.7323540561374	-0.5826805575754416	21.03070245684149	2.1373056994818653	29.9039692179987	147.60864294865337	148.2579433337709	61.4087534598206	-0.006188834333731612	1.870254795965882e+23	0.8533682305803864	-0.02278875418899021	1.0468528659486176e+23	-0.2657761006878642	-0.14876500961573505	0.0	57.168091	74.032791	6.504579	-21.044943	14.852175	-8.536608	0.0		True	0.0	None	0.0	None	0.0	None	0.0	None	0.0	None	0.0	None	0.0	None	0.0	None	2.2881e-06	12
2014-02-06 02:48:00	77.00959472619209	511431726.6409	3.3615372519655494e+21	1650959171152.0315	10.29973462086517	637874564421.1608	9.629914727558856e+20	-3.9220783775596505e+23	1654.3752709645032	-0.5774523252286675	20.66269260590841	1.96078431372549	30.060428109494897	144.58318025042885	145.52690393691663	60.98758426170421	-0.006731852693375928	1.9112356570616284e+23	0.8149783515638023	-0.02553360420312806	9.855498345031303e+22	-0.2813935286313365	-0.14510368961995732	0.0	57.17161899999999	73.92347	6.50277	-20.935722	14.874106	-8.444847	0.0		True	0.0	None	0.0	None	0.0	None	0.0	None	0.0	None	0.0	None	0.0	None	0.0	None	3.4262e-06	12
2014-02-06 03:00:00	76.94695544656382	509806214.6698	3.3699621436008783e+21	1657813028900.7544	12.343207453109873	807372779998.4208	9.658085831688288e+20	-3.933574462398785e+23	1643.482826160083	-0.5809913872827999	20.97960847628182	2.3963730569948183	29.98216329598037	143.51340215955491	144.56296338140675	60.447346902830496	-0.007994305345278415	1.8382075913645522e+23	1.0221545123579812	-0.030628335421683164	9.565046776777425e+22	-0.271504401106312	-0.14127633401595435	0.0	57.175121	73.814171	6.499751	-20.811583	14.870379000000002	-8.354032	0.0		True	0.0	None	0.0	None	0.0	None	0.0	None	0.0	None	0.0	None	0.0	None	0.0	None	2.9362e-06	12
2014-02-06 03:12:00	82.70683778683507	543512413.7953	3.594575835243725e+21	1777763918278.393	6.846577797942928	365551673049.14624	1.0345130021942333e+21	-4.25339882155342e+23	1640.4053742797753	-0.5892697073699655	20.74532180819368	2.3030303030303028	29.73866242698916	144.20393332079766	144.4129934162755	61.08372165046856	-0.004149441089662379	1.888182606181475e+23	0.4330543696767735	-0.015852452837239368	1.0962039832008984e+23	-0.26159052054264137	-0.15186908811026276	0.0	57.17865	73.704903	6.497458	-20.68606	14.86657	-8.261817	0.0		True	0.0	None	0.0	None	0.0	None	0.0	None	0.0	None	0.0	None	0.0	None	0.0	None	2.4373e-06	12
2014-02-06 03:24:00	76.65052413079542	522379266.9909	3.4477059644569766e+21	1628671521702.4482	7.412748883493808	367211220036.9506	9.710612586850525e+20	-4.02414597007407e+23	1711.3235750780814	-0.5800631649865586	20.70382467822481	2.5049439683586026	29.91497746543972	145.11698257111343	145.20597671091076	62.528530501041864	-0.004886452790701257	1.8486645315774528e+23	0.473146927580911	-0.017961760585801324	1.102181758918643e+23	-0.2664769635991792	-0.15887471384568894	0.0	57.182213	73.595665	6.493857	-20.557667	14.862507	-8.169531	0.0		True	0.0	None	0.0	None	0.0	None	0.0	None	0.0	None	0.0	None	0.0	None	0.0	None	2.3244e-06	12
2014-02-06 03:36:00	77.58576897084241	524368676.89330006	3.4621077628943e+21	1659642348371.3926	6.412238583703432	527863451941.5626	9.810453366545264e+20	-4.079235199640512e+23	1696.11084434339	-0.5857732319388749	20.570901522187558	2.407286922576448	29.678314501186524	148.98567387279638	148.84458734354058	62.83512854898528	-0.004171918401889026	1.868192218362015e+23	0.6712769409324055	-0.01542275092279644	1.0871429628311235e+23	-0.2682701389048157	-0.15611241219268554	0.0	57.185852	73.48645	6.51719	-20.451817	14.859506	-8.077835	0.0		True	0.0	None	0.0	None	0.0	None	0.0	None	0.0	None	0.0	None	0.0	None	0.0	None	2.5309e-06	12
2014-02-06 03:48:00	73.88171620984963	508692307.05140007	3.2973633131374324e+21	1605446041955.4385	8.209929949682063	603073907375.6084	9.72997584492245e+20	-3.97357963977748e+23	1594.6512132245016	-0.5881854409462639	20.406759209948454	1.7983301220295438	29.64425053674105	141.76438843244188	141.37295876381995	59.696007944116424	-0.005272915831523482	1.7681383807182084e+23	0.7570499628061925	-0.020324181606873708	1.1224221449744406e+23	-0.2617270439746344	-0.16614549703768194	0.0	57.189461	73.377258	6.5158559999999985	-20.325487	14.85665	-7.984707000000001	0.0		True	0.0	None	0.0	None	0.0	None	0.0	None	0.0	None	0.0	None	0.0	None	0.0	None	2.451e-06	12
2014-02-06 04:00:00	75.13920947705681	522246320.4662	3.3543300656620225e+21	1635653476898.8992	9.275781962207748	583404352989.1846	1.002291419063593e+21	-4.128888206604492e+23	1587.5343840439236	-0.5953128546484828	20.16026733616091	0.8799497171590195	29.263621374712766	144.2231977869615	144.01352208331338	60.597358379007304	-0.005830158367195315	1.82527048704394e+23	0.7166895000965908	-0.02226687513291427	1.1087284087347438e+23	-0.2631718103700746	-0.15985908094531656	0.0	57.193138	73.268089	6.514112	-20.197985	14.853387	-7.893005	0.0		True	0.0	None	0.0	None	0.0	None	0.0	None	0.0	None	0.0	None	0.0	None	0.0	None	2.5729000000000004e-06	12
2014-02-06 04:12:00	79.40868359094867	530759780.0124999	3.575551766338515e+21	1762933018538.0908	9.725345887561836	570286779026.7778	1.0279507951955927e+21	-4.119360393193418e+23	1607.369664310694	-0.5844122256268078	20.96399605774535	2.686567164179104	30.106297510328325	143.6660511548142	142.18965501790862	60.257697285696594	-0.00580617664929065	1.868213145277441e+23	0.6654253088718451	-0.023129639379219784	1.189696166254171e+23	-0.2650427488648198	-0.1687817811447398	0.0	57.196785	73.158936	6.512329	-20.07135	14.855574	-7.80207	0.0		True	0.0	None	0.0	None	0.0	None	0.0	None	0.0	None	0.0	None	0.0	None	0.0	None	3.9577e-06	12
2014-02-06 04:24:00	78.46567478780851	526384762.41490006	3.368091267880917e+21	1668159796615.1482	13.335128844772115	891964217592.6637	1.0031052131855882e+21	-4.202577927877277e+23	1603.1157120768764	-0.6011736885431973	19.968203122373847	1.0745891276864727	29.370798927110506	144.83498154870668	145.16155842814737	59.770199261016906	-0.008429284984053173	1.7902019033491717e+23	1.1019234454353648	-0.03164356881051003	1.1528755360986006e+23	-0.2560862165897003	-0.16491745075568076	0.0	57.20045500000001	73.049805	6.511583	-19.965948	14.874857999999998	-7.739378	0.0		True	0.0	None	0.0	None	0.0	None	0.0	None	0.0	None	0.0	None	0.0	None	0.0	None	6.9001e-06	12
2014-02-06 04:36:00	79.16368468347952	522765327.3939	3.397737749444453e+21	1725964035611.672	13.836624180124707	784775821348.1732	1.0130036062581043e+21	-4.124190251420064e+23	1558.1317293019065	-0.5940450552243792	20.30135147961948	1.5225334957369063	29.706255752172908	139.9629118047665	140.1523875780567	57.626800420406454	-0.00842668951286523	1.819559581726272e+23	0.934056100390858	-0.033208768692823035	1.1173749725439283e+23	-0.2620879024284707	-0.1609457946423892	0.0	57.20414	72.940689	6.5335449999999975	-19.836298	14.872367	-7.676900999999999	0.0		True	0.0	None	0.0	None	0.0	None	0.0	None	0.0	None	0.0	None	0.0	None	0.0	None	7.0787e-06	12
2014-02-06 04:48:00	78.06702255433186	498572649.9969001	3.2410591094798617e+21	1663713521142.0598	11.619130627521402	633995842809.1366	9.661333940415264e+20	-3.9874533770554803e+23	1592.9996888677326	-0.6022193029905808	20.11693417976994	1.370757180156658	28.98840925239113	143.38700155183926	142.5946308181162	60.527409744766466	-0.0075842889213586185	1.7306793476532976e+23	0.8087581389243759	-0.029090636212028963	1.0863285660543674e+23	-0.26138199293846204	-0.16406662849839154	0.0	57.20789	72.83158900000002	6.533028	-19.707108	14.870423	-7.645216	0.0		True	0.0	None	0.0	None	0.0	None	0.0	None	0.0	None	0.0	None	0.0	None	0.0	None	5.4222e-06	12
2014-02-06 05:00:00	80.2629735858157	498488537.8801	3.347970221431419e+21	1694138093854.401	14.168947316796007	801470694113.3341	9.625170131261117e+20	-4.005907421920681e+23	1675.06845497139	-0.6051084325358198	20.279154112103004	1.1295681063122924	28.65191423262618	144.76072745008668	144.87922416231922	60.28019758163024	-0.009414582934748178	1.7121823695581167e+23	1.0407180020541478	-0.035416694729019066	1.1263423475798925e+23	-0.2586320353259757	-0.1701385430709735	0.0	57.211601	72.722504	6.532032	-19.578682	14.871158	-7.856894	0.0		True	0.0	None	0.0	None	0.0	None	0.0	None	0.0	None	0.0	None	0.0	None	0.0	None	3.6774e-06	12
2014-02-06 05:12:00	69.2244553960049	447996813.9104	2.8899087661065306e+21	1483387043135.6724	9.13904209786134	541642452376.7716	8.751860309180887e+20	-3.674337746283665e+23	1570.031495864132	-0.6175777082489138	19.69307587656611	1.1544011544011543	28.655872334576546	142.63527891560224	142.53219959445542	58.52218834261048	-0.006593825467432425	1.4851725810895533e+23	0.7636999743147294	-0.0252226431104116	1.0850394117531968e+23	-0.2496257944472044	-0.1823719536801003	0.0	57.215385	72.613434	6.532721	-19.425346	14.868778	-10.213851	0.0		True	0.0	None	0.0	None	0.0	None	0.0	None	0.0	None	0.0	None	0.0	None	0.0	None	2.6785000000000003e-06	12
2014-02-06 05:24:00	71.42900837788609	446406162.5404	3.045809776690775e+21	1548649194575.3108	9.0112268140914	454019546878.9275	8.751036425736727e+20	-3.6083820412715075e+23	1635.8454477078533	-0.6086531001211489	20.175477630685123	1.2838801711840229	28.66473307746643	145.13582477613667	144.82165629210652	60.122391840317384	-0.006427408569252068	1.455748708067648e+23	0.6328368844285788	-0.025096972522878496	1.054322912775512e+23	-0.24555214886573096	-0.1778406227638384	0.0	57.21911600000001	72.504364	6.556309	-19.295397	14.866663	-10.119072	0.0		True	0.0	None	0.0	None	0.0	None	0.0	None	0.0	None	0.0	None	0.0	None	0.0	None	1.8059e-06	12
2014-02-06 05:36:00	69.16224541585805	429906704.6053	2.9411541806708357e+21	1535104411765.32	6.294060716675304	250255217832.84256	8.617323153953579e+20	-3.4371083185079336e+23	1559.6132814938182	-0.6020138438932113	20.604772589665977	1.971830985915493	28.90827635077059	140.24271826741892	140.18710723654672	56.89434622047961	-0.004432437124419228	1.4509360256838646e+23	0.34439149281936865	-0.01827765353812232	1.0143676584707017e+23	-0.2541332693420225	-0.17766777087257912	0.0	57.222851	72.395302	6.5542	-19.16531	14.863260999999998	-9.994478	0.0		True	0.0	None	0.0	None	0.0	None	0.0	None	0.0	None	0.0	None	0.0	None	0.0	None	3.055e-06	12
2014-02-06 05:48:00	66.86106244994947	424682033.1327	2.9552144418173244e+21	1455687118047.7754	6.353473679342308	288055804077.7186	8.534950907283495e+20	-3.439550215261466e+23	1597.443124179795	-0.6098531715990265	20.53215024458397	1.866475233309404	28.38241092195061	138.3806141222474	138.61442456556472	56.03078345187298	-0.00456100048768292	1.417616464526315e+23	0.4040881384682269	-0.01858622008194795	9.866027609316432e+22	-0.2513520207282835	-0.17493066976979152	0.0	57.226604	72.28625500000003	6.552746	-19.037649	14.887241	-9.832583	0.0		True	0.0	None	0.0	None	0.0	None	0.0	None	0.0	None	0.0	None	0.0	None	0.0	None	2.0408e-06	12
2014-02-06 06:00:00	66.94869429842872	415143055.4582	2.8648585534326587e+21	1509102130076.915	9.766821581849005	606279428113.0007	8.410449216223961e+20	-3.3183331677581286e+23	1534.2824589026252	-0.6018796596291819	20.70636062914752	1.3513513513513509	28.933217668992768	136.2840985053414	135.57036943237404	55.98060048459592	-0.006946530285810102	1.4767962887371283e+23	0.842619503398582	-0.029373492400876475	9.652435427874685e+22	-0.26786148426658823	-0.17507598713624198	0.0	57.230415	72.177216	6.57644	-18.908382	14.883476000000002	-9.708427	66560.0		False	0.0	None	0.0	None	0.0	None	0.0	None	0.0	None	0.0	None	0.0	None	0.0	None	1.7403e-06	12
2014-02-06 06:12:00	70.02662688595856	428473822.054	2.9808738299857564e+21	1640403047743.2715	8.472161906194938	606757051650.1243	8.713107587157459e+20	-3.3601301278879364e+23	1505.4054796206478	-0.5904992425537564	20.65165906324419	2.548625083836352	29.69113122165237	140.69682393237002	140.39444629805843	57.50531781514782	-0.005686014702144253	1.546869734413124e+23	0.7951980371314004	-0.024911251923116884	9.737838622895809e+22	-0.27184227149989226	-0.1711298703346665	0.0	57.234169	72.068169	6.575456	-18.777895	14.882298	-9.582974	66560.0		False	0.0	None	0.0	None	0.0	None	0.0	None	0.0	None	0.0	None	0.0	None	0.0	None	1.7984e-06	12
2014-02-06 06:24:00	79.5404366797774	446200941.9328	3.2437904201957067e+21	1819412953022.5469	9.067339288682607	605128036822.4631	9.141672800695187e+20	-3.547250941928388e+23	1562.7204710156113	-0.5986168294271038	21.137774171076	2.8150991682661544	29.34761786780589	137.9374544620089	137.59754868420924	56.94746217008205	-0.005801240747717599	1.588193990988821e+23	0.7565209496841034	-0.02542348011291889	9.901517679131636e+22	-0.2680158993443153	-0.1670932002452578	0.0	57.23798000000001	71.959129	6.5745070000000005	-18.626518	14.940879	-9.458907	0.0		True	0.0	None	0.0	None	0.0	None	0.0	None	0.0	None	0.0	None	0.0	None	0.0	None	1.6916e-06	12
2014-02-06 06:36:00	86.30439871852623	452490246.4481	3.5098406550035366e+21	2018700582776.6453	9.388474159007435	552587772197.5077	9.368339578988432e+20	-3.565096961718345e+23	1623.3809996548496	-0.5932661681172624	22.37266972449032	4.361179361179361	29.71589246150576	139.94482766479766	139.0986112074429	57.94021369762879	-0.005766876019046336	1.6628665277854817e+23	0.6632460655229248	-0.02604518546295112	9.178609882804282e+22	-0.2767168645405523	-0.15274083067827465	0.0	57.24174100000001	71.85009000000002	6.600131	-18.498306	14.970956	-9.085143	0.0		True	0.0	None	0.0	None	0.0	None	0.0	None	0.0	None	0.0	None	0.0	None	0.0	None	1.7156e-06	12
2014-02-06 06:48:00	89.60170860721975	456075916.3254	3.7340607281588354e+21	2111132616553.7725	8.899465884463241	448450222369.3952	9.589706689236352e+20	-3.609895476485958e+23	1657.8417371834548	-0.5959983097718805	23.15108076889899	5.4245283018867925	29.552325011534833	134.5424681338655	134.74205580531634	55.368408779104975	-0.005247326582820308	1.7326144018400928e+23	0.5166685976820256	-0.024452562170583208	8.940514913167087e+22	-0.2860568295424245	-0.1476090322128916	0.0	57.245491	71.741043	6.598269	-18.36972	14.998267000000002	-8.96157	0.0		True	0.0	None	0.0	None	0.0	None	0.0	None	0.0	None	0.0	None	0.0	None	0.0	None	1.4516e-06	12
2014-02-06 07:00:00	89.29661676002016	435490995.4649	3.449080709203741e+21	2157936338906.3416	8.544114808706494	629175612087.2764	9.257962726563064e+20	-3.403446799990788e+23	1562.6432790991162	-0.5884740243974929	22.81596938524724	5.114320096269554	29.958985028965788	133.58667014541297	134.55275828104638	55.27393705147296	-0.005140863302470815	1.6396987745636944e+23	0.7397089630626074	-0.024702321743874392	8.309486764463096e+22	-0.2835126251039817	-0.14367543858697995	0.0	57.249298	71.631996	6.596097	-18.240477	14.996298	-8.83735	0.0		True	0.0	None	0.0	None	0.0	None	0.0	None	0.0	None	0.0	None	0.0	None	0.0	None	1.3377000000000001e-06	12
