Timestamp	TOTUSJH	TOTBSQ	TOTPOT	TOTUSJZ	ABSNJZH	SAVNCPP	USFLUX	TOTFZ	MEANPOT	EPSZ	MEANSHR	SHRGT45	MEANGAM	MEANGBT	MEANGBZ	MEANGBH	MEANJZH	TOTFY	MEANJZD	MEANALP	TOTFX	EPSY	EPSX	R_VALUE	CRVAL1	CRLN_OBS	LAT_MIN	LON_MIN	LAT_MAX	LON_MAX	QUALITY	NOAA_AR	IS_TMFI	BFLARE	BFLARE_label	CFLARE	CFLARE_label	MFLARE	MFLARE_label	XFLARE	XFLARE_label	BFLARE_loc	BFLARE_label_loc	CFLARE_loc	CFLARE_label_loc	MFLARE_loc	MFLARE_label_loc	XFLARE_loc	XFLARE_label_loc	XR_MAX	XR_QUAL
2014-02-20 02:36:00	91.46736947992756	571392701.7574	3.793035897184259e+21	1975057632297.4448	0.5706794040160157	104923397786.79416	1.0600656841493112e+21	-4.156204298017099e+23	1668.2865540043802	-0.5477087197649825	21.380260105034594	2.9789719626168223	31.850977627832336	135.02680110875755	140.69518272429377	60.6958698975226	0.00033334077337384094	-1.696357742570893e+23	0.11916922879273835	0.0012906196596772345	9.5873488152767e+22	0.2235477038244228	-0.1263430324650013	0.0	238.037506	249.683304	-24.147593	-16.603951000000002	-17.088129000000002	-7.714293	0.0		True	0.0	None	0.0	None	0.0	None	0.0	None	0.0	None	0.0	None	0.0	None	0.0	None	1.0565e-06	12
2014-02-20 02:48:00	95.94382662638523	579990928.6881001	3.77543055427001e+21	2002967830674.1768	2.4553973767139894	31414719020.166737	1.0611143294026733e+21	-4.2746730172641504e+23	1690.16031181275	-0.5549694841703204	20.967492589113718	2.318668252080856	31.101688200737357	139.87531009357158	144.8619475090951	63.352124511270894	-0.001459808190674191	-1.7356209204182414e+23	-0.03631525761991505	-0.005445135752135555	9.82499987784918e+22	0.2253310704771053	-0.12755537305805778	0.0	238.039078	249.573883	-24.14983	-16.504837	-17.069578	-7.61222	0.0		True	0.0	None	0.0	None	0.0	None	0.0	None	0.0	None	0.0	None	0.0	None	0.0	None	1.1666e-06	12
2014-02-20 03:00:00	95.73310192911656	581781486.0018001	3.8870032536285385e+21	1985673645602.0469	0.36188663530202014	9828174367.547668	1.0678192055540962e+21	-4.240192918564295e+23	1721.684198156112	-0.5487988978198804	21.134479720482727	2.411764705882353	31.351433120247112	140.39883257712367	144.3760463843984	62.86240011605203	0.0002128744913541295	-1.765987716561699e+23	-0.011240681794129292	0.0008032442267788891	1.074285600694332e+23	0.2285679286358188	-0.13904243625887694	0.0	238.040802	249.464508	-24.125296	-16.405621	-17.072445000000002	-7.5118649999999985	0.0		True	0.0	None	0.0	None	0.0	None	0.0	None	0.0	None	0.0	None	0.0	None	0.0	None	1.3711e-06	12
2014-02-20 03:12:00	90.72576684845447	558802723.7595	3.7490832409864e+21	1863454589940.016	5.0829804281465325	90003334946.15283	1.020655630845616e+21	-4.089781664512929e+23	1751.2476617336467	-0.5510983769074095	21.133431059857624	2.2952853598014893	31.495798860116512	141.47587432304252	145.72684250432124	64.08309509047233	-0.0031532136651033077	-1.7080418745517984e+23	-0.10855484969783907	-0.011728718836962672	9.858276156946883e+22	0.2301587668904298	-0.13284034295374714	0.0	238.042542	249.355133	-24.12834	-16.306108	-17.076211999999998	-7.388652	0.0		True	0.0	None	0.0	None	0.0	None	0.0	None	0.0	None	0.0	None	0.0	None	0.0	None	1.6183e-06	12
2014-02-20 03:24:00	91.05316732827144	558645347.1809001	3.787719398850029e+21	1847426181126.6208	5.307808502955142	162401415553.16833	1.0204730658073716e+21	-4.146620508511307e+23	1796.0348764657865	-0.5589147500404981	21.290997114823195	2.0151133501259446	31.048801068624268	141.37214469971366	145.1448497224621	63.61535951606317	-0.003342448679442784	-1.744080244519368e+23	-0.19883010462391465	-0.012189522385815795	9.405708008132284e+22	0.23508111531191864	-0.12677767183007774	0.0	238.044205	249.245804	-24.130615	-16.243938	-17.079288000000002	-7.288696000000002	0.0		True	0.0	None	0.0	None	0.0	None	0.0	None	0.0	None	0.0	None	0.0	None	0.0	None	3.0229000000000007e-06	12
2014-02-20 03:36:00	92.91666632259034	561118546.4467	3.759137397418459e+21	1892635815573.7424	4.097031724218129	216694948776.2581	1.0171251664119218e+21	-4.177211452880394e+23	1801.770333225684	-0.5605563205770416	20.752115733335298	2.1642266072565244	30.91127631306102	143.74055471957374	148.00045868425983	65.50770727719011	-0.00260791325539028	-1.7243831207696862e+23	-0.26816551079495793	-0.009357616699777587	9.770612353805916e+22	0.2314017062213318	-0.13111566346629122	0.0	238.04599	249.13649	-24.131451	-16.145198999999998	-17.082527	-7.1873960000000015	0.0		True	0.0	None	0.0	None	0.0	None	0.0	None	0.0	None	0.0	None	0.0	None	0.0	None	3.2963e-06	12
2014-02-20 03:48:00	88.4481867059932	549409271.878	3.584860940271471e+21	1861910397595.0007	1.4834991060058451	54132556453.29709	9.996532580632872e+20	-4.0634907169038713e+23	1732.5765279410834	-0.5569174856749487	20.656276470603817	1.7971758664955069	31.1313569293992	144.46532857496254	147.9157408122649	65.02394969381052	-0.000952181711171916	-1.645046524734544e+23	-0.06754752473990294	-0.0034686118546800176	1.0016613206411612e+23	0.22546013715801674	-0.13728164847743662	0.0	238.047745	249.027191	-24.15943	-16.044983	-17.085148	-7.064925	0.0		True	0.0	None	0.0	None	0.0	None	0.0	None	0.0	None	0.0	None	0.0	None	0.0	None	3.1132e-06	12
2014-02-20 04:00:00	90.68943072506028	554887760.2061	3.6661097393823705e+21	1882214349569.4243	0.6693667896291983	44752622554.050934	9.990059520990486e+20	-4.09530758116047e+23	1790.2287762842661	-0.5557363787598465	21.00026980406911	1.7509727626459144	31.242845269224766	145.24526405746838	147.71795925875873	65.49388896306488	-0.00043409000624461625	-1.5524299214826978e+23	-0.056420978885969635	-0.0015507900449848026	1.1361957343141304e+23	0.21066593064024647	-0.15418263230211274	0.0	238.04953	248.917923	-24.162121	-15.945224	-17.087904	-6.965753	0.0		True	0.0	None	0.0	None	0.0	None	0.0	None	0.0	None	0.0	None	0.0	None	0.0	None	2.5269999999999997e-06	12
2014-02-20 04:12:00	82.8373977862445	550712814.5455	3.662669445695993e+21	1778596990673.932	2.144187921120275	124139467875.38628	1.00155394681697e+21	-3.939782797772966e+23	1726.9522630298425	-0.5386846753869929	20.913452939766408	1.3775829680651221	31.937706844801674	146.6136883155859	148.86099274822132	65.08870115288296	-0.0013426348911210234	-1.4783582023098876e+23	-0.15111243701857435	-0.005060786664729715	1.1870209808455368e+23	0.202135231609002	-0.16230082838723436	0.0	238.051361	248.808655	-24.165298	-15.846420000000002	-17.091133	-6.86448	0.0		True	0.0	None	0.0	None	0.0	None	0.0	None	0.0	None	0.0	None	0.0	None	0.0	None	2.3380000000000003e-06	12
2014-02-20 04:24:00	83.69168190109049	550452026.8536	3.4827334253053157e+21	1769140941054.353	3.502448086464507	315226557831.5447	9.986912194272866e+20	-3.948680992673717e+23	1653.5015313906185	-0.5401571441016403	20.120172168387967	0.5044136191677175	31.944244178715426	145.99406333205468	148.13816468976592	65.35215621765273	0.002208353144050761	-1.4632106241287726e+23	0.3863705279493268	0.008262608826950162	1.1771410559715293e+23	0.20015890709201306	-0.16102621411506626	0.0	238.053116	248.699417	-24.169453	-15.749381	-17.095312	-6.7620210000000025	0.0		True	0.0	None	0.0	None	0.0	None	0.0	None	0.0	None	0.0	None	0.0	None	0.0	None	2.286e-06	12
2014-02-20 04:36:00	79.07045381179239	553870552.8554001	3.597492306845543e+21	1704952387661.8118	6.258567601540004	356397709275.24744	1.009279812656569e+21	-3.9209205050486784e+23	1669.048113565231	-0.5330491601586895	20.61968423489828	1.355514479359211	31.860984935508966	143.92465156803954	145.54101572479289	65.89531066132591	0.0038561722745163295	-1.472819158283841e+23	0.4268647269448221	0.014741462964619529	1.2019346241351097e+23	0.2002297711412241	-0.163403017514867	0.0	238.054977	248.590179	-24.176243	-15.650132	-17.099626999999998	-6.6442710000000025	0.0		True	0.0	None	0.0	None	0.0	None	0.0	None	0.0	None	0.0	None	0.0	None	0.0	None	2.3687e-06	12
2014-02-20 04:48:00	82.70568621891574	556284851.0702	3.576025483475812e+21	1740463230386.8914	9.392596803482133	671023871243.0684	1.0090152678409944e+21	-3.983133528639355e+23	1678.7408212340695	-0.5391567447655541	20.64966846874187	1.4962593516209477	31.85928545605553	146.3667911114199	147.54433565510834	65.81558128597031	0.0058557336680063144	-1.4731737399830336e+23	0.8132001300772248	0.02193994792164464	1.2612229711904358e+23	0.19940871989663714	-0.1707190749899021	0.0	238.05682400000003	248.480972	-24.204275	-15.549437	-17.102095000000002	-6.5400050000000025	0.0		True	0.0	None	0.0	None	0.0	None	0.0	None	0.0	None	0.0	None	0.0	None	0.0	None	1.985e-06	12
2014-02-20 05:00:00	80.36602223333145	544354744.2014999	3.524741385023168e+21	1716486328238.8225	9.322791491265377	559443934032.5264	1.0088310707945741e+21	-3.890247430102756e+23	1631.2751785735636	-0.5381244630543128	20.200931128875613	1.5980331899200986	31.57372596483828	142.9143761862145	143.6088800492956	64.42117811090505	0.005730050086825677	-1.4935793298395216e+23	0.6683800942661133	0.022269090236567247	1.2137180667959069e+23	0.20660165949333545	-0.16788941956234754	0.0	238.058685	248.37178	-24.240076	-15.447034	-17.105282	-6.440243	0.0		True	0.0	None	0.0	None	0.0	None	0.0	None	0.0	None	0.0	None	0.0	None	0.0	None	2.0766e-06	12
2014-02-20 05:12:00	76.73746603258634	540719826.3248	3.5036443688804014e+21	1636651714392.7974	5.511583542441908	340482592881.8132	1.0057469055229522e+21	-3.931401802688543e+23	1631.5391150041162	-0.5474729059710506	20.445648980115088	2.1645021645021645	31.397869463042717	141.52277420462028	142.4903529084907	62.67945412643033	0.003408524144985719	-1.4416031487601306e+23	0.4092893314860813	0.013173799291766515	1.1491022458433489e+23	0.2007524808502132	-0.1600198548414712	0.0	238.060608	248.262604	-24.24317000000001	-15.34674	-17.108515	-6.321332	0.0		True	0.0	None	0.0	None	0.0	None	0.0	None	0.0	None	0.0	None	0.0	None	0.0	None	1.7028e-06	12
2014-02-20 05:24:00	77.99761822649761	536718600.5358	3.0940467965626297e+21	1613833784237.077	6.01779938830905	360510980451.36896	9.863440359156818e+20	-4.086470634772235e+23	1523.7259201111149	-0.5733095798625588	19.134526429786177	0.9810333551340744	30.271816826132284	142.64967462104823	145.3566376782983	62.107194952644775	0.0039357746162910715	-1.3398989530533553e+23	0.4582981763610912	0.014253019126996088	1.0158906799918537e+23	0.18798052757232567	-0.14252393103636746	0.0	238.062424	248.153427	-24.246429	-15.231511	-17.111914000000002	-6.218848	0.0		True	0.0	None	0.0	None	0.0	None	0.0	None	0.0	None	0.0	None	0.0	None	0.0	None	1.5015000000000004e-06	12
2014-02-20 05:36:00	79.48751288569937	543161292.5266	3.173694982030985e+21	1660025278582.202	3.5761340115733837	195707031094.77008	1.0214501974803133e+21	-4.212402169206684e+23	1483.3962212688643	-0.5839673125386904	19.459881834449142	1.48975791433892	29.996882304947682	136.48531861996426	138.9743386135423	61.233108692632726	0.0022198224776991825	-1.3637486334983971e+23	0.2361240630595784	0.008313210024350304	1.079545564386308e+23	0.18905712049624945	-0.14965791410093734	0.0	238.064362	248.044266	-24.248552	-15.12127	-17.115154	-6.116849	0.0		True	0.0	None	0.0	None	0.0	None	0.0	None	0.0	None	0.0	None	0.0	None	0.0	None	1.274e-06	12
2014-02-20 05:48:00	76.42545224837917	523871452.4447	3.2124292145529907e+21	1646628648013.0735	3.556500260396444	160320978902.74316	9.879127746597576e+20	-3.994628370057928e+23	1536.796201329125	-0.5741681379556589	19.87511028841188	1.3341804320203303	30.29551817230719	140.8345755901461	142.94150854297143	61.29431300864168	0.00225953002566483	-1.3371428286277996e+23	0.1979737757222709	0.008625355221028409	1.0521004064058993e+23	0.19219430118923755	-0.15122371227732184	0.0	238.066254	247.935104	-24.249611	-15.019219	-17.11735	-6.014978	0.0		True	0.0	None	0.0	None	0.0	None	0.0	None	0.0	None	0.0	None	0.0	None	0.0	None	1.1447e-06	12
2014-02-20 06:00:00	80.73564821191934	519024320.0318	3.048691799528085e+21	1665645811725.363	3.7736733991747657	306033660116.4408	9.798395568698576e+20	-4.120195809438386e+23	1500.4084671543308	-0.5977472165304154	19.17957631109432	1.30718954248366	29.589080397964352	140.92155625230674	144.10043967032092	62.23251615106676	0.0024664532020750103	-1.3467181391298296e+23	0.388770352474444	0.0091011972803883	9.685793584443592e+22	0.19537834033805387	-0.14051895644684145	0.0	238.068161	247.825958	-24.250599	-14.900769	-17.120068	-5.893363	66560.0		False	0.0	None	0.0	None	0.0	None	0.0	None	0.0	None	0.0	None	0.0	None	0.0	None	1.0212999999999999e-06	12
2014-02-20 06:12:00	85.1384685652867	541927765.5715001	3.332111579010811e+21	1839512061919.3247	2.3435320783956497	162578271678.9957	1.0512927999240992e+21	-4.3012967392167e+23	1476.7726663128478	-0.5976480278509888	19.86130180287697	2.413184226015303	29.794337075442897	137.3550868396208	140.6355637746842	58.358996399686305	0.001379359669450059	-1.468243870954819e+23	0.18598526625123804	0.005413503077194703	8.997332965685245e+22	0.2040066303447476	-0.12501435331894148	0.0	238.070114	247.716812	-24.25209	-14.794997	-17.148585999999998	-5.793283	66560.0		False	0.0	None	0.0	None	0.0	None	0.0	None	0.0	None	0.0	None	0.0	None	0.0	None	1.3250999999999998e-06	12
2014-02-20 06:24:00	92.75589000638399	564714101.534	3.2595646563584065e+21	2000849925159.6868	8.873680822095507	785011841431.5121	1.0921038940402528e+21	-4.540820908795154e+23	1402.5199183315106	-0.6054708333484283	19.05132106932946	2.2857142857142856	29.40605393410429	140.85174934628256	145.1944225758534	58.40875452491265	0.005070674755483146	-1.5456374179580597e+23	0.8718507949465445	0.01957504397426889	7.547128547232142e+22	0.2060945353940179	-0.1006330419688988	0.0	238.072021	247.607666	-24.252174	-14.688442000000002	-17.150423	-5.672935	0.0		True	0.0	None	0.0	None	0.0	None	0.0	None	0.0	None	0.0	None	0.0	None	0.0	None	9.8862e-07	12
2014-02-20 06:36:00	97.61189167387634	555285859.7357	3.332380495295894e+21	2126752768817.6309	15.110570881376152	1187833447191.8042	1.085442377596804e+21	-4.444291886856762e+23	1408.1028882186945	-0.602661523390103	19.846098612360507	2.581369248035915	30.01481641907469	139.0663859066588	142.62865256891843	59.850764760597826	0.008479557172489422	-1.5624300986705625e+23	1.2955288980628967	0.03395880844152597	7.470800277387939e+22	0.2118709858459164	-0.10130666461014397	0.0	238.073914	247.49852	-24.253269	-14.571267	-17.153238	-5.570257	0.0		True	0.0	None	0.0	None	0.0	None	0.0	None	0.0	None	0.0	None	0.0	None	0.0	None	9.5388e-07	12
2014-02-20 06:48:00	102.67587071760008	549200476.9956	3.2957287434740926e+21	2308419749058.984	3.8008043451663087	553432546212.6643	1.0863235111542912e+21	-4.431578250534411e+23	1362.7900171219442	-0.6075960560581841	20.09597961818401	3.5145524437122457	30.153897847440845	138.53737836068404	142.82364799925412	57.9083766273437	0.002088354035805665	-1.5478489596149885e+23	0.590676642694963	0.008611462093653753	6.131596932870007e+22	0.2122194103471869	-0.08406788514455334	0.0	238.075867	247.38937400000003	-24.254633	-14.461264000000002	-17.155764	-5.468562	0.0		True	0.0	None	0.0	None	0.0	None	0.0	None	0.0	None	0.0	None	0.0	None	0.0	None	1.0412999999999999e-06	12
2014-02-20 07:00:00	102.15882914561294	537009907.2036	3.439725320569241e+21	2313991827352.64	8.845282748076471	963120795327.7964	1.0799153455756563e+21	-4.277715222124743e+23	1391.7616324452365	-0.5998146112598213	21.126151644897803	5.051047823750672	30.74558201259159	133.2151400623262	138.26357720582791	55.13563763642429	0.004752972997354362	-1.6537187302648243e+23	1.0058332615197791	0.02059158414273524	5.249592101455155e+22	0.23188188222454684	-0.07360896838857242	0.0	238.077728	247.280228	-24.257627	-14.355488	-17.159605	-5.348049	0.0		True	0.0	None	0.0	None	0.0	None	0.0	None	0.0	None	0.0	None	0.0	None	0.0	None	1.1703e-06	12
2014-02-20 07:12:00	102.92697544900044	521497686.6139	3.308936410144931e+21	2337919240853.46	5.328277653902241	610477939723.1995	1.0520331567661736e+21	-4.146927234663706e+23	1381.1452178070047	-0.5987720018146233	20.871930903371197	3.4922394678492235	30.469353474913248	131.39102886954882	137.35410169809583	55.08278156402536	0.002953590717240711	-1.5979782940889826e+23	0.607362110024422	0.012781385178903124	4.6252747569471905e+22	0.2307309986078332	-0.0667840275086116	0.0	238.079681	247.171082	-24.288843	-14.238658	-17.162935	-5.2443620000000015	0.0		True	0.0	None	0.0	None	0.0	None	0.0	None	0.0	None	0.0	None	0.0	None	0.0	None	1.2502e-06	12
2014-02-20 07:24:00	94.169653814012	510713147.5085	3.120099533710916e+21	2059817416993.057	11.283188080529163	1032734865056.8828	9.979248398792311e+20	-4.0225820813409506e+23	1426.4690206384835	-0.5930828575139799	19.950492053046187	3.278688524590164	30.14912183472257	135.91744201828857	141.9615654239017	57.75181244249397	0.006850751718596943	-1.5410234369950163e+23	1.218658082540054	0.02773616553041096	4.1141383038037695e+22	0.22720595006587085	-0.06065817557200132	0.0	238.081573	247.06192	-24.317701	-14.127191	-17.162722	-5.143353	0.0		True	0.0	None	0.0	None	0.0	None	0.0	None	0.0	None	0.0	None	0.0	None	0.0	None	1.5987e-06	12
2014-02-20 07:36:00	96.42141418078488	517039334.3474	3.0991534335557365e+21	2042098671697.6729	14.042683328844733	1282298885607.1982	9.873961619254224e+20	-3.994563793849205e+23	1460.3393207818021	-0.5817457961770883	19.549113494872536	2.1902377972465583	30.50147684899651	141.11243275238502	147.76187161443934	59.996504813838406	0.008787661657599958	-1.5724979205955733e+23	1.5595438606084329	0.034341544642291916	3.8918782763155975e+22	0.2290097497534724	-0.056679125514674425	0.0	238.083466	246.952759	-24.319637	-14.008101000000002	-17.191929000000002	-5.023731	0.0		True	0.0	None	0.0	None	0.0	None	0.0	None	0.0	None	0.0	None	0.0	None	0.0	None	2.7504000000000004e-06	12
2014-02-20 07:48:00	90.57317650964998	501737551.9938	3.0366854677515526e+21	1942252423186.776	4.9007996693143685	396838236499.9271	9.325357829457728e+20	-3.889293779543082e+23	1553.3866379149872	-0.5836892655908262	20.20579451252597	2.717391304347826	30.77671707927935	146.3155587018764	153.1266796274986	61.292632281051795	0.0033293476014363914	-1.5096162269822425e+23	0.2525703465008152	0.01233531846368248	3.790620273757625e+22	0.2265570144086099	-0.05688807503719138	0.0	238.085388	246.843582	-24.32184800000001	-13.901666	-17.196610999999994	-4.92039	0.0		True	0.0	None	0.0	None	0.0	None	0.0	None	0.0	None	0.0	None	0.0	None	0.0	None	2.9803000000000002e-05	12
2014-02-20 08:00:00	90.01606512220025	518408634.7719	3.061850671462672e+21	1868572423835.615	14.404852920406586	1170248972836.163	9.514235792344228e+20	-4.0127148481204224e+23	1572.6697097495542	-0.5828456489630948	19.75316732860059	2.592087312414734	30.41080956012991	148.22287598157916	154.60282944463938	64.2595190130613	0.009825956971627959	-1.4689295674206237e+23	1.5514163508030612	0.03510977372723171	4.751777549625487e+22	0.2133615867086546	-0.06901942885218981	0.0	238.087189	246.73439	-24.324995	-13.782611	-17.201389000000002	-4.799992	0.0		True	0.0	None	0.0	None	0.0	None	0.0	None	0.0	None	0.0	None	0.0	None	0.0	None	3.0835e-05	12
2014-02-20 08:12:00	89.0325859770198	509349312.8711	3.302598308257885e+21	1872937822035.442	10.16998613176529	711375850736.7179	9.408186600083309e+20	-3.861975838661262e+23	1649.0805841689614	-0.5709279356685666	21.72350859365736	5.636604774535809	32.142188330792244	143.24275341936482	147.30445190010641	62.59533365906482	0.006744022633796611	-1.5368295058061706e+23	0.8627779997670743	0.02542016522046055	5.621499956567528e+22	0.2271942999852153	-0.08310438748567067	0.0	238.089096	246.625198	-24.32674200000001	-13.670135	-17.232654999999998	-4.695285	0.0		True	0.0	None	0.0	None	0.0	None	0.0	None	0.0	None	0.0	None	0.0	None	0.0	None	2.8128000000000002e-05	12
2014-02-20 08:24:00	85.41589358256829	516682479.7104	3.158958432298644e+21	1761870062058.5625	14.561943329964366	912512325412.4672	9.52767045748129e+20	-3.930386139873365e+23	1588.947961907048	-0.5727947751692324	20.37221026286461	2.8724114896459585	31.171874067667012	144.88439401180878	149.73720609612792	63.97704583258065	0.009727417054084413	-1.4893504331313346e+23	1.1846843298383125	0.035838806572314044	6.514588281292802e+22	0.21705046683304965	-0.09494034420809998	0.0	238.090927	246.515976	-24.326153	-13.550972	-17.233322	-4.596426	0.0		True	0.0	None	0.0	None	0.0	None	0.0	None	0.0	None	0.0	None	0.0	None	0.0	None	1.9922e-05	12
2014-02-20 08:36:00	86.89377626444393	510361113.5078	2.906893064087844e+21	1756640034742.5315	13.917724157450495	970282198314.0806	9.401800087713149e+20	-3.926502944402598e+23	1515.8260803139858	-0.5793164539995489	18.753974859596525	1.10803324099723	30.4852048064886	153.5287039043746	158.05507235276278	65.12862891274118	0.009638313128428323	-1.5330897947442442e+23	1.3059250996041996	0.03453436573138193	6.2611264795551765e+22	0.22619215014730096	-0.09237669349896396	0.0	238.092758	246.406754	-24.328331	-13.440133	-17.23716	-4.474533	0.0		True	0.0	None	0.0	None	0.0	None	0.0	None	0.0	None	0.0	None	0.0	None	0.0	None	1.305e-05	12
2014-02-20 08:48:00	81.36353808170014	504406067.2341001	3.0379095060922253e+21	1688372600232.9856	14.932708454855412	940070159121.265	9.302863094238152e+20	-3.8817493735435696e+23	1590.7554984847516	-0.579474962437446	19.497198755578875	1.808066759388039	30.56627875415317	148.65278063697718	152.25755148299143	66.01983300317474	0.010384359148021844	-1.521010076781247e+23	1.1562024166897744	0.03748655527476222	7.65248073399352e+22	0.22705929010176915	-0.1142376943784004	0.0	238.09462	246.297516	-24.328735	-13.321384	-17.267178	-4.370825	0.0		True	0.0	None	0.0	None	0.0	None	0.0	None	0.0	None	0.0	None	0.0	None	0.0	None	8.977e-06	12
2014-02-20 09:00:00	79.38405374999094	476309015.2451	2.8618305138665115e+21	1646223743437.585	14.908675504941304	952895632231.472	8.879439595819658e+20	-3.651723866478694e+23	1544.7466187616074	-0.5772935154359934	19.307944647624826	1.5770609318996418	30.456601357911445	150.75840874692068	152.9576449736664	64.99966271961614	0.010687222584187316	-1.4518126216378548e+23	1.225678188666362	0.03968877900750094	7.218792054846029e+22	0.2295140713659305	-0.11412039888333644	0.0	238.096344	246.188248	-24.328882	-13.209953	-17.269033	-4.249322	0.0		True	0.0	None	0.0	None	0.0	None	0.0	None	0.0	None	0.0	None	0.0	None	0.0	None	6.31e-06	12
2014-02-20 09:12:00	78.13073219939955	480953497.7902	2.8584637775980826e+21	1640415015126.9548	17.084679372582098	1182083230119.4143	9.051837746130256e+20	-3.698355248220534e+23	1497.8331074190405	-0.5790192980234407	19.741720932536328	2.0876826722338206	30.88746809825099	147.48172264624574	149.88956273332585	65.161900872207	0.011889129695603412	-1.4346035388515552e+23	1.596122892036273	0.04499314002297605	6.9821012015152106e+22	0.22460339211800845	-0.109312682668198	0.0	238.09816	246.078964	-24.328768	-13.094021	-17.278912	-4.148327	0.0		True	0.0	None	0.0	None	0.0	None	0.0	None	0.0	None	0.0	None	0.0	None	0.0	None	4.6621e-06	12
2014-02-20 09:24:00	71.5492168939287	470880878.511	2.701399775213229e+21	1494387487907.3408	15.812313980106936	1096550081484.1772	8.817518212469424e+20	-3.713717963187283e+23	1472.9319840216388	-0.5938617794731019	19.074491870142825	1.7378711078928313	30.155608897877716	148.2874915011632	150.37155456041813	63.28616516340887	0.011449901506232393	-1.411380374308971e+23	1.4975812922271918	0.04213700983959564	6.598893073505315e+22	0.22569426889951186	-0.10552310170105847	0.0	238.09996	245.969666	-24.32976	-12.987472	-17.281498000000006	-4.048116	0.0		True	0.0	None	0.0	None	0.0	None	0.0	None	0.0	None	0.0	None	0.0	None	0.0	None	3.6110000000000002e-06	12
2014-02-20 09:36:00	70.83972184572704	464245213.67800003	2.5267492819022234e+21	1507681216144.435	16.072583191487347	1008396682278.8315	8.767514812433052e+20	-3.6651711095916996e+23	1375.7118048208483	-0.5944759817866885	18.354523084094925	1.2292118582791034	29.85772607453589	147.9640118273182	150.40888769734116	63.658307359341094	0.0116215352071492	-1.3880072487121363e+23	1.3646923514800358	0.04342604333604281	6.81038550969197e+22	0.22512918148509245	-0.11046170809392268	0.0	238.101639	245.860336	-24.330296	-12.867436	-17.283604	-3.925241	0.0		True	0.0	None	0.0	None	0.0	None	0.0	None	0.0	None	0.0	None	0.0	None	0.0	None	2.9057999999999998e-06	12
2014-02-20 09:48:00	75.95968235217357	461287325.95720005	2.531605794501823e+21	1621070361195.2432	16.089426386771837	1065553524996.7588	8.890181869519992e+20	-3.647349260641961e+23	1331.1918003241276	-0.5953788469035072	18.68107409341424	0.6284916201117319	29.719165916013516	146.04072741868256	147.65401237003573	63.40249702267687	0.011235632951656312	-1.4049861595427823e+23	1.4367424809628142	0.04372554234835503	7.263430662646983e+22	0.2293443758212337	-0.11856536524087068	0.0	238.103394	245.750992	-24.331619	-12.760941	-17.286491	-3.822551	0.0		True	0.0	None	0.0	None	0.0	None	0.0	None	0.0	None	0.0	None	0.0	None	0.0	None	2.4932e-06	12
2014-02-20 10:00:00	70.69214318001299	463876308.3541	2.5470139869429325e+21	1548637962386.565	16.939509181098213	1065102113458.158	9.113724209373784e+20	-3.688838141840693e+23	1281.9978035309364	-0.5987905698949131	18.75705352081832	1.4705882352941175	29.75786420922089	143.01854067868098	145.18728228436632	61.45374883697243	0.011323201324263513	-1.333071078963724e+23	1.383809245381812	0.045681152044657364	7.028802869723902e+22	0.21639073344779672	-0.1140950270575124	0.0	238.105087	245.641632	-24.33287	-12.647025	-17.289701	-3.700419	0.0		True	0.0	None	0.0	None	0.0	None	0.0	None	0.0	None	0.0	None	0.0	None	0.0	None	2.182e-06	12
2014-02-20 10:12:00	74.75626498797797	463222417.0644	2.47317579811585e+21	1598195541561.327	20.393107601810065	1359498772749.1438	9.129198399710066e+20	-3.764182655700716e+23	1255.7446221880393	-0.6118833150270332	18.646136202725362	0.8091706001348618	29.231202339305863	141.3726737537637	143.5640298593263	60.876448407258046	0.013751252597309551	-1.3514747431966585e+23	1.6170578367804629	0.05462484758652642	6.5856658783938365e+22	0.2196877573913961	-0.10705269743563772	0.0	238.10672	245.532227	-24.332489	-12.534578	-17.290905	-3.5987089999999995	0.0		True	0.0	None	0.0	None	0.0	None	0.0	None	0.0	None	0.0	None	0.0	None	0.0	None	1.9569e-06	12
2014-02-20 10:24:00	73.67342822891945	464867716.1356	2.62831214177717e+21	1592882773772.745	16.711500784555188	1065046582662.9382	9.225306443474468e+20	-3.739064281059639e+23	1308.9185824413905	-0.6056490328979396	19.10629365594482	1.5873015873015872	29.255393942799873	143.64174410238888	146.340403801488	60.6441130206784	0.011052579883965071	-1.4538322273385206e+23	1.3460228284841926	0.04477807719293148	6.006202422947109e+22	0.2354899558543824	-0.0972877280359641	0.0	238.108398	245.422806	-24.30467	-12.424767999999998	-17.292486	-3.49948	0.0		True	0.0	None	0.0	None	0.0	None	0.0	None	0.0	None	0.0	None	0.0	None	0.0	None	1.7827e-06	12
2014-02-20 10:36:00	77.21663229046077	463518186.3391	2.7428557661842325e+21	1692552446539.5242	14.636640370151428	947105863506.9636	9.350725756849848e+20	-3.667380037006314e+23	1319.7025868421354	-0.5957671832687819	19.2230165886062	1.5974440894568689	29.92252896178789	143.16706405442406	145.2652531353895	61.13980427096081	0.009352485859521678	-1.4293666798542596e+23	1.1763086780337193	0.0395762909023122	6.145108405311252e+22	0.2322011223604085	-0.09982750324676257	0.0	238.109955	245.313354	-24.306437	-12.308499	-17.295109	-3.3756150000000003	0.0		True	0.0	None	0.0	None	0.0	None	0.0	None	0.0	None	0.0	None	0.0	None	0.0	None	1.7024e-06	12
2014-02-20 10:48:00	73.62410589815825	454465026.1942	2.6059515425077293e+21	1621163063068.57	12.549143600307168	899224071119.0979	9.152088727840552e+20	-3.6239991796605736e+23	1292.6534502043519	-0.6004476768863465	18.8825398301634	1.6469038208168645	29.687823855731594	141.32865458290848	144.18294874047658	61.6297704024742	0.00826689301733015	-1.3790963848079286e+23	0.9609812842467952	0.03450659740961918	6.03148784613225e+22	0.2284976291131053	-0.09993360058424584	0.0	238.111603	245.203903	-24.305895	-12.205129	-17.29619	-3.274251	0.0		True	0.0	None	0.0	None	0.0	None	0.0	None	0.0	None	0.0	None	0.0	None	0.0	None	1.6488e-06	12
2014-02-20 11:00:00	75.60214471584807	451734351.3083	2.730867090460456e+21	1741675064474.9546	9.613527740737544	819132412726.4496	9.279078689044238e+20	-3.554032465059949e+23	1284.3892963060093	-0.5924145540405418	19.42493122966144	2.1861336664584634	30.137188010004287	141.20144798051757	144.06767306283578	60.748822788088226	0.006004701899273918	-1.428509881359079e+23	0.9230637601900014	0.026728434606459496	5.570639591383349e+22	0.2381154512874072	-0.0928558757325332	0.0	238.113144	245.094391	-24.308815	-12.092591	-17.299948	-3.176984	0.0		True	0.0	None	0.0	None	0.0	None	0.0	None	0.0	None	0.0	None	0.0	None	0.0	None	1.4416999999999999e-06	12
2014-02-20 11:12:00	76.94522169605906	460922422.0879	2.66825106346172e+21	1746411227270.3115	8.43832499192884	646847604611.0808	9.455265522619396e+20	-3.657648584179757e+23	1242.5222279006591	-0.5975326455725707	19.15617526742322	2.350030921459493	29.896246688372965	139.08371733974911	143.00645579050618	59.49724002096736	0.005218506488515053	-1.373318090366052e+23	0.7775956474075544	0.022919686145545487	5.548609509467779e+22	0.224352441975538	-0.09064499344692828	0.0	238.11467	244.984863	-24.310316	-11.979454	-17.302979	-3.052646	0.0		True	0.0	None	0.0	None	0.0	None	0.0	None	0.0	None	0.0	None	0.0	None	0.0	None	1.3225e-06	12
2014-02-20 11:24:00	75.82165715684421	451826638.8172	2.509455905480867e+21	1748245454530.3152	9.2734140475509	635170497067.0452	9.179962206740248e+20	-3.541775180731677e+23	1199.7382747002898	-0.5902509043038029	19.17475620454709	2.2857142857142856	30.254771270707035	142.50898923081937	146.34736796693164	60.06437121304746	0.005887881934952953	-1.3386989699485104e+23	0.6689108534708051	0.025812624454307823	5.09577615385611e+22	0.22309950160061853	-0.08492313400654528	0.0	238.116211	244.875305	-24.311293	-11.86855	-17.305513	-2.950952	0.0		True	0.0	None	0.0	None	0.0	None	0.0	None	0.0	None	0.0	None	0.0	None	0.0	None	1.2376e-06	12
2014-02-20 11:36:00	75.09345089080169	446198650.65050006	2.5623071619459674e+21	1726745415310.3052	10.564264892144855	894206824794.2244	9.203150261193954e+20	-3.5454593811019946e+23	1199.1201463378927	-0.5983176504888447	19.305774829976546	2.672467371037912	30.229547745131374	137.54634135819052	141.49637231099518	58.48699449806125	0.006565733307734528	-1.3608764839615934e+23	1.080344372290586	0.02962633504128825	4.846493995434443e+22	0.22965611306378605	-0.0817875087192604	0.0	238.117599	244.765701	-24.311007	-11.752654	-17.306812	-2.853087	0.0		True	0.0	None	0.0	None	0.0	None	0.0	None	0.0	None	0.0	None	0.0	None	0.0	None	1.2168000000000001e-06	12
2014-02-20 11:48:00	73.8182885276594	435597139.9222	2.4600655626829336e+21	1772088067673.2002	11.892897052458027	894381988910.9252	9.122853392388365e+20	-3.429016525107427e+23	1142.0450445547333	-0.5927505430442358	19.26336149322489	3.020961775585697	30.76302349378737	137.23383027015706	141.82437744553374	57.30388269861641	0.007332242325806426	-1.3194039160051924e+23	0.9472514940775904	0.03428347799247285	4.537728807510415e+22	0.2280762959234405	-0.0784406022877071	0.0	238.11908	244.656082	-24.310934	-11.644855	-17.334044	-2.729617	0.0		True	0.0	None	0.0	None	0.0	None	0.0	None	0.0	None	0.0	None	0.0	None	0.0	None	1.1695e-06	12
2014-02-20 12:00:00	76.92187289315403	440519111.7936	2.509395473458577e+21	1802468295370.4705	12.999707488047322	1145240262405.9229	9.269857106519286e+20	-3.522432121595441e+23	1150.056346504781	-0.6020955952991037	19.767098886480525	3.469263542300669	30.501360189886718	133.28224346214262	138.30591803179692	55.53615050801403	0.00791217741207993	-1.2351890877402642e+23	1.0959320612286387	0.03683921730862453	4.166388739487447e+22	0.21113307039486146	-0.07121682467547323	0.0	238.120529	244.546432	-24.310888	-11.525618	-17.335583	-2.62936	0.0		True	0.0	None	0.0	None	0.0	None	0.0	None	0.0	None	0.0	None	0.0	None	0.0	None	1.1481999999999999e-06	12
2014-02-20 12:12:00	81.00054028394149	443016772.938	2.5714844736976024e+21	2014457505389.421	13.502666499851141	1314651493503.2786	9.535775810278974e+20	-3.495443464914809e+23	1105.8219372860437	-0.5941136818755056	19.89320422076597	2.6841804683038264	30.777103297220613	132.38906888704977	137.9026190054312	55.18698912480394	0.007711402912536345	-1.2935714664027731e+23	1.4596019515603211	0.03823931275206437	3.1228845411574517e+22	0.2198658094137932	-0.05307905710511529	0.0	238.121841	244.436737	-24.312246	-11.41781	-17.338497	-2.533072	0.0		True	0.0	None	0.0	None	0.0	None	0.0	None	0.0	None	0.0	None	0.0	None	0.0	None	1.0828e-06	12
2014-02-20 12:24:00	76.77666925609405	443893112.4755	2.528947501609242e+21	1845991709321.069	8.018934520012326	792190549888.7037	9.476173623668424e+20	-3.571160229417854e+23	1117.526302625412	-0.6057849227749433	20.04788174450216	3.6384976525821604	30.45141870728365	130.43867628864632	136.90388555584826	54.145924374598465	0.004705947488270143	-1.2223724273751914e+23	0.9038169826890357	0.022499915158082025	2.8926521722472933e+22	0.2073541199355288	-0.0490687888587192	0.0	238.12323	244.327026	-24.313322	-11.297517	-17.340495999999998	-2.406876	0.0		True	0.0	None	0.0	None	0.0	None	0.0	None	0.0	None	0.0	None	0.0	None	0.0	None	1.0476000000000001e-06	12
2014-02-20 12:36:00	79.48902181523998	432485779.04460007	2.3787087045978054e+21	1977362586835.16	8.76608158491932	810251310586.2782	9.382054344915773e+20	-3.483855176941881e+23	1041.9642613599028	-0.6065626991683055	19.819838101824864	2.8504944735311226	30.352158338764085	129.32290046085924	135.5396086742574	53.925649472961474	0.0050995239004766255	-1.2205121668262048e+23	0.8704504015633586	0.02523283181177264	3.490811921326167e+22	0.2124994055946116	-0.06077739153173248	0.0	238.124527	244.21727	-24.312933	-11.190454	-17.341681	-2.307081	0.0		True	0.0	None	0.0	None	0.0	None	0.0	None	0.0	None	0.0	None	0.0	None	0.0	None	1.0032e-06	12
2014-02-20 12:48:00	76.67900511639813	426044290.2002	2.305148733140489e+21	1940107243998.2224	10.594125977556645	1002496784946.6086	9.279590025289664e+20	-3.461128656961912e+23	1015.6507983282492	-0.6117169557421701	19.85826066249201	3.2182562902282035	30.18625444517745	126.29460066069583	132.91955248234044	51.194516539895744	0.006199020466680307	-1.1894562464659186e+23	1.01780270557472	0.030856851073386343	2.8743708617420176e+22	0.21022349244749475	-0.05080138785601273	0.0	238.125793	244.107498	-24.315088	-11.070975	-17.345064	-2.184314	0.0		True	0.0	None	0.0	None	0.0	None	0.0	None	0.0	None	0.0	None	0.0	None	0.0	None	1.0205e-06	12
2014-02-20 13:00:00	83.86092845647772	441658830.9984	2.501151410954721e+21	2044004787210.0776	13.211049180626135	1133351078364.877	9.5461996059708e+20	-3.635195299412225e+23	1100.0786071111756	-0.6197668254345209	20.06742195700424	3.7967289719626165	29.649156606348747	129.19164747403764	135.58344345674666	54.01190535487133	0.007716734334477884	-1.146336154073662e+23	1.1822530115366316	0.03693413110424685	2.972784681804702e+22	0.19543960105965305	-0.05068320057633149	0.0	238.127075	243.997681	-24.316217	-10.962354	-17.347685000000002	-2.084182	0.0		True	0.0	None	0.0	None	0.0	None	0.0	None	0.0	None	0.0	None	0.0	None	0.0	None	1.0215999999999999e-06	12
2014-02-20 13:12:00	81.9949061805268	437054777.7847	2.42739402564277e+21	1979874839359.012	9.22871482840258	712769162025.2513	9.328335936946297e+20	-3.529382627801886e+23	1087.326586019121	-0.6080654297361702	20.24118982504929	3.866745984533016	30.147774792722522	130.0321588916083	135.75485189963763	54.19217934761281	0.005490014770019381	-1.1848137795961777e+23	0.6737261557273159	0.026262232038245164	3.2006033886123976e+22	0.2041275701796553	-0.055142116345819	0.0	238.12825	243.887848	-24.318193	-10.841134	-17.351446	-1.956678	0.0		True	0.0	None	0.0	None	0.0	None	0.0	None	0.0	None	0.0	None	0.0	None	0.0	None	1.0097e-06	12
2014-02-20 13:24:00	84.40952429264692	438055656.9471	2.4747349687932373e+21	2050135038807.7173	14.970850077483215	1096012901251.7428	9.362519220508253e+20	-3.5758065267682475e+23	1106.5576830643954	-0.6146560626879778	20.34757227914605	4.513064133016627	29.945583784544592	130.45012316988695	136.84469031794242	54.62005109818967	0.008890053490191929	-1.2021740648389803e+23	1.1686608546348547	0.042331839048080806	2.316592307717726e+22	0.20664529018222802	-0.03982059700534014	0.0	238.129471	243.777969	-24.318956	-10.729113	-17.353424	-1.82774	0.0		True	0.0	None	0.0	None	0.0	None	0.0	None	0.0	None	0.0	None	0.0	None	0.0	None	9.7161e-07	12
2014-02-20 13:36:00	79.26814935993839	430057470.0277	2.3754668111676677e+21	1886891597984.5537	12.919426312332295	1059274420268.11	9.085649954662288e+20	-3.5497703855066247e+23	1110.3013633668345	-0.6215287358703099	19.930911185058566	4.034761018001241	30.04405203482161	133.34539520106011	139.45021123561762	55.03506293555599	0.008019507332298134	-1.1435408421946767e+23	1.0649529572377705	0.03705288937255942	2.7425257408615045e+22	0.2002223853596912	-0.04801883985986774	0.0	238.13063	243.668076	-24.319548	-10.610431	-17.355806	-1.698118	0.0		True	0.0	None	0.0	None	0.0	None	0.0	None	0.0	None	0.0	None	0.0	None	0.0	None	1.1278e-06	12
2014-02-20 13:48:00	85.61120671620749	449043896.046	2.533807936457838e+21	2052435692223.08	13.154271080423882	1216991066440.642	9.52516565364115e+20	-3.701115802528476e+23	1125.6189624578894	-0.6206278891706638	20.238914128387822	4.1297935103244825	29.69779349070273	131.97187274269908	138.60707291578618	53.44736406694008	0.007760631905854795	-1.175500286035188e+23	1.3066097097557683	0.03615136312544706	2.8466765327082086e+22	0.19711576188540966	-0.04773497890661494	0.0	238.131729	243.558136	-24.291378	-10.502172	-17.358187	-1.56883	0.0		True	0.0	None	0.0	None	0.0	None	0.0	None	0.0	None	0.0	None	0.0	None	0.0	None	1.3784e-06	12
2014-02-20 14:00:00	80.12376464442579	433852929.7814	2.422061220899422e+21	1904530428321.551	10.990573430048414	904666432164.952	9.128097678936173e+20	-3.594735370350872e+23	1142.0043089169176	-0.623895614262611	19.941382524338508	3.9448966812773953	29.49363443497838	135.18439393250463	140.9121432528891	54.97372642647992	0.0068820121665926215	-1.2259026009267802e+23	0.9486043616774816	0.031199648729869925	2.4534247426720136e+22	0.2127653853297949	-0.04258118551650268	0.0	238.132874	243.448181	-24.291149	-10.402974	-17.359764000000002	-1.440567	0.0		True	0.0	None	0.0	None	0.0	None	0.0	None	0.0	None	0.0	None	0.0	None	0.0	None	1.3311e-06	12
2014-02-20 14:12:00	78.715533366936	434844507.0652	2.4318923695296647e+21	1912018430359.112	15.458752607934349	1343010959579.2568	9.189627505260857e+20	-3.598187639228169e+23	1112.504962710051	-0.6230705962289546	20.143561087880503	4.070473876063184	29.81846680833714	130.03126788611928	135.53371453467386	54.51452338145919	0.009391708753301543	-1.1762355194091075e+23	1.5866011817783006	0.04380594405531483	2.6417902970919174e+22	0.20367969652108334	-0.04574585932027738	0.0	238.133881	243.338181	-24.290684	-10.27615	-17.361063	-1.344902	0.0		True	0.0	None	0.0	None	0.0	None	0.0	None	0.0	None	0.0	None	0.0	None	0.0	None	1.2277e-06	12
2014-02-20 14:24:00	81.94238891536048	444203318.1415	2.4869135192469956e+21	1939082679201.6392	11.489743155661273	996453787198.3322	9.296607789808643e+20	-3.628729785523983e+23	1120.654378956782	-0.6151206266335463	20.238525996380123	3.710353081986834	30.568800149300948	135.6010654248641	141.02877669098075	55.32048236106396	0.006875968375620149	-1.1697300537156218e+23	1.1596033623732518	0.03202975039582386	2.782658503183508e+22	0.19828566086789687	-0.04716996699544115	0.0	238.134964	243.228165	-24.292852	-10.176126	-17.364898999999998	-1.21554	0.0		True	0.0	None	0.0	None	0.0	None	0.0	None	0.0	None	0.0	None	0.0	None	0.0	None	1.2195e-06	12
