Timestamp	TOTUSJH	TOTBSQ	TOTPOT	TOTUSJZ	ABSNJZH	SAVNCPP	USFLUX	TOTFZ	MEANPOT	EPSZ	MEANSHR	SHRGT45	MEANGAM	MEANGBT	MEANGBZ	MEANGBH	MEANJZH	TOTFY	MEANJZD	MEANALP	TOTFX	EPSY	EPSX	R_VALUE	CRVAL1	CRLN_OBS	LAT_MIN	LON_MIN	LAT_MAX	LON_MAX	QUALITY	NOAA_AR	IS_TMFI	BFLARE	BFLARE_label	CFLARE	CFLARE_label	MFLARE	MFLARE_label	XFLARE	XFLARE_label	BFLARE_loc	BFLARE_label_loc	CFLARE_loc	CFLARE_label_loc	MFLARE_loc	MFLARE_label_loc	XFLARE_loc	XFLARE_label_loc	XR_MAX	XR_QUAL
2014-02-23 08:36:00	105.27921880734779	774289800.2422	6.182439780031113e+21	2526202085805.61	3.9716429551757417	119115543722.48235	1.6118176817507556e+21	-6.476393798233523e+23	1682.43457643535	-0.6298210322611216	23.86897088834002	4.192265992049152	28.57002369019466	128.03238884061585	127.65780872115832	47.42993037896107	0.0014353606632366252	-3.813351801987376e+22	0.07772017437231604	0.006294434789062667	-3.161628972932203e+23	0.03708435964714784	0.3074643830185185	0.0	238.565033	206.896927	-24.309933	26.937157	-17.012415	36.949585	0.0		True	0.0	None	0.0	None	0.0	None	0.0	None	0.0	None	0.0	None	0.0	None	0.0	None	2.2059e-06	12
2014-02-23 08:48:00	103.43854917530045	750687931.3234	5.967049558823763e+21	2432744733188.146	4.071171425961573	165002589904.02554	1.5590600145620928e+21	-6.303481095262559e+23	1713.6197128349422	-0.6322786433982526	23.53575225618396	4.0427154843630815	27.87614408330504	128.60340765149272	128.87648736940878	46.48498546665785	0.0015526969587954132	-2.6511800762911456e+22	0.12213806356097932	0.0066450102189266	-3.130541822579687e+23	0.026592997055256803	0.3140129567723771	0.0	238.566864	206.787659	-24.309631	27.079077	-17.002762	37.010612	0.0		True	0.0	None	0.0	None	0.0	None	0.0	None	0.0	None	0.0	None	0.0	None	0.0	None	2.0518e-06	12
2014-02-23 09:00:00	99.43488512190572	736589497.7562	5.817437691080934e+21	2309349403923.409	2.00264116110475	116874491451.63562	1.5247816063293907e+21	-6.19701162195606e+23	1733.4605357463433	-0.6334965420675147	23.22782610841458	3.2449544914918875	27.60138913743193	127.82962092869707	128.02403941796166	46.30598850092914	-0.0007924974915333397	-1.276828685018922e+22	-0.0685781485271946	-0.003328812947118159	-3.0692593084882545e+23	0.013052526057983798	0.3137585141436463	0.0	238.568588	206.678391	-24.326317	27.213995	-16.994329	37.039997	0.0		True	0.0	None	0.0	None	0.0	None	0.0	None	0.0	None	0.0	None	0.0	None	0.0	None	1.9623e-06	12
2014-02-23 09:12:00	96.85069273849984	725572620.6127	5.775481223581358e+21	2215950284389.71	1.6361913103559491	37126563599.6812	1.4928335147850578e+21	-6.117134493278515e+23	1774.3220579966367	-0.6348260350531724	23.113404173874386	3.4271725826193387	27.36866869239439	128.04972448484014	128.55193045328505	45.7383846370957	-0.0006675607141395142	-4.405381726931085e+21	0.029399598353730187	-0.002758745551281398	-3.0239644413841774e+23	0.004571831823668922	0.31382199599748023	0.0	238.570404	206.569107	-24.325422	27.355591	-16.984676	37.087345	0.0		True	0.0	None	0.0	None	0.0	None	0.0	None	0.0	None	0.0	None	0.0	None	0.0	None	1.9122e-06	12
2014-02-23 09:24:00	93.97616681437336	733193002.2477	5.684716764869378e+21	2133534122033.3352	0.8053859874177278	119516212279.99084	1.492987657502136e+21	-6.172723616834355e+23	1769.54055170959	-0.6339369663984789	22.67683777493012	3.1831335262505167	27.495631522331266	132.11217650607855	132.82816968174706	47.11412088548027	-0.00033294170624957744	-4.923245377074638e+21	0.09589483747679237	-0.0013445608300199615	-3.0291871413798195e+23	0.005056159052166718	0.3110966610950296	0.0	238.572144	206.459793	-24.34197	27.50326500000001	-16.97772	37.086773	0.0		True	0.0	None	0.0	None	0.0	None	0.0	None	0.0	None	0.0	None	0.0	None	0.0	None	1.8468e-06	12
2014-02-23 09:36:00	96.87546673080791	742045980.9973	5.704177602143511e+21	2210055271345.5986	6.935649005664022	382850900893.8759	1.5006966029908532e+21	-6.214915157069047e+23	1767.560394554459	-0.6306550582951042	22.812667444311337	2.9629629629629632	27.59573193553473	133.3590760182384	133.11970569328352	48.4614176072514	-0.002855351587346243	-1.259978787091758e+22	-0.2332812261380495	-0.011464998538189388	-3.059244730374579e+23	0.012785564651194473	0.3104351572006401	0.0	238.573853	206.350449	-24.363285	27.668892	-16.970905	37.017025	0.0		True	0.0	None	0.0	None	0.0	None	0.0	None	0.0	None	0.0	None	0.0	None	0.0	None	1.7438e-06	12
2014-02-23 09:48:00	96.75646059911949	770540949.6340001	5.843901768101399e+21	2165060251420.2056	4.932731071100436	250955535189.7493	1.5451238905914393e+21	-6.436457867472017e+23	1767.9319472143204	-0.6289827574884991	22.341787853042693	2.571313780634793	27.65285355023857	136.41442823306892	136.40355977583405	48.33420908038917	-0.001981812403013434	-2.7670731365411923e+22	-0.13273618235384735	-0.007859686490864576	-3.1428459205413004e+23	0.02704035864803392	0.30712480904344885	0.0	238.575607	206.241104	-24.384577	27.812836	-16.96409	37.084	0.0		True	0.0	None	0.0	None	0.0	None	0.0	None	0.0	None	0.0	None	0.0	None	0.0	None	1.6856e-06	12
2014-02-23 10:00:00	98.04229709760584	756135099.3833001	5.870043847249103e+21	2197412844224.7332	7.982120070514256	415387233020.3257	1.513923641443383e+21	-6.337917473721675e+23	1822.708110440229	-0.6311530792398502	22.410735023070178	2.9690721649484537	27.481876550093745	138.95947382079308	138.15997763028236	49.87746059844635	-0.0032915959053667035	-3.213465765555979e+22	-0.15092968723308445	-0.012943571690116515	-3.118562735099622e+23	0.032000871285746336	0.31055792083467765	0.0	238.577225	206.131729	-24.399082	27.918585	-16.955465	37.16983	0.0		True	0.0	None	0.0	None	0.0	None	0.0	None	0.0	None	0.0	None	0.0	None	0.0	None	1.6213999999999996e-06	12
2014-02-23 10:12:00	96.81412752209171	757008190.2673001	5.874597716590464e+21	2220982165277.107	6.324541693694838	418505121601.5928	1.5349507978857027e+21	-6.275826937494851e+23	1754.6594109663001	-0.6242490990889255	22.520354904338664	3.094010313367712	27.97768788871069	134.41575747670777	133.75002875202796	48.39208899172974	-0.002508743234309733	-4.409579282260716e+22	-0.06997741878817174	-0.010287405120494251	-3.157848131220411e+23	0.04386156472650025	0.314107426894865	0.0	238.578918	206.022324	-24.419254	28.024323	-16.945234	37.26442	0.0		True	0.0	None	0.0	None	0.0	None	0.0	None	0.0	None	0.0	None	0.0	None	0.0	None	1.5722e-06	12
2014-02-23 10:24:00	98.62089364441462	769165942.1292	5.890803962551236e+21	2298410527476.129	6.896880524553504	525603872302.4826	1.5758807899349026e+21	-6.387408145729695e+23	1691.7233067855868	-0.6253052451152479	22.264587212251353	2.212051868802441	27.970581370009352	132.59136256862277	131.4485598687558	47.972927037069205	-0.002630389216076851	-5.010612020492528e+22	-0.262588578948426	-0.011033866259425741	-3.181017245699261e+23	0.04905216491835057	0.3114106258995874	0.0	238.580597	205.912903	-24.421492	28.13697800000001	-16.936096	37.351116	0.0		True	0.0	None	0.0	None	0.0	None	0.0	None	0.0	None	0.0	None	0.0	None	0.0	None	2.3106999999999997e-06	12
2014-02-23 10:36:00	95.53109432361276	769727139.037	5.895424578657987e+21	2228623933401.2607	2.1697846859869685	235423114196.80066	1.5681311894841917e+21	-6.412051103793896e+23	1711.3256385576342	-0.6272601776463951	22.62316596851183	2.467232074016962	27.957402749121183	134.09335853210814	132.47561575504886	48.94730070424176	-0.0008364628704652924	-5.776219776724112e+22	-0.11394483791399455	-0.003464597914813676	-3.168960692804746e+23	0.056505985130542835	0.3100042115926094	0.0	238.582153	205.803452	-24.44548	28.244196	-16.927212	37.460144	0.0		True	0.0	None	0.0	None	0.0	None	0.0	None	0.0	None	0.0	None	0.0	None	0.0	None	2.4255000000000003e-06	12
2014-02-23 10:48:00	96.2138120982205	761031880.5710001	5.753687161385561e+21	2235767542264.1294	0.8324287987975936	127719802658.82507	1.5698041302179892e+21	-6.379583273178508e+23	1647.3199398470242	-0.6312144312209056	22.158663722171173	1.93916349809886	27.54851104798788	130.82115183111148	128.88753451206532	48.170836200938794	0.00031651285125383784	-5.4137843831609445e+22	0.09426536282721304	0.0013411062520016438	-3.138284681272792e+23	0.05356554940722597	0.3105109683930694	0.0	238.583771	205.69397	-24.466511	28.357761	-16.920026999999994	37.547787	0.0		True	0.0	None	0.0	None	0.0	None	0.0	None	0.0	None	0.0	None	0.0	None	0.0	None	1.7608000000000001e-06	12
2014-02-23 11:00:00	96.0335218640112	759140373.285	5.756216125436793e+21	2250350896519.953	0.095787227582264	244801805178.4749	1.5813464650670353e+21	-6.328535006799571e+23	1617.2972798296314	-0.627723888036052	22.37800932181338	2.164179104477612	27.76625231769189	126.32408239457618	124.82355923652737	46.51205444458546	-3.574150282920298e-05	-5.7524488827208475e+22	-0.041615728011652565	-0.00015503679180974543	-3.114260933939949e+23	0.057058222392867536	0.3089018200438445	0.0	238.585312	205.584457	-24.46121	28.465822	-16.912731	37.636154	0.0		True	0.0	None	0.0	None	0.0	None	0.0	None	0.0	None	0.0	None	0.0	None	0.0	None	1.7006999999999999e-06	12
2014-02-23 11:12:00	96.61245856620356	767777874.3106999	5.761675711480669e+21	2294846347636.0244	0.593205819122655	343206660654.1466	1.6210241236976806e+21	-6.406901262496198e+23	1542.8403177597645	-0.6283475461032529	22.440358346804267	1.813655761024182	27.87408093885189	124.9631722749572	123.8291340676754	45.164823552090255	-0.00021095512771075931	-5.946141296679297e+22	-0.16983697203343254	-0.0009489704775460961	-3.135407179775716e+23	0.05831591809323389	0.30750051026680103	0.0	238.586823	205.47493	-24.478941	28.578686	-16.902395000000002	37.744194	0.0		True	0.0	None	0.0	None	0.0	None	0.0	None	0.0	None	0.0	None	0.0	None	0.0	None	1.6022e-06	12
2014-02-23 11:24:00	97.25226431456556	767469582.7054001	5.849146931923769e+21	2318700790505.287	2.852492426539412	141854692384.26172	1.6254320670907197e+21	-6.4325672191913e+23	1565.7060475581507	-0.6311180356849756	22.66338437761061	2.5239957340917165	27.70448827430673	124.95371939468092	123.34644064472508	45.50343684862234	0.0010140392557907614	-5.657432725449675e+22	0.09789260132135476	0.004557303309483081	-3.144909360014179e+23	0.05550673171441151	0.30855628088546755	0.0	238.588348	205.365356	-24.475393	28.685987	-16.896767	37.831871	0.0		True	0.0	None	0.0	None	0.0	None	0.0	None	0.0	None	0.0	None	0.0	None	0.0	None	1.4854e-06	12
2014-02-23 11:36:00	88.96364146568075	742005249.2734001	5.542076127299777e+21	2100570425427.0227	6.915492529262552	411823613989.1781	1.5741328195818498e+21	-6.260560448893807e+23	1545.0245386577012	-0.6353217362896351	22.140411946093412	1.2587930396149574	27.497101388131682	125.05691431724779	123.88465693782169	44.83441210786913	0.0025603452533367464	-5.210219469333762e+22	0.2959866128051445	0.011398374586515804	-3.029100430749772e+23	0.05287331232928304	0.30739314167945825	0.0	238.589783	205.255783	-24.46911	28.800652000000003	-17.792423	37.920498	0.0		True	0.0	None	0.0	None	0.0	None	0.0	None	0.0	None	0.0	None	0.0	None	0.0	None	1.5621e-06	12
2014-02-23 11:48:00	91.69587679458893	758860969.6351001	5.662990490527856e+21	2199763353574.7383	0.7499185258678599	249148628350.6395	1.6188141870559687e+21	-6.42366293706345e+23	1532.2164575850659	-0.6373940791279397	22.183042404651307	1.7247574559827523	27.33418844101768	124.6333317725732	123.30124311884191	45.03183267958105	0.00026946407684795543	-6.0687766205451685e+22	-0.08114986642218854	0.0012070594100734313	-3.07482069590996e+23	0.06021801460295624	0.3051020150271158	1.9859983412611344	238.591263	205.146164	-24.486362	28.914661	-17.783842	38.017509	0.0		True	0.0	None	0.0	None	0.0	None	0.0	None	0.0	None	0.0	None	0.0	None	0.0	None	2.7525e-06	12
2014-02-23 12:00:00	94.02421290863815	768503351.1439	5.695170004005522e+21	2267925517815.0625	4.0515050995698365	317104925893.4169	1.6450217327939501e+21	-6.495729235158371e+23	1509.4647512583456	-0.6364578760265076	22.199371238535942	1.5487504399859204	27.374343126305014	125.1588015250878	123.56205519783695	45.68529401098729	0.0014265863026654358	-6.2960008345775596e+22	0.2166890707007124	0.00644366056221344	-3.117421716573937e+23	0.06168882928413277	0.3054480155469693	1.999996446337216	238.592651	205.036499	-24.482138	29.021915000000003	-17.777348	38.11734000000001	0.0		True	0.0	None	0.0	None	0.0	None	0.0	None	0.0	None	0.0	None	0.0	None	0.0	None	2.7068e-06	12
2014-02-23 12:12:00	97.83300059441292	781045063.2899001	5.866786187614287e+21	2356882839214.0107	1.7945508161569963	224875433248.8423	1.6763865533330316e+21	-6.647160373986497e+23	1504.636767830227	-0.6408369220982085	22.60476337796709	2.316076294277929	27.40348196799396	123.70042389173612	122.35607203723276	44.328638139554215	0.0006112230300262249	-5.995280302769284e+22	0.14869673633967864	0.0028005558933093537	-3.149633654411348e+23	0.05779907148589716	0.3036486895560496	2.0115208575569463	238.594025	204.926834	-24.478153	29.134619	-17.801160999999997	38.213165	0.0		True	0.0	None	0.0	None	0.0	None	0.0	None	0.0	None	0.0	None	0.0	None	0.0	None	3.3266e-06	12
2014-02-23 12:24:00	97.70239784575593	800104608.0914	6.133522961295345e+21	2373194815510.2266	2.0028356098588964	213540907229.4296	1.7291034792724406e+21	-6.82472972392241e+23	1524.245207136991	-0.6422825995016583	22.783733085747908	2.0132013201320134	27.37434257929645	122.78899380078501	121.70757313001673	43.099754756663074	0.0006610018514385798	-6.234428243567587e+22	0.13682467523511055	0.00304846095564463	-3.245915605952565e+23	0.05867286970572892	0.30547658258853505	2.021837242951872	238.595413	204.817108	-24.493092	29.248413	-17.792831	38.312851	0.0		True	0.0	None	0.0	None	0.0	None	0.0	None	0.0	None	0.0	None	0.0	None	0.0	None	3.0566e-06	12
2014-02-23 12:36:00	95.07284055220836	802320396.975	6.060199355750038e+21	2352323012824.33	1.0418567281383349	259413871706.5146	1.7534817934863932e+21	-6.823852714319008e+23	1467.7551277288544	-0.6404264035067411	22.53849076719615	2.5088452878739145	27.41462230639021	120.78775510624088	119.84863668879265	43.24815852850314	-0.0003351099157730252	-6.5247954214316e+22	0.010744786223153772	-0.0015831913642722214	-3.219872323269219e+23	0.06123595335808332	0.30218871040624273	2.0266899653839134	238.596664	204.707367	-24.489771	29.369951	-17.7848	38.401466	0.0		True	0.0	None	0.0	None	0.0	None	0.0	None	0.0	None	0.0	None	0.0	None	0.0	None	2.4208e-06	12
2014-02-23 12:48:00	93.83220563737629	785365405.4889	5.824867947800427e+21	2287153514698.6	4.109014944461844	468752150018.312	1.6927942639885746e+21	-6.701067302914757e+23	1484.7835420060321	-0.6424802242619682	22.34911792032949	1.7941773865944484	27.43240207355147	122.74338198992425	121.520477490131	43.9920743003197	0.0013910003197230346	-6.1279287273168264e+22	0.308091907621645	0.006370826824883439	-3.15888031050535e+23	0.0587529246464271	0.3028649077181206	2.0146522520368064	238.597992	204.597595	-24.504988	29.482573	-17.804482999999994	38.500416	0.0		True	0.0	None	0.0	None	0.0	None	0.0	None	0.0	None	0.0	None	0.0	None	0.0	None	2.6808999999999996e-06	12
2014-02-23 13:00:00	92.26294759501698	786249368.8332001	5.862370675712439e+21	2233068490168.449	4.5894287962313705	318145276001.8671	1.6776205831240147e+21	-6.694924134333662e+23	1522.6936316029314	-0.6411694506931261	22.576313154930624	2.207657813038979	27.40597747184659	123.58850411092274	122.1965332448682	44.935194830843926	0.0015831075530291032	-6.364684220181244e+22	0.21307652078692127	0.007113361791949138	-3.148789414313006e+23	0.06095425434861896	0.3015579472767753	2.031271775397685	238.599289	204.487793	-24.500538	29.597301	-17.797735	38.589123	0.0		True	0.0	None	0.0	None	0.0	None	0.0	None	0.0	None	0.0	None	0.0	None	0.0	None	2.327e-06	12
2014-02-23 13:12:00	92.61318415824049	781942143.7553	5.701137684514381e+21	2223948711000.3115	2.4848500843786376	257157997742.8777	1.6674744863346157e+21	-6.718275611280869e+23	1503.1099717872778	-0.646949863215978	22.263784782723775	2.2058823529411766	27.183868615072388	124.1285971252356	123.13148053022032	43.995621446182774	0.0008700455477516239	-6.1359757226025165e+22	0.17482804395779064	0.0038590036436780416	-3.119034612444024e+23	0.05908761241900621	0.3003537116724285	1.8841070818920973	238.600464	204.37796	-24.504787	29.712084	-17.794556	38.687336	0.0		True	0.0	None	0.0	None	0.0	None	0.0	None	0.0	None	0.0	None	0.0	None	0.0	None	1.9419e-06	12
2014-02-23 13:24:00	91.15000132972406	783461309.9786	5.680750733432364e+21	2205407120134.5	1.3416643660401202	190166061965.2229	1.663992489693352e+21	-6.694648656215781e+23	1485.7699959578824	-0.6434247326111985	22.391056370717678	2.431399791594304	27.79824801657845	124.55871325479414	123.53883472108231	44.59028690044842	0.0004660174942827788	-6.495931210278018e+22	0.12825423386813029	0.0020840421961563593	-3.127622327860999e+23	0.0624325938024126	0.30059673977727475	1.8767858755201101	238.6017	204.268097	-24.522156	29.820711	-17.788776000000006	38.788418	0.0		True	0.0	None	0.0	None	0.0	None	0.0	None	0.0	None	0.0	None	0.0	None	0.0	None	1.7718000000000001e-06	12
2014-02-23 13:36:00	97.5391613872664	787205044.8440001	5.890961228255004e+21	2359115461865.3467	0.9011788527779144	387818441276.0015	1.680035900161266e+21	-6.712768253682716e+23	1517.0372070278222	-0.6420978591614174	22.617767992936297	2.291381668946648	27.682066336323892	124.73453733266199	123.65704644409156	44.786124858421296	-0.00030820070204443036	-6.683981120477855e+22	-0.12248290845999488	-0.0013942931189974766	-3.166432033781381e+23	0.06393442773448405	0.3028794013491735	1.9833731628863585	238.602844	204.158203	-24.521875	29.935617	-17.80871	38.877144	0.0		True	0.0	None	0.0	None	0.0	None	0.0	None	0.0	None	0.0	None	0.0	None	0.0	None	1.5237000000000001e-06	12
2014-02-23 13:48:00	95.52410923513357	798388489.8861	6.04397545933664e+21	2316720345162.1177	1.6005617198195752	177663157578.14648	1.7048776061413294e+21	-6.863772395993774e+23	1542.201203096869	-0.6473455417279783	22.78183815820114	2.710945442222976	27.469175419239413	125.31119114581487	124.40084173032056	44.741372126973694	0.0005423794374176805	-6.246394367883753e+22	0.11690431955074602	0.0024339040273348165	-3.2104870817562795e+23	0.058911853608147664	0.3027918729302924	1.4570318066357482	238.603958	204.048264	-24.518658	30.050816	-17.803114	38.98732800000001	0.0		True	0.0	None	0.0	None	0.0	None	0.0	None	0.0	None	0.0	None	0.0	None	0.0	None	1.2938e-06	12
2014-02-23 14:00:00	92.70125381871544	777992787.9622	5.814544290563649e+21	2200867740819.33	0.5311022947382129	220426799031.2488	1.6408817651074054e+21	-6.632631333014673e+23	1552.5801998913876	-0.6419449042474484	22.645333588922373	2.8368794326241136	27.798500599909147	124.99840391217742	123.89657429166336	44.69889592384409	-0.00018833414707028823	-5.9922961724991005e+22	-0.06563197334015515	-0.0008315225326877277	-3.147287513100208e+23	0.05799695173060175	0.3046129175278606	1.637575802701174	238.605133	203.938324	-24.534746	30.165436	-17.821217	39.077801	0.0		True	0.0	None	0.0	None	0.0	None	0.0	None	0.0	None	0.0	None	0.0	None	0.0	None	1.4091999999999996e-06	12
2014-02-23 14:12:00	96.97850107408682	794428726.4988999	6.090299943351201e+21	2317774530828.757	3.5530573889178036	178106900301.79633	1.677209458998864e+21	-6.74788340393204e+23	1586.2735247496319	-0.639587718327811	22.857991139202447	2.628848149429264	27.705785412520534	125.89585634645618	125.0213858947095	44.763095638773095	0.0012290063607463867	-6.081782132586814e+22	0.11963456947558873	0.0054556012674694225	-3.2255692924686535e+23	0.05764523369330026	0.3057306092272034	1.6647541478342518	238.606155	203.828354	-24.531754	30.280544	-17.815844	39.19495	0.0		True	0.0	None	0.0	None	0.0	None	0.0	None	0.0	None	0.0	None	0.0	None	0.0	None	1.2887e-06	12
2014-02-23 14:24:00	95.76512623290589	780254077.7476001	5.994378575961814e+21	2288454938940.286	0.8643165250881691	166775144592.18484	1.6599058498809076e+21	-6.613729443632661e+23	1573.2621535185199	-0.6382603321097886	22.64973353766114	2.0913210177762287	27.39277575709199	124.66145104672987	123.59990630937227	44.12962346069133	0.0003012605524880338	-6.0860793649488925e+22	-0.11288480152671307	0.0013523336337436856	-3.201895682378623e+23	0.058733927201370474	0.3090000912546229	1.7230692651496289	238.607239	203.718338	-24.531227	30.395567	-17.810305	39.295395	0.0		True	0.0	None	0.0	None	0.0	None	0.0	None	0.0	None	0.0	None	0.0	None	0.0	None	1.1387e-06	12
2014-02-23 14:36:00	92.39852858417672	786759565.1215	5.959349469402475e+21	2214954853622.3	1.2229362393536092	79234106668.10924	1.6822371845067802e+21	-6.758545581838359e+23	1546.8156062315215	-0.6468426316290271	22.35587633204044	2.1716649431230612	27.149011165180212	125.92061326590576	124.70820321616846	43.778940765694685	0.00042155678709190246	-6.496079719942502e+22	-0.053040739856633004	0.0018877291306437208	-3.211456123461202e+23	0.06217227139239938	0.30736002370731363	0.0	238.608261	203.608307	-24.530867	30.519777	-17.832635999999994	39.405823	0.0		True	0.0	None	0.0	None	0.0	None	0.0	None	0.0	None	0.0	None	0.0	None	0.0	None	1.2456e-06	12
2014-02-23 14:48:00	97.44126873473411	785799793.9159	6.058292081156203e+21	2304876466244.983	1.9914804457750883	259237728470.5445	1.6721183367577726e+21	-6.716612153354245e+23	1590.0367868526407	-0.6436145792092534	22.55424880895155	2.3004531195538522	27.149257210498032	126.71835747625515	125.27278207194588	44.7384020617012	0.000694137485456636	-5.927495489314428e+22	0.1754782036859814	0.003083856398263771	-3.2173121565857566e+23	0.05679980365122985	0.30829664756087705	0.0	238.609253	203.498245	-24.541874	30.639944	-17.828176000000006	39.518951	0.0		True	0.0	None	0.0	None	0.0	None	0.0	None	0.0	None	0.0	None	0.0	None	0.0	None	1.2128e-06	12
2014-02-23 15:00:00	89.85906533783667	757759017.3076	5.687569055544525e+21	2134322425799.8564	1.9278970410927168	256104804102.6207	1.601847700434239e+21	-6.483730276774779e+23	1567.5934856350302	-0.6442898492347686	22.3869038301007	1.9765739385065888	27.251305116743694	126.45934806498305	125.01455013167444	44.352325478882015	0.0007056724162125612	-5.37727300192472e+22	0.18205497612243896	0.0030945987340550768	-3.134403030635071e+23	0.05343409216318658	0.3114663889216286	2.19315548148881	238.61026	203.388153	-24.54147	30.754068	-17.847675	39.627705	0.0		True	0.0	None	0.0	None	0.0	None	0.0	None	0.0	None	0.0	None	0.0	None	0.0	None	1.0967e-06	12
2014-02-23 15:12:00	94.67780457115208	758689639.0946001	5.803091590636294e+21	2255776734194.995	2.071838194779866	310182832681.2527	1.6073679139203706e+21	-6.41707458875108e+23	1569.559041262274	-0.6368840855483868	22.7033072064492	2.5502873563218387	27.74221389194641	126.82200594623696	125.04121507769078	45.677448578524704	-0.0007441947538720784	-5.855221327634864e+22	-0.1660039971519716	-0.003336596971026973	-3.144716338498248e+23	0.05811210746203771	0.3121079180012033	2.166082009078249	238.61113	203.27803	-24.537445	30.869749	-17.841812	39.736366	0.0		True	0.0	None	0.0	None	0.0	None	0.0	None	0.0	None	0.0	None	0.0	None	0.0	None	1.0270999999999999e-06	12
2014-02-23 15:24:00	92.65642893812893	739606065.9704001	5.497049988494491e+21	2187589638510.7158	3.462557102287886	342714577030.777	1.5682824558845478e+21	-6.330307216076327e+23	1535.314090682796	-0.6444834363211898	22.401800973598643	2.4851632047477747	27.24797531324571	126.334443599068	125.01511994008396	44.500006599400656	0.0012843312693946163	-5.202248741220921e+22	0.2468865620705053	0.005693731352599535	-3.0509551741726386e+23	0.05296367191824481	0.31061526835840503	2.208879667200637	238.612106	203.167908	-24.547152	30.987152	-17.863375	39.858379	0.0		True	0.0	None	0.0	None	0.0	None	0.0	None	0.0	None	0.0	None	0.0	None	0.0	None	1.0899e-06	12
2014-02-23 15:36:00	90.2749906684482	726414923.7457	5.373362464499713e+21	2115341550566.4287	0.08362525296098622	85338691518.08026	1.5366996949236552e+21	-6.234626462051534e+23	1547.8471788451807	-0.6462688247228883	22.032409250298013	1.568477429227238	26.926139630027556	125.95500833737587	124.48403008135249	44.92008128744927	-3.199129799578661e-05	-4.614979359088116e+22	0.06340658981107736	-0.00013985626576732118	-3.0113287982016e+23	0.04783794674263217	0.31214827947006674	2.1411053041822625	238.612991	203.057739	-24.545784	31.103109000000003	-17.856924	39.968956	0.0		True	0.0	None	0.0	None	0.0	None	0.0	None	0.0	None	0.0	None	0.0	None	0.0	None	1.0233e-06	12
2014-02-23 15:48:00	89.21212641237221	722251014.4734	5.21107721582715e+21	2093403520284.7769	1.8498396611855483	195168439435.22028	1.526124768752966e+21	-6.196579304679362e+23	1513.8400708105282	-0.6460279935265973	21.9309287153696	1.7746913580246912	27.156647647007407	125.58830521634012	124.63970898927828	44.404412078979476	-0.0007136727087907207	-4.0562071996895966e+22	-0.14624375762705374	-0.003111993669796502	-2.991371690407625e+23	0.04228822499802092	0.3118672022138028	2.0616461311879797	238.613861	202.947556	-24.540352	31.228722	-17.879108	40.069519	0.0		True	0.0	None	0.0	None	0.0	None	0.0	None	0.0	None	0.0	None	0.0	None	0.0	None	1.0069e-06	12
2014-02-23 16:00:00	86.92785108278886	714954924.7828	5.321723073479927e+21	2052445163305.7644	0.38731216823598136	97700667200.9859	1.5282549728170305e+21	-6.133617016968718e+23	1539.4498877707981	-0.6459894808595227	22.246324104149238	1.6519400691509798	26.88844001218605	123.95827743967428	123.26665305183448	43.28184308147395	-0.00014879453255320067	-3.450690618151752e+22	0.07290116496582758	-0.0006582417425411098	-2.9839064347868768e+23	0.03634250124942296	0.3142635354324723	0.0	238.614761	202.837357	-24.538059	31.346407	-17.90169	40.192181	0.0		True	0.0	None	0.0	None	0.0	None	0.0	None	0.0	None	0.0	None	0.0	None	0.0	None	1.011e-06	12
2014-02-23 16:12:00	86.48511618572765	697828949.4998	5.235242035187374e+21	2036864090240.1003	5.158950224122437	253070895874.8123	1.4819007953175212e+21	-5.985292097873614e+23	1583.796304941964	-0.645838342672439	22.296689217058496	2.4106066693451185	26.755199656149877	124.210031264165	123.70120249427542	43.53106680303786	-0.0020726999695148407	-2.508796623284322e+22	-0.19748603588541394	-0.008983698646234977	-2.920649639182744e+23	0.02707097710168216	0.31515045408840986	0.0	238.615601	202.727142	-24.533039	31.45561	-17.899361	40.293503	0.0		True	0.0	None	0.0	None	0.0	None	0.0	None	0.0	None	0.0	None	0.0	None	0.0	None	1.0204e-06	12
2014-02-23 16:24:00	88.30879144610218	699605931.1441001	5.271614217815803e+21	2098691384269.648	2.9478428466960223	51194308978.931656	1.485468980716261e+21	-5.996681979483786e+23	1592.8797762110273	-0.6454237623195542	22.383400711457448	1.886035313001605	26.857911581229487	123.79242488768423	123.52554794052698	43.54857941183425	-0.001182922490648484	-1.7846543094586494e+22	-0.03990251059091239	-0.005121569554407218	-2.926987258282479e+23	0.01920826054793993	0.31503206856147115	0.0	238.616394	202.616898	-24.540178	31.572977	-17.921944	40.404514	0.0		True	0.0	None	0.0	None	0.0	None	0.0	None	0.0	None	0.0	None	0.0	None	0.0	None	1.0203e-06	12
2014-02-23 16:36:00	88.66624803649225	698159385.3086	5.285997050171487e+21	2060026597489.7808	2.778589217679038	132265820106.87172	1.4768837439078788e+21	-5.988331754642841e+23	1617.3455586753366	-0.6458605963927384	22.466671239398586	1.9910605444941083	26.835157678460522	124.71266205697715	124.49963575284643	43.63637147234511	-0.0011290488491178536	-6.403931798789573e+21	-0.10439260850887068	-0.004836227400348914	-2.923539739135366e+23	0.00690684380940972	0.3153130449113628	0.0	238.617249	202.506653	-24.541985	31.699192	-17.943253	40.507248	0.0		True	0.0	None	0.0	None	0.0	None	0.0	None	0.0	None	0.0	None	0.0	None	0.0	None	1.1228e-06	12
2014-02-23 16:48:00	86.88206178016314	690847502.7673001	5.226164989263138e+21	2050495342917.2832	5.5994956915510095	290601796308.1068	1.462227569489542e+21	-5.934342933415681e+23	1611.4799815582064	-0.6468117577415823	22.472373671929642	2.4979524979524976	26.89911342161217	125.32658451140308	125.23929887336071	43.762883562131044	-0.0022929957786859173	2.4312819195792017e+21	-0.23114945442404536	-0.009843572840788043	-2.873585694339773e+23	-0.00264996773798377	0.313205528367934	0.0	238.617981	202.396378	-24.537178	31.816877	-17.941219	40.618858	0.0		True	0.0	None	0.0	None	0.0	None	0.0	None	0.0	None	0.0	None	0.0	None	0.0	None	1.6978999999999999e-06	12
2014-02-23 17:00:00	84.9623191924428	692897807.1575	5.233201959750421e+21	1978447232163.0718	7.938101504380136	541527516258.1542	1.4676268056777306e+21	-5.9692354680725116e+23	1617.6244088738654	-0.6486897027470768	22.350107182552236	2.668308702791461	26.70950650949993	122.68408192399528	123.09276371266331	42.51100877974381	-0.003258662358119925	6.386045814517557e+21	-0.4318068718230817	-0.013897559152632672	-2.8829944892939628e+23	-0.006939853827690024	0.3133012340163967	0.0	238.61879	202.286087	-24.532484	31.934328000000004	-17.964026999999994	40.721088	0.0		True	0.0	None	0.0	None	0.0	None	0.0	None	0.0	None	0.0	None	0.0	None	0.0	None	1.7291999999999999e-06	12
2014-02-23 17:12:00	87.74590888014276	696133032.1325003	5.190617288427511e+21	2063666414108.0063	3.6182849759719233	222494651007.7696	1.48110212999716e+21	-5.983669249404321e+23	1576.6304926366147	-0.6472361670692005	22.275006617284564	1.7345703912868091	26.77394441454729	120.60718527553769	121.53759292068749	41.6718779980686	-0.0014595744154787913	1.1806858911190941e+22	-0.1743391069559706	-0.006310803438100403	-2.8526762804561523e+23	-0.012771137220806123	0.3085657286013042	0.0	238.619537	202.175797	-24.528866	32.060783	-17.985228	40.834347	0.0		True	0.0	None	0.0	None	0.0	None	0.0	None	0.0	None	0.0	None	0.0	None	0.0	None	1.3450999999999998e-06	12
2014-02-23 17:24:00	90.36937781388426	689903955.7041001	5.350324768207116e+21	2125075230468.0645	2.258885239526919	243800498495.8307	1.4897791847727298e+21	-5.977062722344202e+23	1601.878884637082	-0.6523590618980781	22.783234074245964	2.982107355864811	26.48308080620739	118.52590613253416	119.43782447861578	40.940088685658395	-0.0008981651051796894	9.93341482019478e+21	-0.1883013340620288	-0.003963064143696166	-2.8611532731344127e+23	-0.010841701810024204	0.3122770082754863	0.0	238.6203	202.065491	-24.52368	32.178364	-18.0075	40.945839	0.0		True	0.0	None	0.0	None	0.0	None	0.0	None	0.0	None	0.0	None	0.0	None	0.0	None	1.1066e-06	12
2014-02-23 17:36:00	91.59515454768835	688700328.5013001	5.410937564255944e+21	2158676216848.6465	2.821948490955689	79909930258.98624	1.4872436190095244e+21	-5.946681274435461e+23	1611.0577533149012	-0.6501772779747625	22.87811531120496	2.5701858442071965	26.77290891335347	120.1733830351108	121.20106155869806	40.291473476674156	0.0011158357022363339	9.225662094015424e+21	0.06137803526350372	0.00496613115464	-2.87665988728694e+23	-0.010086829259856942	0.31451809990488644	0.0	238.621094	201.9552	-24.524841	32.297657	-18.005291	41.049965	0.0		True	0.0	None	0.0	None	0.0	None	0.0	None	0.0	None	0.0	None	0.0	None	0.0	None	1.0232e-06	12
2014-02-23 17:48:00	92.2304119641157	701760505.9179001	5.462150678514104e+21	2221175358422.748	6.403682148244043	400087963753.7647	1.5334157331139805e+21	-6.015794171057428e+23	1556.1592398950672	-0.6454930460946957	22.9569214966148	2.724177071509648	26.953376683669987	116.1554610254372	117.33720856730316	38.74767307826641	0.0024228839002058424	3.004639579197044e+21	0.294051408447754	0.0110911042777489	-2.94765964030875e+23	-0.003223969935214177	0.31628306188189337	0.0	238.62178	201.844879	-24.52508	32.423828	-18.027498	41.152874	0.0		True	0.0	None	0.0	None	0.0	None	0.0	None	0.0	None	0.0	None	0.0	None	0.0	None	1.0148e-06	12
2014-02-23 18:00:00	90.32670841026396	706366116.4543	5.569944933782453e+21	2179706942937.9507	3.7105737858632235	207570821668.52	1.5656113915201756e+21	-6.153301219969279e+23	1537.4252466874734	-0.6559425288614853	23.342428721356093	3.0425219941348973	26.59125029268236	115.0534859928324	115.74083143144978	38.39910461069609	0.0013601810065481026	-1.078798106121303e+22	0.14780529563088934	0.00634447878033709	-2.9816488276595668e+23	0.011499998660291841	0.31784406488094263	0.0	238.622543	201.734543	-24.520971	32.557663	-18.595045	41.25621	66560.0		False	0.0	None	0.0	None	0.0	None	0.0	None	0.0	None	0.0	None	0.0	None	0.0	None	9.9335e-07	12
2014-02-23 18:12:00	96.15207225155494	738664892.0501	5.869377204281601e+21	2336033987413.41	8.553415186338068	607493816806.9581	1.6507006641333052e+21	-6.419897248793486e+23	1506.327519687731	-0.6544374115014968	23.433609678280128	3.135650988411725	26.963874069544183	115.07795290244935	115.3592358402386	38.547601189827965	0.002915274432971393	-2.2627398450995444e+22	0.4022095483357214	0.013998185647186693	-3.098740462021352e+23	0.023066126290518744	0.315882265446121	0.0	238.62326	201.624207	-24.518847	32.672478000000005	-18.921581	41.364727	66560.0		False	0.0	None	0.0	None	0.0	None	0.0	None	0.0	None	0.0	None	0.0	None	0.0	None	1.5253e-06	12
2014-02-23 18:24:00	94.37027675971676	723435044.7264	5.809269753937809e+21	2381380232493.9297	9.843308971730048	615965859328.6907	1.6448713906808543e+21	-6.255810342229268e+23	1473.8223966087091	-0.6511357427457095	23.481524029145927	3.335579514824797	26.97085494123716	115.39752676343245	115.31464362120043	38.31368385486917	0.003316478764059989	-3.953783155524656e+22	0.40314871730813584	0.01648119854072665	-3.0611935565744826e+23	0.041152934484753136	0.31862419592442554	1.0325970672708855	238.623962	201.51387	-24.511042	32.800335	-19.037144	41.459461	0.0		True	0.0	None	0.0	None	0.0	None	0.0	None	0.0	None	0.0	None	0.0	None	0.0	None	1.5265000000000001e-06	12
2014-02-23 18:36:00	93.9983928714745	738109857.0749	5.872150647633873e+21	2389622165180.9336	12.995255303162358	1050683983797.6104	1.707898676419744e+21	-6.430103262246753e+23	1414.0240817813085	-0.6559706989583907	23.36662580782453	2.6223217141029744	26.80057057123087	112.84816171259993	112.7965695323617	37.57311758032273	0.004155821970950546	-3.863035775841853e+22	0.6527066305833115	0.021263813695101604	-3.110935072770968e+23	0.039408982634204635	0.31736383863090645	0.0	238.624725	201.403534	-24.505564	32.940857	-19.130417	41.56166500000001	0.0		True	0.0	None	0.0	None	0.0	None	0.0	None	0.0	None	0.0	None	0.0	None	0.0	None	1.3104e-06	12
2014-02-23 18:48:00	94.6974502719426	747030666.8688	5.920268664554556e+21	2421714339899.26	5.994135551234112	337941713957.7097	1.7349171836548429e+21	-6.554716025906176e+23	1392.654001591222	-0.6606979212416771	23.23020262006707	2.874101843174008	26.736549590269085	113.69006696061359	113.19082959264091	37.63023780403748	0.0018725821778300886	-5.1940270354470976e+22	0.205083406988811	0.009663344951050146	-3.1118010476903954e+23	0.052354409430247516	0.3136612593743121	0.0	238.625397	201.293198	-24.502371	33.078163	-19.193096	41.668831	0.0		True	0.0	None	0.0	None	0.0	None	0.0	None	0.0	None	0.0	None	0.0	None	0.0	None	1.2115e-06	12
2014-02-23 19:00:00	85.92553951113287	726343617.3295	5.598060937091852e+21	2164294495655.7644	6.431088033928615	350784148310.8033	1.6824038714900884e+21	-6.432466864395316e+23	1372.6042645797522	-0.6668420406326441	22.920040745751447	3.0934549006838163	26.25487795445049	113.5724482748976	113.35631259244244	36.42051977334695	0.002094134820556371	-5.475208252063835e+22	0.2218883693859992	0.010623750926352558	-3.009516619964315e+23	0.05676047962103512	0.31199106757676504	0.0	238.62616	201.182861	-24.496799	33.257835	-19.245121	41.762379	0.0		True	0.0	None	0.0	None	0.0	None	0.0	None	0.0	None	0.0	None	0.0	None	0.0	None	1.1740000000000001e-06	12
2014-02-23 19:12:00	86.11559413609696	716816831.8887	5.55486699975958e+21	2172283228442.2583	2.1585316895581306	179818289361.7104	1.6647760971792156e+21	-6.287520397631927e+23	1372.7412889168131	-0.6604785197583241	22.839931197944452	1.9691499835904167	26.43991022375239	112.84774582033155	112.09838887611627	36.99115377199839	0.0007084121068454646	-6.079798010821077e+22	-0.11463969909110484	0.00362699509382804	-2.951200899354586e+23	0.06386581254080857	0.3100116863635595	0.0	238.626938	201.07254	-24.499998	33.415882	-19.262468	41.86713	0.0		True	0.0	None	0.0	None	0.0	None	0.0	None	0.0	None	0.0	None	0.0	None	0.0	None	1.4913999999999996e-06	12
2014-02-23 19:24:00	83.2873968197284	689247320.8892001	5.360034943709198e+21	2080953401010.9404	3.095759981483665	35559201731.71289	1.5939150416863122e+21	-6.01993392896487e+23	1393.1780515882936	-0.6576641008020242	22.65785720566626	2.1746634449430444	26.40846406038639	114.56327000006534	113.69552111714142	37.50660383539584	0.001068977894158724	-5.709415636923344e+22	0.023843816516194258	0.005420921659080777	-2.896741934679609e+23	0.062374068308219136	0.3164624732109246	0.8555136982741479	238.627609	200.962204	-24.496943	33.633339	-19.253969	41.97156500000001	0.0		True	0.0	None	0.0	None	0.0	None	0.0	None	0.0	None	0.0	None	0.0	None	0.0	None	1.6772999999999996e-06	12
2014-02-23 19:36:00	82.53277632442855	692621718.6865001	5.272297202724073e+21	2028409616507.596	5.3075374772986805	326854907397.5955	1.592421207173569e+21	-6.106323670711293e+23	1391.5079410841774	-0.6638520367785602	22.48846587408132	1.7875920084121977	26.162930726127893	114.53556043944995	113.80660555309376	37.33268112918986	0.0018603356036798735	-5.5544650329867785e+22	0.2225479173535724	0.009211116108976495	-2.868554740915793e+23	0.060385644852888165	0.3118563656397078	0.0	238.628403	200.851898	-24.493694	33.714996	-19.240025	42.074677	0.0		True	0.0	None	0.0	None	0.0	None	0.0	None	0.0	None	0.0	None	0.0	None	0.0	None	1.6398e-06	12
2014-02-23 19:48:00	86.72592506330233	709975011.4824003	5.566869916030804e+21	2135993146047.4	3.7100678332121935	93483184332.3116	1.6184988006137484e+21	-6.213152887213287e+23	1444.9432541757064	-0.6589560119483128	22.94424375609013	2.206135815236125	26.348985435534296	116.87047224546413	116.01229689056049	37.508158273492185	0.0012788927380945167	-5.647461081040757e+22	0.0607806326350615	0.0062999037121846966	-2.9570457715441644e+23	0.05989597389844777	0.3136190472272976	0.0	238.62912000000003	200.741577	-24.487387	33.790947	-19.233986	42.169876	0.0		True	0.0	None	0.0	None	0.0	None	0.0	None	0.0	None	0.0	None	0.0	None	0.0	None	1.4682e-06	12
2014-02-23 20:00:00	84.06977448636151	681022568.2303	5.276394940654199e+21	2080574232262.292	2.2293390233348482	74109948913.24544	1.5274429219039549e+21	-5.934989031594866e+23	1468.2396176372558	-0.6562145446639205	22.735910365113114	1.5890613451589062	26.57997463385478	118.43412612733772	117.03289680362772	39.1112282870014	0.0008238503412176084	-5.5456489837250126e+22	0.016953580882627585	0.003953010932845306	-2.8352343881859188e+23	0.0613166343416666	0.31348365315494914	0.0	238.629868	200.631271	-24.483263	33.873577000000004	-19.227268	42.264057	0.0		True	0.0	None	0.0	None	0.0	None	0.0	None	0.0	None	0.0	None	0.0	None	0.0	None	1.5311e-06	12
2014-02-23 20:12:00	87.32730535170616	685874440.0039	5.284468567943979e+21	2116213528256.3457	2.3661015123768903	365872797329.0653	1.52629440581784e+21	-5.924763758910366e+23	1483.0919357259477	-0.6504498930646304	22.57950593548524	2.1244875139768915	26.66064482429273	119.01632530355052	117.81603736105421	39.74717074436485	-0.0008818865122537793	-5.01113249050292e+22	-0.2632727514596982	-0.004180386208714607	-2.8856341692667078e+23	0.05501469299393258	0.3167992030062594	0.0	238.630676	200.520981	-24.482105	33.979549	-19.217796	42.369289	0.0		True	0.0	None	0.0	None	0.0	None	0.0	None	0.0	None	0.0	None	0.0	None	0.0	None	1.4552e-06	12
2014-02-23 20:24:00	85.39056970351871	685393040.2867	5.327840422121171e+21	2054425092021.4807	2.9953439431056403	281172325607.16736	1.5105747950583514e+21	-5.935736542392252e+23	1529.4679733440344	-0.652112306070017	22.81419179869205	1.7918414029736942	26.61857854490055	119.15850743593306	117.96654296878599	39.709057965778506	0.0011419534666815248	-3.931426355843556e+22	0.20822346024139046	0.005290508752772111	-2.9123630655574982e+23	0.04319146391932577	0.3199582362239453	0.0	238.631393	200.41069	-24.47653	34.094456	-19.209597	42.465908	0.0		True	0.0	None	0.0	None	0.0	None	0.0	None	0.0	None	0.0	None	0.0	None	0.0	None	1.4075999999999999e-06	12
