Timestamp	TOTUSJH	TOTBSQ	TOTPOT	TOTUSJZ	ABSNJZH	SAVNCPP	USFLUX	TOTFZ	MEANPOT	EPSZ	MEANSHR	SHRGT45	MEANGAM	MEANGBT	MEANGBZ	MEANGBH	MEANJZH	TOTFY	MEANJZD	MEANALP	TOTFX	EPSY	EPSX	R_VALUE	CRVAL1	CRLN_OBS	LAT_MIN	LON_MIN	LAT_MAX	LON_MAX	QUALITY	NOAA_AR	IS_TMFI	BFLARE	BFLARE_label	CFLARE	CFLARE_label	MFLARE	MFLARE_label	XFLARE	XFLARE_label	BFLARE_loc	BFLARE_label_loc	CFLARE_loc	CFLARE_label_loc	MFLARE_loc	MFLARE_label_loc	XFLARE_loc	XFLARE_label_loc	XR_MAX	XR_QUAL
2014-03-03 17:48:00	89.34694792473191	540221643.3869	3.764278632911682e+21	2028471341215.9607	1.479632322529264	925933045291.3844	1.0892363008189752e+21	-4.123729696271588e+23	1509.2935248920621	-0.5747854219537731	21.349450022713693	2.2364217252396164	29.958828946330232	132.60675343602603	132.13505565541868	56.78395796477808	0.0007878766360645709	-1.6717464152039127e+22	0.9540558118376036	0.003478487443748601	1.996448781631074e+23	0.0233016113915388	-0.2782747027275905	0.0	75.772797	96.471992	-17.216607999999994	-28.340622	-10.178033	-12.757295	0.0		True	0.0	None	0.0	None	0.0	None	0.0	None	0.0	None	0.0	None	0.0	None	0.0	None	1.0685e-06	12
2014-03-03 18:00:00	88.15137820026695	545930586.0706999	3.784822265133516e+21	1978782552248.8088	0.973961735431923	214193943950.0003	1.081699742866188e+21	-4.16057721569884e+23	1566.7521483851065	-0.5738569792869754	21.149175669709575	1.7592083562396923	29.778455832557274	133.4786518260503	133.53208931467876	57.64010905792708	0.0005354380073842348	-1.5621286510585983e+22	0.1549920384756561	0.002267092288283111	2.040415612108936e+23	0.021546011105662243	-0.2814289169389073	0.0	75.77493299999998	96.361679	-17.220072000000002	-28.235922	-10.177719	-12.632279	66560.0		False	0.0	None	0.0	None	0.0	None	0.0	None	0.0	None	0.0	None	0.0	None	0.0	None	1.2941999999999998e-06	12
2014-03-03 18:12:00	84.90008735748566	553290375.3262	3.5917583408792543e+21	1871012491919.6318	2.700992630567593	569334599050.3538	1.0647630755814824e+21	-4.162259079351721e+23	1547.2236381918158	-0.5664523787958958	20.444419813068144	1.0869565217391304	30.125611211164287	137.2061572410562	138.26823215880765	59.54459081090194	0.0015451902920867238	-9.878606638461227e+21	0.6302609067575627	0.006232798441729176	1.9827847502872483e+23	0.013444045944436595	-0.2698421979574061	0.0	75.777107	96.251358	-17.226097	-28.132481	-10.167747	-12.508251	66560.0		False	0.0	None	0.0	None	0.0	None	0.0	None	0.0	None	0.0	None	0.0	None	0.0	None	1.2203e-06	12
2014-03-03 18:24:00	95.03178328792455	564750103.1719	3.845794713277297e+21	2054093193728.8013	2.4353450174641607	423001313070.3688	1.0886024000105298e+21	-4.252096444548391e+23	1625.0470022726706	-0.5669363665643168	21.143982067896033	2.132435465768799	30.18642889177848	137.2091171538241	138.6680422768016	59.582561939300966	0.0013666358122694506	-1.3072981187421626e+22	0.4593351290306012	0.005504055613918096	1.990278372457211e+23	0.017430339483627717	-0.26536585038636745	0.0	75.779282	96.141029	-17.231266	-28.027325	-10.164298	-12.382636	0.0		True	0.0	None	0.0	None	0.0	None	0.0	None	0.0	None	0.0	None	0.0	None	0.0	None	9.8337e-07	12
2014-03-03 18:36:00	93.49074874102396	563821155.9380001	3.6354838829821696e+21	1979447718416.2173	9.669763554959019	844871818413.4626	1.0772788354571964e+21	-4.362443853985633e+23	1582.3538390118006	-0.5826073609262042	20.514761164696967	1.6184971098265897	29.842733567018872	138.5187770225098	140.93454985901982	59.52273781915968	0.00558945870228845	-6.287121795907943e+21	0.31028464879952705	0.02167361235648051	1.9543367832285806e+23	0.0083964941668854	-0.2610030143075763	0.0	75.781448	96.030701	-17.21805	-27.922277	-10.153998	-12.256993	0.0		True	0.0	None	0.0	None	0.0	None	0.0	None	0.0	None	0.0	None	0.0	None	0.0	None	9.523399999999999e-07	12
2014-03-03 18:48:00	92.00790170286244	534403619.62820005	3.5886174563840447e+21	1951573944442.68	5.007912706151724	381932579801.5135	1.0140539267497696e+21	-4.050512288208706e+23	1660.8369898772917	-0.5707263964132505	21.139118786331398	2.4585125998770745	30.32766486278459	137.93462899608377	141.36513039054026	58.73842301866604	0.0030780041217896275	-2.8627583894854776e+21	0.4542503711267368	0.01193209802135957	1.8611891367614428e+23	0.00403369169916875	-0.26224578361595485	0.0	75.783569	95.920372	-17.218321	-27.816925	-10.157195	-12.132836	0.0		True	0.0	None	0.0	None	0.0	None	0.0	None	0.0	None	0.0	None	0.0	None	0.0	None	9.7442e-07	12
2014-03-03 19:00:00	99.09315971408712	535385512.15010005	3.498558417871456e+21	2118806985647.7712	13.928330648279767	1139819144498.2012	1.034424834749502e+21	-4.141456715477827e+23	1567.1440004442402	-0.5824705870693624	21.00346280243716	2.1415823914336705	29.989468489170342	132.95131042439476	137.94136489848128	56.2951826043534	0.008290673004928433	-2.661242496187103e+21	0.014982908024696148	0.03288146540795897	1.7704571662835478e+23	0.003742874996845628	-0.24900398479894706	0.0	75.785736	95.810036	-17.222694	-27.713324	-10.161006	-12.032488	0.0		True	0.0	None	0.0	None	0.0	None	0.0	None	0.0	None	0.0	None	0.0	None	0.0	None	9.6292e-07	12
2014-03-03 19:12:00	94.90300311485943	531648470.3458	3.3818729648906536e+21	2049673997365.2256	6.682365420767463	604962750551.7119	1.039034397412956e+21	-4.151616176690477e+23	1515.7776374563455	-0.5880037748843108	20.614056233984176	1.25	29.538838105928434	128.96588501724756	134.1180557305948	54.13366587540563	0.003977598464742538	1.2586481711924844e+21	0.2898768551546667	0.015830116739701947	1.786611716160384e+23	-0.0017826548611783969	-0.2530422824858275	0.0	75.78785699999997	95.699707	-17.227991	-27.60818900000001	-10.157827	-11.906719	0.0		True	0.0	None	0.0	None	0.0	None	0.0	None	0.0	None	0.0	None	0.0	None	0.0	None	1.4789e-06	12
2014-03-03 19:24:00	102.15276105094436	558136986.5309	3.6502698943658176e+21	2234403269383.752	8.632214771711226	813242994198.5309	1.1190642856025244e+21	-4.43203593543083e+23	1484.1286724549254	-0.5979295692997834	21.338365662767863	3.725701943844492	29.50667721254771	127.61544259340168	133.2656586146863	52.005142746922964	0.0046610230948764715	-7.291593444388755e+21	0.18432661180774312	0.019357701839088703	1.830366439886137e+23	0.009837147963667579	-0.2469362236692939	0.0	75.79003900000002	95.589386	-17.229570000000002	-27.498117	-10.160732	-11.782263	0.0		True	0.0	None	0.0	None	0.0	None	0.0	None	0.0	None	0.0	None	0.0	None	0.0	None	1.9147e-06	12
2014-03-03 19:36:00	104.72970423482279	552839645.3947	3.4990201038844907e+21	2329837029127.5728	8.978353420219436	741508371380.9855	1.1212417688722694e+21	-4.418456018709031e+23	1387.4230559004639	-0.6018091559992336	20.58577213989368	2.8436018957345968	29.61789283827273	127.53300722517791	133.7099242181927	51.83241453855346	0.004727937556724294	6.188741761112921e+21	0.5105703047518478	0.02027760883030355	1.80891220995964e+23	-0.008429282627646867	-0.2463801666788093	0.0	75.79220600000002	95.479057	-17.217173000000006	-27.395626	-10.152416	-11.658792	0.0		True	0.0	None	0.0	None	0.0	None	0.0	None	0.0	None	0.0	None	0.0	None	0.0	None	1.7188e-06	12
2014-03-03 19:48:00	101.86475713528934	559601813.5604999	3.6574224113113225e+21	2379967700152.3564	7.190664064334822	522626510771.66797	1.1563412129455942e+21	-4.3708945489781955e+23	1355.3106504317211	-0.5881371986928305	21.175407664671084	2.8051181102362204	30.45578812362945	126.51367350366077	132.69794253386272	51.13894400800534	0.0035387126300860344	4.4967818788900517e+21	0.2730889468069957	0.01618198759168979	1.8456602691148148e+23	-0.00605076299084211	-0.2483476661933209	0.0	75.794342	95.368744	-17.21913	-27.292374	-10.155641	-11.536091	0.0		True	0.0	None	0.0	None	0.0	None	0.0	None	0.0	None	0.0	None	0.0	None	0.0	None	1.4946e-06	12
2014-03-03 20:00:00	102.52742744722893	573382124.1784999	3.917967299199684e+21	2435960652084.9263	5.074948086352576	584626651832.9246	1.1939482712422372e+21	-4.526710464316982e+23	1398.852036540917	-0.5944647677446395	21.92273422122264	3.603603603603603	30.30803570254253	125.75279828709186	130.82744148157457	50.583334309523146	0.002406329106852809	7.599956766280507e+21	0.4525724768990739	0.011102033238557973	1.975700321874761e+23	-0.009980551151989644	-0.2594564512651027	0.0	75.796539	95.258438	-17.224342	-27.181646	-10.159968	-11.410762	0.0		True	0.0	None	0.0	None	0.0	None	0.0	None	0.0	None	0.0	None	0.0	None	0.0	None	1.2484e-06	12
2014-03-03 20:12:00	104.74993306371904	576713483.0504	3.831174803838393e+21	2489992357550.736	6.605155656017282	670826662428.1406	1.2230460982225378e+21	-4.583346327756046e+23	1300.6423306215354	-0.5984254129609786	21.459699986682924	3.5166816952209197	30.33715068456058	125.77608690069994	129.83979758863626	51.59531854359909	0.002977978203794988	1.5853940870331622e+21	0.5852291705938895	0.014330474531420202	2.024841446370054e+23	-0.002069972555844817	-0.2643737767287046	0.0	75.798683	95.148132	-17.229457999999994	-27.073038	-10.158335	-11.312774	0.0		True	0.0	None	0.0	None	0.0	None	0.0	None	0.0	None	0.0	None	0.0	None	0.0	None	1.1036e-06	12
2014-03-03 20:24:00	98.9583903706052	572876701.8964	3.868220483214841e+21	2343863745182.12	6.744694791810048	453169169704.2124	1.2002800023833152e+21	-4.513336040438356e+23	1357.9111067516578	-0.5932311214507354	21.600430749676413	3.1701631701631703	30.301007445315328	124.5221733227983	128.14504582021215	52.124265360953075	0.0031443798563217	3.594824543878652e+20	0.1868118623174128	0.014779248654555453	2.042251757712188e+23	-0.000472502330089438	-0.2684327711602585	0.0	75.800888	95.037842	-17.234585	-26.965208	-10.151318	-11.189716	0.0		True	0.0	None	0.0	None	0.0	None	0.0	None	0.0	None	0.0	None	0.0	None	0.0	None	1.24e-06	12
2014-03-03 20:36:00	84.46984164583489	550262631.0704	3.6526676512220423e+21	2005283173210.0159	4.2197313397725065	474219365790.5984	1.147705051709226e+21	-4.351569437183798e+23	1362.2640975047925	-0.595474774873961	21.335080278808395	3.1203566121842496	29.76526183696001	127.59105700100241	130.74601765082448	52.383189884511395	0.002090010569476228	-3.947018020046138e+21	0.4544737130558394	0.009612909072850095	1.939402062367597e+23	0.0054011539993522786	-0.2653904581207451	0.0	75.803116	94.927567	-17.218801000000006	-26.841944	-10.153081	-11.067588	0.0		True	0.0	None	0.0	None	0.0	None	0.0	None	0.0	None	0.0	None	0.0	None	0.0	None	2.0653e-06	12
2014-03-03 20:48:00	80.62723001340144	535974741.5194	3.4835264243252456e+21	1878198127940.2104	4.7009886954743605	462214846070.0185	1.1144363146614014e+21	-4.3006895387343686e+23	1347.9185965180072	-0.6042006119586486	21.61708694512464	3.6998972250770814	29.77642356046985	125.64636717574741	128.26137355963584	52.78656199854581	0.002415718754097821	-4.988175778446565e+21	0.4595789418451802	0.010934934886566406	1.921344573209626e+23	0.007007850324349753	-0.2699282420786678	0.0	75.80534399999998	94.817299	-17.221042999999998	-26.733372	-10.156234	-10.968496	0.0		True	0.0	None	0.0	None	0.0	None	0.0	None	0.0	None	0.0	None	0.0	None	0.0	None	2.2397e-06	12
2014-03-03 21:00:00	76.23190237188956	510312833.2882	3.22384132724385e+21	1739647838643.8535	7.790384182430679	474902150615.2824	1.0550630627433776e+21	-4.098297120143149e+23	1344.1364309437786	-0.6047200812406763	20.63670901519452	2.1594684385382057	29.415745961480646	126.64431063425604	129.88652954416446	52.418883384405966	0.00431361250411444	-1.0663648150769468e+22	0.4820573726832478	0.0190262453871071	1.8066166029074795e+23	0.015734638038713163	-0.26657348329171554	0.0	75.807541	94.707039	-17.225952	-26.623854	-10.161995	-10.843722	0.0		True	0.0	None	0.0	None	0.0	None	0.0	None	0.0	None	0.0	None	0.0	None	0.0	None	2.1688999999999997e-06	12
2014-03-03 21:12:00	77.93900025423096	514199071.3067	3.388490965275257e+21	1807647350910.1323	9.064923818176904	689539425313.8733	1.0890673226197617e+21	-4.077991438879614e+23	1330.9802126114305	-0.5971760771748771	20.849404380402405	1.5127803860198226	29.46936167143711	125.48864729464896	127.28545186763405	52.55936325953483	0.004728703087207566	-1.7946224736088694e+22	0.09993890655123346	0.022075475642291485	1.8883430264807313e+23	0.02628023194413716	-0.2765266425434465	0.0	75.809799	94.596802	-17.234011	-26.51653300000001	-10.163159	-10.72458	0.0		True	0.0	None	0.0	None	0.0	None	0.0	None	0.0	None	0.0	None	0.0	None	0.0	None	1.9126e-06	12
2014-03-03 21:24:00	72.727287504205	499926398.3424001	3.2496241231288987e+21	1626186815658.4028	5.342061188149579	569601804763.9822	1.0374002155209042e+21	-3.99732478128063e+23	1384.7902410704817	-0.6020752570306347	20.616611291027166	1.3582342954159592	28.96762035458141	125.84634652698757	127.97836827834186	51.65209362554104	0.003023237797481369	-2.081933483535656e+22	0.6236921415143115	0.013339816964509792	1.8167579088165934e+23	0.03135798829983573	-0.27363925744426465	0.0	75.812042	94.486588	-17.234501	-26.404333	-10.166335	-10.624765	0.0		True	0.0	None	0.0	None	0.0	None	0.0	None	0.0	None	0.0	None	0.0	None	0.0	None	1.7656e-06	12
2014-03-03 21:36:00	79.70758768206478	505981086.3892	3.231946239351618e+21	1798947629157.92	1.97795360348866	682012560243.3225	1.05527062797368e+21	-4.0343623757006135e+23	1346.025143248635	-0.6003825931567155	20.37142733528028	1.7699115044247788	29.04414687001762	127.6535128987032	129.7816231616446	52.35153419183134	0.0010940008868853203	-2.461552253231332e+22	0.7298278493461368	0.004885263501089096	1.7839062061065475e+23	0.036632136316934925	-0.2654759623036121	0.0	75.814339	94.376389	-17.219212	-26.280506	-10.168605	-10.502074	0.0		True	0.0	None	0.0	None	0.0	None	0.0	None	0.0	None	0.0	None	0.0	None	0.0	None	3.295e-06	7
2014-03-03 21:48:00	81.08740942226909	499468659.4006001	3.34198035987747e+21	1851884436859.14	10.201605980706091	1039155787805.1136	1.0446157897402013e+21	-3.910986003366992e+23	1391.0820422249176	-0.5896108097465269	21.122630256235976	1.7689331122166942	29.370792421225577	127.94971882493273	129.52141262493976	52.91670248259864	0.0056393620678308965	-2.6946777258452564e+22	1.1113706925235105	0.025698009867078642	1.824299373316237e+23	0.04062431096848041	-0.2750269701285185	0.0	75.81665	94.266205	-17.221342	-26.174303	-10.173368	-10.383741	0.0		True	0.0	None	0.0	None	0.0	None	0.0	None	0.0	None	0.0	None	0.0	None	0.0	None	3.5765e-06	12
2014-03-03 22:00:00	70.56451698824523	463674101.252	3.162810128125966e+21	1615193398703.579	0.09913239637924633	871560534067.9346	9.557079284975258e+20	-3.535707300263747e+23	1449.5163643617625	-0.5741839275942342	21.059900637334163	1.704199634814364	29.851481817023487	127.79476704544584	128.83229518520346	53.857834306004584	-6.033621203849441e-05	-2.434898758798911e+22	1.026282379813648	-0.00027162972104116136	1.7057997309125178e+23	0.03954172712535325	-0.2770146694867745	0.0	75.818939	94.156044	-17.226136999999998	-26.063002	-10.176077	-10.284404	0.0		True	0.0	None	0.0	None	0.0	None	0.0	None	0.0	None	0.0	None	0.0	None	0.0	None	2.4614e-06	12
2014-03-03 22:12:00	69.04436841030125	455501568.7219	3.083073873984059e+21	1578695841247.95	1.0649310136951298	636319178497.7408	9.389317961873036e+20	-3.495369779198441e+23	1445.525959067845	-0.5778175854731054	20.977626021183642	1.3075965130759652	29.530483149584626	126.80783615400276	127.97748370916729	53.090137133715274	0.0006630952762734307	-2.442776882945716e+22	0.7665238510799284	0.0029634991128895762	1.689051004459409e+23	0.04038140538815591	-0.2792160586115347	0.0	75.821297	94.045898	-17.212009	-25.938047	-10.180943	-10.161884	0.0		True	0.0	None	0.0	None	0.0	None	0.0	None	0.0	None	0.0	None	0.0	None	0.0	None	1.7015000000000001e-06	12
2014-03-03 22:24:00	72.86929707052208	459198795.12570006	2.981920350494468e+21	1635393853526.0637	5.1900416914072265	801205585937.7397	9.332506206393511e+20	-3.526645892466615e+23	1416.6229063844685	-0.5782938882215674	20.830565747035006	2.2082018927444795	29.797797418485732	126.75196871054753	128.68057429586858	53.50661290026535	0.0032744742532537703	-2.500705322827497e+22	0.9779120237603396	0.014322282231368394	1.6456603373505028e+23	0.041006175514344566	-0.2698528131818801	0.0	75.823631	93.935783	-17.212439	-25.827675	-10.176069	-10.065906	0.0		True	0.0	None	0.0	None	0.0	None	0.0	None	0.0	None	0.0	None	0.0	None	0.0	None	1.3700999999999998e-06	12
2014-03-03 22:36:00	69.73583288203736	443467571.7843	2.924689080282447e+21	1562858162749.7932	0.5658710036583621	779463971823.1935	8.983609764069814e+20	-3.396937142295814e+23	1452.6734170904026	-0.5767839006950259	20.787573114246946	1.7810026385224276	30.03800337555473	129.7430092645212	131.62512144729118	55.39900397820001	-0.00037326583354773215	-1.595421935131919e+22	0.9946501993906908	-0.0016185025617113744	1.6061972663243246e+23	0.02708951177053192	-0.27272471810594245	0.0	75.826035	93.825684	-17.215366	-25.712532	-10.180045	-9.944228	0.0		True	0.0	None	0.0	None	0.0	None	0.0	None	0.0	None	0.0	None	0.0	None	0.0	None	1.3584e-06	12
2014-03-03 22:48:00	68.17493805670901	439344500.7182	3.0500590466133173e+21	1516686438292.7468	2.8833719067538635	1013467720998.208	8.70970420646789e+20	-3.240183669407627e+23	1547.611049099638	-0.5553309899902271	21.658086157153114	2.4932614555256065	31.24566563990449	127.84674070653463	130.18530533036616	55.56506842890131	0.001942972982987779	-1.407141253002988e+22	1.3211056667439798	0.008439226407334945	1.5999570784138484e+23	0.02411681635408956	-0.2742146245246249	0.0	75.828461	93.715614	-17.202856	-25.610573	-10.183256	-9.824161	0.0		True	0.0	None	0.0	None	0.0	None	0.0	None	0.0	None	0.0	None	0.0	None	0.0	None	1.4593000000000004e-06	12
2014-03-03 23:00:00	63.99152054728774	419285469.7267	2.7869429135653727e+21	1457839067849.3909	7.5729588195105695	488614835424.049	8.276923834215717e+20	-3.047525405620408e+23	1484.1099943993158	-0.5472993707601576	21.465230958171386	2.8288543140028284	31.584606005723003	127.740939653916	131.5545129901881	54.72057485779976	0.005355699306584561	-1.0789117267933282e+22	0.26140609936922954	0.02334594347588509	1.54476866328721e+23	0.01937597330905708	-0.2774221064171851	0.0	75.830917	93.605568	-17.208574	-25.509125	-10.188084	-9.727142	0.0		True	0.0	None	0.0	None	0.0	None	0.0	None	0.0	None	0.0	None	0.0	None	0.0	None	1.2365000000000001e-06	12
2014-03-03 23:12:00	65.84613202552804	411787653.3979	2.5949066708069043e+21	1443524151328.9475	8.699880895682327	474282261353.5328	8.1957313189964e+20	-3.131476953070529e+23	1421.0405263892562	-0.5726157879067253	20.8792971663233	1.7454545454545456	30.349736881403235	126.67974711189379	130.66970119237413	54.684081205903816	0.006327186105950783	-1.3268490027065334e+22	-0.28625323099392763	0.026868743059675484	1.4360792854563117e+23	0.024262502918090047	-0.2625986663359525	0.0	75.833344	93.495544	-17.215725	-25.401897	-10.191494	-9.604489	0.0		True	0.0	None	0.0	None	0.0	None	0.0	None	0.0	None	0.0	None	0.0	None	0.0	None	1.0871e-06	12
2014-03-03 23:24:00	70.70021043358682	415035822.8726	2.737457102498239e+21	1599567068637.1318	8.473646227463794	674335482447.7612	8.379531644280359e+20	-3.128277515388057e+23	1452.6211076647028	-0.5675539014127616	21.186082580397038	2.5369978858350954	30.30719703011915	127.66799238998199	131.12049931940862	55.65415614290616	0.005971561823441715	-1.1277822880658764e+22	0.919214507629504	0.02604907206856653	1.4374867314208296e+23	0.02046101199102212	-0.26079885772083283	0.0	75.8358	93.385551	-17.2209	-25.299755	-10.195808	-9.508085	0.0		True	0.0	None	0.0	None	0.0	None	0.0	None	0.0	None	0.0	None	0.0	None	0.0	None	1.4933000000000004e-06	12
2014-03-03 23:36:00	69.86732040859195	409018737.08950007	2.6752599057542446e+21	1561744461784.1292	9.530575271200373	647796630354.5999	8.279204547557883e+20	-3.08194507954647e+23	1437.855722880991	-0.5673736425050866	20.90209737164424	1.85581727337616	30.48531158083398	126.0847834088669	130.68887190900858	54.948802010560655	0.006802694697502051	-1.1248388723258585e+22	0.6093307065609997	0.029732632893406608	1.4214394172029418e+23	0.020707829365887092	-0.26168125612978826	0.0	75.83833299999998	93.275581	-17.222925	-25.195948	-10.200024	-9.388638	0.0		True	0.0	None	0.0	None	0.0	None	0.0	None	0.0	None	0.0	None	0.0	None	0.0	None	1.3368e-06	12
2014-03-03 23:48:00	66.72590197765092	413100573.0216	2.699438538452841e+21	1523755924857.2258	8.87392500342168	568082009371.8425	8.300574309879657e+20	-3.126270527916948e+23	1458.1363081934924	-0.5698469304376668	21.2368550745498	2.008608321377331	30.387643536786648	125.68786216270244	129.66881242089906	55.51131452153449	0.006365799858982553	-8.313961014644852e+21	0.7882145729965337	0.02736734355680386	1.37924107126999e+23	0.015154431203784997	-0.25140380008010704	0.0	75.840897	93.165642	-17.226779999999998	-25.090687	-10.204635	-9.293063	0.0		True	0.0	None	0.0	None	0.0	None	0.0	None	0.0	None	0.0	None	0.0	None	0.0	None	8.9825e-07	12
2014-03-04 00:00:00	67.87954220634379	413513723.65260017	2.6767999627421784e+21	1552119341441.1624	16.069796911795365	981644449831.0558	8.378993559224746e+20	-3.127430356260768e+23	1412.4704124885284	-0.5694887309409841	20.990431358846934	2.522775052557814	30.392616011614088	124.44776962380331	128.6909830488203	55.41590795936786	0.01126124520798554	-1.9241824892095046e+22	0.2500291584123222	0.049521324824004745	1.3217006540540676e+23	0.0350383579824604	-0.2406747848610955	0.0	75.843475	93.055725	-17.213997	-24.967138	-10.209977	-9.171292	0.0		True	0.0	None	0.0	None	0.0	None	0.0	None	0.0	None	0.0	None	0.0	None	0.0	None	8.7057e-07	12
2014-03-04 00:12:00	65.4344127308648	394915020.6429	2.589939239691575e+21	1511715467989.9834	10.801056327626004	644425392880.2888	7.964340360956706e+20	-2.982497176436068e+23	1430.8076452116309	-0.5686747180659247	21.617962088985887	2.93470286133529	30.66717760757309	126.50776178294208	131.18025983584434	55.27571875350566	0.007924472727531917	-1.42831993925464e+22	0.3354072308456001	0.03487062061864172	1.2909095403276408e+23	0.02723387117281927	-0.2461385796755908	0.0	75.846046	92.945847	-17.215811	-24.86157	-10.213942	-9.052204	0.0		True	0.0	None	0.0	None	0.0	None	0.0	None	0.0	None	0.0	None	0.0	None	0.0	None	4.6041000000000005e-06	12
2014-03-04 00:24:00	70.18794362195462	397247840.9843	2.656259886703974e+21	1614287130546.9731	8.893615906922726	533921362522.5125	8.018070450939105e+20	-2.946157996197621e+23	1456.758381532697	-0.5584470315655351	21.70442511035557	3.204661325564458	30.892331565720273	130.92162651808945	136.36245713373768	54.86050842923685	0.006477506123031847	-1.4008373553925492e+22	0.10516848093533086	0.02873126669702585	1.241843599250013e+23	0.02655300441574176	-0.23539262747105946	0.0	75.848694	92.835991	-17.218023000000002	-24.757845	-10.218278	-8.955866	0.0		True	0.0	None	0.0	None	0.0	None	0.0	None	0.0	None	0.0	None	0.0	None	0.0	None	4.8161e-06	12
2014-03-04 00:36:00	68.864633122003	393824675.2706	2.5381696141080653e+21	1567657044603.8508	9.552672419524024	695392510128.6316	7.964946572169116e+20	-3.0203411421227976e+23	1422.0303653267902	-0.5774848207460149	21.240841399451508	3.273809523809524	30.21247394118657	129.9982780742778	136.01892421293064	54.19388083790979	0.007107643169288707	-1.3586491646895247e+22	1.0006222137942091	0.030752949019134068	1.1968799259094071e+23	0.02597717384917687	-0.228841696002099	0.0	75.851303	92.726158	-17.222707999999994	-24.632227	-10.223715	-8.835869	0.0		True	0.0	None	0.0	None	0.0	None	0.0	None	0.0	None	0.0	None	0.0	None	0.0	None	1.7921000000000004e-06	12
2014-03-04 00:48:00	71.14973814302331	397656624.9471	2.723252872556244e+21	1606110903383.8467	10.891852131665315	839663826378.5986	8.047121308172491e+20	-3.081624632969363e+23	1513.3388201334985	-0.5835243887265009	21.893105543143548	3.8376383763837634	30.20100131243362	129.5938348676537	134.27478923846536	55.84069446115299	0.008038267255841563	-1.5500340351822526e+22	1.1983701400221385	0.03459383850173087	1.2341845424091792e+23	0.029350838295106138	-0.2337003582396314	0.0	75.854004	92.616356	-17.228346	-24.528053	-10.228446	-8.741087	0.0		True	0.0	None	0.0	None	0.0	None	0.0	None	0.0	None	0.0	None	0.0	None	0.0	None	1.1843e-06	12
2014-03-04 01:00:00	71.23544570606617	406228282.7665	2.5346308210748964e+21	1630328782943.4316	10.686453742074807	694538206710.4946	8.279708753735389e+20	-3.124640317514031e+23	1343.0992117521976	-0.5791850400902285	20.82157384461698	2.955665024630542	30.74205585436361	128.4010885870441	134.11871998146376	54.11739958912515	0.007520375610186355	-1.3812669410610382e+22	0.9451749759744066	0.033316581052549636	1.1827370650263566e+23	0.025603239648083184	-0.21923278995788395	0.0	75.856735	92.506584	-17.229136999999998	-24.420259	-10.232943	-8.621111	0.0		True	0.0	None	0.0	None	0.0	None	0.0	None	0.0	None	0.0	None	0.0	None	0.0	None	1.8415999999999999e-06	12
2014-03-04 01:12:00	66.33975942594924	370608090.71870005	2.428500742037117e+21	1549692305639.4922	11.429522165142398	526056192051.1421	7.589394786091728e+20	-2.80192140052751e+23	1367.7110280203128	-0.5692834621520431	21.740398751447334	4.338070306656694	31.55693839481453	123.7113641522032	128.5701053559615	52.44042503081893	0.008548632883427373	-1.792968151446479e+22	0.6962256039147846	0.03930445473493485	1.1276931790197725e+23	0.036428827610640126	-0.22912030190309995	0.0	75.859444	92.396843	-17.21497	-24.300766	-10.237032	-8.503936	0.0		True	0.0	None	0.0	None	0.0	None	0.0	None	0.0	None	0.0	None	0.0	None	0.0	None	1.5693000000000004e-06	12
2014-03-04 01:24:00	62.21652749611416	376746769.8523	2.3424592153391168e+21	1430924492728.1655	14.37128269148142	912305988721.1382	7.692724557697768e+20	-2.876597392133573e+23	1330.1970440289874	-0.5749326985896058	20.751856112548296	2.564102564102564	30.6538191934866	122.35922994410923	127.99604496946912	52.443531275911035	0.010838071411373622	-1.94696979432394e+22	0.5413231040560883	0.04844109934181184	1.124425052987872e+23	0.03891321743474399	-0.2247338233163703	0.0	75.862228	92.287132	-17.218914	-24.192907	-10.241668	-8.407303	0.0		True	0.0	None	0.0	None	0.0	None	0.0	None	0.0	None	0.0	None	0.0	None	0.0	None	1.1896e-06	12
2014-03-04 01:36:00	65.19916115645732	367741379.6052	2.250881460328816e+21	1498457712734.9668	13.982357230452628	843779511978.3789	7.489364955286153e+20	-2.757831524554208e+23	1308.7913001970412	-0.5646934814785897	20.765634498719425	2.5482625482625485	30.80083461088449	120.47347081634584	127.72726524342346	52.96349081186576	0.01079718705054257	-1.6757441444806132e+22	0.7435115641001107	0.04860026249336483	1.052760216207666e+23	0.03431253093559008	-0.2155631431287508	0.0	75.86500500000002	92.177452	-17.220171	-24.08039500000001	-10.245199	-8.287188	0.0		True	0.0	None	0.0	None	0.0	None	0.0	None	0.0	None	0.0	None	0.0	None	0.0	None	9.8084e-07	12
2014-03-04 01:48:00	70.19349992786617	383716508.4175	2.3441873570049315e+21	1598012197013.9155	11.321761459268096	831619888846.4849	7.774158421404208e+20	-2.853141264805404e+23	1300.768221485267	-0.5598868116509266	20.811764559940176	2.5055268975681653	31.33092215975249	123.58856267212299	130.2007899212996	54.262533562534635	0.00834322878354318	-1.4429596416315719e+22	1.1849405447328172	0.037830355789172335	1.0636865329492585e+23	0.028315950670222637	-0.20873276373492397	1.7554066303478753	75.867836	92.067787	-17.221977	-23.959179	-10.249299	-8.192402000000001	0.0		True	0.0	None	0.0	None	0.0	None	0.0	None	0.0	None	0.0	None	0.0	None	0.0	None	8.656e-07	12
2014-03-04 02:00:00	70.28271802831617	385721964.2104	2.4302017098818577e+21	1624640444981.6611	13.146945466922455	838865577741.7076	7.707223331489714e+20	-2.7964964453667623e+23	1340.5935822935166	-0.5459179411332118	21.5067868257813	3.7362637362637363	32.10984537521417	128.60892784188	134.9763500135904	56.2547390620495	0.009631461880529272	-2.2945245225251043e+22	1.188219844526932	0.04409547752639385	1.1043276195672127e+23	0.04479255124003165	-0.2155812718480343	1.8209438632493185	75.870712	91.95816	-17.207293	-23.855362	-10.254633	-8.071642	0.0		True	0.0	None	0.0	None	0.0	None	0.0	None	0.0	None	0.0	None	0.0	None	0.0	None	8.2695e-07	12
2014-03-04 02:12:00	64.54900279821521	359873094.8973	2.1748141293643456e+21	1450368884229.8892	10.320705884593524	720446128657.0137	7.140076087470703e+20	-2.7019402396639622e+23	1365.810233942266	-0.5653452664110968	20.857619469856363	2.168473728106756	30.22191735202733	126.86679212985158	132.21347081826764	58.42445802843883	0.008607761371637629	-2.460180475059588e+22	1.161729452913728	0.03664205940238107	9.906644198235917e+22	0.05147602325449361	-0.20728342993212096	1.9909673395895275	75.873611	91.848564	-17.210793	-23.728971	-10.260122	-7.95148	0.0		True	0.0	None	0.0	None	0.0	None	0.0	None	0.0	None	0.0	None	0.0	None	0.0	None	8.5589e-07	12
2014-03-04 02:24:00	66.64387018195653	367451875.65410006	2.264201351420841e+21	1453356537059.3208	13.877575712119505	744722184138.0339	7.263772850514944e+20	-2.704035228054589e+23	1378.265172682775	-0.5541142426649853	20.79507000559095	1.7784963621665322	31.032148315471385	132.1120839921987	137.89740563785864	57.134886115517034	0.011218735418043252	-2.2761229059190977e+22	1.1639467959014036	0.04860267715615525	1.0045046366719177e+23	0.046642592046893416	-0.20584433228829546	1.9381126771769384	75.876488	91.738991	-17.210392000000002	-23.62237	-10.263281	-7.830956	0.0		True	0.0	None	0.0	None	0.0	None	0.0	None	0.0	None	0.0	None	0.0	None	0.0	None	8.3303e-07	12
2014-03-04 02:36:00	66.33164285787166	362768297.0294	2.262708357993521e+21	1447618771948.4775	7.901229665625872	440615394690.9309	7.131346603114023e+20	-2.6780259001932e+23	1413.933438058154	-0.5558695413774193	20.80090909000712	1.9917012448132776	30.54150650559417	132.73964760262365	139.3466988207267	59.19972218681717	0.006557037066909437	-2.0921243383825294e+22	0.7069149860101978	0.027997688426478918	1.0047779820491991e+23	0.04342557689219268	-0.20855865360657025	1.7513081812495377	75.87944	91.62944	-17.212341000000002	-23.496571	-10.267173	-7.710323	0.0		True	0.0	None	0.0	None	0.0	None	0.0	None	0.0	None	0.0	None	0.0	None	0.0	None	8.4889e-07	12
2014-03-04 02:48:00	60.96430311248399	356381728.1644	2.1291277604770564e+21	1351669384559.441	11.582845177111194	896179878918.1035	6.952139431941746e+20	-2.613102442354832e+23	1374.961800433236	-0.5521136277930403	20.31722367010277	2.2298456260720414	31.05761971808265	130.49412755434184	136.0160341510836	59.7195243772446	0.009933829482942708	-2.3776988261821075e+22	1.4858587016987457	0.04187996455446765	1.0015237388947112e+23	0.050237598933918805	-0.21160858290106152	1.7446587530537772	75.882362	91.519913	-17.214342000000002	-23.390718	-10.272632000000002	-7.589155	0.0		True	0.0	None	0.0	None	0.0	None	0.0	None	0.0	None	0.0	None	0.0	None	0.0	None	8.8571e-07	12
2014-03-04 03:00:00	56.40929999016694	338606484.7188	2.165702331832905e+21	1261424506524.5188	12.309175412165349	782874218678.4097	6.66076504988957e+20	-2.3976371037561152e+23	1429.2248392352685	-0.5331821669095641	21.102027014277347	2.1910604732690624	32.139231276051156	131.61921679956248	137.3286162780201	59.490420093945524	0.01078805908165236	-2.795352909187716e+22	0.7387401481726436	0.04742091461778036	1.0070429121240279e+23	0.06216254824646996	-0.22394436639975504	1.7521604703669162	75.88537600000002	91.410423	-17.198187	-23.261879	-10.276723	-7.464569	0.0		True	0.0	None	0.0	None	0.0	None	0.0	None	0.0	None	0.0	None	0.0	None	0.0	None	8.715700000000002e-07	12
2014-03-04 03:12:00	55.55839766645963	334374759.2465	2.142890717172057e+21	1260497379739.2163	9.675776336834359	740039280532.9955	6.589990247035744e+20	-2.3878449543335125e+23	1449.74725460002	-0.5377248080951913	20.844741931379303	1.7969451931716085	31.090182507957106	133.7820793639328	137.23014902798627	61.260272340958785	0.008693419889339048	-2.9873017852947813e+22	1.2853276690938182	0.037636021577882255	9.879916479757448e+22	0.06727179988402625	-0.22248832293037002	1.814037810976137	75.888397	91.300949	-17.199157999999994	-23.152626	-10.281096	-7.366625999999999	0.0		True	0.0	None	0.0	None	0.0	None	0.0	None	0.0	None	0.0	None	0.0	None	0.0	None	1.0711e-06	12
2014-03-04 03:24:00	57.78140311018849	350217143.4669	2.253126421242204e+21	1307906046633.3064	9.18072619527355	607750148352.4214	6.909390530834402e+20	-2.494426996299417e+23	1452.5470219399356	-0.5363161554490039	20.918284891595615	2.482876712328767	31.069391259106478	134.13778062199611	138.33990854610914	61.38444561200895	0.007860210783624614	-3.4114679877053322e+22	0.6619136542688426	0.03412628646336542	9.821217232244257e+22	0.07334852446344574	-0.2111618209569157	1.8179349631807264	75.891396	91.191498	-17.202242000000002	-23.040758	-10.286062	-7.245824000000002	0.0		True	0.0	None	0.0	None	0.0	None	0.0	None	0.0	None	0.0	None	0.0	None	0.0	None	1.1964e-06	12
2014-03-04 03:36:00	55.85805197290411	348199814.74450004	2.263577697044856e+21	1251109239952.3015	5.826720421705862	339258833830.2663	6.930433697274373e+20	-2.484526892940385e+23	1442.0003579605677	-0.5372823881022902	20.913460812531632	2.1150592216582065	31.21179470478029	135.29346239136504	137.74484636389295	61.143895377491724	0.004929543503981271	-2.683312748413636e+22	0.5548079560867224	0.02177067970748868	1.1216341344122536e+23	0.058027010518158666	-0.24255493793462465	2.106981752666492	75.89447	91.082069	-17.183823	-22.918184	-10.290819	-7.124348	0.0		True	0.0	None	0.0	None	0.0	None	0.0	None	0.0	None	0.0	None	0.0	None	0.0	None	1.7200999999999996e-06	12
2014-03-04 03:48:00	52.320234545276975	333773644.32650006	2.075209063934905e+21	1192413958783.931	6.1476645570672765	521506230780.5039	6.585506033859274e+20	-2.3782251039704096e+23	1401.4399106644685	-0.536523083084191	20.34773481545481	1.345291479820628	30.947648878842248	136.18309235758736	138.93118402137708	61.79515126880703	0.005513600499611907	-4.028293170048812e+22	0.2536456440433539	0.023974470743013128	1.0414629704425916e+23	0.09087753163287056	-0.2349520753468723	2.0464100122095825	75.897514	90.972664	-17.186602	-22.802483	-10.295451	-7.027171000000001	0.0		True	0.0	None	0.0	None	0.0	None	0.0	None	0.0	None	0.0	None	0.0	None	0.0	None	2.2103e-06	12
2014-03-04 04:00:00	50.45054210029214	344868114.67920005	2.1581837383629584e+21	1184881868102.8833	6.81213946331413	526732209521.785	6.924307192194124e+20	-2.399585556434247e+23	1347.4996769200156	-0.5239269735628524	20.452040304718466	1.7412935323383083	31.709585635518827	134.22257127164443	137.20693083746283	60.3830400550545	0.005648540185169263	-3.8101066385472126e+22	0.8442051594710053	0.02592366062049748	1.165863366238396e+23	0.08319010067105619	-0.25455531828119665	2.1060491052393964	75.900635	90.863281	-17.187593	-22.67923900000001	-10.299977	-6.90415	0.0		True	0.0	None	0.0	None	0.0	None	0.0	None	0.0	None	0.0	None	0.0	None	0.0	None	2.2168e-06	12
2014-03-04 04:12:00	54.472825671651094	352447880.24200004	2.353023033469512e+21	1227055254402.5415	6.832310482050105	415054029559.5103	6.903881847401295e+20	-2.427736220703255e+23	1493.925513707731	-0.5186734883128847	20.872783441031576	2.5295109612141653	32.11661371465957	136.65350977659298	139.57986758305336	62.260523366719035	0.005760801418254725	-4.410418924250773e+22	0.3033189571698096	0.025529262867234573	1.1930291163104769e+23	0.09422635576527576	-0.2548845991334036	2.1285194119538344	75.903763	90.753914	-17.170988	-22.567659	-10.30522	-6.7837929999999975	0.0		True	0.0	None	0.0	None	0.0	None	0.0	None	0.0	None	0.0	None	0.0	None	0.0	None	1.8241e-06	12
2014-03-04 04:24:00	52.65002240945418	345396423.8498	2.2500290540822067e+21	1182161506740.4932	4.9860676567964015	304379734272.9445	6.830386106367359e+20	-2.402340137428867e+23	1450.550182497076	-0.5237260009092152	20.18708456058969	1.2842465753424657	31.587499706262303	137.76483468613202	139.99803214089985	62.625392909535655	0.004268893541777741	-4.3625574320035955e+22	0.5036819114611838	0.0189480031294926	1.1104656428438413e+23	0.0951066304892752	-0.24208883713533105	2.096445507037595	75.906921	90.644569	-17.167189	-22.440357	-10.309009	-6.686443	0.0		True	0.0	None	0.0	None	0.0	None	0.0	None	0.0	None	0.0	None	0.0	None	0.0	None	1.5756e-06	12
2014-03-04 04:36:00	56.116632917797574	369163116.2875	2.4715985113670426e+21	1275561878184.357	7.5840691686212125	589797811345.1714	7.46363585857496e+20	-2.575685750484068e+23	1431.601223018586	-0.5253661170441991	20.073236095866	1.3846153846153846	31.33752134052077	133.82539423692398	135.22556195040832	60.96198087751733	0.005833899360477856	-4.562554055996752e+22	0.876865690695889	0.026936420447537888	1.2846919317510996e+23	0.0930630340969502	-0.2620403563032645	2.0749373358516605	75.910042	90.53524	-17.149467	-22.332701	-10.311858	-6.5654770000000005	0.0		True	0.0	None	0.0	None	0.0	None	0.0	None	0.0	None	0.0	None	0.0	None	0.0	None	2.0788999999999997e-06	12
2014-03-04 04:48:00	54.73663481155471	370023373.9853	2.33305555778456e+21	1251691578374.71	2.5249116670070846	552728735873.8706	7.379608817137393e+20	-2.542799422092269e+23	1372.4692918680068	-0.51745247686679	19.51348617477253	0.8593750000000001	31.914556080752266	133.26909771451477	135.5102504921253	62.474392524904864	0.001972587239849285	-4.437495865079403e+22	0.8345756391419844	0.008993566019706625	1.2006713176329773e+23	0.09030178340146544	-0.2443332107968177	2.07463656523648	75.913223	90.425926	-17.149897	-22.223619	-10.315498	-6.468305	0.0		True	0.0	None	0.0	None	0.0	None	0.0	None	0.0	None	0.0	None	0.0	None	0.0	None	6.6941999999999985e-06	12
2014-03-04 05:00:00	53.5484025954943	353797198.248	2.203998429508125e+21	1190268231415.8083	2.872623810892557	452350641475.0317	7.206485351338839e+20	-2.5422285092416367e+23	1335.1426325709633	-0.5410628389030272	19.408565225044203	0.7240547063555913	30.699456723948703	132.54434790491564	134.91655391300904	60.215998026433255	0.002311040877628768	-4.073302178379145e+22	0.7033290606214377	0.010537413297679635	1.197191171673118e+23	0.08669214558533712	-0.2547983596676478	1.9750691793863493	75.916374	90.316628	-17.148577	-22.122498	-10.316668	-6.3447510000000005	0.0		True	0.0	None	0.0	None	0.0	None	0.0	None	0.0	None	0.0	None	0.0	None	0.0	None	8.3542e-06	12
2014-03-04 05:12:00	52.99817064531065	354805366.4733	2.0783425923616921e+21	1195750704480.1963	6.135760049884357	874783173846.3815	7.208829475041939e+20	-2.575555762790162e+23	1259.022493469701	-0.5465982754448958	19.154940833572766	0.5631536604987932	30.923315390783053	132.98034207924573	136.8118883253943	58.22666465816186	0.0049362510457637634	-4.263322482083548e+22	1.3601135587242288	0.022363030778219675	1.1815534426721485e+23	0.0904785192399726	-0.2507556168812773	1.9730126059163	75.919586	90.207336	-17.132856	-22.041864	-10.317002	-6.225356	0.0		True	0.0	None	0.0	None	0.0	None	0.0	None	0.0	None	0.0	None	0.0	None	0.0	None	2.6658e-06	12
2014-03-04 05:24:00	54.980729009087284	336479376.313	2.043034056084386e+21	1237005612137.3606	7.3511082061153745	536898623778.3005	7.03874448426796e+20	-2.5113780590215648e+23	1245.6500847152608	-0.5620061378861213	19.730806521475564	1.214574898785425	30.52415158413217	127.00293603900906	130.71522988159518	55.14353724618066	0.005952314336935528	-3.3665051719564083e+22	0.8090800858591285	0.02797316613777551	1.137164243696628e+23	0.07533698731930459	-0.25447912250659915	2.1505110508131184	75.922813	90.098061	-17.126766	-21.940569	-10.31506	-6.128028	0.0		True	0.0	None	0.0	None	0.0	None	0.0	None	0.0	None	0.0	None	0.0	None	0.0	None	1.271e-06	12
2014-03-04 05:36:00	51.76382905919122	334701557.66930014	1.9839323642830502e+21	1194074685549.5928	8.601678880243982	788063986110.7454	6.986680173626204e+20	-2.5089770656425312e+23	1217.5022085796522	-0.5644512201546549	19.52889737205653	1.5484922575387123	30.775446268776196	129.0025695357791	132.31596994713084	57.10284397901059	0.007010333235732666	-3.386839829759765e+22	1.2412160976980986	0.03285439400988989	1.1329644322886012e+23	0.07619463328520737	-0.2548860110976561	1.8478173015243515	75.92600300000002	89.9888	-17.110029	-21.910549	-10.318075	-6.007409	0.0		True	0.0	None	0.0	None	0.0	None	0.0	None	0.0	None	0.0	None	0.0	None	0.0	None	1.2007e-06	12
