Timestamp	TOTUSJH	TOTBSQ	TOTPOT	TOTUSJZ	ABSNJZH	SAVNCPP	USFLUX	TOTFZ	MEANPOT	EPSZ	MEANSHR	SHRGT45	MEANGAM	MEANGBT	MEANGBZ	MEANGBH	MEANJZH	TOTFY	MEANJZD	MEANALP	TOTFX	EPSY	EPSX	R_VALUE	CRVAL1	CRLN_OBS	LAT_MIN	LON_MIN	LAT_MAX	LON_MAX	QUALITY	NOAA_AR	IS_TMFI	BFLARE	BFLARE_label	CFLARE	CFLARE_label	MFLARE	MFLARE_label	XFLARE	XFLARE_label	BFLARE_loc	BFLARE_label_loc	CFLARE_loc	CFLARE_label_loc	MFLARE_loc	MFLARE_label_loc	XFLARE_loc	XFLARE_label_loc	XR_MAX	XR_QUAL
2014-02-22 22:36:00	16.019254095540177	121739803.8583	1.0545038871684995e+21	397718024941.298	1.8716823957525444	46530992679.47864	2.216084543176169e+20	-9.676835068777295e+22	1960.5622068770533	-0.5985331461295285	29.91910503821741	14.074074074074074	35.07963494672997	119.33086162665569	117.28720517042784	50.42615119232583	-0.004621438014203813	2.780276303666587e+22	-0.22323146583824025	-0.01923569612003553	-3.8962752801066654e+22	-0.17196609338854854	0.2409930400811941	0.0	238.27507000000003	212.368973	21.635004	24.706841	22.693596	26.707811	0.0		True	0.0	None	0.0	None	0.0	None	0.0	None	0.0	None	0.0	None	0.0	None	0.0	None	1.2442e-06	12
2014-02-22 22:48:00	18.266395476953143	152745183.057	1.2298004397798434e+21	419716185854.3085	1.8612551199651417	127364102852.29485	2.683061299771573e+20	-1.171579361598369e+23	2080.952151842402	-0.5775527428297329	27.469949918012833	9.662921348314606	34.644927704929906	130.3293004020041	129.58832612983323	52.300265340346954	-0.004182595775202565	3.2261823452447318e+22	-0.5560883989332697	-0.01544843499391756	-5.162840852699972e+22	-0.15904090866050202	0.2545122415951592	0.0	238.275848	212.258957	21.550549	24.712225	22.742283	27.035261	0.0		True	0.0	None	0.0	None	0.0	None	0.0	None	0.0	None	0.0	None	0.0	None	0.0	None	1.2841e-06	12
2014-02-22 23:00:00	24.67122969286385	220969227.1781	1.7577076131657923e+21	606539277015.0105	2.1741084261301924	200289157548.43164	3.759640191677091e+20	-1.6508217856384218e+23	2017.577796348729	-0.5625432140535617	28.008541045935733	12.195121951219509	35.63125010554572	129.01916124299476	126.36022016406237	53.87350932815775	-0.003314189673978952	3.3201015146956487e+22	-0.5931966789000992	-0.012593526517711923	-7.819213239904934e+22	-0.11313762595752842	0.26645185965032553	0.0	238.276657	212.148956	21.496578	24.682659	22.84373900000001	27.284117	0.0		True	0.0	None	0.0	None	0.0	None	0.0	None	0.0	None	0.0	None	0.0	None	0.0	None	1.3517e-06	12
2014-02-22 23:12:00	26.956196074376148	249034677.1598	1.6760749349883473e+21	575568413362.7803	3.4330966213410226	193917962603.1628	4.063464375625384e+20	-1.964687866819257e+23	1990.6351068999359	-0.5940475695642627	24.59110806984056	5.047318611987381	31.509166293603148	138.2246849923188	137.66423737428022	56.49398971260814	-0.005414978898014232	2.97114184489393e+22	-0.5942398334936393	-0.017296368102820345	-8.568666650130507e+22	-0.08983613232403047	0.2590841875639607	0.0	238.277557	212.039001	21.468042	24.760746	22.8557	27.430897	0.0		True	0.0	None	0.0	None	0.0	None	0.0	None	0.0	None	0.0	None	0.0	None	0.0	None	1.2989e-06	12
2014-02-22 23:24:00	26.788982823649484	247809123.6207	1.6777611556078158e+21	545088204211.0819	5.570055922499943	193748751226.38394	4.0488609529531846e+20	-1.993728864317033e+23	2021.33190038677	-0.605809831142794	25.06383247799248	6.08	31.10202409577789	138.64167392727654	137.64750939692505	54.87326940764835	-0.00891208947599991	3.216774400108724e+22	-0.4441884832317376	-0.02799485013064396	-8.615990933995757e+22	-0.09774416125644493	0.2618035032882892	0.0	238.278397	211.92904700000003	21.441139	24.862511	22.86515	27.541931	0.0		True	0.0	None	0.0	None	0.0	None	0.0	None	0.0	None	0.0	None	0.0	None	0.0	None	1.3163e-06	12
2014-02-22 23:36:00	26.10246546516393	245148898.11690003	1.6833674348777479e+21	519274542919.108	4.566653314693654	148957559321.26917	3.991926966676363e+20	-1.9521905209370896e+23	2112.5897204622947	-0.5996250191922292	24.314206613774648	3.833333333333333	30.480806709764014	140.0042533265809	138.71652143396878	56.41679739249009	-0.007611088857822755	3.194346195057045e+22	-0.4823019015581641	-0.02329055859143293	-8.537556407413144e+22	-0.09811593069298744	0.26223528747555164	0.0	238.279282	211.819138	21.418007	24.963507	22.872026	27.652237	0.0		True	0.0	None	0.0	None	0.0	None	0.0	None	0.0	None	0.0	None	0.0	None	0.0	None	1.3540999999999999e-06	12
2014-02-22 23:48:00	27.92809043769331	252353562.0449	1.7062174116537072e+21	549455995359.0385	5.726851416849997	123812905083.13416	4.200117048522567e+20	-2.0683348648897347e+23	2013.730030182892	-0.6171617036116552	23.66467485501804	4.075235109717868	29.935147650133352	138.70809661672834	137.15205212042864	56.46181921444295	-0.00897625613926332	3.5202624069147495e+22	-0.03713239352146123	-0.02806616174353116	-8.560417796432803e+22	-0.10503962298809844	0.2554306906756924	0.0	238.280212	211.709259	21.420479	25.071516	22.87883900000001	27.8368	0.0		True	0.0	None	0.0	None	0.0	None	0.0	None	0.0	None	0.0	None	0.0	None	0.0	None	1.3157e-06	12
2014-02-23 00:00:00	35.65907091053779	365124714.3416	2.1258869931041177e+21	649885301516.4329	11.592208823011644	374163781165.7485	5.4410546524043615e+20	-3.161398452951287e+23	2148.6780986518165	-0.6519667707568219	22.376484133843608	3.355704697986577	29.29440509894464	149.75175460585766	148.56998866809556	61.88899171397981	-0.015560011842968654	4.6215067909150185e+22	-0.7164408191739288	-0.03843736910311093	-1.0373918989085075e+23	-0.09530810188417638	0.2139385643430277	0.0	238.281158	211.599411	21.386351	25.019751	22.984919	28.088156	0.0		True	0.0	None	0.0	None	0.0	None	0.0	None	0.0	None	0.0	None	0.0	None	0.0	None	1.2256e-06	12
2014-02-23 00:12:00	35.10618348226582	362058878.3499	2.0703180734657727e+21	651968527070.3252	8.674564017030582	328895038363.4509	5.508150543822641e+20	-3.158528457910142e+23	2056.625890124912	-0.6568905639608539	22.281940629056734	2.7704485488126647	29.57691720434532	149.3083041736535	150.1093344730254	62.28665696527237	-0.01144401585360235	4.041147457257927e+22	-0.8428602457690707	-0.02892042199973985	-1.0402091567781007e+23	-0.08404520230295964	0.216336052924254	0.0	238.282135	211.489594	21.356895	25.120314	22.991856	28.235464	0.0		True	0.0	None	0.0	None	0.0	None	0.0	None	0.0	None	0.0	None	0.0	None	0.0	None	1.1727e-06	12
2014-02-23 00:24:00	33.95579404128433	353616799.59809995	2.0582683873102822e+21	648571424114.4325	8.582377908039039	291510135150.90283	5.363409266038745e+20	-3.061691486319654e+23	2058.232978674697	-0.6519526308776048	22.663073237081672	3.98406374501992	30.58204605371777	144.36411957386332	144.6551551221971	59.653890502352716	-0.011397580223159414	4.109231452340536e+22	-0.4033250121571403	-0.02938374526799512	-1.079236251760659e+23	-0.08750144383289153	0.2298111736005221	0.0	238.283157	211.379807	21.329504	25.221888	22.998726	28.346964	0.0		True	0.0	None	0.0	None	0.0	None	0.0	None	0.0	None	0.0	None	0.0	None	0.0	None	1.1284999999999999e-06	12
2014-02-23 00:36:00	32.99513380728493	353060648.4224	2.191613626331662e+21	651170703165.6804	7.265029402996854	261955298334.9368	5.6131141499585095e+20	-3.0099470228535206e+23	1997.8893168619288	-0.6419438125917759	23.05928104872293	3.389830508474576	30.88952305358302	135.9845566740606	136.20228813360728	56.905213107338106	-0.00879543511258699	4.1776609671154055e+22	-0.6160086005932901	-0.02506454158425694	-1.1303950219544425e+23	-0.08909869803633486	0.2410840073325479	0.0	238.284195	211.27005	21.335865	25.330433	23.022501	28.496002	0.0		True	0.0	None	0.0	None	0.0	None	0.0	None	0.0	None	0.0	None	0.0	None	0.0	None	1.1166e-06	12
2014-02-23 00:48:00	40.946465602658	424247262.6952	2.5578110173524494e+21	735169033266.6887	9.208949678252868	270545711817.5489	6.313630138224264e+20	-3.518496029289458e+23	2249.9982221877267	-0.624490020063004	22.520084956022764	2.9205607476635516	29.57676684862053	144.95165750097712	146.71604010591489	62.25659833622636	-0.010758118783005687	7.294889680717395e+22	0.025351817900262884	-0.02672415604416801	-1.0422680690891e+23	-0.12947537144126275	0.1849898371230857	0.0	238.285278	211.16032400000003	21.30905	25.328669	23.097097	28.616077	0.0		True	0.0	None	0.0	None	0.0	None	0.0	None	0.0	None	0.0	None	0.0	None	0.0	None	1.1089e-06	12
2014-02-23 01:00:00	40.76281293606168	422374290.3539001	2.69385168739753e+21	754578706672.6317	9.780496404338347	325976894035.9884	6.428987744084235e+20	-3.426059083025206e+23	2243.8441298160647	-0.6107799992015256	22.912517857476182	1.991150442477876	29.73804098235698	141.0059826926554	141.73917326018932	60.743962964763604	-0.01081913319063977	8.245697953734005e+22	-0.6404169646697019	-0.028751280381449317	-1.1108589795459815e+23	-0.147000015690057	0.19803816285648987	0.0	238.286377	211.050629	21.316053	25.417982	23.119598	28.766314	0.0		True	0.0	None	0.0	None	0.0	None	0.0	None	0.0	None	0.0	None	0.0	None	0.0	None	1.0892e-06	12
2014-02-23 01:12:00	42.246315443039535	426980823.7375	2.7781647700776054e+21	796213062439.2428	7.125954816967705	261244662764.3509	6.652628873637007e+20	-3.4619928586389965e+23	2199.707779898464	-0.6105276044892441	23.065979990006532	3.0494216614090432	29.7937726627398	139.9716780259217	140.21633542980305	58.7628824616111	-0.007493117578304631	8.813087652392159e+22	-0.5335360956431563	-0.0207250943443734	-1.0846127681217535e+23	-0.1554201152998332	0.19127307945405345	0.0	238.287567	210.940964	21.321741	25.519524	23.127666	28.915516	0.0		True	0.0	None	0.0	None	0.0	None	0.0	None	0.0	None	0.0	None	0.0	None	0.0	None	1.1062e-06	12
2014-02-23 01:24:00	40.66992870557016	413508312.5596	2.633620608716029e+21	776000620194.6248	7.317646366306822	235814353105.54074	6.609831869353424e+20	-3.40057720464396e+23	2083.069300202374	-0.6192355053116221	22.373752199936686	1.9957983193277309	28.95558961824781	136.241251809035	136.57799782364486	56.9774230070753	-0.0076866033259525455	8.318895849903986e+22	-0.4810782856939771	-0.02185783539140676	-1.0854596284925524e+23	-0.15148474406683546	0.1976591328751572	0.0	238.288712	210.831314	21.295429	25.62026	23.133429	29.056253	0.0		True	0.0	None	0.0	None	0.0	None	0.0	None	0.0	None	0.0	None	0.0	None	0.0	None	1.0853e-06	12
2014-02-23 01:36:00	38.89350328529183	411546012.0413	2.514631651033226e+21	755040944921.1006	4.704417410792908	42545675444.72625	6.666378763297815e+20	-3.383251159851126e+23	1948.029681361364	-0.6190180300134571	22.072850013727283	2.366255144032922	29.48966799888555	133.7128939366611	133.79203748329286	56.446055224539116	-0.004839935607811634	8.47313951244595e+22	-0.07166519429815757	-0.014121010025629587	-1.0326178277823603e+23	-0.1550291681346612	0.18893337305136385	0.0	238.289917	210.72171	21.301502	25.706144	23.172167	29.288778000000004	0.0		True	0.0	None	0.0	None	0.0	None	0.0	None	0.0	None	0.0	None	0.0	None	0.0	None	1.0776999999999999e-06	12
2014-02-23 01:48:00	42.054323787062785	428839975.1927	2.6744962816606287e+21	798407603174.8665	8.385284029629702	164068068118.9374	6.920958400556567e+20	-3.514509932018526e+23	2011.8493515701998	-0.617102135324918	22.113223012122198	1.2987012987012987	29.006535338228367	141.3971989632446	140.97978023223777	58.10718532097553	-0.008376907122507195	8.651753242478231e+22	-0.25746834170313576	-0.024183272002398358	-1.074256654801396e+23	-0.15191351009132545	0.1886254665338787	0.0	238.29112200000003	210.61212200000003	21.310293	25.772503	23.190214	29.453445	0.0		True	0.0	None	0.0	None	0.0	None	0.0	None	0.0	None	0.0	None	0.0	None	0.0	None	1.056e-06	12
2014-02-23 02:00:00	45.36757323457183	429815263.9309	2.8288070628109813e+21	862317660329.9104	6.998284544349589	63479197795.28934	6.916136634178669e+20	-3.4796095611729906e+23	2125.803142925668	-0.6095875938222205	22.660365032556328	2.095808383233533	30.112995145242525	140.04350486429632	139.06179370161405	57.71758276085375	-0.006984315912524543	8.81223158198277e+22	-0.12302777217976192	-0.02023136296940755	-1.1301669502103791e+23	-0.15438016684993222	0.1979922573738128	0.0	238.292374	210.502579	21.287003	25.87435	23.19908	29.566223	0.0		True	0.0	None	0.0	None	0.0	None	0.0	None	0.0	None	0.0	None	0.0	None	0.0	None	1.1031999999999999e-06	12
2014-02-23 02:12:00	46.25299098180251	431727102.1494	2.849184611404379e+21	862680376508.4751	9.660402493517335	170734723411.331	6.995463395578289e+20	-3.565046712811931e+23	2119.9596221298816	-0.6217895568152324	22.86685776586913	2.8656126482213438	29.60048005316057	140.69806900714195	140.048377847987	56.77966043632818	-0.009545852266321478	9.252521113920653e+22	-0.3276171983703581	-0.027594428543976358	-1.1208050991862546e+23	-0.16137575370816185	0.19548268565311167	0.0	238.293671	210.393066	21.259773000000006	25.974766	23.206156	29.715208	0.0		True	0.0	None	0.0	None	0.0	None	0.0	None	0.0	None	0.0	None	0.0	None	0.0	None	1.0994e-06	12
2014-02-23 02:24:00	43.394378640028	430603875.8536	2.6590050384939545e+21	831902654818.1877	6.810674699794867	160914628635.6816	6.928268493842682e+20	-3.623152666525592e+23	2051.430675045218	-0.6335723300232323	21.81996426702648	1.8442622950819672	28.645191584155484	141.53628160559288	140.99322862933562	58.05668301601671	-0.0069781503071668725	9.268817581955576e+22	-0.3201525837694018	-0.019364390409032255	-1.0537707292374864e+23	-0.16208167009399782	0.18427045109128834	0.0	238.294968	210.283569	21.256727	26.08555	23.233526	29.830332	0.0		True	0.0	None	0.0	None	0.0	None	0.0	None	0.0	None	0.0	None	0.0	None	0.0	None	1.2215999999999999e-06	12
2014-02-23 02:36:00	44.330430804721615	431738294.531	2.656373134055772e+21	844403455559.3408	5.911594005778714	215459710768.94632	6.899733520152595e+20	-3.607902156875094e+23	2051.502285227718	-0.6292478223626589	22.26344897398237	3.794871794871795	29.349156913372397	140.84573835952787	141.48911633600673	58.748474151198685	-0.006063173339260221	8.45432301825261e+22	-0.17879314367587038	-0.016808419360861606	-1.091270107863937e+23	-0.14745034974544988	0.19032648589827567	0.0	238.296326	210.174118	21.240841	26.189472	23.242737	29.937519	0.0		True	0.0	None	0.0	None	0.0	None	0.0	None	0.0	None	0.0	None	0.0	None	0.0	None	1.2748e-06	12
2014-02-23 02:48:00	46.51804545935998	445949796.008	2.7718536070413345e+21	886940753436.1699	7.657143005516637	210300642707.44672	7.166706048580566e+20	-3.709426348811568e+23	2001.1212893735806	-0.6263372108433239	22.438434677067818	3.64333652924257	30.000358547644247	142.4052466836097	142.5851245206882	58.121194005179284	-0.007341460216219211	8.555062211998276e+22	-0.3915074119193052	-0.021115442416855087	-1.1502826804742544e+23	-0.14445235733473547	0.19422540792606666	0.0	238.297684	210.064682	21.247408	26.297827	23.251768	30.050171	0.0		True	0.0	None	0.0	None	0.0	None	0.0	None	0.0	None	0.0	None	0.0	None	0.0	None	1.2561e-06	12
2014-02-23 03:00:00	50.197015147743215	437969129.74890006	2.710668955296479e+21	953170613412.2476	10.561204957927359	268022524831.1967	7.139114172295696e+20	-3.671016577805596e+23	1987.437866056636	-0.6311467745358695	22.244132174345413	2.044790652385589	29.186582290135533	142.5121037838363	141.80273184991051	59.532875911675866	-0.010283549131380096	8.62807540620049e+22	-0.4087080162106939	-0.02956697707547365	-1.1145954572250277e+23	-0.14833989026360864	0.19162902504799376	0.0	238.299103	209.955261	21.222731	26.406332	23.259083	30.157961	0.0		True	0.0	None	0.0	None	0.0	None	0.0	None	0.0	None	0.0	None	0.0	None	0.0	None	1.2043e-06	12
2014-02-23 03:12:00	47.19200180727511	440535420.9884	2.773066577102048e+21	917690074560.8853	10.669727814675847	452871939667.7088	7.183158635685287e+20	-3.75300190952565e+23	2065.3644705281413	-0.6414835337902175	22.52515151011065	2.4727992087042527	28.566202456975326	140.45113174740752	140.29623334811538	59.27921353114159	-0.010553637798888078	8.072126610031624e+22	-0.7745677227487264	-0.02950978004647047	-1.179057357012671e+23	-0.13797318594116065	0.20153090729800305	0.0	238.30052200000003	209.845871	21.229225	26.516493	23.268078	30.315546	0.0		True	0.0	None	0.0	None	0.0	None	0.0	None	0.0	None	0.0	None	0.0	None	0.0	None	1.213e-06	12
2014-02-23 03:24:00	43.67493986643862	440010774.6517	2.861173640556843e+21	890747189409.3491	7.918282543769177	462560103697.0743	7.247604791006947e+20	-3.653472627053437e+23	2013.482951312552	-0.6252159740666867	23.332170448857326	4.392523364485983	30.24564246806385	134.35117513761222	133.75406879759043	56.679355766505786	-0.007400264059597363	8.255203027597602e+22	-0.8393222437350182	-0.022145556409372325	-1.1821118643824992e+23	-0.14127065750538625	0.2022938984879608	0.0	238.301956	209.736511	21.234819	26.625494	23.271479	30.42898	0.0		True	0.0	None	0.0	None	0.0	None	0.0	None	0.0	None	0.0	None	0.0	None	0.0	None	1.2139e-06	12
2014-02-23 03:36:00	47.25097155024963	434712073.2319	2.7584886051917057e+21	911416852395.5032	7.991385661975504	261501450974.031	7.069858691197149e+20	-3.708329187948061e+23	2075.031267537606	-0.6423387258106855	22.82880213369512	3.296703296703297	29.37203774010737	140.76923089489406	140.33043875122763	57.83239685990442	-0.007983402259715788	8.528591215910435e+22	-0.5071913591190623	-0.02238657478387495	-1.1645147796848269e+23	-0.1477281044086435	0.20171158002948564	0.0	238.303421	209.627167	21.240093	26.732151	23.279236	30.586292	0.0		True	0.0	None	0.0	None	0.0	None	0.0	None	0.0	None	0.0	None	0.0	None	0.0	None	1.4633e-06	12
2014-02-23 03:48:00	49.43386615737822	442088395.65620005	2.806607096418515e+21	955392748810.2584	9.098486846342489	360553340520.2573	7.361121325542951e+20	-3.794631579847515e+23	2005.0652618483296	-0.6463206116525279	22.429462354951237	2.3719165085389	28.560260045567716	138.81199341174104	137.52630315071227	58.3795694895197	-0.008632340461425513	8.297713604045266e+22	-0.6641230327766323	-0.02500205098199824	-1.181482840153669e+23	-0.14133080429640935	0.2012360609552958	0.0	238.304886	209.517838	21.217741	26.835121	23.284164	30.747509	0.0		True	0.0	None	0.0	None	0.0	None	0.0	None	0.0	None	0.0	None	0.0	None	0.0	None	1.4143000000000004e-06	12
2014-02-23 04:00:00	46.86301541954813	432299846.842	2.690249902838622e+21	882191252268.9402	10.109019553024932	205878120712.4692	7.073492975954071e+20	-3.757602276765421e+23	2064.957372565068	-0.6545053524236196	22.275246888048983	2.854230377166157	28.23482317594006	140.85242342829784	141.07047769238181	57.954124457638855	-0.010304810961289431	7.717782344567112e+22	-0.3186643803223215	-0.028267394117852992	-1.1817884609176387e+23	-0.13442960380862656	0.2058458602406668	0.0	238.306396	209.408539	21.222372	26.924208	23.293657	30.863804	0.0		True	0.0	None	0.0	None	0.0	None	0.0	None	0.0	None	0.0	None	0.0	None	0.0	None	1.3166999999999998e-06	12
2014-02-23 04:12:00	50.81633586962028	445981566.97810006	2.840527861907868e+21	959374249731.7784	10.097481926372806	592807537777.2515	7.29031175392155e+20	-3.868498877710714e+23	2107.271144418509	-0.6531500660411913	22.47202309396824	2.7586206896551726	28.570952615193466	142.33088451882108	143.0264954041579	58.34410287205196	-0.009948258055539713	7.949676847140637e+22	-1.133819888769413	-0.02739137869712279	-1.2409462463071838e+23	-0.13422084694486808	0.20951902749646256	0.0	238.307907	209.299255	21.222206	27.027313	23.301853	30.978943	0.0		True	0.0	None	0.0	None	0.0	None	0.0	None	0.0	None	0.0	None	0.0	None	0.0	None	1.7512e-06	12
2014-02-23 04:24:00	53.28456444960224	448941451.1418001	2.8816493960879213e+21	951723251122.2688	10.552327328951316	265262701231.62704	7.134309112085936e+20	-3.776047540169357e+23	2236.9532461579693	-0.6333375660769465	22.20069651084672	2.6804123711340204	29.39009061154091	142.5863312414153	142.85444761709184	61.27306530096647	-0.010878687967991048	7.757440101891433e+22	-0.5308722508354573	-0.02878144492939012	-1.2492324359927035e+23	-0.1301116625480639	0.20952750781323826	0.0	238.309448	209.190002	21.198299	27.129856	23.312181	31.09366	0.0		True	0.0	None	0.0	None	0.0	None	0.0	None	0.0	None	0.0	None	0.0	None	0.0	None	1.6265e-06	12
2014-02-23 04:36:00	47.67371563137186	454960366.32870007	2.9078761844175374e+21	899444760898.9191	8.469971961856519	328145203037.7812	7.22580804798865e+20	-3.8474724833639524e+23	2236.5606065731167	-0.6367799932453684	22.179557081110733	2.1450459652706844	29.238931114411354	143.924374817951	144.6649177267029	60.83933809697947	-0.008651656753683882	7.085421815720266e+22	-0.6506664931325593	-0.022748255398473992	-1.2989456721805075e+23	-0.11726802142091207	0.2149833741329348	0.0	238.311005	209.08075	21.195158	27.233356	23.318649	31.20935200000001	0.0		True	0.0	None	0.0	None	0.0	None	0.0	None	0.0	None	0.0	None	0.0	None	0.0	None	1.6318e-06	12
2014-02-23 04:48:00	51.31599578473104	473823886.4094001	2.978128800938844e+21	923721958450.4102	8.932504785374348	630236683945.4116	7.423289595873252e+20	-3.970835978279993e+23	2226.904117954624	-0.6310336372511512	22.536188084522013	3.5749751737835163	29.462877233616663	140.00302600893966	141.05521527058778	60.86239126300462	-0.008870411902059925	7.535346355395348e+22	-1.2148967982220769	-0.023116569483760663	-1.311244116078907e+23	-0.1197495198643796	0.20837907896962715	0.0	238.312561	208.971512	21.17782	27.293747	23.335627	31.394556	0.0		True	0.0	None	0.0	None	0.0	None	0.0	None	0.0	None	0.0	None	0.0	None	0.0	None	1.6303999999999999e-06	12
2014-02-23 05:00:00	49.76910134439332	477129609.3635	3.045789394714097e+21	874820764580.8726	10.673408916142275	721179607351.6724	7.24313435644836e+20	-3.9944552184983706e+23	2471.3792015057466	-0.6303890803577306	21.9370545332867	2.3706896551724137	28.58983132765764	147.1878067099209	147.80550350060577	62.83918277901818	-0.011501518228601593	8.48432619574033e+22	-1.5085203849487316	-0.02744135280775252	-1.311316735364813e+23	-0.13389627109146504	0.20694680642209912	0.0	238.314209	208.862305	21.179132	27.37429	23.362131	31.509642	0.0		True	0.0	None	0.0	None	0.0	None	0.0	None	0.0	None	0.0	None	0.0	None	0.0	None	2.7718e-06	12
2014-02-23 05:12:00	52.201783619435346	480642261.4956	3.069644862429378e+21	911189192449.7736	5.938738702340039	334810001935.5085	7.267539465419365e+20	-4.037124353789065e+23	2528.8873055429394	-0.6324667682810136	21.519079972153893	1.312910284463895	28.2769625271248	153.50405534234534	153.5298748831449	64.74806810487182	-0.006497525932538336	8.884979375077782e+22	-0.7110482834932815	-0.015137630817198669	-1.3474914840538087e+23	-0.1391944785234256	0.21110164303109008	0.0	238.315796	208.753098	21.184834	27.476591	23.370337	31.624428	0.0		True	0.0	None	0.0	None	0.0	None	0.0	None	0.0	None	0.0	None	0.0	None	0.0	None	3.0857e-06	12
2014-02-23 05:24:00	50.3488042157665	488259431.4131	3.1541012007759375e+21	927062013050.8108	8.678686012668885	275024799284.23944	7.449168797252771e+20	-4.037999036931292e+23	2433.399003420611	-0.622734733860058	22.33471037186942	3.278688524590164	29.483707041800752	150.3990200323851	150.13524983447218	63.89056967310175	-0.008892096324455825	9.58797831446865e+22	-0.5469662619768162	-0.021907145805121847	-1.3522320755915184e+23	-0.1478645009399054	0.2085393963715416	0.0	238.317413	208.643906	21.169809	27.58157700000001	23.37981	31.742149	0.0		True	0.0	None	0.0	None	0.0	None	0.0	None	0.0	None	0.0	None	0.0	None	0.0	None	2.8379000000000012e-06	12
2014-02-23 05:36:00	50.65611794294034	484649989.1003	3.1183096356766834e+21	907909664319.1016	12.86206668291072	376036890476.4534	7.405024893318503e+20	-4.0347401334809846e+23	2435.732971189245	-0.6268661702225383	21.905785663385352	1.8672199170124484	29.404979486638236	149.37090458869304	148.3448561456215	63.04261375537552	-0.01334239282459618	9.4582660916401e+22	-0.3287770069228007	-0.032625765989655414	-1.357428599650348e+23	-0.1469504068579704	0.21089984471421647	0.0	238.319016	208.534714	21.170448	27.686031	23.387835	31.859362	0.0		True	0.0	None	0.0	None	0.0	None	0.0	None	0.0	None	0.0	None	0.0	None	0.0	None	2.4663e-06	12
2014-02-23 05:48:00	53.78969020371182	489458643.798	3.145366475815014e+21	982263175799.442	10.332814714809476	219173670714.15106	7.559163835039195e+20	-4.124038219640551e+23	2356.636344432429	-0.634445115585614	22.42402951756955	2.1890547263681595	29.390809224218078	146.9092379003433	147.72590875333955	59.338174311265675	-0.01028140767642734	1.0007213076104072e+23	-0.1360242619128968	-0.025832253466777484	-1.3210139693520695e+23	-0.1539517123416013	0.20322577431128508	0.0	238.320633	208.425537	21.174435	27.794212	23.39432	31.972752000000003	0.0		True	0.0	None	0.0	None	0.0	None	0.0	None	0.0	None	0.0	None	0.0	None	0.0	None	3.6723e-06	12
2014-02-23 06:00:00	49.72217654373145	480535829.1968	3.062927418956272e+21	883395936685.36	11.401368265357693	172335476728.1631	7.383496688613624e+20	-4.0585786047439095e+23	2402.4420351497224	-0.6359685398493802	21.848391848797785	1.4583333333333333	28.52431287727183	144.34661550155414	144.1428427142964	59.69923950362628	-0.011876425276414259	1.041516742937193e+23	-0.2636557689014981	-0.029005893423088125	-1.307839657391192e+23	-0.16320292071224862	0.20493501747040133	0.0	238.322266	208.31636	21.17989	27.878817	23.40232300000001	32.092372999999995	66560.0		False	0.0	None	0.0	None	0.0	None	0.0	None	0.0	None	0.0	None	0.0	None	0.0	None	1.0208e-05	12
2014-02-23 06:12:00	52.427530812739064	483901909.6104	2.951441050603536e+21	905508653870.8496	12.375981107194589	436595870257.9408	7.456154519005818e+20	-4.1474162979999405e+23	2312.587445811479	-0.6453684523982051	21.048317098250827	0.8324661810613945	28.17641551166608	149.68540870821911	148.89140111476695	61.628197511121435	-0.012878232161492809	1.0094242933579576e+23	-0.026178854775017583	-0.031087738587333283	-1.3491282918838286e+23	-0.1570738375917879	0.2099342760068676	0.0	238.323898	208.207199	21.165956	27.989782	23.412775	32.208870000000005	66560.0		False	0.0	None	0.0	None	0.0	None	0.0	None	0.0	None	0.0	None	0.0	None	0.0	None	1.1307e-05	12
2014-02-23 06:24:00	51.17448843774755	476472296.1556001	2.854050868550991e+21	900931671013.6228	11.6379633915169	356280997341.0034	7.394130041327182e+20	-4.107578129880271e+23	2247.9742225371747	-0.6491359900408448	21.06046351114781	1.0460251046025104	28.46813130822635	151.89759956090685	149.95187111498433	62.51563380959456	-0.012173601873971651	9.928261993671588e+22	-0.3703703872849777	-0.02962189638779382	-1.3488817236891791e+23	-0.1569000509513072	0.2131688419473835	0.0	238.325516	208.098022	21.169277	28.108713	23.421141	32.325745	0.0		True	0.0	None	0.0	None	0.0	None	0.0	None	0.0	None	0.0	None	0.0	None	0.0	None	1.0186e-05	12
2014-02-23 06:36:00	52.029576938876104	475810232.39840007	2.9042674946890924e+21	938972014851.4598	11.777616412391007	338468099494.64124	7.35458566991466e+20	-4.026253242084186e+23	2254.5110387412287	-0.6371692322697922	21.49284198741204	1.6494845360824744	29.1878871438	153.44981729809749	150.53487851645406	64.60501124104725	-0.01214187259009382	1.028510269209028e+23	-0.6508831787911673	-0.030238486471630906	-1.347748286174849e+23	-0.16276549417300934	0.2132860724752696	0.0	238.327164	207.988861	21.173845	28.217855	23.425707	32.440155	0.0		True	0.0	None	0.0	None	0.0	None	0.0	None	0.0	None	0.0	None	0.0	None	0.0	None	7.6239e-06	12
2014-02-23 06:48:00	48.2705386836298	479201452.71370006	2.78263103442308e+21	866561040268.3855	9.29112007387349	135050634150.1185	7.51024603365661e+20	-4.140721085808282e+23	2091.1027410149113	-0.6506468331488556	21.034082218953763	1.1976047904191618	28.68522970666265	150.06700518910938	149.43430882123266	60.1478969874251	-0.009272574924025438	1.0063206278813869e+23	0.2289535302856155	-0.023492313047420662	-1.3164409402507536e+23	-0.15812688565464705	0.20685723840161896	0.0	238.328827	207.879684	21.164682	28.330627000000003	23.436625	32.549526	0.0		True	0.0	None	0.0	None	0.0	None	0.0	None	0.0	None	0.0	None	0.0	None	0.0	None	5.8879e-06	12
2014-02-23 07:00:00	49.319228483917854	473947781.8092001	2.8999522450259323e+21	901743584321.636	10.034669202027755	176121695608.2211	7.52438350333993e+20	-4.038745251453344e+23	2101.6614071048803	-0.6416577086326112	21.834928851450773	1.2512030798845042	29.15866499099221	143.07157641139264	141.47722666941138	57.74210996232414	-0.009658006931691778	1.0368060206142505e+23	0.3289961902731909	-0.0257940745485222	-1.3609188235727896e+23	-0.16472308453830714	0.21621667116896465	0.0	238.330475	207.770523	21.166348	28.449158	23.445004	32.667088	0.0		True	0.0	None	0.0	None	0.0	None	0.0	None	0.0	None	0.0	None	0.0	None	0.0	None	4.6082e-06	12
2014-02-23 07:12:00	48.1035081078381	473360948.5474	2.8152490647574985e+21	866990315236.6855	10.152948804296877	134805554585.52147	7.542460273371969e+20	-4.126582969567044e+23	2078.280621065548	-0.6564258752656388	21.29650012872868	1.3725490196078431	28.5936593506728	145.45507173302113	143.87010183312768	57.29043879507132	-0.009953871376761646	1.0156191448580993e+23	0.036278634715999424	-0.02589749508713492	-1.3146799067444856e+23	-0.16155707785755838	0.2091294213259066	0.0	238.332092	207.661346	21.169075	28.560875	23.452845	32.784458	0.0		True	0.0	None	0.0	None	0.0	None	0.0	None	0.0	None	0.0	None	0.0	None	0.0	None	3.6132999999999998e-06	12
2014-02-23 07:24:00	46.00536836910517	467771831.4087	2.884072771420018e+21	839328363358.0835	11.580540099728465	351075425420.2453	7.49721460301064e+20	-4.087521521957944e+23	2120.770942764681	-0.6579812126501972	21.940463643161674	1.66015625	28.699146854880656	144.67437208526712	143.89480221337269	54.291292386196425	-0.011309121191141077	1.0359788202245024e+23	0.3200429026239897	-0.02986380490213803	-1.3262556260585004e+23	-0.1667647734083912	0.21349154504270693	0.0	238.333725	207.55217	21.173321	28.653471000000003	23.459709	32.895519	0.0		True	0.0	None	0.0	None	0.0	None	0.0	None	0.0	None	0.0	None	0.0	None	0.0	None	3.0252999999999996e-06	12
2014-02-23 07:36:00	48.92046864960801	457977120.2594	2.9454836926001447e+21	901723065534.7924	11.542467875216095	381653751246.8583	7.310504496050299e+20	-3.910484242011464e+23	2209.074851849668	-0.6429456762001995	21.922050489136826	0.4980079681274901	28.794658607487985	145.00360828110018	142.87277898159584	57.79602112238582	-0.011496481947426392	1.0401386570366812e+23	0.1411273627643847	-0.030680447116415783	-1.3244218161204753e+23	-0.17101530419322833	0.2177559676603803	0.0	238.335342	207.442993	21.181604	28.778669	23.462942	33.012341	0.0		True	0.0	None	0.0	None	0.0	None	0.0	None	0.0	None	0.0	None	0.0	None	0.0	None	2.6841000000000003e-06	12
2014-02-23 07:48:00	49.16937374240526	463129323.2483	3.068912601899815e+21	941643003947.0457	10.438840769615508	237506264343.8501	7.468765394912949e+20	-3.878927186114087e+23	2186.2361032175672	-0.6306623089648472	23.09883424722744	1.8921475875118257	29.68126393408484	142.64571332788103	140.27434294475762	58.26413637105137	-0.009875913689324035	1.0059384385655763e+23	0.08934803038192415	-0.02764495938629076	-1.3340374204808011e+23	-0.1635522988452406	0.21689685819773608	0.0	238.336945	207.333801	21.171736	28.889137	23.443756	33.119228	0.0		True	0.0	None	0.0	None	0.0	None	0.0	None	0.0	None	0.0	None	0.0	None	0.0	None	2.4628999999999997e-06	12
2014-02-23 08:00:00	47.55920064791273	451966018.5188	2.910611622580365e+21	883364061252.9993	9.198668844010221	86468526349.25858	7.2534479559565e+20	-3.8415406458294384e+23	2196.044515566964	-0.6400104584300021	22.142637111998138	0.6012024048096193	28.70002108711117	143.91681332786507	141.96411736357132	58.66084661916626	-0.009217103050110444	9.809159275611037e+22	-0.168156682412281	-0.02482004583856839	-1.2983197572633171e+23	-0.16342309254523668	0.2163033792020218	0.0	238.33854700000003	207.224594	21.168327	29.001846	23.448997	33.23772	0.0		True	0.0	None	0.0	None	0.0	None	0.0	None	0.0	None	0.0	None	0.0	None	0.0	None	2.2940999999999998e-06	12
2014-02-23 08:12:00	49.65921579792384	460644907.2787	3.0740726671695607e+21	887827288375.3558	12.618651373991625	313098485530.51794	7.237942744582677e+20	-3.9115539634824576e+23	2386.326248380703	-0.6393968245438566	22.446604312356552	1.3402061855670102	28.27711915550651	148.94921079069374	145.94146607774186	61.341462871701715	-0.013008918942259405	9.88916524833706e+22	-0.5108771351538868	-0.03341893256012363	-1.364052030614053e+23	-0.16165188864086935	0.22297290157048769	0.0	238.340134	207.115387	21.175987	29.114206	23.4541	33.346523	0.0		True	0.0	None	0.0	None	0.0	None	0.0	None	0.0	None	0.0	None	0.0	None	0.0	None	2.165e-06	12
2014-02-23 08:24:00	50.57627145874601	455949539.9998001	3.128705270975963e+21	903008814625.755	12.580890517777386	301195575381.7189	7.12775190686795e+20	-3.8244925092672974e+23	2451.482235957254	-0.6316034842950522	22.77937077751875	1.352757544224766	29.10519417233308	147.20858973684776	144.99884184589231	59.496552380602	-0.013091457354607058	9.853793503393412e+22	-0.5824380809478766	-0.03382283233228138	-1.3424096498001352e+23	-0.16273244868923992	0.22169493340895646	0.0	238.341721	207.006165	21.182394	29.225557	23.44755	33.463646000000004	0.0		True	0.0	None	0.0	None	0.0	None	0.0	None	0.0	None	0.0	None	0.0	None	0.0	None	2.2072e-06	12
2014-02-23 08:36:00	50.33004535499384	436940201.24100006	3.027377437223489e+21	914996102164.9432	9.21384001055385	95193538153.1556	6.914985048001443e+20	-3.6755133473823336e+23	2422.503403501953	-0.6334078615232493	22.679531088494702	1.9128586609989373	28.927138140578645	147.53303968441082	145.81819676270698	59.14452459892778	-0.009791540925136928	9.681886189032056e+22	-0.0726859808285374	-0.025819867940697967	-1.2761127224886423e+23	-0.1668496954547545	0.21991481303960064	0.0	238.343323	206.896927	21.18833	29.331678000000004	23.442083	33.574196	0.0		True	0.0	None	0.0	None	0.0	None	0.0	None	0.0	None	0.0	None	0.0	None	0.0	None	2.2059e-06	12
2014-02-23 08:48:00	48.378223835821885	424543979.4968	2.8405852866179535e+21	873385271443.7996	9.230823461105931	368355883364.42505	6.645287824466025e+20	-3.5750534034960985e+23	2444.4844117610064	-0.6340847948777214	21.99147041838621	0.8	28.1378247643716	149.23535042378288	148.7223295369374	59.45537765246643	-0.010549512526978206	8.863966102429847e+22	-0.8170572994986214	-0.026611733491138625	-1.2769447972817686e+23	-0.1572146061473075	0.2264836880654075	0.0	238.344864	206.787659	21.194527	29.444859	23.448351	33.683857	0.0		True	0.0	None	0.0	None	0.0	None	0.0	None	0.0	None	0.0	None	0.0	None	0.0	None	2.0518e-06	12
2014-02-23 09:00:00	48.41140281199546	409936074.1316	2.764417784361994e+21	870127890110.5233	11.630296586935193	293999875916.5365	6.48115478952197e+20	-3.521583963387584e+23	2437.436262585715	-0.6468586205718343	22.278991026453266	1.1709601873536302	27.71760814970109	150.55905283878525	149.14759180667554	59.07200481391326	-0.013618614270415916	8.342832093604467e+22	-0.6681675029302402	-0.034454688703900165	-1.215467696655643e+23	-0.15324447509523895	0.22326196557641506	0.0	238.34639	206.678391	21.201796	29.556225	23.453026	33.791519	0.0		True	0.0	None	0.0	None	0.0	None	0.0	None	0.0	None	0.0	None	0.0	None	0.0	None	1.9623e-06	12
2014-02-23 09:12:00	50.65822153081318	407370331.4715	2.6660588441246347e+21	902663609694.8972	12.687011162740324	207555030542.4157	6.359167696645561e+20	-3.51862148953592e+23	2415.773948587245	-0.6503853362149814	21.929142302729353	1.5643802647412757	27.851012173157788	155.79243605452552	154.3491057518903	60.70726661656632	-0.015267161447340943	7.78660002305114e+22	-0.26848702420065923	-0.037741100959953935	-1.2010685851127343e+23	-0.14392825397743025	0.22200665739946548	0.0	238.3479	206.569107	21.189489	29.669109	23.432106	33.900772	0.0		True	0.0	None	0.0	None	0.0	None	0.0	None	0.0	None	0.0	None	0.0	None	0.0	None	1.9122e-06	12
2014-02-23 09:24:00	46.9098162128741	399107713.84510016	2.660702657865233e+21	861776840227.0956	6.092290527886733	210099555567.2454	6.312267333732051e+20	-3.460363735180672e+23	2402.248049818234	-0.6528586863581088	21.901110457425947	1.3189448441247005	27.45750724172705	155.17535764119438	153.2846075374577	60.54595185124835	-0.00730490470969632	7.896791410362008e+22	-0.4889487699498499	-0.018470759563646046	-1.2262081808263784e+23	-0.1489869060352917	0.23134581315743616	0.0	238.349396	206.459793	21.192249	29.781807	23.437546	34.008312	0.0		True	0.0	None	0.0	None	0.0	None	0.0	None	0.0	None	0.0	None	0.0	None	0.0	None	1.8468e-06	12
2014-02-23 09:36:00	47.60856255203437	400149325.4406	2.633972932260406e+21	894230099692.692	6.898088350193112	121300893805.58745	6.355607335763158e+20	-3.433881686072213e+23	2311.5937748756987	-0.6461758679355386	22.09313250632773	1.5151515151515151	28.15148154916519	147.44149646732956	146.70049778773986	57.579409942087786	-0.008039730011880084	8.03720853429661e+22	-0.2744011036798976	-0.02094403852978089	-1.2437610890504358e+23	-0.15124138439284646	0.2340466197427149	0.0	238.350845	206.350449	21.20013	29.894876	23.442774	34.117706	0.0		True	0.0	None	0.0	None	0.0	None	0.0	None	0.0	None	0.0	None	0.0	None	0.0	None	1.7438e-06	12
2014-02-23 09:48:00	47.43772030801794	397008902.4561	2.6221896501911497e+21	874020762582.0627	6.314300574475008	227242997408.07184	6.329277395047667e+20	-3.440699022756573e+23	2347.770472758933	-0.6525803190686594	21.76919500934383	1.1890606420927468	27.251074323757162	149.08387201477282	147.91644252690398	58.6031211169466	-0.007508086295451855	8.082796189461308e+22	-0.5244561416541205	-0.01924830205849831	-1.2223432319993376e+23	-0.15330238656154566	0.23183577844901754	0.0	238.35229500000003	206.241104	21.205393	30.009626	23.431955	34.228844	0.0		True	0.0	None	0.0	None	0.0	None	0.0	None	0.0	None	0.0	None	0.0	None	0.0	None	1.6856e-06	12
2014-02-23 10:00:00	45.474822019391326	400423438.1823	2.556554370797512e+21	831066132776.6135	7.990206753803513	262232710074.93475	6.365791706394979e+20	-3.441363358281133e+23	2264.7675375989825	-0.6471404754252329	21.685844367427386	1.4117647058823528	28.270652187522664	148.40589020042074	145.78795580657385	60.95548731712217	-0.009400243239768836	8.041662789281949e+22	-0.5988094066064891	-0.02422913352224657	-1.2197221708435132e+23	-0.15122162174890547	0.2293659527776857	0.0	238.353729	206.131729	21.212713	30.121527	23.428545	34.336914	0.0		True	0.0	None	0.0	None	0.0	None	0.0	None	0.0	None	0.0	None	0.0	None	0.0	None	1.6213999999999996e-06	12
2014-02-23 10:12:00	46.8401127253824	401102065.1708	2.5917398645987093e+21	873326059788.0165	7.140026280717643	268607002618.36786	6.456616209800591e+20	-3.422393456922749e+23	2202.6486664391687	-0.6424843930461033	22.073170040755464	2.144469525959368	28.561699348165305	146.7300669688859	144.36194550551974	59.654437692674534	-0.00805872040713052	8.006020583678674e+22	-0.5884517335904782	-0.02167572619145565	-1.2111267538010723e+23	-0.15029666635829794	0.2273642838300177	0.0	238.355133	206.022324	21.219126	30.234344	23.429571	34.444988	0.0		True	0.0	None	0.0	None	0.0	None	0.0	None	0.0	None	0.0	None	0.0	None	0.0	None	1.5722e-06	12
2014-02-23 10:24:00	40.61534426377463	377492794.1148	2.401139941587257e+21	736492619134.1708	7.132934120844983	366009604383.4554	6.010422887654861e+20	-3.2704536446235375e+23	2279.9836592484007	-0.6523591851957555	21.600454813822427	1.5132408575031526	27.70133393670172	142.6451918908066	140.72360265161498	58.00157260471586	-0.008994872787950798	7.899850572732862e+22	-0.8958874965130021	-0.022870996306277487	-1.1736429533655604e+23	-0.15757875337167354	0.2341072046769309	0.0	238.356552	205.912903	21.226942	30.347355	23.42111	34.554214	0.0		True	0.0	None	0.0	None	0.0	None	0.0	None	0.0	None	0.0	None	0.0	None	0.0	None	2.3106999999999997e-06	12
