Timestamp	TOTUSJH	TOTBSQ	TOTPOT	TOTUSJZ	ABSNJZH	SAVNCPP	USFLUX	TOTFZ	MEANPOT	EPSZ	MEANSHR	SHRGT45	MEANGAM	MEANGBT	MEANGBZ	MEANGBH	MEANJZH	TOTFY	MEANJZD	MEANALP	TOTFX	EPSY	EPSX	R_VALUE	CRVAL1	CRLN_OBS	LAT_MIN	LON_MIN	LAT_MAX	LON_MAX	QUALITY	NOAA_AR	IS_TMFI	BFLARE	BFLARE_label	CFLARE	CFLARE_label	MFLARE	MFLARE_label	XFLARE	XFLARE_label	BFLARE_loc	BFLARE_label_loc	CFLARE_loc	CFLARE_label_loc	MFLARE_loc	MFLARE_label_loc	XFLARE_loc	XFLARE_label_loc	XR_MAX	XR_QUAL
2014-02-07 18:00:00	3442.8365770819664	53446501597.8884	7.659745297740488e+23	63386028539558.72	482.42331365172373	19675539752210.85	5.987649811669379e+22	-2.6177889474446416e+25	6839.589994175662	-0.3688101684340809	32.15502976699551	23.400294089744808	38.506676648323854	78.87326775184933	85.38865966341513	41.93166260261822	-0.00572086417934616	1.542523824066893e+24	-0.1232998641658374	-0.01318856613369675	-6.795834268583456e+24	-0.021732022053306654	0.09574388277912793	5.131631028928672	111.294998	52.429447	5.447133	44.775307	16.47788	68.989891	66560.0	11968.0	False	0.0	None	0.0	None	0.0	None	0.0	None	0.0	None	0.0	None	0.0	None	0.0	None	1.1429e-06	12
2014-02-07 18:12:00	3435.1641183612305	53401428143.8808	7.568250953566458e+23	62793995651509.48	487.6777858632362	19974236615864.85	6.027830626943988e+22	-2.661625880167768e+25	6715.366264783821	-0.3753026078348573	31.888404431654248	22.94430958497325	38.24260519388758	78.00041297540642	84.19027109527279	41.526020491093895	-0.005746986564180586	1.497745099126046e+24	-0.14105499607044952	-0.013281225548092421	-6.736729804580499e+24	-0.02111895761768183	0.09499127141709733	5.123001282465864	111.29715	52.319054	5.434921	44.894161	16.473473000000002	69.077217	66560.0	11968.0	False	0.0	None	0.0	None	0.0	None	0.0	None	0.0	None	0.0	None	0.0	None	0.0	None	1.0286e-06	12
2014-02-07 18:24:00	3401.4594280693445	53272456459.1304	7.586206911843749e+23	62723915634248.98	421.02243494405343	15649942682123.654	6.0256214913826855e+22	-2.640252679914347e+25	6700.034407437867	-0.3731902242627565	31.84618153865036	22.98669919538343	38.318996887106145	77.77619431196531	83.7888791028757	41.583179869171424	-0.004938332022896376	1.434625505851163e+24	-0.13431068179251454	-0.011510864540451428	-6.689347014863727e+24	-0.02027791575914752	0.0945515151500341	5.117202537869948	111.29936200000002	52.20866	5.4397699999999976	44.995567	16.469632999999998	69.166878	0.0	11968.0	True	0.0	None	0.0	None	0.0	None	0.0	None	0.0	None	0.0	None	0.0	None	0.0	None	9.746e-07	12
2014-02-07 18:36:00	3366.9748857586656	52994030186.1921	7.533419946801442e+23	61961983458485.84	461.4145740089005	18994378135860.83	5.991526138399766e+22	-2.628421358586056e+25	6664.591700540608	-0.3734698202421853	31.862710634266968	23.133407742466076	38.508524248905786	77.18170519378023	83.68138620649641	41.17823938941323	-0.005421199746324304	1.3554598809543497e+24	-0.149307470777434	-0.012678982738578943	-6.632565096608102e+24	-0.019259596884338016	0.0942414687920259	5.1007229189514725	111.30151399999998	52.098263	5.437171	45.111217	16.473989000000003	69.257675	0.0	11968.0	True	0.0	None	0.0	None	0.0	None	0.0	None	0.0	None	0.0	None	0.0	None	0.0	None	1.3706e-06	12
2014-02-07 18:48:00	3390.5243780285664	52819658133.5742	7.484795458008302e+23	62103393838273.55	476.3696936732702	19343200937709.133	5.9889632684108595e+22	-2.6293771494532132e+25	6608.144321845605	-0.3748390353645337	31.730894059332176	23.02082356251759	38.45938276320201	76.93442734761277	83.70562210931689	41.20359477085977	-0.005585621078422585	1.3053380921120236e+24	-0.12359430293362685	-0.013119920010122127	-6.580295278918697e+24	-0.01860865305586159	0.09380744543538024	5.101067254789052	111.303726	51.987873	5.438066	45.233868	16.470594000000002	69.34227	0.0	11968.0	True	0.0	None	0.0	None	0.0	None	0.0	None	0.0	None	0.0	None	0.0	None	0.0	None	1.3055e-06	12
2014-02-07 19:00:00	3320.380225856992	52690730225.9604	7.509197583561962e+23	61332531732295.31	409.4673359811604	15112590123352.293	5.967265523564505e+22	-2.6072553913849883e+25	6654.030856895141	-0.3725949116548604	31.815464691133823	22.93353417435511	38.59640595405092	76.85539254426268	83.29394889651671	41.257546040023755	-0.0048187934518159935	1.2612025996575164e+24	-0.11537235663886078	-0.011324196232042573	-6.605342632006808e+24	-0.018023461481794074	0.09439493586070608	5.101606887782398	111.305939	51.87748300000001	5.437932	45.333355	16.461681	69.41423	0.0	11968.0	True	0.0	None	0.0	None	0.0	None	0.0	None	0.0	None	0.0	None	0.0	None	0.0	None	1.2265e-06	12
2014-02-07 19:12:00	3292.597646469698	52462385917.6983	7.446697032801037e+23	60158834764659.36	494.9184440551884	19860082059673.0	5.9298600260498985e+22	-2.6019744496607752e+25	6660.174243757958	-0.3734586854088105	31.795635628120074	23.102231830005582	38.567403612866286	76.45608246475936	82.9290626642432	41.15611441040063	-0.005878729083185114	1.167190728199998e+24	-0.14541717307162835	-0.013737816670502351	-6.498096747449497e+24	-0.01675256707581246	0.09326650649002872	5.090270358296261	111.308151	51.767105	5.445602	45.448647	16.461184	69.504181	0.0	11968.0	True	0.0	None	0.0	None	0.0	None	0.0	None	0.0	None	0.0	None	0.0	None	0.0	None	1.2305e-06	12
2014-02-07 19:24:00	3301.8544882253764	52382911358.9082	7.432504490361924e+23	59730871914213.72	492.25229619707545	20906828615550.348	5.9037597748185556e+22	-2.5970197227834168e+25	6692.7127159893225	-0.3733130476600143	32.02007309783376	23.49381741646935	38.64238434525307	76.68513427110369	83.24172130365382	40.93446249661052	-0.0058869178430131725	1.1192017718197166e+24	-0.09667346494529064	-0.013686091958326192	-6.532556298721317e+24	-0.01608815754147241	0.09390334926962186	5.102973193965767	111.310379	51.656731	5.438685	45.559643	16.4564	69.578583	0.0	11968.0	True	0.0	None	0.0	None	0.0	None	0.0	None	0.0	None	0.0	None	0.0	None	0.0	None	1.1445e-06	12
2014-02-07 19:36:00	3339.994236989511	52438272137.602905	7.42994735474632e+23	59868274080852.7	519.0527560917975	21379943360272.164	5.876621105448627e+22	-2.6082191436471496e+25	6797.879463932403	-0.3745271134676765	31.974459712471962	23.38517618469016	38.44790926611605	77.40874437252293	84.26791751035276	41.460386720497844	-0.006306991130912021	1.08701190648598e+24	-0.11657757679143704	-0.014402563974881709	-6.449653491652177e+24	-0.015608942700723704	0.09261377100842257	5.099524527284951	111.312622	51.546368	5.438888	45.66497	16.451792	69.655396	0.0	11968.0	True	0.0	None	0.0	None	0.0	None	0.0	None	0.0	None	0.0	None	0.0	None	0.0	None	1.5734e-06	12
2014-02-07 19:48:00	3280.2162402264626	52320521275.61791	7.450263394229384e+23	59268384518710.0	518.2792138796804	22593815301549.25	5.832955518746382e+22	-2.57953770215684e+25	6874.351727252053	-0.3712422127479713	32.17531431800759	23.788400504858647	38.571243353062656	77.79163537545251	84.37194758443916	41.76158895393954	-0.0063513052851606605	1.089674088951114e+24	-0.14326989191380285	-0.01444932939383705	-6.458455516793604e+24	-0.01568238446827496	0.09294887665274447	5.098098081751674	111.314819	51.436016	5.447347	45.785297	16.443704999999998	69.731651	0.0	11968.0	True	0.0	None	0.0	None	0.0	None	0.0	None	0.0	None	0.0	None	0.0	None	0.0	None	1.4792e-06	12
2014-02-07 20:00:00	3289.7014211669893	52300268625.6392	7.395745936500057e+23	58460145876225.0	495.20355056716994	20403335765067.65	5.825342572885378e+22	-2.6014874844603936e+25	6906.221319288728	-0.3745461228423048	31.801488943990226	22.94880698447343	38.20394223817475	78.06960035576999	84.42126588310519	41.71886445923109	-0.0061415263241290045	1.071685567765368e+24	-0.1589513368878903	-0.013777010866248043	-6.37112790694332e+24	-0.015429467822169097	0.09172757008950196	5.110954738365983	111.317078	51.32568	5.453125	45.887684	16.44603	69.808617	0.0	11968.0	True	0.0	None	0.0	None	0.0	None	0.0	None	0.0	None	0.0	None	0.0	None	0.0	None	1.2678e-06	12
2014-02-07 20:12:00	3300.9793331859623	52247794509.066216	7.384930569091083e+23	58898324294013.47	509.7731516192391	20883928000153.613	5.800631922700426e+22	-2.5990504605664016e+25	6949.817969412087	-0.3745711427341428	32.030516878343924	23.191231424893456	38.25655203080721	78.33339593679825	84.71230818384545	41.97817737710633	-0.006371367974243709	1.0867136694091873e+24	-0.16326921106595366	-0.014196593330631157	-6.319882119619823e+24	-0.015661549752547143	0.0910811661184596	5.084326482920531	111.319305	51.215359	5.446576	46.007393	16.453186	69.883286	0.0	11968.0	True	0.0	None	0.0	None	0.0	None	0.0	None	0.0	None	0.0	None	0.0	None	0.0	None	1.8927000000000001e-06	12
2014-02-07 20:24:00	3267.5221512451726	52164216546.847305	7.336798310239354e+23	58647936628152.23	478.85322711073934	19428537979833.5	5.792644463006976e+22	-2.6149213748161393e+25	6941.304483635631	-0.37746223660390665	32.05508509481648	23.338652326326503	38.170042612104346	78.58437746116688	84.98279730977087	42.04309296570156	-0.006016651092008085	1.0779265575913696e+24	-0.1955058305908668	-0.013328617203631071	-6.368843641904715e+24	-0.015559801271340197	0.0919338527271381	5.022174559283932	111.321602	51.105049	5.450171	46.104816	16.459227	69.960289	0.0	11968.0	True	0.0	None	0.0	None	0.0	None	0.0	None	0.0	None	0.0	None	0.0	None	0.0	None	1.2025e-06	12
2014-02-07 20:36:00	3293.864829630975	52313070004.2352	7.333181105375568e+23	59271253276434.38	499.7430330439617	20394302101152.426	5.8037233928406265e+22	-2.633690445385397e+25	6938.317479061622	-0.3790897497953051	32.17729301113507	23.260956976276642	38.232644369166216	78.922162107305	85.4570796958446	42.358023453095775	-0.006279677725134917	1.148263730586018e+24	-0.19316842025306985	-0.013854100618410284	-6.360229386584848e+24	-0.01652794887453749	0.09154825963035194	5.065581821578217	111.323914	50.994759	5.456157	46.206436	16.469488000000002	70.008667	0.0	11968.0	True	0.0	None	0.0	None	0.0	None	0.0	None	0.0	None	0.0	None	0.0	None	0.0	None	1.2633e-06	12
2014-02-07 20:48:00	3315.8112323493597	52268165926.883804	7.328887124660302e+23	59890414575574.99	511.6303796392272	20468609261657.1	5.787875991144209e+22	-2.633108019407349e+25	7002.801270316501	-0.3793315423812705	32.1309259889767	23.154622168644124	38.045856049682605	79.5351235043309	85.97880341147413	42.626392396973145	-0.006492688920689168	1.2531993942712836e+24	-0.22460665257884369	-0.01419329840564821	-6.347912519064759e+24	-0.01805387609002066	0.09144947449972776	5.050875870721564	111.326241	50.884491	5.463024	46.323174	16.473543	70.087425	0.0	11968.0	True	0.0	None	0.0	None	0.0	None	0.0	None	0.0	None	0.0	None	0.0	None	0.0	None	1.2692e-06	12
2014-02-07 21:00:00	3343.691470402282	52344584900.5592	7.335261274444469e+23	60271017599606.05	496.57177618156624	20738740306124.24	5.796747261948919e+22	-2.6423646102984066e+25	7016.6376010341455	-0.3801092989226789	32.09486556479321	23.177672196956223	37.996832310284965	79.95721863415945	86.38440675355488	42.64997764648221	-0.006308477115944435	1.2681888161261224e+24	-0.2317737773860077	-0.013747821747477804	-6.385236087554588e+24	-0.01824314327858197	0.09185286554462553	5.092128521858668	111.328598	50.77424600000001	5.465953	46.416748	16.464087	70.166481	0.0	11968.0	True	0.0	None	0.0	None	0.0	None	0.0	None	0.0	None	0.0	None	0.0	None	0.0	None	1.2743e-06	12
2014-02-07 21:12:00	3383.8320897433514	52350839307.7327	7.374068166661824e+23	61077249245102.64	506.30105657324464	21268889239004.594	5.800140972998289e+22	-2.6256283108820603e+25	7026.445173423914	-0.3776566360810264	32.07394372231581	23.181565094148606	37.97353981481061	79.88101735992048	86.04551057281256	42.853303658578454	-0.006407252044713296	1.287080070126823e+24	-0.1942852335205208	-0.014040616841822492	-6.523391112411511e+24	-0.018512686187777072	0.09382904400991043	5.103600623502982	111.330971	50.66402100000001	5.460555	46.507957	16.468076999999994	70.240685	0.0	11968.0	True	0.0	None	0.0	None	0.0	None	0.0	None	0.0	None	0.0	None	0.0	None	0.0	None	1.2215999999999999e-06	12
2014-02-07 21:24:00	3421.9729425595815	52472582366.8247	7.34696001376642e+23	62364245472770.11	502.1892321473999	21205369106881.504	5.841298350328706e+22	-2.657929728028088e+25	6920.485033387469	-0.3814157524230575	31.96649753622841	23.01629992869563	37.940544477089844	79.94675283261077	86.2175643499605	43.040960734699105	-0.00628231272311195	1.3335353360411015e+24	-0.17475066523366292	-0.0138561878972569	-6.411944919256385e+24	-0.019136374382486176	0.09201209385199856	5.100989590091824	111.333328	50.553822	5.468653	46.607307	16.472711999999998	70.32073199999999	0.0	11968.0	True	0.0	None	0.0	None	0.0	None	0.0	None	0.0	None	0.0	None	0.0	None	0.0	None	1.4764e-06	12
2014-02-07 21:36:00	3407.3169692630327	52591416696.4682	7.410004394410506e+23	62483283099290.39	505.02598203041885	22350031307769.355	5.8743884000708595e+22	-2.6451817998774283e+25	6830.592254729392	-0.37872866922156506	32.365941547268015	23.500967117988395	38.25654150533745	78.76023181505394	84.89417295321692	42.33218502337285	-0.006182679374546043	1.3623443796027995e+24	-0.18621872764997635	-0.013930477970101341	-6.421810181262954e+24	-0.01950561106735104	0.09194542409356947	5.069779279814433	111.335739	50.443645	5.472656	46.722469	16.469814000000003	70.39613299999998	0.0	11968.0	True	0.0	None	0.0	None	0.0	None	0.0	None	0.0	None	0.0	None	0.0	None	0.0	None	1.4319e-06	12
2014-02-07 21:48:00	3426.411266408499	52572052840.5181	7.386820687982439e+23	63259316519122.69	500.6888340924919	22704104767500.23	5.905418056740559e+22	-2.6591726772217665e+25	6706.5131013053015	-0.3808720877781567	32.424272484780694	23.422597875495853	38.287084712712605	77.9774393596644	84.10899794859147	41.969692671069566	-0.006037196253556946	1.4429163224849876e+24	-0.12040784479183175	-0.013794053585477587	-6.253013347865821e+24	-0.02066682457072361	0.08956162452731603	5.040001108641493	111.33815	50.333496	5.480063	46.823715	16.468687	70.44178000000002	0.0	11968.0	True	0.0	None	0.0	None	0.0	None	0.0	None	0.0	None	0.0	None	0.0	None	0.0	None	1.3442e-06	12
2014-02-07 22:00:00	3394.894404553809	52265947795.1048	7.311096597472989e+23	63022838628524.68	491.03210128361627	22994634264640.805	5.8983424579750565e+22	-2.6611275183619105e+25	6600.200890555628	-0.38338436914182095	32.243324130417946	23.07784531645266	38.268239963146975	77.1749061128437	83.18048754755186	41.56503236212431	-0.005887392706388378	1.367668555181226e+24	-0.15804539544816246	-0.013582687483186988	-6.230807284438816e+24	-0.0197037812959082	0.08976624019352852	5.019838578091696	111.34063	50.223377	5.4882550000000005	46.940136	16.4734	70.51924100000002	0.0	11968.0	True	0.0	None	0.0	None	0.0	None	0.0	None	0.0	None	0.0	None	0.0	None	0.0	None	1.3911000000000001e-06	12
2014-02-07 22:12:00	3328.8306167733613	52046115666.9007	7.315586946002116e+23	61848136651159.81	511.92967052358114	23501251623867.31	5.878686974109583e+22	-2.634225945617104e+25	6590.978036937034	-0.38111159907379655	32.23741279970215	23.30425834858873	38.444490344898206	76.4740561509208	82.56153248837056	41.32875564664349	-0.006125319117014229	1.379255450892583e+24	-0.1179189738643414	-0.014244053424393669	-6.07722844010152e+24	-0.01995463795713932	0.08792344683254823	5.044781706548501	111.34314	50.113285	5.492533	47.043461	16.465935	70.57886500000002	0.0	11968.0	True	0.0	None	0.0	None	0.0	None	0.0	None	0.0	None	0.0	None	0.0	None	0.0	None	1.912e-06	12
2014-02-07 22:24:00	3295.4133424953475	51688919642.785	7.259801608467925e+23	60548560519858.53	472.4894474971392	22193984048130.914	5.846958624439571e+22	-2.6118461806592735e+25	6559.398606939728	-0.3804851374460987	32.127752651543034	23.32521388545579	38.52419007324431	75.68565673192948	81.74546739458874	40.881356292547935	-0.005669623906513785	1.3128098758646504e+24	-0.13230696742604345	-0.013244157082961509	-5.946337225988908e+24	-0.01912458129264236	0.08662427954161342	5.062790856604079	111.345673	50.003223	5.497073	47.162605	16.466288	70.63777900000002	0.0	11968.0	True	0.0	None	0.0	None	0.0	None	0.0	None	0.0	None	0.0	None	0.0	None	0.0	None	2.1534e-06	12
2014-02-07 22:36:00	3231.42220826874	51298090973.3227	7.210434614371984e+23	59795058821383.26	432.17390491545336	18649305327131.13	5.821529681572797e+22	-2.5899786879350863e+25	6516.279461735779	-0.3801740828069941	31.994931330295767	23.277724435909747	38.55513727273802	75.29593182868153	81.38501125492525	40.76034838878629	-0.005186979019376772	1.3163296321623663e+24	-0.11083206862559387	-0.012208318007630978	-5.872316637804046e+24	-0.01932195090678438	0.08619772054994447	5.050806055377591	111.348244	49.893192	5.504794	47.264027	16.470354	70.70948	0.0	11968.0	True	0.0	None	0.0	None	0.0	None	0.0	None	0.0	None	0.0	None	0.0	None	0.0	None	1.9529e-06	12
2014-02-07 22:48:00	3205.190156839057	51070428812.23071	7.180498052321653e+23	58838794007147.43	464.12247639979074	22639262311156.65	5.815073911331187e+22	-2.5733996917991533e+25	6481.679561551933	-0.3794244341228259	31.694733074912143	22.89101741851181	38.462905272069825	74.63516518709694	81.03894333279891	40.44101962022491	-0.005564283804291889	1.1743370075491548e+24	-0.10253751952174653	-0.013176660370364844	-5.782867951339991e+24	-0.017314533610102198	0.08526314070202544	5.048345235976961	111.350845	49.783192	5.512258	47.383263	16.461899	70.792236	0.0	11968.0	True	0.0	None	0.0	None	0.0	None	0.0	None	0.0	None	0.0	None	0.0	None	0.0	None	1.7533000000000004e-06	12
2014-02-07 23:00:00	3147.491124088322	50640758575.34432	7.14899076027062e+23	57871793282465.19	412.25786408865486	19175296562192.88	5.771843414760312e+22	-2.541488775112762e+25	6519.909099899383	-0.3778988093698433	31.681296463749298	22.77505934789981	38.30512398571924	74.22882594734196	80.45249452784144	40.25675038976864	-0.004993312469279511	1.2037812935273976e+24	-0.10902407055726868	-0.011816381056621635	-5.71683279331228e+24	-0.017899253461999252	0.08500467627929352	5.055484211385483	111.353424	49.673225	5.522274	47.48534	16.463316	70.867729	0.0	11968.0	True	0.0	None	0.0	None	0.0	None	0.0	None	0.0	None	0.0	None	0.0	None	0.0	None	1.4487e-06	12
2014-02-07 23:12:00	3143.6369276974056	50436585693.47302	7.111451712912224e+23	57424067670674.02	435.4358297255702	20593754123860.547	5.766933105112576e+22	-2.5286365219010368e+25	6460.320720894116	-0.3775097747226733	31.530649319118403	22.635363381912946	38.21045543837105	73.24851200464298	79.22329114275614	39.73181203217397	-0.005253493753098513	1.1790112427246263e+24	-0.12722903830364127	-0.012535284769398358	-5.735437081295977e+24	-0.01760190777842021	0.08562652408691462	5.0203304151007595	111.356094	49.563293	5.528357	47.608948	16.465633	70.947525	0.0	11968.0	True	0.0	None	0.0	None	0.0	None	0.0	None	0.0	None	0.0	None	0.0	None	0.0	None	1.4584999999999999e-06	12
2014-02-07 23:24:00	3154.7485739255767	50237293442.6777	7.024222509623118e+23	57065199294022.7	415.69398137168974	21167553725742.69	5.7719215665647266e+22	-2.5545566788687367e+25	6425.419288573234	-0.3828924299485397	31.21148347808364	22.078332280480105	37.91678706928948	73.07156821334188	78.98320341160122	39.906709656231044	-0.005050284668776831	1.1221110518304188e+24	-0.13277127583170292	-0.011968206800338185	-5.614276734090064e+24	-0.016818880194027504	0.08415018069089218	5.016334202241113	111.358742	49.453392	5.53846	47.717087	16.460253	71.032692	0.0	11968.0	True	0.0	None	0.0	None	0.0	None	0.0	None	0.0	None	0.0	None	0.0	None	0.0	None	1.6709e-06	12
2014-02-07 23:36:00	3137.532560419175	49918512440.1329	6.974687921285083e+23	57158259626620.0	368.7105302621498	17927721282482.64	5.7665212638859025e+22	-2.541379402614799e+25	6377.705944463495	-0.38334990855925744	30.986232938204733	21.835646714512983	37.73581479545639	72.58068855820531	78.36929458948786	39.8892592102372	-0.00447768544474582	1.106108256000827e+24	-0.14008892570659734	-0.010679020961268723	-5.497554321328282e+24	-0.016684895547602233	0.08292689175856137	5.026995769032396	111.361481	49.343525	5.5462989999999985	47.836132	16.458019	71.114502	0.0	11968.0	True	0.0	None	0.0	None	0.0	None	0.0	None	0.0	None	0.0	None	0.0	None	0.0	None	1.8633000000000002e-06	11
2014-02-07 23:48:00	3119.4411304885016	49675362163.9006	6.934454323826545e+23	56845693554975.06	421.16754734004166	21435512397416.82	5.750216674565826e+22	-2.530318658438408e+25	6330.077561163091	-0.38354973696838623	31.042708539336616	21.82741732130734	37.8288327081826	71.81319441704592	77.75451925539878	39.668343089716245	-0.005105927640327347	1.0745425242662003e+24	-0.11773407912552156	-0.012256122591680593	-5.468766298892729e+24	-0.016288086924118896	0.08289643158132448	5.031720526382575	111.364243	49.233696	5.554794	47.954967	16.452244	71.195396	0.0	11968.0	True	0.0	None	0.0	None	0.0	None	0.0	None	0.0	None	0.0	None	0.0	None	0.0	None	1.7435e-06	12
2014-02-08 00:00:00	3077.302093420888	49424741785.00112	6.905777593271499e+23	56353669273964.76	415.62190152772484	20405364630303.805	5.724830923752372e+22	-2.5141192287786204e+25	6340.873840404986	-0.38302657792909856	30.85720546894261	21.45182728303681	37.73854108130623	71.95982898269959	78.14613644566343	39.500397378271906	-0.0050683125399703065	1.034366518241496e+24	-0.11125635090562333	-0.012160596613012864	-5.524180818211436e+24	-0.015758595028882102	0.08416100757834857	5.062844368498368	111.36705	49.123894	5.564983	48.066273	16.448332	71.272217	0.0	11968.0	True	0.0	None	0.0	None	0.0	None	0.0	None	0.0	None	0.0	None	0.0	None	0.0	None	1.6201e-06	12
2014-02-08 00:12:00	3068.0049718599394	49290213636.103004	6.925502345851543e+23	56446436672851.12	417.8281280217902	21600888725381.33	5.70743781192456e+22	-2.4908894125864587e+25	6359.607645427313	-0.3805233787921172	31.082702735382096	21.864900791473065	37.9284379091851	71.98710119893849	78.27370630821225	39.68963438875967	-0.005095775693905604	1.0330943471973258e+24	-0.10182927436750036	-0.01228093923248678	-5.58784440046684e+24	-0.015782176021952074	0.08536330118414882	5.0229058912186035	111.369888	49.014133	5.5729989999999985	48.184437	16.446505	71.332062	0.0	11968.0	True	0.0	None	0.0	None	0.0	None	0.0	None	0.0	None	0.0	None	0.0	None	0.0	None	1.2471999999999999e-06	12
2014-02-08 00:24:00	3039.8667681166858	49113587118.7717	6.89412826917617e+23	55836073464035.14	384.2093350673341	19275034380283.484	5.7062803917634644e+22	-2.479242265717296e+25	6326.705619651031	-0.3801060230289362	30.91227099192584	21.709403792716813	37.85678715203864	71.44466380550001	77.41388854665284	39.493838237269614	-0.004682681508212582	1.0204904496147562e+24	-0.09426802130282076	-0.011336889212684836	-5.563666033919538e+24	-0.015645690286336344	0.08529956910050014	5.011264060838141	111.372757	48.904408	5.586327	48.292294	16.446189999999998	71.415253	0.0	11968.0	True	0.0	None	0.0	None	0.0	None	0.0	None	0.0	None	0.0	None	0.0	None	0.0	None	1.5858000000000001e-06	12
2014-02-08 00:36:00	3047.978026401676	48997291206.510216	6.937757948787801e+23	56062853044910.48	360.46145716800766	18142545987314.234	5.693333091354497e+22	-2.451375695150824e+25	6384.095670708442	-0.3767257375014159	30.96435053811317	21.757567610504832	37.826396522325524	71.42002732928721	77.58505942442977	39.52812662539158	-0.0044051652531317	9.511505229250148e+23	-0.11257179546348113	-0.010687457289330779	-5.544550173816003e+24	-0.014617216077184669	0.08520826723852801	5.043607141704556	111.375618	48.794716	5.60034	48.416191	16.435131	71.494156	0.0	11968.0	True	0.0	None	1.0	C2.5@7605	0.0	None	0.0	None	0.0	None	1.0	C2.5@7605	0.0	None	0.0	None	2.5852999999999996e-06	12
2014-02-08 00:48:00	3025.5173065325152	48748886859.4373	6.919351141598851e+23	55077035933919.34	429.53726757914393	21353216157245.805	5.661042279510014e+22	-2.4386152407289605e+25	6454.4753719150585	-0.376674370640488	30.692171964400373	21.300265107405664	37.52019516512801	71.64270427227896	77.76822557296795	39.62734382355349	-0.005321323929374925	9.302408041590408e+23	-0.13208280164269184	-0.012800917415939628	-5.627112929485196e+24	-0.014368723019461068	0.08691773863445522	5.024601084363084	111.378555	48.685059	5.6096629999999985	48.528439	16.435451999999998	71.58641800000002	0.0	11968.0	True	0.0	None	0.0	None	0.0	None	0.0	None	0.0	None	0.0	None	0.0	None	0.0	None	2.4009e-06	11
2014-02-08 01:00:00	3031.2768600012328	48732832677.766205	6.879670294379643e+23	55425181897342.75	411.5703492287952	22036352094111.33	5.684962132319305e+22	-2.4542851068264344e+25	6356.121912905231	-0.37921969663926175	30.4798781703663	20.68563575907045	37.44653864715481	71.25200474159443	77.16206486492433	39.401747582	-0.005049880973592904	9.680128266049503e+23	-0.1106654691757972	-0.012246696863544805	-5.620059285294175e+24	-0.014957085850662091	0.08683739192875453	5.0500122768371485	111.381485	48.575436	5.598077	48.64513	16.428528	71.673683	0.0	11968.0	True	0.0	None	0.0	None	0.0	None	0.0	None	0.0	None	0.0	None	0.0	None	0.0	None	1.7459999999999999e-06	12
2014-02-08 01:12:00	3015.2681854801	48519902974.01851	6.832180444465213e+23	55008816444858.85	438.8161252461736	23262393312426.656	5.65689569683878e+22	-2.449233353587544e+25	6345.960836452772	-0.38009990381217496	30.57023416950873	21.002121675630328	37.60871876815652	71.16206862423101	76.9367941999763	39.47649884821054	-0.005413473047695207	9.695665240469118e+23	-0.16044860138182682	-0.013107371809031656	-5.622545940972626e+24	-0.015046836676053109	0.08725706630659938	5.099815540205369	111.384506	48.465851	5.577332	48.759964	16.428093	71.758659	0.0	11968.0	True	0.0	None	0.0	None	0.0	None	0.0	None	0.0	None	0.0	None	0.0	None	0.0	None	1.487e-06	11
2014-02-08 01:24:00	3000.0965116349266	48490744947.0286	6.820202349691987e+23	55475405127391.45	432.4686434870083	20080705077239.3	5.679224876583592e+22	-2.4630270339062613e+25	6303.808499745197	-0.3824703716415945	30.458055309356478	20.58379466532461	37.46491864482661	71.2574976649056	77.71423383146971	39.579159081126974	-0.005308904180982414	9.531839548054432e+23	-0.1212212630404166	-0.012903796902065593	-5.602091008608569e+24	-0.014801486805407	0.08699189251830597	5.092818361472033	111.387543	48.356297	5.5629089999999985	48.877419	16.417715	71.80903599999998	0.0	11968.0	True	0.0	None	0.0	None	0.0	None	0.0	None	0.0	None	0.0	None	0.0	None	0.0	None	1.203e-06	11
2014-02-08 01:36:00	3023.533381007013	48450331392.4261	6.809086953550643e+23	55602183264144.74	394.30443395658796	19344474086540.164	5.6718456201272485e+22	-2.4626589598869544e+25	6316.4849144928785	-0.3827321987887058	30.52607436495409	20.848578925971093	37.48398167842072	71.43998327797244	77.71358236805176	39.67597673026209	-0.004857880371040164	9.108961309773248e+23	-0.08606767066722228	-0.011771708550551385	-5.598136730799463e+24	-0.014156620334188698	0.08700300021230098	5.082389540465172	111.390625	48.246777	5.571617	49.000523	16.421577	71.881592	0.0	11968.0	True	0.0	None	0.0	None	0.0	None	0.0	None	0.0	None	0.0	None	0.0	None	0.0	None	1.0916e-06	11
2014-02-08 01:48:00	2993.7623873215166	48223051866.7446	6.759144159980543e+23	55021383916467.82	395.69625217331344	19677456585753.53	5.65532528185388e+22	-2.463909163937035e+25	6282.460935808202	-0.3847312314252553	30.50387581967133	20.94998271860959	37.52997052954899	71.50536145347228	78.13033484461405	39.573713970679655	-0.0048844152986386394	8.51395326982691e+23	-0.14066459799626116	-0.011851457220574818	-5.645973825744284e+24	-0.013294255217443127	0.0881600058300229	5.088062233705842	111.39373799999998	48.137291	5.5537800000000015	49.117165	16.413151	71.969429	0.0	11968.0	True	0.0	None	0.0	None	0.0	None	0.0	None	0.0	None	0.0	None	0.0	None	0.0	None	1.0825e-06	12
2014-02-08 02:00:00	2974.490005509853	48262998268.47371	6.753204645541887e+23	54696462969937.56	423.07021763600204	21027363698207.387	5.66474188781465e+22	-2.4686615310258367e+25	6266.034351331984	-0.3851542470859583	30.46938194103736	21.031878057496336	37.43179120052273	71.17660045212408	77.43656760507992	39.5447793274501	-0.0052136915884455435	8.743197720781454e+23	-0.11431056683356405	-0.012658650469304514	-5.674976442455719e+24	-0.01364091307353873	0.08853952846327666	5.100508343315662	111.396881	48.027836	5.56306	49.234322	16.396942000000006	72.017975	0.0	11968.0	True	0.0	None	0.0	None	0.0	None	0.0	None	0.0	None	0.0	None	0.0	None	0.0	None	1.0265e-06	12
2014-02-08 02:12:00	2979.6245858375096	48037752771.7673	6.754188894091516e+23	55264894286245.81	381.02171841209497	19017968259096.72	5.638701907689945e+22	-2.441870545289164e+25	6295.185306984798	-0.382760842964142	30.43255748574605	20.959536570572727	37.40098669448295	71.74266042792462	78.4829521340898	39.89331732183722	-0.004716315769818475	1.0617214773458184e+24	-0.10030584944560778	-0.011472502679006005	-5.673430527535465e+24	-0.016642381327135254	0.08893047403382381	5.099610647476188	111.400009	47.918415	5.549887	49.359837	16.402859	72.09563399999998	0.0	11968.0	True	0.0	None	0.0	None	0.0	None	0.0	None	0.0	None	0.0	None	0.0	None	0.0	None	1.7178e-06	12
2014-02-08 02:24:00	2924.958988378245	48151545675.6122	6.731883338413881e+23	54301745953012.81	407.87384386129975	20653609376213.367	5.660479117465487e+22	-2.468697860554685e+25	6256.66039442606	-0.3860514850574433	30.19078505586424	20.704041077291464	37.34050859352943	71.32524665578235	77.78896215745002	39.67206490031267	-0.005034360806997208	9.766833268366218e+23	-0.07199046270138519	-0.012222674781599328	-5.658730372344299e+24	-0.015273235934647904	0.08849042641825487	5.085031416385236	111.403221	47.809021	5.553378	49.474369	16.384846	72.134338	0.0	11968.0	True	0.0	None	0.0	None	0.0	None	0.0	None	0.0	None	0.0	None	0.0	None	0.0	None	1.4041999999999998e-06	12
2014-02-08 02:36:00	2912.799218032983	48282233847.151115	6.786196007998063e+23	53754840800557.27	397.6657059546233	21443804128892.61	5.66128771239559e+22	-2.4578501591865987e+25	6307.449051387139	-0.3833147005443436	30.303935465921363	20.86059199644506	37.441402853617454	71.33165142686117	77.71872184431972	39.236549286645314	-0.004909089523672608	9.86815866179114e+23	-0.10676124999505608	-0.01190969245853196	-5.616145007322696e+24	-0.015389914101274422	0.08758674460480302	5.088763985284028	111.40641	47.699657	5.543839	49.597744	16.393629	72.205376	0.0	11968.0	True	0.0	None	0.0	None	0.0	None	0.0	None	0.0	None	0.0	None	0.0	None	0.0	None	1.6402000000000004e-06	12
2014-02-08 02:48:00	2956.887867179205	48401527395.53562	6.772305770609843e+23	54624065257150.24	352.3418019763753	18610819687564.906	5.679098776388152e+22	-2.4761258157053637e+25	6282.67553844576	-0.38521324294033216	30.285433911329132	20.668498281321227	37.39038415427364	71.56164438458455	78.42605801584699	39.11093854630697	-0.004341109383179431	1.0508437392264328e+24	-0.11083825432848544	-0.010511322820926169	-5.520679467850226e+24	-0.016348075773994768	0.08588573438215563	5.091985750011531	111.409683	47.590328	5.5471650000000015	49.720814	16.372169	72.237381	0.0	11968.0	True	0.0	None	0.0	None	0.0	None	0.0	None	0.0	None	0.0	None	0.0	None	0.0	None	1.2533e-06	12
2014-02-08 03:00:00	2927.9445538316277	48317299926.94991	6.76592846095219e+23	54474502093989.25	359.8132502330764	19836257725320.465	5.6666439324505934e+22	-2.4657501993071072e+25	6284.1897338225435	-0.3842676613945748	30.41749560061427	21.00011101380272	37.52315191051369	71.019513958448	77.50890674396929	39.10582879152125	-0.0044385223180257605	1.116798724851679e+24	-0.10099021084691573	-0.010759916665611659	-5.54050724241412e+24	-0.017404424599369066	0.08634442213896819	5.1117887909282285	111.412971	47.481022	5.550205	49.83965300000001	16.359554	72.309929	0.0	11968.0	True	0.0	None	0.0	None	0.0	None	0.0	None	0.0	None	0.0	None	0.0	None	0.0	None	1.1098e-06	12
2014-02-08 03:12:00	2983.2240494711573	48383649699.4104	6.773480434829209e+23	55006890790451.46	364.35109841612746	20009141342945.81	5.677645655938345e+22	-2.473325547408379e+25	6276.804301677319	-0.3849197102079786	30.336074588519768	20.82159075525801	37.579736288365226	71.12488712477251	77.21519195253671	39.042713937820004	-0.00448410045556068	1.1570725889600464e+24	-0.12516821265118538	-0.010875098922251868	-5.557203062098351e+24	-0.018007336159155375	0.08648586493076797	5.139892711349736	111.416298	47.371742	5.540032	49.958817	16.361359	72.361473	0.0	11968.0	True	0.0	None	0.0	None	0.0	None	0.0	None	0.0	None	0.0	None	0.0	None	0.0	None	1.0897e-06	12
2014-02-08 03:24:00	2966.809708510208	48514553718.54311	6.817130597999398e+23	54824974111253.84	395.08204789595413	18540602169364.066	5.675023389543882e+22	-2.4755518230605765e+25	6326.518813985334	-0.38422663725711537	30.482803536228772	20.955655796297666	37.585596060636355	71.08196616363249	77.45955905024006	39.25650018137063	-0.004869320382759458	1.0930572256449389e+24	-0.16032454383142222	-0.01176624938310706	-5.587164226553765e+24	-0.01696517512689008	0.0867175270812125	5.13512005635553	111.41964	47.262489	5.5435120000000015	50.077873	16.340519	72.43425	0.0	11968.0	True	0.0	None	0.0	None	0.0	None	0.0	None	0.0	None	0.0	None	0.0	None	0.0	None	1.0488e-06	12
2014-02-08 03:36:00	2931.8368665456874	48398679615.0882	6.744415959252474e+23	53905857930126.48	609.4716567515886	27511460914942.31	5.681719444721062e+22	-2.477573162686672e+25	6250.3339999119735	-0.3854611095875535	30.402567384547297	20.842820396056663	37.326782079901534	70.60334820726733	76.46365356878901	38.69196043384841	-0.0075015589290745215	1.1350196689349396e+24	-0.14766226414754366	-0.018180080808840447	-5.628082733994907e+24	-0.01765864869624796	0.08756177408475523	5.157522680823561	111.423012	47.15325900000001	5.536361	50.202602	16.317427	72.522224	0.0	11968.0	True	0.0	None	0.0	None	0.0	None	0.0	None	0.0	None	0.0	None	0.0	None	0.0	None	1.0771e-06	12
2014-02-08 03:48:00	2926.253030254518	48384357752.1138	6.748393039355645e+23	54327875421955.63	428.8069574277481	21726200875796.227	5.694856549962081e+22	-2.495131375576121e+25	6236.211908607878	-0.38830764624999903	30.439574662846645	20.790839807076324	37.25896481135466	71.3047740997854	77.14251213780584	39.00760443895096	-0.00526259735190285	1.107699189302981e+24	-0.10201358286556464	-0.012767364348854587	-5.600905135702575e+24	-0.017238694088881658	0.08716472051945655	5.151490179052645	111.426361	47.044056	5.54132	50.324066	16.295379999999998	72.577522	0.0	11968.0	True	0.0	None	0.0	None	0.0	None	0.0	None	0.0	None	0.0	None	0.0	None	0.0	None	1.1681e-06	12
2014-02-08 04:00:00	2924.441004732905	48394092567.31642	6.72565133951001e+23	54609591076739.94	379.47536351374436	18958652876689.508	5.678187211349383e+22	-2.4954833101377698e+25	6230.5650930364745	-0.38828426201185817	30.686443348494148	21.387269014049853	37.56863967469895	71.3120344942272	77.76039770861084	38.84448922100957	-0.0046688570525079895	1.2215166847078553e+24	-0.13611519902424504	-0.011298434104476243	-5.570396483367045e+24	-0.019006166161487027	0.08667248059207475	5.11227669887808	111.429764	46.934872	5.548612	50.443096	16.273134	72.648605	0.0	11968.0	True	0.0	None	0.0	None	0.0	None	0.0	None	0.0	None	0.0	None	0.0	None	0.0	None	1.1789e-06	12
2014-02-08 04:12:00	2931.2944321356567	48408441793.6442	6.711028656286566e+23	54466854688860.02	404.9927412172222	21308577476724.89	5.677404670183794e+22	-2.509560016972292e+25	6236.198615353522	-0.39035872093729	30.63959604597149	21.049708757034253	37.394393254877855	71.43741190373447	76.93493537208649	38.932334605992644	-0.0049981826185666964	1.2158178739689254e+24	-0.06967170710981434	-0.012034792142291644	-5.569872686490034e+24	-0.018911885229499367	0.08663862840407226	5.133688325731686	111.433159	46.825706	5.532854	50.564114	16.252274	72.724159	0.0	11968.0	True	0.0	None	0.0	None	0.0	None	0.0	None	0.0	None	0.0	None	0.0	None	0.0	None	1.1918e-06	12
2014-02-08 04:24:00	2950.5906197690692	48614118790.1964	6.778195706793583e+23	54962033858747.02	449.4934516176153	23628454323773.203	5.6889861110299485e+22	-2.5068792566536738e+25	6278.855781059419	-0.3882920496259218	30.895460384067412	21.366270129294968	37.58915087608307	71.84349966205754	77.44146243835866	39.30613607691237	-0.005529708952447689	1.204394415670389e+24	-0.1025017596926735	-0.013320180513302369	-5.628646410751988e+24	-0.018654938205636785	0.08718244588963119	5.139204236784997	111.436607	46.71656	5.545203	50.682198	16.23205	72.783676	0.0	11968.0	True	0.0	None	0.0	None	0.0	None	0.0	None	0.0	None	0.0	None	0.0	None	0.0	None	1.2243999999999999e-06	12
2014-02-08 04:36:00	2911.1534927978737	48726131107.43202	6.765584732392223e+23	54509731865079.62	428.66639473620313	22139257415674.45	5.688747524967825e+22	-2.51370338823537e+25	6290.933257813525	-0.3884540141550333	30.91291635255448	21.538651518893552	37.53962959754561	72.38746912975239	77.99191211206356	39.228566867086016	-0.00529361548489964	1.3768882681341592e+24	-0.13171251241477855	-0.012672433933283746	-5.650483977495062e+24	-0.02127768046552057	0.08731949812573239	5.124998153608732	111.440079	46.607433	5.54614	50.803619	16.209515	72.875961	0.0	11968.0	True	0.0	None	0.0	None	0.0	None	0.0	None	0.0	None	0.0	None	0.0	None	0.0	None	1.3878999999999999e-06	12
2014-02-08 04:48:00	2998.980038616405	48901742666.64562	6.979156952679541e+23	57751791516004.98	323.3623188974052	14669449294706.234	5.705190818237444e+22	-2.4726830332352987e+25	6475.766969995497	-0.3807427019428705	31.16610848060184	21.400581624605678	37.46252613687703	74.15217366456605	80.4234760275373	40.64433698072517	-0.0039848464398063435	2.0893802266923803e+24	-0.17754910208757066	-0.009578527583559352	-5.694788544619402e+24	-0.03217218956915791	0.08768811644389074	5.1320332329082685	111.443573	46.498318	5.538926	50.923065	16.191229	72.947334	0.0	11968.0	True	0.0	None	0.0	None	0.0	None	0.0	None	0.0	None	0.0	None	0.0	None	0.0	None	1.347e-06	11
2014-02-08 05:00:00	3027.173309075348	49226646020.87851	6.814775972815722e+23	56265803168233.55	478.8450456606844	24219544831803.33	5.720695407537587e+22	-2.56238349553701e+25	6369.867207606419	-0.3919506168199547	30.989898044991822	21.320042702152485	37.395100173190215	73.62787107731971	79.22766656825523	39.7649341126	-0.005944102952663725	1.2949071321659392e+24	-0.13173442105115882	-0.013976580152581896	-5.693752748130901e+24	-0.019807325876903186	0.08709351685792521	5.13156801852657	111.447067	46.389217	5.549574	51.050941	16.169148999999994	72.999977	0.0	11968.0	True	0.0	None	0.0	None	0.0	None	0.0	None	0.0	None	0.0	None	0.0	None	0.0	None	1.2482e-06	12
2014-02-08 05:12:00	3046.686744546612	49301765468.6625	6.80112890913542e+23	56105500651691.92	451.36276200525987	22518796377472.52	5.7240002991799805e+22	-2.5745058334127013e+25	6365.249718104716	-0.3932048696693136	31.12596441031216	21.54247716114598	37.38306555285741	73.82257131441469	79.60587215984364	39.71272257225241	-0.0056101269281618295	1.3771188886088542e+24	-0.1151387920330089	-0.01314250850887977	-5.777981617009696e+24	-0.021032768544820456	0.08824724648832401	5.127530176166417	111.450584	46.28012800000001	5.554572	51.155396	16.147195999999994	73.077003	0.0	11968.0	True	0.0	None	0.0	None	0.0	None	0.0	None	0.0	None	0.0	None	0.0	None	0.0	None	1.3118999999999999e-06	12
2014-02-08 05:24:00	3040.4555247020758	49314545985.1077	6.819185936950641e+23	55794953381195.59	483.4109877040735	24484576147751.336	5.688123105578043e+22	-2.572442746720103e+25	6466.623511449231	-0.3927879028181181	31.283366239121793	21.741977734119192	37.45777982933159	74.65644116627787	80.20648116574121	40.010743264743425	-0.006088146239440739	1.353716858602441e+24	-0.13800671188235014	-0.014077136722260937	-5.810661370229604e+24	-0.020669987955142563	0.08872335434904327	5.1447756784334215	111.454048	46.171051	5.547904	51.283558	16.128075	73.111542	0.0	11968.0	True	0.0	None	0.0	None	0.0	None	0.0	None	0.0	None	0.0	None	0.0	None	0.0	None	1.3203e-06	12
2014-02-08 05:36:00	3053.1851625389136	49314504919.2353	6.758339721454453e+23	55793253218328.7	452.3910299877462	22096413695456.906	5.684967784108789e+22	-2.610211859285542e+25	6462.9688275485205	-0.3985552497766509	31.283944354276546	21.537973075946148	37.39106368365868	75.31569407220238	81.23443272207366	40.22777724849594	-0.005745523508188502	1.417101587077617e+24	-0.15961738363302574	-0.013118697810892222	-5.818840888657852e+24	-0.021637832767766263	0.08884832759990614	5.17285444134164	111.457581	46.061977	5.556708	51.395325	16.103001000000006	73.156509	0.0	11968.0	True	0.0	None	0.0	None	0.0	None	0.0	None	0.0	None	0.0	None	0.0	None	0.0	None	1.3963999999999999e-06	12
2014-02-08 05:48:00	3145.6703195506398	49136145249.3436	6.9016148383062e+23	59040398855566.33	301.78880884704415	12842779167813.975	5.6464821942247385e+22	-2.5593199046525708e+25	6662.255462714278	-0.3922030149977922	31.42627146007272	21.602738321111737	37.44240186094832	77.16501292785719	84.53474143038072	41.81106194578975	-0.0038689384875843775	2.0980159898062408e+24	-0.10542432725279208	-0.008823308332897146	-5.770760396711841e+24	-0.03215104900406293	0.08843402586389393	5.1723732862198775	111.46106	45.952911	5.561397	51.518169	16.027615	73.173538	0.0	11968.0	True	0.0	None	0.0	None	0.0	None	0.0	None	0.0	None	0.0	None	0.0	None	0.0	None	1.4186e-06	11
