Timestamp	TOTUSJH	TOTBSQ	TOTPOT	TOTUSJZ	ABSNJZH	SAVNCPP	USFLUX	TOTFZ	MEANPOT	EPSZ	MEANSHR	SHRGT45	MEANGAM	MEANGBT	MEANGBZ	MEANGBH	MEANJZH	TOTFY	MEANJZD	MEANALP	TOTFX	EPSY	EPSX	R_VALUE	CRVAL1	CRLN_OBS	LAT_MIN	LON_MIN	LAT_MAX	LON_MAX	QUALITY	NOAA_AR	IS_TMFI	BFLARE	BFLARE_label	CFLARE	CFLARE_label	MFLARE	MFLARE_label	XFLARE	XFLARE_label	BFLARE_loc	BFLARE_label_loc	CFLARE_loc	CFLARE_label_loc	MFLARE_loc	MFLARE_label_loc	XFLARE_loc	XFLARE_label_loc	XR_MAX	XR_QUAL
2014-03-09 13:12:00	18.468604675244194	124687284.8708	8.401322119804103e+20	429541232187.3721	0.3937962727122588	13483059436.13331	2.479388237505661e+20	-9.69775290684496e+22	1509.8055574959005	-0.5856475790620164	21.417916693949405	2.863961813842482	30.66061385184657	138.86859690926022	137.09816274400094	60.571697428210214	-0.0009398479062345078	2.458310894016233e+22	-0.06205434125604305	-0.003983572815462465	-3.3778216001531424e+22	-0.14845746612560135	0.20398674431442693	0.0	33.638931	19.954231	8.334416000000001	13.06247	10.439251	16.84038	0.0		True	0.0	None	0.0	None	0.0	None	0.0	None	0.0	None	0.0	None	0.0	None	0.0	None	1.1528e-06	12
2014-03-09 13:24:00	17.835691178920513	128482931.9247	8.461101729750765e+20	403143018382.5636	1.6097859797455032	149711132296.35687	2.543497167214722e+20	-1.0437595811341114e+23	1499.0823378856885	-0.6117057140489404	20.708400909928514	2.3529411764705883	29.850446022926175	138.9251337012889	138.11354099304086	58.691980593823175	-0.0037877317170482414	2.7616444539642315e+22	0.6793194405112368	-0.015547728642459588	-3.4638038091909386e+22	-0.16184892797112713	0.2029996773897242	0.0	33.641991	19.844391	8.337025	13.184128	10.44196	16.96516	0.0		True	0.0	None	0.0	None	0.0	None	0.0	None	0.0	None	0.0	None	0.0	None	0.0	None	2.0582e-06	12
2014-03-09 13:36:00	20.692927182366024	130276560.0841	9.759889763191167e+20	470351292008.0006	1.114892833944014	115738716940.84406	2.625002512131157e+20	-1.0514067157254463e+23	1644.0873014073973	-0.6077037968456652	22.89541848814435	6.935123042505594	30.123844656900786	139.5332691181005	137.923856687947	59.00279672966079	-0.0024941674137449977	2.8606358963888367e+22	0.4993338277691727	-0.010646106334318657	-3.580673034146821e+22	-0.16534222861882994	0.20695973932528366	0.0	33.645119	19.73452	8.339406	13.280754	10.442327	17.088982	0.0		True	0.0	None	0.0	None	0.0	None	0.0	None	0.0	None	0.0	None	0.0	None	0.0	None	7.1338e-06	12
2014-03-09 13:48:00	18.325929490842963	125799254.935	8.228158910621243e+20	404539386274.2531	0.7935650229298873	90095944015.20984	2.5021036458674048e+20	-1.0303166558947953e+23	1507.4686874987271	-0.6167087393219146	21.25093690136745	4.37956204379562	29.81372567074316	136.12943284577122	135.2088863409665	57.50402493086462	-0.0019308151409486308	2.4452545541024587e+22	0.42276023121736506	-0.007803737610287865	-3.472821719985268e+22	-0.14636372660325886	0.2078700264203596	0.0	33.64817	19.624622	8.341287	13.401878	10.444263	17.187521	0.0		True	0.0	None	0.0	None	0.0	None	0.0	None	0.0	None	0.0	None	0.0	None	0.0	None	3.5626e-06	12
2014-03-09 14:00:00	18.26239588518265	127439425.6326	8.404358846982474e+20	405734796385.6155	1.710548822574896	109112124778.25552	2.534928417047188e+20	-1.0404806459841624e+23	1503.1761242694113	-0.6147769530966739	21.416591056018575	4.750593824228028	30.25178534959136	133.73337117052392	133.034873535172	55.775314414203656	-0.004063061336282413	2.6616227709194804e+22	0.4998415117093505	-0.01662452028703586	-3.712655142192431e+22	-0.1572642743249557	0.21936542741329404	0.0	33.651199	19.514698000000006	8.343342	13.524225	10.445299	17.313093	0.0		True	0.0	None	0.0	None	0.0	None	0.0	None	0.0	None	0.0	None	0.0	None	0.0	None	1.0299e-05	12
2014-03-09 14:12:00	20.857718454675336	136597563.6155	8.788325346934037e+20	466794177121.2413	2.0604232360422925	144951648976.483	2.741152464750794e+20	-1.107617370119257e+23	1441.7199369194018	-0.610568321952385	21.13961434990723	3.0501089324618738	30.80788474641243	135.15785101625212	133.92639719064556	60.265862723028185	-0.004488939512074712	2.582617306408256e+22	0.6090635007616572	-0.01873114511960489	-3.6377049609213663e+22	-0.14236543752009742	0.20052659642819454	0.0	33.654243	19.404743	8.346381	13.622476	10.446216	17.435692	0.0		True	0.0	None	0.0	None	0.0	None	0.0	None	0.0	None	0.0	None	0.0	None	0.0	None	6.2842e-06	12
2014-03-09 14:24:00	19.726580871023554	138971153.60750002	9.70127284822991e+20	465692322848.3659	1.1698953681840436	33052743652.943188	2.839005378664644e+20	-1.118420810702176e+23	1496.9123342238888	-0.6059936124596942	22.040470717190065	3.278688524590164	30.678414195322308	132.43069288388338	130.81858698392028	55.50924025988436	-0.0023973265741476305	2.835520585576767e+22	0.13063219199756246	-0.01048355410588198	-3.802707304193617e+22	-0.15363692685391742	0.2060419758237848	0.0	33.657166	19.294765	8.347837	13.743128	10.427479	17.533922	0.0		True	0.0	None	0.0	None	0.0	None	0.0	None	0.0	None	0.0	None	0.0	None	0.0	None	3.7627e-06	12
2014-03-09 14:36:00	18.39864454727625	134278279.75520003	8.853701421000768e+20	417704478920.444	2.770884120683648	196372980404.9615	2.7244031228307328e+20	-1.0841774147206606e+23	1458.801162063867	-0.6079698125760249	21.245865556015023	1.7505470459518602	30.37593635462681	128.38181285816444	128.2954138028999	52.73278891665938	-0.006063203765172096	2.9321997599398345e+22	0.8287779704473536	-0.025666384702267776	-3.511920817655116e+22	-0.16442778776621148	0.1969365725850083	0.0	33.660156	19.184759	8.350266	13.866115	10.43005	17.658592000000006	0.0		True	0.0	None	0.0	None	0.0	None	0.0	None	0.0	None	0.0	None	0.0	None	0.0	None	7.4631e-06	12
2014-03-09 14:48:00	19.716861901322	135765292.7802	9.048681133877014e+20	450973854195.5393	1.2786898790661037	36193474881.96896	2.6877152873350608e+20	-1.0901345216050454e+23	1520.8793210649633	-0.6046148599148558	21.61499203960278	1.7857142857142856	30.61496670311565	134.55578807342562	131.33673921725395	59.21948894975942	-0.0028542184800582674	2.929629503046088e+22	-0.15582420358447396	-0.011739123000099156	-3.485212180779836e+22	-0.16248430780622294	0.19329826114975465	0.0	33.663025	19.074726	8.353311	13.966114	10.431001	17.757553	0.0		True	0.0	None	0.0	None	0.0	None	0.0	None	0.0	None	0.0	None	0.0	None	0.0	None	7.7101e-06	12
2014-03-09 15:00:00	20.019834124339425	146097003.41630003	9.581759258261165e+20	439654197957.83057	0.08463799831983887	100288088153.30467	2.79355929400686e+20	-1.2129932879230687e+23	1647.2465080932175	-0.6251792289841693	20.89631066438853	1.141552511415525	29.830799424960922	141.77202485049563	140.7065242753902	60.40686109980198	0.0001932374390863901	2.889185391778088e+22	-0.4416390726089416	0.0007129397149121454	-3.618241435254788e+22	-0.14890920779264094	0.1864849058352438	0.0	33.66597	18.96467	8.334636	14.087137	10.43355	17.881563	0.0		True	0.0	None	0.0	None	0.0	None	0.0	None	0.0	None	0.0	None	0.0	None	0.0	None	3.5187e-06	12
2014-03-09 15:12:00	22.44349442685792	152865904.8594	9.767404209322808e+20	472446109020.0313	2.22505570479416	95363594506.89514	2.8574193876846448e+20	-1.2600923713406885e+23	1679.1616926926574	-0.6206963888714748	20.679379149142	2.054794520547945	29.90185829777727	146.8342981688869	145.07962982956332	63.97790765685399	-0.005080035855694428	2.935982755634904e+22	0.4199620752440296	-0.017962161131398258	-3.7111788079916255e+22	-0.14462065921981532	0.18280527181716827	0.0	33.668839	18.854588	8.336546	14.209788	10.432083	17.979423999999995	0.0		True	0.0	None	0.0	None	0.0	None	0.0	None	0.0	None	0.0	None	0.0	None	0.0	None	1.9776e-06	12
2014-03-09 15:24:00	21.408578818570266	154674992.13700002	1.0084359735786355e+21	458553571420.5911	1.1752878062498515	11716926441.978395	2.865847235641992e+20	-1.2566955414753837e+23	1717.961852663143	-0.6117830318374008	21.143172798544253	1.809954751131222	30.318160433519143	143.0797461937192	142.03060767315063	61.686017213181856	-0.002659022186085637	2.975433915636437e+22	0.05113307894811017	-0.00942860721657709	-3.5561714574422845e+22	-0.14484972070504834	0.17312111678326386	0.0	33.671684	18.744482	8.339939	14.332215	10.411121	18.103609	0.0		True	0.0	None	0.0	None	0.0	None	0.0	None	0.0	None	0.0	None	0.0	None	0.0	None	2.0126e-06	12
2014-03-09 15:36:00	22.292574604684404	155771828.99340004	9.904616929574536e+20	485428503180.5063	0.9481346476634824	20081963239.2758	2.801104739571092e+20	-1.2400516047169071e+23	1763.131735583271	-0.5994297398328438	20.61623406575385	0.9456264775413712	30.378216390241647	150.63296468001846	150.5720598824685	65.70355054007355	-0.002241453067762369	2.8242556171522746e+22	0.09157667409560476	-0.0076110736888059735	-3.7391106158070327e+22	-0.13652196435788813	0.1807452282722629	0.0	33.674553	18.634354	8.342692999999999	14.431949	10.412802	18.202272	0.0		True	0.0	None	0.0	None	0.0	None	0.0	None	0.0	None	0.0	None	0.0	None	0.0	None	2.3663e-06	12
2014-03-09 15:48:00	22.52352394651907	157662728.6318	9.487336437749762e+20	464423173167.9993	0.5172467046095185	64754189648.30909	2.747862731782828e+20	-1.2820455430164256e+23	1742.3999793432545	-0.6122965705309312	20.95857779238111	0.7317073170731708	30.778865662619253	154.26311855456527	153.0565048976301	65.26116435982352	-0.0012615773283158988	2.9488021318272016e+22	0.3046570265498642	-0.004069619066899133	-3.8470176803913845e+22	-0.14083286216525315	0.1837310495954296	0.0	33.677303	18.524204	8.345489	14.552835	10.412165	18.326206	0.0		True	0.0	None	0.0	None	0.0	None	0.0	None	0.0	None	0.0	None	0.0	None	0.0	None	2.1684e-06	12
2014-03-09 16:00:00	21.866413918171634	155619415.603	9.433127120995232e+20	454301588516.3114	0.5427935214958939	2446265992.024567	2.711818982738737e+20	-1.2427191812916904e+23	1740.93683797345	-0.6013076272456847	20.447860791757396	0.9803921568627452	31.223981578001734	155.31763708597376	152.57257963546718	69.02431374788466	0.0013303762781762104	3.0430918069360907e+22	0.011565874760768322	0.004356383443507572	-4.062156339878106e+22	-0.14724439289796604	0.1965533023876125	0.0	33.68013	18.41403	8.347285000000001	14.675755	10.411663	18.424501	0.0		True	0.0	None	0.0	None	0.0	None	0.0	None	0.0	None	0.0	None	0.0	None	0.0	None	2.2592e-06	12
2014-03-09 16:12:00	21.895658481899947	162777961.5574	1.0800741114828672e+21	462918675634.4977	0.3950551355887749	29853912832.9714	2.8401686653077832e+20	-1.2599798653506746e+23	1909.11169339788	-0.5828480929584839	21.48249422032132	1.6431924882629108	30.787785062122868	153.5187050074757	151.84668393441578	68.67545787197157	-0.0009273594732130868	3.0425446074166568e+22	0.13518663621004792	-0.003066569872430433	-4.319037281823688e+22	-0.14074362384198624	0.19979229131783866	0.0	33.682838000000004	18.303839	8.349331	14.799567	10.391907000000002	18.547094	0.0		True	0.0	None	0.0	None	0.0	None	0.0	None	0.0	None	0.0	None	0.0	None	0.0	None	1.9917e-06	12
2014-03-09 16:24:00	21.955255694605047	154116408.11329997	1.0310296231741754e+21	457327061666.9352	0.4679303926312817	41900441543.44026	2.7020325299632272e+20	-1.1937083688739556e+23	1931.2231941385446	-0.5832258145130177	21.724229068104847	1.4925373134328357	30.358244067517706	155.0830397568979	153.25327513159118	67.50241920638179	0.0011640059518191086	2.8152571637718248e+22	-0.2010672750465548	0.0038354781114321814	-4.307426205071596e+22	-0.13754872590474426	0.2104535933912736	0.0	33.685627000000004	18.193626	8.351678	14.89914	10.394338	18.646475	0.0		True	0.0	None	0.0	None	0.0	None	0.0	None	0.0	None	0.0	None	0.0	None	0.0	None	1.5287999999999999e-06	12
2014-03-09 16:36:00	21.581368626756692	167775524.7714	1.031133227727459e+21	436911386081.7063	0.33896349987085	50990557930.94747	2.9301094432800168e+20	-1.309622537735092e+23	1784.8962614722022	-0.5877667161605572	20.57843954311283	2.528735632183908	30.2695116673467	147.1130895529941	147.1416094267166	67.91729474638433	-0.0007792264364847128	2.2040206337262297e+22	0.2261286861967544	-0.00254488189036822	-4.508793659544834e+22	-0.0989178127978596	0.2023574554313504	0.0	33.688347	18.083397	8.354578	15.022322	10.392511	18.744715	0.0		True	0.0	None	0.0	None	0.0	None	0.0	None	0.0	None	0.0	None	0.0	None	0.0	None	1.5765e-06	12
2014-03-09 16:48:00	21.935947870433374	161176012.4942	1.0663839398516541e+21	456793416523.1718	1.2992839420944031	50715959780.69204	2.855716303642848e+20	-1.2516097553102503e+23	1829.0961826322284	-0.5847308400931649	21.72468718564145	1.5945330296127564	30.767960168984715	142.99008705381522	142.17847246549982	64.77515177668978	0.002959644515021419	2.4056296628537558e+22	-0.22286454587144208	0.010173681792945678	-4.9588850960133045e+22	-0.11238693592355653	0.23167069734116724	0.0	33.691051	17.973152	8.356538	15.145478	10.37542	18.868368	0.0		True	0.0	None	0.0	None	0.0	None	0.0	None	0.0	None	0.0	None	0.0	None	0.0	None	2.1031e-06	12
2014-03-09 17:00:00	22.587706621653147	165592097.28830004	1.0769235370748976e+21	468955118451.1208	1.1603114880277536	197303128840.97345	2.940932991960924e+20	-1.2981384602638383e+23	1818.182390612753	-0.5902946503667867	21.19218545903629	2.242152466367713	30.486661560741574	150.97538912569448	152.79141771118998	66.11019150550479	0.002601595264636219	2.5275952789729474e+22	-0.8534244282548674	0.008812261640561436	-4.252511293962297e+22	-0.11493581132838727	0.19337187397868924	0.0	33.693787	17.862888	8.342871	15.269754999999998	10.376116	18.968184	0.0		True	0.0	None	0.0	None	0.0	None	0.0	None	0.0	None	0.0	None	0.0	None	0.0	None	1.9193e-06	12
2014-03-09 17:12:00	23.226578996154924	161907023.1266	9.834049149063956e+20	479717269014.2579	1.1617768640412842	8335979025.49542	2.857976701354066e+20	-1.2547250467334294e+23	1726.0863566638773	-0.5835395782412965	20.45548564940629	2.331002331002331	30.548001545931648	147.95917023272153	150.71163268238163	64.63450864605379	-0.002708104578184811	2.0941251683774447e+22	0.03748606285584902	-0.009062710541153941	-4.207078904610078e+22	-0.09739224706806042	0.19566016124531807	0.0	33.696411	17.752610999999995	8.340968	15.369242000000002	10.379095	19.089262	0.0		True	0.0	None	0.0	None	0.0	None	0.0	None	0.0	None	0.0	None	0.0	None	0.0	None	2.3962e-06	12
2014-03-09 17:24:00	23.72711673340939	158225066.20360002	9.789099826788675e+20	463311481307.3204	2.472325517295104	84739393504.42693	2.709081137904668e+20	-1.249479423254065e+23	1904.6674886834398	-0.5946223087316322	21.053746084082164	2.0671834625323	30.06272078958328	151.50433626569938	153.93380500305253	65.68760998031486	-0.006388438029186314	2.1507152155150622e+22	0.4224241973830677	-0.0195975835816171	-3.840087637190294e+22	-0.10235168527571477	0.1827482497159613	0.0	33.69912	17.642323	8.344044	15.491432	10.361002	19.190165	0.0		True	0.0	None	0.0	None	0.0	None	0.0	None	0.0	None	0.0	None	0.0	None	0.0	None	3.2975e-06	12
2014-03-09 17:36:00	23.75403552927507	158450518.35320002	9.774218767047056e+20	469798986763.654	2.7282220997259152	156195242675.97766	2.7499244274720267e+20	-1.2253804570826445e+23	1803.8872212495733	-0.5823241150573147	20.46566353230197	1.2254901960784317	30.995489310385928	147.66692798718913	151.2270379177009	63.12905173772968	-0.006686818871877243	1.8957762852254267e+22	0.7385595106952505	-0.021763092455220737	-4.0686667658278646e+22	-0.09009089717889024	0.1933507883351224	0.0	33.701721	17.532021	8.347032	15.614907999999998	10.36287	19.287434	0.0		True	0.0	None	0.0	None	0.0	None	0.0	None	0.0	None	0.0	None	0.0	None	0.0	None	2.9493e-06	12
2014-03-09 17:48:00	24.668785517578954	167221085.33720002	1.0722147866272184e+21	497403968379.4891	3.5320145376721848	138610387884.5113	2.965616265175685e+20	-1.3280140833249376e+23	1856.0088960376368	-0.5979972145818533	20.67894015607305	1.3793103448275863	29.675792208362193	151.86539089548955	152.95816452659358	66.28488796341625	-0.008119573649821115	2.3086335731615446e+22	0.6147338388007787	-0.026435371761285787	-4.086295117634133e+22	-0.10395646127368376	0.18400355304867205	0.0	33.704407	17.421709	8.349469000000001	15.740149	10.362864	19.40962	0.0		True	0.0	None	0.0	None	0.0	None	0.0	None	0.0	None	0.0	None	0.0	None	0.0	None	2.0082e-06	12
2014-03-09 18:00:00	25.207850472987875	170499056.9442	1.196152373041953e+21	497588287981.2026	2.0672357082319017	26749772952.923767	2.9887520260291664e+20	-1.3162727573587814e+23	2014.9601301689795	-0.5813148077753729	21.92375520351745	4.697986577181208	30.992352296615305	148.19926302188298	149.97492696599443	64.47184910479832	-0.004624688385306269	1.9573224660481645e+22	0.1154503369833624	-0.015334855035163816	-4.9183594365818535e+22	-0.08644261052613034	0.2172129715868193	0.0	33.707039	17.311386	8.35097	15.866602	10.36446	19.509928	66560.0		False	0.0	None	0.0	None	0.0	None	0.0	None	0.0	None	0.0	None	0.0	None	0.0	None	1.5902e-06	12
2014-03-09 18:12:00	25.24032692072513	177782727.6532	1.2393214812903485e+21	515152507125.9033	0.2316036800544917	125300650826.3298	3.189052018449515e+20	-1.3776295973971145e+23	1936.0849781845002	-0.5834859134356005	21.598824370805726	3.1120331950207474	30.43727990289633	147.29599438099032	147.83163808895216	63.08853114460581	-0.0004805055602790285	2.2744871166737765e+22	-0.5015224072651994	-0.0016454007164246967	-4.909461886190051e+22	-0.09633439898339714	0.20793701431453207	0.0	33.70966	17.201059	8.329874	15.966857999999998	10.346045	19.610302	66560.0		False	0.0	None	0.0	None	0.0	None	0.0	None	0.0	None	0.0	None	0.0	None	0.0	None	1.5512999999999999e-06	12
2014-03-09 18:24:00	24.66399443583075	176046077.1001	1.2788484212289262e+21	492993861980.2617	1.6390888015996388	19567882722.054367	3.1540112697425166e+20	-1.3883571008462846e+23	1993.6979731170093	-0.5938301724840912	22.68682375830891	6.004140786749482	30.66799937405073	147.78408917156742	147.2853057362844	65.08866328705524	-0.003393558595444386	2.5407832725239286e+22	0.07815944598523275	-0.01168326110642974	-5.204001330539966e+22	-0.10867476156155216	0.2225863220520336	0.0	33.712322	17.090723	8.331089	16.089993	10.346051	19.732098	0.0		True	0.0	None	0.0	None	0.0	None	0.0	None	0.0	None	0.0	None	0.0	None	0.0	None	1.6502e-06	12
2014-03-09 18:36:00	27.69014086346629	175447665.14420003	1.3188947215006106e+21	579378558036.9128	1.1098781867456091	168352445842.65155	3.215878638079559e+20	-1.3913992054592184e+23	1939.6691745476794	-0.5971612973264098	23.36732158698464	6.25	30.958992901988484	146.16880248050836	144.76138210580442	63.22826467593524	0.0021677308334875182	2.610670092625415e+22	-0.6343579689892225	0.00792152762133619	-5.14203137724697e+22	-0.11204484904739616	0.22068591933085624	0.0	33.714882	16.980381	8.332963000000001	16.212463	10.342792	19.829847	0.0		True	0.0	None	0.0	None	0.0	None	0.0	None	0.0	None	0.0	None	0.0	None	0.0	None	1.1512999999999999e-06	12
2014-03-09 18:48:00	24.677833331184782	175194152.27920002	1.2810715428992136e+21	506183569644.3206	0.8009846041093431	18734841363.228745	3.176036976017241e+20	-1.394151267009733e+23	1972.65888733374	-0.5992082170145785	23.00556137887795	5.7259713701431485	30.40155491017321	144.56069206779668	144.46120014935673	58.897880233973076	-0.0016380053253769796	2.810068071726252e+22	-0.07391379290088065	-0.005717807705570866	-5.197062370366712e+22	-0.12077712933979115	0.22337048714522711	0.0	33.717537	16.870039000000002	8.336176	16.337475	10.327978	19.929152	0.0		True	0.0	None	0.0	None	0.0	None	0.0	None	0.0	None	0.0	None	0.0	None	0.0	None	1.1229999999999999e-06	12
2014-03-09 19:00:00	23.54061037382852	172343223.3939	1.261099913249247e+21	488573710213.0858	2.1112470826413485	79085667733.11923	3.1282711378891145e+20	-1.3441179904299598e+23	1945.8845889461136	-0.5872602251251746	22.48471391280745	4.30327868852459	31.073686396037502	148.84899603335592	146.49465747470012	62.6212432985052	-0.004326325989019157	3.169004494387138e+22	0.3126518302146572	-0.015435713645984072	-5.34880480007488e+22	-0.13845736059236655	0.2336952807273857	0.0	33.720093	16.759693	8.30974	16.462681	10.328855	20.026388	0.0		True	0.0	None	0.0	None	0.0	None	0.0	None	0.0	None	0.0	None	0.0	None	0.0	None	1.9465e-06	12
2014-03-09 19:12:00	23.64954035595093	182817621.8425	1.3680846317757617e+21	485523899350.105	1.6543731289784085	97580466065.58923	3.2379246165340153e+20	-1.44392518362083e+23	2115.2975859576964	-0.5947221400230703	22.867009716911554	4.517453798767967	30.42052829670143	151.52681894745555	149.40383323635922	63.164233667521714	-0.0033970700800378	3.434002266424209e+22	0.3865583634903039	-0.0113490728623919	-5.158612874689128e+22	-0.14143926568346174	0.21247231665372165	0.0	33.722748	16.649347	8.283889	16.562109	10.328945	20.148321	0.0		True	0.0	None	0.0	None	0.0	None	0.0	None	0.0	None	0.0	None	0.0	None	0.0	None	2.2858e-06	12
2014-03-09 19:24:00	21.63172807277724	175354179.7008	1.272428534584159e+21	439253249322.8969	1.2509667366235622	106125141824.79796	3.0742523852763654e+20	-1.3448871736057194e+23	2042.9044654463605	-0.5775069702084666	22.616716874487363	2.771855010660981	31.919696583213273	148.1724469786525	146.41315860623914	63.906984056245975	-0.0026673064746771053	3.4085980592650087e+22	0.4365399660171	-0.009044578836827695	-5.39796853894873e+22	-0.1463683479549413	0.2317937532150799	0.0	33.725349	16.539001000000006	8.287460000000001	16.687351	10.310771	20.250896	0.0		True	0.0	None	0.0	None	0.0	None	0.0	None	0.0	None	0.0	None	0.0	None	0.0	None	2.6772000000000004e-06	12
2014-03-09 19:36:00	21.236527006577944	171001677.99130002	1.2044060435606358e+21	420479210455.3234	1.9228592425879318	106384597900.6308	2.946083904884828e+20	-1.3430974283465e+23	2123.8920298936505	-0.5914179882576668	21.957886008359324	2.8103044496487115	30.37787810014093	151.1669149769186	149.01149358718624	64.64945573589308	-0.004503183237910847	3.5256346860781484e+22	0.48064679513951	-0.014131649426273497	-5.07677673362026e+22	-0.15524739526445264	0.22355020710056944	0.0	33.72795900000001	16.428659	8.290291999999999	16.81254	10.311564	20.348494	0.0		True	0.0	None	0.0	None	0.0	None	0.0	None	0.0	None	0.0	None	0.0	None	0.0	None	2.3302e-06	12
2014-03-09 19:48:00	21.32921254024961	171496986.1222	1.3153621100136083e+21	440013654749.736	3.3146619443655743	200390267356.5525	2.9929262701204426e+20	-1.2850780199412964e+23	2153.1532455285555	-0.5642355533154991	23.57417186342585	3.91304347826087	32.098487226994	144.6619401205684	141.85104486948998	62.69808761635607	-0.007205786835577334	3.801531899496303e+22	0.8404077880974773	-0.024712153502947524	-4.999800328137524e+22	-0.16691278050626068	0.21952481178866934	0.0	33.730621	16.318320999999994	8.266383	16.936884	10.313111	20.469532	0.0		True	0.0	None	0.0	None	0.0	None	0.0	None	0.0	None	0.0	None	0.0	None	0.0	None	1.5705e-06	12
2014-03-09 20:00:00	21.015990419893075	165564445.03419998	1.2788870579821423e+21	432343873427.4984	3.211525396321845	202132716304.8882	2.86369874074946e+20	-1.1954721682878483e+23	2139.967573025665	-0.5437007172609158	23.70057317521803	3.7777777777777777	33.42258859896481	138.73043226399201	135.0327806907595	62.76443394088099	-0.007136723102937434	3.6050751067667808e+22	0.8665444038742416	-0.02513108116009031	-5.129504964056188e+22	-0.16395880835400747	0.2332898750913669	0.0	33.733185	16.207987	8.26952	17.036606	10.290568	20.570726	0.0		True	0.0	None	0.0	None	0.0	None	0.0	None	0.0	None	0.0	None	0.0	None	0.0	None	1.5400999999999999e-06	12
2014-03-09 20:12:00	21.071480182585727	167627324.3616	1.27259354370486e+21	436008202463.889	1.305001888458394	29404343684.24335	2.897948170416442e+20	-1.2253407539163267e+23	2148.534222854633	-0.5504266892989697	23.234853488845395	2.4663677130044843	32.391657788366786	142.96887102676624	139.59493509478438	63.03064743368061	-0.0029260132028215108	3.5595853229234166e+22	0.12718561111363344	-0.010042575075493377	-4.981723687941529e+22	-0.15989762507382754	0.22378050087634266	0.0	33.735863	16.09766	8.271708	17.16048	10.292898	20.696732	0.0		True	0.0	None	0.0	None	0.0	None	0.0	None	0.0	None	0.0	None	0.0	None	0.0	None	3.0738e-06	12
2014-03-09 20:24:00	22.1007078847854	171011700.8114	1.293600822180862e+21	440815774824.8264	2.123139148814888	53096519256.0626	2.926609090942556e+20	-1.219909731279882e+23	2145.516745562326	-0.5371422918149036	23.69302191664299	3.3039647577092515	33.23573073123755	139.1684336271327	136.13134371304966	64.17991087552275	-0.004676517948931471	3.3836662572037643e+22	0.2256138103483128	-0.016153571419375543	-5.1672934892446815e+22	-0.14898727352755234	0.22752272533977536	0.0	33.738440999999995	15.987342000000002	8.275407000000001	17.285397	10.29541	20.795603	0.0		True	0.0	None	0.0	None	0.0	None	0.0	None	0.0	None	0.0	None	0.0	None	0.0	None	1.0777e-05	12
2014-03-09 20:36:00	20.888831611597602	170552176.9129	1.3365022283797955e+21	417917637995.74426	0.4894221216474962	25639691046.42364	2.8228379014504183e+20	-1.2057580801692697e+23	2401.8344656125923	-0.5323414977626874	23.678735711511397	3.8186157517899764	33.04845941316492	145.91405433922162	143.00086151362967	65.94110582808408	0.0011680718893734995	3.136819794936518e+22	-0.1180450037994022	0.00374542203301249	-5.6273750553274345e+22	-0.13849041323560776	0.2484482845020492	0.0	33.741135	15.877033	8.278843	17.411220999999998	10.273304	20.924011	0.0		True	0.0	None	0.0	None	0.0	None	0.0	None	0.0	None	0.0	None	0.0	None	0.0	None	1.005e-05	12
2014-03-09 20:48:00	22.84717190163623	182658274.3176	1.3486634503528254e+21	468904351583.8186	0.5151019560572416	58431567162.6571	3.00079888599467e+20	-1.3077050674104199e+23	2282.0809498285525	-0.5390858405668847	23.205393359263624	5.168539325842697	33.122315726300734	149.30990555089383	146.61568479943492	70.36200538193101	0.0011601395406694633	2.735884750860994e+22	-0.2532965294805708	0.0036711204376364288	-5.884429819432015e+22	-0.11278359068628847	0.2425786115325771	0.0	33.743786	15.766735	8.259621000000001	17.509878	10.27439	21.023781	0.0		True	0.0	None	0.0	None	0.0	None	0.0	None	0.0	None	0.0	None	0.0	None	0.0	None	5.2053e-06	12
2014-03-09 21:00:00	20.65748969469861	172779778.66210002	1.360699342617388e+21	432417404442.5406	0.16512664220265294	878439122.6812173	2.850358354423148e+20	-1.2411541041791506e+23	2433.7029037452435	-0.5409041027137295	23.842459799290715	5.463182897862233	32.52447183888128	149.53147991874818	146.45437225633825	69.14065351487821	-0.00039222480333171716	2.801207245476492e+22	-0.004024977917246903	-0.0012404481639069099	-6.277755353657862e+22	-0.12207867552689936	0.2735892034029387	0.0	33.746449	15.656449	8.261155	17.63348	10.27742	21.149574	0.0		True	0.0	None	0.0	None	0.0	None	0.0	None	0.0	None	0.0	None	0.0	None	0.0	None	4.6832e-06	12
2014-03-09 21:12:00	22.435031651843506	175219436.63	1.2050114998609442e+21	457043995709.2987	2.570614891548632	152350446867.49924	2.9023740721628984e+20	-1.3406093283993869e+23	2160.375934116328	-0.5761126176370586	22.337178977622298	4.285714285714286	31.53215932669437	147.62112247407185	148.3107507980591	65.53265898190378	-0.00612051164654436	2.1777017883107e+22	0.6997129711749643	-0.018616476621339	-5.847642767324496e+22	-0.09358442098821626	0.2512962359968067	0.0	33.749176	15.546178	8.264047	17.758126999999995	10.270537	21.248232	0.0		True	0.0	None	0.0	None	0.0	None	0.0	None	0.0	None	0.0	None	0.0	None	0.0	None	3.0866000000000002e-06	12
2014-03-09 21:24:00	19.540560444352373	170156936.97100002	1.1347665763801376e+21	398215255724.1873	1.0542470165145983	19616241034.39256	2.722196197264621e+20	-1.3277821856923635e+23	2254.523311310833	-0.5875767234176279	21.99682530500851	2.3746701846965697	31.609240716887	155.1668630781126	156.6444617197673	68.16615668671575	0.002781654397136144	1.73606381327736e+22	-0.09983735521343903	0.007805271143167114	-5.6893814601810725e+22	-0.07682515235113764	0.2517693152286898	0.0	33.75182	15.435921	8.266941000000001	17.856461	10.25651	21.37792	0.0		True	0.0	None	0.0	None	0.0	None	0.0	None	0.0	None	0.0	None	0.0	None	0.0	None	2.0246e-06	12
2014-03-09 21:36:00	23.092245426657467	175016170.247	1.2658584763210402e+21	473987177177.9126	0.2341156243364157	60876999356.153076	2.905120248977436e+20	-1.3416613800479312e+23	2211.542686027925	-0.5772343736011541	23.557371863733195	3.9443155452436174	32.0563996441464	149.86396432473342	151.95607061819882	64.72458523828747	0.0005431917037967883	1.6082699461813252e+22	0.2724475883795731	0.0016962348608542315	-6.02222290080012e+22	-0.06919396419776007	0.2590992120311083	0.0	33.754578	15.325679999999998	8.270261999999999	17.981043	10.258542	21.47821	0.0		True	0.0	None	0.0	None	0.0	None	0.0	None	0.0	None	0.0	None	0.0	None	0.0	None	1.6789e-06	12
2014-03-09 21:48:00	22.62614127788463	173185358.9282	1.2042583582088582e+21	477274331763.2559	0.4998551632289766	1017196867.7566832	2.9321867919242592e+20	-1.342828036806644e+23	2056.2148535629385	-0.583843754104641	22.86320574225793	4.988662131519273	32.127068189988734	144.97277519038147	147.8152998407391	59.90404171948676	-0.001133458420020355	1.437268632583795e+22	0.004449009510342663	-0.003644606688419825	-6.0628104296526665e+22	-0.06249052679151024	0.26360292640977057	0.0	33.757256	15.215456	8.253300999999999	18.082588	10.252894	21.604221	0.0		True	0.0	None	0.0	None	0.0	None	0.0	None	0.0	None	0.0	None	0.0	None	0.0	None	1.8758000000000001e-06	12
2014-03-09 22:00:00	23.273034344552702	174732303.7132	1.33295847332483e+21	507193063714.6139	0.6149861567944029	83248010478.37842	3.107591266619197e+20	-1.3908337595547119e+23	2052.556949494988	-0.5993623742550612	24.41841695493433	5.930470347648263	31.619032209627967	137.73905553090862	138.19111747393384	55.195859668362395	0.001257640402442542	1.420513994869004e+22	-0.3283608588819119	0.004401242095102268	-6.4067632785646135e+22	-0.061215269961509465	0.27609143246278617	0.0	33.760052	15.105251	8.255825999999999	18.206699	10.240149	21.705742	0.0		True	0.0	None	0.0	None	0.0	None	0.0	None	0.0	None	0.0	None	0.0	None	0.0	None	1.8114e-06	12
2014-03-09 22:12:00	21.168256598627128	162338315.45520002	1.1909366226823456e+21	441018359460.0061	1.203984087002632	54816451233.548485	2.823550202188325e+20	-1.313499046286764e+23	2171.3310217756016	-0.6092508797881079	23.184550026183125	4.842615012106537	30.07398352571001	146.02817951732268	148.0001805480141	59.05501388784272	-0.0029152157070281644	1.519582871862098e+22	0.25599775970046634	-0.009217347314759544	-5.803953178931064e+22	-0.0704840406401635	0.26920945169386445	0.0	33.762817	14.995066	8.25699	18.331703	10.241392	21.806524	0.0		True	0.0	None	0.0	None	0.0	None	0.0	None	0.0	None	0.0	None	0.0	None	0.0	None	2.6857e-06	12
2014-03-09 22:24:00	26.03944806710871	180818544.06310004	1.4668212201096366e+21	567438754732.9779	0.41004279891336015	102653016977.3326	3.2644057438085435e+20	-1.4178853524577634e+23	2124.0331262983113	-0.5904533530269018	25.524241235061464	9.615384615384617	31.30825350340011	144.24488091829986	146.03544348712714	58.95556256846153	0.0007885438440641541	1.8516837596454093e+22	-0.3807432002222946	0.0028516438278390985	-6.337289338404729e+22	-0.07711010504008013	0.2639052397626184	0.0	33.765602	14.884901	8.260611	18.42907	10.240734	21.931599	0.0		True	0.0	None	0.0	None	0.0	None	0.0	None	0.0	None	0.0	None	0.0	None	0.0	None	2.6788e-06	12
2014-03-09 22:36:00	23.298938555178385	167762162.0722	1.2715184626634575e+21	501078003501.6224	0.848410053795905	57423528331.60078	3.0098736670261425e+20	-1.3334668707014509e+23	2019.9088866499853	-0.5985158648717651	24.14105251998377	8.649789029535865	30.987462540728718	143.9165266528935	143.4380374951881	60.20270531957996	-0.0017898946282614027	2.0091520302971368e+22	0.23364869391227305	-0.006327393390923343	-6.008312011180887e+22	-0.09017917066357947	0.26967824539200463	0.0	33.768456	14.774757	8.265122999999999	18.55505	10.225946	22.031734	0.0		True	0.0	None	0.0	None	0.0	None	0.0	None	0.0	None	0.0	None	0.0	None	0.0	None	4.9271e-06	12
2014-03-09 22:48:00	25.011310395136533	172983939.24809998	1.2879748353281032e+21	534656271071.4541	0.034565926319414686	8042410450.511505	3.128196215024743e+20	-1.4063169015508246e+23	2007.9258605796808	-0.6121598467244012	23.702851873680643	7.246376811594202	30.0962474954497	144.15760353588468	147.72375708816315	58.89439336096246	-7.156506484350867e-05	1.719831067811594e+22	0.03211282650570985	-0.00024789302809554646	-5.620506269304655e+22	-0.07486303561469071	0.2446566810465605	0.0	33.771236	14.664635999999998	8.269159	18.680061	10.225707	22.157055	0.0		True	0.0	None	0.0	None	0.0	None	0.0	None	0.0	None	0.0	None	0.0	None	0.0	None	5.2569000000000004e-06	12
2014-03-09 23:00:00	24.267207938115217	171004959.9651	1.2676753982599507e+21	510842412075.6191	1.0176878827179214	15455740182.680984	3.145674417401848e+20	-1.4151067195503117e+23	1920.609733740269	-0.6231146158160951	23.77131601899311	7.645875251509055	30.684084916380638	144.3576654624836	145.18322541509997	56.421948212749655	-0.0020476617358509484	1.6848447916940766e+22	-0.05997360082651746	-0.007333084737319751	-5.713146519877429e+22	-0.07418885095958147	0.2515672528193317	0.0	33.774139	14.554539000000002	8.25478	18.780731	10.224953	22.257193	0.0		True	0.0	None	0.0	None	0.0	None	0.0	None	0.0	None	0.0	None	0.0	None	0.0	None	2.8916000000000012e-06	12
2014-03-09 23:12:00	19.853658784019768	161216885.0546	1.1514234182642304e+21	448306408582.0701	0.3985630516938981	51055297490.39055	3.041199256998482e+20	-1.362728960538666e+23	1762.2093801331507	-0.6364825672500002	24.120326694237214	8.333333333333332	30.375969738866463	135.20787134503786	136.48848716469928	51.939845938222774	0.0008100875034428822	1.8180645246229205e+22	-0.20011950194147327	0.0030213784142590783	-5.200664283436143e+22	-0.08491537272391549	0.242904660455618	0.0	33.776962	14.444464000000002	8.25503	18.905188	10.222245	22.359659	0.0		True	0.0	None	0.0	None	0.0	None	0.0	None	0.0	None	0.0	None	0.0	None	0.0	None	3.0443000000000002e-06	12
2014-03-09 23:24:00	21.241128042790283	154031813.8207	1.134628102446024e+21	496614209042.9568	0.31881515535468874	51054617955.00957	2.9948714538179874e+20	-1.2650002781079366e+23	1688.4587117711947	-0.6183973467233117	24.3130936422152	7.1146245059288535	31.303634280480146	130.08339675696584	130.02061520803164	53.426124853123646	-0.0006300694769855509	1.88090710576451e+22	0.1945739391881706	-0.0025578399514277358	-5.276609141164084e+22	-0.09194843540884584	0.2579478557484888	0.0	33.779915	14.334415	8.258044	19.008036	10.210603	22.484615	0.0		True	0.0	None	0.0	None	0.0	None	0.0	None	0.0	None	0.0	None	0.0	None	0.0	None	2.1693e-06	12
2014-03-09 23:36:00	22.48988684053861	153459839.0559	1.144936222954988e+21	501777353369.9482	0.5192655960799157	57132653743.191475	3.059823616211557e+20	-1.2730603812087836e+23	1657.926879761163	-0.6246571064718872	23.70887429156403	6.9230769230769225	30.57788428134083	126.09685107205765	128.3566632034893	49.717402849836816	-0.0009985876847690687	1.9803898641510872e+22	-0.21186903953427585	-0.004165461186555164	-4.979706749758815e+22	-0.0971725002589639	0.2443410583894939	0.0	33.782841	14.224391	8.262064	19.133114000000006	10.208694	22.585634	0.0		True	0.0	None	0.0	None	0.0	None	0.0	None	0.0	None	0.0	None	0.0	None	0.0	None	1.9334e-06	12
2014-03-09 23:48:00	21.575842435349106	148942559.74760002	1.0620807693792992e+21	463251441004.811	0.7606678077916499	87102554290.33171	2.909555961449713e+20	-1.2769673060888895e+23	1701.559278505886	-0.6455774632270571	22.85715918697905	3.8297872340425534	30.42083814486153	132.4873100202484	132.12257110330827	50.62971232787821	-0.001618442144237553	2.2396644716762873e+22	0.35735963020144396	-0.006207087794811118	-5.0941170277488255e+22	-0.11322740223733628	0.25753573583871536	0.0	33.785793	14.114394	8.265967999999999	19.258371	10.21122	22.708742	0.0		True	0.0	None	0.0	None	0.0	None	0.0	None	0.0	None	0.0	None	0.0	None	0.0	None	2.7319e-06	12
2014-03-10 00:00:00	19.00259772118529	143860239.2173	1.073818797770644e+21	425112094005.4792	0.6162785192297695	83722156137.15924	2.827335682081544e+20	-1.2175685043766269e+23	1773.1828950605866	-0.6372942512601829	23.181188230946965	5.263157894736842	29.679812321643144	134.44171231092716	135.77697480688119	52.2736581051437	-0.0013514879807670385	2.34208424463677e+22	0.3540249025492465	-0.005232864761622046	-4.8278830720463766e+22	-0.1225883241648275	0.2526988926300097	0.0	33.788822	14.004423	8.270088000000001	19.360458	10.198008	22.814508	0.0		True	0.0	None	0.0	None	0.0	None	0.0	None	0.0	None	0.0	None	0.0	None	0.0	None	2.1652e-06	12
2014-03-10 00:12:00	19.26683709807879	147782721.1306	1.135572064162034e+21	455027865812.4944	0.104961056999882	2273502396.3397827	3.0037665792973714e+20	-1.228717270293968e+23	1631.815116164045	-0.6260598349264159	24.510769242555593	5.534351145038168	31.04529200577149	127.84843128426478	129.00747094582908	48.68310563742401	0.00020030736068679767	2.248875490862248e+22	0.008365813380105891	0.0008735706006418987	-5.087165066784765e+22	-0.11458540159059018	0.2592028124739164	0.0	33.791779	13.894479	8.274686	19.484562	10.195024	22.914574	0.0		True	0.0	None	0.0	None	0.0	None	0.0	None	0.0	None	0.0	None	0.0	None	0.0	None	1.3778e-06	12
2014-03-10 00:24:00	16.947951106262853	136303231.7365	1.0767999246120722e+21	410579909092.4215	0.30289786510697114	9181520204.881227	2.7615871560922173e+20	-1.1327303054324364e+23	1641.3286112416274	-0.6257600587929403	25.545771990056554	9.31174089068826	32.20064833245884	121.89833647743313	121.26543516496969	47.74412759176221	-0.0006131535730910348	2.3904073664802048e+22	-0.03583579935843364	-0.002733780272555105	-4.809741999370449e+22	-0.13205450997593632	0.2657070638854244	0.0	33.794861	13.784562	8.260288000000001	19.61064	10.182446	23.037071	0.0		True	0.0	None	0.0	None	0.0	None	0.0	None	0.0	None	0.0	None	0.0	None	0.0	None	1.1995e-05	12
2014-03-10 00:36:00	17.82095537080945	139539872.16140002	1.1245887896049596e+21	426309913954.7579	1.7222590550473378	128109015947.72427	2.898996547688983e+20	-1.1603923376070168e+23	1619.1216392387037	-0.6261724381109921	26.100289538374554	9.751434034416825	31.929598094688114	118.13073943686312	117.09832789711928	46.035318232396314	0.003293038346170818	2.304450319393606e+22	-0.4722726072250621	0.015179712833055053	-5.008343178618337e+22	-0.12435305096689075	0.27026087275957866	0.0	33.797874	13.674673	8.26516	19.7131	10.182756	23.141058	0.0		True	0.0	None	0.0	None	0.0	None	0.0	None	0.0	None	0.0	None	0.0	None	0.0	None	8.7118e-06	12
2014-03-10 00:48:00	20.482421781505934	141736116.4304	1.1262670215960835e+21	509288055931.4901	2.498723541603455	124075011824.07745	2.9708597491760975e+20	-1.171085194794908e+23	1561.8126107351957	-0.6221503484999298	25.330726804750682	9.392265193370166	32.14284203317533	123.8911342654056	124.87989843685673	49.24005136925085	0.004601700813266031	1.964881591992554e+22	-0.4405391288371897	0.021735847133570244	-4.869150215858544e+22	-0.10438623702636356	0.2586783196610584	0.0	33.80101	13.564812	8.268492	19.837374	10.179904	23.243166	0.0		True	0.0	None	0.0	None	0.0	None	0.0	None	0.0	None	0.0	None	0.0	None	0.0	None	3.8903e-06	12
2014-03-10 01:00:00	21.77634613848425	139463381.63410002	1.1326640368486652e+21	529302177005.3711	1.4881804083385768	70163034829.14305	2.968477631312495e+20	-1.1742494295274536e+23	1576.4901208828815	-0.6339975411357778	25.12829249013636	7.393715341959335	30.848317730895037	125.0823699831232	124.24467588038894	48.53524170626069	0.0027507955791840604	2.069267607461096e+22	-0.25003242743360715	0.013060926584210096	-4.9013260543286456e+22	-0.11172333084378784	0.2646310561121233	0.0	33.804127	13.454978	8.271792999999999	19.965263	10.181725	23.345341	0.0		True	0.0	None	0.0	None	0.0	None	0.0	None	0.0	None	0.0	None	0.0	None	0.0	None	3.1041e-06	12
