Timestamp	TOTUSJH	TOTBSQ	TOTPOT	TOTUSJZ	ABSNJZH	SAVNCPP	USFLUX	TOTFZ	MEANPOT	EPSZ	MEANSHR	SHRGT45	MEANGAM	MEANGBT	MEANGBZ	MEANGBH	MEANJZH	TOTFY	MEANJZD	MEANALP	TOTFX	EPSY	EPSX	R_VALUE	CRVAL1	CRLN_OBS	LAT_MIN	LON_MIN	LAT_MAX	LON_MAX	QUALITY	NOAA_AR	IS_TMFI	BFLARE	BFLARE_label	CFLARE	CFLARE_label	MFLARE	MFLARE_label	XFLARE	XFLARE_label	BFLARE_loc	BFLARE_label_loc	CFLARE_loc	CFLARE_label_loc	MFLARE_loc	MFLARE_label_loc	XFLARE_loc	XFLARE_label_loc	XR_MAX	XR_QUAL
2014-02-24 18:36:00	25.563439703112564	280823813.3679	1.7840503600047674e+21	633252606138.7615	1.2764881700203483	46715964431.21556	6.408555661054129e+20	-2.649834416498348e+23	1204.812959292959	-0.7105132679887877	21.411866780336474	0.9865470852017936	24.85460110986918	96.84125221400309	98.14356779797998	29.61657264203223	-0.001144832439480133	-1.486906597708401e+22	-0.08135041491991545	-0.005314793684739467	-1.0727354274119238e+23	0.0398691653846041	0.28763788011516683	0.0	232.746552	188.233154	-31.655415	40.94812	-28.026758	44.907501	0.0		True	0.0	None	0.0	None	0.0	None	0.0	None	0.0	None	0.0	None	0.0	None	0.0	None	9.346700000000001e-07	12
2014-02-24 18:48:00	28.06769852281317	299181014.14910007	1.9448814345182425e+21	694743782217.3413	0.7791723470028791	70089881728.5556	6.785285666857293e+20	-2.8331270689711465e+23	1241.0765930993173	-0.7130491804429286	21.72512522523759	1.1864406779661016	25.14103343606748	102.0617040147369	102.75111187014248	31.455590597845546	-0.0006603155483075247	-1.7632828123535957e+22	-0.11533025212159236	-0.0030406026184974424	-1.1295647211879537e+23	0.0443787847713596	0.2842919428223211	0.0	232.745117	188.122818	-31.651903000000004	41.051285	-28.047916	44.999699	0.0		True	0.0	None	0.0	None	0.0	None	0.0	None	0.0	None	0.0	None	0.0	None	0.0	None	8.9445e-07	12
2014-02-24 19:00:00	27.279171936390465	298242077.1399	1.9117346814598447e+21	690998325123.8624	0.7669695647775496	80847663714.41818	6.774358727275056e+20	-2.8287277279002045e+23	1217.8605803499845	-0.714183254870458	21.639137445395885	1.5228426395939088	25.077445687582003	103.49026188380495	104.28365196234057	31.64691779576013	-0.000648874420285575	-1.937160282857021e+22	-0.13280662972231047	-0.003000419382876475	-1.1162098274154429e+23	0.04890846942853642	0.2818151636862228	0.0	232.743683	188.012482	-31.644882	41.168293	-28.044994	45.113167	0.0		True	0.0	None	0.0	None	0.0	None	0.0	None	0.0	None	0.0	None	0.0	None	0.0	None	9.5081e-07	12
2014-02-24 19:12:00	27.6635990231317	284441932.5255	1.796689655887353e+21	686963397690.9788	0.8100809208283737	105600650302.03946	6.483020352434197e+20	-2.72294015240413e+23	1206.8545168802273	-0.7208284857870557	21.357851116430915	1.4272970561998215	24.8284721240933	103.94488685657593	104.60199636108332	31.390334030420014	-0.0007226413209887367	-1.5452632543431823e+22	-0.18290685103476573	-0.003309993890845971	-1.0509170353621316e+23	0.040906876737159266	0.2782032997012696	0.0	232.742264	187.902161	-31.640747	41.289051	-28.09672	45.206581	0.0		True	0.0	None	0.0	None	0.0	None	0.0	None	0.0	None	0.0	None	0.0	None	0.0	None	1.0022e-06	12
2014-02-24 19:24:00	28.794212277197786	294854612.7476	1.8448352360150333e+21	721203724211.0671	0.16128212646568313	98525289603.44023	6.722874569089873e+20	-2.786971440170497e+23	1183.2511758028031	-0.7117247172491731	21.338667795503234	0.5110732538330494	25.334613246179472	103.44598882340158	104.03295121043013	30.676125065947986	-0.00013737830192988342	-1.8073132608343056e+22	-0.16294728925354784	-0.0006391081978588173	-1.1003696631818464e+23	0.04615438468466277	0.28100764726521793	0.0	232.740829	187.791824	-31.635065	41.405788	-28.119349	45.300919	0.0		True	0.0	None	0.0	None	0.0	None	0.0	None	0.0	None	0.0	None	0.0	None	0.0	None	1.0275e-06	12
2014-02-24 19:36:00	27.75012050516309	292046993.6888	1.8585947187883868e+21	658682850364.4921	0.05723546997773221	31323268389.355564	6.503480410184724e+20	-2.793568519236776e+23	1282.765905887965	-0.7202678803704702	20.894360445077574	1.0999083409715855	24.40631028151369	110.07484076523495	110.36501116636494	31.99531694700659	5.2461475689947025e-05	-1.963310381561947e+22	-0.055745229211235835	0.00022784863354864576	-1.0717297599278936e+23	0.05062017979152013	0.2763248931241947	0.0	232.73941	187.681519	-31.631008	41.522251	-28.14333	45.413971	0.0		True	0.0	None	0.0	None	0.0	None	0.0	None	0.0	None	0.0	None	0.0	None	0.0	None	1.1314e-06	12
2014-02-24 19:48:00	27.788210852086223	293869465.83000004	1.878097179824614e+21	667040564943.282	1.008598236424502	84940508979.14206	6.567372203440857e+20	-2.8024208971390707e+23	1270.6046133243594	-0.7180694179921087	21.12208565082639	0.5390835579514826	24.520562972295252	108.94321479078064	109.36487328169441	32.39741892032541	-0.0009061978763921848	-1.898992352503344e+22	-0.14817752843416473	-0.003995333430415134	-1.077907243877392e+23	0.048658227417787935	0.2761941391639953	0.0	232.738007	187.571198	-31.624107	41.644447	-28.195932	45.50862100000001	0.0		True	0.0	None	0.0	None	0.0	None	0.0	None	0.0	None	0.0	None	0.0	None	0.0	None	1.0855e-06	12
2014-02-24 20:00:00	27.977750639512948	295651569.9542	1.8208746071966467e+21	650029872441.6343	1.364839854294322	74933890114.27774	6.389038792619183e+20	-2.831082499521956e+23	1315.8299492782617	-0.7210407040382828	20.59931307738881	0.5758157389635317	24.339835350816607	115.72776758076401	115.88821118365372	34.695199200519035	-0.0013098271154456064	-1.5977950005432886e+22	-0.139627080782278	-0.005364637239461561	-1.0793231203243071e+23	0.040693806425461485	0.27488987081614336	0.0	232.736588	187.460892	-31.617468	41.762074	-28.248758	45.603859	0.0		True	0.0	None	0.0	None	0.0	None	0.0	None	0.0	None	0.0	None	0.0	None	0.0	None	1.114e-06	12
2014-02-24 20:12:00	29.240512257998923	291520301.39460003	1.8029837830860744e+21	698470112022.6394	3.9877930707675016	299860427543.0097	6.375606521707684e+20	-2.768617545338971e+23	1268.8068616517744	-0.7151244690324736	20.91538444922333	0.2803738317757009	24.99116990168377	113.46985148631468	113.99367159286312	34.014469544650204	-0.0037269094119322436	-1.34882645029126e+22	-0.5441145970678845	-0.015951376392364894	-1.0738744224078567e+23	0.03483972716655587	0.2773781006426259	0.0	232.73526	187.350601	-31.612343	41.888283	-29.34420200000001	45.702503	0.0		True	0.0	None	0.0	None	0.0	None	0.0	None	0.0	None	0.0	None	0.0	None	0.0	None	9.8862e-07	12
2014-02-24 20:24:00	28.496582401417584	282071617.5752	1.7274834480042022e+21	671876029694.9166	3.159160966929945	274934919913.146	6.169297406780835e+20	-2.6872503575347965e+23	1280.2880414001233	-0.717358489595837	20.509287274746168	0.4921259842519685	24.59121295436821	112.84730837996744	113.09922598948731	33.99349033806582	-0.0031094104005216	-1.0936565121314552e+22	-0.5253956089400329	-0.013043117302794793	-1.0511697520814423e+23	0.02919503876814028	0.2806085944123685	0.0	232.733871	187.240326	-31.605864	42.006428	-29.341736	45.798237	0.0		True	0.0	None	0.0	None	0.0	None	0.0	None	0.0	None	0.0	None	0.0	None	0.0	None	9.5271e-07	12
2014-02-24 20:36:00	28.67157435347667	283572243.47900003	1.8711750100190416e+21	670473377915.4414	2.7709477009848125	84800041401.98785	6.083885708067827e+20	-2.690674028478987e+23	1436.259151189371	-0.7144712786990518	21.476371474438324	1.3251783893985731	24.57195876104018	119.77788292490536	120.87969666456974	33.71896966688715	-0.0028246153934605627	-4.4390740501850337e+21	-0.16783084388590694	-0.011398937997807487	-1.0751083747185755e+23	0.011787347256881771	0.28548016113994273	0.0	232.732513	187.130066	-31.599897	42.121834	-29.356377	45.890911	0.0		True	0.0	None	0.0	None	0.0	None	0.0	None	0.0	None	0.0	None	0.0	None	0.0	None	9.5569e-07	12
2014-02-24 20:48:00	27.020663895739627	274221901.99610007	1.8002939263830574e+21	623945620834.8425	2.3242012314106493	101950980004.33934	5.8967111373172834e+20	-2.551294627256745e+23	1417.9893857565378	-0.7005609597056625	21.32243780683868	0.7322175732217573	25.10374014921421	114.27560569181222	114.85341279996284	35.594074935681995	-0.0024311728362036078	-2.755484300635052e+20	-0.2070485629478213	-0.009968030983267243	-1.0728657011982765e+23	0.0007566294795918598	0.2945985999566472	0.0	232.731171	187.019821	-31.593018	42.24366	-29.360874	45.984386	0.0		True	0.0	None	0.0	None	0.0	None	0.0	None	0.0	None	0.0	None	0.0	None	0.0	None	1.0140000000000002e-06	12
2014-02-24 21:00:00	25.886532822327037	270691999.45930004	1.828960457433258e+21	612941561505.8461	3.3976888544746315	200846353920.21136	5.886487696616813e+20	-2.52425215548794e+23	1427.1332640725268	-0.7021741577895377	21.662292057799693	1.5544041450777202	25.088210710137897	111.76862435952187	112.4279785439922	34.41677504785101	-0.003520921092719825	9.99136321259452e+20	-0.4040812811814477	-0.014748035977893972	-1.0635526439544746e+23	-0.0027793091247719642	0.29584967587725497	0.0	232.729889	186.909592	-31.585495	42.379314	-29.374033	46.080631	0.0		True	0.0	None	0.0	None	0.0	None	0.0	None	0.0	None	0.0	None	0.0	None	0.0	None	9.937000000000001e-07	12
2014-02-24 21:12:00	27.005372772588164	274603960.9401	1.9311104433149127e+21	661731728078.2864	0.04724987656646995	58029642744.16796	6.076144779657596e+20	-2.527433014690892e+23	1420.0206188122406	-0.6930432714676439	22.1125243257172	2.24609375	25.314778614485565	109.0836715430568	110.18418693012691	34.05293098812959	-4.614245758444331e-05	6.003778600605643e+21	0.11002077715298564	-0.0002032618240466799	-1.0966821370572783e+23	-0.016462863064404688	0.3007194143656693	0.0	232.728577	186.799377	-31.578411	42.515022	-29.394949	46.17684600000001	0.0		True	0.0	None	0.0	None	0.0	None	0.0	None	0.0	None	0.0	None	0.0	None	0.0	None	9.238500000000001e-07	12
2014-02-24 21:24:00	26.50476685395281	261595538.41760004	1.8970943893617068e+21	669346591893.5287	2.005370402562712	85081628578.13292	5.8383728830173774e+20	-2.38430035728768e+23	1419.9673547134992	-0.6863063738051925	22.770266096997545	2.6838966202783303	26.02640953466584	105.3978815855993	105.986863086071	34.50864789600525	-0.001993409942905281	7.606010254285981e+21	-0.1641929857986866	-0.009091965566637527	-1.045752523616156e+23	-0.021893438470488358	0.3010135112327365	0.0	232.72728	186.689178	-31.571871	42.651966	-29.39617	46.274288	0.0		True	0.0	None	0.0	None	0.0	None	0.0	None	0.0	None	0.0	None	0.0	None	0.0	None	1.1704e-06	12
2014-02-24 21:36:00	25.773926847677807	257401865.6278	1.8619565193945985e+21	635545689638.2853	0.9615550317693122	10412277346.080894	5.7036688093911056e+20	-2.366611797200104e+23	1451.3759111089364	-0.6923135580923843	22.61307143685589	1.7598343685300208	25.37961406219752	107.931937734525	109.76943439521163	33.58117556721397	-0.0009953985836121243	9.952698233952513e+21	0.020925556873847787	-0.004414805921224344	-1.028886237764332e+23	-0.029114990194502317	0.30098383392731964	0.0	232.726013	186.57901	-31.565516	42.787525	-29.414038	46.370136	0.0		True	0.0	None	0.0	None	0.0	None	0.0	None	0.0	None	0.0	None	0.0	None	0.0	None	5.1811e-06	12
2014-02-24 21:48:00	26.516777935619512	267454981.4696	1.956299175039353e+21	642453026968.6809	0.9318336624731052	141227810956.72736	5.913759373266865e+20	-2.475276945674391e+23	1477.5004378113235	-0.6968841876111599	22.85498171989673	1.7051153460381143	25.19331766240977	111.1310240599005	111.91894719437776	35.00596989697116	0.0009346375751987012	5.672426262935726e+21	0.2749947938590935	0.0041064401449981735	-1.0795739201172496e+23	-0.015970027818253553	0.30394093703406977	0.0	232.724762	186.468857	-31.557711	42.919186	-29.434162	46.46582	0.0		True	0.0	None	0.0	None	0.0	None	0.0	None	0.0	None	0.0	None	0.0	None	0.0	None	3.7010000000000002e-06	12
2014-02-24 22:00:00	28.43273747691205	265352702.0572	1.9151006553201251e+21	721034084733.5005	1.1276979894123649	242414437321.8565	6.02570343381023e+20	-2.44329481947451e+23	1366.8680430602192	-0.6933297002204316	22.671523007533132	1.8957345971563984	25.65367065030517	109.40015404319557	110.98806945665838	34.469494918453606	0.0010689080468363646	5.307735181923705e+21	0.44606259111826696	0.005019468829710427	-1.0571218912319766e+23	-0.015061671695125503	0.2999777178351147	0.0	232.723511	186.358719	-31.551565000000004	43.009766	-29.435841	46.553406	0.0		True	0.0	None	0.0	None	0.0	None	0.0	None	0.0	None	0.0	None	0.0	None	0.0	None	1.5005e-06	12
2014-02-24 22:12:00	29.330322475487336	271255792.1482	2.0158270911775297e+21	773176989327.2737	0.07141043736136342	129159791370.07425	6.330555461689552e+20	-2.481681170251203e+23	1310.7873335780876	-0.6888973005527765	23.53568913332975	2.8497409326424865	26.029634093640986	105.53931830008858	106.07022729193731	33.82453595995038	6.166704435350902e-05	3.736866402976689e+21	0.2165202658499026	0.0003117521279856978	-1.0882700364048306e+23	-0.010373279244716295	0.30209613520816303	0.0	232.722321	186.248611	-31.545404	43.10199	-29.453773	46.650963	0.0		True	0.0	None	0.0	None	0.0	None	0.0	None	0.0	None	0.0	None	0.0	None	0.0	None	1.0506e-06	12
2014-02-24 22:24:00	27.12519051939827	272325035.98510003	1.885310716126976e+21	727856955524.2452	1.212393447054354	174616284082.62775	6.459552843147198e+20	-2.5530286992675876e+23	1201.0276308241216	-0.7059202927424498	22.248057410209324	1.353637901861252	25.06194712069759	101.22571540905727	102.23313245376025	31.130880077362317	0.001025713576188117	-3.340924494438948e+21	0.2867718322102536	0.005219480398522288	-1.0689426658366145e+23	0.009237759049952504	0.29556593696293104	0.0	232.72113	186.138535	-31.545242	43.195148	-29.477373	46.74947	0.0		True	0.0	None	0.0	None	0.0	None	0.0	None	0.0	None	0.0	None	0.0	None	0.0	None	1.2888999999999998e-06	12
2014-02-24 22:36:00	26.87658568233944	266475625.5942	1.8824077964039482e+21	707924752693.7417	2.2796902402645185	185340187624.7097	6.369417741897889e+20	-2.476907151752086e+23	1210.4430310482264	-0.6999060913279247	22.13693449656583	1.8787361229718187	25.04396537485722	98.58309408832916	99.1310866431152	30.397467294406773	0.0019467892743505711	-5.203912901866214e+21	0.3072351386139452	0.010065223317397494	-1.0739912676914624e+23	0.014704831935988098	0.3034805038043232	0.0	232.719971	186.028473	-31.550045	43.285526	-29.67103	46.845078	0.0		True	0.0	None	0.0	None	0.0	None	0.0	None	0.0	None	0.0	None	0.0	None	0.0	None	1.1978e-06	12
2014-02-24 22:48:00	27.200206574631324	273006327.0946	2.0077700425685021e+21	729000900533.1638	1.5115685827365484	138730678413.50333	6.637705704609359e+20	-2.5636466231367258e+23	1229.1258289911325	-0.7070871349018572	22.521493662021136	1.6260162601626018	24.67682886471253	97.83422067694704	98.32565083107723	30.281291849952478	0.0012289175469402832	-6.54154904555743e+21	0.21893441987111767	0.006486784208624982	-1.093488723886533e+23	0.018042444425448004	0.3015984347618024	0.0	232.718842	185.918442	-31.559481	43.376911	-29.696096	46.941803	0.0		True	0.0	None	0.0	None	0.0	None	0.0	None	0.0	None	0.0	None	0.0	None	0.0	None	1.1237000000000001e-06	12
2014-02-24 23:00:00	25.8262873950793	266268522.5845	1.889085550807744e+21	693711625533.4415	0.5859818587820746	118842942932.62238	6.522773933814693e+20	-2.4928894329386083e+23	1168.8225253692465	-0.7049701246865558	22.470333067810913	2.3007395234182417	25.12229279431399	97.02915684310128	98.26650345395628	28.99953401227479	0.00048149700803785917	-8.265986307850362e+21	0.1895472995733365	0.002581532308216979	-1.05502861796924e+23	0.02337557904135951	0.29835404913282265	0.0	232.717773	185.808426	-31.553581	43.471584	-29.717823	47.021965	0.0		True	0.0	None	0.0	None	0.0	None	0.0	None	0.0	None	0.0	None	0.0	None	0.0	None	1.2412999999999999e-06	12
2014-02-24 23:12:00	24.984214664150876	264569996.2562	1.7679174535721444e+21	691827220700.9727	0.20684474335284286	374632668.8659744	6.675674589090762e+20	-2.5538501298869093e+23	1050.6858487455327	-0.7268458763070855	21.90109060886118	1.3417521704814523	24.01611057339226	94.6398921710632	95.8616012334886	27.28233944625464	0.00016325551961550344	-1.2286038041248605e+22	-0.0005739202015609116	0.0009054830292373236	-1.0044794765014369e+23	0.03496703264583882	0.2858827762780661	0.0	232.716705	185.698456	-31.549261	43.563911	-29.737114	47.11961	0.0		True	0.0	None	0.0	None	0.0	None	0.0	None	0.0	None	0.0	None	0.0	None	0.0	None	1.2191e-06	12
2014-02-24 23:24:00	23.97179063319509	261353169.219	1.6572702563192946e+21	657425502520.3585	0.14295343851137876	1759587231.1616669	6.606555806899823e+20	-2.5335997820239463e+23	996.7277353972772	-0.7299578416764453	21.303320159860245	0.6389776357827476	24.213779526758064	96.3887781851779	97.48345837874486	27.958487267729286	-0.00011418006270876897	-1.0344299601160028e+22	0.0027278238609397885	-0.0006323555159970089	-9.788413488112576e+22	0.029803059915348224	0.2820149115071138	0.0	232.715652	185.588501	-31.565662	43.674313	-29.749418	47.217667	0.0		True	0.0	None	0.0	None	0.0	None	0.0	None	0.0	None	0.0	None	0.0	None	0.0	None	1.1204000000000001e-06	12
2014-02-24 23:36:00	22.948206665611075	257509267.4229	1.645096482255033e+21	629386835267.9244	0.8633135438967354	63858389158.69595	6.513584826227761e+20	-2.4856346922064915e+23	1000.5947829342036	-0.7268284920888856	21.253690449773305	0.6462035541195477	24.19862420559059	95.6886244077908	97.05979072832912	26.806898411513767	-0.0006973453504820157	-1.0785194930188537e+22	-0.1001138477785172	-0.003882902458320205	-9.626125608195567e+22	0.031537164300820805	0.28147910802822673	0.0	232.714691	185.478592	-31.56282	43.768082	-29.74262	47.316921	0.0		True	0.0	None	0.0	None	0.0	None	0.0	None	0.0	None	0.0	None	0.0	None	0.0	None	1.1105e-06	12
2014-02-24 23:48:00	22.868085608917628	257720278.7771	1.6519642857271232e+21	643287027880.4985	0.4021255066840688	93316079016.68384	6.609916559559826e+20	-2.4731126718768024e+23	967.2689319141043	-0.7225748869679051	21.284102536929193	0.8553654743390358	24.733122631241326	91.90256422556507	92.69936532868284	27.604564012656716	0.0003126947952442214	-1.0587717086154429e+22	0.14083127808927676	0.001811610849262103	-9.615072616534934e+22	0.030934370939802038	0.2809257373546393	0.0	232.713699	185.368698	-31.55603	43.87838	-29.739899	47.435093	0.0		True	0.0	None	0.0	None	0.0	None	0.0	None	0.0	None	0.0	None	0.0	None	0.0	None	1.0164e-06	12
2014-02-25 00:00:00	22.63520962519492	257847650.7236	1.5844578942546548e+21	628416512034.8875	1.590577277377225	147501027172.03076	6.693462570117097e+20	-2.506227181462247e+23	925.582792882424	-0.7318881978284686	20.75543409347345	0.46547711404189296	23.92185651356442	89.05733684319055	90.15592328632812	25.48526930018561	0.0012339622012236034	-1.1209641498200376e+22	0.22208136633605904	0.007123636296323419	-9.487758970363357e+22	0.032735277851524934	0.27706900897143283	0.0	232.712738	185.258835	-31.55357	43.998375	-29.733465	47.540325	0.0		True	0.0	None	0.0	None	0.0	None	0.0	None	0.0	None	0.0	None	0.0	None	0.0	None	9.7035e-07	12
2014-02-25 00:12:00	21.60288862971592	254256722.1078	1.5703961013049342e+21	619858100361.5961	0.7402536162966987	12987560298.4159	6.722150978797339e+20	-2.453722114588077e+23	886.4225881129013	-0.7266752502781988	21.175958323030613	0.6746626686656672	24.40710597395381	85.88607844227752	87.15726720381535	24.882421234444298	0.0005549127558446017	-1.0606886345428957e+22	0.018894173863507845	0.0033723094973226817	-9.3741753566204e+22	0.031412529332120194	0.2776182837870959	0.0	232.711807	185.149002	-31.565575	44.0923	-29.730072	47.639755	0.0		True	0.0	None	0.0	None	0.0	None	0.0	None	0.0	None	0.0	None	0.0	None	0.0	None	1.0093e-06	12
2014-02-25 00:24:00																																	False	0.0	None	0.0	None	0.0	None	0.0	None	0.0	None	0.0	None	0.0	None	0.0	None	1.0553e-06	12
2014-02-25 00:36:00	23.42437183941721	270146104.6677	1.6453122826358083e+21	631582920372.1866	0.052054701921670436	25988056799.75668	7.003068465703138e+20	-2.665583028866342e+23	927.319287678381	-0.7429864889201139	20.612004105583086	0.07485029940119761	23.331664077406675	92.51446231706171	93.52339539904293	25.073952731008372	3.8992286083648276e-05	-1.2397165470546206e+22	-0.037748122005462834	0.00022130559340091465	-9.723452004818476e+22	0.03455501609132077	0.2710248897523863	0.0	232.710052	184.929443	-31.565269	44.312401	-29.730001	47.862411	0.0		True	0.0	None	0.0	None	0.0	None	0.0	None	0.0	None	0.0	None	0.0	None	0.0	None	1.2528e-06	12
2014-02-25 00:48:00	22.734945713772287	265938321.3749	1.6444227803875492e+21	612227433383.9495	0.8653617323861658	94118219642.76352	6.830831389444807e+20	-2.600795339068947e+23	957.64047650259	-0.7363983208137359	20.559039036591294	0.6187161639597835	23.404948083655785	92.19030459748942	93.3502817336453	25.18462227743059	-0.0006692666143744512	-1.0385380524935808e+22	-0.14125018246718574	-0.003747981180111953	-9.76589899648705e+22	0.02940553093390353	0.2765150919112349	0.0	232.709198	184.819702	-31.559715	44.416714	-29.728628000000004	47.962574	0.0		True	0.0	None	0.0	None	0.0	None	0.0	None	0.0	None	0.0	None	0.0	None	0.0	None	0.00049688	12
2014-02-25 01:00:00	22.818755611693238	265781177.9802	1.6169779768390902e+21	608020058772.8793	0.8800931251269539	144181621745.6036	6.835923725296321e+20	-2.618762842126572e+23	945.3130856843322	-0.741923924805127	20.634546932109547	0.3881987577639752	23.425248718506108	91.56307357166312	92.7473359219674	25.43450529924975	-0.0006833021157817965	-8.212003262401521e+21	-0.2172167898636168	-0.0038019396438111054	-9.750976826087709e+22	0.023265496183708902	0.2762557525682645	0.0	232.708374	184.709976	-31.56464	44.52993	-29.7253	48.068966	0.0		True	0.0	None	0.0	None	0.0	None	0.0	None	0.0	None	0.0	None	0.0	None	0.0	None	0.00043661	12
2014-02-25 01:12:00	23.38512677797609	276763983.95530003	1.6700427504180218e+21	612823988484.5757	0.3070122956279636	9985490394.862488	7.027974039948737e+20	-2.7269429902731973e+23	962.8794263297036	-0.7419147080368071	20.23356917634264	0.3828483920367535	23.577477211073926	93.42601177182965	94.55222031383572	26.0396871524754	0.00023507832743335655	-9.757823051706386e+21	-0.014835807461258285	0.0012736476685471627	-1.0035828371360632e+23	0.026547942022639368	0.2730430633351665	0.0	232.707596	184.600296	-31.560783	44.641888	-29.74057800000001	48.17556	0.0		True	0.0	None	0.0	None	0.0	None	0.0	None	0.0	None	0.0	None	0.0	None	0.0	None	0.0001797	12
2014-02-25 01:24:00	24.701318508002053	282405449.8643	1.6917044130196798e+21	644455235842.8855	0.7421644703478665	149386149787.90067	6.989220397880139e+20	-2.7721819463302586e+23	997.5186262199296	-0.7391559654199431	20.230095206811225	0.15661707126076746	23.64158104048099	94.45821061842923	95.05293855563666	27.07644088053907	-0.0005811781286984076	-9.447667467161656e+21	-0.2269811848867541	-0.003022167639378388	-1.0218772784886713e+23	0.02519062566185733	0.2724664906363305	0.0	232.706848	184.490646	-31.556755	44.753269	-29.73247000000001	48.274036	0.0		True	0.0	None	0.0	None	0.0	None	0.0	None	0.0	None	0.0	None	0.0	None	0.0	None	7.0675e-05	12
2014-02-25 01:36:00	23.25528740350336	277949367.9707	1.6016904651643651e+21	603156094988.8398	0.030537835916725875	56852881965.80539	6.937461934993415e+20	-2.7363388742181567e+23	948.9003649010698	-0.7412961822867681	19.956690738516574	0.4720692368214005	23.798414886687695	92.10113521732627	93.00141148164215	26.934875327729078	2.402662149230989e-05	-7.846977569843023e+21	-0.08678866907100542	0.00012619144523546996	-9.936273265808447e+22	0.02125809259160777	0.2691816246701702	0.0	232.706177	184.381027	-31.55044	44.875519	-29.730331	48.37394000000001	0.0		True	0.0	None	0.0	None	0.0	None	0.0	None	0.0	None	0.0	None	0.0	None	0.0	None	4.287800000000001e-05	12
2014-02-25 01:48:00	23.860144400777198	281751285.286	1.598006637239848e+21	627603479602.6018	1.6541203316523994	163309968798.73798	7.032455740077281e+20	-2.79785484828378e+23	937.1326525933553	-0.7477334150924928	19.953401806708968	0.4672897196261682	23.464212574164485	93.45748107756657	94.63222160361416	26.8437368043976	0.0012882557100096568	-6.720892844331328e+21	0.24676824667422195	0.006718247512026365	-9.90875392236076e+22	0.0179617472366202	0.2648138238558992	0.0	232.70549	184.271439	-31.556122	44.987675	-29.744301	48.486912	0.0		True	0.0	None	0.0	None	0.0	None	0.0	None	0.0	None	0.0	None	0.0	None	0.0	None	3.1075e-05	12
2014-02-25 02:00:00	24.69867491937624	277412766.6071	1.641334436768697e+21	654676927541.2932	1.2614599566475029	170765248224.9748	6.901811795880068e+20	-2.713093939815125e+23	967.0606628571646	-0.7364205140855671	20.52022677261001	0.0782472613458529	24.095570442248498	89.77862229879581	90.6007819917507	27.290743507991696	-0.0009870578690512543	-7.466690989198043e+21	-0.2592363280580009	-0.0052374768111286005	-9.9331406615835e+22	0.020266988680672	0.26961722353727363	0.0	232.704834	184.16188	-31.556511	45.092411	-29.740505	48.587975	0.0		True	0.0	None	0.0	None	0.0	None	0.0	None	0.0	None	0.0	None	0.0	None	0.0	None	2.2511999999999997e-05	12
2014-02-25 02:12:00	25.72835821292417	286283996.58150005	1.724260945978928e+21	675649090236.0785	0.4615685053302698	60426004261.12087	7.127916652720761e+20	-2.825383607274981e+23	988.0867840290304	-0.7431351670722344	20.680715332187948	0.076103500761035	23.65979430870012	92.71486962384516	93.14956870373743	26.795016300401038	-0.00035126979096671983	-8.502479329038542e+21	-0.0892157355126231	-0.0018498564451319168	-1.0214867781762914e+23	0.02236330451002835	0.26867245410765805	0.0	232.704193	184.052338	-31.549908	45.205956	-29.738155	48.688709	0.0		True	0.0	None	0.0	None	0.0	None	0.0	None	0.0	None	0.0	None	0.0	None	0.0	None	1.8532e-05	12
2014-02-25 02:24:00	24.03966389356029	272272080.8621	1.5088296173739185e+21	632361679076.8197	0.3922539944923311	32685806407.29721	6.866826454307157e+20	-2.7134127577065828e+23	884.8356946021802	-0.7504127585897502	19.977904937307642	0.1557632398753894	23.467253517395438	88.07771213101286	88.73803671909283	25.64059701909185	0.0003057318741171716	-6.185163737485763e+21	0.04938476821418196	0.0016469637904361985	-9.54920847425488e+22	0.017105491117757488	0.264089857068812	0.0	232.703644	183.942841	-31.546417	45.316837	-29.749279	48.793472	0.0		True	0.0	None	0.0	None	0.0	None	0.0	None	0.0	None	0.0	None	0.0	None	0.0	None	1.5382999999999998e-05	12
2014-02-25 02:36:00	24.59033878011809	277784233.9611	1.5379091071504509e+21	639806257662.144	1.1075124205048104	85590741600.01225	6.895424369405927e+20	-2.7704685017461844e+23	917.6112925498488	-0.7509881072837038	19.872301797747426	0.15847860538827258	23.255544180011764	89.71881715347311	90.62708312153968	26.231175229578852	0.0008775851192589623	-7.628896392576916e+21	0.13156862270854308	0.004553945319738693	-9.638186924349885e+22	0.020679572638756867	0.26126136252413473	0.0	232.703064	183.833359	-31.540272	45.428719	-29.74737	48.89200200000001	0.0		True	0.0	None	0.0	None	0.0	None	0.0	None	0.0	None	0.0	None	0.0	None	0.0	None	1.235e-05	12
2014-02-25 02:48:00	27.278120677136997	289686652.9734	1.6123869512010474e+21	692074823852.9126	0.9936764968870933	37560361084.57024	7.071521415985322e+20	-2.895158329981588e+23	951.4942871835706	-0.7525431692229799	19.883339663210954	0.3134796238244514	23.45795394433929	94.75512380632635	95.71377265978964	26.891176831195754	0.0007787433361184117	-5.618723443648607e+21	0.05710188108649824	0.003914513570209226	-1.0082483093157745e+23	0.014604838372682944	0.2620756074715365	0.0	232.702515	183.723907	-31.545925	45.552925	-29.761425	48.993835	0.0		True	0.0	None	0.0	None	0.0	None	0.0	None	0.0	None	0.0	None	0.0	None	0.0	None	1.0025e-05	12
2014-02-25 03:00:00	26.063222968487644	293125757.2989	1.7097510489154532e+21	673668420868.1162	1.130222544912774	108071441518.72096	7.149400919939546e+20	-2.911950233731283e+23	1001.8834096647416	-0.7480272176119777	20.336089292334805	0.311284046692607	23.605845547299992	94.07808985763648	94.8267983814427	27.500548710120874	0.0008802356268791074	-7.330158925879002e+21	0.16314190522154534	0.004414482895085945	-1.0417408325320984e+23	0.0188298492277216	0.26760433176540355	0.0	232.701965	183.614456	-31.542948	45.667877	-29.758471000000004	49.11705	0.0		True	0.0	None	0.0	None	0.0	None	0.0	None	0.0	None	0.0	None	0.0	None	0.0	None	8.2612e-06	12
2014-02-25 03:12:00	27.257516111365472	297618826.152	1.7210432135402606e+21	715224826388.5438	0.2082628677633573	21315384254.99289	7.283401482349567e+20	-2.9694964360891833e+23	986.99395594537	-0.7512938834232327	20.502752075687365	0.5331302361005331	23.26775810691945	93.40752740255323	93.89633185021843	27.14423638459869	0.00015861604551664686	-1.2062280530517463e+22	-0.03149002266675307	0.0007991391542255174	-1.0525321389324516e+23	0.03051802814974232	0.2662946311286881	0.0	232.701462	183.505066	-31.561525	45.783154	-29.758318	49.219036	0.0		True	0.0	None	0.0	None	0.0	None	0.0	None	0.0	None	0.0	None	0.0	None	0.0	None	6.9754999999999995e-06	12
2014-02-25 03:24:00	27.430071123553766	299867128.9643	1.7337928848604733e+21	713039325285.8093	0.5774852335538236	24320711815.98027	7.291090641368752e+20	-2.969837735218124e+23	977.9203393976836	-0.7457467817718799	20.619600864290568	0.5243445692883896	23.935871148919677	93.63730512154854	94.0533001430638	27.60294632070239	0.0004325732086545496	-2.9502288895868435e+21	0.03533676201805235	0.002206280708907652	-1.0688913600161905e+23	0.007408228651045219	0.2684060082957012	0.0	232.70097400000003	183.395676	-31.55727000000001	45.898438	-29.768391	49.320892	0.0		True	0.0	None	0.0	None	0.0	None	0.0	None	0.0	None	0.0	None	0.0	None	0.0	None	6.0570000000000015e-06	12
2014-02-25 03:36:00	26.7682264157378	307138222.6558	1.7632490740140729e+21	678722000274.9661	0.2540511597766695	31084148116.776825	7.314794076949347e+20	-3.033096131139874e+23	1020.5256233381713	-0.7436008094959494	20.475553128889853	0.23059185242121444	23.625832948575788	97.09013160393421	97.32709409938428	28.729377688711647	0.00019542396905897653	-4.1421262018139615e+21	-0.04634265205607247	0.0009489744664265352	-1.1143265679732542e+23	0.010154931672230612	0.2731908591622356	0.0	232.700516	183.286316	-31.553474	46.010662	-29.768904	49.441086	0.0		True	0.0	None	0.0	None	0.0	None	0.0	None	0.0	None	0.0	None	0.0	None	0.0	None	5.301599999999999e-06	12
2014-02-25 03:48:00	30.974695083161826	316082384.58930004	1.9605688362747405e+21	794457104677.6992	1.5083303205197347	76854941565.39189	7.507669734316763e+20	-3.1135603868364765e+23	1100.882177727637	-0.7417277437448073	21.202835684257387	1.2677106636838178	23.64346356040459	97.81548528248196	98.24923545057756	28.737610196451072	0.0011247802539297053	-3.4594771700445007e+21	0.1111603827742755	0.005479562617765629	-1.1669949988718909e+23	0.008241337494921515	0.2780073163617694	0.0	232.700089	183.17698700000003	-31.567595	46.132782	-29.77861	49.547417	0.0		True	0.0	None	0.0	None	0.0	None	0.0	None	0.0	None	0.0	None	0.0	None	0.0	None	4.6792e-06	12
2014-02-25 04:00:00	29.82338443708959	315975437.5812	2.0374882043975185e+21	750503353861.2595	1.5755298665729478	207916884205.97028	7.390712195036849e+20	-3.076892905709953e+23	1183.7978118531664	-0.7332405723798099	21.438246741029367	1.6203703703703702	23.897005146984075	99.31778317183438	100.30291683023142	28.668886833373666	0.0012156866254420893	-6.696532196319577e+20	0.3111572343523229	0.005753663587199275	-1.1841116771818923e+23	0.0015958206057406586	0.28218035224015464	0.0	232.699677	183.067673	-31.565926	46.248035	-29.781258	49.664299	0.0		True	0.0	None	0.0	None	0.0	None	0.0	None	0.0	None	0.0	None	0.0	None	0.0	None	4.1006999999999995e-06	12
2014-02-25 04:12:00	28.85438177198739	318210933.4113	1.9360885277868048e+21	706576854574.8141	0.09995473656004017	49519356105.61769	7.341230887583859e+20	-3.120487133256192e+23	1155.1898718245188	-0.7384053158864717	20.790124987345237	0.2377179080824089	23.71176167602087	102.8808579277362	103.6119799925112	29.835273304943428	-7.920343625993674e-05	5.61622947618597e+19	0.07610260329407398	-0.00036138259797117707	-1.1704554010896908e+23	-0.00013289763820069375	0.2769665290274098	0.0	232.69928	182.958374	-31.557117	46.363926	-29.789808	49.766495	0.0		True	0.0	None	0.0	None	0.0	None	0.0	None	0.0	None	0.0	None	0.0	None	0.0	None	3.6114999999999996e-06	12
2014-02-25 04:24:00	32.37907457464817	338981068.9281	2.2771856079615484e+21	823661158443.5896	3.043969579186241	325209942371.6248	7.714238467383955e+20	-3.23136564468996e+23	1272.0257583451164	-0.717791028889313	22.146228153733702	1.6320474777448073	24.794479027868608	106.54568919621966	107.27274217642851	31.358555579573192	0.0022581376700194665	4.910461307461604e+21	0.4678932211482098	0.010455011825325664	-1.288042450926914e+23	-0.010907725902192687	0.2861159700769949	0.0	232.698944	182.849091	-31.57235	46.478031	-29.796352	49.86655800000001	0.0		True	0.0	None	0.0	None	0.0	None	0.0	None	0.0	None	0.0	None	0.0	None	0.0	None	3.643e-06	12
2014-02-25 04:36:00	30.514806528473482	347502479.1492	2.291742324566389e+21	752826661268.8064	1.8651153416614488	172572441353.63638	7.73381457489759e+20	-3.337371923628951e+23	1315.2835963316704	-0.7231595970522691	22.03370178192133	1.1432926829268293	24.40362518495884	107.48513768538535	107.98278330333721	31.956269119456266	0.0014215818152907387	6.664548415110952e+21	0.2550939162131258	0.006229486939626217	-1.3143868381881106e+23	-0.014441099933406197	0.28480836958721834	0.0	232.698578	182.739822	-31.565939	46.593975	-29.803072	49.98447	0.0		True	0.0	None	0.0	None	0.0	None	0.0	None	0.0	None	0.0	None	0.0	None	0.0	None	5.0986e-06	12
2014-02-25 04:48:00	31.43997620554196	346075803.9501	2.362319242514337e+21	784420429562.7446	2.053903308840745	259892309388.3881	7.628922439732987e+20	-3.285457344625618e+23	1379.981127169149	-0.7148453119871124	22.365901726669968	2.017067494181536	25.016298058483123	107.17119616219635	107.69978647577518	31.902564229760696	0.0015934083078671414	1.0773503792941575e+22	0.3910147176493097	0.006921716432790513	-1.3359141168580938e+23	-0.023440842087503168	0.2906663649782469	0.0	232.698242	182.630585	-31.560663	46.717796	-29.816675	50.092152	0.0		True	0.0	None	0.0	None	0.0	None	0.0	None	0.0	None	0.0	None	0.0	None	0.0	None	3.7154e-06	12
2014-02-25 05:00:00	32.45438255526338	349518574.8784	2.3747645192448545e+21	775745022128.0471	0.11205984403177616	45488954178.977325	7.664040213751789e+20	-3.349673428788185e+23	1412.4538295095153	-0.7216383782125206	22.2964042784055	1.500789889415482	24.53052878606525	108.15714676412027	108.74646725442044	31.87557132600297	-8.851488470124499e-05	1.1184688651170197e+22	0.06968116091582433	-0.00037244985811404576	-1.3246032129021644e+23	-0.024095783516312537	0.2853664796450391	0.0	232.697952	182.521347	-31.573732	46.836166	-29.811548	50.196609	0.0		True	0.0	None	0.0	None	0.0	None	0.0	None	0.0	None	0.0	None	0.0	None	0.0	None	3.25e-06	12
2014-02-25 05:12:00	33.099220506755074	346275187.4725	2.2801123728114705e+21	777626441874.3579	0.13165298022090974	88786811518.76135	7.52122064705763e+20	-3.3180255523393616e+23	1394.7157884040705	-0.7215158435189404	21.67278609572433	0.8123476848090982	24.468132596162402	107.90399528226223	108.5066340228894	32.12033658976753	0.00010694799368067406	1.2855694005778273e+22	0.13987006806903413	0.0004417009092604754	-1.3229108506074176e+23	-0.027955140062320426	0.2876714248337848	0.0	232.697632	182.412125	-31.567596	46.952244	-29.805468	50.298439	0.0		True	0.0	None	0.0	None	0.0	None	0.0	None	0.0	None	0.0	None	0.0	None	0.0	None	2.7567000000000002e-06	12
2014-02-25 05:24:00	30.32861331422995	341749847.74410003	2.2943028260001318e+21	723220677942.0266	0.009460426855313786	9818596863.801243	7.407561153652051e+20	-3.247055746050158e+23	1431.3007974647226	-0.7154328184075132	21.89939320592039	1.4913007456503728	24.618593764531607	108.80438816077681	109.41356457874191	32.24673506300553	7.837967568611256e-06	1.102087009803159e+22	-0.01577495647141638	3.227443764107674e-05	-1.3122839682562163e+23	-0.02428258943545724	0.28913917449757204	0.0	232.697327	182.302917	-31.562437	47.058651	-29.813784	50.414848	0.0		True	0.0	None	0.0	None	0.0	None	0.0	None	0.0	None	0.0	None	0.0	None	0.0	None	2.5791000000000004e-06	12
2014-02-25 05:36:00	29.517780786926185	332501793.62460005	2.317915653937976e+21	689752480896.4197	0.2852673632801189	110662883567.07344	7.256456560070813e+20	-3.174353437767041e+23	1490.4869418591993	-0.7188673019167613	21.994787904378047	1.1955593509820666	24.157060190422026	107.31880002952208	107.88862645981672	32.172225352177165	0.00024361004549967456	1.8464224955263336e+22	0.1832581869783064	0.0009982647621805344	-1.28081108989302e+23	-0.0418142712706599	0.2900537796144527	0.0	232.697006	182.19371	-31.555401	47.158543	-29.811228000000003	50.520786	0.0		True	0.0	None	0.0	None	0.0	None	0.0	None	0.0	None	0.0	None	0.0	None	0.0	None	2.2913e-06	12
2014-02-25 05:48:00	29.58869710088567	325783108.91510004	2.273982515153084e+21	696745078623.3743	1.7375813381616407	55202003153.05858	7.135877406496332e+20	-3.1048004254337346e+23	1472.295045639025	-0.7176167551142918	22.12517239000493	1.2897678417884781	24.154651258493825	106.96299360679585	107.35854433848264	31.08969837946345	-0.0014940510216351168	1.2990846602872021e+22	-0.09204205570185406	-0.006210410506508872	-1.251398332631772e+23	-0.030025920857822005	0.28923740265630604	0.0	232.696701	182.084503	-31.549692	47.264206	-29.805525	50.624454	0.0		True	0.0	None	0.0	None	0.0	None	0.0	None	0.0	None	0.0	None	0.0	None	0.0	None	2.1207e-06	12
2014-02-25 06:00:00	30.20241776309761	325706700.96790004	2.200492457912218e+21	745631657394.3248	0.4666818252252747	124947063516.03294	7.387244854438451e+20	-3.107279039787486e+23	1317.1240486423408	-0.7183581079947118	21.904181475648304	1.9077901430842603	24.630157662657986	102.32760629781542	102.55912605476831	30.7481898936476	0.0003709712442172295	8.051279133448451e+21	0.1611876977402009	0.0016676715247447367	-1.2437077439760718e+23	-0.01861339638694596	0.287527296525685	0.0	232.696411	181.975311	-31.564732	47.369602	-29.793627	50.728962	66560.0		False	0.0	None	0.0	None	0.0	None	0.0	None	0.0	None	0.0	None	0.0	None	0.0	None	1.9868e-06	12
2014-02-25 06:12:00	28.991850492773647	315101427.482	1.9909517256019183e+21	694220481877.7822	1.2891203113493193	64441708620.47208	7.293272469056675e+20	-3.0834965695468056e+23	1208.0263472540062	-0.7368524926897178	20.87916323122167	0.8058017727639	23.49001386427048	99.8053477103051	99.65023053827248	29.90148006493555	-0.0010387754321912325	4.5081923946201156e+21	-0.10069179668706038	-0.004710967845020697	-1.1664043268900254e+23	-0.0107730711825922	0.2787316010795196	0.0	232.696121	181.866119	-31.559969	47.469383	-29.788889	50.834679	66560.0		False	0.0	None	0.0	None	0.0	None	0.0	None	0.0	None	0.0	None	0.0	None	0.0	None	2.029e-06	12
2014-02-25 06:24:00	31.52049423632566	318422632.0612	2.041062279462916e+21	737781331884.2128	2.7878414553687465	121863516981.7242	7.259773316972587e+20	-3.096245724378087e+23	1257.6869381008528	-0.7321819052421829	21.04702818549521	0.4091653027823241	23.62039791815704	102.10568767480879	102.38999998452341	29.45703438257105	-0.002281375986390136	1.569091737545395e+21	-0.19337313158170305	-0.01010882415617134	-1.1825349826108857e+23	-0.0037104954844193283	0.2796388896935759	0.0	232.695847	181.756943	-31.565205	47.58754	-29.802658	50.938255	0.0		True	0.0	None	0.0	None	0.0	None	0.0	None	0.0	None	0.0	None	0.0	None	0.0	None	4.5325e-06	12
