Timestamp	TOTUSJH	TOTBSQ	TOTPOT	TOTUSJZ	ABSNJZH	SAVNCPP	USFLUX	TOTFZ	MEANPOT	EPSZ	MEANSHR	SHRGT45	MEANGAM	MEANGBT	MEANGBZ	MEANGBH	MEANJZH	TOTFY	MEANJZD	MEANALP	TOTFX	EPSY	EPSX	R_VALUE	CRVAL1	CRLN_OBS	LAT_MIN	LON_MIN	LAT_MAX	LON_MAX	QUALITY	NOAA_AR	IS_TMFI	BFLARE	BFLARE_label	CFLARE	CFLARE_label	MFLARE	MFLARE_label	XFLARE	XFLARE_label	BFLARE_loc	BFLARE_label_loc	CFLARE_loc	CFLARE_label_loc	MFLARE_loc	MFLARE_label_loc	XFLARE_loc	XFLARE_label_loc	XR_MAX	XR_QUAL
2014-01-19 01:24:00	670.9795433478191	9507552544.6216	9.999518179774198e+22	13788990871544.154	125.36711343438827	3392517607463.4062	1.403515086236034e+22	-6.374175873505394e+24	3362.4380897063093	-0.5048272741909128	25.797289826132086	10.873933818604028	30.76677926397093	89.41748520207929	90.2037267756468	35.17767242583408	0.005598745687495011	-3.0676687476386406e+23	0.1194294009826266	0.017525223266659288	-2.0206313103982693e+24	0.024295577698570943	0.16003163653095076	4.176592594526052	366.0495	311.681366	-22.540516	37.962551	-12.527121	64.334526	0.0	11949.0	True	0.0	None	0.0	None	0.0	None	0.0	None	0.0	None	0.0	None	0.0	None	0.0	None	5.3028e-07	12
2014-01-19 01:36:00	650.7299122625683	9521190375.7959	9.999886382558392e+22	13317936621135.936	116.6779525251186	2790582676646.588	1.4037878604235555e+22	-6.388909798429464e+24	3372.652758988472	-0.5052693936147407	25.934537074675042	10.808026516169493	30.76697142557796	89.40470056438568	90.02238349177101	35.063735756464055	0.005226336059355815	-2.802552908974291e+23	0.15121947602501454	0.016283108283231547	-2.003188281953684e+24	0.02216409768750786	0.1584229172820222	4.160967625734415	366.051788	311.571838	-22.536293	38.080502	-12.593642	64.439499	0.0	11949.0	True	0.0	None	0.0	None	0.0	None	0.0	None	0.0	None	0.0	None	0.0	None	0.0	None	5.0585e-07	12
2014-01-19 01:48:00	660.3851289717381	9498065377.6217	1.0007181048042893e+23	13431002084996.285	119.22541068596523	2947908335728.76	1.3969083303267003e+22	-6.343042350792347e+24	3386.4898322887598	-0.5028633788430776	25.92544419669003	10.871421509145655	30.939082033004627	89.19989064112511	89.67030006204064	35.10018863576653	0.005358204605903791	-2.8176991088568462e+23	0.12620337143970825	0.01670491100411532	-2.0028330227169008e+24	0.02233814021856384	0.1587804913419987	4.163213064202111	366.054077	311.462372	-22.533966	38.197144	-12.978793	64.542259	0.0	11949.0	True	0.0	None	0.0	None	0.0	None	0.0	None	0.0	None	0.0	None	0.0	None	0.0	None	5.3353e-07	12
2014-01-19 02:00:00	648.1091090288335	9506281062.2953	9.950099571064643e+22	13333224617030.127	121.9742855863532	3362788902033.422	1.4001872273071411e+22	-6.390464697419651e+24	3356.012192363234	-0.5061851036341707	25.95047935569869	11.48936170212766	31.089311929485632	89.26753795701912	89.80956809643551	34.85662943456976	0.005463818562370239	-2.799651797918682e+23	0.08605251682648753	0.0170379587052523	-2.023530996300877e+24	0.0221758839547502	0.16028274868384787	4.1793405640903165	366.056427	311.352936	-22.528843	38.310799	-12.978456	64.650764	0.0	11949.0	True	0.0	None	0.0	None	0.0	None	0.0	None	0.0	None	0.0	None	0.0	None	0.0	None	7.2023e-07	12
2014-01-19 02:12:00	648.3978427674732	9515931760.3991	9.941817058458013e+22	13396526226097.527	118.7633073515766	3204307667495.6904	1.4070805315087325e+22	-6.405043020408033e+24	3329.061032676487	-0.5068252484289384	25.89757711088246	10.921865967003157	31.133853506152157	88.51496452720859	89.2618349174414	34.56710599954246	0.005281420703142998	-2.694721343680902e+23	0.1812530200318571	0.016565252932193932	-2.014372349568744e+24	0.02132308573269865	0.15939545811723907	4.163896588744895	366.058807	311.243561	-22.524567	38.42841	-12.982298	64.7556	0.0	11949.0	True	0.0	None	0.0	None	0.0	None	0.0	None	0.0	None	0.0	None	0.0	None	0.0	None	9.098399999999999e-07	12
2014-01-19 02:24:00	647.9504246557502	9486741038.4242	9.897133958995405e+22	13269505909615.238	118.46416200238035	3137389004430.615	1.4015101672523234e+22	-6.385359812667675e+24	3336.6526340515393	-0.5068224377547098	25.77544282082873	11.01410342511753	31.02712394259432	89.02971262549677	89.52639119618576	34.93634474017336	0.005304444633608577	-2.740314630780201e+23	0.16486096352534166	0.016574590745662515	-2.0033916858603327e+24	0.0217505823028426	0.15901435279980775	4.20268364808793	366.061249	311.134186	-22.519165	38.54443	-12.980268	64.854202	0.0	11949.0	True	0.0	None	0.0	None	0.0	None	0.0	None	0.0	None	0.0	None	0.0	None	0.0	None	9.9676e-07	12
2014-01-19 02:36:00	641.7845166368803	9514124830.6864	9.896413870946857e+22	13275619224492.64	115.65432381971507	3194929514144.669	1.3992887076460465e+22	-6.399058425283661e+24	3349.758496695053	-0.5064479424484672	25.911104597564375	11.112110042254786	31.204795663192677	89.33540527235563	89.83763430166195	35.066871440507015	0.005199115478521693	-2.8357859700196e+23	0.0865421073948382	0.016139256543697137	-2.0098171157637968e+24	0.02244358270063761	0.15906523668459344	4.24340155140413	366.06366	311.024872	-22.515043	38.649998	-12.97669	64.96417199999999	0.0	11949.0	True	0.0	None	0.0	None	0.0	None	0.0	None	0.0	None	0.0	None	0.0	None	0.0	None	8.656e-07	12
2014-01-19 02:48:00	639.480267711893	9531695434.4768	9.901498001582574e+22	13275791658511.824	115.08253669784895	2892364518034.641	1.4014304548450757e+22	-6.435023043280832e+24	3361.906271282125	-0.5083554022411725	25.70748773416955	10.659692474184967	31.054539303962397	89.4394292740152	89.81514413844545	35.223998905472826	0.005189274324653874	-2.8987746975736675e+23	0.08217799934068559	0.016009050769274637	-2.0313677902439496e+24	0.022899805757964947	0.16047445101031604	4.18858853120581	366.066193	310.915588	-22.510647	38.769531	-12.97731	65.07283000000001	0.0	11949.0	True	0.0	None	0.0	None	0.0	None	0.0	None	0.0	None	0.0	None	0.0	None	0.0	None	7.698999999999998e-07	12
2014-01-19 03:00:00	661.2335535228174	9586602538.106102	9.971234578412167e+22	13623727551950.8	121.94140031086573	3569750297142.5684	1.4120649402251051e+22	-6.470101593669344e+24	3367.2123740685565	-0.5081990684730502	25.661034649656447	10.776751278141537	30.88352826106903	89.47076250721241	90.00845516949144	34.921524820165274	0.00546920525255049	-2.802103886699592e+23	0.1349692339197213	0.016870622734676797	-2.0419309434064347e+24	0.022009338870023026	0.16038502460931822	4.164610417400022	366.068726	310.806335	-22.506411	38.888714	-12.982615	65.191422	0.0	11949.0	True	0.0	None	0.0	None	0.0	None	0.0	None	0.0	None	0.0	None	0.0	None	0.0	None	8.3586e-07	12
2014-01-19 03:12:00	652.9996579163252	9524647316.7939	9.757713632477698e+22	13338050756396.582	121.39743878918304	3942701997590.16	1.404960725001357e+22	-6.520635286852447e+24	3347.3492050118684	-0.5154997799673325	25.552934604484662	10.523917995444194	30.66326390291903	89.37766327588852	89.76493857459482	34.93259997680813	0.0055306350245641475	-2.551106037314788e+23	0.16959940155749886	0.016820338784838084	-2.0288733977315125e+24	0.02016819746935903	0.16039599580442476	4.092869272860428	366.071259	310.697113	-22.500271	39.008575	-12.979703	65.300415	0.0	11949.0	True	0.0	None	0.0	None	0.0	None	0.0	None	0.0	None	0.0	None	0.0	None	0.0	None	7.6682e-07	12
2014-01-19 03:24:00	651.2820761578936	9564464755.5996	9.792671320640104e+22	13410974043964.145	120.45372802547796	3611321671938.0337	1.4131282083606828e+22	-6.566029814535906e+24	3327.2062521926514	-0.5169275455583872	25.79868589642883	10.851908672502482	31.00714492515684	90.31885388561605	90.82685786778386	35.360758302326886	0.005435637546276081	-2.6294366961287627e+23	0.08811062810051655	0.016604773910531497	-2.0225884280939367e+24	0.020700915102790585	0.15923346395637628	4.1161924845849285	366.073792	310.587891	-22.494963	39.127628	-12.979566	65.404381	0.0	11949.0	True	0.0	None	0.0	None	0.0	None	0.0	None	0.0	None	0.0	None	0.0	None	0.0	None	6.678e-07	12
2014-01-19 03:36:00	648.2751113962032	9477764080.0342	9.731274777641406e+22	13500742253645.045	129.70892381670194	4366174808746.8687	1.3923821747382402e+22	-6.484288308708453e+24	3351.7175429349104	-0.5151621999906734	26.070432268273372	11.270698014820235	31.13130543001944	90.2992762362244	91.00723828429386	35.48314644588897	0.005933076745801022	-2.663531576817195e+23	0.0966954802135512	0.018064869581911	-2.010326969040525e+24	0.021161162513624883	0.15971598034600346	4.161917340878445	366.076416	310.478699	-22.491365	39.247757	-12.981096	65.514206	0.0	11949.0	True	0.0	None	0.0	None	0.0	None	0.0	None	0.0	None	0.0	None	0.0	None	0.0	None	5.604e-07	12
2014-01-19 03:48:00	658.7529902039317	9531531791.9399	9.749106005478726e+22	13626771257528.57	125.25844881125558	3618063170941.085	1.4031088381166694e+22	-6.553395405594863e+24	3345.768428860943	-0.5177155089400991	25.891803773371173	10.997675584522128	30.989202354315022	91.3426254653586	92.12963945477198	35.705480240505544	0.005709136226584119	-2.785915388751842e+23	0.09195203998067383	0.017317562087350604	-2.0299896281027727e+24	0.022008615596738786	0.16036833555916846	4.1569774046293935	366.079071	310.369568	-22.487211	39.368412	-12.984226	65.62526700000001	0.0	11949.0	True	0.0	None	0.0	None	0.0	None	0.0	None	0.0	None	0.0	None	0.0	None	0.0	None	5.395899999999999e-07	12
2014-01-19 04:00:00	657.7530917429273	9510480653.2319	9.743941492176271e+22	13465576375424.547	120.6660075107388	3237480531147.549	1.3852211631565035e+22	-6.503001680946786e+24	3429.656164166522	-0.5148716817359055	25.943227327261802	11.17655307810966	31.11963619588744	92.42226787925364	93.09765888786163	36.354626292557455	0.005640707157383079	-2.7852481915981333e+23	0.08226231898032126	0.0167509305754325	-2.0163909967642489e+24	0.02205205366410477	0.15964667925320242	4.167176878169279	366.081726	310.260468	-22.482128	39.487087	-12.984426	65.728577	0.0	11949.0	True	0.0	None	0.0	None	0.0	None	0.0	None	0.0	None	0.0	None	0.0	None	0.0	None	5.3796e-07	12
2014-01-19 04:12:00	665.2782744822081	9544452629.7418	9.789867923542432e+22	13705262171586.686	129.28130634380622	4608719652433.668	1.3857066699092593e+22	-6.537328596033068e+24	3478.0104435222065	-0.5157470567400957	25.845094397054762	10.662892191554613	30.824543316938072	93.23153084548572	93.70976733959236	36.78309441622781	0.006099901214674256	-2.580851206617734e+23	0.0713670642526578	0.017875024552099127	-2.0222876872001893e+24	0.02036101435232931	0.1595435975465776	4.1879828842982985	366.084351	310.151367	-22.477345	39.608166	-12.989413	65.840485	0.0	11949.0	True	0.0	None	0.0	None	0.0	None	0.0	None	0.0	None	0.0	None	0.0	None	0.0	None	5.2973e-07	12
2014-01-19 04:24:00	671.6495504401762	9588728430.0855	9.824573405993175e+22	13783997907662.32	133.6244651776181	4449436611144.057	1.3898462574398138e+22	-6.576555417663816e+24	3484.257970447981	-0.5164460630412018	25.876361614666372	10.61605124340618	30.98846481246854	93.1409986778178	93.74407900993424	36.774813029065655	0.006293837557233202	-2.519946386831617e+23	8.844869602683455e-05	0.01837926027752083	-2.011673250079525e+24	0.01978872385167844	0.15797338639289146	4.225938845798571	366.087128	310.042328	-22.471556	39.724068	-12.990496	65.954193	0.0	11949.0	True	0.0	None	0.0	None	0.0	None	0.0	None	0.0	None	0.0	None	0.0	None	0.0	None	5.3979e-07	12
2014-01-19 04:36:00	678.2232080124393	9593704305.5503	9.888341244717897e+22	13937777726871.225	127.21031006243042	4110009609172.951	1.3916365311898284e+22	-6.56971939537056e+24	3507.5344868068073	-0.5156417517727051	26.012027354172684	11.225739589221783	30.833052845376482	93.96792913724731	94.2647266818178	36.63550897387215	0.005993136250938964	-2.33451501794934e+23	-0.07114441659726659	0.017497581480286958	-2.0336045765965725e+24	0.018323056754042496	0.15961281801901078	4.266589244972333	366.089844	309.933258	-22.466431	39.846542	-12.99055	66.049736	0.0	11949.0	True	0.0	None	0.0	None	0.0	None	0.0	None	0.0	None	0.0	None	0.0	None	0.0	None	6.0716e-07	12
2014-01-19 04:48:00	669.3606239272866	9561849663.8292	9.78949564145381e+22	13591224031064.44	122.18367313357716	3538611005809.5527	1.375405685436822e+22	-6.553679599745079e+24	3536.613977981814	-0.5160964414262255	25.904847376206003	11.05407091109725	31.13274570476352	94.41595323394137	94.87623795277516	37.01998314333966	0.005862096297729557	-2.2938337583970824e+23	-0.06590298138287022	0.01685677278748115	-2.0612484601028755e+24	0.01806373689641658	0.16232148352137324	4.259544610823103	366.09259	309.824249	-22.471369	39.974014	-12.994742	66.172684	0.0	11949.0	True	0.0	None	0.0	None	0.0	None	0.0	None	0.0	None	0.0	None	0.0	None	0.0	None	6.070300000000001e-07	12
2014-01-19 05:00:00	668.5817078634295	9520201196.0815	9.763767595450045e+22	13346483845132.46	120.13710076833854	3748044539787.7344	1.3609044904452404e+22	-6.51022078181208e+24	3616.3258574725924	-0.5149168363296356	25.843752298199398	10.973930152484014	30.867162287041825	95.55856412272159	95.90143154224418	37.79551138209919	0.005909350751025015	-1.9846175488784025e+23	0.004857852111200491	0.016659893614201126	-2.0654963565850573e+24	0.01569705581180458	0.16336755465413438	4.27981195854586	366.095337	309.71524	-22.465302	40.094536	-12.998262	66.284233	0.0	11949.0	True	0.0	None	0.0	None	0.0	None	0.0	None	0.0	None	0.0	None	0.0	None	0.0	None	5.6148e-07	12
2014-01-19 05:12:00	664.5352152949455	9485169309.580502	9.714462806181904e+22	13181754703704.787	121.2982973957115	3648528003867.067	1.3518755537570171e+22	-6.48899701803934e+24	3635.798995747337	-0.5151336893293471	25.942633025896136	11.093990755007704	30.950606071139173	94.66684251644355	95.42795237000944	37.205531642370026	0.006029341753440278	-1.9656756299070587e+23	-0.013810617108774062	0.016880726439851	-2.0455325920687555e+24	0.015604657182671438	0.16238607412924722	4.312029986006047	366.09814500000016	309.606232	-22.460752	40.230953	-12.994581	66.388565	0.0	11949.0	True	0.0	None	0.0	None	0.0	None	0.0	None	0.0	None	0.0	None	0.0	None	0.0	None	5.5967e-07	12
2014-01-19 05:24:00	679.7538062766869	9527279444.1798	9.784856224942464e+22	13382057209213.715	126.18046967628253	4217994501492.002	1.357643145061306e+22	-6.519511074386159e+24	3669.258375534822	-0.5152685999738327	25.807953608809015	10.861553784860556	30.632216547103127	95.08452706829542	95.64828308921595	37.48222431538112	0.006283887932085783	-2.0281870458248126e+23	-0.0700049381558995	0.017480892734687614	-2.0181236426049303e+24	0.016029746520303475	0.15950210560797967	4.259186665876979	366.100952	309.497253	-22.45526700000001	40.361477	-12.999302	66.502052	0.0	11949.0	True	0.0	None	0.0	None	0.0	None	0.0	None	0.0	None	0.0	None	0.0	None	0.0	None	6.263499999999999e-07	12
2014-01-19 05:36:00	685.7509224726002	9498358485.5723	9.69828220526907e+22	13222225799286.78	122.82335526440028	3644730092725.5264	1.3590795338520008e+22	-6.51014344856455e+24	3632.632131153103	-0.5160947924872873	25.53199672113768	10.86902452370293	30.440553440000812	94.42365046640155	94.84777132908856	37.039098875373455	0.0061103106942142354	-1.772628312072343e+23	-0.10620534740028564	0.017058767537589874	-2.0100252367461364e+24	0.01405259727537623	0.15934572957550427	4.281309538676078	366.10376	309.388306	-22.449503	40.51725	-13.004618	66.615273	0.0	11949.0	True	0.0	None	0.0	None	0.0	None	0.0	None	0.0	None	0.0	None	0.0	None	0.0	None	1.0088e-06	12
2014-01-19 05:48:00	659.9193290247315	9370230056.387	9.63965222141463e+22	12753529882834.582	111.43723672472356	3030483531366.581	1.331837711359926e+22	-6.368467921530336e+24	3702.5779620138374	-0.5117669690184121	25.54907272468645	11.089573556417058	30.528930370725885	93.74047268088906	94.2259879327621	36.914385072224654	0.00568441321795162	-1.430492546949336e+23	-0.04641140006978331	0.015733495646603042	-1.9773623245109247e+24	0.011495368179224063	0.15889986978579104	4.326271713320616	366.106537	309.279327	-22.445713	40.680695	-13.006276	66.71635400000001	0.0	11949.0	True	0.0	None	0.0	None	0.0	None	0.0	None	0.0	None	0.0	None	0.0	None	0.0	None	1.4721e-06	12
2014-01-19 06:00:00	644.9369660173161	9362142393.9561	9.550237217613102e+22	12336262691437.262	113.08506919610231	3026163383137.737	1.3337349192757212e+22	-6.411705121055859e+24	3677.049180780765	-0.5156865609478081	25.31576195411056	10.891240987881577	30.302403446262808	93.90953870653853	94.53297724123276	36.21528689135796	0.005782332116178469	-1.553734927553752e+23	-0.06234345988036955	0.01593861651635459	-1.96952124546192e+24	0.012496523253750952	0.15840647980683276	4.30288518284277	366.109375	309.17038	-22.441647	40.863697	-13.007927	66.835815	66560.0	11949.0	False	0.0	None	0.0	None	0.0	None	0.0	None	0.0	None	0.0	None	0.0	None	0.0	None	1.2461e-06	12
2014-01-19 06:12:00	630.7395561634171	9278875164.6373	9.370326738488719e+22	11947874517162.314	113.31664191315168	3161042471261.7383	1.3162842788155154e+22	-6.381113675483994e+24	3680.420239641509	-0.5178316513596416	24.960898120977305	10.416775337749726	30.12166110857049	94.07293485224899	94.72377938833726	36.055990900442815	0.005911144596408539	-1.380919944995506e+23	-0.08420953417785104	0.016092055357744377	-1.9605144424849569e+24	0.011206257902281469	0.15909706093574807	4.289951168617197	366.112244	309.061432	-22.435295	41.049892	-13.012527	66.9356	66560.0	11949.0	False	0.0	None	0.0	None	0.0	None	0.0	None	0.0	None	0.0	None	0.0	None	0.0	None	9.0652e-07	12
2014-01-19 06:24:00	620.7058885266001	9272310238.3903	9.297616188146364e+22	11555948533088.805	114.6828403909347	3237831513168.1045	1.3128346075499671e+22	-6.396723660227186e+24	3663.519045104767	-0.5194660411248582	24.68248528144981	10.31397174254317	30.06420564186449	93.905052881961	94.82406883138485	35.70259660817445	0.006001195206223689	-1.3943452307570266e+23	-0.028885656539741088	0.016279815696362998	-1.9385885817512487e+24	0.011323218501468838	0.15742917615678415	4.291792840856241	366.115051	308.952484	-22.433214000000003	41.349545	-13.015225	67.043938	0.0	11949.0	True	0.0	None	0.0	None	0.0	None	0.0	None	0.0	None	0.0	None	0.0	None	0.0	None	8.5275e-07	12
2014-01-19 06:36:00	616.6053219034843	9216531485.0755	9.26060305064704e+22	11392077549827.725	111.62736666068972	3091700167460.592	1.3031383344484912e+22	-6.357487713431832e+24	3666.780004913821	-0.519404383549663	24.76443400370037	10.580007361834149	30.059695840507683	93.88525378144242	94.74157956605605	35.7488293806991	0.005869872569842232	-1.157936800835675e+23	0.04032773701505121	0.015942623474564703	-1.9268146119866523e+24	0.009460300630339109	0.15742003773581367	4.275815931469876	366.117889	308.843536	-22.428749	41.572853	-13.021457	67.16020999999999	0.0	11949.0	True	0.0	None	0.0	None	0.0	None	0.0	None	0.0	None	0.0	None	0.0	None	0.0	None	7.675700000000002e-07	12
2014-01-19 06:48:00	603.5128708764174	9186044107.466202	9.157428256716654e+22	11234568888974.688	109.4731056329832	2980558483229.938	1.305373367113364e+22	-6.357913508252415e+24	3589.8714744748327	-0.5211630433133772	24.550138573930806	10.37588504789671	30.04513836634468	92.45085201670037	93.31805012686674	35.47032168423448	0.005699646255687156	-1.2513115235189293e+23	0.06696360036895682	0.015669021674866224	-1.90468223396984e+24	0.010257096465432651	0.15612826256793333	4.300379458299276	366.120697	308.734589	-22.422392	41.705433	-13.015916	67.256355	0.0	11949.0	True	0.0	None	0.0	None	0.0	None	0.0	None	0.0	None	0.0	None	0.0	None	0.0	None	2.6947000000000002e-06	12
2014-01-19 07:00:00	606.6816538287882	9252492544.374302	9.17434232900107e+22	11423292906711.336	98.31970146847898	2444135935600.1084	1.327558189301696e+22	-6.4351944914097e+24	3508.462222188851	-0.5237095733189142	24.376354080997015	10.096495683087863	29.805031405176702	91.61514635523571	92.26539768149658	35.06212899807683	0.004993382502208175	-1.1596115539732623e+23	0.0008540540037526525	0.0139479251102735	-1.8671691417530968e+24	0.009437161113897963	0.1519541259937192	4.30642853463283	366.123505	308.62561	-22.420414	41.837395	-13.005974	67.371628	0.0	11949.0	True	0.0	None	0.0	None	0.0	None	0.0	None	0.0	None	0.0	None	0.0	None	0.0	None	2.755e-06	12
2014-01-19 07:12:00	601.2343866764454	9225994849.878502	9.19400067052062e+22	11352296900647.725	96.08547421586285	2502221349561.6333	1.3264895125803497e+22	-6.388600628650753e+24	3495.7397947723484	-0.5214107935203596	24.265023227687394	10.270652393455867	29.885509339143148	91.214095799071	91.74222724905088	34.606710821776126	0.004852066566472899	-1.1146326070269744e+23	0.03936145975964488	0.013690948885071892	-1.8560082375526705e+24	0.009097163931443698	0.1514796094128434	4.301333963523397	366.126312	308.516663	-22.420433	41.970249	-13.000962	67.497665	0.0	11949.0	True	0.0	None	0.0	None	0.0	None	0.0	None	0.0	None	0.0	None	0.0	None	0.0	None	2.1387999999999997e-06	12
2014-01-19 07:24:00	602.841194691719	9247107960.9563	9.234692402032286e+22	11342634279874.2	100.15829433601944	2551072834947.499	1.3371053556700147e+22	-6.404862230477249e+24	3473.675144033645	-0.5215444355524478	24.172411705683608	10.06594065341193	29.784729518127843	90.07760926500008	90.5854025667612	34.3912699040824	0.0050034116463192856	-1.2285556730358366e+23	0.009056743358171892	0.014237257748269347	-1.87279193873794e+24	0.010004061789015074	0.1525004253719088	4.29967664536655	366.12915	308.407684	-22.417633	42.105206	-12.99108	67.59764100000001	0.0	11949.0	True	0.0	None	0.0	None	0.0	None	0.0	None	0.0	None	0.0	None	0.0	None	0.0	None	1.5079e-06	12
2014-01-19 07:36:00	611.146733166559	9322730569.6927	9.343302074164066e+22	11641628241320.822	95.116193492379	2102402291885.2808	1.359299351636092e+22	-6.437940519857845e+24	3406.966074906999	-0.51998558197261	24.20960373067295	9.907990314769975	29.84943294109167	88.80119966646156	89.43400629706717	33.608648738678305	0.0046061110650062465	-1.3483662487665017e+23	0.06319606407371248	0.01342461550219612	-1.87302002310894e+24	0.01089061022565266	0.15128182743511262	4.347362925995139	366.131897	308.298706	-22.413582	42.232597	-12.987747	67.72157299999999	0.0	11949.0	True	0.0	None	0.0	None	0.0	None	0.0	None	0.0	None	0.0	None	0.0	None	0.0	None	1.1697e-06	12
2014-01-19 07:48:00	612.9495597016357	9347336955.2893	9.34194442516797e+22	11713946418918.46	97.734567228976	2337739027225.6167	1.3662682638208438e+22	-6.478541958682408e+24	3381.7427144087897	-0.5218874760259158	24.318786480145945	10.22066246815057	29.942779737502583	88.2883195518392	88.97334854485159	33.70217877828657	0.004698777270623847	-1.3223602953431096e+23	0.08296358898725632	0.013742385350467642	-1.886871911328016e+24	0.010652447438556928	0.1519994507510216	4.3579383379048044	366.134735	308.189728	-22.408934	42.363766	-12.984159	67.829536	0.0	11949.0	True	0.0	None	0.0	None	0.0	None	0.0	None	0.0	None	0.0	None	0.0	None	0.0	None	8.985200000000002e-07	12
2014-01-19 08:00:00	615.2904065962533	9356360681.1633	9.310921338655753e+22	11748612001132.75	101.92978252717121	2441355484082.0264	1.3617839083419876e+22	-6.511409105984611e+24	3396.310745865689	-0.5240293376018823	24.25751303017283	10.0373007799254	29.824259239746972	88.6367879444419	89.11212368398517	34.235448451403215	0.004937740760895761	-9.460474455199363e+22	0.04749615123241527	0.014296535625258146	-1.9213711958681623e+24	0.007613661008645841	0.15462933731697695	4.303188705392227	366.137512	308.080719	-22.413809	42.4608	-12.987644	67.948639	0.0	11949.0	True	0.0	None	0.0	None	0.0	None	0.0	None	0.0	None	0.0	None	0.0	None	0.0	None	6.9902e-07	12
2014-01-19 08:12:00	617.9435966217742	9284422611.1667	9.312251454726926e+22	11655458424220.836	104.19690227358306	3132107145078.18	1.346134892968862e+22	-6.399984000508973e+24	3448.922541924087	-0.519052723729141	24.189276544464906	10.033938320790911	29.834553982144328	88.40959878870544	89.16519674021447	34.55500994984944	0.005125025934463779	-8.102981655201866e+22	0.05245888104944326	0.014776005875202166	-1.9167754135473832e+24	0.006571695645059911	0.15545468537104118	4.339361980624041	366.140228	307.97168	-22.407576	42.5453	-12.986558	68.06478100000001	0.0	11949.0	True	0.0	None	0.0	None	0.0	None	0.0	None	0.0	None	0.0	None	0.0	None	0.0	None	5.821100000000001e-07	12
2014-01-19 08:24:00	612.5244076824857	9293098644.1577	9.305100373623914e+22	11508013395523.312	98.80458102773638	2681993398232.9395	1.35203695496151e+22	-6.431265332814148e+24	3434.617699210963	-0.5211027789754001	24.24688655265452	10.279411764705884	29.794273251991203	88.27404815733259	88.82377376956673	34.18846027265975	0.004843361815085118	-9.892554322575344e+22	0.04683258813787882	0.013979381907793477	-1.9150796998111447e+24	0.008015588351419198	0.15517216315724386	4.332894261275063	366.142944	307.86264	-22.402206	42.628601	-12.982174	68.18486800000001	0.0	11949.0	True	0.0	None	0.0	None	0.0	None	0.0	None	0.0	None	0.0	None	0.0	None	0.0	None	5.1242e-07	12
2014-01-19 08:36:00	629.904856097219	9286799641.9964	9.266013163482972e+22	11949983139397.33	91.7059931860548	1929307070889.3333	1.3559717025820422e+22	-6.452469672649849e+24	3399.0293333738696	-0.5231754758974139	24.424401340798287	10.32298923369221	29.871410118007738	87.45528057523907	88.07134008055296	34.413991730557086	0.004467796608499211	-8.595037976053425e+22	0.06533511201419898	0.012966366296511649	-1.932598619501212e+24	0.006968979804025056	0.1566978620235817	4.3761069703618105	366.145691	307.753601	-22.399687	42.720066	-12.982746	68.297188	0.0	11949.0	True	0.0	None	0.0	None	0.0	None	0.0	None	0.0	None	0.0	None	0.0	None	0.0	None	4.681300000000001e-07	12
2014-01-19 08:48:00	638.8717587648955	9281796240.3783	9.325956333239073e+22	12194817987005.72	103.86791652866623	2898798300976.845	1.3571755441497905e+22	-6.428960179079337e+24	3397.1866566638746	-0.5215503298668188	24.572019689256194	10.251076387209134	30.022825974821487	86.72168521686888	87.83842712415672	34.38569364399323	0.0050250564358329105	-8.300334404212326e+22	0.02899952347936746	0.014709615946015981	-1.9503902654521844e+24	0.006733658361439386	0.1582256940439304	4.391522222051663	366.148407	307.644501	-22.399853	42.835373	-12.986604	68.395721	0.0	11949.0	True	0.0	None	0.0	None	0.0	None	0.0	None	0.0	None	0.0	None	0.0	None	0.0	None	5.8202e-07	12
2014-01-19 09:00:00	641.1866116687905	9319595153.6977	9.3989194446821e+22	12152363170048.318	110.14717346758495	2889525701199.1826	1.3565696713350065e+22	-6.443898394942089e+24	3441.4125000767594	-0.5206419470678532	24.68506372902463	10.619985412107953	30.05527766163191	86.35962328736366	87.3337509922912	34.469619527340804	0.005356050253711889	-1.1552185089548497e+23	-0.004552810482123846	0.0155445924248286	-1.949980889648088e+24	0.009333716594028948	0.15755087757565564	4.399099060288057	366.151062	307.5354	-22.393879	42.928574	-12.981601	68.517761	0.0	11949.0	True	0.0	None	0.0	None	0.0	None	0.0	None	0.0	None	0.0	None	0.0	None	0.0	None	5.9513e-07	12
2014-01-19 09:12:00	633.6683255582352	9301047654.855202	9.373059516842529e+22	11842155525459.387	109.60264728688674	2618445264671.353	1.3400308453004332e+22	-6.434690693420468e+24	3515.8872698669047	-0.5209347071935446	24.81203181661061	10.725316329580552	30.10001227868441	86.93208279283651	87.35727256006103	34.75307777942844	0.005459930621046465	-9.756897597276792e+22	-0.040216049818133225	0.015495607229055996	-1.9589575891580503e+24	0.007898913615462359	0.15859177180902895	4.40565852425834	366.153687	307.4262700000001	-22.396589	43.045807	-12.976529	68.635643	0.0	11949.0	True	0.0	None	0.0	None	0.0	None	0.0	None	0.0	None	0.0	None	0.0	None	0.0	None	6.931e-07	12
2014-01-19 09:24:00	641.7314716853177	9349927723.5017	9.501251022554658e+22	11932059086574.525	112.81716269747056	2889830503625.4263	1.329679952836198e+22	-6.432624620733957e+24	3643.470498367714	-0.5180449487429258	25.112342788307718	11.142798940721123	30.20780659817093	88.68483752462065	89.37275931232851	35.24973485055515	0.0057457174788627715	-1.0259200482921137e+23	-0.0837353458624801	0.015897280283210514	-1.9483833000678924e+24	0.008262143839681838	0.15691108782593285	4.391686290020413	366.156311	307.317108	-22.39393	43.148483	-12.977001	68.75811800000001	0.0	11949.0	True	0.0	None	0.0	None	0.0	None	0.0	None	0.0	None	0.0	None	0.0	None	0.0	None	6.033600000000001e-07	12
2014-01-19 09:36:00	641.5145062726756	9300974557.9293	9.35862548408649e+22	12017386876173.168	117.60581092190128	3685862391615.3857	1.3192748301469981e+22	-6.454541765592672e+24	3642.0095222229547	-0.5225459578392972	25.05839745905909	11.576825675745518	30.2579586994976	89.43011584044437	90.328329149551	35.470919743929784	0.0060784479492402965	-1.1970897723853816e+23	-0.022383614259544708	0.016612184815654008	-1.9032341070996187e+24	0.009691383903738788	0.15408178079942594	4.398763373022343	366.158936	307.207916	-22.390959	43.242386	-12.971982	68.875885	0.0	11949.0	True	0.0	None	0.0	None	0.0	None	0.0	None	0.0	None	0.0	None	0.0	None	0.0	None	5.556e-07	12
2014-01-19 09:48:00	635.9973489993163	9223235184.5239	9.25034715054877e+22	11690887489748.67	115.54392334872328	3033967307648.9487	1.2983486358631624e+22	-6.409057949999223e+24	3711.906168132117	-0.5232369942605355	24.911931826101675	11.265654143351984	29.972661948109213	90.8157658317041	91.78010130978302	35.91534712467336	0.006157416645282349	-1.1418737971098175e+23	-0.12476573696450564	0.016448501704852417	-1.8828144941134549e+24	0.00932228446186351	0.15371341690711568	4.3909643834933805	366.161438	307.098694	-22.385126	43.359276	-12.972423	68.98494000000001	0.0	11949.0	True	0.0	None	0.0	None	0.0	None	0.0	None	0.0	None	0.0	None	0.0	None	0.0	None	5.0499e-07	12
2014-01-19 10:00:00	618.7136791714701	9126373203.2177	9.078697513052513e+22	11326628017862.773	122.4907953907103	3823153928546.381	1.279508239627073e+22	-6.361914968717584e+24	3717.517040235603	-0.5249007220352468	24.720113931268106	11.033770188699767	30.173774803413377	91.57973596855702	92.46505581926132	35.99891612372878	0.006661090618886851	-1.1472292573601976e+23	-0.1144947268955423	0.0176032823928365	-1.8674400314668447e+24	0.009465412041646852	0.15407634740394227	4.385439770269745	366.16394	306.989441	-22.38114	43.461582	-12.969484	69.100388	0.0	11949.0	True	0.0	None	0.0	None	0.0	None	0.0	None	0.0	None	0.0	None	0.0	None	0.0	None	4.8794e-07	12
2014-01-19 10:12:00	601.8381064610187	9006306077.4186	8.958042233415189e+22	10965321636912.883	120.30308331832931	3686604753961.911	1.2514138293970923e+22	-6.250398950950335e+24	3785.6605384412373	-0.5225749084246285	24.630191289890014	11.146032102368393	30.11025740130716	91.9065608694936	92.65519554595905	36.72642293398902	0.0067517725512588	-9.140948437905872e+22	-0.12770394947116204	0.017546131633670227	-1.7987987963723853e+24	0.007642440635131977	0.15039153879060935	4.385083277044393	366.166443	306.880157	-22.380072	43.56942700000001	-12.968448	69.226486	0.0	11949.0	True	0.0	None	0.0	None	0.0	None	0.0	None	0.0	None	0.0	None	0.0	None	0.0	None	4.8903e-07	12
2014-01-19 10:24:00	617.3030648040506	8999136568.5631	8.940275541861994e+22	11039817028122.35	119.76335056212996	3737013896429.1714	1.245061788102678e+22	-6.257535820963366e+24	3841.099773533813	-0.5235883722693458	24.5448638841628	10.755449047129982	30.060723111603604	93.35521337479851	94.03793131992997	37.160187839131865	0.00683346745190745	-8.084973197330193e+22	-0.1443878785363009	0.017469699757682176	-1.8010505366156464e+24	0.006764960005582022	0.1506997555942459	4.393949192480523	366.168945	306.770844	-22.373674	43.674728	-12.963097	69.34819	0.0	11949.0	True	0.0	None	0.0	None	0.0	None	0.0	None	0.0	None	0.0	None	0.0	None	0.0	None	4.902e-07	12
2014-01-19 10:36:00	599.7228343912425	8891035928.9524	8.734053015139674e+22	10615408391128.107	121.97391049513507	4250611259775.3774	1.226506856889457e+22	-6.227375508509076e+24	3839.021358985592	-0.5273999797790161	24.214407164090066	10.454731189072444	29.92407436152391	93.48423330532906	94.25557248503151	36.92935062819123	0.007120485142739935	-5.356271721586622e+22	-0.10590652288665928	0.01796369106959481	-1.8011368288461426e+24	0.00453625703764895	0.15253930420844675	4.338273587581777	366.171356	306.66149900000005	-22.372425	43.790276	-12.958086	69.464333	0.0	11949.0	True	0.0	None	0.0	None	0.0	None	0.0	None	0.0	None	0.0	None	0.0	None	0.0	None	7.560299999999998e-07	12
2014-01-19 10:48:00	594.7788219874	8914191629.996	8.799679184459796e+22	10715991625609.523	114.36760554367235	3574585534011.455	1.228569287714956e+22	-6.214242373562502e+24	3831.1910556625417	-0.5249207726767816	24.629079883476987	11.477305579647295	30.27830374711824	92.65705378504947	93.90762988581264	37.03160600256753	0.006613137824891429	-5.232932553268792e+22	-0.1655510530834545	0.01682713632094739	-1.795945208736431e+24	0.0044202894481771065	0.15170456670080654	4.358610526234217	366.173706	306.55212400000005	-22.369375	43.914913	-12.963737	69.586143	0.0	11949.0	True	0.0	None	0.0	None	0.0	None	0.0	None	0.0	None	0.0	None	0.0	None	0.0	None	5.3052e-07	12
2014-01-19 11:00:00	590.1027299444322	8820980498.7756	8.619112500065684e+22	10695019790259.703	108.06222874827981	3402812914826.075	1.2160816278567924e+22	-6.199388348145859e+24	3794.036562124794	-0.5291994825548647	24.61410709345477	11.633345025137384	30.148257008778234	93.56735151957892	94.24028916331129	37.0749512870703	0.006317581335766138	-1.665199570165145e+22	-0.15272756026020856	0.0160249437064906	-1.7684270252039552e+24	0.0014214672503062948	0.150958548508075	4.369207167287033	366.176086	306.442688	-22.362246	44.012993	-12.962975	69.697792	0.0	11949.0	True	0.0	None	0.0	None	0.0	None	0.0	None	0.0	None	0.0	None	0.0	None	0.0	None	5.4592e-07	12
2014-01-19 11:12:00	578.4742736999432	8745542152.6057	8.63300122741312e+22	10463419806314.848	98.60573436270452	2686628701053.0293	1.2061989841013928e+22	-6.098502320719524e+24	3813.303682241242	-0.525078223644935	24.724659969685888	11.808529360004695	30.19279126672416	93.63277454459148	94.592141909139	36.95460691800031	0.005784345301971286	-1.3481094342836025e+21	-0.1784423683418243	0.014786088804526976	-1.7376758207458715e+24	0.00011607159755070748	0.14961308289218564	4.3672363060500405	366.178406	306.333221	-22.358816	44.130726	-12.959944	69.803009	0.0	11949.0	True	0.0	None	0.0	None	0.0	None	0.0	None	0.0	None	0.0	None	0.0	None	0.0	None	6.128899999999999e-07	12
2014-01-19 11:24:00	582.1241844860692	8702147340.9638	8.545104490737685e+22	10541527344994.693	101.15152363803104	3095166024331.7603	1.2109405281277832e+22	-6.090226112309859e+24	3746.5657137972094	-0.5269803480713873	24.31842377617421	11.237917782694767	29.925963676046052	93.58537330283258	94.40110557504013	36.799795643151796	0.005890148700752986	-6.888361110136527e+21	-0.17277613474564152	0.015225725811798438	-1.7181165300832123e+24	0.0005960420628922071	0.14866667186960258	4.352821347150218	366.180664	306.223724	-22.352261	44.236652	-12.954526	69.911057	0.0	11949.0	True	0.0	None	0.0	None	0.0	None	0.0	None	0.0	None	0.0	None	0.0	None	0.0	None	5.842799999999999e-07	12
2014-01-19 11:36:00	573.6095409149846	8592930185.0841	8.460072511739746e+22	10348659331065.234	103.1580678928846	3301903223176.041	1.1947764776745715e+22	-6.004082511955946e+24	3767.862255467223	-0.5261297425228706	23.99235184277879	10.681966049565268	29.779347417896037	93.24223833610876	94.42359234221216	36.81455695771445	0.0061018613446637065	-1.8364086394528763e+22	-0.13065193397366107	0.015733197978442342	-1.699926461240389e+24	0.001609220397484781	0.1489622885060682	4.376758497822772	366.182953	306.1141970000001	-22.347265	44.35247	-12.956183	70.03624	0.0	11949.0	True	0.0	None	0.0	None	0.0	None	0.0	None	0.0	None	0.0	None	0.0	None	0.0	None	5.6456e-07	12
2014-01-19 11:48:00	572.7068053607422	8596208712.6044	8.526155140786474e+22	10389913911597.44	103.97352393912122	3282394351419.9683	1.1978844937113144e+22	-5.968591537526712e+24	3743.271158215391	-0.5228202634508355	24.342544735585562	11.066410121858782	30.188990248569752	91.84005279678962	92.80183481769205	35.852526892523926	0.006062242664516427	-2.2407352734998048e+21	-0.10908588936221636	0.015885363631381492	-1.7005198429693537e+24	0.00019627776480415663	0.1489574595136436	4.396354232388026	366.18512	306.004608	-22.340153	44.458553	-12.955678	70.136971	0.0	11949.0	True	0.0	None	0.0	None	0.0	None	0.0	None	0.0	None	0.0	None	0.0	None	0.0	None	5.292799999999999e-07	12
2014-01-19 12:00:00	558.8294142496981	8543456775.2106	8.370521129868444e+22	10185334930821.742	101.01248912636551	3050022226624.7173	1.1993892993583238e+22	-5.982814956790689e+24	3662.9821521134736	-0.5273019877044032	23.81341169337286	10.141221595862149	29.78712285672407	91.88243357491363	93.17859162582606	35.292044203729475	0.005870771191814803	3.959914831759131e+21	-0.16911086518355473	0.015482873607468868	-1.6967410488690668e+24	-0.0003490114564811517	0.1495441417041998	4.423251672746752	366.187286	305.894989	-22.33629	44.57700300000001	-12.957042	70.244102	0.0	11949.0	True	0.0	None	0.0	None	0.0	None	0.0	None	0.0	None	0.0	None	0.0	None	0.0	None	5.0603e-07	12
2014-01-19 12:12:00	568.2173615460646	8579914235.1258	8.455686817001083e+22	10340797721865.94	98.73053219242195	2858386507581.76	1.206221578903383e+22	-5.963299208373591e+24	3638.090713376085	-0.5233487043486236	23.837356232050837	10.605108279526883	29.912800116710898	90.98001339561985	91.98997415428043	35.36127635710205	0.005641744696709826	-6.80443397811804e+21	-0.15904348715489044	0.015107742097483612	-1.7140023334976868e+24	0.0005971680410188682	0.15042359424577356	4.440071566346827	366.189392	305.785339	-22.329966	44.696552	-12.951851	70.353638	0.0	11949.0	True	0.0	None	0.0	None	0.0	None	0.0	None	0.0	None	0.0	None	0.0	None	0.0	None	5.199600000000001e-07	12
2014-01-19 12:24:00	563.9048906650538	8550798217.054702	8.410532943399677e+22	10162317196199.66	100.52574314633398	3217351301524.879	1.198693883690689e+22	-5.958328414962797e+24	3667.914901207661	-0.5246929763443859	23.73660038055553	10.36140391520908	29.70905765728905	91.03406672669593	91.80792461306656	35.02175506184316	0.005822516255217723	4.0259418826078846e+21	-0.190539703915311	0.015421525535631057	-1.6828922466971497e+24	-0.0003545261828250937	0.1481962188537624	4.4160757167887335	366.191467	305.675629	-22.325817	44.803314	-12.95652	70.46376	0.0	11949.0	True	0.0	None	0.0	None	0.0	None	0.0	None	0.0	None	0.0	None	0.0	None	0.0	None	5.0712e-07	12
2014-01-19 12:36:00	568.8695193783899	8478158475.454202	8.334095071832995e+22	10212608439961.676	98.87981962287157	2993378063245.6465	1.1956752299070618e+22	-5.914832982292215e+24	3625.969711778861	-0.5253254860648965	23.79526597918641	10.770208586121225	29.795143635405825	91.5875757387868	92.25675819333296	35.08273631131106	0.005713284776268072	3.335059707511948e+21	-0.07906899198519231	0.015292327988668924	-1.6755085173466737e+24	-0.00029620309941958913	0.14881017416994088	4.371748291985937	366.193481	305.5658870000001	-22.319344	44.921772	-12.958151	70.571602	0.0	11949.0	True	0.0	None	0.0	None	0.0	None	0.0	None	0.0	None	0.0	None	0.0	None	0.0	None	4.853999999999999e-07	12
2014-01-19 12:48:00	563.9707983473379	8494587399.555902	8.39575231946845e+22	10223635743737.363	95.56098611325129	3054394001107.46	1.1992884452062516e+22	-5.913325486850345e+24	3617.057210989272	-0.5241758285700241	24.10317579690673	11.402906511042454	29.92280061244029	91.396564121338	91.86096194045791	35.053379624420465	0.005467501207990119	1.6754482956400955e+20	-0.09211190531659334	0.014761594096257562	-1.7003738778018811e+24	-1.4851702321245959e-05	0.1507265054591748	4.385616808865207	366.195526	305.456116	-22.313984	45.05138400000001	-12.953897	70.681648	0.0	11949.0	True	0.0	None	0.0	None	0.0	None	0.0	None	0.0	None	0.0	None	0.0	None	0.0	None	5.0042e-07	12
2014-01-19 13:00:00	559.1394374734201	8482248284.9009	8.316498221418434e+22	10073893478532.176	96.81151465009899	3173359512011.3145	1.1938529130464506e+22	-5.94012539047882e+24	3602.079968612752	-0.5273174925510161	24.1359754151686	11.492666091458151	30.163799148657173	91.27005729911886	92.253284328021	34.92234101527434	0.005568680739148632	2.547602070215653e+19	-0.12404130551540128	0.014945715264623556	-1.6857609661092389e+24	-2.261560232107504e-06	0.14964856585585434	4.366857523025576	366.197479	305.346283	-22.306919	45.157799	-12.953589	70.798645	0.0	11949.0	True	0.0	None	0.0	None	0.0	None	0.0	None	0.0	None	0.0	None	0.0	None	0.0	None	4.708400000000001e-07	12
2014-01-19 13:12:00	563.3157935156726	8431900361.917102	8.294653486766498e+22	10248580471389.877	96.26763445280338	3203316404024.1914	1.1932589051891834e+22	-5.883736621190772e+24	3585.399692430305	-0.5254304499127165	23.866054653938647	11.096440872560274	29.98000512182233	90.96001357548842	92.29168377289757	34.88813398839354	0.0055262706344892856	2.2111548891531166e+22	-0.09079551650777837	0.014968987254945726	-1.666902990573438e+24	-0.0019746093053351088	0.14885805478502168	4.3861625392172	366.199371	305.23642	-22.299809	45.27780900000001	-12.953214	70.90975999999998	0.0	11949.0	True	0.0	None	0.0	None	0.0	None	0.0	None	0.0	None	0.0	None	0.0	None	0.0	None	4.7201999999999996e-07	12
