Timestamp	TOTUSJH	TOTBSQ	TOTPOT	TOTUSJZ	ABSNJZH	SAVNCPP	USFLUX	TOTFZ	MEANPOT	EPSZ	MEANSHR	SHRGT45	MEANGAM	MEANGBT	MEANGBZ	MEANGBH	MEANJZH	TOTFY	MEANJZD	MEANALP	TOTFX	EPSY	EPSX	R_VALUE	CRVAL1	CRLN_OBS	LAT_MIN	LON_MIN	LAT_MAX	LON_MAX	QUALITY	NOAA_AR	IS_TMFI	BFLARE	BFLARE_label	CFLARE	CFLARE_label	MFLARE	MFLARE_label	XFLARE	XFLARE_label	BFLARE_loc	BFLARE_label_loc	CFLARE_loc	CFLARE_label_loc	MFLARE_loc	MFLARE_label_loc	XFLARE_loc	XFLARE_label_loc	XR_MAX	XR_QUAL
2014-01-21 09:48:00	590.1957683490323	6927372191.910501	8.133964968164756e+22	11693401095469.06	89.6787029823736	3139321402688.23	7.284323330617861e+21	-3.5918230447339534e+24	5802.169298054539	-0.39042164878512176	36.51993829546557	28.789314134141716	44.3099065134817	117.43602700576878	119.30909149084664	68.69176092489772	0.008496324299609058	-1.817254702759577e+23	-0.5835649471837246	0.0186216685886716	-1.3663891151032455e+24	0.019753077155460555	0.14852287669983658	3.960280785655324	321.255646	280.764343	-15.503641	34.448463000000004	-9.125059	45.540997	0.0	11961.0	True	0.0	None	0.0	None	0.0	None	0.0	None	0.0	None	0.0	None	0.0	None	0.0	None	5.8871e-07	12
2014-01-21 10:00:00	583.328985072543	6927887663.8756	8.183056158602004e+22	11580442027647.744	91.22788894273857	3738812260147.0737	7.277958002021437e+21	-3.5575640300601307e+24	5902.611960575834	-0.3866691180841153	35.952919270139205	27.991186895296483	43.62745401866868	121.00499830608452	122.94879046625972	69.79086680310158	0.008739140621011453	-1.6978001553140315e+23	-0.7028011333241428	0.0189925789429794	-1.375282508947678e+24	0.01845326979897687	0.14947848313001966	3.9061879975264633	321.258942	280.65509	-15.497229999999998	34.558846	-9.120961	45.657234	0.0	11961.0	True	0.0	None	0.0	None	0.0	None	0.0	None	0.0	None	0.0	None	0.0	None	0.0	None	5.9504e-07	12
2014-01-21 10:12:00	568.8453581325688	6900048288.4986	8.140438131220302e+22	11198974815040.783	91.29130880343195	3940706808262.927	7.16996486198408e+21	-3.540919054261361e+24	6060.552863100241	-0.3864126022968978	35.99673225240008	28.05022740755389	43.53542500821646	121.5503490273212	124.0249897377264	70.21749557578296	0.009026231837396871	-1.7039350912426076e+23	-0.5293439610890763	0.01908599481954604	-1.3705577217513147e+24	0.018594663776899167	0.14956590866506214	4.030536728854945	321.262207	280.545807	-15.490864000000002	34.665896999999994	-9.116938	45.77309	0.0	11961.0	True	0.0	None	0.0	None	0.0	None	0.0	None	0.0	None	0.0	None	0.0	None	0.0	None	6.1784e-07	12
2014-01-21 10:24:00	569.220483124162	6893713200.351101	7.990045623422803e+22	11242313551288.266	90.498365560754	3670128441925.425	7.194991142340504e+21	-3.6182837197964033e+24	5952.118420787643	-0.3952182073158394	35.88091425286203	27.037989711119906	43.428473997901726	122.12299124474865	124.8717858565597	70.62066810520933	0.008953142615824495	-1.6019477499149894e+23	-0.4730940828636262	0.018818083222271475	-1.3495760054275646e+24	0.01749776874795959	0.1474116047294285	4.0075387823996245	321.2654720000001	280.436462	-15.485077	34.775951	-9.127864	45.888943	0.0	11961.0	True	0.0	None	0.0	None	0.0	None	0.0	None	0.0	None	0.0	None	0.0	None	0.0	None	6.3349e-07	12
2014-01-21 10:36:00	557.590617747109	6824473013.423	7.873159630433015e+22	11009944573450.414	93.7284035290075	3811617954280.288	7.150530074304178e+21	-3.596062333189148e+24	5890.686742797361	-0.396776178026358	36.03649544859768	26.977344992050877	43.51849867335893	121.57592885197757	124.04676969883069	69.40122859232885	0.009313235644774195	-1.633121288628494e+23	-0.4522509925269475	0.01966551277967	-1.3443937812341514e+24	0.01801925448218896	0.14833542270871225	3.80531958327405	321.268616	280.32711800000004	-15.479997	34.890839	-9.131644	46.005527	0.0	11961.0	True	0.0	None	0.0	None	0.0	None	0.0	None	0.0	None	0.0	None	0.0	None	0.0	None	6.244399999999999e-07	12
2014-01-21 10:48:00	549.7562684906736	6851733255.743	7.998870799561144e+22	10900771850265.533	106.32940156532902	4795172180650.392	7.145951008057509e+21	-3.556617354995099e+24	5965.775078828309	-0.3908627036184568	36.1368508088049	28.437004754358163	43.89277831977601	121.13263879156034	124.24462953519578	69.37963238828434	0.010531834544901844	-1.395163735494094e+23	-0.4142622299484968	0.022315090711330005	-1.347904797026145e+24	0.015332475080001925	0.1481311202752797	3.7181869259322213	321.27182	280.217712	-15.475882	35.000515	-9.127666	46.118141	0.0	11961.0	True	0.0	None	0.0	None	0.0	None	0.0	None	0.0	None	0.0	None	0.0	None	0.0	None	5.7659e-07	12
2014-01-21 11:00:00	561.7635294904513	6892773585.654301	8.169129222523201e+22	11312452690422.758	124.55706311407495	5863621424214.49	7.178002140611684e+21	-3.5086446264470586e+24	5921.4937195360035	-0.38329470333056215	36.73920396513241	28.869849826723147	44.747894876354025	118.77294646914824	121.17417560066508	68.99281353965694	0.011990475848486231	-1.2480024674347976e+23	-0.2874261081785917	0.026127004992809497	-1.3303631395365695e+24	0.013633547607117515	0.14533279918033296	3.745371115549183	321.274963	280.108276	-15.475653	35.114338000000004	-9.134452	46.246899	0.0	11961.0	True	0.0	None	0.0	None	0.0	None	0.0	None	0.0	None	0.0	None	0.0	None	0.0	None	5.7695e-07	12
2014-01-21 11:12:00	564.516649070462	6869744847.787201	8.009032420153004e+22	11394685438772.547	109.35976525665312	4437700867481.635	7.184621700404979e+21	-3.553289698824193e+24	5848.2324099606885	-0.3894731165035374	36.48283694707428	27.94802172226532	44.38067331036274	118.78290380046543	121.56013811620178	68.67189706724193	0.010605097484159534	-8.874792398163903e+22	-0.27080139596413577	0.02291378371782388	-1.333516731767925e+24	0.009727585833428032	0.1461656553371171	3.8197828910967786	321.278015	279.99881	-15.480007999999998	35.20480300000001	-9.13432	46.369408	0.0	11961.0	True	0.0	None	0.0	None	0.0	None	0.0	None	0.0	None	0.0	None	0.0	None	0.0	None	6.4715e-07	12
2014-01-21 11:24:00	573.9487135883909	6880982176.7192	8.165731787223603e+22	11729285906944.812	121.72157729084923	6037703775270.6045	7.205144381751709e+21	-3.483062039483459e+24	5913.338234611711	-0.3811519974568055	36.2794638256811	27.793806501250238	44.410883527999104	119.34431599736736	121.95280313237188	68.77902964562007	0.011706249018162073	-1.1835151303453453e+23	-0.2502121518616076	0.02561566637695069	-1.3357487620221142e+24	0.012951223688751123	0.14617118586285285	3.7301353195831495	321.281128	279.889313	-15.474835	35.314796	-9.135972	46.492123	0.0	11961.0	True	0.0	None	0.0	None	0.0	None	0.0	None	0.0	None	0.0	None	0.0	None	0.0	None	6.6081e-07	12
2014-01-21 11:36:00	595.4739234735977	6910225783.342501	8.059418982103423e+22	11756413445788.756	128.87518086647685	5870758289635.037	7.355819522474726e+21	-3.5785714437459573e+24	5727.291121201508	-0.3899464125220383	35.496366825598685	26.670441676104197	43.835345054171	118.34553873523629	120.40142254070969	68.61980826041	0.012162625600837754	-1.2508595931325495e+23	-0.14636439208824406	0.02683545658320029	-1.3806046326653256e+24	0.01363024934889188	0.15044042911592867	3.789243334277091	321.284149	279.779755	-15.470287	35.424084	-9.143324	46.604763	0.0	11961.0	True	0.0	None	0.0	None	0.0	None	0.0	None	0.0	None	0.0	None	0.0	None	0.0	None	6.04e-07	12
2014-01-21 11:48:00	587.7545258382487	6940571901.660999	8.073372983026255e+22	11853140887348.67	143.9383622944844	6724639801863.768	7.415725155262771e+21	-3.604825674921066e+24	5641.374454302943	-0.3910898125577231	35.75338455716135	27.728285077951004	44.1964431669535	117.41246425696724	120.21019123320995	68.23868040754714	0.013357309047372349	-1.2646627295796966e+23	-0.09920753192675956	0.02981646308312385	-1.3735154307125917e+24	0.013720405768883457	0.14901355593409935	3.721749074343464	321.287048	279.670166	-15.46584	35.535545	-9.145739	46.72253	0.0	11961.0	True	0.0	None	0.0	None	0.0	None	0.0	None	0.0	None	0.0	None	0.0	None	0.0	None	5.6637e-07	12
2014-01-21 12:00:00	598.6508529351855	6999021182.214001	8.065922104207152e+22	11823114422018.346	143.84910353082353	6515520911470.122	7.541093805186064e+21	-3.6885626921463367e+24	5616.882980311822	-0.3968326680333337	35.05784591694727	26.477388328863405	43.483972339465225	118.72319784826212	121.10334194436052	68.22334534072236	0.01330457857295815	-1.2893002286878642e+23	-0.12621494411609632	0.029428301306809863	-1.3993557057056655e+24	0.01387088935035768	0.1505491717424813	3.791528480553265	321.2900390000001	279.56054700000004	-15.461522	35.647488	-9.146063	46.84780900000001	0.0	11961.0	True	0.0	None	0.0	None	0.0	None	0.0	None	0.0	None	0.0	None	0.0	None	0.0	None	5.481e-07	12
2014-01-21 12:12:00	620.7237922309932	7038127513.4069	8.132241503572236e+22	11997516117484.44	162.36329582578534	8238726357082.122	7.582310265010837e+21	-3.735285096292697e+24	5681.982739661264	-0.3996263806122508	35.074537761343045	26.16683678203582	43.106180249701005	120.42234868936649	122.42660335649731	68.30161592504363	0.01506572291229334	-1.332281216904067e+23	-0.04254103976871038	0.032964660220195195	-1.459163657650027e+24	0.014253656868052285	0.15611132114289364	3.798685099801775	321.292999	279.450897	-15.456743	35.740318	-9.152935	46.971447	0.0	11961.0	True	0.0	None	0.0	None	0.0	None	0.0	None	0.0	None	0.0	None	0.0	None	0.0	None	5.4203e-07	12
2014-01-21 12:24:00	642.6514250597954	7182611947.328402	8.427298655407723e+22	12685804949682.488	154.9516914540017	8337268258813.732	7.746978763439874e+21	-3.7604698709118814e+24	5620.590256798075	-0.3942277513357823	35.43220327556828	26.341895482728077	43.85620091714547	117.64449417767577	119.07848062294303	67.93867331828181	0.013724684805491737	-9.131561152890384e+22	-0.17849420094937954	0.030946403978030706	-1.490247555387694e+24	0.009573045239200951	0.15622966354246426	3.8726033524338255	321.295776	279.341187	-15.456573	35.849449	-9.150846	47.093643	0.0	11961.0	True	0.0	None	0.0	None	0.0	None	0.0	None	0.0	None	0.0	None	0.0	None	0.0	None	5.717899999999999e-07	12
2014-01-21 12:36:00	633.974821677848	7202804929.159402	8.46604480553156e+22	12647278426930.193	138.22222928343015	6793739632552.81	7.778179705987215e+21	-3.75957907326142e+24	5590.967662875269	-0.3930293878163073	35.595509036044696	26.71461147167164	43.890298311841036	117.36119218989668	118.85596025150812	67.5222873655828	0.012122630177462741	-8.647763652057134e+22	-0.29410740456856105	0.02755154496469873	-1.506868016460769e+24	0.009040440932127173	0.15752918145588582	3.8018700962958087	321.298645	279.231445	-15.452248999999998	35.96100999999999	-9.153556	47.223549	0.0	11961.0	True	0.0	None	0.0	None	0.0	None	0.0	None	0.0	None	0.0	None	0.0	None	0.0	None	6.3659e-07	12
2014-01-21 12:48:00	630.2913315508447	7159505851.5655	8.409657124796419e+22	12355467053689.838	160.941576068605	8786501388433.492	7.677912305846697e+21	-3.7675017599896366e+24	5641.806059279583	-0.3962396552887776	36.09791234127066	27.27191732002851	44.17089293200925	117.16728753715523	118.83830269306208	66.79663029358039	0.01433905702678234	-1.1304355441491178e+23	0.02951766063167749	0.0321999523337208	-1.4972045726483027e+24	0.011889135529987393	0.1574655730922809	3.7431514777496115	321.301392	279.121643	-15.448416	36.037029	-9.163465	47.350712	0.0	11961.0	True	0.0	None	0.0	None	0.0	None	0.0	None	0.0	None	0.0	None	0.0	None	0.0	None	6.6422e-07	12
2014-01-21 13:00:00	633.2773281641357	7191235921.5061	8.347568615449443e+22	12076279957600.676	143.7223452896303	7612779736022.674	7.749130617589037e+21	-3.8289512283729486e+24	5617.669934727752	-0.40092560452463455	34.96584938919189	25.44463312181607	43.42258254515997	117.75885433250549	119.63850328658958	66.87864789982413	0.012844967851428215	-9.546899174248384e+22	-0.3896430437939691	0.02853222771488276	-1.4909863823970683e+24	0.00999646141849068	0.15611967378193986	3.7266227254687783	321.304108	279.01181	-15.45366	36.152233	-9.159441	47.482067	0.0	11961.0	True	0.0	None	0.0	None	0.0	None	0.0	None	0.0	None	0.0	None	0.0	None	0.0	None	6.332100000000001e-07	12
2014-01-21 13:12:00	604.0657939538007	7188782212.4503	8.809990953390697e+22	12047042155901.295	146.6622627973463	6331362884325.332	7.553354196832701e+21	-3.587953668924106e+24	5971.026095079941	-0.37581928796644265	36.34497798968546	27.893789378937893	44.82650503533401	118.00089274625401	121.50165118364744	67.18866292586843	0.01320092374413558	-1.237481805545252e+23	-0.3901878024138071	0.029657303162731175	-1.4779655950659862e+24	0.012961971473029129	0.1548091276616615	3.7608983832405234	321.306854	278.901947	-15.449157	36.263779	-9.162	47.598793	0.0	11961.0	True	0.0	None	0.0	None	0.0	None	0.0	None	0.0	None	0.0	None	0.0	None	0.0	None	6.8459e-07	12
2014-01-21 13:24:00	620.2075640389828	7223373713.7687	8.418883832760733e+22	12008331809507.295	139.8397093914523	5886666661660.902	7.756493797199789e+21	-3.878012871536989e+24	5631.938762137996	-0.4042561663523816	35.6757461087441	26.368159203980106	43.856736023477325	117.75695078345356	119.76751458878927	66.17546447525706	0.012423570486092066	-1.1080334056664508e+23	-0.30104630829451845	0.0275723691507946	-1.4933723990079383e+24	0.011550486076328132	0.15567380020586147	3.821583721374605	321.309509	278.79205299999995	-15.443674	36.378506	-9.159046	47.72994600000001	0.0	11961.0	True	0.0	None	0.0	None	0.0	None	0.0	None	0.0	None	0.0	None	0.0	None	0.0	None	6.8134e-07	12
2014-01-21 13:36:00	590.7625407671869	7197752281.767798	8.713726194835337e+22	12197231865617.012	135.37304325854706	5217059322364.208	7.647920833700394e+21	-3.6621007353458434e+24	5712.451942825932	-0.3831076752299598	37.08741194611051	29.3748911718614	45.15470987370578	115.6451530592792	118.44334497440799	65.13054627651043	0.011786943252812107	-1.0225559367284103e+23	-0.39642249763766496	0.027197585607170862	-1.4492344687473312e+24	0.010697385354027379	0.15161047942404088	3.716742720648163	321.312103	278.682098	-15.436891	36.457897	-9.152495	47.856319	0.0	11961.0	True	0.0	None	0.0	None	0.0	None	0.0	None	0.0	None	0.0	None	0.0	None	0.0	None	9.1692e-07	12
2014-01-21 13:48:00	611.12729723722	7197395899.1589	8.579820994805332e+22	12353732573922.627	139.98408519979623	6545252423336.646	7.695756130583334e+21	-3.69474867518229e+24	5621.732438571033	-0.3865423406817208	36.34802517774548	28.76783849634529	44.862708715002135	115.58085032023024	117.79106996066427	65.6600487890444	0.012181002888948505	-9.920570296851448e+22	-0.3846032674043858	0.028054344839502983	-1.4544656266132186e+24	0.010378839809052277	0.15216530194017622	3.7390719963172536	321.314758	278.572144	-15.433304	36.567493	-9.144386	47.985107	0.0	11961.0	True	0.0	None	0.0	None	0.0	None	0.0	None	0.0	None	0.0	None	0.0	None	0.0	None	5.6953e-07	12
2014-01-21 14:00:00	589.78159811714	7163102964.8826	8.970289977481586e+22	12272808453706.426	136.21777809524102	6004405541378.317	7.596646602836638e+21	-3.485852462116789e+24	5849.581713287379	-0.3664336117688097	37.57187411123434	30.440807136052648	45.55374841676114	114.490900961159	117.535604673555	64.83828326325519	0.011796811128019486	-1.2167830443245796e+23	-0.2605999545889569	0.027833899672255427	-1.4652052046011672e+24	0.0127908513202004	0.1540227077707213	3.7553561757870906	321.317261	278.462097	-15.428206	36.676022	-9.137136	48.100117	0.0	11961.0	True	0.0	None	0.0	None	0.0	None	0.0	None	0.0	None	0.0	None	0.0	None	0.0	None	5.1743e-07	12
2014-01-21 14:12:00	594.2406009603156	7181696693.9544	8.332501862707706e+22	11914997353643.04	124.35590968367129	4541973121566.8125	7.827735772572911e+21	-3.8659307806603785e+24	5447.356486320678	-0.4053353363248681	35.64316684081471	26.410835214446955	43.380324908413584	114.73779274746192	117.12208079193964	64.57983360766697	0.010796658246542046	-8.961696038843306e+22	-0.2255979434099531	0.024642762896894158	-1.471247391974612e+24	0.0093961642979166	0.15425743249889387	3.819255668006838	321.319763	278.352051	-15.422173	36.787357	-9.133633	48.217285	0.0	11961.0	True	0.0	None	0.0	None	0.0	None	0.0	None	0.0	None	0.0	None	0.0	None	0.0	None	5.2747e-07	12
2014-01-21 14:24:00	593.6737817786468	7130379055.8162985	8.031021070448606e+22	11974964922505.11	96.68890569024146	4961552582778.75	7.857068949999427e+21	-3.970299946075111e+24	5316.267473167245	-0.4192742233286007	34.44352465331557	24.395604395604394	42.502928753466186	116.77566843503462	117.74452144611551	65.05844448919834	0.008500123577164084	-5.2792453763344485e+22	-0.20782206670966144	0.0191085488776978	-1.4530265916168814e+24	0.005575023386109324	0.1534434687430154	3.72177233918264	321.322266	278.241974	-15.415653	36.90424	-9.127324	48.344223	0.0	11961.0	True	0.0	None	0.0	None	0.0	None	0.0	None	0.0	None	0.0	None	0.0	None	0.0	None	9.2698e-07	12
2014-01-21 14:36:00	598.6863356729477	7134996155.1671	8.378402128125843e+22	12164020604534.314	108.11559780725342	5063696569016.053	7.701742724924846e+21	-3.771751834787327e+24	5627.8581664593685	-0.3980493530565591	35.50394232059462	26.22658340767172	43.76969185439489	116.79784033749596	118.40442902901975	66.11540611125042	0.009644567154973544	-8.004063070333206e+22	-0.2955211048514413	0.021677146035383912	-1.4680853829774822e+24	0.008447035400327908	0.1549334268326611	3.69776126074249	321.324677	278.131836	-15.410652	37.016144	-9.122509	48.463428	0.0	11961.0	True	0.0	None	0.0	None	0.0	None	0.0	None	0.0	None	0.0	None	0.0	None	0.0	None	5.629600000000001e-07	12
2014-01-21 14:48:00	592.3568227763919	7110543443.4956	8.27151979209565e+22	11738559937834.953	119.5581134120584	5002603159767.994	7.748170579407842e+21	-3.800367220482776e+24	5607.081583009187	-0.4024483973350145	34.17201669660448	24.48685631976953	42.54805064507324	117.97701101562755	119.26376202749417	65.77783920044979	0.010763243915381564	-7.1744660893138235e+22	-0.04733386838739469	0.023978353826037423	-1.4745256851759945e+24	0.007597561529888068	0.1561481994766308	3.8460892110994203	321.327087	278.021698	-15.405729999999998	37.128448	-9.117759	48.574707	0.0	11961.0	True	0.0	None	0.0	None	0.0	None	0.0	None	0.0	None	0.0	None	0.0	None	0.0	None	5.453800000000001e-07	12
2014-01-21 15:00:00	598.7640060290619	7098507146.1707	8.323318148755806e+22	11756158142013.387	151.69202269284145	7054722723415.933	7.726318138768849e+21	-3.803378434695856e+24	5646.770639762834	-0.40345027871301536	34.64058821196989	25.056311379403553	42.618126603919634	117.40772998269523	118.92880924035921	64.89654866197907	0.013667179267757587	-1.11258206799556e+23	0.17500654424224454	0.030452901868369436	-1.4681116958480143e+24	0.011801916457461491	0.15573261589444862	3.8746352885798	321.329498	277.91149900000005	-15.400104	37.242477	-9.117074	48.696701	0.0	11961.0	True	0.0	None	0.0	None	0.0	None	0.0	None	0.0	None	0.0	None	0.0	None	0.0	None	5.3073e-07	12
2014-01-21 15:12:00	590.0893863642973	7110643006.014901	8.389437457615127e+22	11842078445332.484	136.36044783421272	7081696570240.197	7.788740348671107e+21	-3.8125386258650254e+24	5599.803229007479	-0.4037317481348865	34.714124975976105	24.87368141122241	42.72454579385019	116.566766843113	118.63264262556729	64.37498704128154	0.012087620586314398	-1.1931687126147645e+23	0.006072266421128167	0.027322813448694614	-1.4878921328536512e+24	0.012635153042010518	0.15756149662532395	3.831869237657116	321.331818	277.80127000000005	-15.392765	37.355305	-9.112369	48.808815	0.0	11961.0	True	0.0	None	0.0	None	0.0	None	0.0	None	0.0	None	0.0	None	0.0	None	0.0	None	5.157100000000001e-07	12
2014-01-21 15:24:00	593.1998388365722	7070536491.1722	8.29073371049896e+22	11868254055958.955	130.21758530892345	6884095107370.369	7.734308044528698e+21	-3.808169210192773e+24	5604.466609854693	-0.4055565249189184	34.773416084774105	24.70598797019481	42.93876118068577	116.85183083924049	119.8020460090238	64.8610600965769	0.01169024017496395	-1.0725406182151186e+23	-0.03457501751760229	0.026205892176886427	-1.4797898188945978e+24	0.011422177480808236	0.15759237140907115	3.874487940054815	321.334106	277.69101	-15.387077	37.453609	-9.106878	48.93637800000001	0.0	11961.0	True	0.0	None	0.0	None	0.0	None	0.0	None	0.0	None	0.0	None	0.0	None	0.0	None	5.104600000000001e-07	12
2014-01-21 15:36:00	600.0304983450364	7108183769.8178	8.031847058591914e+22	11488940941406.727	127.15798807352968	6300748470719.607	7.85708540496334e+21	-3.9996375297898825e+24	5439.7167638147475	-0.4236912690003789	33.87105296892402	23.55639503507825	41.95401963246221	117.28767288378825	119.4629144711841	64.02003997138543	0.011437127907315136	-1.2094532620346829e+23	-0.15413893375084664	0.02513038687952053	-1.4602086127171655e+24	0.012812030679566173	0.15468342706543214	3.7229942550267823	321.336426	277.580719	-15.380993	37.566338	-9.103424	49.041245	0.0	11961.0	True	0.0	None	0.0	None	0.0	None	0.0	None	0.0	None	0.0	None	0.0	None	0.0	None	5.012399999999999e-07	12
2014-01-21 15:48:00	607.27634402676	7086755234.778301	7.939957847453935e+22	11920424346557.807	127.98205778398376	6148516090587.543	7.855575476779285e+21	-4.001883598401181e+24	5328.597308617524	-0.42521108746614816	33.924809200125644	24.36720142602495	42.241750427449844	116.54135310034796	118.83057392263979	63.86939897900999	0.011406600515506573	-1.315588772522632e+23	-0.054275490576272345	0.02534267528181016	-1.4459711303672685e+24	0.013978490849811185	0.15363839094014672	3.602367754674024	321.338684	277.470428	-15.37347	37.664265	-9.098578	49.159222	0.0	11961.0	True	0.0	None	0.0	None	0.0	None	0.0	None	0.0	None	0.0	None	0.0	None	0.0	None	5.082e-07	12
2014-01-21 16:00:00	599.6367246889129	7072726875.042102	8.023486438071019e+22	11649174849733.678	110.39543340153523	3909142817253.897	7.857525659795237e+21	-3.936011015551076e+24	5469.9693267760995	-0.4190413749970316	33.51453041153677	23.549117247623357	41.38259546705494	118.73576918571993	120.57950887470854	64.54092462796028	0.009995059610822563	-1.297146892613523e+23	-0.2674465418534789	0.02199880847500432	-1.453363791373933e+24	0.013809875412093955	0.15473014661341433	3.535556127691105	321.340881	277.360077	-15.371858	37.749397	-9.097572	49.272602	0.0	11961.0	True	0.0	None	0.0	None	0.0	None	0.0	None	0.0	None	0.0	None	0.0	None	0.0	None	5.1173e-07	12
2014-01-21 16:12:00	580.0232025328091	7012239241.251201	8.289545204006659e+22	11432307154612.72	128.9992310323843	5441191462836.289	7.649839491992021e+21	-3.7206625934481065e+24	5755.574039571875	-0.39953153189355617	34.34432844141358	24.59197786998617	42.1963362631377	119.38208586996372	121.7554836189492	65.11004281737824	0.011894811529034977	-1.544253923238539e+23	-0.1184225223281957	0.02628922023218909	-1.447471945634259e+24	0.016582480138634285	0.15543217620178104	3.5851161232841773	321.34314	277.249725	-15.365063	37.860207	-9.095922	49.39101	0.0	11961.0	True	0.0	None	0.0	None	0.0	None	0.0	None	0.0	None	0.0	None	0.0	None	0.0	None	4.903800000000001e-07	12
2014-01-21 16:24:00	561.2824242420377	6985037616.2142	8.216355005952933e+22	11139484459222.986	133.14089045478372	6349540479433.691	7.613609227927891e+21	-3.712793686603743e+24	5729.588477632547	-0.40023920335178176	34.77278437967449	25.430635302833856	42.359737676771466	118.19673643498122	121.04157998319349	64.36893032198171	0.012331285584401564	-1.1369383344162397e+23	-0.0975015463088294	0.0272264458975187	-1.425402245149957e+24	0.012256196590420008	0.1536583788948756	3.7044613899825287	321.345276	277.139343	-15.358307	37.97575	-9.099259	49.500221	0.0	11961.0	True	0.0	None	0.0	None	0.0	None	0.0	None	0.0	None	0.0	None	0.0	None	0.0	None	4.8315e-07	12
2014-01-21 16:36:00	580.5948128146109	6971719541.306801	7.891838747257288e+22	11059244834338.848	128.68889551045748	5218364840461.762	7.754392204082446e+21	-3.9432425805621726e+24	5550.062528839261	-0.4258935499129447	33.45251597718485	22.73279163164285	40.990290531633796	117.46583496072188	120.57053040521838	63.34477130586394	0.012020259248127921	-1.2102307159301e+23	-0.11088780616306494	0.0258943410009698	-1.4517675509833908e+24	0.013071208410101724	0.15679949262684975	3.7711029248848473	321.347412	277.028931	-15.351157	38.06134	-9.097325	49.621956	0.0	11961.0	True	0.0	None	0.0	None	0.0	None	0.0	None	0.0	None	0.0	None	0.0	None	0.0	None	5.0088e-07	12
2014-01-21 16:48:00	595.5460625723667	7026778180.8381	7.867461860357048e+22	11389821953590.836	129.60638472797189	5025848549855.338	7.812182432346411e+21	-4.002483894618417e+24	5481.721737679833	-0.42890473462855705	33.440895475300906	22.97584898676784	41.14496205902126	117.66677912353441	121.67306990915024	63.8536371140209	0.011992818055702034	-1.211763096777116e+23	-0.1941958083257537	0.025816470821237586	-1.4401016146970353e+24	0.012985209763234208	0.15432077108924247	3.6798722390963574	321.349609	276.918518	-15.345425	38.174953	-9.096833	49.736496	0.0	11961.0	True	0.0	None	0.0	None	0.0	None	0.0	None	0.0	None	0.0	None	0.0	None	0.0	None	5.9513e-07	12
2014-01-21 17:00:00	590.4117731359165	7069570316.761302	8.32324358860972e+22	11612011987164.225	126.74544833986872	5450909037204.46	7.80406758739853e+21	-3.817365287857519e+24	5693.400039538216	-0.4065914272679768	34.20675349772644	24.48219476744186	42.02799681179585	117.97840734113319	122.56912149113121	64.31701660080394	0.011513939711107262	-1.335487524613546e+23	-0.06134465879857182	0.02549185167977491	-1.4422211663150808e+24	0.01422441233115404	0.15361243114809334	3.731033630149477	321.351715	276.808075	-15.338162	38.288006	-9.097316	49.857311	0.0	11961.0	True	0.0	None	0.0	None	0.0	None	0.0	None	0.0	None	0.0	None	0.0	None	0.0	None	7.9794e-07	12
2014-01-21 17:12:00	575.9817185358306	7085098650.0947	8.526170778972862e+22	11509837675377.75	138.87489220610078	6077038557078.451	7.737300201460963e+21	-3.7240459562879566e+24	5826.387441576781	-0.39578255405940177	35.07137576423246	26.16389872039205	42.68189692647269	117.32082974495712	121.6722925259248	64.07982895909093	0.012603221000644416	-1.2790975684222202e+23	-0.0958068187926024	0.028086011102342646	-1.444693908182621e+24	0.013593938110955259	0.15353855766713426	3.8150603614657523	321.353821	276.697632	-15.328503	38.397285	-9.097896	49.972488	0.0	11961.0	True	0.0	None	0.0	None	0.0	None	0.0	None	0.0	None	0.0	None	0.0	None	0.0	None	1.28e-06	12
2014-01-21 17:24:00	604.3349491295843	7124432927.239902	8.103837848893415e+22	11429790489783.188	71.88218725423576	3085303297212.928	7.974955410438596e+21	-4.0482460752166585e+24	5538.7900774132895	-0.4278623909207385	33.96165806512063	24.5711173640737	40.95824891863353	117.79025534909495	121.95471109183708	62.50145054730563	0.006524660729258034	-3.2038378428960522e+22	-0.15795003890611542	0.014132357735776584	-1.4494180192035634e+24	0.003386162041818275	0.1531901588039822	3.802495084247716	321.355988	276.587189	-15.30956	38.507824	-9.098536	50.088829	0.0	11961.0	True	0.0	None	0.0	None	0.0	None	0.0	None	0.0	None	0.0	None	0.0	None	0.0	None	1.4336000000000001e-06	12
2014-01-21 17:36:00	587.4070325339533	7175998606.0331	8.42172883489147e+22	11458625701326.21	113.41101182129508	5330520631818.5625	8.044860207969667e+21	-3.932798774123181e+24	5508.55884664602	-0.4126738033082111	34.46248817129867	25.22585128561501	41.59025576054784	115.21401630984964	119.515486979057	60.53456889142733	0.00985154723951486	-1.0955273105935583e+23	-0.012476155135120988	0.02237489384038413	-1.4678481526979537e+24	0.011495513700455076	0.15402325789929253	3.8121541462744313	321.358063	276.476715	-15.300954999999998	38.613426	-9.100193	50.205452	0.0	11961.0	True	0.0	None	0.0	None	0.0	None	0.0	None	0.0	None	0.0	None	0.0	None	0.0	None	1.4457e-06	12
2014-01-21 17:48:00	598.4730888236361	7247929233.930902	8.358616429499822e+22	11531049377833.033	98.0331397562516	3451597608528.962	8.191954316437916e+21	-4.040093873509536e+24	5369.331071452431	-0.4197251721724941	34.252501809920176	24.569186145708922	41.31079036163602	114.67143768442988	118.50144430833127	60.21330351945765	0.008363175205276541	-1.1694304010967484e+23	-0.07285156628479007	0.019053935068649254	-1.471964228296273e+24	0.01214920721675461	0.1529222979704477	3.7826426735966607	321.360138	276.366241	-15.28879	38.728733	-9.10042	50.329678	0.0	11961.0	True	0.0	None	0.0	None	0.0	None	0.0	None	0.0	None	0.0	None	0.0	None	0.0	None	1.3722e-06	12
2014-01-21 18:00:00	604.5910993519627	7293268344.896	8.712417737098035e+22	12133439227722.98	113.03599736271951	5143681072991.106	8.255006348825167e+21	-3.937848935215035e+24	5369.404258050513	-0.4065597603361024	35.30097254018153	26.297266328367986	42.418595697498155	111.9277460675885	115.89297957730713	58.99343685232912	0.009252353062349145	-1.5311932074499427e+23	0.037053405064863695	0.02203799153095844	-1.497507762021136e+24	0.015808670004633443	0.15460887577078167	3.880571315026258	321.362244	276.255737	-15.279392	38.831287	-9.101469	50.440056	66560.0	11961.0	False	0.0	None	0.0	None	0.0	None	0.0	None	0.0	None	0.0	None	0.0	None	0.0	None	1.2092e-06	12
2014-01-21 18:12:00	600.3406479890289	7338394623.039102	8.822773252698294e+22	12344618748894.627	114.50930324138606	4936214539862.153	8.368457734009606e+21	-3.9451490735156576e+24	5327.1061638635165	-0.4048087295211232	35.233751343442194	26.39724160051319	42.34476509047322	111.67563553861505	115.72321756717535	58.5345131972493	0.009182782938362959	-1.4177788010655153e+23	-0.03446456510263355	0.022218483678332228	-1.519138145199039e+24	0.01454771985814631	0.15587760337205364	3.931623770578048	321.364258	276.145264	-15.261835	38.945843	-9.099791	50.563534	66560.0	11961.0	False	0.0	None	0.0	None	0.0	None	0.0	None	0.0	None	0.0	None	0.0	None	0.0	None	1.1224e-06	12
2014-01-21 18:24:00	603.610469045497	7376855646.739402	8.70397650508107e+22	12361679423155.715	108.90184446670034	4553023469422.653	8.512654194934513e+21	-4.039991842283063e+24	5113.107850711601	-0.4123791638053271	35.016888592532375	25.96348884381339	42.097287496640895	110.23097663980248	113.55770017341156	57.131963170174615	0.008496009086183521	-1.725204611163454e+23	0.08158320314381415	0.020904637645781272	-1.5172085067049408e+24	0.01760989780966079	0.15486793036684435	3.9847272568340975	321.3663640000001	276.03476	-15.243746	39.060223	-9.095938	50.679401	0.0	11961.0	True	0.0	None	0.0	None	0.0	None	0.0	None	0.0	None	0.0	None	0.0	None	0.0	None	9.6642e-07	12
2014-01-21 18:36:00	611.4842064809616	7405526184.295602	8.865834520238618e+22	12516521493444.234	103.30571530977079	3762709067424.933	8.611560673176967e+21	-4.019366003376358e+24	5133.301843414991	-0.4086854445960855	34.971708490545076	25.11341791618608	41.83813395534067	110.509990804432	114.49736288944288	57.5065777955581	0.007943538278336855	-1.858769473261434e+23	0.02037456175802735	0.019805435466952383	-1.5503835756031432e+24	0.018899797329811608	0.15764157838763249	3.950177054088561	321.368469	275.924255	-15.228514	39.165962	-9.093978	50.796623	0.0	11961.0	True	0.0	None	0.0	None	0.0	None	0.0	None	0.0	None	0.0	None	0.0	None	0.0	None	8.548299999999998e-07	12
2014-01-21 18:48:00	610.1940376742333	7364918653.1877	8.891477356058555e+22	12663663730688.314	110.23491501784704	5304117777897.52	8.599096078529562e+21	-3.939649049160296e+24	5053.3383249770895	-0.4027885628935944	35.266840120472814	25.775530228696503	42.424265132285655	108.29346097146276	111.8478241210462	56.285359469201964	0.008320872208472753	-1.834702945956381e+23	0.02415674920463003	0.02133973375146224	-1.533773580860042e+24	0.018757949089295817	0.15681256089814768	4.015127991956784	321.3704830000001	275.813782	-15.211412	39.276367	-9.094833	50.913826	0.0	11961.0	True	0.0	None	0.0	None	0.0	None	0.0	None	0.0	None	0.0	None	0.0	None	0.0	None	7.9765e-07	12
2014-01-21 19:00:00	599.1564823496531	7323505332.194798	8.798501335312222e+22	12428082358399.314	111.861296555071	5513162959421.477	8.60447093739875e+21	-3.9310925705184657e+24	4950.0578786059	-0.4041864679449468	35.46008566054258	26.61386730424387	42.9623975653334	106.40267473231528	109.80804149584387	54.78751786378193	0.008358461970789134	-1.6211532633303123e+23	0.0964414415580352	0.02175630703385576	-1.528864015173228e+24	0.016668348550654542	0.1571945038627001	3.8532767414581937	321.372589	275.70327799999995	-15.19354	39.389671	-9.092863	51.034317	66560.0	11961.0	False	0.0	None	0.0	None	0.0	None	0.0	None	0.0	None	0.0	None	0.0	None	0.0	None	7.6275e-07	12
2014-01-21 19:12:00	602.4292677347022	7293174759.664802	8.716490480219634e+22	12521118489985.074	85.60543737840382	3726918311737.6377	8.62832485883459e+21	-3.943798433014096e+24	4897.696897737258	-0.4071791593496775	35.291280985251724	25.662264010148487	42.536239810574216	106.5145610193077	109.86781068023228	55.48634472221488	0.00638798876042115	-1.549981253197713e+23	-0.03946554492065592	0.016682661253472092	-1.5436391193016876e+24	0.01600284787380635	0.1593736824060174	3.932483985843184	321.3746950000001	275.592804	-15.178235	39.501091	-9.088369	51.145077	66560.0	11961.0	False	0.0	None	0.0	None	0.0	None	0.0	None	0.0	None	0.0	None	0.0	None	0.0	None	7.5967e-07	12
2014-01-21 19:24:00	609.7116887364542	7317329206.5497	8.218338104136281e+22	12131296338347.12	56.00607001622753	2265907539695.8936	8.885708543600315e+21	-4.262611231371308e+24	4662.6750514372025	-0.4386424405026528	33.40980196887475	23.16907775768535	40.3221001231779	107.53682491531788	110.12158054519014	55.09057943267148	0.004219866637750718	-9.634717041746733e+22	-0.128496755279813	0.010640441106131805	-1.5435276024379523e+24	0.009914570124624508	0.15883614004807536	3.863822855016141	321.37674	275.48233	-15.161738	39.615997	-9.088102	51.269661	0.0	11961.0	True	0.0	None	0.0	None	0.0	None	0.0	None	0.0	None	0.0	None	0.0	None	0.0	None	7.0911e-07	12
2014-01-21 19:36:00	596.0679411589059	7280849173.769502	8.54046786745823e+22	12342394977089.436	68.38605549970586	2693843895920.199	8.649107477860057e+21	-4.0103458080930553e+24	4869.651222232314	-0.4147508410183282	34.57730114091139	25.162804785703468	41.97564503285462	107.0469881026862	109.87584806794695	55.726896352079066	0.005178800113571061	-1.664667110783143e+23	-0.0587002182765967	0.013278219366668577	-1.5308833585055095e+24	0.0172160236860262	0.15832429192509925	3.7380193424649786	321.378876	275.371887	-15.142064	39.724224	-9.087523	51.38105	0.0	11961.0	True	0.0	None	0.0	None	0.0	None	0.0	None	0.0	None	0.0	None	0.0	None	0.0	None	6.9093e-07	12
2014-01-21 19:48:00	594.8180059395919	7304119522.120702	8.558376708741647e+22	12286352511577.336	77.98785213791882	3974496761344.0986	8.675699422435935e+21	-4.02127556464848e+24	4828.672451540162	-0.4145562164524863	34.56920112712019	24.868874569159303	41.89056185782076	106.11757275882091	108.73286133482992	55.690629009765175	0.0058435375496717215	-1.3629628653317517e+23	0.046124009743179935	0.015096242808920088	-1.532994522093721e+24	0.014050883097501979	0.15803751787329046	3.869922576621772	321.381042	275.261444	-15.122571	39.827747	-9.089598	51.494991	0.0	11961.0	True	0.0	None	0.0	None	0.0	None	0.0	None	0.0	None	0.0	None	0.0	None	0.0	None	6.609899999999999e-07	12
2014-01-21 20:00:00	585.1582111161882	7302152621.516202	8.429252931949658e+22	11818902836080.533	91.36514307519435	3970194197100.143	8.587598468939691e+21	-4.058098716149597e+24	4886.158001137572	-0.4184651285719803	34.06350893146585	23.96458814472671	41.754016094258716	106.7037269120548	109.21628236148159	55.920123574523394	0.007033498312178165	-1.496592026774521e+23	0.14191215798791185	0.017641721622977932	-1.490031108266809e+24	0.015432635298192532	0.15364980078373602	3.87293910697344	321.383118	275.15100099999995	-15.101104	39.935101	-9.081953	51.61467	0.0	11961.0	True	0.0	None	0.0	None	0.0	None	0.0	None	0.0	None	0.0	None	0.0	None	0.0	None	5.822e-07	12
2014-01-21 20:12:00	580.4957310199035	7335829478.349002	8.578626116509164e+22	11731424115896.994	105.05316923795048	4655931369386.168	8.534967494208279e+21	-4.024042631313628e+24	4984.640375616858	-0.4130483826507569	34.81306509215196	25.41091133575121	42.38112134285353	105.91191383432098	109.30037847551658	55.527499387832755	0.008106579924218727	-1.2742793765266496e+23	0.03936703263285568	0.02026902668636243	-1.509710310160636e+24	0.013079857341067154	0.15496441241216613	3.7518128976960496	321.385284	275.040588	-15.08391	40.041126	-9.075937	51.725636	0.0	11961.0	True	0.0	None	0.0	None	0.0	None	0.0	None	0.0	None	0.0	None	0.0	None	0.0	None	5.9287e-07	12
2014-01-21 20:24:00	590.0807914206299	7406085435.2708	8.647351788131054e+22	11864062840801.742	96.47430169330437	3741401696150.548	8.536911637849473e+21	-4.0700659977908313e+24	5100.5355554693515	-0.4138092803194541	34.26440086309292	24.886417045276517	42.06429045066674	108.00156756854844	111.88016877381851	56.96603523200037	0.007557128442214032	-1.309604552065452e+23	-0.05228950566036699	0.01842731643453101	-1.4812096483687265e+24	0.013314931931999015	0.15059664853749	3.770730730233755	321.387421	274.930176	-15.063173999999998	40.156979	-9.068874	51.84037	0.0	11961.0	True	0.0	None	0.0	None	0.0	None	0.0	None	0.0	None	0.0	None	0.0	None	0.0	None	5.9522e-07	12
2014-01-21 20:36:00	590.1609976991681	7465259903.1562	8.56167729298164e+22	11857910117070.475	104.79568227975041	4321229155257.082	8.563256355179574e+21	-4.1766906579579447e+24	5113.693286610338	-0.4212839881287648	34.12001961280975	24.438803839136988	41.697341087404034	110.04240045300101	113.84891536985843	57.20439334801319	0.008312499585924518	-1.3132360032105194e+23	0.017419784565120253	0.019753660685082296	-1.497398738515569e+24	0.013246020500290005	0.1510358712295068	3.876967782291544	321.3896180000001	274.81982400000004	-15.038078	40.245171	-9.063184	51.955067	0.0	11961.0	True	0.0	None	0.0	None	0.0	None	0.0	None	0.0	None	0.0	None	0.0	None	0.0	None	7.317199999999998e-07	12
2014-01-21 20:48:00	597.6090937802252	7508804249.962702	8.47473710502464e+22	11799765074425.914	98.40480667080635	3442269349729.4136	8.629944568327255e+21	-4.2768943150541393e+24	5141.703277929931	-0.4288893746942061	33.15304922738135	22.737893803883647	40.56868733414463	112.34298926791183	116.49877565520866	58.304102613862675	0.007929476766382464	-1.188173806968519e+23	0.14809271295596055	0.018343524701494186	-1.5130671690549833e+24	0.011915073966290223	0.1517312292992935	3.9846916063381377	321.391846	274.709442	-15.021006	40.357941	-9.056875	52.092033	0.0	11961.0	True	0.0	None	0.0	None	0.0	None	0.0	None	0.0	None	0.0	None	0.0	None	0.0	None	5.666399999999999e-07	12
2014-01-21 21:00:00	599.704480675329	7524847729.0105	8.685332030087699e+22	11927379024465.766	96.9276292561302	3589673426066.937	8.510046905574357e+21	-4.186664949973247e+24	5357.973786721985	-0.4189459679589087	33.8234793701168	23.77519252826479	41.20813401399653	112.83992416566944	117.74563442209705	59.8596184838237	0.007940982242842062	-1.2838145121531155e+23	0.08686672241301184	0.01815574238407411	-1.4851741965548243e+24	0.012846714984372424	0.14861655967173384	3.9744904046297234	321.394073	274.599121	-15.010938	40.471188	-9.053362	52.213139	0.0	11961.0	True	0.0	None	0.0	None	0.0	None	0.0	None	0.0	None	0.0	None	0.0	None	0.0	None	5.3507e-07	12
2014-01-21 21:12:00	596.9729970615018	7604982829.886498	8.689242908213218e+22	11821488611489.516	104.0186345334697	4337852548251.232	8.564195951530647e+21	-4.2654056606051664e+24	5354.245397792985	-0.4223277736121903	33.75101297445168	23.682487725040907	41.21423104889322	113.61896152185088	117.96200437472521	59.97122436995862	0.008512163218778207	-1.2031072271028718e+23	0.10844631760914004	0.019232831011119986	-1.496934234663638e+24	0.011912245565103008	0.1482149537166572	4.01792586874999	321.396332	274.488831	-15.003401	40.575443	-9.048909	52.342033	0.0	11961.0	True	0.0	None	0.0	None	0.0	None	0.0	None	0.0	None	0.0	None	0.0	None	0.0	None	5.566600000000001e-07	12
2014-01-21 21:24:00	582.788662456946	7574055432.525498	8.586871952093827e+22	11174976396218.158	95.13274491051891	3295116628085.1826	8.45515730884662e+21	-4.2606151956910113e+24	5407.546185866532	-0.4235759686170608	34.028660237514856	24.26193861336456	41.4448461609078	112.03499361943285	116.31653667157295	59.5274195027713	0.00795623859751768	-1.2701653163935357e+23	-2.6206773053610583e-05	0.01764618776907783	-1.4986805187910774e+24	0.012627554460663505	0.14899375400915393	4.014082462513734	321.398651	274.37854	-14.995141	40.677689	-9.043759	52.455505	0.0	11961.0	True	0.0	None	0.0	None	0.0	None	0.0	None	0.0	None	0.0	None	0.0	None	0.0	None	5.8419e-07	12
2014-01-21 21:36:00	587.4564199658361	7579669517.9426985	8.598312568553708e+22	11510842493422.11	111.28447123034357	4057843230256.788	8.42239182061252e+21	-4.2681755219302514e+24	5428.825978427936	-0.42401331760411937	34.450732379399554	25.38990441053161	41.63904362157731	113.20543485912346	118.53025851870424	60.05107239532704	0.009331248635782623	-1.3801332766956874e+23	0.10884700038947824	0.02062054982096245	-1.4877831354513116e+24	0.01371065661149128	0.1478008249419126	4.019574146719176	321.40094	274.26828	-14.987139	40.79130900000001	-9.03889	52.585796	0.0	11961.0	True	0.0	None	0.0	None	0.0	None	0.0	None	0.0	None	0.0	None	0.0	None	0.0	None	6.096500000000001e-07	12
