Timestamp	TOTUSJH	TOTBSQ	TOTPOT	TOTUSJZ	ABSNJZH	SAVNCPP	USFLUX	TOTFZ	MEANPOT	EPSZ	MEANSHR	SHRGT45	MEANGAM	MEANGBT	MEANGBZ	MEANGBH	MEANJZH	TOTFY	MEANJZD	MEANALP	TOTFX	EPSY	EPSX	R_VALUE	CRVAL1	CRLN_OBS	LAT_MIN	LON_MIN	LAT_MAX	LON_MAX	QUALITY	NOAA_AR	IS_TMFI	BFLARE	BFLARE_label	CFLARE	CFLARE_label	MFLARE	MFLARE_label	XFLARE	XFLARE_label	BFLARE_loc	BFLARE_label_loc	CFLARE_loc	CFLARE_label_loc	MFLARE_loc	MFLARE_label_loc	XFLARE_loc	XFLARE_label_loc	XR_MAX	XR_QUAL
2014-01-10 12:24:00	62.99687153845064	444976507.6763001	3.772198609100739e+21	1517667793926.7314	6.070034932116827	236987129667.66714	9.369132786367027e+20	-3.727132648362779e+23	1804.5851599372306	-0.6307036224259702	25.06499792775565	3.1130876747141043	27.90448999165302	117.68482077389112	118.52398572081104	43.81028139153612	0.0038564389657667272	-7.514999737979158e+22	0.2648853315880141	0.016730505647925144	1.7476144970865086e+23	0.12716846982507318	-0.2957304979206407	0.0	22.892975	64.188225	-10.404038	-42.814796	-6.068097	-38.560211	0.0		True	0.0	None	0.0	None	0.0	None	0.0	None	0.0	None	0.0	None	0.0	None	0.0	None	7.7704e-07	12
2014-01-10 12:36:00	61.12046550164297	447168597.0062001	3.7130154835625614e+21	1452792614911.3838	7.2888746212967765	377481680071.7332	9.32344408335385e+20	-3.698723853985373e+23	1793.3628943729068	-0.6228280246641256	24.643990037570163	2.95060936497755	28.18685704218603	117.17290888986594	118.02659656131786	44.105046821103954	0.004675352547335968	-7.899388449968227e+22	0.4759056940380647	0.02008846161377946	1.7544175850969698e+23	0.1330177839323437	-0.2954263367849338	0.0	22.8964	64.078499	-10.40901	-42.693066	-6.074738	-38.449539	0.0		True	0.0	None	0.0	None	0.0	None	0.0	None	0.0	None	0.0	None	0.0	None	0.0	None	7.604900000000002e-07	12
2014-01-10 12:48:00	61.95408610402972	441615922.7822	3.695174987530393e+21	1445975343639.5288	5.603971872487774	219742219035.4548	9.018131571004663e+20	-3.635597831053313e+23	1867.395301942645	-0.6198957125334751	25.06137120293032	3.691275167785235	28.410953333401288	121.40963025630438	122.60884835010953	45.2084459693624	0.003761054947978372	-7.608988725813616e+22	0.2898727880866423	0.01566730011800626	1.7209970356588576e+23	0.1297387584390998	-0.2934424359524549	0.0	22.899738	63.968739	-10.413511	-42.594921	-6.0791	-38.350342	0.0		True	0.0	None	0.0	None	0.0	None	0.0	None	0.0	None	0.0	None	0.0	None	0.0	None	7.272899999999998e-07	12
2014-01-10 13:00:00	61.05723341820838	433741818.3451	3.63955843500981e+21	1435399371257.634	4.4630416150317185	202520631142.5163	8.893098661365965e+20	-3.583216522334032e+23	1866.852798570807	-0.6220555802332821	24.92678464359305	2.724795640326976	28.27810079745563	119.84805368088942	121.14194891505613	43.87895964225842	0.0030402190838090732	-7.1125626100900524e+22	0.2711643264139728	0.012687145043355505	1.7074357473135427e+23	0.12347591148310368	-0.29641522578555496	0.0	22.90308	63.858929	-10.416783	-42.477589	-6.084022	-38.24277100000001	0.0		True	0.0	None	0.0	None	0.0	None	0.0	None	0.0	None	0.0	None	0.0	None	0.0	None	7.024299999999999e-07	12
2014-01-10 13:12:00	63.23567839498885	441847198.7203	3.6036392197154233e+21	1478496552113.7834	3.4254712935067766	52195750428.7971	9.000573959413334e+20	-3.631127055113837e+23	1837.1656951784119	-0.6188093359631798	24.29908232970241	1.8280297901150981	28.366845476718662	121.40850641066595	122.61283529646505	45.119127802414596	0.002319208729523884	-7.303585244636618e+22	0.06946297625452216	0.009578169575606357	1.7464698610586317e+23	0.1244662240341897	-0.2976298649421722	0.0	22.906326	63.749077	-10.398002	-42.356407	-6.089389	-38.132473	0.0		True	0.0	None	0.0	None	0.0	None	0.0	None	0.0	None	0.0	None	0.0	None	0.0	None	6.9047e-07	12
2014-01-10 13:24:00	60.377004506505756	432279925.901	3.63916621888096e+21	1430892870134.6646	2.277697691202164	20478924897.976192	8.875906485089694e+20	-3.5584328380477e+23	1873.031315171468	-0.6198422522524545	24.713390208334907	3.212576896787424	28.197447020598197	118.78850805804993	120.15238094916	44.37987061839436	0.0015568678682174734	-7.334570063045802e+22	0.027515088157515084	0.006505613915163939	1.7387589833857782e+23	0.12776063604662574	-0.3028738586442816	0.0	22.909538	63.639187	-10.40218	-42.237423	-6.090055	-38.020855	0.0		True	0.0	None	0.0	None	0.0	None	0.0	None	0.0	None	0.0	None	0.0	None	0.0	None	6.885299999999999e-07	12
2014-01-10 13:36:00	59.39524182816001	417771562.4416	3.6146191380343465e+21	1397901611605.7625	5.904118760829017	251040070403.37936	8.651300579692984e+20	-3.4160415702156106e+23	1895.377165475646	-0.6157037703033154	25.34194231982245	2.8551532033426184	28.320007843050103	112.92666167664551	115.38985235278923	40.36261803959268	0.004111503315340541	-7.287869092853754e+22	0.3436419675233286	0.0174938125058171	1.6785829957766066e+23	0.1313557925369111	-0.3025460487008823	0.0	22.912697	63.529247	-10.405878	-42.116905	-6.093696	-37.91108300000001	0.0		True	0.0	None	0.0	None	0.0	None	0.0	None	0.0	None	0.0	None	0.0	None	0.0	None	7.298000000000002e-07	12
2014-01-10 13:48:00	59.124232683146154	410407015.8097	3.587928561561884e+21	1372761184399.0166	5.777915427391617	375792914950.75104	8.507725245331133e+20	-3.341806893312927e+23	1921.524820228249	-0.6131321738719473	24.928819240238532	3.2005689900426746	28.15304018823596	114.79942601087143	116.12373480041674	42.95096913072778	0.004109470431999728	-7.744196478009909e+22	0.5254002909018924	0.01745486309197986	1.629969934094882e+23	0.14208529017505594	-0.2990558823244151	0.0	22.915821	63.41927	-10.409022	-41.997868	-6.046213	-37.809948	0.0		True	0.0	None	0.0	None	0.0	None	0.0	None	0.0	None	0.0	None	0.0	None	0.0	None	8.0508e-07	12
2014-01-10 14:00:00	58.20281484636839	418873278.30560017	3.675312212340448e+21	1383963355855.7212	8.91641370678461	600885482986.2201	8.815976739445283e+20	-3.410350792434647e+23	1868.6443515795086	-0.6130612563073276	25.00230149671704	2.7683997299122214	28.142834720495845	112.37219101739944	113.6839014986033	41.986979311952034	0.0060205359262556464	-7.86227962799309e+22	0.7975778669924032	0.026392874374419274	1.6513270040246834e+23	0.1413361650909793	-0.2968505790980117	0.0	22.918907	63.30925799999999	-10.412868	-41.876225	-6.020411	-37.708702	0.0		True	0.0	None	0.0	None	0.0	None	0.0	None	0.0	None	0.0	None	0.0	None	0.0	None	8.178499999999998e-07	12
2014-01-10 14:12:00	61.482968470247506	422771204.1926	3.6881080074476837e+21	1462548672456.3438	10.594447885277868	693970136097.3264	8.893548990316347e+20	-3.392428883431388e+23	1841.5766044908887	-0.6042168782621908	24.946714618856426	2.7851458885941645	28.583067012981967	111.66969658609024	113.47276314702052	41.78787391011925	0.0070254959451444745	-8.407269646766444e+22	0.9046598855714276	0.03124207311105087	1.681719913057174e+23	0.1497397409121084	-0.2995268555050669	0.0	22.921951	63.1992	-10.395177	-41.758121	-5.997419	-37.600975	0.0		True	0.0	None	0.0	None	0.0	None	0.0	None	0.0	None	0.0	None	0.0	None	0.0	None	8.5411e-07	12
2014-01-10 14:24:00	62.478098681911966	420063621.9434	3.7053192964331143e+21	1478115908988.7454	8.56587524774801	522309975027.4744	8.842385617171186e+20	-3.3555487670957435e+23	1855.0914816839718	-0.6015005261070784	25.18960892949736	2.5930851063829787	28.687875290751208	110.18208527806787	112.24129543551285	42.18005740941194	0.005695395776428198	-8.408018779986978e+22	0.6750896727749179	0.025465932429266844	1.665817900939851e+23	0.1507183495371343	-0.2986069979489944	0.0	22.924953	63.089104000000006	-10.398918	-41.638565	-5.973214	-37.49185900000001	0.0		True	0.0	None	0.0	None	0.0	None	0.0	None	0.0	None	0.0	None	0.0	None	0.0	None	8.478400000000002e-07	12
2014-01-10 14:36:00	58.60199288315671	401351788.1367	3.483285440870989e+21	1391939101035.8057	13.045698654264125	891508544908.9963	8.414455501255146e+20	-3.1696087049046985e+23	1844.4929560928765	-0.5946589799949019	24.883097513123488	2.2503516174402254	28.548022089530352	110.40956363007551	111.63086820132328	42.850982818832605	0.009174190333519072	-8.374718518527172e+22	1.2325101253785231	0.04076658318937091	1.5942346095510677e+23	0.15712039042123724	-0.29909872638891344	0.0	22.927971	62.97897	-10.40231	-41.539299	-5.976546	-37.380898	0.0		True	0.0	None	0.0	None	0.0	None	0.0	None	0.0	None	0.0	None	0.0	None	0.0	None	8.967199999999998e-07	12
2014-01-10 14:48:00	64.95321176555952	408192996.72800004	3.625298004386105e+21	1581683788430.6523	11.142001879972993	856303310730.7617	8.711723210653933e+20	-3.234509790375933e+23	1801.8499224155114	-0.5966648540859039	25.246464190458607	3.036303630363036	28.70285234131571	111.87030847751268	113.09110486307074	43.40290126409118	0.007354456686450819	-8.141304361786768e+22	1.1111910952926374	0.03419116572572408	1.6318134669908196e+23	0.1501813410349843	-0.3010180235269369	0.0	22.930897	62.868797	-10.402493	-41.421505	-5.952204	-37.285065	0.0		True	0.0	None	0.0	None	0.0	None	0.0	None	0.0	None	0.0	None	0.0	None	0.0	None	8.7889e-07	12
2014-01-10 15:00:00	61.93009927706074	401835301.1112	3.683185366040325e+21	1486281674686.056	9.862760102854557	752239136123.408	8.560595595411203e+20	-3.161539631892232e+23	1861.3359543867568	-0.5924313088090826	25.742072116459983	3.2885906040268456	28.869153961710172	110.04029055427476	111.51213837218218	41.81220306913799	0.006619302082452721	-8.090847014040385e+22	0.9925499728512566	0.030826177227368762	1.6188440203410426e+23	0.151611924694841	-0.30335026392011155	0.0	22.933846	62.75859499999999	-10.386938	-41.299362	-5.927962	-37.182899	0.0		True	0.0	None	0.0	None	0.0	None	0.0	None	0.0	None	0.0	None	0.0	None	0.0	None	8.248e-07	12
2014-01-10 15:12:00	62.30841790977056	401314701.3045	3.492470855591654e+21	1522267398334.768	7.553428622860425	352521419827.5247	8.632899354976864e+20	-3.244706646920002e+23	1741.5793870002985	-0.6088044265358697	25.65375139511849	4.437086092715231	28.44013902413395	113.50614991565493	114.61483780641436	43.65214405477848	0.005002270611165844	-7.471287873932442e+22	0.42863250689534027	0.023398380726042795	1.5942049393600844e+23	0.14018380163554992	-0.2991207309323506	0.0	22.936703	62.64835400000001	-10.389606	-41.179237	-5.934012	-37.076172	0.0		True	0.0	None	0.0	None	0.0	None	0.0	None	0.0	None	0.0	None	0.0	None	0.0	None	8.8441e-07	12
2014-01-10 15:24:00	61.28054426781795	412232891.1581	3.544882183411873e+21	1512279456035.685	6.818573625147097	357466801552.8994	8.841200874872909e+20	-3.3197371497379355e+23	1714.3546765874114	-0.6063851283182314	25.38828193658321	3.6608863198458574	28.68725604123933	114.21338398404757	114.62007952454864	44.64675061273027	0.004379302264063647	-7.650453027656255e+22	0.4513853183355765	0.020593549825592247	1.6407319525538434e+23	0.13974362220919082	-0.2996970575407528	0.0	22.939529	62.53807800000001	-10.393415	-41.061329	-5.911497	-36.97155	0.0		True	0.0	None	0.0	None	0.0	None	0.0	None	0.0	None	0.0	None	0.0	None	0.0	None	8.2037e-07	12
2014-01-10 15:36:00	60.65465249160451	411243459.434	3.414468217498576e+21	1501185473172.215	10.030369801894796	855763751559.9838	8.648151939334443e+20	-3.3160033730972256e+23	1707.2048222081366	-0.6071604663919831	24.931301051482162	2.589641434262948	28.986759277321852	116.17732856105579	116.99135026084568	45.35608214682638	0.006660272112811951	-7.636273479262081e+22	1.0773666369886348	0.030352096610019506	1.619362037818327e+23	0.13982022469521646	-0.296505310614598	0.0	22.942326	62.427776	-10.3762	-40.9422	-5.916991	-36.874187	0.0		True	0.0	None	0.0	None	0.0	None	0.0	None	0.0	None	0.0	None	0.0	None	0.0	None	8.04e-07	12
2014-01-10 15:48:00	65.43497031767782	423189635.828	3.6125082416196815e+21	1607282245677.0076	5.542176681796915	341112425865.898	9.018978826687334e+20	-3.430744016899011e+23	1705.436827221835	-0.610436887538983	25.50503277158242	4.137931034482759	29.012010847412967	119.57310323701715	120.45290040872186	44.501098911736	0.0034747189227566874	-7.298861398851911e+22	0.4204882953827539	0.01626415968920418	1.679533276839496e+23	0.1298696204947646	-0.29884161015276084	0.0	22.945091	62.31744000000001	-10.375656	-40.82243	-5.9198	-36.76376	0.0		True	0.0	None	0.0	None	0.0	None	0.0	None	0.0	None	0.0	None	0.0	None	0.0	None	8.097e-07	12
2014-01-10 16:00:00	62.50093142986965	426800539.53900003	3.6116916387536254e+21	1581610443475.6772	8.756818782199877	743137156129.0789	9.166810045490461e+20	-3.3923241236187905e+23	1640.2636486565787	-0.5984941416098156	25.40279645764343	3.860072376357056	29.48890982061121	119.44820579686217	120.11449569051537	45.16989828503806	0.005281555357177247	-7.5213973546011214e+22	0.8812711403966873	0.02567085592335283	1.700263288453291e+23	0.13269699738025945	-0.29997063377540817	0.0	22.947823	62.207073	-10.377343	-40.702488	-5.9231099999999985	-36.653656	0.0		True	0.0	None	0.0	None	0.0	None	0.0	None	0.0	None	0.0	None	0.0	None	0.0	None	8.1435e-07	12
2014-01-10 16:12:00	68.5177405880022	446730905.3436	3.883023731400421e+21	1747477645906.276	10.259301351262092	793651047694.5933	9.678071834367453e+20	-3.6065141779968956e+23	1662.2323369983033	-0.6078958336064234	25.719035925979714	4.832291074474132	29.028989752835965	120.34948627308613	120.52732700241668	45.04310402954815	0.005832462394122849	-7.013500573252818e+22	0.8627613403029493	0.028565634433936657	1.811969641368593e+23	0.11821602708476366	-0.3054164606725807	0.0	22.950535	62.096684	-10.363393	-40.58268	-5.902282	-36.543633	0.0		True	0.0	None	0.0	None	0.0	None	0.0	None	0.0	None	0.0	None	0.0	None	0.0	None	8.0045e-07	12
2014-01-10 16:24:00	64.97731137223542	428769512.8489	3.5357030570660924e+21	1645889148346.9954	10.306990569155671	798659545837.8219	9.230088966932656e+20	-3.5182064470369185e+23	1590.4051419545306	-0.6178525780140005	25.17797175899624	4.062126642771804	29.258601675033393	116.832138314458	117.35708085812414	42.95562607569749	0.006157103087906615	-6.581183840718849e+22	0.9380940421763516	0.02971659403106681	1.7297668276092262e+23	0.1155759749629483	-0.3037743548851625	0.0	22.95322	61.986271	-10.362526	-40.46611	-5.90802	-36.433746	0.0		True	0.0	None	0.0	None	0.0	None	0.0	None	0.0	None	0.0	None	0.0	None	0.0	None	8.695299999999998e-07	12
2014-01-10 16:36:00	63.59295788130274	435589416.3546	3.606814347623665e+21	1621741613771.4219	8.042323440955222	596991848052.6296	9.46108856883381e+20	-3.561310207595091e+23	1580.8406517011206	-0.6156302504156748	25.02363214507789	3.725261932479627	28.94187124805212	115.36609009662479	115.33948160129809	43.05726905077749	0.004681212713012353	-6.3837532368551314e+22	0.6780170088167838	0.0228555794239766	1.778219762544625e+23	0.11035353211903716	-0.3073941369596961	0.0	22.955933	61.875832	-10.364714	-40.348244	-5.913496	-36.322563	0.0		True	0.0	None	0.0	None	0.0	None	0.0	None	0.0	None	0.0	None	0.0	None	0.0	None	8.4435e-07	12
2014-01-10 16:48:00	65.09048509596369	435425129.5584	3.535679814936483e+21	1635077529111.1626	11.8037137151763	905638542035.0627	9.377870808513202e+20	-3.57524778053731e+23	1585.6585965177062	-0.6182727552454982	24.623538038362927	4.228707564026206	28.673888028493906	119.04898086308685	119.14225789194587	43.86323087633164	0.007030204714220547	-6.267255353768753e+22	1.0566415184284756	0.033502981001093515	1.7719280523413786e+23	0.1083805507549848	-0.3064220737319777	0.0	22.958572	61.765373	-10.35057	-40.229935	-5.918863	-36.225552	0.0		True	0.0	None	0.0	None	0.0	None	0.0	None	0.0	None	0.0	None	0.0	None	0.0	None	8.2426e-07	12
2014-01-10 17:00:00	66.76972392150222	437531264.3336	3.626080396686462e+21	1656530444981.307	14.761399205485676	1247469833127.6606	9.401617447944269e+20	-3.577913117751457e+23	1620.4103222533686	-0.6157553248967004	24.46232174691786	4.3323442136498524	28.646931593354	122.69033179112968	122.1106637605788	45.6305536307907	0.008760474305926217	-6.01723174580238e+22	1.455762586319665	0.04176118693686351	1.8067102076155103e+23	0.10355596591299523	-0.3109330479169432	0.0	22.961243	61.654892	-10.350288	-40.111195	-5.920251	-36.113609	0.0		True	0.0	None	0.0	None	0.0	None	0.0	None	0.0	None	0.0	None	0.0	None	0.0	None	8.362900000000002e-07	12
2014-01-10 17:12:00	61.065281724310324	428497873.95800006	3.4858687548168104e+21	1560357525713.728	11.262978273355571	896287194168.2826	9.427029623775235e+20	-3.52944276795194e+23	1516.3572018106272	-0.6202189436712331	24.180136002555102	3.40843443096476	28.69553704548093	117.90610016042713	116.94561682438923	44.129855030801394	0.006506631007137823	-5.650255974004521e+22	1.0181613667522968	0.03244597766511652	1.7576816019896752e+23	0.09929034190580416	-0.30887239096073704	0.0	22.963848	61.544399	-10.352716	-39.99123400000001	-5.90111	-35.99892	0.0		True	0.0	None	0.0	None	0.0	None	0.0	None	0.0	None	0.0	None	0.0	None	0.0	None	1.0581e-06	12
2014-01-10 17:24:00	58.570999317001025	425994015.277	3.348956274906131e+21	1472882373745.8562	10.168798552424054	650619119486.0751	9.317699366297555e+20	-3.589201306595519e+23	1505.504822165666	-0.6344272146200545	23.863927590031672	3.343283582089552	28.005151746281985	120.03072486213912	119.06075318740528	44.761295622765246	0.006070924508909883	-5.222730430981532e+22	0.7638077149978898	0.029209932721859806	1.715659734037273e+23	0.09231698188536333	-0.3032600106048367	0.0	22.966442	61.433891	-10.334456	-39.874237	-5.905789	-35.888531	0.0		True	0.0	None	0.0	None	0.0	None	0.0	None	0.0	None	0.0	None	0.0	None	0.0	None	1.0561e-06	12
2014-01-10 17:36:00	62.20923756205795	437538108.7258	3.606781278450973e+21	1582437991445.7432	9.317861809841396	551310360773.5973	9.649398183260364e+20	-3.61167572486527e+23	1531.7876863145984	-0.6215561498142113	24.29788275820742	3.2712915961646925	28.383227530165684	119.292418990198	118.12482588337966	44.06172307101245	0.005255421212544499	-4.8548470807169184e+22	0.6114552291615037	0.02626626878309389	1.8244914965977164e+23	0.08355013819906927	-0.3139882969521989	0.0	22.969017	61.323368	-10.334447	-39.758232	-5.902595	-35.776432	0.0		True	0.0	None	0.0	None	0.0	None	0.0	None	0.0	None	0.0	None	0.0	None	0.0	None	8.7075e-07	12
2014-01-10 17:48:00	61.898244762683795	442536239.8861	3.7062850461458125e+21	1636878987906.9397	9.06324064411428	561147428497.2938	1.0004613624319368e+21	-3.6728238371678205e+23	1468.8338669606476	-0.6249405683866269	24.9640278032618	3.3157894736842106	28.68129123731369	116.91433375998709	115.58465151236086	42.63823992463696	0.00477012665479699	-4.5892963477042475e+22	0.5807715684542861	0.025207349571939368	1.8524420197580287e+23	0.0780880759650198	-0.3151978477746841	0.0	22.971584	61.212833	-10.337258	-39.637146	-5.8790010000000015	-35.665955	0.0		True	0.0	None	0.0	None	0.0	None	0.0	None	0.0	None	0.0	None	0.0	None	0.0	None	7.822e-07	12
2014-01-10 18:00:00	61.43262159385243	436321197.9224	3.556435512474763e+21	1624608518719.0933	7.35447369010054	491009369882.901	9.842136427892792e+20	-3.642181168086484e+23	1433.591923758471	-0.6285541685287906	24.60110092880661	4.3361884368308345	28.545421099425496	115.9018526700868	114.44139630635564	42.25059231939451	0.003937084416542045	-4.11439136204867e+22	0.5168913017512948	0.020700129997021473	1.823104595824859e+23	0.07100464590379578	-0.3146246549761143	0.0	22.97414	61.102291	-10.320314	-39.519238	-5.8212	-35.554531	66560.0		False	0.0	None	0.0	None	0.0	None	0.0	None	0.0	None	0.0	None	0.0	None	0.0	None	7.236799999999998e-07	12
2014-01-10 18:12:00	60.333174621550896	435720753.7568	3.4457834620519055e+21	1547409476763.383	9.79379924762877	700627547289.1035	9.700385278074153e+20	-3.643058355225546e+23	1435.0833610407901	-0.6295720723523579	23.73695866139905	2.4889380530973453	28.52809416726151	118.54623704161943	117.13679229196941	42.872097098345044	0.005416924362626532	-4.347496120809753e+22	0.7620422740701183	0.027586675983844514	1.796906407030431e+23	0.0751308893637686	-0.3105308727417678	0.0	22.976692	60.99174100000001	-10.322099	-39.400536	-5.798197	-35.440899	66560.0		False	0.0	None	0.0	None	0.0	None	0.0	None	0.0	None	0.0	None	0.0	None	0.0	None	8.494199999999998e-07	12
2014-01-10 18:24:00	59.32562213964529	423094837.89050007	3.260942219089324e+21	1497953079993.1555	7.584905373552853	458609410070.7553	9.284802892833779e+20	-3.543547509593578e+23	1446.9340643497376	-0.6306494381071982	23.2525344112148	2.828520919269299	28.09807186100307	120.85559012898788	119.04815305461516	43.62359408121599	0.004469596566619242	-3.977820890441061e+22	0.5314405809040894	0.021987802682205213	1.754512682000534e+23	0.07079375971836346	-0.3122527450415069	0.0	22.979237	60.881187	-10.304053	-39.284809	-5.773704	-35.328911	0.0		True	0.0	None	0.0	None	0.0	None	0.0	None	0.0	None	0.0	None	0.0	None	0.0	None	9.4077e-07	12
2014-01-10 18:36:00	61.63148467200617	431278947.3998	3.4675396954850103e+21	1556821795375.3481	7.178661943899709	380507154686.64624	9.55279417845054e+20	-3.576749418473689e+23	1479.3269186329926	-0.6244787787161179	23.872213449247035	2.7195467422096318	28.469328198983987	121.03943370634087	118.75699407878105	44.534634959055396	0.0040672305631159825	-3.7667900927360157e+22	0.42013196039588185	0.02049279504562033	1.79966723680932e+23	0.06576587290802026	-0.31421099625639376	0.0	22.981785	60.770634	-10.306405	-39.165157	-5.776043	-35.21700999999999	0.0		True	0.0	None	0.0	None	0.0	None	0.0	None	0.0	None	0.0	None	0.0	None	0.0	None	8.409000000000002e-07	12
2014-01-10 18:48:00	65.14667284532477	429717374.26580006	3.604543060984608e+21	1643221311407.6443	7.422648810406972	415633436557.6249	9.6077984685558e+20	-3.542258973072493e+23	1510.392187887115	-0.6207046307269314	24.22840718854321	3.5614913745130776	28.36488371148315	120.02913382668608	117.75120871668736	43.51247124677189	0.004130578080360029	-4.050582642503936e+22	0.4548429653173464	0.021315823840176537	1.831196514121696e+23	0.07097774110975116	-0.3208777688833002	0.0	22.984383	60.660084	-10.303559	-39.042469	-5.754721	-35.02071	0.0		True	0.0	None	0.0	None	0.0	None	0.0	None	0.0	None	0.0	None	0.0	None	0.0	None	1.4254e-06	12
2014-01-10 19:00:00	63.24304957901854	429249475.90760016	3.5655012273164507e+21	1559490413908.9531	9.502155849042706	577037329966.5453	9.449518169527712e+20	-3.522318452471193e+23	1564.5548345443535	-0.6178831138009179	23.96242352675138	2.913752913752913	28.25525273982557	122.0134436496902	119.5959319729084	44.76621538501921	0.005537386858416497	-3.710959326973224e+22	0.6612832981513658	0.027364985923246758	1.821368417641869e+23	0.0650974389476366	-0.31950341925547765	0.0	22.986931	60.54953	-10.288657	-38.905155	-5.74107	-34.87339	0.0		True	0.0	None	0.0	None	0.0	None	0.0	None	0.0	None	0.0	None	0.0	None	0.0	None	9.1299e-07	12
2014-01-10 19:12:00	61.23729133708224	423673819.52410007	3.5931086647063657e+21	1493788238480.5242	9.109195279620504	533022257255.40796	9.268399416613764e+20	-3.496949234097118e+23	1641.7258511454265	-0.6215058089024112	23.853211930071396	3.0946601941747574	27.88747385721004	123.36340009079912	121.17817369082472	44.80976632890351	0.0055274243201580715	-4.0971334248247285e+22	0.6360489371011647	0.026519166570943914	1.8095432128915847e+23	0.07281753473994182	-0.3216065041225641	0.0	22.989532	60.438984	-10.287463	-38.786098	-5.679305	-34.730919	0.0		True	0.0	None	0.0	None	0.0	None	0.0	None	0.0	None	0.0	None	0.0	None	0.0	None	9.6917e-07	12
2014-01-10 19:24:00	63.74430088616686	416252347.0104	3.5161184816692404e+21	1538458665043.3591	9.424760744285622	475119092223.2059	9.063240868789385e+20	-3.4328519169382e+23	1645.4891664932888	-0.6209919135286983	23.6997543475667	2.3617153511497824	28.024117012080684	124.25887367059376	122.17804393018663	45.465505534895385	0.005857526876498212	-3.9465754609039245e+22	0.5806973769141542	0.027935907637070642	1.772101067409107e+23	0.07139228567534664	-0.32056740559847485	0.0	22.992096	60.328445	-10.27147	-38.66753	-5.602373	-34.579147	0.0		True	0.0	None	0.0	None	0.0	None	0.0	None	0.0	None	0.0	None	0.0	None	0.0	None	7.902200000000002e-07	12
2014-01-10 19:36:00	64.24711594595037	416993374.5625	3.546761668880714e+21	1563508987669.192	8.653493773902529	671538731513.049	9.075950119440484e+20	-3.380196600985202e+23	1655.7131133914436	-0.6103799447886702	23.75569406360847	2.1078735275883447	28.48793641472868	123.91643196874628	121.77390557954143	45.463234430538655	0.005364844249164618	-4.530554129943157e+22	0.8187295229270233	0.02577294062092116	1.7798907814187645e+23	0.08181060766970732	-0.3214042747027201	0.0	22.994663	60.21791500000001	-10.269968	-38.549881	-5.57909	-34.433231	0.0		True	0.0	None	0.0	None	0.0	None	0.0	None	0.0	None	0.0	None	0.0	None	0.0	None	7.5874e-07	12
2014-01-10 19:48:00	62.81742999072128	410256693.36330014	3.364280874414617e+21	1506105912626.2844	6.8964166826435385	337463306986.39185	8.810111351732227e+20	-3.344367234877006e+23	1648.1847413471573	-0.6138267273638279	23.253284590250267	2.147039687703318	28.294398736921572	123.5921464983498	121.42986080128105	45.92564389051545	0.004486933430477254	-4.262088038081656e+22	0.4317739563119823	0.0208324769676754	1.7585555927733782e+23	0.07822656330528234	-0.3227661164546536	0.0	22.997246	60.107395	-10.253719	-38.430309	-5.5564860000000005	-34.290337	0.0		True	0.0	None	0.0	None	0.0	None	0.0	None	0.0	None	0.0	None	0.0	None	0.0	None	7.4628e-07	12
2014-01-10 20:00:00	59.74412654283349	391930816.2578	3.2492079302266e+21	1404176704229.7349	11.066036436417544	800603515095.5381	8.372421520507366e+20	-3.215943308890383e+23	1684.9940399016955	-0.6178548401698452	23.60238106685493	2.6170798898071626	28.274126169597398	123.65279355693116	122.47986807726946	44.85682449359338	0.007621237215163598	-4.153930301309339e+22	1.0843114171416766	0.03490383339462275	1.6716019544122742e+23	0.07980631795644752	-0.32115222787535785	0.0	22.999836	59.996887	-10.255466	-38.296761	-5.533182	-34.179176	0.0		True	0.0	None	0.0	None	0.0	None	0.0	None	0.0	None	0.0	None	0.0	None	0.0	None	9.944e-07	12
2014-01-10 20:12:00	58.04480030930064	384586553.3445	3.183652603381165e+21	1365991024224.893	11.826764893085027	962000740455.7867	8.208814657622033e+20	-3.186993189450186e+23	1706.2272495238267	-0.6239855977464115	23.72105468572657	2.7046263345195736	27.657948051459602	125.31767705311718	125.26484038760587	44.046031864846135	0.00841762625842351	-4.477841328539803e+22	1.3464840246744856	0.03787212641143297	1.621723324109792e+23	0.08767224565310505	-0.3175193474287037	0.0	23.002449	59.886398	-10.254511	-38.174919	-5.536835	-34.069107	0.0		True	0.0	None	0.0	None	0.0	None	0.0	None	0.0	None	0.0	None	0.0	None	0.0	None	1.001e-06	12
2014-01-10 20:24:00	64.85891797355622	388753858.5018	3.278332560300796e+21	1472602351950.5938	8.043794728472651	457367291212.8555	8.145474844250567e+20	-3.161504143666454e+23	1796.6102014236892	-0.6123597396512985	23.905747666046235	2.6200873362445414	28.302032580646475	128.58926239198325	128.04655549653086	46.58734627910199	0.005854290195394942	-4.844547897114044e+22	0.6546044782730598	0.025665771114780155	1.6455539189069774e+23	0.09383527441987076	-0.31873150360493796	0.0	23.005077	59.775928	-10.239819	-38.05476	-5.543849	-33.931728	0.0		True	0.0	None	0.0	None	0.0	None	0.0	None	0.0	None	0.0	None	0.0	None	0.0	None	1.0045999999999999e-06	12
2014-01-10 20:36:00	62.94757034219746	381009317.7804	3.179625021009705e+21	1442723389496.2246	7.068867183340383	515960011058.4467	7.976367170703879e+20	-3.1082537245295994e+23	1777.4437339279282	-0.6142828883415826	23.932648386532588	2.0044543429844097	28.236041195190893	126.58937965234394	126.7035469757908	45.396794646217785	0.005247859824306149	-4.840077933560295e+22	0.7480353863428936	0.02298606219975209	1.598980249289145e+23	0.09565425851056401	-0.3160058003576041	0.0	23.007729	59.665478	-10.236013	-37.915024	-5.547671	-33.82206	0.0		True	0.0	None	0.0	None	0.0	None	0.0	None	0.0	None	0.0	None	0.0	None	0.0	None	9.383200000000001e-07	12
2014-01-10 20:48:00	65.47786041718696	395107145.6894	3.3625719001742353e+21	1512694322489.045	4.464876544806973	202763608711.20065	8.32109813064448e+20	-3.219670545613811e+23	1812.435848011612	-0.6135981203791834	24.387727856983773	2.720114531138153	28.261056429689827	122.2368903308746	123.02237693923377	44.67363905375535	0.003196046202438778	-5.405035379883755e+22	0.2854233028302675	0.01400648586104994	1.6495481476010737e+23	0.10300804081329952	-0.3143674573231903	0.0	23.010445	59.555046	-10.224026	-37.796833	-5.524792	-33.711521000000005	0.0		True	0.0	None	0.0	None	0.0	None	0.0	None	0.0	None	0.0	None	0.0	None	0.0	None	9.006600000000002e-07	12
2014-01-10 21:00:00	61.29984106887818	382695963.5129	3.246330995175715e+21	1405443300845.6592	10.724220083001685	636958590659.4987	8.020707588243693e+20	-3.1096825092850244e+23	1818.7838275079212	-0.6118567050598304	24.300659079542328	2.9017857142857144	28.383480737959665	120.8604811436947	122.68484543446732	43.956643752009775	0.007979330418900062	-6.238996355343706e+22	0.9319760788760542	0.03477085756688654	1.5544114653155325e+23	0.12275760440053984	-0.30584378779358257	0.0	23.013142	59.444641	-10.218976	-37.676807	-5.530396	-33.602878999999994	0.0		True	0.0	None	0.0	None	0.0	None	0.0	None	0.0	None	0.0	None	0.0	None	0.0	None	8.5185e-07	12
2014-01-10 21:12:00	64.94837426336099	384881827.5033001	3.272090521924171e+21	1483406661664.1738	10.998749649720928	749704461383.729	8.07628709236911e+20	-3.109630373097684e+23	1819.676420568455	-0.608371534779964	24.449058686697068	3.840472673559823	28.47471454390353	121.3071026883997	123.85556865614113	43.52708632954816	0.008123153360207481	-6.39449026955685e+22	1.0888315091001808	0.0355352625241832	1.5605854321677346e+23	0.12510251678403067	-0.3053146646420776	0.0	23.015911	59.334259	-10.205496	-37.540081	-5.535668	-33.492233	0.0		True	0.0	None	0.0	None	0.0	None	0.0	None	0.0	None	0.0	None	0.0	None	0.0	None	8.1007e-07	12
2014-01-10 21:24:00	58.14468526688989	370496266.37030005	3.1425246548183346e+21	1315308487805.249	8.416116195379733	544409348827.1679	7.729422431805959e+20	-3.0121195599690056e+23	1855.9062692816615	-0.6121754377541052	24.446823162544856	3.294117647058824	28.28982773342275	119.96704037725807	122.19420018310828	43.047455667738	0.006600875447356654	-6.0688690276630736e+22	0.8396545002660298	0.028180298076324464	1.5122645706017714e+23	0.12334213432484742	-0.3073487645748331	0.0	23.018654	59.22390400000001	-10.206668	-37.420849	-5.536839	-33.357966999999995	0.0		True	0.0	None	0.0	None	0.0	None	0.0	None	0.0	None	0.0	None	0.0	None	0.0	None	9.6502e-07	12
2014-01-10 21:36:00	60.902163577282074	372510512.9528	3.1458254417163977e+21	1421426861389.5657	7.813302632280003	502433993042.4868	7.893992461215067e+20	-3.0360165311269626e+23	1791.8049466998175	-0.6136958182964527	24.37726289171479	3.177004538577912	28.14875376260283	118.72815133311052	121.46155810558643	43.0654172242431	0.005910213791437221	-6.0424451940179e+22	0.7473573940720357	0.025995874661317826	1.5059671867006214e+23	0.12214107893799242	-0.3044139435653145	0.0	23.021431	59.113583	-10.187463	-37.302147	-5.520409	-33.250389	0.0		True	0.0	None	0.0	None	0.0	None	0.0	None	0.0	None	0.0	None	0.0	None	0.0	None	8.315899999999998e-07	12
2014-01-10 21:48:00	65.1062206559618	396948172.7839	3.346772716332619e+21	1492609848478.9397	6.9075803826026965	439529737826.6918	8.383330444497377e+20	-3.238758587694382e+23	1793.6490034192734	-0.6143733026413656	24.305924035473595	3.8434163701067616	28.13685175346737	121.92400103168114	124.59671930471508	44.204805309100244	0.004916427318578432	-5.9085426666736514e+22	0.6151595535849416	0.02155848157764533	1.600872624712008e+23	0.1120815514226358	-0.3036760459051777	0.0	23.024239	59.003288	-10.187617	-37.182091	-5.524954	-33.141483	0.0		True	0.0	None	0.0	None	0.0	None	0.0	None	0.0	None	0.0	None	0.0	None	0.0	None	8.204600000000002e-07	12
2014-01-10 22:00:00	62.61512714596623	394769591.86830014	3.176585657539508e+21	1434640748378.7632	12.101509667271106	912050218077.7336	8.248838826112702e+20	-3.263373023652664e+23	1752.3281293883936	-0.6224586976625032	23.617027284263802	2.490842490842491	27.904871101591144	125.18733033458756	127.16582736915468	46.477134507674414	0.008865574847817663	-5.367486281271252e+22	1.3138824183161095	0.03778785194980254	1.587020069483592e+23	0.10237991477363692	-0.3027096315545673	0.0	23.027073	58.893024	-10.172002	-37.044445	-5.52837	-33.004944	0.0		True	0.0	None	0.0	None	0.0	None	0.0	None	0.0	None	0.0	None	0.0	None	0.0	None	7.702e-07	12
2014-01-10 22:12:00	60.36385456193696	397091085.80560017	3.234032483748456e+21	1406452719826.3909	9.101638890428127	544952148434.2148	8.305157059947413e+20	-3.226518258744861e+23	1746.9042854745364	-0.6118310248433527	23.7243788916292	2.5824964131994257	28.44841849508585	123.864844774022	125.80505538617666	45.16720886955864	0.0065291527191019575	-4.940243641879116e+22	0.7687058462390177	0.028440678154821944	1.632160766625918e+23	0.09367975284796834	-0.3094997500315753	0.0	23.029945	58.78279499999999	-10.170308	-36.923927	-5.534032	-32.895473	0.0		True	0.0	None	0.0	None	0.0	None	0.0	None	0.0	None	0.0	None	0.0	None	0.0	None	7.826100000000002e-07	12
2014-01-10 22:24:00	59.19426108128575	388030167.5637	3.1104389272145704e+21	1399392804989.4387	10.609668138238547	710438737749.6636	8.115756570872115e+20	-3.181745308799676e+23	1718.3568213050858	-0.617429605291629	23.68957168818977	2.494497432134996	28.404991912049393	123.52757814939993	124.84949693985949	45.712904848680296	0.0077840558607766295	-4.414364289213384e+22	1.0249181274255428	0.033809668762995335	1.618474975447936e+23	0.08566239394348972	-0.3140711365241819	0.0	23.032852	58.67260400000001	-10.153731	-36.804417	-5.538053	-32.76297	0.0		True	0.0	None	0.0	None	0.0	None	0.0	None	0.0	None	0.0	None	0.0	None	0.0	None	8.8568e-07	12
2014-01-10 22:36:00	58.6005652902462	402054402.23380005	3.277634514546512e+21	1460820406603.6396	10.945759014597263	888370543308.1766	8.67992053901342e+20	-3.281287698346558e+23	1616.2517084799229	-0.6145355318162181	23.98485958826468	2.881466928618205	28.81293454283325	121.61682188161792	122.42190927551235	45.19808190538607	0.007168146047542412	-4.4194601438165495e+22	1.1439495774327433	0.033724339224827996	1.674268263121112e+23	0.08276980074589113	-0.3135651098191147	0.0	23.035797	58.562447	-10.151936	-36.675194	-5.5435690000000015	-32.646244	0.0		True	0.0	None	0.0	None	0.0	None	0.0	None	0.0	None	0.0	None	0.0	None	0.0	None	9.8731e-07	12
2014-01-10 22:48:00	56.04923009580994	389094053.3008	3.031791499744761e+21	1351286401801.233	11.351697827933128	792596363603.3943	8.345955100381597e+20	-3.255259170759116e+23	1582.0510220550989	-0.6299679622667109	23.30525016051816	2.4255024255024256	28.13818311579655	121.29148532994608	122.55408678375356	44.240879217097905	0.007866734461492119	-3.962099849020994e+22	1.0800167877833755	0.035797867493576344	1.5723744307517503e+23	0.07667579867697417	-0.3042908303457656	0.0	23.038826	58.452328	-10.136125	-36.57069	-5.526056	-32.516441	0.0		True	0.0	None	0.0	None	0.0	None	0.0	None	0.0	None	0.0	None	0.0	None	0.0	None	9.272e-07	12
2014-01-10 23:00:00	53.60149808462407	385774945.1274	2.8577546789848136e+21	1283590039225.9648	11.080325956450784	808875079905.1741	8.200702845046395e+20	-3.199777621573045e+23	1502.6904596085815	-0.6245588708521005	22.93098018954795	1.4664804469273742	28.505750170167023	119.76548156554621	120.6875645017448	43.928975966680966	0.007737657790817584	-3.028506566311586e+22	1.1106468150818043	0.035360065435731614	1.6006494986166072e+23	0.05911287799099814	-0.3124279127230429	0.0	23.041843	58.342243	-10.13475	-36.45953	-5.530465	-32.40818	0.0		True	0.0	None	0.0	None	0.0	None	0.0	None	0.0	None	0.0	None	0.0	None	0.0	None	9.263700000000001e-07	12
2014-01-10 23:12:00	51.822562639638214	390493339.6968	3.03808063156272e+21	1265165168726.7417	8.67911378240945	665090192525.162	8.374473634385157e+20	-3.2554910540175976e+23	1555.1564374385007	-0.6277552226415319	23.551487823716002	2.4473147518694764	28.32399551593073	121.60849277917387	122.16495396811615	45.06822157742602	0.00590014533134565	-3.106911803584666e+22	0.8889914551602016	0.027308802039865517	1.602981051625206e+23	0.05991047367738681	-0.3091022860318689	0.0	23.044956	58.232204	-10.118072	-36.350433	-5.535953	-32.292915	0.0		True	0.0	None	0.0	None	0.0	None	0.0	None	0.0	None	0.0	None	0.0	None	0.0	None	8.500400000000002e-07	12
2014-01-10 23:24:00	52.37395524306146	388206978.3625001	2.92137711315019e+21	1246700853438.0984	10.674789210041268	708152549736.9893	8.23266363279565e+20	-3.2461789527369074e+23	1544.7743484363566	-0.6296461259201097	23.04489394791697	2.8792134831460685	28.29673674830339	123.88157637260099	124.39037607117628	45.70994572236824	0.007496340737388531	-3.421393183074448e+22	0.9777740570411328	0.033746804621871435	1.5822107391511518e+23	0.06636316094514755	-0.3068940057835614	0.0	23.04805	58.1222	-10.115989	-36.240662	-5.541045	-32.16663	0.0		True	0.0	None	0.0	None	0.0	None	0.0	None	0.0	None	0.0	None	0.0	None	0.0	None	1.0309e-06	12
2014-01-10 23:36:00	53.89098674895739	397749730.6246	2.947745164656924e+21	1273198651986.6836	7.9328680172700885	448358491927.2177	8.445339705201235e+20	-3.383486465612518e+23	1524.4601132643545	-0.6405338040302946	23.056345226461467	2.403846153846154	27.97788655639948	124.94132391103676	125.67582745736296	44.463019703053035	0.005448398363509677	-2.9321227323455056e+22	0.6054489044772828	0.02431448899117912	1.608473715842659e+23	0.05550853377783405	-0.30450300255743085	0.0	23.051189	58.012238	-10.122112	-36.132046	-5.545562	-32.058521	0.0		True	0.0	None	0.0	None	0.0	None	0.0	None	0.0	None	0.0	None	0.0	None	0.0	None	9.6953e-07	12
2014-01-10 23:48:00	53.87351947553679	394970570.5726	2.848785867212796e+21	1315067642658.2222	7.676781399645756	372789548426.9992	8.467044369228603e+20	-3.376310247386241e+23	1446.4588732191464	-0.6436726326152176	23.031299239050817	2.7646662171274445	27.99768158158937	120.88982051629075	122.1220168667332	42.716084871957314	0.005176521510212917	-2.950392091951818e+22	0.4942280760029796	0.023649889078497667	1.5884436071759875e+23	0.05624739748202694	-0.30282693339076194	0.0	23.05436700000001	57.902317	-10.128674	-36.021988	-5.550569	-31.922979	0.0		True	0.0	None	0.0	None	0.0	None	0.0	None	0.0	None	0.0	None	0.0	None	0.0	None	8.626999999999998e-07	12
2014-01-11 00:00:00	53.013807464288995	401829236.64980006	2.8435083382016736e+21	1286875224580.231	7.995476944936848	453540560316.1494	8.59346800212999e+20	-3.4412067135362435e+23	1431.2330774315744	-0.6448469964076441	22.67387279013392	1.938502673796792	28.02067628688405	124.53788310124136	125.36672195303508	43.63786900873495	0.005344570150358856	-2.78728227194454e+22	0.5960470931263028	0.024193980848140662	1.601810090055127e+23	0.052230823394991625	-0.3001628531423088	0.0	23.05759	57.792439	-10.131424	-35.910835	-5.554615	-31.814751	0.0		True	0.0	None	0.0	None	0.0	None	0.0	None	0.0	None	0.0	None	0.0	None	0.0	None	8.141299999999998e-07	12
2014-01-11 00:12:00	55.326847012800464	397919860.7343	2.908420490303013e+21	1299754679524.0703	10.533057182526884	607371383492.2515	8.463189243420253e+20	-3.3875334873272e+23	1500.0021246092222	-0.6410258090661641	22.77768182779581	2.3287671232876708	28.152552176469694	126.40111713106268	127.01739634824614	44.34591047760515	0.007214422727758141	-2.9275024850639477e+22	0.8178780301496772	0.03226067204334602	1.5940733170633197e+23	0.055397375584676035	-0.301647833624087	0.0	23.060852	57.682602	-10.123074	-35.834629	-5.558505	-31.708206	0.0		True	0.0	None	0.0	None	0.0	None	0.0	None	0.0	None	0.0	None	0.0	None	0.0	None	8.1422e-07	12
