Timestamp	TOTUSJH	TOTBSQ	TOTPOT	TOTUSJZ	ABSNJZH	SAVNCPP	USFLUX	TOTFZ	MEANPOT	EPSZ	MEANSHR	SHRGT45	MEANGAM	MEANGBT	MEANGBZ	MEANGBH	MEANJZH	TOTFY	MEANJZD	MEANALP	TOTFX	EPSY	EPSX	R_VALUE	CRVAL1	CRLN_OBS	LAT_MIN	LON_MIN	LAT_MAX	LON_MAX	QUALITY	NOAA_AR	IS_TMFI	BFLARE	BFLARE_label	CFLARE	CFLARE_label	MFLARE	MFLARE_label	XFLARE	XFLARE_label	BFLARE_loc	BFLARE_label_loc	CFLARE_loc	CFLARE_label_loc	MFLARE_loc	MFLARE_label_loc	XFLARE_loc	XFLARE_label_loc	XR_MAX	XR_QUAL
2014-02-18 04:36:00	1299.6930776277475	12351187250.1573	1.4615620071038259e+23	27542960904822.23	7.144268984410968	6968688630892.053	1.455983835415094e+22	-5.712486278665263e+24	4586.910501825383	-0.34826035574963204	34.454485597789734	25.51577543450173	45.287936295586654	128.86663817023188	129.57633710876215	70.52959038340087	0.0002977647223944888	-4.281277809484443e+23	0.5650964360294515	0.0008580356305242304	-2.1964659193008728e+24	0.02610070747237633	0.1339070179134671	3.4813575936704684	292.364227	274.928619	-21.149584	5.653449	-5.129477	28.201311	0.0	11977.0	True	0.0	None	0.0	None	0.0	None	0.0	None	0.0	None	0.0	None	0.0	None	0.0	None	1.5315e-06	12
2014-02-18 04:48:00	1296.6902509202455	12397278454.1584	1.4695767628957094e+23	27375974628691.35	5.359493678589359	5824758598250.824	1.4505772960827105e+22	-5.677565786673836e+24	4651.221731128833	-0.3448444838990124	34.40169704259999	25.28266991719557	45.45282024168443	129.35759763222586	129.70515451535178	71.69687466639105	-0.00022527399767094101	-4.339548320202851e+23	0.4763336345878211	-0.0006429176324379142	-2.23813740026531e+24	0.026357586280156074	0.13594018381982104	3.4987213033043325	292.367584	274.819427	-21.145388	5.778408	-5.126131	28.319403	0.0	11977.0	True	0.0	None	0.0	None	0.0	None	0.0	None	0.0	None	0.0	None	0.0	None	0.0	None	1.4145e-06	12
2014-02-18 05:00:00	1306.6399822890628	12494901236.5587	1.49224595471566e+23	27783535015289.31	9.280433362709239	6925565466826.131	1.467740474847621e+22	-5.674570362571878e+24	4633.001649993671	-0.34196973291114385	34.52467847949993	25.650434997732237	45.358928711042395	129.04183020222564	129.14474236338776	71.64079052669184	0.00038265094473711455	-4.527993135056602e+23	0.5555541473924355	0.0011069364893714505	-2.3205788835334988e+24	0.02728729232492948	0.13984631263634967	3.5900074589511504	292.370911	274.710266	-21.140381	5.87642	-5.121825	28.430223	0.0	11977.0	True	0.0	None	0.0	None	0.0	None	0.0	None	0.0	None	0.0	None	0.0	None	0.0	None	1.2044e-06	12
2014-02-18 05:12:00	1276.1741081365628	12498584529.918	1.4978045264803486e+23	27184256780074.58	11.619908823617205	6648163751767.979	1.4709888435315425e+22	-5.615010717932972e+24	4648.725077465126	-0.33828066836294296	34.68229806959856	25.361691603808584	45.50843556250224	129.0037102269327	128.97675178164184	71.85422102438959	0.00047899372701336426	-4.177287166851061e+23	0.5331146552159229	0.0013894350090201946	-2.3902011751518865e+24	0.0251663899809352	0.14399952051203255	3.6639743481234848	292.37426800000014	274.60107400000004	-21.135981	5.972187	-5.118153	28.533548	0.0	11977.0	True	0.0	None	0.0	None	0.0	None	0.0	None	0.0	None	0.0	None	0.0	None	0.0	None	1.0852e-06	12
2014-02-18 05:24:00	1299.3118642797665	12584491666.3799	1.4998882442002678e+23	27572483285676.25	4.091175474470209	5693229130722.418	1.493137414114528e+22	-5.713594763284984e+24	4593.842895926507	-0.3418701696164343	34.35490598269947	24.81594468171649	45.249766960288774	129.07286484758689	128.92314154613692	72.2788359696913	0.00016640941527232901	-4.412851748678976e+23	0.4505133929872606	0.0004845425571414085	-2.4081717447507705e+24	0.02640408426420655	0.14409178756144594	3.591070815357511	292.377655	274.491943	-21.131702	6.094106	-5.113508	28.64327	0.0	11977.0	True	0.0	None	0.0	None	0.0	None	0.0	None	0.0	None	0.0	None	0.0	None	0.0	None	1.2009e-06	12
2014-02-18 05:36:00	1298.0230305503067	12564687131.4941	1.4993435239807463e+23	27843840713182.977	12.747293907038088	7382705601955.053	1.4992077070316849e+22	-5.721050366937092e+24	4538.0904871542825	-0.34285584594610113	34.37744118669216	24.973872497789213	45.39135814305949	127.58200051067014	127.04778125049124	71.59259934987902	-0.0005124128273922936	-5.0057719496814725e+23	0.5773132615400612	-0.00151100855023142	-2.438948247170728e+24	0.0299990048390388	0.14616331108271038	3.593146272279213	292.380981	274.382782	-21.126289	6.192922	-5.10766	28.749622	0.0	11977.0	True	0.0	None	0.0	None	0.0	None	0.0	None	0.0	None	0.0	None	0.0	None	0.0	None	1.118e-06	12
2014-02-18 05:48:00	1293.2896694669178	12490070956.7568	1.4778710824709665e+23	27433886123952.39	1.4124799851939045	6133488086191.117	1.499171298773032e+22	-5.745867026823255e+24	4480.302403319237	-0.34640014497632965	34.12420250178989	24.514856268620658	45.0417996035322	127.67912737378307	127.16961310999227	71.17773396281011	5.687228157488744e-05	-5.326464037584223e+23	0.4803911875126282	0.0001679875755836786	-2.439402360944872e+24	0.032111566561095366	0.14706385085874304	3.643864100361947	292.3843990000001	274.273651	-21.120678	6.28823	-5.102884	28.855827	0.0	11977.0	True	0.0	None	0.0	None	0.0	None	0.0	None	0.0	None	0.0	None	0.0	None	0.0	None	9.9531e-07	12
2014-02-18 06:00:00	1294.0456418501785	12412671429.266102	1.4583363808776665e+23	27243355429050.37	12.015615247879555	6695399758135.244	1.5005936854326267e+22	-5.774289395465516e+24	4416.8139002706375	-0.35028435403639563	33.968188743718216	24.302147856166037	44.91358934315495	128.21365595264237	127.35706684001488	71.3139205982378	-0.00048329238387416755	-5.505991869245623e+23	0.5238874213107385	-0.0014337898909782033	-2.474004383453096e+24	0.033400868456002694	0.15007994369343775	3.6232010743720715	292.387756	274.16452000000004	-21.116438	6.41378	-5.100711	28.971573	66560.0	11977.0	False	0.0	None	0.0	None	0.0	None	0.0	None	0.0	None	0.0	None	0.0	None	0.0	None	1.0593e-06	12
2014-02-18 06:12:00	1258.6234260095605	12367781241.9984	1.462980808370858e+23	26625615362779.82	18.79871405851522	5860205152936.317	1.4994351401661412e+22	-5.722307781487819e+24	4411.185888786738	-0.3483909506701928	34.053299651117904	24.466423737636646	44.95052712232243	127.13633247107107	126.18542448401676	70.65278734463791	-0.0007527615448090025	-5.4829621215150996e+23	0.4564924106982188	-0.0022545014216232037	-2.446002565513841e+24	0.03338188819872672	0.1489198399809826	3.576736167398869	292.3911740000001	274.055389	-21.112246	6.509641	-5.096117	29.081717	66560.0	11977.0	False	0.0	None	0.0	None	0.0	None	0.0	None	0.0	None	0.0	None	0.0	None	0.0	None	1.2695e-06	12
2014-02-18 06:24:00	1262.9079066309505	12270631079.7668	1.4392125552353229e+23	26633157865404.65	15.246023858279926	5722207953056.33	1.5018698112836045e+22	-5.804971662560069e+24	4332.4077978265805	-0.3562220021524656	33.8428541637796	24.17046453985768	44.60916895214637	126.76725152548742	125.78623024562755	69.73140032935845	-0.0006095240018502349	-5.540965081088762e+23	0.4450067489020851	-0.0018322831759628574	-2.4589328567253446e+24	0.034002124209713366	0.15089237920498122	3.4610115282974494	292.394562	273.946259	-21.107121	6.635052000000001	-5.094565	29.189047	0.0	11977.0	True	0.0	None	0.0	None	0.0	None	0.0	None	0.0	None	0.0	None	0.0	None	0.0	None	1.958e-06	12
2014-02-18 06:36:00	1223.4904705297827	12120895405.1198	1.4112348868895028e+23	25938506149192.68	22.402191406681837	5005606819793.706	1.4914643841082162e+22	-5.828693013013657e+24	4282.082852429074	-0.3620962451257471	33.78982172225481	24.109445519019985	44.56746707837262	125.46592813794638	124.7516335186842	68.69332761674428	-0.0009027317620358576	-5.518914374630464e+23	0.39237944966223504	-0.002713801011031793	-2.4384397658701734e+24	0.03428518482209381	0.15148333961242133	3.397555712469344	292.397919	273.837128	-21.1028	6.731041	-5.11137	29.296194	0.0	11977.0	True	0.0	None	0.0	None	0.0	None	0.0	None	0.0	None	0.0	None	0.0	None	0.0	None	1.3763999999999999e-06	12
2014-02-18 06:48:00	1234.6844874894587	12082720449.5376	1.3933488289890389e+23	26216389559901.4	18.757549529026306	5907080395788.492	1.5061953744012212e+22	-5.901637728289524e+24	4167.024301269391	-0.3677860263919343	33.256009419205064	23.298117404082927	44.028787473457406	126.1254315278599	125.1782676275856	67.93772100888522	-0.0007449975982614309	-5.808517704105249e+23	0.4563821387537253	-0.002269986149759461	-2.463161885990269e+24	0.03619828501806794	0.15350256388424344	3.4440617603424344	292.401337	273.727997	-21.097075	6.854814	-5.106711	29.42313	0.0	11977.0	True	0.0	None	0.0	None	0.0	None	0.0	None	0.0	None	0.0	None	0.0	None	0.0	None	1.0712e-06	12
2014-02-18 07:00:00	1229.8306068102588	12122056653.532402	1.3918256694317496e+23	26123023854019.05	2.9515027651076267	6641338803411.0625	1.5133812992543384e+22	-5.994967853750312e+24	4169.922211702713	-0.3723899845050773	32.92176984260179	22.619663390761147	43.65995797327856	126.96409827878	126.19644455380327	67.64848282980314	-0.00011744002726037031	-5.922322442510662e+23	0.5140256556317508	-0.0003548291907182741	-2.437890571075748e+24	0.03678774626324247	0.15143467890658405	3.458290590805224	292.404694	273.618835	-21.093273	6.951250999999999	-5.103947	29.555616	0.0	11977.0	True	0.0	None	0.0	None	0.0	None	0.0	None	0.0	None	0.0	None	0.0	None	0.0	None	1.1306e-06	12
2014-02-18 07:12:00	1252.8929184586889	12251353747.0554	1.3961583387865778e+23	26740515816673.44	11.508431087198227	8018028133474.555	1.5378803472198114e+22	-6.168944620260412e+24	4088.072934104429	-0.37915271435273457	33.20320273613216	23.28900295535853	43.61772922765441	126.77730748996835	126.02850013662069	67.06308178549394	-0.0004475376662336468	-5.852741934046183e+23	0.6065054396553387	-0.0013622276109237785	-2.4320491390956986e+24	0.03597184165686365	0.14947743727490942	3.4202330727299666	292.408112	273.509705	-21.089104000000006	7.0770589999999975	-5.0994519999999985	29.663691	0.0	11977.0	True	0.0	None	0.0	None	0.0	None	0.0	None	0.0	None	0.0	None	0.0	None	0.0	None	1.1264e-06	12
2014-02-18 07:24:00	1280.4438461079965	12370490170.2518	1.3755723562629637e+23	27504494858292.746	14.891992111300356	7063004498090.692	1.5704080032854771e+22	-6.437110647683567e+24	3935.216122846037	-0.3918245109942914	32.959010767807165	23.228600737054066	43.24879234092386	126.67116115960121	126.59599244234495	66.0181774316071	-0.0005658266693757497	-5.634769853852026e+23	0.5219820447574917	-0.001729879075916744	-2.4138139450775968e+24	0.034298632777820116	0.1469279495765044	3.495220484159792	292.411469	273.400574	-21.084644	7.175649000000001	-5.096058	29.79917	67584.0	11977.0	False	0.0	None	0.0	None	0.0	None	0.0	None	0.0	None	0.0	None	0.0	None	0.0	None	9.8277e-07	12
2014-02-18 07:36:00	1285.7922661635996	12431565758.652	1.3763567134483293e+23	28005028574905.36	6.8511538745347424	7406615135341.275	1.5853652467103792e+22	-6.551669731693928e+24	3857.7282725240007	-0.396838352792942	33.23185022739775	23.53992183137912	43.21487274860645	126.16844051014492	126.19685520547272	65.21596806562769	-0.00025503104059465244	-5.854575204507738e+23	0.5362900775287923	-0.0007890815330296142	-2.4308674074158293e+24	0.035461494177890435	0.1472390180399913	3.4957095369211166	292.414825	273.29141200000004	-21.078911	7.298577000000001	-5.11154	29.905449	0.0	11977.0	True	0.0	None	0.0	None	0.0	None	0.0	None	0.0	None	0.0	None	0.0	None	0.0	None	9.352500000000001e-07	12
2014-02-18 07:48:00	1307.5710733109415	12524988540.8415	1.39540308802289e+23	29102913994930.44	13.454932238551493	7529903866599.353	1.6009861241305068e+22	-6.57249292474139e+24	3844.8490831919758	-0.395130229768258	33.35360185662832	23.67169203747073	43.290674561652935	126.02549882448193	126.46708181569969	65.11880370805014	-0.0004923496867151454	-5.787163931616618e+23	0.5359786396964635	-0.0015399954023223642	-2.416446013797016e+24	0.03479172119605172	0.14527377656960735	3.4951292441452013	292.418152	273.18225099999995	-21.0742	7.393628	-5.107923	30.040003	0.0	11977.0	True	0.0	None	0.0	None	0.0	None	0.0	None	0.0	None	0.0	None	0.0	None	0.0	None	1.0101999999999999e-06	12
2014-02-18 08:00:00	1309.6574815221718	12349645802.9216	1.3576934605278307e+23	28417774656917.58	0.44264398568050334	9085526612385.594	1.5696604140457274e+22	-6.576249336263212e+24	3883.625174740993	-0.4009694018438105	33.032494215006395	23.38550372283848	42.91720659684295	126.64249603960856	127.68732005548635	64.85009423585964	-1.681586390914802e-05	-5.2240991416102944e+23	0.6713729654320768	-5.116839390810692e-05	-2.4155046100206705e+24	0.03185256216538936	0.14727900192137572	3.4819497324463398	292.421509	273.073059	-21.070095	7.493613000000002	-5.1049419999999985	30.15423	0.0	11977.0	True	0.0	None	0.0	None	0.0	None	0.0	None	0.0	None	0.0	None	0.0	None	0.0	None	1.0183e-06	12
2014-02-18 08:12:00	1287.4562843695094	12269877111.6676	1.3350987336594541e+23	27496107349803.977	3.58407455988535	7479954469297.27	1.547824383391925e+22	-6.606088223511911e+24	3990.442144153927	-0.4054074053718981	32.22493690653882	21.50994323820109	42.18437906061547	129.22167316806448	130.56419733835338	66.1211763716457	-0.0001422646989197535	-5.024594748891104e+23	0.5775440736455089	-0.00041568521772403287	-2.414549663256232e+24	0.030835312082924282	0.14817790513883142	3.4873373145733053	292.424896	272.963898	-21.065811	7.588461	-5.1032410000000015	30.262053	0.0	11977.0	True	0.0	None	0.0	None	0.0	None	0.0	None	0.0	None	0.0	None	0.0	None	0.0	None	1.0017e-06	12
2014-02-18 08:24:00	1297.6183035585784	12279556143.6449	1.3276423578092862e+23	27521551724667.42	26.613717894720914	8326308829194.638	1.5518675604776432e+22	-6.654077421488796e+24	3986.8292675988905	-0.4080305306356024	31.945600367258205	21.46360917248256	41.971310481498925	129.44221689130705	131.37316216279828	65.53272065709749	0.001061364621923067	-4.295357904196141e+23	0.6459198334715723	0.00307851166683273	-2.358877284209576e+24	0.026339296252535057	0.14464724243694652	3.4310006147726098	292.428162	272.854675	-21.062265	7.688776	-5.119045	30.392744	0.0	11977.0	True	0.0	None	0.0	None	0.0	None	0.0	None	0.0	None	0.0	None	0.0	None	0.0	None	1.0148e-06	12
2014-02-18 08:36:00	1275.2697980103426	12148940799.7485	1.3406362287986516e+23	26628361667901.25	23.50119911359477	6070716846992.452	1.5082784681733371e+22	-6.457239047915412e+24	4213.722926184011	-0.4002173436725739	32.324812105843776	22.0812288683892	42.10296498296595	130.35572608782795	132.24905878348216	66.86834053998885	0.0009809742085233866	-4.260312326730223e+23	0.4929197606270523	0.002763033491946514	-2.357980883212596e+24	0.02640526190787273	0.14614680337948935	3.4427020785420637	292.431458	272.745453	-21.058319	7.748498	-5.117714	30.527641	0.0	11977.0	True	0.0	None	0.0	None	0.0	None	0.0	None	0.0	None	0.0	None	0.0	None	0.0	None	9.5931e-07	12
2014-02-18 08:48:00	1261.6490558187884	12115875006.6371	1.32581034187762e+23	26392636619658.24	16.990383692936746	5400440075913.403	1.4917015150081564e+22	-6.416740890479303e+24	4260.4895535462265	-0.3987926813416013	31.81652909309021	21.40235575281666	41.95882368537124	131.21071709610987	132.9193562856032	67.80106849219769	0.0007250931927678707	-3.464763777977915e+23	0.44832274424758894	0.002005049259181433	-2.3764629831075568e+24	0.021533087603477486	0.14769429860393396	3.4711869137276565	292.434723	272.63622999999995	-21.055042	7.844011	-5.115602	30.668186	0.0	11977.0	True	0.0	None	0.0	None	0.0	None	0.0	None	0.0	None	0.0	None	0.0	None	0.0	None	9.6347e-07	12
2014-02-18 09:00:00	1238.5891013573978	12035555667.754398	1.315090590611814e+23	25530819884461.844	8.141160240929034	3522746131301.785	1.4727061405880172e+22	-6.364296830489691e+24	4325.35292357921	-0.3981730282990198	31.98899803973093	21.315628548964792	42.04242556321465	132.47611842723404	133.4761894059609	69.05544428630408	0.00035561788498357727	-3.6127632707827214e+23	0.29931856273412616	0.000967603913240834	-2.399608875345826e+24	0.022602730990853928	0.15012805940356122	3.5066276879883564	292.438019	272.526978	-21.050632	7.938641	-5.113844	30.804356	0.0	11977.0	True	0.0	None	0.0	None	0.0	None	0.0	None	0.0	None	0.0	None	0.0	None	0.0	None	1.0329e-06	12
2014-02-18 09:12:00	1237.6237895834165	12065699479.247702	1.3166628428605086e+23	25342496580110.04	2.9116143559265937	3295649800834.9688	1.4773705442177122e+22	-6.321674473255171e+24	4316.195112947979	-0.3945182597209271	31.950501022338056	20.9055289508054	42.02912006401347	132.84383743279102	133.85861640901362	69.8032050577881	0.0001267572640803915	-3.464651099513303e+23	0.2790984889144376	0.0003460884758757169	-2.4293795817043693e+24	0.021621931469311392	0.15161087601558235	3.4259966263924198	292.441284	272.417694	-21.059168	8.032319000000001	-5.126313	30.911356	0.0	11977.0	True	0.0	None	0.0	None	0.0	None	0.0	None	0.0	None	0.0	None	0.0	None	0.0	None	1.1942e-06	12
2014-02-18 09:24:00	1217.5353005208228	12026771145.387	1.3201100342287832e+23	25279305357234.664	1.2314584704808165	3491570405984.2964	1.4688315960481532e+22	-6.253340181459679e+24	4279.981967998817	-0.3915169220359753	32.781787289367905	22.170075349838534	42.956745252944145	131.43603324462424	131.90078667855934	69.72548159801798	-5.302296966548187e-05	-3.300623893999701e+23	0.29244665312168483	-0.00014716760659489185	-2.486177352839725e+24	0.02066495777102464	0.15565769278078004	3.3695884269079115	292.444519	272.308411	-21.058237	8.127469999999999	-5.122632	31.020113	0.0	11977.0	True	0.0	None	0.0	None	0.0	None	0.0	None	0.0	None	0.0	None	0.0	None	0.0	None	9.1345e-07	12
2014-02-18 09:36:00	1214.3436614085726	12126977886.513205	1.3429764020941242e+23	25715504315880.16	22.085963565781864	2644190997658.123	1.485382818100222e+22	-6.197694232336397e+24	4261.278187357439	-0.3848266191186741	32.921748642451355	22.50642619358645	43.33473270460695	130.5998800422272	130.42416002833636	70.21277222219037	-0.00093071907146152	-3.674618988769801e+23	0.2167519703117523	-0.002630258050136673	-2.5269965555093137e+24	0.022816407989596502	0.1569060209371751	3.4392782900834136	292.447693	272.199097	-21.054251	8.223113	-5.119918	31.154232	0.0	11977.0	True	0.0	None	0.0	None	0.0	None	0.0	None	0.0	None	0.0	None	0.0	None	0.0	None	8.9491e-07	12
2014-02-18 09:48:00	1232.402911546962	12186958347.7254	1.3526256997858902e+23	26224727621424.25	28.02830401505605	2890663135499.388	1.5065648352846265e+22	-6.217360290909584e+24	4174.904077168238	-0.38414766684577895	33.03911421154556	22.741433021806852	43.49291959704157	130.49545142771444	130.05960076497058	69.99650130877072	-0.0011489364220150053	-3.773285685168981e+23	0.2304996753964756	-0.003323143254946744	-2.572767502894287e+24	0.023313734840484573	0.15896177595152566	3.4029631764114536	292.450867	272.089752	-21.050732	8.322142	-5.119198	31.264318	0.0	11977.0	True	0.0	None	0.0	None	0.0	None	0.0	None	0.0	None	0.0	None	0.0	None	0.0	None	2.0234999999999998e-06	12
2014-02-18 10:00:00	1201.0632713651687	12100069752.5356	1.332556194196566e+23	25618491741719.074	26.11627463905803	3256917743086.7485	1.4985105495147932e+22	-6.185077625835632e+24	4166.414750125894	-0.3848972729698235	32.51256595635649	21.849437362454843	43.168035342476884	131.70053870130843	131.1487608656261	70.90829063833131	-0.0010844277971622316	-3.720832940769454e+23	0.2630834370271438	-0.003116992725430572	-2.59475433613642e+24	0.023154736912213987	0.16147151716153313	3.4496497616222914	292.454041	271.980377	-21.045506	8.4451	-5.11984	31.379679	0.0	11977.0	True	0.0	None	0.0	None	0.0	None	0.0	None	0.0	None	0.0	None	0.0	None	0.0	None	3.3761e-06	12
2014-02-18 10:12:00	1184.4576984902092	12065930512.8769	1.3439111735805906e+23	25520619232333.594	48.32621886791476	3846873547062.812	1.4934264603462668e+22	-6.076150470081855e+24	4144.098904094098	-0.3791884691134206	32.980779751511264	22.396494532945656	43.81618500939876	129.83665677058409	128.86661003707854	70.59321656346636	-0.0019792037870301326	-4.3739514800794346e+23	0.3064668534642952	-0.005808025577826311	-2.632846532187524e+24	0.027296097650546795	0.16430551726236567	3.228612492741608	292.457214	271.871002	-21.041939000000006	8.542401	-5.132304	31.497114	0.0	11977.0	True	0.0	None	0.0	None	0.0	None	0.0	None	0.0	None	0.0	None	0.0	None	0.0	None	2.6453e-06	12
2014-02-18 10:24:00	1177.5265607829435	11999776099.1315	1.338869020987823e+23	25780635169441.594	47.30765260514504	4481250307679.463	1.499813186159467e+22	-6.055830694417228e+24	4059.8865159219567	-0.3800039255068546	32.96035448215315	22.406572164948454	43.83857467550171	128.30180748606932	126.85121799694201	69.90037760181829	-0.0019052618850239648	-4.308575085374708e+23	0.35107334529131384	-0.0057135750118189905	-2.655757581315504e+24	0.027036347751478555	0.16664902917858065	3.282743300772153	292.460266	271.761566	-21.037317	8.667727000000001	-5.127538	31.638277	0.0	11977.0	True	0.0	None	0.0	None	0.0	None	0.0	None	0.0	None	0.0	None	0.0	None	0.0	None	1.6211000000000005e-06	12
2014-02-18 10:36:00	1184.060162599438	11910882740.6987	1.329382470796296e+23	25816810330192.65	54.72657256881397	4401904918822.052	1.4936556370390172e+22	-6.031413264708153e+24	4027.5523560469537	-0.38129637679323575	33.25837641452129	22.378691558702826	44.008630039869175	127.65888580562195	126.04588303792258	69.30329129378514	-0.002201922127979961	-4.661656559752213e+23	0.3445577604713739	-0.006652692097828863	-2.661491579669156e+24	0.029470253124396818	0.16825527478469998	3.331838183333524	292.463318	271.65213	-21.032003	8.764242	-5.123668	31.782976	0.0	11977.0	True	0.0	None	0.0	None	0.0	None	0.0	None	0.0	None	0.0	None	0.0	None	0.0	None	1.252e-06	12
2014-02-18 10:48:00	1181.3922559870553	11853566591.4398	1.31963806772048e+23	26217309303633.93	53.55921595196702	4831800853352.948	1.501256043875563e+22	-6.022437875590412e+24	3932.836158440984	-0.38256989841697736	33.28982598988176	22.76577218396264	43.98089609021374	126.80917397929815	124.83298451190504	69.01990663665114	-0.002119813819044052	-4.546899530386991e+23	0.3720470856007884	-0.006536241130462562	-2.673657640331351e+24	0.0288837664644539	0.1698416742510713	3.3533722623802333	292.4663700000001	271.542664	-21.027449	8.889301	-5.118964	31.924263	0.0	11977.0	True	0.0	None	0.0	None	0.0	None	0.0	None	0.0	None	0.0	None	0.0	None	0.0	None	1.2542e-06	12
2014-02-18 11:00:00	1174.241730828963	11761095715.8427	1.3136388894611969e+23	25958037643309.625	55.58392420268653	5583107485962.113	1.4959141392633362e+22	-5.960894176105218e+24	3930.201678302402	-0.38163761445952094	32.945053726512214	22.47298156389065	43.82724578776162	126.35598042139	124.37225924930262	68.66422277264424	-0.002208603496749177	-4.419999116130404e+23	0.4315795396247092	-0.0068412784560562545	-2.670945308199506e+24	0.02829840404406172	0.17100340413007134	3.3226635231325217	292.469421	271.433167	-21.022724	8.985517	-5.1156760000000014	32.033524	0.0	11977.0	True	0.0	None	0.0	None	0.0	None	0.0	None	0.0	None	0.0	None	0.0	None	0.0	None	1.0434e-06	12
2014-02-18 11:12:00	1185.9602353455598	11793827435.76	1.3309923455448083e+23	26539833539258.73	48.50294993464982	6519551436106.117	1.5154971108208634e+22	-5.935876079126497e+24	3875.859976439652	-0.3789810623681705	33.281187308231786	22.77438316961869	43.863069301617365	125.64239921576986	123.99301976557176	67.9243940459333	-0.0018758876057646124	-4.721767866760813e+23	0.4905291409496106	-0.005964684303898439	-2.6697178072602566e+24	0.03014652897983398	0.17045040653335264	3.3010621394642103	292.472351	271.32360800000004	-21.017929	9.110232	-5.110785	32.168987	0.0	11977.0	True	0.0	None	0.0	None	0.0	None	0.0	None	0.0	None	0.0	None	0.0	None	0.0	None	9.158e-07	12
2014-02-18 11:24:00	1180.7620356673704	11763493007.9872	1.3239590883438877e+23	26255432423406.21	59.67416576112369	5244434675232.925	1.515740952230115e+22	-5.95567842800131e+24	3860.903364218761	-0.3812258714237237	33.075329467311896	22.539793191588238	43.75093727164965	125.12927279347721	123.8213289365225	67.59888273981852	-0.002311071056935196	-4.8199616503621564e+23	0.3951632528461148	-0.0073453982788916575	-2.6782183498189314e+24	0.030852808837848793	0.1714340585402246	3.366345520137831	292.475372	271.214081	-21.013132	9.208253	-5.110525	32.308571	0.0	11977.0	True	0.0	None	0.0	None	0.0	None	0.0	None	0.0	None	0.0	None	0.0	None	0.0	None	8.7175e-07	12
2014-02-18 11:36:00	1188.2298027520465	11717571634.811302	1.31381808225733e+23	26325031653422.07	63.53207335331263	5409671852845.472	1.519214689906391e+22	-5.995170276730557e+24	3807.2966470565507	-0.3852577593293969	33.238292742522695	22.721674876847292	43.58100937022933	124.49984484602749	123.31279209641066	66.92531433228142	-0.002445234137222409	-5.08170332840325e+23	0.4050654312033405	-0.007828449924221126	-2.6934521793305834e+24	0.03265571364129852	0.17308488392687868	3.2832055945629204	292.478302	271.104492	-21.007845	9.303124	-5.116037	32.454124	0.0	11977.0	True	0.0	None	0.0	None	0.0	None	0.0	None	0.0	None	0.0	None	0.0	None	0.0	None	9.528e-07	12
2014-02-18 11:48:00	1194.7415803715974	11796076561.002	1.3264002397002888e+23	26904879423968.77	72.68551897301012	5434348672666.481	1.5363977906859629e+22	-6.048131050924775e+24	3761.6745754609965	-0.3860745048074318	33.470548836808746	23.29102482015743	43.8580354973146	124.17202006994232	123.24168922042529	66.35184219145788	-0.0027375812200297585	-5.326437227701731e+23	0.3982323118023604	-0.008891063938566215	-2.6749094483102744e+24	0.034000612714210066	0.17074933263941186	3.4417001857827803	292.481171	270.994873	-21.003998	9.397923	-5.112166	32.596069	0.0	11977.0	True	0.0	None	0.0	None	0.0	None	0.0	None	0.0	None	0.0	None	0.0	None	0.0	None	1.2313e-06	12
2014-02-18 12:00:00	1197.8201591594611	11786789823.3484	1.3220637251631286e+23	26790109400135.27	65.77926262418511	6447703307087.539	1.540584414498869e+22	-6.077935452591831e+24	3758.009754784549	-0.3882826779857414	33.167419813676084	22.721781804454512	43.51672727564817	124.90304075423508	123.83884356148675	66.52453070147152	-0.002483267115564389	-5.485350752289825e+23	0.4735902955547866	-0.008039805680694853	-2.701375876904992e+24	0.035042601166189576	0.17257462964393055	3.4174589101725115	292.4840700000001	270.885223	-20.999359	9.491773	-5.1090550000000015	32.712837	0.0	11977.0	True	0.0	None	0.0	None	0.0	None	0.0	None	0.0	None	0.0	None	0.0	None	0.0	None	1.1056e-06	12
2014-02-18 12:12:00	1210.9359805308063	11857867116.4665	1.323218291551506e+23	26885879874447.12	42.84725359834489	6314732412763.305	1.5570229540457265e+22	-6.196789119733065e+24	3729.6129873814803	-0.39350258458355386	33.063051748379685	22.582818641212807	43.22396217521836	125.01289283683224	123.80040028982391	66.20189022656507	-0.0016038650046170649	-5.54707206854312e+23	0.4599277174412375	-0.005186073026538568	-2.7606358946217027e+24	0.03522448728958818	0.1753032640998708	3.466860197375373	292.486877	270.775513	-20.994843	9.590919	-5.1106989999999985	32.825981	0.0	11977.0	True	0.0	None	0.0	None	0.0	None	0.0	None	0.0	None	0.0	None	0.0	None	0.0	None	1.0691e-06	12
2014-02-18 12:24:00	1210.8676651553585	11872550915.9749	1.3274672498414996e+23	27115552686654.23	52.995260896567316	6519150740312.286	1.5616341133707725e+22	-6.204685222379096e+24	3721.807054058729	-0.3935167759435177	32.94084001941024	22.25862903526083	43.39056986551588	124.46089517464468	123.46699923027245	65.88541943273223	-0.0019733117700538915	-5.215980375249223e+23	0.4723172024807206	-0.006406409119524829	-2.762252147465338e+24	0.03308106224711434	0.17518899355168682	3.512723346131746	292.489716	270.665802	-20.991625	9.709863	-5.110518	32.954208	0.0	11977.0	True	0.0	None	0.0	None	0.0	None	0.0	None	0.0	None	0.0	None	0.0	None	0.0	None	1.0154e-06	12
2014-02-18 12:36:00	1219.0782996631015	11804548379.2545	1.325925553333576e+23	27383100890083.906	49.83329229140367	6000944452612.705	1.5624765169404247e+22	-6.166502317923802e+24	3709.886807637736	-0.3933480625741264	32.910743165341486	22.372919143876338	43.03570431630697	124.60111549460716	123.72334577721638	65.48681226364559	-0.0018517127040503746	-5.422886938434363e+23	0.43389471119533984	-0.00605955290331506	-2.773779379939708e+24	0.034591441968514165	0.17693348495727065	3.5302132354676656	292.492462	270.556061	-20.988106	9.804612	-5.108473	33.072575	0.0	11977.0	True	0.0	None	0.0	None	0.0	None	0.0	None	0.0	None	0.0	None	0.0	None	0.0	None	9.954e-07	12
2014-02-18 12:48:00	1211.6965581831228	11873003676.2364	1.3320677589917373e+23	27386678887656.18	46.51083126140118	6435206384101.83	1.5799426505492495e+22	-6.230749500397642e+24	3669.128487177309	-0.3951546940412979	32.88332551104533	22.62867176354392	42.93526933366442	123.75605808576223	122.7877691070796	64.84231709300056	-0.0017013875429418431	-5.372915562843233e+23	0.4580712118873457	-0.0056156641981393385	-2.7951791891382526e+24	0.03407507885222394	0.1772705157227135	3.6126171522407176	292.495148	270.446259	-20.983829	9.899856	-5.11693	33.18383	0.0	11977.0	True	0.0	None	0.0	None	0.0	None	0.0	None	0.0	None	0.0	None	0.0	None	0.0	None	9.8653e-07	12
2014-02-18 13:00:00	1231.0039678665605	11853066023.1967	1.31743657664589e+23	27893280177354.875	52.58940618883661	6082201254931.357	1.580243986474392e+22	-6.279640648580592e+24	3626.572265432231	-0.3989252723657617	32.83480216257039	22.175915771002412	42.901819431932395	124.09733837009097	123.09249713279176	65.10821777820509	-0.001922619317399796	-5.3814598162103884e+23	0.4326852856511652	-0.006343121689354383	-2.7396755776964825e+24	0.034186674732611964	0.17404273384233102	3.5932368527820686	292.497894	270.336456	-20.978958	9.994955	-5.113699	33.291023	0.0	11977.0	True	0.0	None	0.0	None	0.0	None	0.0	None	0.0	None	0.0	None	0.0	None	0.0	None	1.2467e-06	12
2014-02-18 13:12:00	1238.9728917481546	11944244139.0653	1.3297488469896847e+23	27976093818591.52	59.25803753389821	5608415204648.685	1.5914515949782074e+22	-6.324685587994448e+24	3637.856497958391	-0.39871976007513055	32.747886373220425	22.042581020200554	42.910528983461546	124.43786949453121	123.39008622853042	65.57273591001021	-0.002152958782658705	-5.032718692212737e+23	0.3965260391245422	-0.007093946001420908	-2.764116109085128e+24	0.031727180135147116	0.17425494066080569	3.5134540903525955	292.50058	270.226624	-20.981295000000006	10.090001	-5.115917	33.402279	0.0	11977.0	True	0.0	None	0.0	None	0.0	None	0.0	None	0.0	None	0.0	None	0.0	None	0.0	None	1.0097e-06	12
2014-02-18 13:24:00	1232.3341055392254	11924700987.8793	1.330181297105429e+23	27912242749095.203	48.521395168087466	4370692942164.9688	1.5893476599713212e+22	-6.287288470726736e+24	3629.544854512467	-0.3970117459675141	32.708507340557816	22.173503406290767	43.051067156919366	124.12063458552231	123.07446242442413	65.51634194365815	-0.0017582763867258831	-5.209884424883197e+23	0.3082181325682624	-0.005825265445261278	-2.7591130102142646e+24	0.03289789106133945	0.17422459278065122	3.5009070036106174	292.503235	270.11673	-20.981068	10.188892999999998	-5.114283	33.51189	0.0	11977.0	True	0.0	None	0.0	None	0.0	None	0.0	None	0.0	None	0.0	None	0.0	None	0.0	None	1.7537e-06	12
2014-02-18 13:36:00	1226.903271771753	11966687786.7912	1.3513503380451434e+23	27882540676098.336	49.19039226906701	3979961779619.32	1.5922978293585526e+22	-6.242506459843287e+24	3668.298201636214	-0.3928009404755282	32.90756354163692	22.3656224088828	43.1761417278732	124.12011254809393	123.10772413977764	65.25460886800269	-0.0017733936213521887	-5.2662694405204475e+23	0.2792242288176259	-0.005902701252694509	-2.7787614843161506e+24	0.03313725988656638	0.17484965877375475	3.6387866947662806	292.505829	270.006836	-20.983078	10.315247	-5.110053	33.624813	0.0	11977.0	True	0.0	None	0.0	None	0.0	None	0.0	None	0.0	None	0.0	None	0.0	None	0.0	None	1.5501e-06	12
2014-02-18 13:48:00	1235.985698295386	11988105566.3388	1.354428252022205e+23	27917202063028.28	59.63342059614109	4403896381925.288	1.592725829930134e+22	-6.223394253710792e+24	3676.653104117872	-0.3908986836740344	32.76071243302529	21.954648689570647	43.07935391833743	124.50465906012668	123.63358296762456	65.73127040045718	-0.0021498042682195134	-5.551225432974669e+23	0.3089741960283003	-0.007152760149189998	-2.791632966539658e+24	0.034867897260947994	0.1753457369779716	3.5892014536206123	292.508392	269.896881	-20.979233	10.410509	-5.106293	33.736645	0.0	11977.0	True	0.0	None	0.0	None	0.0	None	0.0	None	0.0	None	0.0	None	0.0	None	0.0	None	1.2144e-06	12
2014-02-18 14:00:00	1225.7162972861895	11981667184.2889	1.3492935228325008e+23	27682967140269.47	50.50603745932112	4402570632059.525	1.5977042679476e+22	-6.26784290969708e+24	3672.64486499086	-0.39390212785931294	32.74835411798594	22.11176980913823	42.87913560911048	124.91068726109829	123.5836464451214	66.06566229713661	-0.0018257613946181226	-5.686907134909196e+23	0.30972637933926395	-0.006048189639357242	-2.8156889917710487e+24	0.03573932617094423	0.1769517681326608	3.5218465670475645	292.510986	269.786926	-20.975672	10.536898	-5.102725	33.859959	0.0	11977.0	True	0.0	None	0.0	None	0.0	None	0.0	None	0.0	None	0.0	None	0.0	None	0.0	None	1.1568999999999999e-06	12
2014-02-18 14:12:00	1225.884051063209	11978062377.3733	1.342024221914132e+23	27377832910919.746	53.918205075037186	2743212193076.2656	1.593140465642727e+22	-6.320736335828315e+24	3707.946955147433	-0.3973457558074437	32.39629087319973	21.759072395699555	42.581944492482585	126.34798674832402	124.7696939226713	66.6342831699653	-0.001978577119189652	-5.550779935182495e+23	0.19590374415288134	-0.006443255813273689	-2.8249835341366045e+24	0.0348943340060529	0.17758931204776993	3.486798406150061	292.513458	269.67691	-20.971336	10.633006	-5.095268	33.968781	0.0	11977.0	True	0.0	None	0.0	None	0.0	None	0.0	None	0.0	None	0.0	None	0.0	None	0.0	None	1.0424e-06	12
2014-02-18 14:24:00	1208.3764883547424	11967324233.2804	1.3395454787774398e+23	26883332765593.58	63.30598285090493	3478288176742.713	1.5931151660875088e+22	-6.306645417119592e+24	3698.655964238968	-0.3968157428639739	32.635455090604395	21.63837043012724	42.523166884474456	125.667100889488	123.98491102491327	66.23124894771486	-0.002321451516351482	-5.532055728054039e+23	0.2482406520557081	-0.007574272696863428	-2.8356274907895733e+24	0.0348078361490517	0.1784184070645102	3.3777973589117103	292.5159910000001	269.56689500000005	-20.967112	10.732491	-5.094338	34.077332	0.0	11977.0	True	0.0	None	0.0	None	0.0	None	0.0	None	0.0	None	0.0	None	0.0	None	0.0	None	1.0762e-06	12
2014-02-18 14:36:00	1209.0066319457198	11967068988.2412	1.3365127342463363e+23	26881528910098.93	63.60359344784497	4573164766888.499	1.592456121082944e+22	-6.321362840247505e+24	3698.554627032644	-0.39775019636725295	32.28439135322525	21.407570746049245	42.37127955796362	126.23482531136221	124.34989560541435	66.44014790551918	-0.0023375080282192194	-5.368336124845311e+23	0.3271200737681934	-0.007604913733095408	-2.8779271302105684e+24	0.03377842408013138	0.18108374888461226	3.5223093769365637	292.518433	269.456818	-20.963867	10.855998	-5.104264	34.185963	0.0	11977.0	True	0.0	None	0.0	None	0.0	None	0.0	None	0.0	None	0.0	None	0.0	None	0.0	None	1.0896e-06	12
2014-02-18 14:48:00	1225.148599733081	12018742376.7069	1.3538810243436883e+23	27275603561025.96	84.61796449294405	4709416815349.949	1.5979762526159792e+22	-6.292973944153135e+24	3712.5090370488692	-0.3942615804697066	32.780781454960625	21.97742170429716	42.68684457348726	125.52526280326752	123.83152010409641	66.02909608351803	-0.0030814990711195947	-5.419682728395219e+23	0.31259052961246075	-0.010099253726785143	-2.8774274730458227e+24	0.033954894730285165	0.18027392347048213	3.5242804761436264	292.520844	269.346741	-20.961336	10.953963	-5.109582	34.29533	0.0	11977.0	True	0.0	None	0.0	None	0.0	None	0.0	None	0.0	None	0.0	None	0.0	None	0.0	None	1.2374e-06	12
2014-02-18 15:00:00	1237.0902433481333	12083240978.3281	1.346158141442052e+23	27531572686559.41	69.01230037446632	4817923099103.796	1.6101549572239537e+22	-6.38716070781602e+24	3669.8152314480894	-0.398026439269124	32.70334154283032	21.994134897360702	42.530406617141686	124.85444824609355	123.28074997532588	65.74535297307054	-0.002498725528602278	-5.047478398833844e+23	0.3395157169201188	-0.008170814606841905	-2.875644453237172e+24	0.031454192970550875	0.17920052033846018	3.52261397697684	292.523285	269.236633	-20.956442000000006	11.055566	-5.104756	34.404503000000005	0.0	11977.0	True	0.0	None	0.0	None	0.0	None	0.0	None	0.0	None	0.0	None	0.0	None	0.0	None	1.2762e-06	12
2014-02-18 15:12:00	1213.614989528113	11994954727.7231	1.3394444318908845e+23	27091158599523.93	61.264888580267026	4358930453027.567	1.594302537065494e+22	-6.317228438215028e+24	3678.0115100562098	-0.3965660010275204	33.03147072068146	22.50747574939829	42.750581725746585	124.2656135385922	122.302006845592	65.7680780982155	-0.0022342324707438467	-5.329472599763067e+23	0.3094069841019173	-0.00731444814635821	-2.8931012224125906e+24	0.03345593177679928	0.1816153386823178	3.569442175715245	292.525635	269.12649500000003	-20.951366	11.152167	-5.101363	34.514496	0.0	11977.0	True	0.0	None	0.0	None	0.0	None	0.0	None	0.0	None	0.0	None	0.0	None	0.0	None	1.2774e-06	12
2014-02-18 15:24:00	1214.1219871836302	12014586712.973202	1.3287267001106614e+23	27139587400598.65	59.90233244552457	4581703860602.908	1.5926328903436226e+22	-6.369239250475376e+24	3666.228969154004	-0.39917762044691796	32.871786387426184	21.953096372297548	42.86007429490735	125.0296800395542	123.23063181225464	66.27069033003443	-0.0021951091079015195	-5.4011063409276656e+23	0.326800214341465	-0.007126758500893936	-2.8946265151217687e+24	0.03385020866960445	0.1814141499399041	3.531044980778273	292.528046	269.016357	-20.947321	11.249504	-5.098946	34.625557	0.0	11977.0	True	0.0	None	0.0	None	0.0	None	0.0	None	0.0	None	0.0	None	0.0	None	0.0	None	1.3925e-06	12
2014-02-18 15:36:00	1236.8504216162132	12098425531.0955	1.3360111803129809e+23	27558980025025.28	65.28448120104264	5501359318128.174	1.6025141007961677e+22	-6.425433660881355e+24	3683.763977591219	-0.3999089190016942	32.80666201395087	21.718114907173447	42.64865247347238	126.3321475353162	124.4071663210368	66.71709240630602	-0.002390672374433962	-5.558693914415912e+23	0.3921321072418649	-0.007709236391157882	-2.9437073448047e+24	0.03459643958210979	0.18321173079494849	3.5621532668119964	292.530365	268.906158	-20.94334	11.345611	-5.096576	34.735382	0.0	11977.0	True	0.0	None	0.0	None	0.0	None	0.0	None	0.0	None	0.0	None	0.0	None	0.0	None	1.3504e-06	12
2014-02-18 15:48:00	1240.8295564071589	12149328754.3772	1.339575143263296e+23	27534182244193.46	67.49390177251443	4536692784721.898	1.5952463564729733e+22	-6.420827053018776e+24	3735.4469177279793	-0.3979478783476908	32.74440579420352	21.730918786801467	42.9541101933217	127.6472056325862	125.7561488325858	67.45928976781737	-0.002499496417898546	-5.401542797303589e+23	0.327042728262938	-0.007947879380049285	-2.947285836870161e+24	0.033477501858278566	0.1826658989538196	3.5325612337710117	292.532654	268.795959	-20.936144	11.433725	-5.108764	34.847159999999995	0.0	11977.0	True	0.0	None	0.0	None	0.0	None	0.0	None	0.0	None	0.0	None	0.0	None	0.0	None	1.6299e-06	12
2014-02-18 16:00:00	1252.9555110993178	12240096232.9366	1.3553369272002345e+23	27778543276035.953	54.3186908227631	3202084099592.2563	1.6016097876514253e+22	-6.441013114298154e+24	3791.1921086343827	-0.39623861240803376	32.57215283835387	21.401240759314984	42.760791400768866	128.17905316489856	126.06502567523552	68.36631930362289	-0.00201785693460987	-5.652521445202972e+23	0.23155782977414185	-0.006356745341237607	-2.954203132139922e+24	0.034773213690280365	0.1817368369041337	3.5405911174116427	292.535004	268.68576	-20.931732	11.529638	-5.105983	34.956989	0.0	11977.0	True	0.0	None	0.0	None	0.0	None	0.0	None	0.0	None	0.0	None	0.0	None	0.0	None	1.2913e-06	12
2014-02-18 16:12:00	1252.8299890803148	12307701234.870102	1.3573352643620952e+23	27657261766875.03	50.512707662239954	2900958490099.9424	1.6076368883668977e+22	-6.502022534926665e+24	3822.9133279433386	-0.3977947369776541	32.40587543967245	20.931363381335327	42.480228482422774	129.29979556965938	127.26031732755092	68.79484222080053	-0.0018893849883014754	-5.410936432075078e+23	0.211229820170778	-0.00587232790638715	-2.961561651727018e+24	0.03310419216848175	0.1811887965573074	3.6169620209406386	292.537262	268.5755	-20.92794	11.625593	-5.105533	35.067081	0.0	11977.0	True	0.0	None	0.0	None	0.0	None	0.0	None	0.0	None	0.0	None	0.0	None	0.0	None	1.1449e-06	12
2014-02-18 16:24:00	1250.7560954141534	12423521064.6857	1.364582256817464e+23	27640261330467.78	52.498258055263825	3431250825132.3765	1.6105414915589333e+22	-6.593546450634089e+24	3882.386870276244	-0.3996333900668527	32.35047601481318	20.694475931383664	42.438522166887395	130.1479480536315	128.34544255286156	69.35067547143929	-0.001983611352499955	-5.037522082850905e+23	0.25238625785392144	-0.0060383167885553	-2.970108592794593e+24	0.03053230977561001	0.18001762400430876	3.5151847366908013	292.539551	268.46524	-20.924259	11.72131	-5.103514	35.176914000000004	0.0	11977.0	True	0.0	None	0.0	None	0.0	None	0.0	None	0.0	None	0.0	None	0.0	None	0.0	None	1.0993e-06	12
