Timestamp	TOTUSJH	TOTBSQ	TOTPOT	TOTUSJZ	ABSNJZH	SAVNCPP	USFLUX	TOTFZ	MEANPOT	EPSZ	MEANSHR	SHRGT45	MEANGAM	MEANGBT	MEANGBZ	MEANGBH	MEANJZH	TOTFY	MEANJZD	MEANALP	TOTFX	EPSY	EPSX	R_VALUE	CRVAL1	CRLN_OBS	LAT_MIN	LON_MIN	LAT_MAX	LON_MAX	QUALITY	NOAA_AR	IS_TMFI	BFLARE	BFLARE_label	CFLARE	CFLARE_label	MFLARE	MFLARE_label	XFLARE	XFLARE_label	BFLARE_loc	BFLARE_label_loc	CFLARE_loc	CFLARE_label_loc	MFLARE_loc	MFLARE_label_loc	XFLARE_loc	XFLARE_label_loc	XR_MAX	XR_QUAL
2014-02-06 22:00:00	46.69627347810107	376290458.1867	2.621854798927773e+21	1144688898042.2395	5.1392839586725865	502363957825.0358	8.580656172965923e+20	-3.32322934274398e+23	1292.8768375606585	-0.6650046218715002	22.036760877833082	1.4407334643091028	27.034754287209932	110.93442116988899	111.60582525559751	39.164080657452345	0.0033656083553847984	-8.01607776779428e+22	0.6433128933776769	0.01640566959303844	1.2573946602662814e+23	0.160408091500029	-0.2516146718610748	0.0	29.113281	63.38998	-23.527878	-36.759445	-20.273727	-31.116222	0.0		True	0.0	None	0.0	None	0.0	None	0.0	None	0.0	None	0.0	None	0.0	None	0.0	None	1.3863999999999998e-06	12
2014-02-06 22:12:00	45.52940328531154	369455688.43780017	2.56366762117855e+21	1110498048773.559	3.425656849137035	305284062938.6032	8.313147988200675e+20	-3.279496260949683e+23	1325.8297770615688	-0.6683934844840643	22.1546125699642	1.510989010989011	26.749947361329603	111.289724639996	112.06629962426857	38.71702515326904	0.0023527862974842273	-7.627281052079943e+22	0.4099938083254879	0.01111509067629207	1.235540888113419e+23	0.15545146430698165	-0.2518153441009013	0.0	29.114037	63.279888	-23.531256	-36.642063	-20.253534	-31.012867	0.0		True	0.0	None	0.0	None	0.0	None	0.0	None	0.0	None	0.0	None	0.0	None	0.0	None	2.1812999999999998e-06	12
2014-02-06 22:24:00	44.955693741384295	380668530.1516	2.5265582682734325e+21	1090775396137.6263	4.309493768152629	394981168083.54	8.523996616514914e+20	-3.436470661240314e+23	1277.6801186410335	-0.679756206381833	22.083416102730485	2.0147750167897915	26.72636818238343	109.79808642456223	110.81225673968288	37.923478471094825	0.00289616516676924	-7.543136654068355e+22	0.5186897665824726	0.01348117049736361	1.245221588104026e+23	0.14920814002639002	-0.2463129141131235	0.0	29.114826	63.16982700000001	-23.530075	-36.525623	-20.259092000000006	-30.91707	0.0		True	0.0	None	0.0	None	0.0	None	0.0	None	0.0	None	0.0	None	0.0	None	0.0	None	2.0756e-06	12
2014-02-06 22:36:00	45.62779355970279	382001542.2655	2.520786848403621e+21	1101331110102.98	3.810254672292424	301366584419.934	8.440049623681991e+20	-3.41271625591296e+23	1287.7338824632386	-0.6727017336084409	21.71384254330076	1.6960651289009496	26.91210887492289	113.61663233994436	113.73994253324041	40.094444363910796	0.0025849760327628386	-7.266009519766963e+22	0.3997739108275118	0.011926153001734935	1.2710684667806037e+23	0.14322483423266866	-0.25054821351082257	0.0	29.115646	63.059795	-23.529949	-36.409676	-20.237608	-30.800322	0.0		True	0.0	None	0.0	None	0.0	None	0.0	None	0.0	None	0.0	None	0.0	None	0.0	None	1.4996e-06	12
2014-02-06 22:48:00	47.83355583466756	390185928.1121	2.609499977657323e+21	1173932872604.0613	2.287859968159008	14493311592.530397	8.66385673859324e+20	-3.507467712443745e+23	1296.9767275199604	-0.6768767516788102	22.052072721039067	2.2442244224422443	26.664212534053718	114.03246351451692	114.2727771974762	39.58828047876237	0.0015101385928442293	-7.069694381780491e+22	0.018705197584730014	0.006993372937278232	1.3027266054676626e+23	0.1364320974794508	-0.25140227233058443	0.0	29.116493	62.949795	-23.525919	-36.293678	-20.228289	-30.690794	0.0		True	0.0	None	0.0	None	0.0	None	0.0	None	0.0	None	0.0	None	0.0	None	0.0	None	1.85e-06	12
2014-02-06 23:00:00	49.61549844328182	400418249.5537	2.710211117170906e+21	1190370044822.031	1.6352926850327911	21278380584.426792	8.773757925521482e+20	-3.563392812751081e+23	1332.9548092162158	-0.6700964715618334	22.236739590157814	1.8288700195950358	27.092564515996155	116.20575258141464	116.07293859353857	41.76435543541877	0.001068120630328407	-7.46975629274305e+22	0.02717444372954582	0.004890689244022472	1.3477203873670791e+23	0.1404688620710751	-0.2534389902216241	0.0	29.117374	62.839825	-23.528238	-36.177742	-20.224844	-30.573975	0.0		True	0.0	None	0.0	None	0.0	None	0.0	None	0.0	None	0.0	None	0.0	None	0.0	None	1.5275e-05	12
2014-02-06 23:12:00	46.565457078721764	389540053.91490006	2.5660846532602684e+21	1089240675202.6412	0.2558371512261346	2772035643.89093	8.418728997755664e+20	-3.52504066537915e+23	1352.1540968578286	-0.6813957951222309	21.767707771661442	1.3296011196641009	26.792519830543398	118.57586012851765	118.53438850063877	42.53029679526228	0.00017903229616944338	-7.14022124058516e+22	0.003792742893359395	0.0007812167190120263	1.285661228806652e+23	0.13802157737813944	-0.2485202976137316	0.0	29.118294	62.729893	-23.526958	-36.059849	-20.214611	-30.462648	0.0		True	0.0	None	0.0	None	0.0	None	0.0	None	0.0	None	0.0	None	0.0	None	0.0	None	1.4352e-05	12
2014-02-06 23:24:00	43.93573985393708	393112084.3933	2.526433907902761e+21	1040198458158.9868	2.269217919504958	191941417860.34265	8.537412799552443e+20	-3.537814042648319e+23	1316.520368786617	-0.6776510185633975	21.396150210197614	0.8996539792387545	26.540660448065328	116.03978867700926	116.28385534600125	41.435926493270934	0.0015703930238788635	-7.311591667439594e+22	0.25970298517211177	0.0068815802826312075	1.3007361515164425e+23	0.1400499709999206	-0.24914966341688305	0.0	29.119244	62.619995	-23.529129	-35.943935	-20.188644	-30.353168	0.0		True	0.0	None	0.0	None	0.0	None	0.0	None	0.0	None	0.0	None	0.0	None	0.0	None	4.6321e-06	12
2014-02-06 23:36:00	44.97611773829877	387525045.7723	2.494971497326487e+21	1059510408249.9016	3.3778584270991425	218234517265.162	8.383844794501248e+20	-3.498852674202121e+23	1338.092220613809	-0.6798505369020768	21.23435357247933	1.1396011396011396	26.52479591413845	116.75342479410246	117.41590674735451	40.69854761952697	0.002405882070583435	-7.283654460378863e+22	0.3038934687048838	0.010377697813102205	1.2581310105184834e+23	0.1415262903753724	-0.24446329201020026	0.0	29.120228000000004	62.510128	-23.536594	-35.830196	-20.165688	-30.223389	0.0		True	0.0	None	0.0	None	0.0	None	0.0	None	0.0	None	0.0	None	0.0	None	0.0	None	2.7077e-06	12
2014-02-06 23:48:00	43.97582179832303	390734942.8913	2.5960011700739873e+21	1055704069545.1971	6.035228427275982	530081929409.3467	8.40455550933242e+20	-3.494797732855538e+23	1383.4079037607544	-0.6734840650059488	21.647652435785808	1.7692852087756548	26.799257564918264	117.32127092585392	117.79696462293984	41.44846041560597	0.004271216155184701	-7.217816733817629e+22	0.6907170797645454	0.018459497532282532	1.3085292273974618e+23	0.13909487546758675	-0.25216726420577795	0.0	29.12125	62.400299	-23.542606	-35.712868	-20.143518	-30.119616	0.0		True	0.0	None	0.0	None	0.0	None	0.0	None	0.0	None	0.0	None	0.0	None	0.0	None	1.8766e-06	12
2014-02-07 00:00:00	47.39621538475235	404524955.9974	2.804662109856939e+21	1132659281606.1047	4.798147558160662	419856748662.8973	8.669256478904033e+20	-3.586175665550472e+23	1446.4894412622345	-0.6675346538306912	22.090791579893953	1.9863013698630136	27.03890195041767	117.43710077431277	117.81206027251403	41.35203948168793	0.003286402437096345	-7.5019669889561764e+22	0.5621990499612891	0.014226019777909228	1.3820644293387752e+23	0.13964243260943107	-0.2572589818376221	0.0	29.122303	62.29050400000001	-23.546312	-35.595627	-20.123455	-30.009562	0.0		True	0.0	None	0.0	None	0.0	None	0.0	None	0.0	None	0.0	None	0.0	None	0.0	None	1.729e-06	12
2014-02-07 00:12:00	49.0923879622517	396978490.9291	2.776828053944004e+21	1143749799467.8608	3.7879511085912094	410576063808.0152	8.382856371061002e+20	-3.504670253310875e+23	1511.869535937473	-0.664764308391287	22.006558712419142	1.9522776572668112	26.770501865844718	120.26843049543648	120.01927489255976	44.128016681059655	0.002738937894859877	-7.497510475892563e+22	0.5803649515799787	0.01146343117327235	1.3739759618876979e+23	0.14221244813130912	-0.2606151546461937	0.0	29.123394	62.180744	-23.544502	-35.474865	-20.108797	-29.881306	0.0		True	0.0	None	0.0	None	0.0	None	0.0	None	0.0	None	0.0	None	0.0	None	0.0	None	3.8688e-06	12
2014-02-07 00:24:00	47.73768620128737	388570910.5697	2.671225113808033e+21	1108157063689.2542	2.8690384814173777	290028401961.81256	8.217289790001519e+20	-3.445236429713533e+23	1487.7203783284253	-0.6676306403733383	21.589205094747204	1.7011834319526626	26.70228300013509	120.90509847484994	120.88493712388176	43.13935429581739	0.002122069882705161	-7.3966572170768546e+22	0.4193545032225721	0.00885515602751883	1.3117114011653591e+23	0.1433351555170251	-0.2541882801401395	0.0	29.124519	62.071018	-23.535667	-35.359951	-20.106487	-29.772608	0.0		True	0.0	None	0.0	None	0.0	None	0.0	None	0.0	None	0.0	None	0.0	None	0.0	None	4.3166e-06	12
2014-02-07 00:36:00	45.71756568026022	381264499.5893	2.551286297116742e+21	1045595376949.5198	2.3434043594919274	146980781317.76486	7.901963916704821e+20	-3.388499713603754e+23	1513.8576177594855	-0.6692194280725019	21.54664814389401	1.1032308904649328	26.46930575980781	121.15796761087248	121.19000931412943	43.13153982714322	0.001846654341601204	-7.126456792478064e+22	0.2264143102430923	0.007364401017697282	1.281045180263112e+23	0.1407455730245124	-0.2530029202684968	0.0	29.125679	61.96133	-23.54064	-35.243855	-20.094072	-29.66273300000001	0.0		True	0.0	None	0.0	None	0.0	None	0.0	None	0.0	None	0.0	None	0.0	None	0.0	None	2.6096e-06	12
2014-02-07 00:48:00	45.135138473227606	388770680.8094	2.6514573519360764e+21	1022311560084.6094	3.2158422558983086	251989565921.3277	7.953921814661231e+20	-3.431562635413184e+23	1582.0226692229721	-0.6646390230617215	21.570547903913766	1.5055467511885896	26.63283359494205	123.2062950815033	123.40603706391876	44.1174115327843	0.0025482109793172024	-7.439801032457702e+22	0.3903151896245309	0.009938278361608831	1.3133726413786668e+23	0.14409709556098166	-0.25437936066604955	0.0	29.126877	61.851677	-23.548372	-35.128735	-20.099503	-29.553646	0.0		True	0.0	None	0.0	None	0.0	None	0.0	None	0.0	None	0.0	None	0.0	None	0.0	None	1.9237e-06	12
2014-02-07 01:00:00	47.671376053368775	387586315.20430017	2.681309198543496e+21	1066184218852.8094	2.0896159057873107	102896757291.40018	7.826383924608007e+20	-3.392915126043819e+23	1640.1227643266336	-0.6591618630245839	21.591611694515752	1.1372867587327375	26.78035246754006	128.1303868866321	128.395249733568	46.33808480786311	0.001697494643206589	-7.44624484010645e+22	0.16338914156537804	0.006498891250602904	1.3091939295800752e+23	0.14466264079717422	-0.2543449151021685	0.0	29.128109	61.74205799999999	-23.54915	-35.00536	-20.100809	-29.437927	0.0		True	0.0	None	0.0	None	0.0	None	0.0	None	0.0	None	0.0	None	0.0	None	0.0	None	1.875e-06	12
2014-02-07 01:12:00	49.47457681992474	389133308.9777	2.6998978377287483e+21	1141560745299.7542	1.234260304324169	71713043312.94113	7.931543335446518e+20	-3.370316635182896e+23	1594.5004721331713	-0.6521684765732644	21.68197940594823	1.4901960784313726	27.339606248423447	131.35337929446834	132.1768050169035	47.07408131097497	0.0009680472975091524	-7.594539218046006e+22	0.10993971610544227	0.003839582633529762	1.293657317528878e+23	0.14695708469658952	-0.2503273767139331	0.0	29.129372	61.632473	-23.554834	-34.892601	-20.086885	-29.317312	0.0		True	0.0	None	0.0	None	0.0	None	0.0	None	0.0	None	0.0	None	0.0	None	0.0	None	1.6694999999999999e-06	12
2014-02-07 01:24:00	47.88768646799383	376791400.5244	2.735384309801919e+21	1087779249317.1506	3.865886872167504	265951855562.1785	7.636025307689533e+20	-3.242779579753959e+23	1691.057916976441	-0.6480430628803264	22.257597768208484	1.7241379310344829	27.394130062308626	129.6590969000008	129.67123518908951	47.049166497026405	0.003173962949234404	-7.156982815525031e+22	0.4267851540444771	0.012451153834272895	1.2921803498410195e+23	0.14302646697641436	-0.25823170866528083	0.0	29.130627	61.522926	-23.562857	-34.790073	-20.092722	-29.214849	0.0		True	0.0	None	0.0	None	0.0	None	0.0	None	0.0	None	0.0	None	0.0	None	0.0	None	1.5721000000000004e-06	12
2014-02-07 01:36:00	47.044973510397384	365093392.8185	2.5895909412172417e+21	1058765270043.726	2.572865488847232	228238176856.49866	7.458530712788122e+20	-3.14011767629095e+23	1620.8878783033545	-0.6476336184129344	21.99134437233376	1.9950124688279296	27.37640239409641	124.99338744514654	124.9327162801824	46.64918377948512	0.0021387078045280398	-7.560993210020027e+22	0.3708200503183128	0.008554260253335434	1.194672100528957e+23	0.15594171608195445	-0.2463951657367317	0.0	29.13200800000001	61.41340600000001	-23.572552	-34.6759	-20.093845	-29.099644	0.0		True	0.0	None	0.0	None	0.0	None	0.0	None	0.0	None	0.0	None	0.0	None	0.0	None	2.01e-06	12
2014-02-07 01:48:00	46.52251208198489	372229553.25750005	2.640372299303238e+21	1069949766533.4808	0.8569217906230928	98362368789.05846	7.577901970791723e+20	-3.190357100392802e+23	1619.02765216293	-0.6453806068915611	22.162100007552233	1.9543973941368082	27.63358431200963	128.31908506885085	128.1858899675453	47.00319941363728	-0.0006978190477386749	-7.283688342561749e+22	-0.15655182554701652	-0.0027982979671451343	1.2129055486613452e+23	0.14734247781706716	-0.2453599062627889	0.0	29.133324	61.303925	-23.579195	-34.562263	-20.089123	-28.985106	0.0		True	0.0	None	0.0	None	0.0	None	0.0	None	0.0	None	0.0	None	0.0	None	0.0	None	1.9743e-06	12
2014-02-07 02:00:00	48.83001267865481	369841758.93500006	2.622021385407721e+21	1135314856013.2668	1.4323427008726806	104815479728.2213	7.618349131399738e+20	-3.149925176504569e+23	1548.5084490307486	-0.6413156325959544	22.76443108586551	2.2745098039215685	28.25687870764656	124.49347662216566	124.35933817081482	46.108065638041026	0.0011234060399001415	-7.19273469878211e+22	0.16066815207791915	0.004719205432554003	1.2095195499426912e+23	0.14644199290356155	-0.2462546733155856	0.0	29.134773	61.194473	-23.583931	-34.447990000000004	-20.093809	-28.876823	0.0		True	0.0	None	0.0	None	0.0	None	0.0	None	0.0	None	0.0	None	0.0	None	0.0	None	1.5949000000000004e-06	12
2014-02-07 02:12:00	48.11641937599183	361530173.6257	2.6807147364131364e+21	1082858302030.3318	0.2494057622154737	53295633065.21835	7.418023197296541e+20	-3.0558727561112344e+23	1654.5438062464395	-0.6364704073832878	22.997007853093802	1.8852459016393444	27.93529445154132	124.83449336062066	124.03287623407944	47.40915358494035	-0.0002044309526356342	-7.140907634537183e+22	-0.08537551355789717	-0.000843109092055674	1.2127774447526317e+23	0.1487292421502537	-0.2525945992951785	0.0	29.136158	61.08505600000001	-23.592562	-34.335766	-20.091904	-28.754515	0.0		True	0.0	None	0.0	None	0.0	None	0.0	None	0.0	None	0.0	None	0.0	None	0.0	None	2.2098e-06	12
2014-02-07 02:24:00																																	False	0.0	None	0.0	None	0.0	None	0.0	None	0.0	None	0.0	None	0.0	None	0.0	None	1.9287e-06	12
2014-02-07 02:36:00																																	False	0.0	None	0.0	None	0.0	None	0.0	None	0.0	None	0.0	None	0.0	None	0.0	None	1.8255000000000001e-06	12
2014-02-07 02:48:00	46.52185292661382	358360900.58180004	2.6406241996950696e+21	1118716903929.7063	0.6051878276104357	51362158781.597466	7.641107815293641e+20	-3.0218571654110643e+23	1505.1896059425592	-0.6349517763952067	22.82886924838489	2.043906131718395	28.41926229307218	117.89457871912096	116.87869278636668	45.72806773404154	0.0004581285598867794	-6.773995462330923e+22	0.07598074949557426	0.00206583015786911	1.2205642902094614e+23	0.1423350018436428	-0.2564646248485504	0.0	29.14069000000001	60.756989	-23.611179	-33.997242	-20.092419	-28.426411	0.0		True	0.0	None	0.0	None	0.0	None	0.0	None	0.0	None	0.0	None	0.0	None	0.0	None	1.5975e-06	12
2014-02-07 03:00:00	45.03341722781808	357630743.22779995	2.571605266385106e+21	1053654715328.6472	0.8617788161088376	5123009390.229187	7.559584762609534e+20	-3.067188168846741e+23	1513.9838288910714	-0.6457925780924503	22.461346513085928	1.3291634089132134	27.68005359569581	117.05974995931886	116.0486106002838	44.646980569606285	0.000673791099381421	-6.6594855971936675e+22	-0.007827179720148745	0.002928302007104657	1.222120530924011e+23	0.14021462446493066	-0.2573159274743431	0.0	29.142185	60.647686	-23.616093	-33.896355	-20.089048	-28.3179	0.0		True	0.0	None	0.0	None	0.0	None	0.0	None	0.0	None	0.0	None	0.0	None	0.0	None	1.6686000000000004e-06	12
2014-02-07 03:12:00	49.18907884462785	377612996.6808	2.8448137693693985e+21	1167224242035.2764	1.3969514278626067	23484149122.813583	8.018821378801201e+20	-3.232951926115006e+23	1539.9768272861616	-0.6446734545140134	23.38047290004614	2.1567217828900067	28.105881483411693	117.78894862809477	116.0332441637985	44.914354015807504	0.0010042785247035275	-6.710953114441359e+22	0.03299029033263453	0.004498675683243528	1.2997352863478424e+23	0.13382114631588202	-0.25917639858335995	0.0	29.14381400000001	60.538414	-23.596628	-33.78223	-20.096292	-28.209423	0.0		True	0.0	None	0.0	None	0.0	None	0.0	None	0.0	None	0.0	None	0.0	None	0.0	None	2.1573e-06	12
2014-02-07 03:24:00	49.65229217184938	381144614.0215	2.9137467465493056e+21	1174418851612.672	1.024977834039965	26906100901.85213	8.224903883587037e+20	-3.267256045145915e+23	1522.5633909407281	-0.6454772581359951	23.50121368808329	2.7758501040943786	27.974454543294268	116.90592799952962	115.31025783668986	44.481855828794686	0.0007112962068285669	-6.857624552304614e+22	-0.0364849109177101	0.0032686076869667463	1.3234860128668705e+23	0.1354788431694517	-0.2614671488743075	0.0	29.145367	60.429169	-23.601368	-33.668823	-20.099001	-28.095091	0.0		True	0.0	None	0.0	None	0.0	None	0.0	None	0.0	None	0.0	None	0.0	None	0.0	None	2.5418e-06	12
2014-02-07 03:36:00	48.82935970089072	371581780.7002	2.7487241201976486e+21	1143164459331.1436	2.711034941635797	179027962704.60587	7.897908106202344e+20	-3.1664376935783584e+23	1534.2873149408751	-0.6416586095182348	22.65462182207449	1.4825796886582654	27.80177348812308	118.21958252647792	116.94661115790159	44.62386589826173	0.0020096626698560397	-6.610489116779408e+22	0.25931258794749434	0.0088884871826999	1.2809623864099043e+23	0.13395738888247707	-0.2595789411476064	0.0	29.147045	60.319946	-23.608768	-33.549877	-20.096153	-27.983072	0.0		True	0.0	None	0.0	None	0.0	None	0.0	None	0.0	None	0.0	None	0.0	None	0.0	None	4.0756e-06	12
2014-02-07 03:48:00	47.520702429356184	375370692.2229	2.6597438917413936e+21	1091005313079.0408	3.3859069426072885	296403140415.2909	7.937380468543442e+20	-3.2400909213823976e+23	1511.5116529128657	-0.6499566533538123	21.74484643063116	0.981132075471698	27.19382092052321	120.29426848499071	119.11059982770985	44.66829620806805	0.002555401466118709	-6.73726210827935e+22	0.4370893388047915	0.010933824972500636	1.270209659939987e+23	0.1351483164798477	-0.2548018681154912	0.0	29.148647	60.210747	-23.612562	-33.436131	-20.093899	-27.839102	0.0		True	0.0	None	0.0	None	0.0	None	0.0	None	0.0	None	0.0	None	0.0	None	0.0	None	5.0266e-06	12
2014-02-07 04:00:00	53.04054109672225	390284213.3347	2.883505281785257e+21	1243315841277.3315	2.132681672974755	158697813454.3242	8.419416322609363e+20	-3.355972938354277e+23	1497.4084027002716	-0.6474779487362691	22.592252422097047	1.1724137931034484	27.34538262753916	117.82489713724657	117.1868112044282	43.486761625093614	0.0014708149468791413	-6.91492354103942e+22	0.2138430111844279	0.006633694045526291	1.3286525509294567e+23	0.13341169885046594	-0.2563409312474617	0.0	29.150372	60.10157	-23.616064	-33.355598	-20.091299	-27.689686	0.0		True	0.0	None	0.0	None	0.0	None	0.0	None	0.0	None	0.0	None	0.0	None	0.0	None	5.0236000000000005e-06	12
2014-02-07 04:12:00	49.44784372561382	387644767.91410005	2.714533474785878e+21	1174096017070.9722	4.175287631009393	304482453185.3953	8.410857197141173e+20	-3.3802951482157416e+23	1414.538780304801	-0.6566110683885275	22.197520776011444	1.5224913494809689	27.21510047483611	116.31875016618231	116.32704106781364	42.913108958430726	0.002889472409003041	-6.7602815130363465e+22	0.4116951526988399	0.013003549321619607	1.2939718396442884e+23	0.1313162156631508	-0.2513497179505101	0.0	29.152012	59.992413	-23.597599	-33.272251000000004	-20.085564	-27.563103	0.0		True	0.0	None	0.0	None	0.0	None	0.0	None	0.0	None	0.0	None	0.0	None	0.0	None	4.3176e-06	12
2014-02-07 04:24:00	47.84794033756146	390790362.9017	2.830930604667651e+21	1119523744469.1743	5.734727328327125	391281166224.0857	8.374354662801762e+20	-3.369260879621578e+23	1501.1647976709344	-0.649199664447499	22.48407678652035	2.3943661971830985	27.36530529128303	114.91859033279889	114.2108982134742	43.586844859919005	0.004038540372061356	-6.739322046682859e+22	0.5383584350368218	0.017796134761263502	1.3338977215302303e+23	0.1298553530767717	-0.2570195613116105	0.0	29.153774	59.883274	-23.601585	-33.188175	-20.061214	-27.44883	0.0		True	0.0	None	0.0	None	0.0	None	0.0	None	0.0	None	0.0	None	0.0	None	0.0	None	5.4249e-06	12
2014-02-07 04:36:00	48.26086226921982	396347444.44570017	2.8125155343660823e+21	1105075461366.6592	4.032067630206908	226011165174.4467	8.42636352491204e+20	-3.451474442100775e+23	1499.8495307146577	-0.6557164181935463	22.308128255668507	2.8328611898017	27.13124176496991	119.16008640334387	119.25280256949324	43.2431527005773	0.002855571976067215	-6.934137791775073e+22	0.31272031372824666	0.012288412629882927	1.325479551971769e+23	0.131735815297412	-0.2518166420721646	0.0	29.155449	59.774151	-23.607996	-33.077663	-20.043278	-27.314644	0.0		True	0.0	None	0.0	None	0.0	None	0.0	None	0.0	None	0.0	None	0.0	None	0.0	None	6.0847e-06	12
2014-02-07 04:48:00	50.01129761157455	393548752.807	2.786643166677067e+21	1161994750112.6118	3.814762085692879	166799946617.84778	8.272565437778341e+20	-3.4064430175405416e+23	1489.2167287243226	-0.6517636373803741	22.93977746675141	3.5486160397445	28.17734203789093	119.81577149268057	119.62331853156476	44.32483388875845	0.0027074251850197862	-6.771761604604172e+22	0.2059585946870741	0.011736835338572223	1.3068235312564802e+23	0.12956588300943292	-0.2500379585861813	0.0	29.157192	59.665043	-23.61067	-32.972694	-20.0499	-27.207481	0.0		True	0.0	None	0.0	None	0.0	None	0.0	None	0.0	None	0.0	None	0.0	None	0.0	None	1.4206e-05	12
2014-02-07 05:00:00	50.94697904998982	404028854.3825	2.9491611058287443e+21	1198449047425.962	2.9241949787510664	176205890207.7168	8.432502085166512e+20	-3.4911126811826306e+23	1561.6598745830747	-0.6506374165237991	23.11770239327885	3.79746835443038	27.78841442363532	125.02154064407928	124.75300167607789	46.894016823101346	0.002056395906294702	-6.9943305683505424e+22	0.24208235645952395	0.008769447959158523	1.3262059727435881e+23	0.13035308759393688	-0.2471645308200181	0.0	29.158951	59.55595	-23.59186	-32.858135	-20.050098	-27.098753	0.0		True	0.0	None	0.0	None	0.0	None	0.0	None	0.0	None	0.0	None	0.0	None	0.0	None	2.073e-05	12
2014-02-07 05:12:00	49.939233768061285	397959806.8353	2.841515389971193e+21	1166797298935.0703	5.300707130428322	450394198371.5098	8.255625749223688e+20	-3.413764900140116e+23	1531.5850874409596	-0.6459247413588272	22.70713626195732	2.1474588403722263	28.09862234745461	122.518566580758	122.19675099259004	46.486145534601	0.003794350129154132	-7.1193737000986975e+22	0.6298396961532939	0.01618507142866616	1.2680883087788466e+23	0.13470698042751394	-0.2399373234034101	0.0	29.160717	59.44686899999999	-23.595842	-32.746967	-20.031628	-26.986965	0.0		True	0.0	None	0.0	None	0.0	None	0.0	None	0.0	None	0.0	None	0.0	None	0.0	None	1.0485e-05	12
2014-02-07 05:24:00	49.70014214528648	388444692.71660006	2.759691060983469e+21	1147075745558.338	4.169966220333287	225029204993.9896	8.074646676372963e+20	-3.377672546712685e+23	1538.1282722187893	-0.6547504250407052	22.984461094627985	2.6646928201332347	27.70286739739997	120.3299366873482	120.57840608462595	44.558277221716786	0.0030865775132000645	-7.16440417046877e+22	0.32539356159836674	0.01297480498938389	1.22721515160254e+23	0.13887955717741898	-0.2378915158339374	0.0	29.162498	59.337799	-23.599367	-32.634811	-20.037119	-26.874302	0.0		True	0.0	None	0.0	None	0.0	None	0.0	None	0.0	None	0.0	None	0.0	None	0.0	None	4.6091000000000005e-06	12
2014-02-07 05:36:00	52.539898098109646	390182057.3887	2.9143938928253044e+21	1207911724074.0818	4.983987516046144	306609452775.2442	8.145163304318067e+20	-3.3184425860066415e+23	1571.9917666768963	-0.6404046120198058	23.72388258226627	3.2234957020057307	28.485372807796693	118.53201156756693	118.96942236536741	46.34204196161903	0.0035701916304055467	-7.703904509336438e+22	0.4290598837307633	0.015573587434516612	1.1946371067687215e+23	0.14867263333539438	-0.2305452310944864	0.0	29.164288	59.228737	-23.5804	-32.523441	-20.039248	-26.762321000000004	0.0		True	0.0	None	0.0	None	0.0	None	0.0	None	0.0	None	0.0	None	0.0	None	0.0	None	2.8197000000000007e-06	12
2014-02-07 05:48:00	55.3100262632648	391517202.1206	2.99185189184173e+21	1308470640821.4604	5.681979296540035	274294258434.79025	8.205981005347572e+20	-3.309225373158518e+23	1590.9786153197683	-0.6364481116276581	24.24430289983218	4.519774011299433	28.549537819799408	116.54048785713665	116.55148049537588	46.02252894997366	0.0040126972433192345	-7.902178254802469e+22	0.37841140919536304	0.017736852518219288	1.1743169512981689e+23	0.15197896368157876	-0.225850983788606	0.0	29.16608	59.119682	-23.586433	-32.412075	-20.045332	-26.639629	0.0		True	0.0	None	0.0	None	0.0	None	0.0	None	0.0	None	0.0	None	0.0	None	0.0	None	2.3191999999999998e-06	12
2014-02-07 06:00:00	52.52079612128172	387092927.0237	2.864780422029994e+21	1206741178118.3486	7.591341993238666	595647791385.7311	7.926107589115326e+20	-3.273045676997954e+23	1639.1661134671933	-0.636684602027385	23.2900559462352	3.1155015197568385	28.25535858253168	118.32868132437271	119.42196371875065	44.97348418754319	0.005772883645048415	-8.341831770601224e+22	0.8841742553223282	0.02396798975340421	1.144307964416816e+23	0.16226830802789186	-0.2225948956476916	0.0	29.167877	59.010628	-23.589737	-32.305103	-20.028	-26.531992	66560.0		False	0.0	None	0.0	None	0.0	None	0.0	None	0.0	None	0.0	None	0.0	None	0.0	None	2.0355000000000002e-06	12
2014-02-07 06:12:00	48.32682581502638	372349079.84590006	2.6631153779416724e+21	1100609701969.6567	8.293074956282503	580561606620.8563	7.535337240481192e+20	-3.151659981875173e+23	1618.4757115186935	-0.6373479344412917	23.089072179432694	2.663438256658596	28.279481019759515	116.30373113879324	117.78722851643265	45.33473231659438	0.006693361546636403	-8.25641224129444e+22	0.9153248000145878	0.02720535047977707	1.061451550703457e+23	0.16696621203261594	-0.21465321679397745	0.0	29.169678	58.901577	-23.59589	-32.206215	-20.032227	-26.423313	66560.0		False	0.0	None	0.0	None	0.0	None	0.0	None	0.0	None	0.0	None	0.0	None	0.0	None	2.1001e-06	12
2014-02-07 06:24:00	51.863818056953676	373398239.3361	2.7247944017751226e+21	1184917148227.6638	7.043962854482713	500438274784.4666	7.599973358478219e+20	-3.1471072623440464e+23	1623.2080689043808	-0.6346390743471017	23.50107153366738	2.7689873417721516	28.36365440691856	114.90990610273757	116.93110801272402	44.954525459257724	0.0055727554228502466	-9.130404113283823e+22	0.7733859413379758	0.02329382098364136	9.924818650501484e+22	0.1841218214644999	-0.2001418190216273	0.0	29.171478000000004	58.792530000000006	-23.60189200000001	-32.094093	-20.038254	-26.316742	0.0		True	0.0	None	0.0	None	0.0	None	0.0	None	0.0	None	0.0	None	0.0	None	0.0	None	2.1464e-06	12
2014-02-07 06:36:00	53.193605492512205	374364972.0504	2.7520820152842946e+21	1185456650131.0645	6.624072125784204	449596406187.8421	7.515292368230388e+20	-3.153325444716991e+23	1690.2792522928219	-0.6342509803535619	23.579999863720218	2.6916802610114186	28.758677053761	117.62023528931309	119.33108249378678	46.03566485496376	0.005402995208633118	-9.523418966286582e+22	0.7163419650704338	0.021654147338044955	9.791714399109309e+22	0.19155136130349773	-0.19694777991855986	0.0	29.173283	58.683483	-23.606678	-31.97529	-20.043083	-26.205019	0.0		True	0.0	None	0.0	None	0.0	None	0.0	None	0.0	None	0.0	None	0.0	None	0.0	None	2.1401e-06	12
2014-02-07 06:48:00	50.15062280236946	374998763.5092	2.747321422621431e+21	1136768689897.2395	8.024710890412964	606325478183.1664	7.357006905398041e+20	-3.1203018652127486e+23	1763.5953380114436	-0.6265478680839325	23.442825515432077	3.4953111679454394	29.01141172778173	118.07161918580007	120.32289343719722	44.70657928956255	0.006841185754827761	-9.716437612019591e+22	1.0096980865080003	0.026312535918673486	9.809166418624663e+22	0.1951033436557053	-0.1969653120997236	0.0	29.175079	58.574429	-23.613668	-31.857119	-20.044361	-26.093782	0.0		True	0.0	None	0.0	None	0.0	None	0.0	None	0.0	None	0.0	None	0.0	None	0.0	None	2.1222e-06	12
2014-02-07 07:00:00	53.85440531919832	383569244.2422	2.892545431583251e+21	1204297804294.459	6.449500971734955	537538178425.0924	7.567921243076594e+20	-3.1804274309599565e+23	1788.2177789690006	-0.6243515893197684	23.550635723325605	4.105090311986864	29.205013856193037	117.07398459881249	119.42216069926307	45.123384228526646	0.0052951567912438045	-1.0341126860436584e+23	0.8620692570971823	0.02070295287949267	9.860712562557678e+22	0.20300727279044206	-0.19357623130548973	0.0	29.176872	58.465374	-23.617153	-31.746485	-20.047937	-25.982637	0.0		True	0.0	None	0.0	None	0.0	None	0.0	None	0.0	None	0.0	None	0.0	None	0.0	None	1.8947999999999998e-06	12
2014-02-07 07:12:00	51.92681899821163	372011845.1638	2.795475855260637e+21	1088461199103.3763	6.504670796902428	458256379857.5922	7.132314337090702e+20	-3.107558882961444e+23	1925.8528667018759	-0.6289992373747398	22.87287775953097	2.104300091491308	28.353206404743105	121.97981896380522	123.97439186263406	46.59316439066245	0.0059512084143663576	-1.0106424099542905e+23	0.8189652816457053	0.02146731198612553	9.81832223205619e+22	0.20456355907052493	-0.19873210545177045	0.0	29.178661	58.356312	-23.622301	-31.62862	-20.03595	-25.87174	0.0		True	0.0	None	0.0	None	0.0	None	0.0	None	0.0	None	0.0	None	0.0	None	0.0	None	2.0534e-06	12
2014-02-07 07:24:00	54.19442746663559	384975891.83720016	2.9005911132793235e+21	1175948949780.6868	7.86382405362169	516174780151.9975	7.332304981780139e+20	-3.188248705374292e+23	1931.1296074464906	-0.6236000961647804	23.07942969176236	3.2714412024756854	28.820628693887468	124.72517918090642	126.04984569569773	47.942136266576654	0.006952983248118205	-9.805773633994245e+22	0.8914744718435359	0.025162348989897918	1.0917425028338011e+23	0.19179436569114847	-0.21353752252975847	0.0	29.180443	58.24724200000001	-23.628134	-31.517529	-20.038048	-25.766035	0.0		True	0.0	None	0.0	None	0.0	None	0.0	None	0.0	None	0.0	None	0.0	None	0.0	None	1.9028e-06	12
2014-02-07 07:36:00	52.29488886093888	382270482.6681	2.866968247853458e+21	1080624163184.1632	8.301169538570573	611893819274.7809	7.09986397107158e+20	-3.196857956344227e+23	2030.8465397361767	-0.6297092369815551	23.085277077683624	3.1984948259642523	28.411165559350447	128.70583765250814	129.67567849576216	50.1083507335808	0.007809190534873541	-9.53747234705747e+22	1.12438679948397	0.02664945841156305	1.0376751682540416e+23	0.18786679034267206	-0.20439870878191746	0.0	29.182209000000004	58.138161	-23.633293	-31.406088	-20.041363	-25.6541	0.0		True	0.0	None	0.0	None	0.0	None	0.0	None	0.0	None	0.0	None	0.0	None	0.0	None	1.5527000000000004e-06	12
2014-02-07 07:48:00	49.61034050687668	382020252.9071	2.897776838840742e+21	1075800605490.6174	6.350820166369068	452802622116.0523	7.183550997329668e+20	-3.1251953303036965e+23	1963.9859255135125	-0.6159965391445518	23.35269325396819	3.78037803780378	29.244933661941943	130.96551885301557	129.96956945872145	52.326770438987005	0.005716309780710233	-9.090239297393823e+22	0.7960982437082402	0.02057467561382562	1.127061567068503e+23	0.17917459087737242	-0.22215124219117727	0.0	29.183968	58.029068	-23.639746	-31.294899	-20.047844	-25.548264	0.0		True	0.0	None	0.0	None	0.0	None	0.0	None	0.0	None	0.0	None	0.0	None	0.0	None	1.3983e-06	12
2014-02-07 08:00:00	57.610664825371906	400376023.3235	3.09920806384102e+21	1288494318875.6035	4.390393470602458	112694088612.18726	7.737943302520274e+20	-3.285219365815761e+23	1877.444615696788	-0.6178511254292197	23.53196190372839	3.700724054706357	29.240981502008434	130.7400881924543	129.7543210287487	50.930908488604075	0.003532094505713965	-9.253135775990556e+22	0.174696742165559	0.013555852117626608	1.2110396476893106e+23	0.17402370180919485	-0.2277601967923528	0.0	29.185715	57.919964	-23.645306	-31.183941	-20.053434	-25.436811	0.0		True	0.0	None	0.0	None	0.0	None	0.0	None	0.0	None	0.0	None	0.0	None	0.0	None	1.3418e-06	12
2014-02-07 08:12:00	50.812785086434296	392438378.2249	3.1543181727013384e+21	1155461067820.652	3.5368937028225766	243621504583.28955	7.504349163172181e+20	-3.1588627499831764e+23	1961.3215038170333	-0.6061033987435025	24.097660976329998	5.615194054500413	29.63740120482936	131.44259730103806	129.94294780342432	51.733864774340496	0.002920638895807248	-9.13872638329406e+22	0.3929549639343032	0.011222950050855492	1.234912835422514e+23	0.17534833133003155	-0.23694757447298004	0.0	29.187443	57.810844	-23.651859	-31.066441	-20.058168	-25.331932	0.0		True	0.0	None	0.0	None	0.0	None	0.0	None	0.0	None	0.0	None	0.0	None	0.0	None	1.4266e-06	12
2014-02-07 08:24:00	49.049461847566654	387246819.2389	3.1201399958581653e+21	1141804516068.2126	4.136694323235087	250142493657.8964	7.509940285641122e+20	-3.096223236749529e+23	1879.5399153373826	-0.6020490729305913	24.03544753542689	5.04	30.29347622060317	128.55966699655886	126.38239729827565	51.32040315579252	0.00330935545858807	-8.31702135804126e+22	0.38380518834349947	0.013335820822929976	1.2273690769762525e+23	0.1617213816730274	-0.23865734426597	0.0	29.189156	57.70170600000001	-23.656755	-30.955276	-20.063126	-25.226093	0.0		True	0.0	None	0.0	None	0.0	None	0.0	None	0.0	None	0.0	None	0.0	None	0.0	None	1.535e-06	12
2014-02-07 08:36:00	49.30772454999136	384289934.5912	3.097137135656127e+21	1158803332434.4863	5.611435386132582	421557882481.2351	7.683225867400088e+20	-3.120247843291126e+23	1754.7812217862281	-0.611388979125711	24.555436702660355	5.718585402558316	30.2668671551478	120.15406262556984	118.52047443292723	48.83279704163087	0.004222299011386443	-8.20813941578781e+22	0.6154972406119673	0.0181236039748324	1.2244510691750034e+23	0.160832287368776	-0.2399219314523033	0.0	29.190849	57.592548	-23.662329	-30.854198	-20.066929	-25.115904	0.0		True	0.0	None	0.0	None	0.0	None	0.0	None	0.0	None	0.0	None	0.0	None	0.0	None	2.7521e-06	12
2014-02-07 08:48:00	49.21953323281167	381775919.5284	2.9442144490591853e+21	1161111536637.4736	5.796184972126845	483636571381.9047	7.687992057470142e+20	-3.173036347678893e+23	1705.3504598043594	-0.6258266750216721	23.513383740206976	3.7692307692307687	29.092574970923533	123.77306361913715	121.88107547956129	49.36056355574399	0.004458603824712958	-7.694907913306013e+22	0.7266933228470108	0.018676240403210958	1.2067916504894804e+23	0.15176878252608014	-0.2380188322211356	0.0	29.192526	57.483376	-23.665808	-30.736094	-20.070501	-25.010439	0.0		True	0.0	None	0.0	None	0.0	None	0.0	None	0.0	None	0.0	None	0.0	None	0.0	None	1.9774e-06	12
2014-02-07 09:00:00	51.65865160602095	382928693.1873	2.897365567305683e+21	1216224986795.2852	4.735939993697713	175349436629.86816	7.827500116590355e+20	-3.159546396684582e+23	1601.8200376932416	-0.6212899987955001	23.584148047387057	4.258443465491924	29.80056651136661	121.26603387033121	119.56649490968931	48.661199783152284	0.0034771952964006703	-7.391752940435573e+22	0.25148099096367016	0.01525659344544621	1.1896179193082685e+23	0.1453506800937892	-0.2339252610532004	0.0	29.194176	57.374176	-23.670458	-30.625769	-20.075228	-24.893526	0.0		True	0.0	None	0.0	None	0.0	None	0.0	None	0.0	None	0.0	None	0.0	None	0.0	None	2.5528e-06	12
2014-02-07 09:12:00	50.62301884639665	376048682.3639	2.737857977208646e+21	1150360589785.2395	5.98836165428954	358649659892.6511	7.690655951820189e+20	-3.150691099345165e+23	1577.3310596375748	-0.6308836634904667	22.688032278579183	2.448355011476664	28.805519958143282	120.40638951232849	118.55592643594936	48.16154895185869	0.004581761020879526	-7.4634289140100575e+22	0.5360136357600225	0.01952859337801975	1.1377586760025752e+23	0.14944516066490807	-0.22782092533087506	0.0	29.195808000000003	57.264957	-23.674103	-30.508196	-20.08073	-24.782751	0.0		True	0.0	None	0.0	None	0.0	None	0.0	None	0.0	None	0.0	None	0.0	None	0.0	None	1.9783e-06	12
2014-02-07 09:24:00	47.806543781200716	370946488.50830007	2.6239692338536026e+21	1104055939256.3335	5.124603734755524	223383539015.89072	7.602361049432679e+20	-3.141767757458671e+23	1536.403779231081	-0.637749917186793	22.785944208404608	2.7993779160186625	28.784105974719573	120.52180184946134	118.28838476881454	48.717572773123244	0.003984917367617049	-7.328980137656688e+22	0.3393086730658532	0.016870635176385658	1.1345867681888223e+23	0.14877154636137008	-0.23031066371339545	0.0	29.197416	57.15571600000001	-23.652744	-30.397169	-20.084997	-24.676931	0.0		True	0.0	None	0.0	None	0.0	None	0.0	None	0.0	None	0.0	None	0.0	None	0.0	None	1.471e-06	12
2014-02-07 09:36:00	46.35818514174469	381107147.0555	2.7152615303538976e+21	1082612040736.6382	5.703811773766304	380853681446.7382	7.778818565747288e+20	-3.2426638599957064e+23	1559.539991443945	-0.6406817880230993	23.03119431516475	3.203661327231121	28.755741191247395	122.20541303881126	121.60545481627052	47.8101085295801	0.004350733618433489	-7.71100552856766e+22	0.5674719839150589	0.01824415403405822	1.0965066869135342e+23	0.1523531584770946	-0.21664652738689288	0.0	29.198994	57.046444	-23.655615	-30.286978	-20.089735	-24.566294	0.0		True	0.0	None	0.0	None	0.0	None	0.0	None	0.0	None	0.0	None	0.0	None	0.0	None	1.4898e-06	12
2014-02-07 09:48:00	48.9913961443441	375603384.45540017	2.627303986054005e+21	1134029140049.2556	2.802920193108803	215272712452.9318	7.678645011259611e+20	-3.223317095322258e+23	1530.0274686213475	-0.6461910857020515	22.749327724297427	3.0935808197989174	28.76097457880141	123.81023701274813	123.57807011777399	48.02226151660968	0.002167765037207117	-7.0449751789636055e+22	0.3166442028576596	0.009066318786914754	1.0840296761754685e+23	0.1412333948231476	-0.21731970286064467	0.0	29.20055	56.937149	-23.661228	-30.170412	-20.09544	-24.456434	0.0		True	0.0	None	0.0	None	0.0	None	0.0	None	0.0	None	0.0	None	0.0	None	0.0	None	1.4053e-06	12
