Timestamp	TOTUSJH	TOTBSQ	TOTPOT	TOTUSJZ	ABSNJZH	SAVNCPP	USFLUX	TOTFZ	MEANPOT	EPSZ	MEANSHR	SHRGT45	MEANGAM	MEANGBT	MEANGBZ	MEANGBH	MEANJZH	TOTFY	MEANJZD	MEANALP	TOTFX	EPSY	EPSX	R_VALUE	CRVAL1	CRLN_OBS	LAT_MIN	LON_MIN	LAT_MAX	LON_MAX	QUALITY	NOAA_AR	IS_TMFI	BFLARE	BFLARE_label	CFLARE	CFLARE_label	MFLARE	MFLARE_label	XFLARE	XFLARE_label	BFLARE_loc	BFLARE_label_loc	CFLARE_loc	CFLARE_label_loc	MFLARE_loc	MFLARE_label_loc	XFLARE_loc	XFLARE_label_loc	XR_MAX	XR_QUAL
2014-02-17 08:24:00	3.5359997708386897	21024623.2838	1.1401304602693635e+20	85500087133.57419	1.5365936118194183	138141807049.9234	4.749762425289097e+19	-1.7472915991612432e+22	1059.8809489785883	-0.6257843849567428	18.03152005576056	1.2345679012345678	27.006191012378515	119.69470311050932	128.34833866362308	44.85689727401946	-0.01897029150394344	4.247242368079762e+21	3.3188851697709865	-0.08990789880294399	-6.274553360762746e+21	-0.15211301618727366	0.2247202194314924	0.0	297.7368160000001	286.023712	7.890739	8.989303	8.932478999999997	11.72279	0.0		True	0.0	None	0.0	None	0.0	None	0.0	None	0.0	None	0.0	None	0.0	None	0.0	None	1.5532e-06	12
2014-02-17 08:36:00	2.637281265625858	17230807.4051	1.0008063263790893e+20	69209252516.91997	0.19036932927712688	8513906465.008277	3.831611154779928e+19	-1.3135105928496427e+22	1092.1656709798524	-0.5740047968252826	19.49838869842076	0.0	29.711890229379787	110.26750696621454	115.35161828527114	48.558310567058534	-0.002758975786625027	4.2890198018256677e+21	-0.2401228749953292	-0.014038325102919896	-5.754209908301805e+21	-0.1874303833808801	0.25145926551982456	0.0	297.740753	285.91449	7.889675	9.082332	8.938112	11.848276	0.0		True	0.0	None	0.0	None	0.0	None	0.0	None	0.0	None	0.0	None	0.0	None	0.0	None	1.157e-06	12
2014-02-17 08:48:00	2.7164970604547496	20456098.3601	9.747843734526327e+19	55950797067.11905	1.0665204251523466	69997699379.73935	4.173745115485098e+19	-1.6603798384134708e+22	1129.23077634333	-0.6111842471918424	16.804926465606894	0.0	28.63243052018063	118.21671732060736	127.81968116810663	53.89315493676246	-0.01640800654080533	4.5508097653804777e+21	2.09568664031894	-0.06471890526336299	-5.827013799985078e+21	-0.1675148767901822	0.21449182652827992	0.0	297.7447200000001	285.805267	7.861350999999999	9.173829	8.941593	11.972242	0.0		True	0.0	None	0.0	None	0.0	None	0.0	None	0.0	None	0.0	None	0.0	None	0.0	None	1.0081e-06	12
2014-02-17 09:00:00	2.92049886227986	20937717.6908	1.0138149526704289e+20	68249798572.25031	0.5870257558711673	16708942440.30998	4.399178230117592e+19	-1.6600061167824888e+22	1060.263160593206	-0.5969910558251684	17.392377128046665	0.0	28.93003902634367	129.27122532067193	136.734763569061	54.08550454660613	-0.008153135498210656	6.93868924952252e+21	0.4516221575452337	-0.03511198064809427	-4.785776008403875e+21	-0.24953735888299536	0.17211174364450565	0.0	297.748627	285.696014	7.860538	9.264232000000002	8.94179	12.093689	0.0		True	0.0	None	0.0	None	0.0	None	0.0	None	0.0	None	0.0	None	0.0	None	0.0	None	1.3674e-06	12
2014-02-17 09:12:00	2.7822971409691686	20810403.1418	1.1123238181981476e+20	57571601459.14015	0.9437826804508682	66046976499.34165	3.9765598414259446e+19	-1.559983693083798e+22	1395.942354279084	-0.5644520607967418	17.494108196621383	0.0	29.452275460752894	141.6255489667593	144.14979109772742	68.34325749502254	-0.015729711340847802	4.907066134740692e+21	2.1422194584335386	-0.057977468115768524	-6.049479451447358e+21	-0.17755336831405585	0.2188895408494234	0.0	297.752472	285.586731	7.861952	9.356504	8.944243	12.217783	0.0		True	0.0	None	0.0	None	0.0	None	0.0	None	0.0	None	0.0	None	0.0	None	0.0	None	1.2569e-06	12
2014-02-17 09:24:00	2.4169551844153165	22898639.9585	1.177685444143299e+20	56565886724.30125	1.6065569343607164	134502352718.27306	4.6096772351099896e+19	-1.817157791351924e+22	1214.7696182109755	-0.5975447378577114	16.699211627771632	0.0	29.89832015200788	134.94337812969036	136.96124545334115	60.71236836804483	-0.02200762923781804	5.418873340963622e+21	3.585694870086015	-0.08783414922454337	-7.224013961615346e+21	-0.17819141878709585	0.23755072616794515	0.0	297.756409	285.477448	7.835906	9.448921	8.948082000000003	12.342067	0.0		True	0.0	None	0.0	None	0.0	None	0.0	None	0.0	None	0.0	None	0.0	None	0.0	None	1.1126000000000002e-06	12
2014-02-17 09:36:00	2.9217747079449485	21833688.742300004	1.050403273845049e+20	59184576966.71051	1.5140928028918248	104683509910.4093	4.175434658126478e+19	-1.8577867008297247e+22	1340.576280858598	-0.6407021935142959	16.522044475049093	0.0	26.420575269942866	126.39649825370344	130.83508795690022	58.386919601970355	-0.025662589879522454	6.541121504626699e+21	3.453005053450057	-0.08453287061502505	-5.277211066835195e+21	-0.2255862254900475	0.181997249988341	0.0	297.760223	285.368134	7.839817	9.54131	8.953052	12.465625	0.0		True	0.0	None	0.0	None	0.0	None	0.0	None	0.0	None	0.0	None	0.0	None	0.0	None	1.6905000000000004e-06	12
2014-02-17 09:48:00	3.597998118918264	25842002.6741	1.028628853522116e+20	69173006682.01677	1.7259979103687528	112690239351.05267	4.9894548529463394e+19	-2.269126370394268e+22	1090.90736403579	-0.6611804986315776	15.510387271153196	0.0	25.323253532247662	131.46352575986032	140.44548964547315	52.59737091079542	-0.02430982972350356	5.876848656576008e+21	3.0889021063268776	-0.08041318613291717	-6.103073835548318e+21	-0.1712402524528458	0.17783202621156952	0.0	297.764038	285.2587890000001	7.841588000000002	9.631977	8.955886	12.588189	0.0		True	0.0	None	0.0	None	0.0	None	0.0	None	0.0	None	0.0	None	0.0	None	0.0	None	1.7672e-06	12
2014-02-17 10:00:00	3.7113523992844737	25862237.9441	1.1129285775061146e+20	78115703886.0221	0.5670559689247723	41173214757.130516	5.288634041442183e+19	-2.2245018730695745e+22	1034.5936023801924	-0.6476706036463198	16.138649743812252	0.0	27.326475479203445	139.55309993300543	147.51069205754817	61.373731470689364	-0.0070006909743799035	5.708444010372571e+21	0.9892628114507992	-0.026614568254304225	-6.758847106620563e+21	-0.16620311373249114	0.1967859249072077	0.0	297.767883	285.149445	7.843758	9.753494	8.959131	12.711123	0.0		True	0.0	None	0.0	None	0.0	None	0.0	None	0.0	None	0.0	None	0.0	None	0.0	None	1.2481e-06	12
2014-02-17 10:12:00	2.9470353290580165	24628546.0195	1.3717932063456362e+20	66740639742.16598	1.117109003323723	75405625297.50677	4.7403773900627124e+19	-1.907591713253939e+22	1395.8683531681022	-0.5832223881234061	17.863719311252623	0.0	29.04795133861629	150.00484689213485	151.77938346762463	65.04117417376044	-0.015096067612482745	7.502127181253553e+21	1.9831713075134096	-0.057298710947089875	-6.357641792383119e+21	-0.2293681871364765	0.1943769729771969	0.0	297.771637	285.0400390000001	7.846723	9.844588	8.962508999999997	12.833419	0.0		True	0.0	None	0.0	None	0.0	None	0.0	None	0.0	None	0.0	None	0.0	None	0.0	None	1.0437999999999999e-06	12
2014-02-17 10:24:00	4.4656982288341975	25735803.09260001	1.4374182465781776e+20	87456571484.71977	2.52933584132525	170457759726.5082	4.861877971885105e+19	-1.9485273170123898e+22	1482.681205908345	-0.5701068547504853	16.634243698769055	0.0	29.63381285867937	163.50972131300608	164.51996103988117	74.06669113361724	-0.03464843618253767	7.466900787323717e+21	4.544528550675832	-0.12518997683783992	-6.638614974690274e+21	-0.21846916311761305	0.19423489063130647	0.0	297.775391	284.930634	7.848936	9.937017	8.96583	12.958631	0.0		True	0.0	None	0.0	None	0.0	None	0.0	None	0.0	None	0.0	None	0.0	None	0.0	None	8.9156e-07	12
2014-02-17 10:36:00	4.457176314794788	23652170.0091	1.557497157361119e+20	95019746656.7683	2.273688258383284	154476932286.5439	4.619125089212932e+19	-1.7575047819537066e+22	1606.541183050208	-0.5595166101549414	18.817298404897247	0.0	30.68530267412724	157.72669797577464	155.60020263139978	75.99179552632538	-0.03114641449840115	5.605634869140505e+21	4.118536351728916	-0.12328207002312605	-7.279512667323016e+21	-0.1784601585129826	0.23174948330284625	0.0	297.779144	284.821198	7.825021	10.027804	8.971732000000003	13.082265	0.0		True	0.0	None	0.0	None	0.0	None	0.0	None	0.0	None	0.0	None	0.0	None	0.0	None	8.7066e-07	12
2014-02-17 10:48:00	3.0900078527554613	21413456.4165	1.15418018862683e+20	73877803798.50931	1.0634447498855293	67628982349.69476	4.220652773022059e+19	-1.3772593640469374e+22	1190.5243397875242	-0.484302246400026	17.3845751417041	0.0	34.217349396191956	153.11932428526575	153.96233034955273	67.6259550996945	-0.014567736299801771	5.753414475564869e+21	1.8031002424925184	-0.06691689923386608	-6.907653347476423e+21	-0.2023142211063981	0.2429021084093699	0.0	297.78283700000014	284.711731	7.827278999999999	10.117999	8.974388000000003	13.20531	0.0		True	0.0	None	0.0	None	0.0	None	0.0	None	0.0	None	0.0	None	0.0	None	0.0	None	8.921899999999998e-07	12
2014-02-17 11:00:00	3.660835823258092	22358923.1801	1.08353700759018e+20	82677679272.22641	1.8741427536394373	124546055641.2562	4.678067378615772e+19	-1.6944495062140758e+22	1032.7712645328804	-0.5706439744851315	16.19686341138494	0.0	30.118232963197087	137.56772785683322	137.83627984695306	57.472091576878064	-0.023723325995435914	6.453671548673131e+21	3.068462693550427	-0.10673430520431301	-7.239883281359437e+21	-0.2173419018419055	0.2438193499028614	0.0	297.786438	284.602203	7.829164	10.209381	8.97594	13.327997	0.0		True	0.0	None	0.0	None	0.0	None	0.0	None	0.0	None	0.0	None	0.0	None	0.0	None	9.127299999999999e-07	12
2014-02-17 11:12:00	3.3127815845211535	24116711.161	1.263268018330164e+20	74042816297.24033	1.4478980380781366	78496565424.42105	4.866063992388563e+19	-1.7811299372227975e+22	1174.3511285881175	-0.5561155107952076	16.846253842407666	1.2345679012345678	29.660068748992114	153.00643839129708	152.85716296894503	60.80724926406724	-0.017875284420717737	6.475128560708389e+21	1.886218992562268	-0.07716281478616371	-8.896772715903842e+21	-0.20217050714546225	0.2777805930907131	0.0	297.7901310000001	284.492676	7.8320089999999984	10.300957	8.979913	13.451743	0.0		True	0.0	None	0.0	None	0.0	None	0.0	None	0.0	None	0.0	None	0.0	None	0.0	None	8.749500000000002e-07	12
2014-02-17 11:24:00	3.4313760011363774	22594450.846	1.1830437192431632e+20	73345952811.50337	1.6540815648219274	98924497427.1023	4.39530070223065e+19	-1.7631210552612748e+22	1254.6710746477358	-0.5875810511212457	17.89483498697793	1.4084507042253522	30.11173383001243	154.30645208469238	157.0898516497169	64.66124139256273	-0.023296923448196158	5.49437704363389e+21	2.711944680824368	-0.09222511809187896	-7.017094134531017e+21	-0.18310664653008926	0.2338530037447408	0.0	297.793732	284.383118	7.835176	10.392361	8.984962	13.575356	0.0		True	0.0	None	0.0	None	0.0	None	0.0	None	0.0	None	0.0	None	0.0	None	0.0	None	1.0314e-06	12
2014-02-17 11:36:00	3.118911691721107	22068555.8741	1.3766837355965596e+20	69619027813.96042	1.025342747075231	56693835786.961	4.420151941221904e+19	-1.619349280460424e+22	1400.8445562995853	-0.5525277603148682	17.604394527942613	1.3513513513513509	30.803586758790804	150.91124895433754	151.66664230996432	67.9837281776438	-0.013855983068584205	5.420151591461521e+21	1.4912440562912934	-0.059852978909060786	-7.793639138956039e+21	-0.1849375088829388	0.2659217520339595	0.0	297.797333	284.273529	7.8374190000000015	10.485951	8.988374	13.701206	0.0		True	0.0	None	0.0	None	0.0	None	0.0	None	0.0	None	0.0	None	0.0	None	0.0	None	8.552899999999998e-07	12
2014-02-17 11:48:00	3.4207242670572104	23593036.168	1.6348127822257278e+20	76207518121.74753	1.4215374824978202	102477002701.86473	4.803609340562642e+19	-1.8346756374905607e+22	1538.7408011308207	-0.5855485266003005	19.35386350669437	2.5	29.395560836740714	159.63878541927366	158.85106601927842	67.74741765849326	-0.017769218531222753	5.905316440750054e+21	2.4933918238911383	-0.07600198570860768	-7.502026790303548e+21	-0.1884719713027484	0.23943200878748386	0.0	297.800873	284.16391	7.839749	10.578899	8.991135	13.825611	0.0		True	0.0	None	0.0	None	0.0	None	0.0	None	0.0	None	0.0	None	0.0	None	0.0	None	9.3485e-07	12
2014-02-17 12:00:00	3.93969962989523	21673364.3143	1.4172060085429024e+20	88875827642.23615	0.6756511629626434	29316860899.208237	4.819625072096731e+19	-1.7997672711122837e+22	1301.3874312800215	-0.6252842565175004	19.103112311202977	0.0	27.20646738156652	130.83435051549	127.98678027907387	57.84314922248229	-0.008239648328812724	5.401507644461502e+21	0.6959332700370217	-0.03836161341902738	-6.29804237254409e+21	-0.1876619130568684	0.2188097764439377	0.0	297.804413	284.05426	7.840416999999999	10.699432	8.992216	13.948626	0.0		True	0.0	None	0.0	None	0.0	None	0.0	None	0.0	None	0.0	None	0.0	None	0.0	None	1.0475e-06	12
2014-02-17 12:12:00	3.327623849886426	22423333.8067	1.243079637037284e+20	80991620817.35345	1.0925470588639248	113828120648.54187	5.149622057533996e+19	-1.839049163473482e+22	1028.5966329484256	-0.617562185769287	18.279600974645227	1.0989010989010992	27.999693196317374	122.93384836674672	126.267773764283	52.34428258689653	-0.012006011635867305	4.935116698632728e+21	2.4349066356677413	-0.06024333141499433	-7.017492132007919e+21	-0.165723761820361	0.23565100192733776	0.0	297.807861	283.94455	7.817255999999999	10.820826	8.997208	14.07056	0.0		True	0.0	None	0.0	None	0.0	None	0.0	None	0.0	None	0.0	None	0.0	None	0.0	None	8.293299999999998e-07	12
2014-02-17 12:24:00	3.4030195500216736	24280765.9114	1.1975532358542156e+20	71271736014.22102	1.3123282510571963	87736685623.77667	5.02740737921255e+19	-2.014899468535114e+22	1141.4454722333762	-0.624853825137232	16.74084149809632	0.0	28.067107555912017	132.50579958591155	136.30473247644662	58.577115329157145	-0.016611750013382234	4.781199443880925e+21	2.161914337030592	-0.06652667143793263	-7.973949208202242e+21	-0.14827294403055416	0.2472854225237165	0.0	297.811279	283.834839	7.82123	10.913547	9.002374	14.194501	0.0		True	0.0	None	0.0	None	0.0	None	0.0	None	0.0	None	0.0	None	0.0	None	0.0	None	8.717200000000002e-07	12
2014-02-17 12:36:00	3.428649905026018	23309064.381600004	1.137916073102828e+20	78217492951.84044	1.2377274891998913	117497459393.39532	4.793159323665349e+19	-1.8383074927535536e+22	1098.507808895228	-0.5938555713427494	17.352848373965436	0.0	29.984881880453273	131.88282983102346	136.7433002967698	51.39907441848639	-0.01586830114358835	4.504234532953004e+21	2.932437828780496	-0.0666317509557516	-8.281567339469319e+21	-0.14550692865979328	0.2675316791875431	0.0	297.814758	283.725098	7.821944999999999	11.035034	9.002692999999997	14.288962	0.0		True	0.0	None	0.0	None	0.0	None	0.0	None	0.0	None	0.0	None	0.0	None	0.0	None	8.9891e-07	12
2014-02-17 12:48:00	4.477905094215785	27683239.63700001	1.2623444037456993e+20	97470680062.07362	2.070916154632429	147227045016.49762	5.685170960252881e+19	-2.359981401882372e+22	1068.009822663678	-0.6419172742574918	16.240937681715508	0.0	28.614783537163234	149.8038716641101	155.815830123146	55.795700958547314	-0.02326872083856662	5.106538733196966e+21	3.2203499278902417	-0.09112222746121433	-7.571827075381436e+21	-0.13889835834678685	0.2059544449588077	0.0	297.818085	283.615295	7.822913000000002	11.130105	9.004046	14.412943	0.0		True	0.0	None	0.0	None	0.0	None	0.0	None	0.0	None	0.0	None	0.0	None	0.0	None	1.1092000000000001e-06	12
2014-02-17 13:00:00	4.228116718122979	27835402.086	1.3163437130386776e+20	94278507947.315	2.126364249057396	176413318021.20334	5.6594032126616674e+19	-2.2023523746202383e+22	1077.3801005901557	-0.5957674633678364	16.67721900427875	1.0869565217391304	29.155664813428736	152.72274782049138	157.91364888414944	64.86478428025666	-0.02311265488105865	5.040939432245216e+21	3.733016257654444	-0.09574157166915996	-8.627349619959138e+21	-0.13636454062250114	0.23338200816101554	0.0	297.821442	283.505493	7.825783	11.249793	9.008933	14.537938	0.0		True	0.0	None	0.0	None	0.0	None	0.0	None	0.0	None	0.0	None	0.0	None	0.0	None	9.4149e-07	12
2014-02-17 13:12:00	5.069670442449201	27663325.3783	1.4456862821506467e+20	108815272124.82272	1.3493244712445431	57912371710.4749	5.5073010653948035e+19	-2.1900806994576934e+22	1251.2450699623632	-0.596133193706209	17.064581577510527	0.0	29.49194232205721	162.1124080434005	167.8991271032049	69.6259846095904	-0.01550947668097176	5.446596381169906e+21	1.295923638220868	-0.06111852687912087	-7.842053532519582e+21	-0.1482546691699302	0.2134582720496808	0.0	297.824768	283.39563	7.828408	11.372303	9.012786	14.662264000000002	0.0		True	0.0	None	0.0	None	0.0	None	0.0	None	0.0	None	0.0	None	0.0	None	0.0	None	9.7206e-07	12
2014-02-17 13:24:00	4.984730898397939	27348777.1603	1.6229508465411886e+20	126385308101.39336	0.6438077629741061	39742360948.63303	6.040532294352985e+19	-2.136568031270144e+22	1131.5377879376401	-0.5882558623737575	19.911734191870824	1.8518518518518519	30.177651837428304	139.4326125171892	142.90751562346614	59.387335279788395	-0.005961182990500983	5.447805205402346e+21	0.716420542173823	-0.02964338708622653	-8.533942444072243e+21	-0.1499930403453184	0.2349628749664181	0.0	297.8280640000001	283.285767	7.8298070000000015	11.465328	9.014606	14.78691	0.0		True	0.0	None	0.0	None	0.0	None	0.0	None	0.0	None	0.0	None	0.0	None	0.0	None	9.7966e-07	12
2014-02-17 13:36:00	4.360854837749523	28707043.3186	1.5683604504721483e+20	107887281347.67438	1.3786659484164852	133782885772.41333	6.336419456447665e+19	-2.279624178363556e+22	1026.9175303545517	-0.5979464831015251	18.504500437699047	3.4782608695652173	29.962906035794788	139.7940388124233	143.10427169952018	53.862292173747825	-0.011988399551447695	5.161465191543321e+21	2.2649147942496826	-0.060108840413553875	-9.248913129143716e+21	-0.13538547222945216	0.2425994218947533	0.0	297.831299	283.175842	7.833008	11.587425	9.019066	14.911773	0.0		True	0.0	None	0.0	None	0.0	None	0.0	None	0.0	None	0.0	None	0.0	None	0.0	None	1.0321e-06	12
2014-02-17 13:48:00	4.699625395448276	28873993.5361	1.63923330238762e+20	110456674426.98824	1.2979425036711618	97773970118.57286	6.2412428291835314e+19	-2.309486312327365e+22	1164.4541903057975	-0.6022766727559806	17.728139693559104	2.830188679245284	27.7289350060893	146.56557610818712	150.17703316236245	64.06209482445897	-0.012244740600671338	6.292435954637101e+21	1.7958805705839478	-0.05611010550479114	-9.002074176183829e+21	-0.16409655125731445	0.2347595330526476	0.0	297.834564	283.065918	7.836449000000001	11.683427	9.022953	15.036728	0.0		True	0.0	None	0.0	None	0.0	None	0.0	None	0.0	None	0.0	None	0.0	None	0.0	None	9.8021e-07	12
2014-02-17 14:00:00	3.91595247521386	25641265.8031	1.2780213129375352e+20	89717845134.92946	0.856659893015242	41997013122.59694	5.496567063823461e+19	-2.1194907378709472e+22	1012.9824294218332	-0.6224141876790855	17.91753649504485	0.0	28.66299346656248	132.91013581592028	138.01994055507095	54.88408175328424	-0.00901747255805518	5.022527948023203e+21	0.8607274911726533	-0.04118482586991138	-8.457109791837378e+21	-0.14749263098948776	0.2483532967210263	0.0	297.837738	282.955933	7.838433	11.774683	9.026213	15.161525	0.0		True	0.0	None	0.0	None	0.0	None	0.0	None	0.0	None	0.0	None	0.0	None	0.0	None	2.0817e-06	12
2014-02-17 14:12:00	4.404536880105003	24212295.6699	1.1952867486231391e+20	98660385647.52054	2.185266590747166	156038115109.27075	5.15340179497688e+19	-1.9280695607700587e+22	1034.5235467172952	-0.599617442205139	16.85932359075232	1.1494252873563218	28.949139217194084	133.86113922608092	140.60430508604165	57.2125054905581	-0.02511800679019731	4.798914790215202e+21	3.4921527840812003	-0.1128450003117676	-7.985048874011163e+21	-0.14924321561925336	0.2483299710309887	0.0	297.840881	282.845947	7.839515	11.867599	9.026889	15.287101000000002	67584.0		False	0.0	None	0.0	None	0.0	None	0.0	None	0.0	None	0.0	None	0.0	None	0.0	None	1.9383e-06	12
2014-02-17 14:24:00	4.087825336115524	26809525.9116	1.4819770996061972e+20	93987203701.49374	0.4622617057598014	12975520714.346128	5.72123425535763e+19	-2.1925681151066155e+22	1162.4057141424075	-0.6158166637275942	17.80033805208345	1.0416666666666663	27.98475395803927	142.79181656551305	146.14703781356778	57.50763118295765	-0.0048152261016645975	5.673607891221423e+21	0.2631758293215882	-0.021342077683486654	-8.135223372561065e+21	-0.15935205199773847	0.22849032973945696	0.0	297.844055	282.735901	7.842997	11.961476	9.031675	15.412775	0.0		True	0.0	None	0.0	None	0.0	None	0.0	None	0.0	None	0.0	None	0.0	None	0.0	None	1.2584999999999999e-06	12
2014-02-17 14:36:00	4.510002320704442	24852476.4716	1.4262708656887511e+20	105136352480.97238	1.0169178582059852	78069352225.61853	5.3113528198951485e+19	-2.0048973572015552e+22	1220.413091850847	-0.6074492372159193	17.51163555980991	0.0	27.66198085115173	152.1082093753167	153.79256790127354	57.37676334131231	-0.01155588475234074	6.495605933779889e+21	1.7274318849244152	-0.05091068395032389	-7.647961831308017e+21	-0.1968056297524024	0.2317200211769981	0.0	297.847168	282.625854	7.846	12.052707	9.035128	15.536736	0.0		True	0.0	None	0.0	None	0.0	None	0.0	None	0.0	None	0.0	None	0.0	None	0.0	None	1.1197e-06	12
2014-02-17 14:48:00	5.071496881207381	26922116.825300004	1.3314641447695393e+20	109670353705.44513	2.546093263012815	208532496834.18454	5.495842033574306e+19	-2.2481501386221203e+22	1165.7849364239	-0.6287869530449287	15.506965346309107	0.0	27.32128219397321	162.6689101855875	164.3157159592044	66.93486152258188	-0.02960573561642808	5.968242351152362e+21	4.721593360294863	-0.11612636102480435	-8.477311213508993e+21	-0.16692625899597785	0.23710261144849146	0.0	297.8502200000001	282.5157779999999	7.8480050000000015	12.174397	9.038459	15.661403	0.0		True	0.0	None	0.0	None	0.0	None	0.0	None	0.0	None	0.0	None	0.0	None	0.0	None	1.1228e-06	12
2014-02-17 15:00:00	4.329836409281459	24564244.1971	1.4506684403129003e+20	102436461753.15663	1.0779610805269215	80049419170.2824	5.13897793311086e+19	-2.0411399825594247e+22	1270.1565073211675	-0.6256866801020686	18.20139143312061	1.162790697674419	28.436673406004328	150.4274180535188	150.2701113203477	67.1928792523815	-0.012534431168917694	5.964641297053355e+21	1.8125219959383068	-0.05398745103940985	-7.684909553443084e+21	-0.18283883726942565	0.2355715720853792	0.0	297.853333	282.4056700000001	7.850964999999999	12.26901	9.041891	15.78791	0.0		True	0.0	None	0.0	None	0.0	None	0.0	None	0.0	None	0.0	None	0.0	None	0.0	None	1.4165000000000001e-06	12
2014-02-17 15:12:00	3.708344612923379	20068432.230500005	1.2355902398180735e+20	94462793411.39723	0.910271433337851	49387547476.63324	4.534032323683367e+19	-1.636796799225812e+22	1134.6140879888162	-0.6141421087975504	18.053483102428906	1.2195121951219512	28.70743708803256	128.13030793423144	128.81117012919296	52.95623616292509	-0.011100871138266476	4.796556739913555e+21	1.1728354750171346	-0.05620121386845107	-7.286203716771675e+21	-0.17997148287502346	0.2733854634773982	0.0	297.856323	282.295532	7.854638	12.390949	9.046032	15.912901000000002	0.0		True	0.0	None	0.0	None	0.0	None	0.0	None	0.0	None	0.0	None	0.0	None	0.0	None	1.5834e-06	12
2014-02-17 15:24:00	3.5879891073664965	23355566.817	1.3152466254902492e+20	90419056375.56584	0.5581576226433645	49401034466.74167	5.4576864865065206e+19	-1.8334575823553288e+22	990.3636169537295	-0.5911094960688833	17.934542345649835	0.0	28.265089513581994	124.01961520285928	127.47690169428385	49.605431263441886	-0.005581576226433646	5.24960553461154e+21	0.9620088826742524	-0.030039754321134555	-8.271467462418938e+21	-0.16924807598429947	0.2666733613318497	0.0	297.859375	282.185364	7.856797999999999	12.514092	9.049551	16.036798	0.0		True	0.0	None	0.0	None	0.0	None	0.0	None	0.0	None	0.0	None	0.0	None	0.0	None	1.3812e-06	12
2014-02-17 15:36:00	3.618536365830666	23556763.9974	1.1994922576713328e+20	85561868149.1629	1.4319008007377567	88634020239.6417	5.425416829744672e+19	-1.8619677460065423e+22	876.8951465353699	-0.595174018729714	17.668173829195098	0.0	30.564472715000928	122.24998538268619	125.67369145026905	48.63547183257989	-0.013901949521725793	4.940188635870088e+21	1.6757743619013028	-0.0762112753119705	-7.569594233221076e+21	-0.1579120760818664	0.2419604651907664	0.0	297.8623350000001	282.075195	7.858282000000001	12.607606	9.05049	16.133245000000002	0.0		True	0.0	None	0.0	None	0.0	None	0.0	None	0.0	None	0.0	None	0.0	None	0.0	None	2.4268e-06	12
2014-02-17 15:48:00	3.4425111439595915	22558025.0735	1.1536318881047028e+20	86926589693.7067	0.4718562556104245	12943185853.450924	5.28828797654322e+19	-1.841356366849032e+22	877.4444557260305	-0.6146449948310454	19.10115911441745	0.0	29.22665770719444	117.4460223323468	121.85617926076927	44.39413444425392	-0.0047662248041457035	6.013185616925772e+21	0.2546052914802221	-0.025909652424649085	-6.710643762041011e+21	-0.20072021412987465	0.2240013760883721	0.0	297.865295	281.964996	7.860264	12.730777	9.052938	16.257175	0.0		True	0.0	None	0.0	None	0.0	None	0.0	None	0.0	None	0.0	None	0.0	None	0.0	None	1.1825e-06	12
2014-02-17 16:00:00	2.9198808765709794	23306153.9987	1.0533493662089249e+20	74088786417.47284	0.4667986706611319	34324053175.07136	5.303242275336445e+19	-2.0113482097542363e+22	843.7854060147214	-0.6498364630279533	17.880510539843574	1.0638297872340423	28.12141719815628	117.37854335827964	120.88853458029713	42.645458608484994	-0.004965943304905658	6.137588038511533e+21	0.7111162548073628	-0.02427996725866905	-6.752166404434683e+21	-0.19829627128344668	0.21815237723408154	0.0	297.8682560000001	281.854767	7.864411	12.82376	9.056528	16.380785	0.0		True	0.0	None	0.0	None	0.0	None	0.0	None	0.0	None	0.0	None	0.0	None	0.0	None	1.4131e-06	12
2014-02-17 16:12:00	2.860634221326701	20799037.6007	8.647542438632274e+19	68528050349.17526	0.5743146748327244	30341812147.891068	4.624697100339875e+19	-1.7863380584754494e+22	813.9359275796222	-0.6467075258254884	16.43428818031716	0.0	27.196179386231623	128.755393955403	130.73038564091215	46.74941388275296	-0.0071789334354090545	6.229402413896607e+21	0.7386347194691891	-0.033536690179420826	-5.970327323697742e+21	-0.22552290163378205	0.2161436125462218	0.0	297.871155	281.744507	7.866927	12.920375	9.059516	16.478703	0.0		True	0.0	None	0.0	None	0.0	None	0.0	None	0.0	None	0.0	None	0.0	None	0.0	None	1.3343999999999999e-06	12
2014-02-17 16:24:00																																	False	0.0	None	0.0	None	0.0	None	0.0	None	0.0	None	0.0	None	0.0	None	0.0	None	1.1727e-06	12
2014-02-17 16:36:00	3.8702636553628498	27126173.2821	1.183734237097226e+20	85201970314.78381	0.6358277080327996	42350693006.558784	5.705821531674077e+19	-2.4076430560794214e+22	990.3740096115732	-0.6683302286306307	17.204378169802453	1.1111111111111112	26.15322266106861	125.93169895724131	130.79384702126254	45.29537693840643	-0.007064752311475552	6.125536415643629e+21	0.9164554857241076	-0.02809951957389804	-7.900061524860836e+21	-0.1700368807915734	0.21929537735148905	0.0	297.876953	281.523956	7.851583	13.136477	9.067249	16.728367000000002	0.0		True	0.0	None	0.0	None	0.0	None	0.0	None	0.0	None	0.0	None	0.0	None	0.0	None	1.3182e-06	12
2014-02-17 16:48:00	2.9701044676907147	24884775.2675	1.0287551675111706e+20	61445122052.29917	0.2364281491359085	10760732606.016865	5.122515328014104e+19	-2.135092830950333e+22	993.1271501111684	-0.6460564505598263	16.49989783665663	0.0	26.42358780925744	122.75994132643206	130.16975999653295	48.44889537196105	-0.0030311301171270324	4.61284898636041e+21	0.2686874415427821	-0.011543851464475048	-7.7899273965604e+21	-0.13957991895696753	0.2357149427409431	0.0	297.8798220000001	281.41366600000003	7.874116000000001	13.232786	9.069788	16.825657	0.0		True	0.0	None	0.0	None	0.0	None	0.0	None	0.0	None	0.0	None	0.0	None	0.0	None	9.6474e-07	12
2014-02-17 17:00:00	3.8362067318237614	24423878.04720001	1.333139764455587e+20	90517370840.9292	0.4776247399343637	1904893564.719513	5.409156345520339e+19	-2.0236735838853462e+22	1056.6703273478718	-0.6238975419444871	20.404038957470398	1.0526315789473684	28.285529378086853	119.37833943627555	123.49662276444056	41.97558552844696	-0.005027628841414354	5.9861448320984e+21	-0.03905293035579984	-0.02408482874825612	-7.493935424695737e+21	-0.1845525422780576	0.231037649954484	0.0	297.882721	281.303375	7.878206	13.353593	9.072455	16.949735999999998	0.0		True	0.0	None	0.0	None	0.0	None	0.0	None	0.0	None	0.0	None	0.0	None	0.0	None	1.0991e-06	12
2014-02-17 17:12:00	3.560272913121608	25392905.9542	1.1131838877976809e+20	86398222698.4301	1.099316258693417	90213820610.42493	5.6162657778117616e+19	-2.187042286881973e+22	873.1385130077716	-0.6485332427136471	17.71088080780439	0.0	27.50259950736911	113.97627951351528	121.36183554570528	40.59264698144922	-0.01145121102805643	5.052591225041003e+21	1.8302661777722748	-0.052522154572790594	-7.678304115895258e+21	-0.14982670389761862	0.2276881200099003	0.0	297.885559	281.193054	7.881188000000001	13.44767	9.075912	17.075958	0.0		True	0.0	None	0.0	None	0.0	None	0.0	None	0.0	None	0.0	None	0.0	None	0.0	None	1.2573e-06	12
2014-02-17 17:24:00	3.3676830976522094	24095615.0982	1.4935372443514965e+20	89544284883.67839	0.3778137642764412	9084169200.23436	5.568939353201675e+19	-1.889776746608721e+22	1135.973613924386	-0.590554339210996	19.567961780808197	0.0	28.383621869745483	121.31949139405502	125.76729823246971	43.920402551415656	-0.003816300649256982	6.335943448647519e+21	0.1787177432474481	-0.019716110499283426	-8.189592576855106e+21	-0.1979979329997015	0.25592438055506056	0.0	297.888367	281.082733	7.876581	13.539175	9.079498	17.201836	0.0		True	0.0	None	0.0	None	0.0	None	0.0	None	0.0	None	0.0	None	0.0	None	0.0	None	1.1814e-06	12
2014-02-17 17:36:00	4.078857222834904	27175634.3864	1.2510083047165184e+20	93565830050.16656	1.8739414380805042	143393175898.8062	5.799687820265597e+19	-2.2514298094946928e+22	991.5716748815722	-0.6238299850723663	16.98251540073843	0.0	27.677982878874325	122.19797745095026	128.21947287639222	47.34084911144434	-0.019725699348215827	4.757084698037298e+21	2.939865366493591	-0.0849309071339348	-7.678330915481661e+21	-0.13181010856521594	0.21275249355700174	0.0	297.891235	280.972382	7.847778999999999	13.629876	9.082989	17.326957999999998	0.0		True	0.0	None	0.0	None	0.0	None	0.0	None	0.0	None	0.0	None	0.0	None	0.0	None	1.4006e-06	12
2014-02-17 17:48:00	5.1036083914181525	32198300.446600005	1.8920569189446084e+20	113222832572.59253	1.2437667932523366	68731062893.53311	6.771158066007256e+19	-2.5895747375494794e+22	1260.791383719436	-0.6055959744378068	19.550123810305887	4.4247787610619485	28.37491266025457	135.0604453213524	139.61581312140459	50.85882088263664	-0.01100678578099413	6.673033049797922e+21	1.1846807415223668	-0.0481171320687924	-9.731160287040604e+21	-0.1560550423067621	0.2275721727968951	0.0	297.894043	280.86203	7.820922	13.722295	9.086508	17.453896	0.0		True	0.0	None	0.0	None	0.0	None	0.0	None	0.0	None	0.0	None	0.0	None	0.0	None	1.6280000000000001e-06	12
2014-02-17 18:00:00	4.761667131689998	29351432.9808	1.9528791085171324e+20	115162490831.40726	0.5210345412935307	16708668081.810188	6.269763000365577e+19	-2.3667286037792723e+22	1374.2921226231724	-0.6071648563549714	20.97440059252382	2.803738317757009	28.70739519729032	126.31797372252599	129.43882116587787	53.211779782510604	-0.004869481694332063	6.080956150214951e+21	0.3041503831590014	-0.022090562504540067	-9.9051781127928e+21	-0.15600195398620706	0.254109239074593	0.0	297.89682	280.751678	7.821350999999999	13.81446	9.089447	17.580629000000002	66560.0		False	0.0	None	0.0	None	0.0	None	0.0	None	0.0	None	0.0	None	0.0	None	0.0	None	1.5864e-06	12
2014-02-17 18:12:00	5.29678675997919	29317784.1854	1.682760164420607e+20	116516060751.11427	1.538391496842126	93601976514.08864	6.08059106455965e+19	-2.5939673467779765e+22	1347.975022664085	-0.6662248647401834	18.74749119246364	1.0638297872340423	25.87404989100505	131.92737471880912	135.26528896404042	52.30239761843885	-0.01636586698768219	5.575410674210167e+21	1.939503115172	-0.06298427168311094	-9.475705295962244e+21	-0.14319676101206424	0.2433704682891147	0.0	297.899689	280.641327	7.804603	13.907901	9.09411	17.708752	66560.0		False	0.0	None	0.0	None	0.0	None	0.0	None	0.0	None	0.0	None	0.0	None	0.0	None	1.5555000000000004e-06	12
2014-02-17 18:24:00	5.5916285507669725	30802155.2581	1.88575413471768e+20	120331429459.37445	1.704837983040164	144077749801.32056	6.525744591980809e+19	-2.69346026107093e+22	1392.1062686113064	-0.6584411413343105	18.898098530025912	4.901960784313727	25.987875358093024	132.60054706658659	138.24185820211557	50.41014603597678	-0.016714097872942785	5.700805835848883e+21	2.751265244040787	-0.06674702907363346	-1.020855911845071e+22	-0.1393614435428564	0.2495576197830697	0.0	297.902466	280.530975	7.7955619999999985	13.996739000000002	9.095587	17.832222	0.0		True	0.0	None	0.0	None	0.0	None	0.0	None	0.0	None	0.0	None	0.0	None	0.0	None	1.3911000000000001e-06	12
2014-02-17 18:36:00	5.916231454896325	32232661.844600003	2.176562453235368e+20	145014989050.66858	0.30699443240945457	3148624489.617302	7.56400400139735e+19	-2.786795037948746e+22	1223.0768925482894	-0.6510229265137629	20.561976837556386	0.0	26.78020009278521	122.94179997485344	126.0957168795652	49.11212413965379	-0.0022910032269362287	5.981188780811134e+21	-0.045767108906580235	-0.011537486846624504	-1.130213343357901e+22	-0.13972649481179986	0.26402903276279543	0.0	297.905273	280.42062400000003	7.765835000000001	14.088770000000002	9.098216	17.959024	0.0		True	0.0	None	0.0	None	0.0	None	0.0	None	0.0	None	0.0	None	0.0	None	0.0	None	1.2419e-06	12
2014-02-17 18:48:00	5.952161602634861	33793801.1885	2.305054050177857e+20	142158051390.7475	0.5273995905419115	31201400706.51308	7.801112935831321e+19	-2.939132398438029e+22	1285.6858107607475	-0.6548918885405308	20.58319059546705	2.2222222222222223	26.34819059891393	122.37291181086032	124.41706515668577	49.29934937597128	-0.003906663633643789	7.924940942512485e+21	0.45017246929898536	-0.018860930376790614	-1.1610430298120568e+22	-0.17658202615072174	0.25870139871021863	0.0	297.908112	280.310272	7.7414770000000015	14.182941	9.104238	18.088118	0.0		True	0.0	None	0.0	None	0.0	None	0.0	None	0.0	None	0.0	None	0.0	None	0.0	None	1.0792e-06	12
2014-02-17 19:00:00	7.004412670624914	36572131.9856	2.742026482552576e+20	183261347274.15802	2.1463717310865857	180828020217.9808	8.845050725084835e+19	-3.0553657911419152e+22	1228.9941844132386	-0.6290720620897531	22.396386942907405	4.166666666666666	27.836979420055656	116.56743244602005	119.46041080574108	44.510525787872716	-0.012776022208848728	7.753963760309442e+21	2.096503015681699	-0.07205172143067998	-1.3390743578339359e+22	-0.15964707028561856	0.2757032464054906	0.0	297.910919	280.199921	7.737807000000001	14.27405	9.108241	18.214134	0.0		True	0.0	None	0.0	None	0.0	None	0.0	None	0.0	None	0.0	None	0.0	None	0.0	None	9.8952e-07	12
2014-02-17 19:12:00	6.765159846435317	36447376.4324	2.3768738857393884e+20	173133567886.2721	1.5478326451550468	104894193853.28668	8.75078466019603e+19	-3.0310310435928846e+22	1078.1657303897778	-0.6261978680010336	20.742968673512387	2.409638554216868	27.60869767289926	119.01668986630976	122.61130377694029	44.87126875558669	-0.009324293043102692	7.606783551245221e+21	1.23078513860052	-0.05222931597907017	-1.4107578231714107e+22	-0.15715284910077226	0.29145644779954066	0.0	297.913757	280.089569	7.73981	14.365707	9.111913	18.34078	0.0		True	0.0	None	0.0	None	0.0	None	0.0	None	0.0	None	0.0	None	0.0	None	0.0	None	9.836399999999998e-07	12
2014-02-17 19:24:00	7.001168048723789	41182602.94160001	3.004533860508061e+20	168493138157.75894	1.4845371917926768	95216457990.60576	9.583188137730762e+19	-3.663921363202401e+22	1354.7157032920027	-0.6699152816475211	21.36021610971697	2.9940119760479043	25.53372569530347	122.53342117247351	126.37920461473206	43.24827890696728	-0.008889444262231597	8.220543000862557e+21	1.1105386276547142	-0.0431730614757135	-1.4624129093229458e+22	-0.15030528315992622	0.2673891328218258	0.0	297.9165950000001	279.979248	7.742282	14.458332	9.115054	18.468475	0.0		True	0.0	None	0.0	None	0.0	None	0.0	None	0.0	None	0.0	None	0.0	None	0.0	None	1.0701000000000001e-06	12
2014-02-17 19:36:00	6.279444643751651	45629314.1256	2.619465669950732e+20	148402891812.8269	1.7403671139510184	119251091957.83015	1.017337070715803e+20	-3.830094889402499e+22	1108.1031601598422	-0.6320523894927331	18.638611206082327	1.6853932584269662	28.027604079583767	128.08516324738918	130.83749704219252	48.567397550204106	-0.009777343336803477	1.0078725048117074e+22	1.3049051717301097	-0.04674044334929412	-1.6343853307223104e+22	-0.16632178663062924	0.269710590328497	0.0	297.919403	279.868896	7.731628999999999	14.549765	9.120176	18.595051	0.0		True	0.0	None	0.0	None	0.0	None	0.0	None	0.0	None	0.0	None	0.0	None	0.0	None	1.1041e-06	12
2014-02-17 19:48:00	7.3976954322619966	52790098.5215	2.7875050020784e+20	175448469575.7839	2.7764320671224345	214262633982.1682	1.1413256360175896e+20	-4.551855129653799e+22	1070.895589078197	-0.6492672615100491	17.859312080331215	0.0	27.41158075653621	132.13103341285094	132.52036490528673	53.87569370820548	-0.014165469730216504	1.2144821112887312e+22	2.1292413160360923	-0.06377838777678911	-1.729912649220156e+22	-0.17323123256107448	0.246751185268102	0.0	297.922272	279.758575	7.714026	14.641778	9.124082	18.722269	0.0		True	0.0	None	0.0	None	0.0	None	0.0	None	0.0	None	0.0	None	0.0	None	0.0	None	1.1319e-06	12
2014-02-17 20:00:00	6.839383439382497	51215619.2476	3.299470258141887e+20	156286220684.44586	1.2410439443601282	14725914774.854156	1.088882101569769e+20	-4.559018562066247e+22	1365.0869841855315	-0.6702802579626852	21.00997918700924	2.1978021978021984	26.375041902594482	123.83096430784492	124.33319944157827	50.17193821361256	-0.006818922771209495	1.3400587569053282e+22	0.15759505025269802	-0.02901518736489891	-1.5876872979141886e+22	-0.19701936217968988	0.2334264353439449	0.0	297.92514	279.648285	7.687767999999997	14.735563	9.128276	18.850216	67584.0		False	0.0	None	0.0	None	0.0	None	0.0	None	0.0	None	0.0	None	0.0	None	0.0	None	1.1264e-06	12
2014-02-17 20:12:00	7.591332907065637	54699346.24340001	3.456559558105327e+20	180382811307.6128	2.4449820323650044	194127996541.97748	1.1823208948175883e+20	-4.819737496824301e+22	1314.5174334948374	-0.663481389823356	20.045782568583355	0.5050505050505051	26.3265199415912	131.48732599157563	131.01452042479374	53.778412842167576	-0.012348394102853558	1.386115533676264e+22	1.880523375403333	-0.05374098043047777	-1.7120858210803697e+22	-0.19081160775773176	0.2356844290411517	0.0	297.928009	279.537964	7.689782000000001	14.827479	9.132046	18.976303	67584.0		False	0.0	None	0.0	None	0.0	None	0.0	None	0.0	None	0.0	None	0.0	None	0.0	None	1.6181e-06	12
