Timestamp	TOTUSJH	TOTBSQ	TOTPOT	TOTUSJZ	ABSNJZH	SAVNCPP	USFLUX	TOTFZ	MEANPOT	EPSZ	MEANSHR	SHRGT45	MEANGAM	MEANGBT	MEANGBZ	MEANGBH	MEANJZH	TOTFY	MEANJZD	MEANALP	TOTFX	EPSY	EPSX	R_VALUE	CRVAL1	CRLN_OBS	LAT_MIN	LON_MIN	LAT_MAX	LON_MAX	QUALITY	NOAA_AR	IS_TMFI	BFLARE	BFLARE_label	CFLARE	CFLARE_label	MFLARE	MFLARE_label	XFLARE	XFLARE_label	BFLARE_loc	BFLARE_label_loc	CFLARE_loc	CFLARE_label_loc	MFLARE_loc	MFLARE_label_loc	XFLARE_loc	XFLARE_label_loc	XR_MAX	XR_QUAL
2014-03-24 20:24:00	414.5390884458025	3109895134.5676003	2.491644218226252e+22	9336054111831.89	56.44170487631429	1978231822773.3665	5.558975877169087e+21	-2.191058517139316e+24	2039.3212630947464	-0.5305125679781462	23.50005497383466	3.5760869565217392	31.665182573257926	133.0573867107542	130.86269722077674	61.246428672372105	-0.0061349679213385105	9.898343625348248e+23	0.2184137181288192	-0.023716329423181432	-4.018795103742154e+23	-0.23966478550603315	0.09730553949092398	2.266014528370909	184.909973	178.26062	8.454715	-5.94464	21.822979	19.433849	0.0	12013.0	True	0.0	None	0.0	None	0.0	None	0.0	None	0.0	None	0.0	None	0.0	None	0.0	None	7.765000000000002e-07	12
2014-03-24 20:36:00	423.7453897987663	3120874837.5223	2.5067706661366554e+22	9446959799658.873	62.762087664084966	2249909163290.3823	5.534636813740526e+21	-2.183681779607864e+24	2079.5036123934783	-0.5268662862641158	23.43253195412177	3.5694612757519013	31.61238562901998	135.43015028097508	133.30718672814695	62.06647933296379	-0.00691440868834251	9.825654659085145e+23	0.18305814881323745	-0.026342077268477846	-4.003859478280115e+23	-0.2370677920514373	0.09660283809409444	2.2488494251088613	184.911743	178.150192	8.484447	-5.818445	21.825006	19.533176	0.0	12013.0	True	0.0	None	0.0	None	0.0	None	0.0	None	0.0	None	0.0	None	0.0	None	0.0	None	6.569100000000001e-07	12
2014-03-24 20:48:00	412.8580739405403	3059535209.9459	2.4668191458874855e+22	9168025351477.094	70.41293044980767	3094954170299.3154	5.398874510904946e+21	-2.133919448930176e+24	2103.127769506198	-0.525182170635164	23.72239547388856	3.928894927536232	31.708385105466103	134.1152886338151	132.73480263725122	61.65481401983053	-0.00797247853824815	9.440198219722858e+23	0.1091484603845328	-0.03017902741533157	-4.052216833803295e+23	-0.23233415838380544	0.09972972661775492	2.2630138660654304	184.913574	178.03978	8.486585	-5.691816	21.829414	19.634342	0.0	12013.0	True	0.0	None	0.0	None	0.0	None	0.0	None	0.0	None	0.0	None	0.0	None	0.0	None	6.521500000000001e-07	12
2014-03-24 21:00:00	405.918877658327	3014833065.1086	2.4198990944186912e+22	8944889894858.621	66.61889203724053	2508251424069.1006	5.306529290388821e+21	-2.111688719188073e+24	2117.7967320313987	-0.5274169083583813	23.59208582587892	3.684332868433287	31.530844621085464	133.60101340966506	132.2984743770937	61.49098304422087	-0.007742781501306429	9.138004962808632e+23	0.09601136736874513	-0.02893387077919932	-4.018607638579967e+23	-0.22823147570259056	0.10036903627823254	2.2811730914523767	184.915375	177.929382	8.488665	-5.564549	21.833181	19.73517	0.0	12013.0	True	0.0	None	0.0	None	0.0	None	0.0	None	0.0	None	0.0	None	0.0	None	0.0	None	7.2604e-07	12
2014-03-24 21:12:00	430.63039947201446	3062301741.1933	2.5093263504565458e+22	9549271271850.746	74.26449372376625	3659279023253.324	5.46699409919698e+21	-2.1477020836304447e+24	2092.690096914469	-0.5280967346883728	24.14058539134157	4.585225384870972	31.703746943793412	131.6111891004442	130.46183876119224	60.65199476766946	-0.008226018356642252	8.998381534481832e+23	0.008407152991795055	-0.03174335851208615	-4.406819604231328e+23	-0.2212604784462128	0.1083589321392918	2.278687408606606	184.917221	177.81897	8.48644	-5.438388	21.864683	19.835459	0.0	12013.0	True	0.0	None	0.0	None	0.0	None	0.0	None	0.0	None	0.0	None	0.0	None	0.0	None	7.244899999999998e-07	12
2014-03-24 21:24:00	416.5310684822599	3010062622.9387	2.4605845096771027e+22	9356065019504.086	67.06923107079908	2839506964997.8887	5.37327922405304e+21	-2.1263831723186303e+24	2087.8837932019555	-0.5319287422771029	24.22356642058548	4.8118097813838165	31.68385221761583	129.9606737282528	129.78043507428316	59.763842419528	-0.007557948058462821	8.797264148440328e+23	-0.02169295832959541	-0.0290896989971855	-4.095118059573216e+23	-0.2200693513228247	0.10244207287107984	2.2895968159382702	184.919037	177.708588	8.486087	-5.311147	21.864523	19.936079	0.0	12013.0	True	0.0	None	0.0	None	0.0	None	0.0	None	0.0	None	0.0	None	0.0	None	0.0	None	6.4664e-07	12
2014-03-24 21:36:00	421.4740119862743	3020676061.2483	2.527412996705516e+22	9468892243777.02	70.74484331533888	2892578044009.085	5.430117577322141e+21	-2.143712605416164e+24	2121.165017685552	-0.5343796540309701	24.469064179757808	5.160499331252787	31.35709635752532	129.7902053409473	129.96360525886516	58.197929545520104	-0.00788506947339934	8.61313526481195e+23	-0.1133966918342566	-0.030527258188125638	-4.177363932897268e+23	-0.2147062172094953	0.104132349065034	2.2671357701194395	184.920868	177.598221	8.486828	-5.186043	21.865961	20.034737	0.0	12013.0	True	0.0	None	0.0	None	0.0	None	0.0	None	0.0	None	0.0	None	0.0	None	0.0	None	6.3792e-07	12
2014-03-24 21:48:00	416.059705133153	2962221221.839601	2.433721041472851e+22	9402118843326.322	61.10210265512055	2328241789580.289	5.357447766887205e+21	-2.109785510143228e+24	2056.975929264957	-0.5363004827929837	24.15110474057816	4.871478280390616	31.292023187282442	128.2312388088612	128.79078609851226	57.23879256801263	-0.006858469261995797	8.330289367849405e+23	-0.029984370730116262	-0.026852980419258682	-4.117926460179232e+23	-0.2117531942609468	0.10467632553558487	2.2737150200062155	184.922775	177.487869	8.487428999999999	-5.059929	21.839144	20.134548	0.0	12013.0	True	0.0	None	0.0	None	0.0	None	0.0	None	0.0	None	0.0	None	0.0	None	0.0	None	8.660500000000002e-07	12
2014-03-24 22:00:00	424.2538968649597	2969484551.9822	2.4629976504278503e+22	9679584531648.072	65.45738653934316	2936803032745.1816	5.45461306897352e+21	-2.1582115058181715e+24	2026.0052264292767	-0.5472684415630329	24.66560433446788	5.505789818658509	30.99510397632373	127.87775820335354	128.52893229731322	56.01285284841993	-0.007150686753260122	8.215001493022467e+23	0.024574220705554355	-0.028493245453816964	-4.223779778848672e+23	-0.20831188474366166	0.10710448771329606	2.2920005774796275	184.924683	177.377533	8.488917	-4.93299	21.842205	20.235472	0.0	12013.0	True	0.0	None	0.0	None	0.0	None	0.0	None	0.0	None	0.0	None	0.0	None	0.0	None	7.8292e-07	12
2014-03-24 22:12:00	436.8337617818026	2976893165.8627005	2.460117314747709e+22	10018636618380.248	62.61636418964219	2066385440281.008	5.514553658360469e+21	-2.1828834058159243e+24	1988.445700900197	-0.5521469641265956	24.47874340249369	5.8179476170030044	30.64265780119196	128.46599566477283	129.706976525018	55.112296463289326	-0.0067213787236627505	8.168866335315219e+23	0.02547229165823512	-0.027103273873946933	-4.143389340715688e+23	-0.2066264618340589	0.10480449114118114	2.279699646686418	184.926559	177.267212	8.491846	-4.806647	21.84644500000001	20.335972	0.0	12013.0	True	0.0	None	0.0	None	0.0	None	0.0	None	0.0	None	0.0	None	0.0	None	0.0	None	6.297599999999999e-07	12
2014-03-24 22:24:00	445.21007555489035	3024155818.7065	2.5201703417960406e+22	10323954203478.074	67.00927028616351	3142508395206.2163	5.677457098936365e+21	-2.2335844743117608e+24	1948.3112430041567	-0.5561418985068929	24.86939664491948	6.704312114989732	30.85648034468161	126.67974478042086	128.32231312818683	53.95096550223426	-0.0068798018774295176	8.235513229696539e+23	0.1415761114997293	-0.028478133651831126	-4.03912695901547e+23	-0.20505667080952225	0.10057052961873768	2.2923293412316723	184.928436	177.156891	8.521980000000001	-4.679791000000002	21.848038	20.436852	0.0	12013.0	True	0.0	None	0.0	None	0.0	None	0.0	None	0.0	None	0.0	None	0.0	None	0.0	None	5.974800000000001e-07	12
2014-03-24 22:36:00	448.41935444113165	2997195290.453	2.536395857339114e+22	10430464342654.145	56.77038918173368	2039397717522.295	5.687640148112215e+21	-2.230492405270578e+24	1938.5636884943665	-0.5603677705195358	25.096923955865368	6.668696711327647	30.72240707501632	125.88852229467501	127.03895588102984	53.75820982395687	-0.005762321273013976	8.174304401636504e+23	0.055829356398597714	-0.0242778293421476	-3.9844558489316686e+23	-0.20536347589748494	0.1001016921431082	2.403702999562105	184.93042	177.046616	8.524157	-4.5547900000000014	21.851486	20.536995	0.0	12013.0	True	0.0	None	0.0	None	0.0	None	0.0	None	0.0	None	0.0	None	0.0	None	0.0	None	6.0201e-07	12
2014-03-24 22:48:00	437.5350373029305	2981786752.1628	2.496971954058236e+22	10332671920468.648	60.6770499973365	2310725635012.066	5.710838170898761e+21	-2.220552790611058e+24	1878.871838052124	-0.5607533978505346	25.081223618270663	6.835215349255522	30.9206520922016	123.59041758208772	125.15484844346818	52.64279982076128	-0.006064066559797771	8.326745313244203e+23	0.2098524912604884	-0.026081126278179628	-3.793089446140413e+23	-0.2102742500507184	0.09578640977451963	2.4021726758561703	184.932343	176.93634	8.523748	-4.42888	21.852016	20.653584	0.0	12013.0	True	0.0	None	0.0	None	0.0	None	0.0	None	0.0	None	0.0	None	0.0	None	0.0	None	6.5411e-07	12
2014-03-24 23:00:00	430.19794101033995	2972084524.4073	2.4578870424868527e+22	10191905447190.738	48.695627501413355	1296160375747.653	5.716539746013314e+21	-2.2351282066343432e+24	1855.7673931335385	-0.5662767378119343	24.721060374252318	6.216785320364988	30.571234285697145	124.328008079462	125.64639985195292	52.355023397030756	-0.004882746164786261	8.331998278350306e+23	0.2485585445079405	-0.0209213790510315	-3.666064698633826e+23	-0.21109378828982509	0.09288089837476964	2.503046853118466	184.934341	176.826096	8.522867999999999	-4.303678	21.851603	20.753626	0.0	12013.0	True	0.0	None	0.0	None	0.0	None	0.0	None	0.0	None	0.0	None	0.0	None	0.0	None	6.3955e-07	12
2014-03-24 23:12:00	428.37860051811447	2995549261.1327004	2.4666728327181173e+22	10267452905283.082	58.83828488496414	2567401585257.8926	5.839142327112578e+21	-2.2661116928350208e+24	1795.7772544713255	-0.5696292558341974	24.84094749888084	6.3231170840181745	30.56703241647977	122.37672349506596	123.78453912237565	51.18089984507188	-0.005688705876918122	8.441342368687675e+23	0.3499783450204039	-0.025027441200905703	-3.774471739286872e+23	-0.21218881606412104	0.09487835638530984	2.577890621131091	184.93631	176.715866	8.556567999999999	-4.1763010000000005	21.856653	20.862513	0.0	12013.0	True	0.0	None	0.0	None	0.0	None	0.0	None	0.0	None	0.0	None	0.0	None	0.0	None	6.925499999999999e-07	12
2014-03-24 23:24:00	433.6097959400229	3010975204.5295	2.5402667530657443e+22	10351596606777.693	48.405933139738906	1115677225981.1516	5.878780872103719e+21	-2.257472855240484e+24	1835.1603129526559	-0.5645504786732779	24.883124011147014	6.255396718794973	30.487333627369342	122.84137582351221	123.91921713791172	51.544025755709065	-0.004644145940682999	8.554370762771782e+23	0.18530723826925136	-0.02055094672326431	-3.743463691053378e+23	-0.21392833573438647	0.09361681642258717	2.403893957593206	184.938309	176.605652	8.559042999999999	-4.0507550000000005	21.859253	20.963261	0.0	12013.0	True	0.0	None	0.0	None	0.0	None	0.0	None	0.0	None	0.0	None	0.0	None	0.0	None	7.080200000000002e-07	12
2014-03-24 23:36:00	424.46747428059194	3007979836.4541	2.5275064672994055e+22	10247563750341.613	51.350136220880565	1399921950066.0396	5.883882898140422e+21	-2.254816094882444e+24	1809.965943258588	-0.5644475731347237	24.94356783087749	6.352829291488353	30.772062879138232	122.02166304725634	123.2180641664542	50.963622402204415	-0.004883512717154596	8.583160541903589e+23	0.2191609916692266	-0.021824065734833663	-3.919024488210685e+23	-0.21486205232874145	0.09810484617555484	2.4913892503175195	184.940384	176.495483	8.589245	-3.924988	21.863518	21.067362	0.0	12013.0	True	0.0	None	0.0	None	0.0	None	0.0	None	0.0	None	0.0	None	0.0	None	0.0	None	6.5643e-07	12
2014-03-24 23:48:00	412.10810613555054	2973847756.3021	2.4827059272744406e+22	9893783803228.367	44.782495548950145	1488602033074.4014	5.823615867030732e+21	-2.237528114863644e+24	1786.3784020975754	-0.5665486128050281	24.992547492338506	6.593406593406594	30.954909841478127	120.86539100105243	121.99924469892599	50.18253084310678	-0.004279263788719555	8.526620475123167e+23	0.272006510546625	-0.0192254130542276	-3.8613921308502556e+23	-0.21589650516594155	0.09777156946976648	2.481359953417336	184.942459	176.385315	8.590319000000001	-3.798091	21.86611	21.172447	0.0	12013.0	True	0.0	None	0.0	None	0.0	None	0.0	None	0.0	None	0.0	None	0.0	None	0.0	None	6.549200000000001e-07	12
2014-03-25 00:00:00	416.5976267561512	2991739804.0953	2.516099180246657e+22	10110282716969.023	43.80879141098522	743077564203.8187	5.904618930195621e+21	-2.2492495379743904e+24	1772.7984097452525	-0.5661105219712983	25.14291386456605	6.559371198652568	30.918787237668802	120.56393733226658	121.64165290213562	49.84694329198314	-0.004099259980442147	8.676016453562625e+23	0.13295474178781969	-0.018700147872295743	-3.9757546367763735e+23	-0.21836546457985007	0.10006522151749388	2.4729596832086447	184.944534	176.275177	8.590162	-3.671742	21.867302	21.273434	0.0	12013.0	True	0.0	None	0.0	None	0.0	None	0.0	None	0.0	None	0.0	None	0.0	None	0.0	None	6.888500000000001e-07	12
2014-03-25 00:12:00	403.6358260570089	2953647518.0279	2.439791606542689e+22	9675841393993.938	40.71294970401404	849657803873.6804	5.787672783096451e+21	-2.2245106831722496e+24	1775.1776270305484	-0.5671047687783975	24.584101707831213	6.164846845105807	30.69394570605845	121.53607522828895	122.76582413746219	50.532684248627575	-0.003933998425356463	8.542765348871019e+23	0.15698446176003947	-0.01759162124344811	-3.915019881698498e+23	-0.21778465729779872	0.09980740760513301	2.3778607076710307	184.946625	176.16507	8.591796	-3.545979	21.870993	21.374315	0.0	12013.0	True	0.0	None	0.0	None	0.0	None	0.0	None	0.0	None	0.0	None	0.0	None	0.0	None	6.5538e-07	12
2014-03-25 00:24:00	416.42956663722913	2965237842.5816	2.443461230091744e+22	10002725024290.207	41.357834559266145	1005011251175.1908	5.840891826456911e+21	-2.230577437352935e+24	1753.6165111379041	-0.5664286687031176	24.46270544960271	6.128478841021731	30.466686187468323	121.54715212581141	122.65740565547856	50.96551864044347	-0.003941844696841989	8.711756495337142e+23	0.18315087343747247	-0.01780810182768607	-3.915966185880705e+23	-0.22122471746937045	0.09944131399388262	2.361809980882839	184.948792	176.054993	8.593081	-3.419943	21.87405	21.475456	0.0	12013.0	True	0.0	None	0.0	None	0.0	None	0.0	None	0.0	None	0.0	None	0.0	None	0.0	None	6.594499999999999e-07	12
2014-03-25 00:36:00	409.5927670035542	2963310929.4649	2.454979980436988e+22	9884310199771.107	48.691594438753604	1726890282982.7632	5.845756836157647e+21	-2.2307747504855791e+24	1759.8705943949194	-0.5668471797943323	24.364260647287818	5.5693069306930685	30.471511478456588	120.46378450230075	121.12714626790121	50.81210817448881	-0.0046355287927221656	8.67436898979616e+23	0.3143342695834404	-0.020973945184973183	-3.921581496190296e+23	-0.2204185607395394	0.09964867187802058	2.3439949573348846	184.950943	175.944946	8.593344	-3.293422	21.875692	21.576977	0.0	12013.0	True	0.0	None	0.0	None	0.0	None	0.0	None	0.0	None	0.0	None	0.0	None	0.0	None	6.503100000000001e-07	12
2014-03-25 00:48:00	416.69840482556054	2962232016.8399	2.439780398814997e+22	9910353289649.48	45.55791855790166	2392624335072.481	5.88003145298828e+21	-2.2413055511547244e+24	1736.575063625666	-0.5697304543968521	24.32471223414179	5.681066263351925	30.350179957015637	120.4347353524075	121.40370083715149	50.229419951005106	-0.004306448488316633	8.622423095893048e+23	0.4324111006433863	-0.019595200600261545	-4.019289316381644e+23	-0.21917837243985555	0.10216864574286896	2.352811514166059	184.953171	175.834915	8.567024	-3.168222	21.88134800000001	21.677782	0.0	12013.0	True	0.0	None	0.0	None	0.0	None	0.0	None	0.0	None	0.0	None	0.0	None	0.0	None	6.722899999999999e-07	12
2014-03-25 01:00:00	414.7390340063437	2961856286.2097	2.447787115817672e+22	10041191552607.387	48.60015684574931	1829779430699.2056	5.880993216144093e+21	-2.238752174597793e+24	1730.3338834962944	-0.5691535698127889	24.705715449591473	6.4776567780698455	30.579075673673657	119.91918308206041	120.52389749927285	49.93946258498986	-0.004562538194306169	8.484078909436468e+23	0.3284126001888493	-0.02091405449352824	-4.105679216647755e+23	-0.2156890723622267	0.10437787662142901	2.53540610692314	184.955368	175.72491499999995	8.570084	-3.041271	21.885511	21.780294	0.0	12013.0	True	0.0	None	0.0	None	0.0	None	0.0	None	0.0	None	0.0	None	0.0	None	0.0	None	7.166200000000002e-07	12
2014-03-25 01:12:00	398.45662834690836	2909232076.7635	2.3448833507400905e+22	9582751383515.104	39.94519432162735	1260560582243.7656	5.746042150559734e+21	-2.214600535878236e+24	1723.2734465134479	-0.5731975664458691	24.160663807522894	5.153230528986922	30.334611394323613	119.52033450060136	120.35180083758999	49.52497883850268	-0.003898994077269629	8.430199166566788e+23	0.2352051542912517	-0.017456094084301634	-4.016335649299545e+23	-0.21819599375351006	0.10395345719969007	2.338450160023972	184.957596	175.614944	8.571964	-2.915426	21.888428	21.881683	0.0	12013.0	True	0.0	None	0.0	None	0.0	None	0.0	None	0.0	None	0.0	None	0.0	None	0.0	None	7.068500000000002e-07	12
2014-03-25 01:24:00	408.4958850770738	2932620914.5256004	2.394610466986126e+22	9747276119239.23	38.92907463796071	365688761587.637	5.800595345632122e+21	-2.235387866900761e+24	1734.260219722158	-0.5739636539859733	24.56119967210461	6.184476291237857	30.60455963379053	120.38183353046448	121.23276157831594	49.70613822932562	-0.0037442603287448986	8.565538227860645e+23	0.059042042299067385	-0.016867606045991825	-4.0652225712422134e+23	-0.2199308537196104	0.10437964864197856	2.3269166409000204	184.9599	175.505005	8.573138	-2.788257	21.888811	21.984537	0.0	12013.0	True	0.0	None	0.0	None	0.0	None	0.0	None	0.0	None	0.0	None	0.0	None	0.0	None	6.7917e-07	12
2014-03-25 01:36:00	405.17468913731074	2904509981.7089	2.3777549175418778e+22	9750048296941.504	45.402730836777884	1730139394398.9717	5.758549143859979e+21	-2.2101149831106585e+24	1729.7056969803164	-0.5729667649502643	24.687605489749647	6.269925611052072	30.55368265674553	119.59163382709845	120.65576577698481	49.76101426133468	-0.0043863134805118215	8.441999961283161e+23	0.31952686843996325	-0.01987556810245877	-4.1771650561369355e+23	-0.21885673118774954	0.10829195617277236	2.3092606029035263	184.962234	175.395081	8.573872	-2.662215	21.863438	22.104837	0.0	12013.0	True	0.0	None	0.0	None	0.0	None	0.0	None	0.0	None	0.0	None	0.0	None	0.0	None	6.9482e-07	12
2014-03-25 01:48:00	418.67746611891175	2933440577.3764	2.4161877615708973e+22	10051280577092.736	45.46946561752367	1894656177986.413	5.817931858501815e+21	-2.228253583337475e+24	1743.0138644547885	-0.5719720043248416	24.622475253855363	6.0068978731557765	30.421901186714173	120.4182542438006	121.25259748796988	50.10786210847801	-0.004356147309592227	8.376380148729332e+23	0.3469823994696762	-0.019720945975764795	-4.296425421051667e+23	-0.2150139005040663	0.11028525109922097	2.2998538920480187	184.964539	175.285187	8.57585	-2.533795	21.866138	22.206226	0.0	12013.0	True	0.0	None	0.0	None	0.0	None	0.0	None	0.0	None	0.0	None	0.0	None	0.0	None	6.6288e-07	12
2014-03-25 02:00:00	419.98154516656695	2948028224.7274003	2.4170253244418073e+22	10039136095639.377	56.091348290248405	1898407649197.752	5.826791094588397e+21	-2.249720573584748e+24	1756.4063899023556	-0.5746247639614247	24.57652408737175	6.350125458405713	30.41799306643479	121.076804448092	121.89316633826515	50.22263847762199	-0.005413177792921097	8.33598164301371e+23	0.35020799508012057	-0.024166689415064457	-4.4679115869664794e+23	-0.2129180637029489	0.11411962317481172	2.4856871115668926	184.966888	175.17533899999995	8.577694000000001	-2.376162	21.86898	22.308851	0.0	12013.0	True	0.0	None	0.0	None	0.0	None	0.0	None	0.0	None	0.0	None	0.0	None	0.0	None	6.4673e-07	12
2014-03-25 02:12:00	432.16654364625686	2981450980.7609	2.4275123536450084e+22	10238364980551.506	49.40503354451867	1325507439230.037	5.893101029573126e+21	-2.293839308921773e+24	1751.3512979719164	-0.5793257343913436	24.562665587072438	5.8350100603621735	30.239081330526986	121.2378083641992	122.34057929566285	50.12882556120578	-0.004733643148847243	8.318857108218328e+23	0.24275762612414284	-0.020984653803005043	-4.633884309612574e+23	-0.21009876257550808	0.11703210509600605	2.306789482805472	184.969299	175.065506	8.549939	-2.2505330000000003	21.872469	22.410101	0.0	12013.0	True	0.0	None	0.0	None	0.0	None	0.0	None	0.0	None	0.0	None	0.0	None	0.0	None	6.4515e-07	12
2014-03-25 02:24:00	433.47221960885423	2987365561.6964	2.4518581918608728e+22	10310700032204.098	62.138959900366316	2028331805212.8213	5.898298581462827e+21	-2.289577007614545e+24	1757.632399534221	-0.5771042856242208	24.972135848545733	6.873571972581874	30.553841326701523	120.50751259251396	122.01443002551191	49.870953457193394	-0.005915742564772117	8.216431495265488e+23	0.2706840270724329	-0.02637820221674416	-4.5812528537698674e+23	-0.20710104148870007	0.11547375985371885	0.0	184.97171	174.955704	8.522254	-2.125578	21.87701	22.511368	0.0	12013.0	True	0.0	None	0.0	None	0.0	None	0.0	None	0.0	None	0.0	None	0.0	None	0.0	None	6.4733e-07	12
2014-03-25 02:36:00	436.19984775553763	3016093638.2335005	2.4978514687356733e+22	10531204478697.86	53.324053733263206	1800491492864.6533	5.924431326560922e+21	-2.27042936335606e+24	1773.2152996305158	-0.5668270962843847	25.116111497706395	6.693692844348072	31.07861257273397	121.19436124254123	122.60548902981438	50.836074581026296	-0.005027251224027832	8.11376693555297e+23	0.15408565104576746	-0.022567697867821118	-4.801569313583568e+23	-0.20256533967696427	0.11987422447724724	1.6835882406613265	184.974182	174.845932	8.521516	-1.998886	21.848331	22.614075	0.0	12013.0	True	0.0	None	0.0	None	0.0	None	0.0	None	0.0	None	0.0	None	0.0	None	0.0	None	6.621599999999999e-07	12
2014-03-25 02:48:00	452.40187223606847	3069200769.3637	2.5703107961128764e+22	10900749988284.73	63.3772640630084	2375275274848.7603	6.012732860665906e+21	-2.3042001593238752e+24	1810.6558468338	-0.565304251863329	25.059033931837405	6.838806249415287	30.84461829712145	121.7069616094326	123.21158912614716	50.814211047868525	-0.005929204234540969	8.279450157769568e+23	0.25089956802316216	-0.026383925957340848	-4.9350893166226734e+23	-0.20312507827666434	0.12107572177369827	0.0	184.976624	174.736176	8.495237	-1.872308	21.854401	22.717373	0.0	12013.0	True	0.0	None	0.0	None	0.0	None	0.0	None	0.0	None	0.0	None	0.0	None	0.0	None	6.7184e-07	12
2014-03-25 03:00:00	457.19183025580253	3068560656.3222	2.5851881973308495e+22	10829030459982.664	66.76203865165195	2961287096867.7666	5.963975651125284e+21	-2.317186873853657e+24	1860.8286430520136	-0.5686090494789927	25.153175758653642	6.70108020265749	30.58554465013805	122.67614141961296	124.33073015809003	50.84934934196282	-0.006381993944331511	8.220254192510344e+23	0.10281094817434867	-0.027740236346648097	-4.9205302518938345e+23	-0.20171488867039933	0.1207437372027286	0.0	184.979111	174.626465	8.467085	-1.747214	21.856077	22.81894500000001	0.0	12013.0	True	0.0	None	0.0	None	0.0	None	0.0	None	0.0	None	0.0	None	0.0	None	0.0	None	7.006999999999999e-07	12
2014-03-25 03:12:00	450.17356024748085	3052283495.8211	2.517253682887734e+22	10466978970294.617	73.65549347467365	3727008013585.8066	5.804443444927302e+21	-2.279928265455116e+24	1909.7822991543626	-0.5624497248587561	24.66706720228105	6.065491183879093	30.77129366790156	124.86066968847136	126.54006330698375	52.54090569314369	-0.007421208410546463	8.01701303322181e+23	0.15576779809461092	-0.030889026332226174	-5.016821630859831e+23	-0.19777669512880736	0.12376310205441066	0.0	184.981674	174.51676899999995	8.467008	-1.620584	21.827517	22.921782	0.0	12013.0	True	0.0	None	0.0	None	0.0	None	0.0	None	0.0	None	0.0	None	0.0	None	0.0	None	7.1987e-07	12
2014-03-25 03:24:00	448.25351088507483	3096168621.0444	2.54402518231569e+22	10272153218779.902	60.17426091403287	2263831107247.8057	5.828340932888847e+21	-2.3080628280428768e+24	1948.9447828741386	-0.5613199603693282	24.34234690841705	5.066639536066742	30.49969992704625	126.8896639748202	128.62178961118641	53.425843224046574	-0.006122114244992661	8.103994215413248e+23	0.15490326238287067	-0.024895694367055368	-5.199373791382578e+23	-0.19708881649839224	0.12644856349074976	0.0	184.984253	174.407104	8.469380000000001	-1.494625	21.830662	23.024406	0.0	12013.0	True	0.0	None	0.0	None	0.0	None	0.0	None	0.0	None	0.0	None	0.0	None	0.0	None	9.2759e-07	12
2014-03-25 03:36:00	438.8304901157773	3107465004.6225004	2.5256380149413045e+22	9990621037903.824	64.05135344228322	2739420487822.709	5.749953033568286e+21	-2.3116250037613715e+24	1998.7095782891995	-0.5601424898394161	24.274940754485307	4.89753021544929	30.58788826911038	129.3131308030176	130.73723404196022	54.84519265093314	-0.006731618858884205	8.181951929261305e+23	-0.2033713969631024	-0.026423345013532967	-5.388840020980234e+23	-0.19826134939471127	0.13057992805003252	0.0	184.986801	174.297455	8.442101	-1.367901	21.834822	23.128008	0.0	12013.0	True	0.0	None	0.0	None	0.0	None	0.0	None	0.0	None	0.0	None	0.0	None	0.0	None	9.190600000000001e-07	12
2014-03-25 03:48:00	441.7000508986077	3102942689.4506	2.531577782576371e+22	9947107976687.236	70.20815259103013	3253917831161.842	5.716154349095769e+21	-2.2750601451973767e+24	2012.9300891791306	-0.5520857317398007	24.297440844177604	4.910242872228088	30.978190740130373	129.72377040013558	130.51011517614947	56.34622213056015	-0.0074137436738152184	8.430319948657655e+23	-0.10526515288394453	-0.029156009313896013	-5.577073761719291e+23	-0.20457742040272567	0.13533808568557698	0.0	184.989395	174.187851	8.414462	-1.242709	21.807787	23.226116	0.0	12013.0	True	0.0	None	0.0	None	0.0	None	0.0	None	0.0	None	0.0	None	0.0	None	0.0	None	7.985299999999998e-07	12
2014-03-25 04:00:00	445.9832341011276	3141923349.6590004	2.565347594306515e+22	9934263023716.562	64.32673161611082	2520481758773.749	5.74665207573615e+21	-2.3047515048030536e+24	2058.036349181094	-0.5523519527600035	23.980678265846482	4.21904964841253	30.82642044939355	132.77768913881394	133.3330500720827	57.65775677821122	-0.006853476626476755	8.666439793600325e+23	-0.35444256712204725	-0.026377625827725185	-5.739474632092884e+23	-0.20769809385073795	0.13755105547154894	0.0	184.99205	174.078247	8.415208999999999	-1.11656	21.807451	23.325027	0.0	12013.0	True	0.0	None	0.0	None	0.0	None	0.0	None	0.0	None	0.0	None	0.0	None	0.0	None	8.110299999999998e-07	12
2014-03-25 04:12:00	421.4078967625314	3109215005.813	2.456106033379168e+22	9375471821696.08	62.01236235307931	2264001709637.9653	5.650364983151334e+21	-2.2801088844950493e+24	2022.7669417439893	-0.5521947673506309	23.47174763189361	3.4780706551460137	30.82071048262131	134.3180737123014	134.32232160885326	59.07525294553218	-0.0067824961558656145	8.800219084198522e+23	-0.2122764798507128	-0.02569870870204681	-5.7354200478902856e+23	-0.21312293298263915	0.13889989905917569	0.0	184.994675	173.968674	8.416708999999999	-0.958841	21.809687	23.424807	0.0	12013.0	True	0.0	None	0.0	None	0.0	None	0.0	None	0.0	None	0.0	None	0.0	None	0.0	None	8.722e-07	12
2014-03-25 04:24:00	429.0881509411692	3090712768.0878	2.4202900525604705e+22	9396745557501.402	69.04591476155899	2882882375061.552	5.558773761347445e+21	-2.25970117279072e+24	2042.1860721509586	-0.5505285175153046	23.363764885192232	3.709099058718064	31.029733765524306	136.61343290198283	136.12979530634252	60.89959671247786	-0.007737103850466045	8.920957643984591e+23	-0.1969616196617112	-0.028815726863146787	-5.6616617069472384e+23	-0.21734031232520454	0.13793444300201285	0.0	184.99736	173.859116	8.38572	-0.8335229999999999	21.782236	23.522713	0.0	12013.0	True	0.0	None	0.0	None	0.0	None	0.0	None	0.0	None	0.0	None	0.0	None	0.0	None	9.429399999999999e-07	12
2014-03-25 04:36:00	418.9093896351394	3068708460.4699	2.401553828276116e+22	9182070421724.832	62.69827631932839	2717558534323.1343	5.547713903420405e+21	-2.238807481181415e+24	2024.7886600857453	-0.5493493091494787	23.337904844875045	3.6390101892285296	30.97532343649389	136.0838509870928	134.93570848360972	61.05388495361528	-0.007020297426864672	8.989767348151451e+23	-0.13507237516962936	-0.0263742806764532	-5.663186032864991e+23	-0.22058718865435853	0.13896091382978829	0.0	185.000046	173.749603	8.35935	-0.707451	21.787169	23.622068	0.0	12013.0	True	0.0	None	0.0	None	0.0	None	0.0	None	0.0	None	0.0	None	0.0	None	0.0	None	9.330799999999999e-07	12
2014-03-25 04:48:00	426.97596678185903	3093321759.6773	2.4189955739370973e+22	9377284707186.543	53.18717271980229	1634091324474.827	5.634515360563116e+21	-2.270954230094238e+24	1993.7299571160386	-0.5528033120439078	23.33981796333268	3.7434325744308232	30.95978790274025	135.36143759768473	134.0555232905543	60.20537771345854	-0.005821713301204278	9.19532445433418e+23	-0.04505650560906485	-0.022146003051946327	-5.558851508068952e+23	-0.22383567869015727	0.13531543190517184	0.0	185.002747	173.64009099999996	8.332600999999999	-0.581799	21.789417	23.721031	0.0	12013.0	True	0.0	None	0.0	None	0.0	None	0.0	None	0.0	None	0.0	None	0.0	None	0.0	None	1.0056e-06	12
2014-03-25 05:00:00	414.9583780864791	3052636958.8034	2.421698003504195e+22	9085629732766.203	57.58191383185358	2220560018110.428	5.616184820154434e+21	-2.2435131579817205e+24	1988.1235461938709	-0.5534022163985073	23.553305053749572	4.164849542084605	30.94348640650458	133.0488921069316	131.66646020128542	58.86073568174049	-0.006278010666359962	9.330342007673954e+23	-0.018943056740242232	-0.02428605714007421	-5.74742439016164e+23	-0.230149394418882	0.1417703918866076	0.0	185.005508	173.530609	8.334483	-0.456992	21.762241	23.797068	0.0	12013.0	True	0.0	None	0.0	None	0.0	None	0.0	None	0.0	None	0.0	None	0.0	None	0.0	None	1.0117e-06	12
2014-03-25 05:12:00	411.4990560670482	3063066158.3537	2.3774947786280472e+22	9167806940818.617	48.67873255056664	1367416645982.3936	5.725239648056729e+21	-2.283972930676396e+24	1899.44043749833	-0.5614641635595748	23.11840931239332	3.310344827586207	30.54946906638412	132.79292896945387	130.89257490035817	58.09700286720553	-0.005164852260007071	9.488600955262286e+23	0.10729665931212393	-0.02035545709193637	-5.683326264158211e+23	-0.23325624078737164	0.13971198976499022	0.0	185.008286	173.421143	8.336917999999999	-0.48927	21.762295	23.895737	0.0	12013.0	True	0.0	None	0.0	None	0.0	None	0.0	None	0.0	None	0.0	None	0.0	None	0.0	None	9.7096e-07	12
2014-03-25 05:24:00	405.2801937672419	3054309135.3622	2.3736317830403344e+22	9062265102389.992	59.135745487351215	2326811956475.172	5.760905695241394e+21	-2.287166121245286e+24	1854.2522426289893	-0.5638611372067188	23.42383226260961	3.92156862745098	30.844735761880216	129.41793938813242	127.76153593905913	56.46071087326047	-0.006135049848257207	9.55858821540346e+23	-0.03611672012001257	-0.0247610406572562	-5.610064539381955e+23	-0.2356504134598502	0.1383064107847438	0.0	185.011047	173.311691	8.337013	-0.394983	21.735878	23.994513	0.0	12013.0	True	0.0	None	0.0	None	0.0	None	0.0	None	0.0	None	0.0	None	0.0	None	0.0	None	1.424e-06	12
2014-03-25 05:36:00	402.7406742770176	3026128327.4978	2.3171870167699493e+22	9000642890563.012	60.43816581812811	2557385678221.177	5.770053111458373e+21	-2.3022099826272671e+24	1813.5447605966915	-0.5728553836460065	23.011728395064353	3.6274815507743483	30.34141888590745	129.4100025963466	127.70259008311085	55.955610881273756	-0.00628190061512609	9.271261075395864e+23	0.12684474496766632	-0.0253959894120352	-5.656678911260275e+23	-0.2306953692454761	0.14075427490650913	0.0	185.013809	173.202255	8.190028	-0.299358	21.707571	24.095036	0.0	12013.0	True	0.0	None	0.0	None	0.0	None	0.0	None	0.0	None	0.0	None	0.0	None	0.0	None	1.4134999999999999e-06	12
2014-03-25 05:48:00	408.25590520915426	3044058170.4976	2.3197688873509877e+22	9238318564514.914	59.87913794226655	2542982653172.1904	5.870941041721535e+21	-2.3150631433733769e+24	1759.7783001793368	-0.5726607307828957	22.849198543578854	3.475720330445295	30.215677830593492	128.26246528307016	126.92240353993911	54.63587040545242	-0.006033162513074714	9.179712399630954e+23	0.20360464673380094	-0.02501953140085101	-5.779833477116851e+23	-0.2270720272229584	0.14297163653109735	2.051633413633515	185.016632	173.092834	8.161029	-0.204514	21.671379	24.19449	0.0	12013.0	True	0.0	None	0.0	None	0.0	None	0.0	None	0.0	None	0.0	None	0.0	None	0.0	None	1.2462e-06	12
2014-03-25 06:00:00	414.1031271432111	3055925462.606	2.3332974739085173e+22	9392745338681.91	56.099870843914005	2046146591658.182	5.937061198030932e+21	-2.354600543882464e+24	1743.690569371636	-0.5801789257338933	23.066375578702537	3.791186978959905	29.99341136864429	128.67450722811665	127.47044972756343	54.09155857638145	-0.005568225393936875	9.24911631465818e+23	0.2744293788049688	-0.0232384803880766	-5.81359344407207e+23	-0.22790032820505765	0.143248263821165	2.072273301177672	185.019424	172.983429	8.162968	-0.111517	21.615776	24.295967	66560.0	12013.0	False	0.0	None	0.0	None	0.0	None	0.0	None	0.0	None	0.0	None	0.0	None	0.0	None	9.0857e-07	12
2014-03-25 06:12:00	418.65044481860514	3070632196.5098	2.349541037765291e+22	9639384258095.604	44.540090543888645	1699707478961.7988	6.050337508643017e+21	-2.395783798965004e+24	1712.3245128580468	-0.5874991747311482	22.859390042770485	3.097173828881146	29.75824199727461	128.26204181050744	127.19760050602163	52.82766205075138	-0.004310887586516517	9.435189560451428e+23	0.3143164287122407	-0.01827425933084985	-5.817901987482783e+23	-0.231371715702888	0.14266782410789522	0.0	185.022278	172.874023	8.135710000000001	-0.015086000000000004	21.620415	24.3974	66560.0	12013.0	False	0.0	None	0.0	None	0.0	None	0.0	None	0.0	None	0.0	None	0.0	None	0.0	None	1.2626e-06	12
2014-03-25 06:24:00	421.5424678456276	3052834721.445001	2.3667917434498484e+22	9726803671946.057	50.819270720242265	1292753799954.2532	6.109659472871509e+21	-2.3862667947182595e+24	1693.4275485290177	-0.5885767734885123	22.929477436129645	3.354237932345116	29.411083176583837	126.3324902433372	125.20808803282284	51.61603051806695	-0.004828893074899493	9.447254871588064e+23	0.1338777697092188	-0.02095785943163532	-5.820326455163248e+23	-0.2330181521592786	0.1435593443789373	0.0	185.025101	172.764648	8.137217999999999	0.110987	21.623968	24.500879	0.0	12013.0	True	0.0	None	0.0	None	0.0	None	0.0	None	0.0	None	0.0	None	0.0	None	0.0	None	9.033200000000001e-07	12
2014-03-25 06:36:00	438.5077496020829	3069940196.4372	2.3646890638885842e+22	10079240482321.68	51.74039411320215	1194192829463.3723	6.157429915033574e+21	-2.4201142944431074e+24	1675.8397989787466	-0.5935992690324312	23.224540273260303	3.7176470588235295	29.372011966824257	125.59183245806473	125.04503710158095	51.10353140734153	-0.004869684151830791	9.292627509468528e+23	0.05861492631242636	-0.021151963623359454	-5.685073270954637e+23	-0.2279271235113501	0.1394419819668487	0.0	185.027924	172.655273	8.13877	0.204804	21.627531	24.60359	0.0	12013.0	True	0.0	None	0.0	None	0.0	None	0.0	None	0.0	None	0.0	None	0.0	None	0.0	None	8.0727e-07	12
2014-03-25 06:48:00	446.6462983947805	3110171047.5245	2.423397966765909e+22	10397218714895.627	51.6752537598841	1689881342903.9043	6.259528370631402e+21	-2.453431620858739e+24	1679.0460208266425	-0.5939873206094938	23.366696660698484	4.085388295914612	29.49879699372035	125.40786575093416	125.13364442792157	50.497610803690975	-0.004754808038266847	9.357925577776652e+23	0.29708146313748146	-0.02084699570622933	-5.801138132947843e+23	-0.2265597742015343	0.14044827933167206	0.0	185.030792	172.545898	8.11144	0.299222	21.632055	24.711149	0.0	12013.0	True	0.0	None	0.0	None	0.0	None	0.0	None	0.0	None	0.0	None	0.0	None	0.0	None	9.5863e-07	12
2014-03-25 07:00:00	459.7651200916992	3123655894.0799	2.4351222491848074e+22	10685430745204.963	51.02273356260042	2505112731789.125	6.261786812563342e+21	-2.4724869291566323e+24	1689.5005288083594	-0.5960163660992162	23.26426900620791	4.118676863540035	29.494016058094825	125.80486522816335	125.98407907448816	50.25161345334254	-0.004701256202211409	9.246275268168976e+23	0.4410063530429957	-0.020468838160463944	-5.689336249038237e+23	-0.2228902131008196	0.13714683287830232	1.8227654814717136	185.033691	172.43653899999995	8.083464999999999	0.42537	21.632217	24.822754	0.0	12013.0	True	0.0	None	0.0	None	0.0	None	0.0	None	0.0	None	0.0	None	0.0	None	0.0	None	8.5131e-07	12
2014-03-25 07:12:00	475.331564574924	3157352926.727	2.498414234574525e+22	10968419004722.977	61.620631760123466	1652151069657.4	6.265655200464762e+21	-2.485041298092678e+24	1743.8571998461334	-0.5926494582201621	23.72991858685769	4.560622914349279	29.810514069416598	127.00019769819322	127.43931833664786	50.93912642144067	-0.005711960674835322	9.157741571777152e+23	0.21089912469945385	-0.02450827892276491	-5.899724421043628e+23	-0.21840001553292404	0.1407006187166137	1.8702690451488468	185.03653	172.327179	8.054846000000001	0.520343	21.60903	24.927013	0.0	12013.0	True	0.0	None	0.0	None	0.0	None	0.0	None	0.0	None	0.0	None	0.0	None	0.0	None	9.1218e-07	12
2014-03-25 07:24:00	488.59824023760325	3138588957.9468	2.495557277738468e+22	11335898025242.07	55.25619928864332	1510745119695.8225	6.204411113938069e+21	-2.4662593687689786e+24	1766.5900964948526	-0.5916865730081619	23.881330314844803	4.437341355645389	29.7816056369204	125.34615852379305	125.94411992021007	51.407685388565596	-0.005194716488544074	8.874029707016592e+23	0.2713554060891941	-0.02212172604824697	-6.035872091029701e+23	-0.21289910917756	0.1448081462104933	1.977740811486564	185.039383	172.217834	8.027688000000001	0.584013	21.704288	25.035973	66560.0	12013.0	False	0.0	None	0.0	None	0.0	None	0.0	None	0.0	None	0.0	None	0.0	None	0.0	None	8.252500000000002e-07	12
2014-03-25 07:36:00																																	False	0.0	None	0.0	None	0.0	None	0.0	None	0.0	None	0.0	None	0.0	None	0.0	None	7.3548e-07	12
2014-03-25 07:48:00	459.60218301632256	2973532650.9756	2.282819816945036e+22	10113591691173.953	65.55032964006949	2470586375470.5083	5.658748886325576e+21	-2.339739623073954e+24	1871.8648910516986	-0.5924916950344449	23.14689515847899	4.0727431122726765	29.48002419391349	130.3826842441683	131.52132431958054	53.636209314652994	-0.007138226030716486	8.099696456637924e+23	0.2940964610267514	-0.02768566680557346	-5.992149387766791e+23	-0.20510841614730416	0.1517390530401485	2.302258880073875	185.045135	171.99913	8.003617	0.773154	21.81658	25.244205	0.0	12013.0	True	0.0	None	0.0	None	0.0	None	0.0	None	0.0	None	0.0	None	0.0	None	0.0	None	7.754999999999998e-07	12
2014-03-25 08:00:00	447.16403238486885	2921998312.8179	2.1907688479272945e+22	9646721224813.117	68.595349496674	2287311191399.456	5.486348377288499e+21	-2.289048688344608e+24	1884.8493564815287	-0.5898783643077062	22.62694819126721	2.83363802559415	29.26685028334084	130.8525683253006	132.1351038308733	54.586814771158686	-0.007837677044866773	7.924854946302454e+23	0.09080764777274164	-0.02953118054004133	-5.848481979416299e+23	-0.20422022899309208	0.15071295780065186	2.2928359203036552	185.048035	171.88978600000004	8.006464	0.8675860000000001	21.821932	25.366125	0.0	12013.0	True	0.0	None	0.0	None	0.0	None	0.0	None	0.0	None	0.0	None	0.0	None	0.0	None	1.14e-06	12
2014-03-25 08:12:00	440.9560581802552	2892357475.7654	2.1336243374988238e+22	9461890945725.676	68.09865359222961	2917564431103.6133	5.376074811730297e+21	-2.2642267330268665e+24	1894.3415281057607	-0.5894613475410837	22.39169809275184	2.865228157056951	29.28570440781651	132.7251471657157	133.94361866712995	55.50336364575161	-0.008029554721404267	7.769680888067509e+23	0.13756402378775265	-0.029625560930099236	-5.867123023794716e+23	-0.2022733191618992	0.1527427528943637	2.037386863410353	185.050873	171.780426	8.008461	0.96237	21.826334	25.474459	0.0	12013.0	True	0.0	None	0.0	None	0.0	None	0.0	None	0.0	None	0.0	None	0.0	None	0.0	None	1.1748e-06	12
