Timestamp	TOTUSJH	TOTBSQ	TOTPOT	TOTUSJZ	ABSNJZH	SAVNCPP	USFLUX	TOTFZ	MEANPOT	EPSZ	MEANSHR	SHRGT45	MEANGAM	MEANGBT	MEANGBZ	MEANGBH	MEANJZH	TOTFY	MEANJZD	MEANALP	TOTFX	EPSY	EPSX	R_VALUE	CRVAL1	CRLN_OBS	LAT_MIN	LON_MIN	LAT_MAX	LON_MAX	QUALITY	NOAA_AR	IS_TMFI	BFLARE	BFLARE_label	CFLARE	CFLARE_label	MFLARE	MFLARE_label	XFLARE	XFLARE_label	BFLARE_loc	BFLARE_label_loc	CFLARE_loc	CFLARE_label_loc	MFLARE_loc	MFLARE_label_loc	XFLARE_loc	XFLARE_label_loc	XR_MAX	XR_QUAL
2014-02-20 02:36:00	1222.5875356313	13139384269.0983	1.1467339328124728e+23	27158330220624.0	36.679616502677796	6403011287928.428	2.30860407631238e+22	-1.011418091563524e+25	2233.858595079939	-0.5796197305810847	26.659059404885177	8.757179075904176	31.848631568903645	101.34995627752836	101.3424786198253	41.421936185551075	-0.0009489461750104213	-2.4878661965821823e+23	0.3220960271850621	-0.00353462865305236	-3.6009259552988967e+24	0.014257371374043532	0.2063605297811398	3.2730825792365734	292.998444	249.683304	-20.205399	30.596428000000003	-5.759305	53.896114	0.0	11977.0	True	0.0	None	0.0	None	0.0	None	0.0	None	0.0	None	0.0	None	0.0	None	0.0	None	1.0565e-06	12
2014-02-20 02:48:00	1233.4513351473686	13172919557.0302	1.1478867109409577e+23	27390541704250.61	36.02745854546246	7128932725489.084	2.30917456873704e+22	-1.017173794695538e+25	2249.781681388055	-0.581434139098633	26.572322246295748	8.443738775085244	31.756872576304367	102.73324946265566	102.58588144956713	41.88022097983414	-0.0009377998944598084	-2.350192307717772e+23	0.3607949092160805	-0.0034588991279976967	-3.593991961469019e+24	0.013434105835995604	0.20543879845721247	2.92732349630762	293.00158700000014	249.573883	-20.203434	30.71138	-5.7594080000000005	53.99766500000001	0.0	11977.0	True	0.0	None	0.0	None	0.0	None	0.0	None	0.0	None	0.0	None	0.0	None	0.0	None	1.1666e-06	12
2014-02-20 03:00:00	1238.8895441050988	13264702442.894602	1.1497195077706947e+23	27543485821536.33	37.988591836997344	7712511306072.326	2.3391752073459502e+22	-1.030932728929089e+25	2214.354172950998	-0.5852215712334681	26.528638075035865	8.681195007161861	31.58098127236525	101.62149931250164	101.5166756921045	41.357163983828286	-0.00097169949704559	-2.4463583654094493e+23	0.3835590284483809	-0.003613289417765357	-3.619110636028564e+24	0.013887052435441022	0.2054432411981436	3.1682089185468567	293.0047	249.464508	-20.201725	30.826519	-5.763821	54.099365	0.0	11977.0	True	0.0	None	0.0	None	0.0	None	0.0	None	0.0	None	0.0	None	0.0	None	0.0	None	1.3711e-06	12
2014-02-20 03:12:00	1237.9891606800004	13329954586.862602	1.1661120075258344e+23	27616983780617.9	31.24380749033034	6734105193994.961	2.3400620834500546e+22	-1.0312346778068092e+25	2242.427335837904	-0.5825274051669084	26.762027561043148	9.117143805705238	31.79548383661989	101.33311423285404	101.21547871644377	41.33024327501617	-0.0007979315428115829	-2.472216157948434e+23	0.3343691114494751	-0.0029623829688502764	-3.649878657296343e+24	0.013965139986993329	0.2061756057244644	3.2430877068184394	293.0078430000001	249.355133	-20.197426	30.936207	-5.768219	54.199623	0.0	11977.0	True	0.0	None	0.0	None	0.0	None	0.0	None	0.0	None	0.0	None	0.0	None	0.0	None	1.6183e-06	12
2014-02-20 03:24:00	1224.309570426303	13383245930.465	1.1793855548349071e+23	27539749162186.01	32.53002977512874	6798154804577.3	2.3391712743424757e+22	-1.0308941802573977e+25	2267.257180133956	-0.5800161616327926	27.029257121608303	9.39518496770405	32.06012707697621	100.82506965414406	101.0303211702353	41.150491140621426	-0.0008305256784908277	-2.457644295204608e+23	0.3374359847834665	-0.0030767645517171425	-3.688679189307154e+24	0.013827543486639808	0.20753764895078747	3.2826465659159427	293.010986	249.245804	-20.192341	31.062424	-5.767717	54.30081600000001	0.0	11977.0	True	0.0	None	0.0	None	0.0	None	0.0	None	0.0	None	0.0	None	0.0	None	0.0	None	3.0229000000000007e-06	12
2014-02-20 03:36:00	1267.680712946939	13479360087.4438	1.1847957552863928e+23	28497675232541.69	42.26203926660555	6662952971094.457	2.350529039473224e+22	-1.039299798067587e+25	2266.9504394823152	-0.5805758744793105	27.178939419827014	9.861767545865732	32.26189909685391	101.98954892293452	101.99007588780808	41.87737140495089	-0.0010739489547317938	-2.2348749163408563e+23	0.3291608578846081	-0.0039673334951036395	-3.6868417008719695e+24	0.012484506023372574	0.20595513907829446	3.2699808883385044	293.014252	249.13649	-20.189182	31.177187	-5.774527	54.402309	0.0	11977.0	True	0.0	None	0.0	None	0.0	None	0.0	None	0.0	None	0.0	None	0.0	None	0.0	None	3.2963e-06	12
2014-02-20 03:48:00	1270.1735775033105	13557244910.947102	1.1938615261226665e+23	28602933569946.72	40.25517065529823	6478256465392.309	2.3589599991910816e+22	-1.045396444570495e+25	2288.7173244673527	-0.5806268876252814	27.01246144743743	9.234176892917157	32.02204924881853	102.52057961622135	102.82049152947313	42.093989193634435	-0.0010248783200595302	-1.7991543143181302e+23	0.3206469595963369	-0.0037570836174325717	-3.69878642639229e+24	0.009992738882035572	0.2054354462272108	3.422071502612676	293.017487	249.027191	-20.186312	31.282225	-5.77611	54.489685	0.0	11977.0	True	0.0	None	0.0	None	0.0	None	0.0	None	0.0	None	0.0	None	0.0	None	0.0	None	3.1132e-06	12
2014-02-20 04:00:00	1284.1741957147456	13577132652.2021	1.194754616203739e+23	28807960810613.73	18.21854544721645	6152727967430.871	2.3507530887978824e+22	-1.0517308532232086e+25	2323.016573940848	-0.5832892868578727	26.912681655876874	9.143491620833009	31.815416868668645	103.34133167707868	103.86505205300884	42.294564559324975	-0.0004704473854055789	-1.6577540099637908e+23	0.3088590692168263	-0.0016950401505070151	-3.709576061339192e+24	0.009193893583079498	0.2057328610958188	3.2697186900272515	293.020721	248.917923	-20.186176	31.403498	-5.783365	54.591179	0.0	11977.0	True	0.0	None	0.0	None	0.0	None	0.0	None	0.0	None	0.0	None	0.0	None	0.0	None	2.5269999999999997e-06	12
2014-02-20 04:12:00	1276.8487620891308	13604421213.4138	1.196115452452528e+23	28742448815689.01	40.89885981702485	6695979442961.433	2.345604549275881e+22	-1.050747497568589e+25	2339.9222666193523	-0.5815751185820583	26.889245912502	9.204749162141802	31.88388106578034	103.71249876222288	104.1227096912551	42.78843806826189	-0.0010626116505241716	-1.746803511460307e+23	0.3381817473000409	-0.0038017003132757507	-3.692963715061932e+24	0.009668330989774923	0.20440075427028886	3.319717948249199	293.023956	248.808655	-20.181349	31.512821	-5.786553	54.67738000000001	0.0	11977.0	True	0.0	None	0.0	None	0.0	None	0.0	None	0.0	None	0.0	None	0.0	None	0.0	None	2.3380000000000003e-06	12
2014-02-20 04:24:00	1298.1164632793225	13753101072.9118	1.2125614230917816e+23	29323297318031.77	35.236088520013645	5450063674876.222	2.356242109965807e+22	-1.0616815707938146e+25	2375.6749141714445	-0.5812743971959806	27.045631685108113	9.439804334816433	31.85962301556706	104.5850893232208	104.92662049020643	43.3124963033176	-0.0009168424365115957	-1.2966164957069517e+23	0.27566502283250177	-0.003240542159987948	-3.7269869902161016e+24	0.007099020955717377	0.2040538496373557	3.4761484182946685	293.027222	248.699417	-20.177536	31.62709000000001	-5.795611	54.778091	0.0	11977.0	True	0.0	None	0.0	None	0.0	None	0.0	None	0.0	None	0.0	None	0.0	None	0.0	None	2.286e-06	12
2014-02-20 04:36:00	1290.3069015340159	13775675049.6777	1.2189503315750429e+23	28892733339930.805	38.16607066655957	4690779427090.309	2.3328235608305564e+22	-1.0585634593456455e+25	2446.892388081429	-0.5786174284974144	27.031758921288343	9.277278664924957	31.730533587379337	105.7639260625269	106.28618469868469	44.022839277638006	-0.001017517680198341	-1.2165544346070772e+23	0.2430861720940609	-0.003510151137570694	-3.725292586751375e+24	0.006649762868393389	0.20362683010794666	3.4173488733335766	293.03051800000014	248.590179	-20.171011	31.743931	-5.799608	54.87413000000001	0.0	11977.0	True	0.0	None	0.0	None	0.0	None	0.0	None	0.0	None	0.0	None	0.0	None	0.0	None	2.3687e-06	12
2014-02-20 04:48:00	1313.7131334724627	13882964289.7108	1.23305012684875e+23	29243869312753.68	40.28820389451533	5126409049716.23	2.3300492716610985e+22	-1.0636445500760954e+25	2512.435583411892	-0.5769015724306412	26.909320332617675	9.254498714652957	31.63110627934441	107.3612990743976	107.74851723724527	44.82163119360657	-0.0010902257913761792	-9.798692227785664e+22	0.26965214748017197	-0.0036806992894015795	-3.7041734691824825e+24	0.005314633496283164	0.2009076715312795	3.40103925465768	293.033875	248.480972	-20.169626	31.831264	-5.8058260000000015	54.969227	0.0	11977.0	True	0.0	None	0.0	None	0.0	None	0.0	None	0.0	None	0.0	None	0.0	None	0.0	None	1.985e-06	12
2014-02-20 05:00:00	1307.36136990254	13880306569.2108	1.2416916826880038e+23	28955857138976.195	46.58373636819457	5475002516043.139	2.3028600903043088e+22	-1.0587932351941192e+25	2593.414489310792	-0.5743804145800867	27.084418774024762	9.405858204815267	31.78160812804623	108.70146507478546	109.03433576322384	45.70269900827514	-0.0012921262722787796	-6.571154738884571e+22	0.2951953089252768	-0.004263395065193792	-3.735060924048768e+24	0.0035647588761732437	0.2026217934461665	3.4309473513696216	293.03717	248.37178	-20.163729	31.94125	-5.811486	55.06459399999999	0.0	11977.0	True	0.0	None	0.0	None	0.0	None	0.0	None	0.0	None	0.0	None	0.0	None	0.0	None	2.0766e-06	12
2014-02-20 05:12:00	1330.9870733648113	13985862595.1323	1.260971695991006e+23	29325131772497.83	46.52433214904395	4940041757496.805	2.30447258194207e+22	-1.060507849278452e+25	2649.5572206901293	-0.5709684652462125	27.18235815301482	9.38720839379395	31.80831540318589	109.88085424115393	110.12062183804464	46.24383296764307	-0.0012982930695979893	-1.91786178596918e+22	0.2679517654841069	-0.004235179195972439	-3.7515291677815273e+24	0.0010325605805126526	0.20197916052313955	3.222024438659617	293.040497	248.262604	-20.170238	32.055729	-5.82625	55.165474	0.0	11977.0	True	0.0	None	0.0	None	0.0	None	0.0	None	0.0	None	0.0	None	0.0	None	0.0	None	1.7028e-06	12
2014-02-20 05:24:00	1325.6710537736067	14005936733.4033	1.2579510065111853e+23	28762548762216.95	52.22273490594491	4298973361055.832	2.288178221726757e+22	-1.0615916293222275e+25	2698.2501656479794	-0.5707327419827724	27.01754785490284	9.269334852585102	31.740303388644115	110.43286584771296	110.7763947296585	46.22727026604424	-0.0014876576716597795	8.33360079032793e+21	0.238030656349798	-0.004748038795535882	-3.770846813951179e+24	-0.0004480309281159543	0.20272821321108128	3.2961784246758934	293.043823	248.153427	-20.173874	32.166290000000004	-5.830897	55.26062	0.0	11977.0	True	0.0	None	0.0	None	0.0	None	0.0	None	0.0	None	0.0	None	0.0	None	0.0	None	1.5015000000000004e-06	12
2014-02-20 05:36:00	1332.8620712750312	14042626731.6461	1.2408513282907405e+23	28386527339900.19	53.24836898747146	3216660025782.373	2.276360110309194e+22	-1.0728659249539933e+25	2725.2297404148994	-0.5752870840019486	26.66391275467591	8.51684410091877	31.37639727510043	111.84993065433201	111.83486853280044	47.131464660966145	-0.001553155086555579	3.7215123740449237e+22	0.16261037450372598	-0.004814512227144504	-3.757439570824962e+24	-0.001995531736021238	0.2014796447287782	3.2779732874954206	293.047211	248.044266	-20.1817	32.277767	-5.836344	55.358036	0.0	11977.0	True	0.0	None	0.0	None	0.0	None	0.0	None	0.0	None	0.0	None	0.0	None	0.0	None	1.274e-06	12
2014-02-20 05:48:00	1309.9298174197338	14025123718.360802	1.2419969065455534e+23	27704174751977.86	56.36068773079965	3659426627273.988	2.2591331616115063e+22	-1.06886345593188e+25	2771.3955878652264	-0.5738560538615387	26.54401757272167	8.104904430285968	31.2519307699248	111.9245552431906	111.80596484964927	47.585568873104194	-0.0016701937392443224	1.1492952057581924e+22	0.11485813766639655	-0.005106632086053382	-3.79673734794268e+24	-0.0006170386009907838	0.2038408835055137	3.1685842058856237	293.050598	247.935104	-20.18873	32.387642	-5.84295	55.461803	0.0	11977.0	True	0.0	None	0.0	None	0.0	None	0.0	None	0.0	None	0.0	None	0.0	None	0.0	None	1.1447e-06	12
2014-02-20 06:00:00	1312.7666595214932	14140671711.1653	1.250143676566722e+23	27606658037233.273	72.22602900888	4476830939156.297	2.2735136908604848e+22	-1.0763255887582391e+25	2776.819463928981	-0.5731404232929483	26.2132116270308	7.687315634218288	31.12014468491549	112.41161149578377	111.96264376943722	47.55640611807952	-0.0021305613276955755	3.3395148467657293e+22	0.15839444126082938	-0.00649361001865422	-3.8016875160388526e+24	-0.0017782824944974106	0.2024388172991252	3.1098191862235085	293.053955	247.825958	-20.215425	32.498241	-5.8479410000000005	55.558025	66560.0	11977.0	False	0.0	None	0.0	None	0.0	None	0.0	None	0.0	None	0.0	None	0.0	None	0.0	None	1.0212999999999999e-06	12
2014-02-20 06:12:00	1277.5906371186495	14118737974.3687	1.2350458662458577e+23	26875070897732.21	75.62307942448487	4178400840419.684	2.2743675482524118e+22	-1.0813113292803603e+25	2743.608400335214	-0.5766899239646782	26.10775722838525	7.605617181968374	31.089170029518108	111.51971665237862	110.86562362421652	47.028457038803396	-0.0022310983751138774	3.292879681333278e+22	0.1259270695663549	-0.0067943527800814465	-3.8140573583957095e+24	-0.0017561737139263436	0.203413058612267	3.0315487243465293	293.057312	247.716812	-20.23926	32.609535	-5.85257	55.655407	66560.0	11977.0	False	0.0	None	0.0	None	0.0	None	0.0	None	0.0	None	0.0	None	0.0	None	0.0	None	1.3250999999999998e-06	12
2014-02-20 06:24:00	1291.8406369880545	14216639094.7341	1.2399175410120509e+23	27221645492893.52	85.93080064863979	4974061726192.309	2.303753111363524e+22	-1.0924006854603383e+25	2694.9596081321083	-0.5785921163250397	26.174630356142202	7.776238309664012	31.12280802323069	111.69951266212036	110.97163390231468	46.549592758975756	-0.0024803948922941872	9.368821473322987e+21	0.13697608652784146	-0.007657940468417264	-3.846728468582953e+24	-0.0004962214245990816	0.2037427104531048	3.1556597674265703	293.060669	247.607666	-20.262493	32.726490000000005	-5.852442	55.759335	0.0	11977.0	True	0.0	None	0.0	None	0.0	None	0.0	None	0.0	None	0.0	None	0.0	None	0.0	None	9.8862e-07	12
2014-02-20 06:36:00	1275.4991719364527	14252759381.9284	1.2327030068822496e+23	26784202844991.01	93.92681279062228	6222042852682.544	2.32361834542197e+22	-1.1010947124896834e+25	2642.2881274851206	-0.5817189732904067	25.985335513609577	7.677417518289733	30.957449420739593	110.62701130478494	109.736653522361	45.829817383903475	-0.0026738445909423327	-2.422518452045238e+22	0.17360623701463904	-0.008333060262080827	-3.848720902983221e+24	0.0012798398999795619	0.20333164320646066	3.066329326886563	293.06408700000014	247.49852	-20.285927	32.83675	-5.8600330000000005	55.86385	0.0	11977.0	True	0.0	None	0.0	None	0.0	None	0.0	None	0.0	None	0.0	None	0.0	None	0.0	None	9.5388e-07	12
2014-02-20 06:48:00	1306.297625544371	14432268458.630404	1.245168328822335e+23	27796689806431.01	73.36184665693538	4318211206054.859	2.388825685747709e+22	-1.119854894905977e+25	2534.452774270853	-0.5842713400487575	26.17401751088688	7.822890198410554	31.15371118849607	108.2237181950746	107.31210873737342	44.772808548049106	-0.0019830741919483	-5.240912966227626e+22	0.15469605200158906	-0.006417059793411132	-3.904624255234869e+24	0.002734385727816834	0.2037192547329537	3.2793771718214138	293.067474	247.38937400000003	-20.306831	32.947681	-5.860291	55.960712	0.0	11977.0	True	0.0	None	0.0	None	0.0	None	0.0	None	0.0	None	0.0	None	0.0	None	0.0	None	1.0412999999999999e-06	12
2014-02-20 07:00:00	1262.9235565215918	14200396738.6288	1.2021237687127966e+23	26551560850244.42	76.85600482103709	4572586369143.727	2.3569194243940862e+22	-1.1130376575931315e+25	2496.9891922044417	-0.5901967989237376	25.74999708557291	7.2191111969324995	30.690773622559306	107.41692573343622	106.54657713843031	44.189654934912454	-0.0021201656502355067	-7.4104332848530436e+22	0.1820065046495258	-0.006807111747761224	-3.838415122151149e+24	0.0039294393801696074	0.20353492108549973	2.9367408030414777	293.070831	247.280228	-20.329721	33.060001	-5.866378	56.068153	0.0	11977.0	True	0.0	None	0.0	None	0.0	None	0.0	None	0.0	None	0.0	None	0.0	None	0.0	None	1.1703e-06	12
2014-02-20 07:12:00	1248.6524851186912	14219153700.7958	1.189562235068918e+23	26258189783495.41	60.0688798126665	4090110850963.563	2.3874142012630595e+22	-1.1231009305612877e+25	2417.741451021969	-0.5947473209996668	25.66096875529749	6.7992874109263655	30.556166216969558	106.09958350841237	105.49100683041807	43.02276899283083	-0.0016213798265133474	-1.0588271615036836e+23	0.2145650960124799	-0.0052980237256742045	-3.818475226624076e+24	0.005607106187609314	0.2022104914652045	2.934649607135392	293.074188	247.171082	-20.324074	33.171131	-5.870558	56.165379	0.0	11977.0	True	0.0	None	0.0	None	0.0	None	0.0	None	0.0	None	0.0	None	0.0	None	0.0	None	1.2502e-06	12
2014-02-20 07:24:00	1241.5625345633193	14220666528.6539	1.1864813342869589e+23	26524641508388.76	66.04259735179747	5425689108909.116	2.401241434707992e+22	-1.126103772223506e+25	2384.9574331483195	-0.5962741139406595	25.584314821039	6.988788040576615	30.510712193904638	105.86967594776353	105.36237006188328	42.90483296427622	-0.0017631106132681262	-1.3579930068075486e+23	0.1844662656482704	-0.005818743630446025	-3.815870655691329e+24	0.007190599097922823	0.20205108536683908	3.038174796065237	293.077515	247.06192	-20.33848	33.27227	-5.8710900000000015	56.262585	0.0	11977.0	True	0.0	None	0.0	None	0.0	None	0.0	None	0.0	None	0.0	None	0.0	None	0.0	None	1.5987e-06	12
2014-02-20 07:36:00	1242.4898337967759	14250446352.913902	1.185116229446061e+23	26481291300189.0	55.74657953729938	4404431125552.131	2.407773142453881e+22	-1.1312257667030182e+25	2374.353740222685	-0.5977344645684843	25.65770101483745	7.0588548318433375	30.518002654087162	105.60667224427816	105.09849225250632	42.51267383067319	-0.00148333190190249	-1.4429717672120162e+23	0.14555521996880466	-0.004896968804012504	-3.8455174692297264e+24	0.007624596097874692	0.2031953649851963	3.0705120513163235	293.080902	246.952759	-20.344217	33.383133	-5.871065	56.36805699999999	0.0	11977.0	True	0.0	None	0.0	None	0.0	None	0.0	None	0.0	None	0.0	None	0.0	None	0.0	None	2.7504000000000004e-06	12
2014-02-20 07:48:00	1228.4632555015844	14253753016.5619	1.1779676494699867e+23	26344334031435.61	44.18838165320872	4320562683646.4463	2.4290811667075813e+22	-1.1387860274300432e+25	2316.0939533265782	-0.6015898005660706	25.738351415606125	7.0397159046400475	30.321415643961984	103.85479274269714	103.4613913488005	41.77382634377547	-0.0011538340249421296	-1.629573589547495e+23	0.15212745256002438	-0.0038713066033436096	-3.8530327157853645e+24	0.008608595707448086	0.2035452777985772	3.169916993222988	293.084229	246.843582	-20.354992000000006	33.510265000000004	-5.8802379999999985	56.473175	0.0	11977.0	True	0.0	None	0.0	None	0.0	None	0.0	None	0.0	None	0.0	None	0.0	None	0.0	None	2.9803000000000002e-05	12
2014-02-20 08:00:00	1233.6313898581136	14331220128.1471	1.196352735868174e+23	26642208201529.06	37.3416627338501	3357106699744.714	2.4497678122515056e+22	-1.1417786717481863e+25	2318.8788980156714	-0.5999101995702911	25.93739924997668	7.215300658978584	30.390099220942226	102.85486659029276	102.50638111635963	41.16003076503097	-0.0009612495877120524	-1.7502088054064952e+23	0.11452605613949216	-0.003257257817792173	-3.867463281976977e+24	0.009195898817530695	0.2032031887379024	3.095103453286485	293.087585	246.73439	-20.359503	33.622108000000004	-5.878036	56.580303	0.0	11977.0	True	0.0	None	0.0	None	0.0	None	0.0	None	0.0	None	0.0	None	0.0	None	0.0	None	3.0835e-05	12
2014-02-20 08:12:00	1234.094799491726	14361261128.0005	1.2091808334406802e+23	26802501103533.05	41.94654410263229	3802675486129.128	2.459036099126157e+22	-1.1405318981712054e+25	2323.9424744975704	-0.5980015683104848	26.084787202803287	7.4019245003700975	30.52932191984758	101.70425308027544	101.67734429964042	40.777162572986725	-0.0010706931133734662	-1.8120326107572863e+23	0.14101293091611555	-0.003655624825183362	-3.867039695678844e+24	0.0095008157579819	0.20275590769910407	3.0180677268385416	293.090881	246.625198	-20.36549	33.71233	-5.878205	56.663391	0.0	11977.0	True	0.0	None	0.0	None	0.0	None	0.0	None	0.0	None	0.0	None	0.0	None	0.0	None	2.8128000000000002e-05	12
2014-02-20 08:24:00	1247.4025067246173	14501786357.1015	1.2349633352820233e+23	27199484551324.77	41.4394978790873	3531849137216.6973	2.473010934128407e+22	-1.1473570598692515e+25	2372.162748624481	-0.5957508257180726	26.204469731565627	7.614601668324788	30.479450156016913	102.02606128566325	102.00787180263548	41.137653989899405	-0.0010571300479359006	-1.704269446613208e+23	0.1009221467864216	-0.0035816114510577508	-3.907559154650703e+24	0.008849206280925339	0.20289512954150926	3.303793443777406	293.094177	246.515976	-20.372852	33.823711	-5.8843	56.761368	0.0	11977.0	True	0.0	None	0.0	None	0.0	None	0.0	None	0.0	None	0.0	None	0.0	None	0.0	None	1.9922e-05	12
2014-02-20 08:36:00	1253.571634577458	14551087502.3525	1.236041379393428e+23	27326633125705.203	41.167176578199744	3533482858262.3184	2.462641066858868e+22	-1.1524054528389018e+25	2408.4545166642924	-0.5963447013103866	26.19994021560123	7.783873305040887	30.397542378465484	102.12859113505795	102.27840214977829	41.02918486074526	-0.0010652928417917331	-1.564437632164614e+23	0.12313052348855848	-0.0035445323999218157	-3.9271861361032497e+24	0.008095623724910942	0.2032233219267988	3.2234567798042546	293.097504	246.406754	-20.376556	33.935623	-5.885144	56.868771	0.0	11977.0	True	0.0	None	0.0	None	0.0	None	0.0	None	0.0	None	0.0	None	0.0	None	0.0	None	1.305e-05	12
2014-02-20 08:48:00	1258.8336359679786	14598648526.7311	1.260643080451371e+23	27570096753403.16	44.2070777685246	3795209136032.304	2.44921070814758e+22	-1.1453991671944608e+25	2467.1168220835198	-0.5907880423297737	26.6394146304338	8.571577087015282	30.966028209967327	102.3500130602437	102.7459879581037	41.45033646651464	-0.0011489520160236153	-1.24097701922743e+23	0.07038371853404694	-0.0038071223384182453	-3.912735267835008e+24	0.006400863600777696	0.2018158625609035	3.2485790403207027	293.100769	246.297516	-20.3853	34.047626	-5.888386	56.976452	0.0	11977.0	True	0.0	None	0.0	None	0.0	None	0.0	None	0.0	None	0.0	None	0.0	None	0.0	None	8.977e-06	12
2014-02-20 09:00:00	1256.9065569507088	14587967017.8476	1.2474839503382122e+23	27153467046499.023	35.70649911650932	1999346745807.0205	2.4270809013506e+22	-1.150647105602129e+25	2507.512757937271	-0.5939295419308106	26.37848610360648	7.981634232935586	30.759823837157768	103.65950444529926	104.08068502476456	41.95275272549785	-0.0009531646009585787	-1.0953480024112482e+23	0.054149803386407985	-0.003071237305416166	-3.867577974160032e+24	0.005653858026145263	0.19963278084052646	3.154326706093337	293.104065	246.188248	-20.387123000000006	34.159584	-5.891627	57.084217	0.0	11977.0	True	0.0	None	0.0	None	0.0	None	0.0	None	0.0	None	0.0	None	0.0	None	0.0	None	6.31e-06	12
2014-02-20 09:12:00	1271.2657338455733	14531214054.871504	1.2359473698458376e+23	26932248301781.445	34.87851298073609	1916935102170.6943	2.39183054851993e+22	-1.1471342080034048e+25	2563.4274896335805	-0.5944287842083187	26.26412200181155	7.913510535738879	30.651110353389743	105.17186459053192	105.70746725116895	42.707139980283706	-0.0009607082490217904	-6.511276851572693e+22	0.02477339419828169	-0.0030107932253133764	-3.835348585997454e+24	0.0033740519248055038	0.1987423599682936	2.786765597395081	293.107269	246.078964	-20.39217	34.271965	-5.89417	57.165848	0.0	11977.0	True	0.0	None	0.0	None	0.0	None	0.0	None	0.0	None	0.0	None	0.0	None	0.0	None	4.6621e-06	12
2014-02-20 09:24:00	1248.8821711358378	14328633218.1295	1.21546068771744e+23	26064999804167.555	30.76605014452489	1775725230302.3044	2.339056992639023e+22	-1.1316447416948547e+25	2626.789988176232	-0.5946930402063898	25.94346342694169	7.318753228861718	30.32342290137545	105.96375466486856	106.43683898514635	43.09323550574417	-0.0008830415356770727	-1.3299319098368697e+22	-0.03362694180960179	-0.002692967897699819	-3.7695653051583774e+24	0.0006988953525678491	0.19809522980009933	2.5692039359077015	293.110474	245.969666	-20.397774	34.391220000000004	-5.8939309999999985	57.264675	0.0	11977.0	True	0.0	None	0.0	None	0.0	None	0.0	None	0.0	None	0.0	None	0.0	None	0.0	None	3.6110000000000002e-06	12
2014-02-20 09:36:00	1236.7131062680332	14234706315.626	1.2052823727463209e+23	25710543528304.58	42.637751746225604	2587571156808.724	2.3128243487979445e+22	-1.1238685469825816e+25	2645.876180843606	-0.5945036135817208	25.841508692395028	7.1134952333751205	30.41423736829357	106.13785384838305	106.56205052559186	43.453106075985886	-0.00124311938383701	-4.1690754334642547e+21	-0.10302282427873267	-0.003757135321901575	-3.723191355842311e+24	0.0002205356148762914	0.1969492536335556	2.5625671389755134	293.113678	245.860336	-20.412411	34.503624	-5.896986	57.36395600000001	0.0	11977.0	True	0.0	None	0.0	None	0.0	None	0.0	None	0.0	None	0.0	None	0.0	None	0.0	None	2.9057999999999998e-06	12
2014-02-20 09:48:00	1247.8670351115147	14164129042.1425	1.2036742110873651e+23	25862434242432.8	37.89152350207247	2691349462575.0693	2.297128307519869e+22	-1.1158467464208472e+25	2664.955089879372	-0.5932015095013824	25.88728352360546	7.209644222287563	30.349702138733047	106.31214323992364	106.87549515451859	43.48685312395958	-0.0011141288886231243	3.8520536498690624e+22	-0.11538613912743062	-0.003358238057425713	-3.702084631046733e+24	-0.0020478117152844407	0.1968085849139113	2.566913736944384	293.116852	245.750992	-20.409571	34.616245	-5.897329	57.46348199999999	0.0	11977.0	True	0.0	None	0.0	None	0.0	None	0.0	None	0.0	None	0.0	None	0.0	None	0.0	None	2.4932e-06	12
2014-02-20 10:00:00	1236.374072987814	14088617717.2576	1.1924730802041449e+23	25716862525971.98	48.76799638566421	3308592964704.9863	2.282719891999994e+22	-1.110812341594618e+25	2673.2467905171084	-0.5936901669649205	25.66230203854177	6.8266396737027	30.035213141713434	107.08133007513979	107.71470445792393	43.69786968131609	-0.001451903789504427	4.521283291366359e+22	-0.1039529760906357	-0.0043440281477881496	-3.6493535306261145e+24	-0.0024164670589576424	0.19504512380563	2.3085424397052305	293.120026	245.641632	-20.404026	34.72887	-5.90125	57.563141	0.0	11977.0	True	0.0	None	0.0	None	0.0	None	0.0	None	0.0	None	0.0	None	0.0	None	0.0	None	2.182e-06	12
2014-02-20 10:12:00	1223.9413872871678	14044947355.0314	1.1732349585968077e+23	25333999732375.37	59.19244798848384	3605594086420.404	2.2693016972583145e+22	-1.1117026878472374e+25	2661.176297534125	-0.5960134083332123	25.28534254357985	6.690363587071121	29.944123173940028	107.47139008222747	108.02407319794844	43.692223385989074	-0.0017831736101365815	4.399581849484767e+22	-0.21110616041498856	-0.005281460118096121	-3.628528863236564e+24	-0.0023587329616249703	0.19453509275946249	3.1531992927667485	293.123108	245.532227	-20.420614	34.841503	-5.904257	57.663784	0.0	11977.0	True	0.0	None	0.0	None	0.0	None	0.0	None	0.0	None	0.0	None	0.0	None	0.0	None	1.9569e-06	12
2014-02-20 10:24:00	1215.4379726411282	13974573654.6055	1.1634618805329176e+23	25174516760878.73	53.542268353221175	2733290784273.783	2.263738076611968e+22	-1.108961490742438e+25	2638.134427709551	-0.5975377968087447	25.28705963588715	6.450252951096123	29.97274166440197	107.65592302884541	107.90789138139078	43.88972023921567	-0.0016123304129493244	4.956208299940063e+22	-0.15998265980772036	-0.0047966392065646535	-3.612991335221305e+24	-0.002670536184343689	0.1946775339233704	3.266041894043548	293.126221	245.422806	-20.413292	34.95536	-5.910689	57.765236	0.0	11977.0	True	0.0	None	0.0	None	0.0	None	0.0	None	0.0	None	0.0	None	0.0	None	0.0	None	1.7827e-06	12
2014-02-20 10:36:00	1205.2578293715476	13912021813.7406	1.152404594267017e+23	24900027656097.03	47.35361947021415	2860078902666.6763	2.260951419684165e+22	-1.1064960386327617e+25	2604.7475532995027	-0.5988899878102902	25.303954640921148	6.507774509215344	29.951919915489	107.21207344982773	107.19092181701357	43.895799194046404	-0.0014214330152552725	5.12961770261319e+22	-0.16687387487817998	-0.0042576929908192855	-3.611333278231961e+24	-0.0027764009776171127	0.1954630895607797	2.5032900113586027	293.129303	245.313354	-20.425819	35.068913	-5.906976	57.86630200000001	0.0	11977.0	True	0.0	None	0.0	None	0.0	None	0.0	None	0.0	None	0.0	None	0.0	None	0.0	None	1.7024e-06	12
2014-02-20 10:48:00	1200.6187065835645	13914593367.6315	1.1501719713815784e+23	24883160881721.61	54.89411231251714	3512977444646.828	2.276321498364918e+22	-1.110523370853771e+25	2568.705291457688	-0.6009588412646565	25.246269929192728	6.628900225412266	29.833680002735324	107.03597801051892	106.74910956322374	43.739193154024896	-0.0016281807003564331	6.72206534627886e+22	-0.15593168174048494	-0.004928627581543325	-3.611914479896935e+24	-0.0036376403301619257	0.19545846558070445	2.633855948118223	293.132355	245.203903	-20.42416	35.182037	-5.914357	57.966831000000006	0.0	11977.0	True	0.0	None	0.0	None	0.0	None	0.0	None	0.0	None	0.0	None	0.0	None	0.0	None	1.6488e-06	12
2014-02-20 11:00:00	1184.6351849194402	13893642023.0466	1.1420976421927567e+23	24451848458060.69	72.5665613734206	4262832092801.669	2.27057363198076e+22	-1.1091359967293064e+25	2566.581946173716	-0.6011130290033376	25.00342348836452	6.228549258363924	29.714113286520003	107.58769267010294	107.36707457374534	43.8207241761269	-0.002165713474003062	5.0146192888300896e+22	-0.15844239984696884	-0.006524217688512537	-3.613322136694042e+24	-0.00271774876921869	0.1958294583133132	2.888595282221997	293.13537599999995	245.094391	-20.422874	35.295769	-5.914755	58.059902	0.0	11977.0	True	0.0	None	0.0	None	0.0	None	0.0	None	0.0	None	0.0	None	0.0	None	0.0	None	1.4416999999999999e-06	12
2014-02-20 11:12:00	1190.3977168571664	13942462682.8166	1.1604718639743517e+23	24882423688191.066	71.93864112862843	4039971415977.8887	2.286500435344916e+22	-1.1070336862635697e+25	2557.9469623072064	-0.5978728622449094	25.342177156803302	6.852843886303092	29.99865162238515	106.94949497212356	106.58101633155356	43.63715127785057	-0.002105870470086602	3.2796031959630705e+22	-0.14796880250034386	-0.00645818548259226	-3.64396784679812e+24	-0.0017712069416929714	0.1967988430277008	3.0052282789862637	293.138367	244.984863	-20.432032	35.409592	-5.915458	58.161411	0.0	11977.0	True	0.0	None	0.0	None	0.0	None	0.0	None	0.0	None	0.0	None	0.0	None	0.0	None	1.3225e-06	12
2014-02-20 11:24:00	1183.4153936351086	13928375525.8264	1.1449399006194815e+23	24617159851861.84	66.10927093485786	3985402574827.7617	2.2903706793635115e+22	-1.1113452025918114e+25	2519.1389140816973	-0.6008084264204738	25.091375840411033	6.349531017152207	29.86442347649704	107.26554935526771	106.81678098612088	43.5236092599034	-0.0019317205076953465	1.3125867546136222e+22	-0.09582597797059772	-0.005929970519564782	-3.665432413156472e+24	-0.0007096023636405786	0.1981582927755706	3.2564823831067584	293.141296	244.875305	-20.43494	35.531002	-5.9154339999999985	58.26330600000001	0.0	11977.0	True	0.0	None	0.0	None	0.0	None	0.0	None	0.0	None	0.0	None	0.0	None	0.0	None	1.2376e-06	12
2014-02-20 11:36:00	1183.8385343710738	13944639089.3949	1.1289691407892374e+23	24517541784869.18	61.942046227993536	3608030330781.783	2.307660927133497e+22	-1.1233930806638138e+25	2463.698689811698	-0.6066134275598353	24.846832168370728	5.845529633386465	29.51060968546309	106.59140407586823	106.1425885368547	43.05768646900703	-0.0017952134891025247	1.8477592739980696e+22	-0.1602841910573447	-0.005529934167700992	-3.663141359074717e+24	-0.0009977590264692708	0.19780349137912265	3.5611038404408726	293.144257	244.765701	-20.445089000000007	35.645138	-5.921327	58.365391	0.0	11977.0	True	0.0	None	0.0	None	0.0	None	0.0	None	0.0	None	0.0	None	0.0	None	0.0	None	1.2168000000000001e-06	12
2014-02-20 11:48:00	1178.8878601014464	13968695877.6479	1.132235960217614e+23	24600893202190.39	73.30523982453032	3971267210335.1816	2.318423017707228e+22	-1.1233548267683154e+25	2438.8786484233005	-0.6055478905698396	24.92291562017573	6.076036273135568	29.721607667756015	105.79001082625805	105.09253485172628	43.213572761772454	-0.0020970717423197827	-5.539978598295436e+21	-0.12428203634533015	-0.0065371408438237655	-3.649629301602833e+24	0.00029863425821125233	0.19673439524938954	3.1516887643286227	293.147125	244.656082	-20.447273000000006	35.76560999999999	-5.918458	58.456558	0.0	11977.0	True	0.0	None	0.0	None	0.0	None	0.0	None	0.0	None	0.0	None	0.0	None	0.0	None	1.1695e-06	12
2014-02-20 12:00:00	1199.7095025631215	14023851475.0117	1.1325938186511118e+23	25036605786327.145	75.28367809669345	4246495149620.5537	2.342337573189428e+22	-1.1304117672131616e+25	2404.365959521281	-0.6069556217406102	24.75837740929881	5.810544121793065	29.56440336837992	105.49047689129921	104.89767527051808	42.84443281295122	-0.0021224606173299533	-1.9287902959155308e+21	-0.09444708889565184	-0.006681279465474255	-3.669098494004145e+24	0.00010356315700347005	0.19700608417639387	3.066178157299188	293.1500240000001	244.546432	-20.451439	35.878887	-5.9222480000000015	58.549076	0.0	11977.0	True	0.0	None	0.0	None	0.0	None	0.0	None	0.0	None	0.0	None	0.0	None	0.0	None	1.1481999999999999e-06	12
2014-02-20 12:12:00	1191.8971512497071	13991866293.9378	1.1215441872783106e+23	24881834523842.99	66.71391729710663	3403112173629.6406	2.346785171055304e+22	-1.1343144907156899e+25	2371.414467086416	-0.6104432201677791	24.731835614037	5.621700550376279	29.47481884208353	105.12142817616116	104.62962422198463	42.29594656192013	-0.001873354972961548	-4.596962555014868e+21	-0.07565026143777744	-0.005921413290620645	-3.660401944592101e+24	0.00024739035320825616	0.1969883633202444	2.3950890441890413	293.152832	244.436737	-20.455158	35.999493	-5.918576	58.639965	0.0	11977.0	True	0.0	None	0.0	None	0.0	None	0.0	None	0.0	None	0.0	None	0.0	None	0.0	None	1.0828e-06	12
2014-02-20 12:24:00	1175.16301838319	13960999018.6988	1.1194134289071565e+23	24745158086675.52	62.59342959139781	3262031850415.858	2.350496987010522e+22	-1.1310564271300816e+25	2348.772146447195	-0.6100357763825256	24.79660010417789	5.645498369883244	29.565870155261702	103.20096207364244	102.8893051150888	41.60761312110015	-0.0017441811684286179	-1.6805894518012471e+22	-0.04431959825160963	-0.005569378326844282	-3.6301850074461264e+24	0.0009064266524803076	0.1957941864181556	2.420051692269249	293.15564	244.327026	-20.461363	36.115253	-5.92316	58.736294	0.0	11977.0	True	0.0	None	0.0	None	0.0	None	0.0	None	0.0	None	0.0	None	0.0	None	0.0	None	1.0476000000000001e-06	12
2014-02-20 12:36:00	1160.1091100304602	13993864364.2864	1.1291583292195514e+23	24502412744216.14	67.86735931356303	4076044777933.431	2.3554713155060837e+22	-1.1295662493031711e+25	2362.569367597575	-0.6078011050851805	24.65655713996884	5.451817272424141	29.547643010261	103.17207861833914	103.09867512285273	41.58963231132515	-0.0018858330363888804	-1.766914638046152e+22	-0.04656077565955333	-0.006032828284901969	-3.615430968915264e+24	0.0009507478381707507	0.19454042112372755	2.421208726448236	293.158417	244.21727	-20.477633	36.229568	-5.924121	58.829025	0.0	11977.0	True	0.0	None	0.0	None	0.0	None	0.0	None	0.0	None	0.0	None	0.0	None	0.0	None	1.0032e-06	12
2014-02-20 12:48:00	1161.5041327628005	14032509034.8632	1.1205321579693425e+23	24514499485763.266	86.24989259557799	4967502434558.83	2.3725106387834892e+22	-1.139900428500954e+25	2321.300313824935	-0.611672718981084	24.51923335165256	5.450093540222294	29.33625104864723	103.19014725347256	102.89037730791237	41.27015225883361	-0.0023729576745144853	-2.1746634567568115e+22	-0.08239702667811054	-0.007627554978845955	-3.6284030431283193e+24	0.0011669285107757366	0.194700791354925	2.4069336155733465	293.161133	244.107498	-20.476088	36.350533	-5.926017	58.920166	0.0	11977.0	True	0.0	None	0.0	None	0.0	None	0.0	None	0.0	None	0.0	None	0.0	None	0.0	None	1.0205e-06	12
2014-02-20 13:00:00	1155.509312982465	13997207384.2711	1.1142218943474369e+23	24440952934445.664	72.40775077004717	3764220246063.5264	2.3713042962894184e+22	-1.1381677464442076e+25	2296.224851550138	-0.6122832425137776	24.58192417582037	5.476490229350267	29.51354169602141	102.21917102082249	101.86173285501243	40.991754892518784	-0.001981765081151905	-4.139893548043476e+22	-0.09008135746942314	-0.006417412265852957	-3.620524045643184e+24	0.0022270772064811642	0.19476796888604986	3.0205115171289405	293.163879	243.997681	-20.49387	36.465157	-5.923654	58.9953	0.0	11977.0	True	0.0	None	0.0	None	0.0	None	0.0	None	0.0	None	0.0	None	0.0	None	0.0	None	1.0215999999999999e-06	12
2014-02-20 13:12:00	1159.141903213014	14002948029.1442	1.1066663930138335e+23	24437828716492.016	77.67611753465098	4153397978723.01	2.3734721418372745e+22	-1.1445608763395558e+25	2286.2854944749733	-0.6154699611417411	24.406312235487114	5.344600526777874	29.34156282516043	102.2688010754978	101.80215393689072	41.00918932733175	-0.002131148966600389	-4.2527775873050165e+22	-0.07570152855457918	-0.006867507493481184	-3.628993490416111e+24	0.0022868655660973057	0.1951435287280791	2.4162587669430704	293.166565	243.887848	-20.488859	36.580986	-5.929817	59.081989	0.0	11977.0	True	0.0	None	0.0	None	0.0	None	0.0	None	0.0	None	0.0	None	0.0	None	0.0	None	1.0097e-06	12
2014-02-20 13:24:00	1166.0783885401804	14042970435.672302	1.1147977433987337e+23	24824774215288.93	81.39817096638708	5055732958138.621	2.389536335258937e+22	-1.1456507870457062e+25	2267.315327232763	-0.6143002983683562	24.63635801461453	5.677551792129218	29.513248013297602	101.42689771523818	101.18788471473671	40.53279538298015	-0.0021987026543417807	-3.882574155450715e+22	-0.07596345022704834	-0.007181951800622197	-3.6243195042093726e+24	0.0020818442138734287	0.1943367540958401	2.4226364779118232	293.169159	243.777969	-20.496773	36.696194	-5.934803	59.17579300000001	0.0	11977.0	True	0.0	None	0.0	None	0.0	None	0.0	None	0.0	None	0.0	None	0.0	None	0.0	None	9.7161e-07	12
2014-02-20 13:36:00	1152.2679058037586	13981395830.0023	1.1040325435542384e+23	24493563045297.76	82.56252772225317	5405862582901.318	2.3750123246903435e+22	-1.1441346397003517e+25	2268.954097610012	-0.6161891538953935	24.62536657043968	5.753432135156528	29.430245677407516	101.84338874597574	101.43172697177627	40.88169158148477	-0.002253528611028555	-3.0536989160385177e+22	-0.06034097603868106	-0.00730793522616158	-3.621615840142035e+24	0.0016446107704752824	0.1950470095771011	2.989029104814312	293.1718140000001	243.668076	-20.499773	36.812843	-5.9362650000000015	59.263832	0.0	11977.0	True	0.0	None	0.0	None	0.0	None	0.0	None	0.0	None	0.0	None	0.0	None	0.0	None	1.1278e-06	12
2014-02-20 13:48:00	1149.9721130819235	14003031767.9271	1.1032261844939022e+23	24534241324509.805	74.27039257707975	5098414169455.722	2.3751247522081066e+22	-1.145213363193691e+25	2274.373296143381	-0.6158170998554855	24.59100762777764	5.7960301163586605	29.3898332844765	102.37035453954016	102.14984650966557	40.96649092439386	-0.00203341252777768	-2.368544356973042e+22	-0.01616588560121167	-0.006564950279166023	-3.612967638314008e+24	0.0012736404967565176	0.1942805877407449	2.9955654261462796	293.174377	243.558136	-20.493324	36.936474	-5.9424449999999975	59.361000000000004	0.0	11977.0	True	0.0	None	0.0	None	0.0	None	0.0	None	0.0	None	0.0	None	0.0	None	0.0	None	1.3784e-06	12
2014-02-20 14:00:00	1152.0562188677216	13972957169.4125	1.0999087361232681e+23	24382510188516.47	76.35881127577156	5409593319698.012	2.372994233162726e+22	-1.1453421806813549e+25	2276.572571617573	-0.6172121543476907	24.43484593659472	5.442550852116548	29.13581246563169	103.26311256724793	103.0462099330973	40.85053909170264	-0.002099095892343282	-2.372576515375252e+22	-0.05482782278603316	-0.006758564745511978	-3.613276982519028e+24	0.0012785550790929106	0.19471547527471564	3.3031201539274533	293.176971	243.448181	-20.506638	37.058819	-5.942027	59.453545	0.0	11977.0	True	0.0	None	0.0	None	0.0	None	0.0	None	0.0	None	0.0	None	0.0	None	0.0	None	1.3311e-06	12
2014-02-20 14:12:00	1132.5509801801006	13923920571.3648	1.0961111993550201e+23	23790462009039.664	74.07924649531567	4279378035354.76	2.355962451800842e+22	-1.1384600345415614e+25	2303.665866304437	-0.6156639012468557	24.2909367868046	5.297532656023222	29.02287453824848	102.97894902132471	102.70406323102615	40.70913139712236	-0.0020676355502767573	-1.083211670987632e+22	-0.0930224294408726	-0.0065858827263449065	-3.5872104390051594e+24	0.0005857863280241699	0.19399152420494886	3.3841879991617496	293.179474	243.338181	-20.502577	37.180958	-5.947278	59.545887	0.0	11977.0	True	0.0	None	0.0	None	0.0	None	0.0	None	0.0	None	0.0	None	0.0	None	0.0	None	1.2277e-06	12
2014-02-20 14:24:00	1127.1031126501343	13927965156.3583	1.0877358090132412e+23	23744111909335.99	86.18031634214891	5404401456509.347	2.3591900399659787e+22	-1.144193335671455e+25	2284.023668072729	-0.618584739007489	24.199697203935052	5.044617958728388	28.91966940512319	103.05107598722392	102.82370426750308	40.69232101122096	-0.0024032436235958982	-8.513168982486081e+21	-0.12645921457587042	-0.007645659744471401	-3.584956977833944e+24	0.0004602470796657324	0.1938133711629352	3.3681500055621614	293.181976	243.228165	-20.497543	37.298031	-5.948839	59.634602	0.0	11977.0	True	0.0	None	0.0	None	0.0	None	0.0	None	0.0	None	0.0	None	0.0	None	0.0	None	1.2195e-06	12
