Timestamp	TOTUSJH	TOTBSQ	TOTPOT	TOTUSJZ	ABSNJZH	SAVNCPP	USFLUX	TOTFZ	MEANPOT	EPSZ	MEANSHR	SHRGT45	MEANGAM	MEANGBT	MEANGBZ	MEANGBH	MEANJZH	TOTFY	MEANJZD	MEANALP	TOTFX	EPSY	EPSX	R_VALUE	CRVAL1	CRLN_OBS	LAT_MIN	LON_MIN	LAT_MAX	LON_MAX	QUALITY	NOAA_AR	IS_TMFI	BFLARE	BFLARE_label	CFLARE	CFLARE_label	MFLARE	MFLARE_label	XFLARE	XFLARE_label	BFLARE_loc	BFLARE_label_loc	CFLARE_loc	CFLARE_label_loc	MFLARE_loc	MFLARE_label_loc	XFLARE_loc	XFLARE_label_loc	XR_MAX	XR_QUAL
2014-02-15 10:12:00	36.01579494089747	281980332.8414	2.106072933917153e+21	897761345642.6072	7.362711357094056	536694354302.3806	5.8007511787692674e+20	-2.306289186413301e+23	1585.8458569428547	-0.615860725060125	23.37739803847187	2.0	29.220036887047105	123.46049009708315	123.45394240183556	47.66816785818321	0.007362711357094057	-5.859924483691133e+22	1.0053141192987298	0.03231804093390634	1.0024948755414349e+23	0.1564806947274505	-0.2677015634280333	0.0	275.429565	311.377472	-22.368572	-35.97166400000001	-19.116409	-30.936424	0.0		True	0.0	None	0.0	None	0.0	None	0.0	None	0.0	None	0.0	None	0.0	None	0.0	None	9.2458e-07	12
2014-02-15 10:24:00	39.366922090075605	290611731.8914	2.271417632347087e+21	988675503921.2598	6.390130928474196	568392196952.9895	5.946302198340745e+20	-2.34149846147598e+23	1662.1457771809626	-0.6066919419443355	24.19076914158146	3.401360544217688	29.432028708632497	126.72151125411108	126.67278076985045	50.21490764660485	0.006210039774999219	-6.580817444087382e+22	1.0759314552047166	0.027371209832587243	1.0042832728999823e+23	0.17051170352756986	-0.2602139523567453	0.0	275.430969	311.2680660000001	-22.372047	-35.862007	-19.115076	-30.819899	0.0		True	0.0	None	0.0	None	0.0	None	0.0	None	0.0	None	0.0	None	0.0	None	0.0	None	7.9984e-07	12
2014-02-15 10:36:00	40.402328503751356	288640232.2408	2.282708996109096e+21	1002195758020.1827	10.577856540398573	910253159537.5646	5.939843809943746e+20	-2.3170639640228524e+23	1651.1527549252914	-0.6044614244636751	24.74167921575805	3.6503362151777137	29.50470195406314	122.90540826412456	122.51289065090721	50.089093606330366	0.010161245475887195	-7.096827074777073e+22	1.7032187602968258	0.045681622765566254	9.830902481232769e+22	0.18513766859264044	-0.25646254958159753	0.0	275.432281	311.15863	-22.3722	-35.749096	-19.11998	-30.68969	67584.0		False	0.0	None	0.0	None	0.0	None	0.0	None	0.0	None	0.0	None	0.0	None	0.0	None	8.022799999999998e-07	12
2014-02-15 10:48:00	40.84498854903102	283025541.27540004	2.240278161589863e+21	1041999669398.3638	10.767654768535152	943982986839.3359	5.841497308823068e+20	-2.2571443142654465e+23	1611.17505314269	-0.6005112705726412	25.05105024938143	4.297994269340974	30.23260605521369	121.375427535581	122.84163118554649	48.55197006201434	0.0102842929976458	-6.64342040928348e+22	1.7562409234335856	0.04754082917087748	9.594249469293556e+22	0.1767476189144488	-0.2552541679583009	0.0	275.433624	311.049164	-22.356829	-35.640312	-19.123091	-30.585546	67584.0		False	0.0	None	0.0	None	0.0	None	0.0	None	0.0	None	0.0	None	0.0	None	0.0	None	1.0671e-06	12
2014-02-15 11:00:00	39.6825932318087	275544934.85440004	2.3129761476484897e+21	1023978428030.6708	7.5017174375769065	558050781027.0499	5.757395785141311e+20	-2.1960132922005057e+23	1684.3722030711795	-0.6001087825852282	25.593809451053428	4.35203094777563	29.961875815792126	126.84608532595198	127.40568315064598	49.654657140570066	0.007255045877733951	-6.717983803443642e+22	0.9876663628399952	0.034028966278584295	9.478627275921107e+22	0.1835836374957492	-0.25902427345657403	0.0	275.434875	310.939667	-22.362007	-35.533043	-19.12138	-30.475985	0.0		True	0.0	None	0.0	None	0.0	None	0.0	None	0.0	None	0.0	None	0.0	None	0.0	None	1.2317e-06	12
2014-02-15 11:12:00	39.45865662898589	272016265.9261	2.2255045350756883e+21	1010029248153.4176	7.235790173191662	689973946711.2926	5.708711766527472e+20	-2.1824554411083142e+23	1646.1455402501929	-0.6041406174164085	25.51867825187257	4.616895874263261	29.775727963804464	119.79484483037035	120.80515517355863	47.642508635371286	0.007107848893115583	-6.69250018701025e+22	1.3202861213971493	0.033164896791538584	9.353839496386631e+22	0.1852597362989708	-0.2589301143161598	0.0	275.436127	310.8301390000001	-22.364195	-35.424706	-19.121204	-30.37528	0.0		True	0.0	None	0.0	None	0.0	None	0.0	None	0.0	None	0.0	None	0.0	None	0.0	None	1.193e-06	12
2014-02-15 11:24:00	36.662359617414936	262443348.4096	2.1749643254662305e+21	934895259575.31	6.208357426979027	538137653762.7545	5.480034135665615e+20	-2.1320630720158903e+23	1711.305870623234	-0.6117189270106398	25.56529499227029	3.657262277951933	29.224226257452077	121.755266895127	123.35594069172056	47.73341709236961	0.006487311835923746	-6.493010196091224e+22	0.8948156084827964	0.029354982895700595	9.020095019911302e+22	0.1862936083999894	-0.2587992315770024	0.0	275.43734700000005	310.720551	-22.346416	-35.323521	-19.119781	-30.262390000000003	0.0		True	0.0	None	0.0	None	0.0	None	0.0	None	0.0	None	0.0	None	0.0	None	0.0	None	1.0052e-06	12
2014-02-15 11:36:00	38.69584547995167	266730144.50000003	2.204669667735836e+21	936181111160.9236	8.493633862823376	705324757860.5879	5.483749030262655e+20	-2.172306448229168e+23	1792.7510432018582	-0.6132484153443706	24.83665973356	4.211663066954643	28.73389523684135	122.18440690206495	125.22091893886551	47.46595702153247	0.0091723907805868	-6.551684208427159e+22	1.4838130474930198	0.039477549254164114	9.299127503266749e+22	0.184955946797007	-0.2625170684418086	0.0	275.438507	310.61096200000014	-22.349983	-35.224415	-19.123302	-30.136816	0.0		True	0.0	None	0.0	None	0.0	None	0.0	None	0.0	None	0.0	None	0.0	None	0.0	None	9.2675e-07	12
2014-02-15 11:48:00	35.50098332762022	253430307.1587	2.0801777892438253e+21	861875393578.3032	3.706657994011026	251738826302.49524	5.2151420827004784e+20	-2.049244703417632e+23	1779.939496175661	-0.6088674095741546	24.89138241696745	3.4090909090909087	28.999527470953602	122.4864673542834	125.29873311003807	47.166045276120606	0.0042121113568307144	-6.13237151291337e+22	0.5572859209025378	0.018181667351300244	8.87712433693101e+22	0.18220377251125008	-0.2637553089916828	0.0	275.439697	310.501343	-22.350021	-35.109665	-19.127989000000003	-30.027702	0.0		True	0.0	None	0.0	None	0.0	None	0.0	None	0.0	None	0.0	None	0.0	None	0.0	None	9.1589e-07	12
2014-02-15 12:00:00	35.361462080046365	249294829.4016	2.0580497813995648e+21	865789983931.7878	2.3034403120773455	396231713034.8397	5.175630577836303e+20	-2.012343310093462e+23	1753.0373667354108	-0.6078219313361639	24.65804990929205	2.4886877828054303	29.38745358736762	120.43385021020764	123.72011101305887	44.962010585386324	0.0026057017104947357	-6.224036916229208e+22	0.8732073544827496	0.011493591021119505	8.601682633035267e+22	0.187995066257075	-0.2598111030323853	0.0	275.440857	310.3916930000001	-22.335785	-35.001995	-19.134832	-29.917812	0.0		True	0.0	None	0.0	None	0.0	None	0.0	None	0.0	None	0.0	None	0.0	None	0.0	None	9.0932e-07	12
2014-02-15 12:12:00	35.85684454187511	252860561.57470003	2.061654710946336e+21	876959535556.3977	6.457959077838518	690584876624.6504	5.347267914104821e+20	-2.074550120312476e+23	1704.060535345419	-0.6177749560006107	24.40257036200776	2.8540065861690453	28.56083474197329	118.31833465188544	121.28342183285842	42.58556120607014	0.007088868362062037	-6.221770078081417e+22	1.4080339011613758	0.0315737436237391	8.78820204675587e+22	0.18527649433958807	-0.26170161326067803	0.0	275.44189500000005	310.282013	-22.338955	-34.88763400000001	-19.133398	-29.78936	0.0		True	0.0	None	0.0	None	0.0	None	0.0	None	0.0	None	0.0	None	0.0	None	0.0	None	9.2937e-07	12
2014-02-15 12:24:00	38.51009317984116	263441100.81840003	2.1793076349964305e+21	922853690373.7338	5.264915601765479	596372651927.1595	5.5352770657601926e+20	-2.0931825308438512e+23	1742.0281175108676	-0.5982891019425601	24.176295226598764	2.123142250530785	29.008611277129113	119.132455422581	121.52344811370493	45.30210438132577	0.0055890823797935035	-6.695415242950272e+22	1.2334100444301233	0.025008206035207016	9.387363319373232e+22	0.19137337111361905	-0.26831664640790537	0.0	275.442963	310.172272	-22.45134	-34.772984	-19.139666	-29.634209	0.0		True	0.0	None	0.0	None	0.0	None	0.0	None	0.0	None	0.0	None	0.0	None	0.0	None	8.666800000000002e-07	12
2014-02-15 12:36:00	41.81767650622754	274281568.47959995	2.2927815438309568e+21	1006644042142.0197	5.4465404524142835	585330686851.3018	5.7833177391784e+20	-2.21824938746352e+23	1763.4673624991606	-0.6089774158522182	24.19121878209039	3.0643513789581207	28.8344133767605	122.15853975220357	125.08175976635151	44.778969390132026	0.0055633712486356296	-6.9726578330976255e+22	1.16484900816429	0.0246833531425424	9.56336557410608e+22	0.19142081917474887	-0.2625436836400325	0.0	275.444031	310.062531	-22.60857	-34.659336	-19.129391	-29.404861	0.0		True	0.0	None	0.0	None	0.0	None	0.0	None	0.0	None	0.0	None	0.0	None	0.0	None	8.705800000000002e-07	12
2014-02-15 12:48:00	43.67394623070214	276788464.2012	2.2689044419317562e+21	1041532331526.4158	6.079380110231832	663065200191.3025	5.760308868552001e+20	-2.228494674340373e+23	1770.4202196786248	-0.6062490674323142	24.002746264560713	2.4870466321243523	28.657812597553054	123.81168365948638	127.37041814459934	45.81378626251038	0.006299875761898273	-6.9143511635493835e+22	1.3387226003345725	0.027348179358100886	9.756846559761554e+22	0.1881009182147638	-0.2654293589320096	0.0	275.444977	309.952728	-22.697865	-34.546227	-19.133701	-29.254967	0.0		True	0.0	None	0.0	None	0.0	None	0.0	None	0.0	None	0.0	None	0.0	None	0.0	None	8.656e-07	12
2014-02-15 13:00:00	42.640660164138176	285726261.3542	2.465882857235501e+21	1014635064790.3706	7.5299383674872615	788047380274.9183	5.911278021293592e+20	-2.2497766697878484e+23	1875.533064236994	-0.5928935534042393	24.449771957873	2.9292929292929286	28.99725468025807	128.53114327351213	129.83615868650122	48.43209733617133	0.007605998350997234	-6.970364143952685e+22	1.5509205788099836	0.033089065646929136	1.0572730116252398e+23	0.18369307590958853	-0.2786278127953035	0.0	275.445984	309.842926	-22.742485	-34.439323	-19.138136	-29.041311	0.0		True	0.0	None	0.0	None	0.0	None	0.0	None	0.0	None	0.0	None	0.0	None	0.0	None	8.183800000000002e-07	12
2014-02-15 13:12:00	41.71720984957797	273821284.33430004	2.3028780559442106e+21	981326403449.4534	7.716828418903224	755741783486.0671	5.636502109032144e+20	-2.189112381304346e+23	1840.8037267473005	-0.6019886463108368	24.344877297009372	3.07855626326964	29.1049634587853	127.16268973584805	129.21812249474576	47.20637138682993	0.008191962228135057	-7.1094140132908566e+22	1.5631683732396418	0.035183756201597916	9.662842439324903e+22	0.19550328043799275	-0.265720549079266	0.0	275.446869	309.733063	-22.748856	-34.332390000000004	-19.144293	-28.896433	0.0		True	0.0	None	0.0	None	0.0	None	0.0	None	0.0	None	0.0	None	0.0	None	0.0	None	8.1503e-07	12
2014-02-15 13:24:00	43.047995772021764	272391600.83050007	2.2442129546400776e+21	999728848243.2164	8.399877571232448	806350469553.5863	5.6059810587828185e+20	-2.157248884448535e+23	1786.3246471669006	-0.5963400851642985	24.09805957513452	2.9598308668076108	29.25692788207516	127.13307532313937	129.26405400143943	48.528162477723995	0.008879363183120981	-6.931906268457346e+22	1.6608363774108572	0.038635258350455816	9.546259262277232e+22	0.1916224689827349	-0.2638924559194825	0.0	275.447815	309.623199	-22.756453	-34.217579	-19.149435	-28.780918	0.0		True	0.0	None	0.0	None	0.0	None	0.0	None	0.0	None	0.0	None	0.0	None	0.0	None	8.160300000000002e-07	12
2014-02-15 13:36:00	40.21923562055794	276112651.31880003	2.3101364238207028e+21	961743785925.3104	6.087030871937972	637511494662.5724	5.798625588914395e+20	-2.2199910831089233e+23	1757.0733144398143	-0.6054138802028092	23.84332247209767	3.1313131313131315	28.92405754820755	124.30004138573143	126.59039386736895	45.564965635039776	0.0061485160322605785	-7.1779277707131184e+22	1.2547519535288905	0.02746389818145114	9.624401344918264e+22	0.19574930442500849	-0.26246709760186065	0.0	275.448669	309.513275	-22.76437	-34.10429	-19.148964000000007	-28.666859	0.0		True	0.0	None	0.0	None	0.0	None	0.0	None	0.0	None	0.0	None	0.0	None	0.0	None	8.735500000000002e-07	12
2014-02-15 13:48:00	37.13746647379819	258458838.67780003	2.057477794334207e+21	870280880954.7119	7.30851761395737	636157981301.3461	5.3746398273429314e+20	-2.086082968106377e+23	1725.2270707663545	-0.6077537297102006	23.48216568598036	1.893095768374165	28.639324239654297	126.81306170913521	128.9930709684599	45.988513913414536	0.008138661040041616	-6.801392520058791e+22	1.3803989247417965	0.035176156053776025	9.015525056293305e+22	0.19814991706878285	-0.26265585127861585	0.0	275.449463	309.40332	-22.77063900000001	-33.990055	-19.146177	-28.558268	0.0		True	0.0	None	0.0	None	0.0	None	0.0	None	0.0	None	0.0	None	0.0	None	0.0	None	1.0282e-06	12
2014-02-15 14:00:00	39.77837590968526	263562328.62970003	2.0872769214830522e+21	933149859712.3124	4.66172374194149	443483959955.1224	5.5159089056670247e+20	-2.1519240134318043e+23	1695.4610437948666	-0.6147960582445717	23.556677728079624	1.51024811218986	28.382517483857175	124.02839949358368	125.42478904887295	46.98451368164624	0.005028828200584132	-6.870274660615863e+22	0.9322342711801372	0.021906626932632345	9.092677362120846e+22	0.1962809910591693	-0.2597741447295161	0.0	275.450317	309.293365	-22.777737	-33.876461	-19.144251	-28.443991	0.0		True	0.0	None	0.0	None	0.0	None	0.0	None	0.0	None	0.0	None	0.0	None	0.0	None	1.2617e-06	12
2014-02-15 14:12:00	37.415876440776024	258458710.6437	2.072226556971513e+21	877812443185.7784	6.0341117934590045	450059689808.3204	5.266946574566492e+20	-2.075594613400908e+23	1779.2018834197809	-0.6046985807568859	24.082859997481705	2.7366020524515395	29.270913708677174	124.52335768695812	126.2258140320302	46.78129802339293	0.00688040113279248	-6.602849571335408e+22	1.000019155650718	0.029097702934263663	9.132880203875916e+22	0.19236577985696107	-0.26607506407320336	0.0	275.451111	309.18335	-22.785486	-33.764435	-19.149574	-28.314157	0.0		True	0.0	None	0.0	None	0.0	None	0.0	None	0.0	None	0.0	None	0.0	None	0.0	None	1.3776e-06	12
2014-02-15 14:24:00	39.74544971499231	260906348.5507	2.036376600815113e+21	923816768733.9388	10.015488932434524	864717799863.7278	5.296837821814465e+20	-2.1200563464194563e+23	1756.4321783451542	-0.611857499342063	23.64991507093169	2.9782359679266888	28.523733245119285	125.93679163721222	128.7065946185783	46.776422782412865	0.011472495913441606	-6.574405187216699e+22	1.930227907820118	0.04763112728612622	8.986920676240112e+22	0.1897401983822566	-0.25936644660584074	0.0	275.451813	309.0733029999999	-22.792356	-33.652039	-19.154047	-28.20722	0.0		True	0.0	None	0.0	None	0.0	None	0.0	None	0.0	None	0.0	None	0.0	None	0.0	None	1.2212999999999999e-06	12
2014-02-15 14:36:00	38.389931128334645	263974131.1342	2.05108946952248e+21	917607975287.6136	5.907722248866597	551211852020.9951	5.419182204544154e+20	-2.1372528632157267e+23	1689.7632511142367	-0.609651982164058	23.475806210544725	2.297592997811816	28.99657887843987	123.3327277670281	125.81502638894092	48.52067151042918	0.006463591081910939	-6.731625265014447e+22	1.1752527153591021	0.027807164538011117	9.136701478391089e+22	0.19201980058769827	-0.2606246674229005	0.0	275.45254500000004	308.963257	-22.80077	-33.539288	-19.144999	-28.093679	0.0		True	0.0	None	0.0	None	0.0	None	0.0	None	0.0	None	0.0	None	0.0	None	0.0	None	1.0992e-06	12
2014-02-15 14:48:00	40.29878510519949	266432160.0029	2.2560880815819983e+21	984887621214.6678	3.8822505444727184	539943124416.5687	5.6287791554460654e+20	-2.135223639599696e+23	1735.245418653971	-0.6034541389003113	24.562939591408853	3.166496424923392	28.900337152073305	120.73210082071111	123.01041518553644	47.47300907640602	0.003965526603138629	-7.378309392113015e+22	1.0748174576816805	0.018174830384531188	9.13596216922628e+22	0.20852482420025886	-0.2581993792879629	0.0	275.45324700000003	308.8531490000001	-22.806868	-33.424358000000005	-19.150845	-27.984322	0.0		True	0.0	None	0.0	None	0.0	None	0.0	None	0.0	None	0.0	None	0.0	None	0.0	None	9.3914e-07	12
2014-02-15 15:00:00	37.92417426836433	258144523.6614	2.1157459810221946e+21	910101394382.7056	5.7207219017089335	724846865132.2368	5.3775210187626525e+20	-2.06231277183339e+23	1735.4346136506424	-0.6015601057781426	23.90072526007456	4.030501089324619	28.887586637083444	124.66338320991942	126.09163742017395	49.566003169601096	0.006231723204475964	-7.21459169994877e+22	1.5388029538536476	0.027674174394103784	8.615079181712594e+22	0.21044385727723705	-0.2512949546072435	0.0	275.453888	308.743042	-22.811085	-33.304882	-19.157045	-27.87149	0.0		True	0.0	None	0.0	None	0.0	None	0.0	None	0.0	None	0.0	None	0.0	None	0.0	None	1.1952e-06	12
2014-02-15 15:12:00	40.94400442740871	263720555.223	2.185479908332516e+21	997769117834.9016	7.403031927421987	787665313179.9225	5.5227284605995686e+20	-2.0815627764631792e+23	1719.5800460104815	-0.5943373835500336	24.11353566576648	3.2392894461859982	29.33694205328605	124.7854161209125	127.75006988137359	48.39812141074229	0.007735665545895494	-7.092363546842413e+22	1.5603727675090258	0.0352140038367364	8.929995166910558e+22	0.20250442798454413	-0.2549733317019637	0.0	275.454559	308.632904	-22.817865	-33.19399600000001	-19.155033	-27.759825	0.0		True	0.0	None	0.0	None	0.0	None	0.0	None	0.0	None	0.0	None	0.0	None	0.0	None	1.121e-06	12
2014-02-15 15:24:00	41.496741216310355	262669236.8767	2.1350341178933799e+21	1011687688815.3575	4.3353153808134	500062548312.7338	5.584739892367864e+20	-2.077728090928665e+23	1637.1210230119634	-0.5956168192019362	23.84685407326253	3.4623217922606933	29.207284867030054	121.02389638210586	124.27724098053228	46.55412021482318	0.004414781446856823	-7.02474827736782e+22	0.9924574863731032	0.02068773166011072	9.050362967359072e+22	0.2013766018242545	-0.25944436265633	0.0	275.45513900000003	308.522736	-22.82258	-33.080856	-19.159609	-27.646944	0.0		True	0.0	None	0.0	None	0.0	None	0.0	None	0.0	None	0.0	None	0.0	None	0.0	None	8.931e-07	12
2014-02-15 15:36:00	44.63606463156263	277869760.84730005	2.345686549136417e+21	1113755979853.914	5.4074854718873295	673985819471.417	5.986823607279468e+20	-2.203037680076192e+23	1630.9062409367373	-0.5969914506143783	24.63956082059709	4.43213296398892	29.57962972751401	123.60428699944045	125.88033643482576	47.42303488905071	0.004993061377550628	-7.61002980604369e+22	1.2129160897616331	0.02437145616357418	9.32677629599929e+22	0.2062208365392804	-0.2527421914232464	0.0	275.45575	308.412537	-22.826473	-32.961277	-19.165495	-27.533815	0.0		True	0.0	None	0.0	None	0.0	None	0.0	None	0.0	None	0.0	None	0.0	None	0.0	None	8.3104e-07	12
2014-02-15 15:48:00	43.09237288331062	276697884.64500004	2.356593368501128e+21	1071935127512.7144	7.48717977893913	793400700007.538	5.861688933920935e+20	-2.201299268579224e+23	1714.4773177877692	-0.5990467174321249	24.563627682462286	4.63768115942029	29.375170518740163	129.12110798303067	129.82390881028894	50.360985421589746	0.007233990124578871	-7.21973593363038e+22	1.4912153155625942	0.033843967228280585	9.702876849666589e+22	0.19647301816256352	-0.2640475381701485	0.0	275.456329	308.302338	-22.809498	-32.848419	-19.165981	-27.426182	0.0		True	0.0	None	0.0	None	0.0	None	0.0	None	0.0	None	0.0	None	0.0	None	0.0	None	8.046300000000002e-07	12
2014-02-15 16:00:00	43.080348194273405	273974922.3019	2.3364881719912188e+21	1080760810498.8217	7.4542546529483555	804017632598.1475	5.8514467924901744e+20	-2.1763493768008908e+23	1693.3061338250684	-0.5981433038893995	24.785540909397863	3.1761308950914344	29.243520295796394	127.38106611634731	128.7357945014599	49.41229562602486	0.007174451061547985	-6.9483039062319346e+22	1.5082598055302752	0.034049260870264504	9.329590099128328e+22	0.19096572908759674	-0.2564125000016938	0.0	275.456818	308.192078	-22.816286	-32.729832	-19.16135	-27.313856	0.0		True	0.0	None	0.0	None	0.0	None	0.0	None	0.0	None	0.0	None	0.0	None	0.0	None	7.933199999999998e-07	12
2014-02-15 16:12:00	48.458059853156435	292959778.9574	2.5581766579276994e+21	1212381240870.6057	7.269920775959963	838331097695.4319	6.327850186981746e+20	-2.324750156317733e+23	1659.1506259983198	-0.5975245993971565	25.10412317676837	5.943152454780361	29.799950273796224	126.57183446953844	126.93666417387304	49.035219761218045	0.006261775000826841	-7.4602848935119524e+22	1.4074009398989256	0.031067343565966486	1.023897018140728e+23	0.19174979858674912	-0.2631696373590281	0.0	275.457397	308.081848	-22.820454	-32.617241	-19.167442	-27.20043	0.0		True	0.0	None	0.0	None	0.0	None	0.0	None	0.0	None	0.0	None	0.0	None	0.0	None	7.0068e-07	12
2014-02-15 16:24:00	43.45876824171229	277896885.09180003	2.3551525805528218e+21	1072090880515.23	7.416422358154076	625352835481.7621	5.889545719152035e+20	-2.216879776216116e+23	1693.791338232864	-0.6006839160829645	24.73952810384825	4.871060171919772	29.160130982833515	130.7755601407415	130.71787968599875	50.80789686468276	0.007083497954301888	-6.498637572428055e+22	1.1641818725262298	0.03334534308746707	1.0089989547532716e+23	0.17608654777269364	-0.2733975247405242	0.0	275.457916	307.971558	-22.826103	-32.50602	-19.172844	-27.082455	0.0		True	0.0	None	0.0	None	0.0	None	0.0	None	0.0	None	0.0	None	0.0	None	0.0	None	7.569e-07	12
2014-02-15 16:36:00	42.915496834107984	275251524.6867	2.2271665599992764e+21	1060986470087.8176	7.938940096333418	807805909496.2129	5.840341804640423e+20	-2.216562955103473e+23	1614.0783885946262	-0.6063701449460662	23.61950336740777	3.4648700673724733	29.04925547972043	129.7532655210605	129.515750182139	49.52304970172534	0.007640943307346889	-6.129280990700531e+22	1.508611891630813	0.03591014537779065	1.0112446457429596e+23	0.1676745970236948	-0.2766393623078786	0.0	275.45837400000005	307.861267	-22.80669	-32.387909	-19.17123	-26.970659	0.0		True	0.0	None	0.0	None	0.0	None	0.0	None	0.0	None	0.0	None	0.0	None	0.0	None	8.190100000000002e-07	12
2014-02-15 16:48:00	41.174467654635755	279093726.5746	2.1707707182062017e+21	1015415940358.568	8.887690126249858	823709384080.229	6.026732309067821e+20	-2.303156210026052e+23	1512.0832168949546	-0.6213849814923902	23.13663316931828	2.127659574468085	28.650352042210326	129.0193654909084	128.43138462114786	48.5566772019419	0.008221729996530858	-5.91467762694572e+22	1.4852686170283818	0.0392810130325596	1.0148402808993116e+23	0.1595763166976654	-0.2738010155017743	0.0	275.458862	307.750977	-22.812243	-32.277657	-19.17663	-26.859507	0.0		True	0.0	None	0.0	None	0.0	None	0.0	None	0.0	None	0.0	None	0.0	None	0.0	None	8.142700000000002e-07	12
2014-02-15 17:00:00	38.94711773883565	265478703.7578	1.912912011003724e+21	956948576208.9441	6.915179149165563	717704954550.3191	5.720758382990545e+20	-2.2182284620030883e+23	1420.5104319366446	-0.6291641571226879	22.177455640837827	1.6765285996055226	28.23700801806347	126.23172861383804	126.1872599380381	47.34209364275962	0.0068197033029246176	-5.4667308035070965e+22	1.3796569466018382	0.0319770868300816	9.549135951023196e+22	0.1550548618918762	-0.27084559479730924	0.0	275.459351	307.640656	-22.817554	-32.159690999999995	-19.181801	-26.747618	67584.0		False	0.0	None	0.0	None	0.0	None	0.0	None	0.0	None	0.0	None	0.0	None	0.0	None	1.1075e-06	12
2014-02-15 17:12:00	38.38040197975868	272636595.4759	1.982708775138936e+21	934681785858.9641	5.9977373150490045	473264453512.8738	5.7199403996857375e+20	-2.273243173774906e+23	1518.773052965594	-0.6278403418906797	22.275422879063285	2.034587995930824	28.08159065641484	133.32762983900506	132.70452038911407	49.38274072415511	0.00610146217197254	-5.548885890157319e+22	0.9384681693608832	0.027028471069841485	1.0000639226801895e+23	0.1532530463339556	-0.27620471156432314	0.0	275.459778	307.530334	-22.820904	-32.049171	-19.183025	-26.636106	67584.0		False	0.0	None	0.0	None	0.0	None	0.0	None	0.0	None	0.0	None	0.0	None	0.0	None	8.8369e-07	12
2014-02-15 17:24:00	40.161101156256436	273953618.436	2.059309035024844e+21	966067919971.6716	5.044885718400479	427054971564.3439	5.8080941944988887e+20	-2.237254995360752e+23	1511.3381672267005	-0.6149303544079874	22.669584559799727	2.729044834307992	28.993906612480675	128.82927645537544	128.10530144938664	48.90612110835823	0.004917042610526781	-5.0839457187765084e+22	0.8113552599417106	0.02280607192090048	1.0530658336669774e+23	0.13973697898187526	-0.2894449437612538	0.0	275.460236	307.419983	-22.805544	-31.932632	-19.185877	-26.525558	0.0		True	0.0	None	0.0	None	0.0	None	0.0	None	0.0	None	0.0	None	0.0	None	0.0	None	8.369199999999998e-07	12
2014-02-15 17:36:00	38.17060978747125	277285921.00450003	2.075442523871677e+21	922383913756.687	6.5099167541728455	519457316608.458	5.907169249584832e+20	-2.27612539049068e+23	1499.7901410249344	-0.6180959057929182	22.311681118442632	2.399232245681382	28.856780032115324	130.12736098014136	129.08772418429464	49.07430228423114	0.006247520877325189	-5.442525204903812e+22	0.9717659853217878	0.02901839262849068	1.05156608183598e+23	0.14779513292106494	-0.2855592633731843	0.0	275.460632	307.309631	-22.810059	-31.81229	-19.192232	-26.413225	0.0		True	0.0	None	0.0	None	0.0	None	0.0	None	0.0	None	0.0	None	0.0	None	0.0	None	7.9197e-07	12
2014-02-15 17:48:00	39.81735627975544	274466468.2762	1.9917231553038896e+21	966212049539.4596	7.667221182326354	600023362955.9749	5.754536565493953e+20	-2.259298609691705e+23	1489.316454375525	-0.6198289074831657	22.29960350496773	1.6881827209533269	29.236897189166818	133.2511416795835	132.34871134176544	49.33477562942378	0.007613923716312169	-5.0767781202777856e+22	1.1615089081394476	0.03449129879784447	1.034769407353864e+23	0.13927923570296052	-0.28388455979471816	0.0	275.46109	307.19928	-22.815056	-31.694851	-19.195026	-26.301895	0.0		True	0.0	None	0.0	None	0.0	None	0.0	None	0.0	None	0.0	None	0.0	None	0.0	None	7.942400000000002e-07	12
2014-02-15 18:00:00	42.471465229451326	273791977.6664	2.0599552949186278e+21	988034881620.7393	8.369695712401315	652881059675.7021	5.670436452962468e+20	-2.281674555821076e+23	1612.3904932461664	-0.6275097614910299	22.417558147675184	3.118503118503119	28.240573101619066	140.61387379892363	139.1854377405993	50.42808571564646	0.00870030739334856	-5.214544729152568e+22	1.3229597047317831	0.03756603371416877	1.026495843955787e+23	0.14341123763363875	-0.28230851791237704	0.0	275.461517	307.0889279999999	-22.795652	-31.584114000000003	-19.199825	-26.190315	66560.0		False	0.0	None	0.0	None	0.0	None	0.0	None	0.0	None	0.0	None	0.0	None	0.0	None	7.5148e-07	12
2014-02-15 18:12:00	40.73757952648555	271645242.408	2.014723512256384e+21	938330847356.736	8.295102865510742	604160250830.817	5.5956076328283885e+20	-2.2628026726376542e+23	1601.9647050203814	-0.6272375465331621	22.24161704120868	2.7455121436114043	28.572073654359606	137.9977979514175	136.88473979913644	50.432669786082116	0.008759348326832886	-5.313536245521755e+22	1.2436348911679398	0.0375317411073485	1.0114499624641392e+23	0.14728855849242622	-0.2803688543276952	0.0	275.46191400000004	306.9785770000001	-22.800152	-31.466948	-19.206165	-26.078287	66560.0		False	0.0	None	0.0	None	0.0	None	0.0	None	0.0	None	0.0	None	0.0	None	0.0	None	7.538800000000002e-07	12
2014-02-15 18:24:00	35.44284201383539	259364284.1561	1.800851363416211e+21	813633165788.6235	9.090452615255414	723936634447.1174	5.188890723805048e+20	-2.1598310339043338e+23	1591.5700872832026	-0.6270426764897925	21.820486072902874	2.3474178403755865	28.475246302145706	140.80959260017798	140.10154884881132	51.093299326172506	0.010669545323069737	-5.44576093863216e+22	1.656358163584066	0.04308304469015757	9.441971378749384e+22	0.1581014653868856	-0.27411954508165803	0.0	275.462372	306.868225	-22.804987	-31.357273	-19.212812	-25.961905	0.0		True	0.0	None	0.0	None	0.0	None	0.0	None	0.0	None	0.0	None	0.0	None	0.0	None	7.1815e-07	12
2014-02-15 18:36:00	37.10432300758032	266470250.9451	1.847530824770736e+21	857577344886.3759	9.332710790300581	713194302880.8048	5.368732180118711e+20	-2.2124968442058305e+23	1573.7178081282611	-0.6252034419490364	21.69777711624106	1.5837104072398192	28.653114707816876	141.48659363770628	140.41817501951613	51.15781980475747	0.01055736514739885	-5.974640114445103e+22	1.5727176033528645	0.04310040380723548	9.406287014480256e+22	0.16883032279752974	-0.2658011934712835	0.0	275.462799	306.7578430000001	-22.785231	-31.246468	-19.21933	-25.855835	0.0		True	0.0	None	0.0	None	0.0	None	0.0	None	0.0	None	0.0	None	0.0	None	0.0	None	7.5054e-07	12
2014-02-15 18:48:00	37.01936589662086	247995816.79870003	1.80648282773494e+21	835434744122.3433	8.694665229523931	690152330028.8673	4.967972774548481e+20	-2.036971867284476e+23	1685.5737380594305	-0.6184835159054346	21.833829998906406	1.4869888475836432	28.370739643665967	140.37018936383922	139.51652667864786	51.70680122149707	0.010774058524812802	-5.653202452612061e+22	1.6671239124221948	0.04332416737526781	9.005999409793475e+22	0.1716475610278243	-0.2734481643399861	0.0	275.463196	306.647491	-22.790167	-31.136845	-19.226067	-25.739628	0.0		True	0.0	None	0.0	None	0.0	None	0.0	None	0.0	None	0.0	None	0.0	None	0.0	None	7.402199999999998e-07	12
2014-02-15 19:00:00	36.04061634942103	248801357.6441	1.7985144815629167e+21	808940676114.0571	9.673226597789512	746894946401.8663	4.9843556485007344e+20	-2.0414952273572388e+23	1680.2210046668338	-0.6178501200511649	21.976491760921093	1.3647642679900744	28.25756751499907	133.89249460298507	132.8318370645484	50.437071753967636	0.012016430556260263	-6.08973470741466e+22	1.8064321124735168	0.04809572334198501	8.692231834134134e+22	0.18430331208398607	-0.2630668154529345	0.0	275.463654	306.53714	-22.79504	-31.028042	-19.232721	-25.629881	0.0		True	0.0	None	0.0	None	0.0	None	0.0	None	0.0	None	0.0	None	0.0	None	0.0	None	8.760899999999998e-07	12
2014-02-15 19:12:00	35.60665373251993	249716125.9033	1.7798728856476592e+21	814536791253.9113	10.25383558033749	867626517756.759	5.0422997463759336e+20	-2.034125124230351e+23	1628.4583591390704	-0.6133644219212833	22.090027842156978	2.187120291616039	28.538177485723327	129.64225871672602	129.48857645467714	49.56426684944165	0.012459095480361473	-6.5057067756362064e+22	2.0550866959724967	0.05090228528628739	8.541615275122447e+22	0.19617126931349946	-0.2575614869061608	0.0	275.464081	306.426788	-22.776011	-30.913418	-19.230213	-25.519453	0.0		True	0.0	None	0.0	None	0.0	None	0.0	None	0.0	None	0.0	None	0.0	None	0.0	None	8.5275e-07	12
2014-02-15 19:24:00	38.18835608418877	250154377.6705	1.8850009127420122e+21	864545867633.4633	8.91878445652759	866761407836.3215	5.0684248895831513e+20	-2.0342691011366928e+23	1695.7957601513287	-0.6123330962701111	22.916591401914786	2.2700119474313025	28.943263739211332	131.14651703744312	131.92830414000574	49.47700949948191	0.010655656459411696	-6.604067434913272e+22	2.0186943399987114	0.0442255036817485	8.398620607675506e+22	0.19878830475955428	-0.2528059516915573	0.0	275.464478	306.316437	-22.778389	-30.804226	-19.232578	-25.409155	0.0		True	0.0	None	0.0	None	0.0	None	0.0	None	0.0	None	0.0	None	0.0	None	0.0	None	9.2403e-07	12
2014-02-15 19:36:00	35.063398711326826	237808895.9706	1.6774329712476836e+21	750938122884.9917	6.642932510599808	508647265010.5034	4.632573728715047e+20	-1.943595775347369e+23	1751.8521049042663	-0.6154111755764305	22.011124136951945	1.3869625520110958	28.445035011587862	133.52912650615815	135.25613408169858	51.68094794664158	0.009213498627738985	-6.540986742731108e+22	1.3752343313434772	0.0345842734277403	7.5457037990329775e+22	0.2071107784773075	-0.23892367458374794	0.0	275.464935	306.2060850000001	-22.783709	-30.69401400000001	-19.237692000000006	-25.297997	0.0		True	0.0	None	0.0	None	0.0	None	0.0	None	0.0	None	0.0	None	0.0	None	0.0	None	7.8509e-07	12
2014-02-15 19:48:00	36.833869552294175	238760404.0267	1.7918741322755623e+21	815923130513.9896	5.0169212427131535	446590062173.8757	4.721149859650072e+20	-1.9422531025084038e+23	1768.3591281443769	-0.6125351637516301	23.371379065654626	3.1454783748361725	29.259209199245372	133.5801471850551	135.69271786269138	52.09569581362497	0.006575257198837686	-7.042011126224668e+22	1.140979415974087	0.026061282267616517	7.112599427379548e+22	0.2220863713782721	-0.22431253935560794	0.0	275.465363	306.0957640000001	-22.788628	-30.583866	-19.24441	-25.18688	0.0		True	0.0	None	0.0	None	0.0	None	0.0	None	0.0	None	0.0	None	0.0	None	0.0	None	8.0282e-07	12
2014-02-15 20:00:00	37.68200112110729	231674806.5913	1.7341063994170571e+21	842408271678.968	2.496072604870597	359166625556.52704	4.723413093894199e+20	-1.901646572657516e+23	1704.647178366515	-0.6180712300561265	22.612384866906236	2.219321148825065	28.34339001506548	129.35609910127687	132.19242120135362	49.84170384101464	0.003258580424113051	-7.086614355476857e+22	0.9140247025791188	0.013317133833373164	6.575045451405103e+22	0.2303284172043585	-0.21370145684567154	0.0	275.465881	305.985474	-22.769365	-30.468267	-19.251587	-25.076923	0.0		True	0.0	None	0.0	None	0.0	None	0.0	None	0.0	None	0.0	None	0.0	None	0.0	None	8.9545e-07	12
2014-02-15 20:12:00	37.4937638540716	229182879.4279	1.703806192577864e+21	863582723709.2834	2.225317483494045	276746518427.774	4.702418044320221e+20	-1.8858397952835122e+23	1661.8445151914138	-0.6195981616295777	22.77889429194987	4.015544041450777	28.699720309857568	130.57718666645772	134.13154649658378	49.19093056545296	0.0028825356003808872	-6.8860609950255665e+22	0.6987990740614782	0.01199036845943403	6.7284107863496e+22	0.22624354115645084	-0.2210638975981568	0.0	275.466339	305.8751529999999	-22.773819	-30.359579	-19.257826	-24.96723900000001	0.0		True	0.0	None	0.0	None	0.0	None	0.0	None	0.0	None	0.0	None	0.0	None	0.0	None	1.1599e-06	12
2014-02-15 20:24:00	34.99590213226074	229051169.1986	1.6265276053400262e+21	809308406231.2213	6.071244456046175	633999787111.5956	4.713775833286951e+20	-1.882598243195181e+23	1568.187199624371	-0.6188888180958756	22.345510318821386	2.0486555697823303	28.61178793359447	124.27636770782848	128.1744544052747	48.89583990899632	0.007773680481493181	-6.728208952611828e+22	1.58241962162999	0.03274599410035267	6.618575060111531e+22	0.22118438183161065	-0.21758025703238631	0.0	275.46679700000004	305.764862	-22.781494	-30.245213	-19.261677	-24.858429	0.0		True	0.0	None	0.0	None	0.0	None	0.0	None	0.0	None	0.0	None	0.0	None	0.0	None	1.1112e-06	12
2014-02-15 20:36:00	36.819921033647226	236576024.8948	1.7262076795166911e+21	848941268626.2318	4.730507157305613	476513550738.8732	4.838073622931798e+20	-1.9152826289202426e+23	1592.9068165124906	-0.6096065499728074	22.92308801801672	2.9411764705882346	29.446674325695238	129.60257969061183	132.39995507480148	51.572964032038826	0.0057971901437568795	-6.802708979688874e+22	1.13831943408409	0.024845471260084327	7.105774746277595e+22	0.21652031344925127	-0.2261664551515425	0.0	275.467346	305.654602	-22.762321	-30.138788	-19.268894	-24.743025	0.0		True	0.0	None	0.0	None	0.0	None	0.0	None	0.0	None	0.0	None	0.0	None	0.0	None	1.0343e-06	12
2014-02-15 20:48:00	35.846431898997025	236738829.25340003	1.7669288315859645e+21	823498689936.8818	6.911800082480515	709762118286.0139	4.838402545477549e+20	-1.9176339744103096e+23	1646.626638809257	-0.6099351476062359	22.669589479114148	3.0940594059405937	29.439546854765297	132.23414360848506	133.9688631872312	52.326357055594215	0.008554208022871925	-6.613352019675484e+22	1.7122821367686711	0.03626964345510682	7.706542878732402e+22	0.2103485802880172	-0.24511932052720745	0.0	275.467896	305.544342	-22.766586	-30.023666	-19.274815	-24.633354	0.0		True	0.0	None	0.0	None	0.0	None	0.0	None	0.0	None	0.0	None	0.0	None	0.0	None	9.8229e-07	12
2014-02-15 21:00:00	33.839237053831155	222428498.7245	1.6399049312246686e+21	766579365148.7972	4.9754685078326855	468832153350.5461	4.504408518530177e+20	-1.8284766962758776e+23	1659.714004396584	-0.6189941168376669	22.662140759770928	2.28494623655914	28.80039970998315	136.19818362563402	138.4146437097277	52.40177829225732	0.006687457671818125	-5.8683226201738e+22	1.228323187621155	0.02763301521736552	7.2692552942792225e+22	0.1986602938386547	-0.2460860600583233	0.0	275.468414	305.434113	-22.770115	-29.908375	-19.279993	-24.52351	0.0		True	0.0	None	0.0	None	0.0	None	0.0	None	0.0	None	0.0	None	0.0	None	0.0	None	8.589e-07	12
2014-02-15 21:12:00	33.675443903308924	213631732.3288	1.5549300810148238e+21	752212502771.7511	4.7728682319430185	493136501491.6204	4.408265925426375e+20	-1.772619279608681e+23	1599.511388553797	-0.6247945875754429	22.348698784740442	2.8688524590163933	28.3890279907006	133.40122482558877	134.7566891519132	52.11697532201879	0.006520311792271885	-5.312201855115436e+22	1.3131608802142385	0.027500792829687943	7.022446326817896e+22	0.18723901998386555	-0.2475199557517768	0.0	275.469025	305.323914	-22.772133	-29.799368	-19.283667	-24.418831	0.0		True	0.0	None	0.0	None	0.0	None	0.0	None	0.0	None	0.0	None	0.0	None	0.0	None	8.5884e-07	12
2014-02-15 21:24:00	31.173315317605386	210300875.4135	1.5158398446830215e+21	723919511410.407	8.868821747797448	709221305983.4777	4.4414198105405686e+20	-1.722551307340335e+23	1499.8788524645822	-0.6167634172956642	22.24375548717204	1.8396846254927728	28.579545933816032	129.70316300879156	131.29576395277314	48.3936508978336	0.01165416786832779	-5.527815405659968e+22	1.816569431893661	0.052168502154431695	6.959550117512494e+22	0.19792468910772787	-0.2491882764261473	0.0	275.469604	305.213715	-22.778666	-29.681076	-19.289846	-24.309788	0.0		True	0.0	None	0.0	None	0.0	None	0.0	None	0.0	None	0.0	None	0.0	None	0.0	None	8.092400000000002e-07	12
2014-02-15 21:36:00	31.77042107866414	209627275.0742	1.5233343813786128e+21	746361659747.9749	8.423016906979466	728053614653.4154	4.511194739638688e+20	-1.7069680709299853e+23	1441.018956479796	-0.6131477320291667	22.25039147632675	1.7587939698492463	28.762433842668727	126.35469914618885	127.18066936781271	48.24483766961875	0.010581679531381241	-5.5230261699492885e+22	1.782779576735806	0.049816789693439695	7.030425023443716e+22	0.19838865340915	-0.2525348441917299	0.0	275.470184	305.103546	-22.758579	-29.566908	-19.29631	-24.200979	0.0		True	0.0	None	0.0	None	0.0	None	0.0	None	0.0	None	0.0	None	0.0	None	0.0	None	1.7541999999999999e-06	12
2014-02-15 21:48:00	28.744909635284184	203773964.0133	1.401485232700697e+21	689891176315.9398	6.721613656239954	588805531745.8911	4.475498257319148e+20	-1.6983518313869213e+23	1330.7695891630185	-0.6275762490361783	21.71455842580952	1.1349306431273645	28.1685218492558	122.03725478985668	121.6993532334444	48.137711648864354	0.008476183677477874	-4.942406576527053e+22	1.4472313952174198	0.040533443884112716	7.090086507157334e+22	0.182632180399018	-0.2619934110984634	0.0	275.470856	304.993408	-22.764538	-29.460979	-19.301943	-24.093996	0.0		True	0.0	None	0.0	None	0.0	None	0.0	None	0.0	None	0.0	None	0.0	None	0.0	None	1.7530000000000004e-06	12
2014-02-15 22:00:00	28.767500646128937	202881744.7125	1.4084367074604514e+21	725639527554.6592	6.9635906283774185	635353751171.5969	4.546287490465031e+20	-1.6667791768661773e+23	1293.3348020433652	-0.6186180337129528	21.592033077124448	0.853658536585366	28.187236982406002	118.75073509505144	118.76137279267084	45.65536719282557	0.008492183693143194	-5.174508104978297e+22	1.5101926483359476	0.04241074310392405	7.032250177574928e+22	0.192049677231504	-0.26099898761683665	0.0	275.471497	304.883301	-22.742659	-29.345022	-19.308516	-23.98867000000001	0.0		True	0.0	None	0.0	None	0.0	None	0.0	None	0.0	None	0.0	None	0.0	None	0.0	None	1.3931e-06	12
