Timestamp	TOTUSJH	TOTBSQ	TOTPOT	TOTUSJZ	ABSNJZH	SAVNCPP	USFLUX	TOTFZ	MEANPOT	EPSZ	MEANSHR	SHRGT45	MEANGAM	MEANGBT	MEANGBZ	MEANGBH	MEANJZH	TOTFY	MEANJZD	MEANALP	TOTFX	EPSY	EPSX	R_VALUE	CRVAL1	CRLN_OBS	LAT_MIN	LON_MIN	LAT_MAX	LON_MAX	QUALITY	NOAA_AR	IS_TMFI	BFLARE	BFLARE_label	CFLARE	CFLARE_label	MFLARE	MFLARE_label	XFLARE	XFLARE_label	BFLARE_loc	BFLARE_label_loc	CFLARE_loc	CFLARE_label_loc	MFLARE_loc	MFLARE_label_loc	XFLARE_loc	XFLARE_label_loc	XR_MAX	XR_QUAL
2014-02-21 12:36:00	49.1704700008939	317463322.7983	1.72994427818916e+21	1186835612187.0005	8.250959059943188	705825308857.9144	6.765564148924281e+20	-2.5888302973460735e+23	1102.0519768821603	-0.6140411336472783	18.61045711976886	1.4382402707275803	29.209318170141948	137.11962748128914	140.98012636072912	55.09046424521053	0.006980506818902866	-7.816271125573909e+22	1.160420973923795	0.032205220117252416	-5.758182545466065e+22	0.18539307067605346	0.13657754784431486	0.0	238.28215	231.047546	-24.19286	1.99842	-17.998993	11.153675	0.0		True	0.0	None	0.0	None	0.0	None	0.0	None	0.0	None	0.0	None	0.0	None	0.0	None	1.0111e-06	12
2014-02-21 12:48:00	53.875918627495935	338088080.7383	2.0047790174161763e+21	1305673164606.1082	8.506082143473815	683178831657.5364	7.326080193220371e+20	-2.7836807540342783e+23	1159.4259867398705	-0.6199791337504991	19.794959504556697	2.5345622119815667	29.028994540092487	132.64758032449737	136.1217528261153	53.74815847203044	0.00653308920389694	-7.98132268088458e+22	1.0196944496452107	0.031061347149017017	-6.301993482110033e+22	0.17775937541353204	0.14035749086088473	0.0	238.283478	230.937775	-24.190737	2.123158	-18.021641	11.274039	0.0		True	0.0	None	0.0	None	0.0	None	0.0	None	0.0	None	0.0	None	0.0	None	0.0	None	9.187600000000001e-07	12
2014-02-21 13:00:00	51.66030435044277	320725672.3791	1.832744894889173e+21	1247211833997.6758	7.240801337805498	575802065183.0432	6.985841791620623e+20	-2.643834299185484e+23	1113.8282464894137	-0.6207089728077311	19.094416461425094	2.340597255851493	28.98094858946725	132.78028547371173	135.60267773288842	54.60969539364029	0.005844068876356333	-7.752526595486576e+22	0.9031490376590644	0.027859791827176524	-5.87047883497564e+22	0.18201075692344248	0.13782478306866133	0.0	238.284653	230.827957	-24.189314000000003	2.219547	-18.019857	11.375227	0.0		True	0.0	None	0.0	None	0.0	None	0.0	None	0.0	None	0.0	None	0.0	None	0.0	None	9.1684e-07	12
2014-02-21 13:12:00	51.02083846472287	308563840.82080007	1.7735432350819554e+21	1263864817660.9258	7.504108227160077	651502522519.3279	6.803221150746971e+20	-2.484746789409785e+23	1076.9800311145593	-0.6063517877075499	19.141646505256976	2.5806451612903225	29.62363169870377	129.13046281482102	132.70124685980497	53.02387481804577	0.0060517001831936115	-6.98583278725583e+22	1.02108738442853	0.03027912995752065	-6.7966764566959136e+22	0.17047500442428415	0.16585902988393875	0.0	238.285919	230.718124	-24.189342	2.316001	-18.019501	11.476632	0.0		True	0.0	None	0.0	None	0.0	None	0.0	None	0.0	None	0.0	None	0.0	None	0.0	None	9.2774e-07	12
2014-02-21 13:24:00	51.304742785486745	311824364.2085	1.7315739728111668e+21	1261108025696.5679	8.202133265846852	500309921977.8334	6.899293018946075e+20	-2.547446343214454e+23	1033.1638297885002	-0.6151520827783706	19.089208458014525	1.9809825673534072	29.32138946401092	131.26007277494722	135.43229372971518	52.077176013891446	0.006504467300433666	-7.10310122415742e+22	0.7704761195939936	0.03260614862931186	-6.618189490114691e+22	0.1715242216529854	0.15981467322796702	0.0	238.287109	230.608261	-24.188236	2.414484	-18.019995	11.577123	0.0		True	0.0	None	0.0	None	0.0	None	0.0	None	0.0	None	0.0	None	0.0	None	0.0	None	1.8727e-06	12
2014-02-21 13:36:00	54.600962790139846	306184586.522	1.734124086448263e+21	1312928819489.4128	6.544069642189371	475108334897.3642	6.604497401404245e+20	-2.486860592141984e+23	1102.8487531524243	-0.6115832809701058	19.24277336848252	2.449324324324324	29.36550567582136	136.7390542049131	140.71136574437358	54.09892743934483	0.005527085846443728	-7.15189493026092e+22	0.7798864069551382	0.0265241716985956	-6.6535277206059285e+22	0.17588357708604174	0.16362743960202644	0.0	238.288254	230.498352	-24.208799	2.538919	-18.04233	11.675154	0.0		True	0.0	None	0.0	None	0.0	None	0.0	None	0.0	None	0.0	None	0.0	None	0.0	None	1.1081e-06	12
2014-02-21 13:48:00	55.665586725035794	323353991.9502	1.8396663744696762e+21	1346764359611.965	10.80962291770593	911581677578.8596	7.030135382197763e+20	-2.6263387664948718e+23	1088.173426907263	-0.6115894242402213	19.19938426328468	2.04241948153967	29.74635174322115	129.91313327060817	132.9777724043988	54.149041690629815	0.0084914555520078	-7.462244862741882e+22	1.3917733461042507	0.04148660576119456	-7.234458805341136e+22	0.1737715673760843	0.16846716622749985	0.0	238.289429	230.388428	-24.211494	2.634303	-18.039785	11.772422	0.0		True	0.0	None	0.0	None	0.0	None	0.0	None	0.0	None	0.0	None	0.0	None	0.0	None	9.127299999999999e-07	12
2014-02-21 14:00:00	55.32169182651978	317848836.0417	1.7416139778898102e+21	1314406949029.4526	10.229194230421767	848908015276.8009	6.853061581741215e+20	-2.566405317721448e+23	1064.458599105672	-0.6079840723819642	18.922339154975976	2.272727272727273	29.70642479661745	133.19791646077707	136.2562757825983	53.74923314463256	0.008302917394822864	-7.630647174472655e+22	1.3392519704555506	0.040028475733438616	-7.0771800509880126e+22	0.18077082026017505	0.16765912689895338	0.0	238.290466	230.278473	-24.210104	2.730352	-18.038591	11.870396	0.0		True	0.0	None	0.0	None	0.0	None	0.0	None	0.0	None	0.0	None	0.0	None	0.0	None	9.1064e-07	12
2014-02-21 14:12:00	55.35305093066506	328125151.0953	1.8703227499352896e+21	1259319629695.3296	8.837058175454723	620913371404.1133	6.892960008921195e+20	-2.743368169293277e+23	1189.4668263602255	-0.6295526476582212	19.202727000388006	2.1114864864864864	28.809538892274126	133.9087265362823	135.90710855556304	55.06510988758447	0.007463731567107028	-8.327381083801965e+22	1.0193008503192356	0.03305443915233585	-6.795749564633195e+22	0.19109811318970896	0.15594998072530553	0.0	238.29159500000003	230.168488	-24.210024	2.856825	-18.039207	11.980386	0.0		True	0.0	None	0.0	None	0.0	None	0.0	None	0.0	None	0.0	None	0.0	None	0.0	None	9.0643e-07	12
2014-02-21 14:24:00	55.63007794335128	338064539.96070004	1.775421664092294e+21	1271449742449.7988	11.913047512067877	783783533774.2439	7.054728157418476e+20	-2.8093014552702576e+23	1110.3566107375284	-0.6257288502476217	18.146758372624852	2.1594684385382057	29.251734183761712	138.8186995694185	142.3969028526728	55.53654509654031	0.009894557734275644	-8.29037091404139e+22	1.2653287581869708	0.04335160064332464	-7.034907384645796e+22	0.1846553081883624	0.15669178190666785	0.0	238.292679	230.058472	-24.206955	2.953313	-18.035263	12.083835	0.0		True	0.0	None	0.0	None	0.0	None	0.0	None	0.0	None	0.0	None	0.0	None	0.0	None	8.76e-07	12
2014-02-21 14:36:00	53.98246763356627	334156884.0801	1.7869032911264547e+21	1230544994965.634	2.336657072314253	18808188469.883118	6.876533860645757e+20	-2.767061801961622e+23	1163.9401314963914	-0.6235278762904535	18.52352349140841	1.9896193771626296	28.75368114088203	142.6514141281701	146.1716934367822	57.389316504833886	0.0020213296473306688	-8.122019425174429e+22	0.031625205295720354	0.008614197270321674	-6.14448684274263e+22	0.18302104852803214	0.13845946011158458	0.0	238.293625	229.948425	-24.205219	3.079679	-18.033192	12.197522	0.0		True	0.0	None	0.0	None	0.0	None	0.0	None	0.0	None	0.0	None	0.0	None	0.0	None	7.9582e-07	12
2014-02-21 14:48:00	52.75266157804297	325302574.18410003	1.8062693597423933e+21	1195710166129.0703	7.8206487289431506	709037360591.1963	6.652904627550587e+20	-2.666167506338032e+23	1224.2099113471381	-0.6171452156633829	18.6281652887708	1.08010801080108	28.80318410216341	140.64470429945186	143.37459912264427	57.168934749746036	0.0070392877848273186	-8.309814689696048e+22	1.2405366693904245	0.029732830503161688	-6.679725765967036e+22	0.1923495941873133	0.15461747203093118	0.0	238.29464700000003	229.838348	-24.2055	3.175641	-18.034166	12.309369	0.0		True	0.0	None	0.0	None	0.0	None	0.0	None	0.0	None	0.0	None	0.0	None	0.0	None	7.8961e-07	12
2014-02-21 15:00:00	50.85829459192457	333849500.545	1.7813929998797554e+21	1135212808883.078	5.754775254753366	409295358480.405	6.817551220245299e+20	-2.68535678573843e+23	1168.4368684718174	-0.6056736272479302	17.941964359672987	1.0452961672473868	29.119172837653288	139.05943790891206	142.0583588587771	57.74666207565339	0.005012870430969831	-8.433355687317202e+22	0.6930419593273904	0.02147090538008857	-6.672648185911939e+22	0.19021163802651989	0.15049944393140566	0.0	238.295609	229.728256	-24.204027	3.274539	-18.032877	12.421075	0.0		True	0.0	None	0.0	None	0.0	None	0.0	None	0.0	None	0.0	None	0.0	None	0.0	None	7.9477e-07	12
2014-02-21 15:12:00	51.06380162252746	334718055.878	1.7857901463813171e+21	1143601237248.864	6.135261457993712	435750106662.6747	6.837740630547046e+20	-2.700572298544796e+23	1172.3426775471305	-0.6075251186638048	18.018858684549933	0.959023539668701	29.04456963129478	140.53388443301142	141.93589145505197	58.25782032126659	0.005348963782034623	-8.644820631509515e+22	0.7384969058275179	0.022804794480701204	-7.24505572591136e+22	0.19447528521325416	0.1629859471631978	0.0	238.296539	229.618134	-24.201374	3.396895	-18.030449	12.537825	0.0		True	0.0	None	0.0	None	0.0	None	0.0	None	0.0	None	0.0	None	0.0	None	0.0	None	7.663500000000002e-07	12
2014-02-21 15:24:00	48.38985470886858	322018547.9678	1.6580033264368212e+21	1068831935637.8868	10.960134277225249	763237839445.8536	6.406098875562239e+20	-2.565896536249903e+23	1192.4116364576755	-0.5999923910585416	17.59921023501231	1.0506208213944603	29.04420625169805	143.17190372374372	145.35003294065203	60.83517919718688	0.010468132069938156	-8.355418847332336e+22	1.4170894306703217	0.04254485676573759	-7.00459933996528e+22	0.19537762578039808	0.16379094975260267	0.0	238.297485	229.50798	-24.199213	3.494311	-18.027884	12.644732	0.0		True	0.0	None	0.0	None	0.0	None	0.0	None	0.0	None	0.0	None	0.0	None	0.0	None	7.528900000000002e-07	12
2014-02-21 15:36:00	49.446416169033654	328661634.7342	1.712541735645442e+21	1135600894448.3662	8.478276959553767	546814803894.6307	6.602661344855901e+20	-2.5877261550897564e+23	1150.3317878171229	-0.5928664488843789	18.45120955568295	1.3380909901873328	30.240895103887482	140.85626491125691	142.18479965110856	59.01949867796931	0.007563137341261165	-8.801947578901942e+22	0.9367059572626744	0.032389871085611206	-7.294635615665696e+22	0.20165887314258912	0.16712528506383748	0.0	238.298309	229.397812	-24.197649	3.591931	-18.027077	12.749162	0.0		True	0.0	None	0.0	None	0.0	None	0.0	None	0.0	None	0.0	None	0.0	None	0.0	None	9.364299999999998e-07	12
2014-02-21 15:48:00	53.04440386733388	335288367.61800003	1.8040980065145444e+21	1199434441136.964	10.146612659562422	683661549660.1075	6.81334957517344e+20	-2.685535422075474e+23	1174.1249973398405	-0.6031147714751317	18.523434959495862	1.5557476231633534	29.592763754138907	139.9458404443948	140.98730225262338	57.460635987932136	0.008769760293485241	-8.937776873469354e+22	1.1487088869278963	0.03775443498376819	-7.506275697896634e+22	0.20072366993291108	0.16857516437699893	0.0	238.299225	229.287628	-24.196634	3.686387	-18.026836	12.864985	0.0		True	0.0	None	0.0	None	0.0	None	0.0	None	0.0	None	0.0	None	0.0	None	0.0	None	8.920100000000002e-07	12
2014-02-21 16:00:00	49.448081255482045	333661432.9545	1.7570778831867743e+21	1101767012723.592	6.292542917948081	333958369707.6856	6.660406446588964e+20	-2.6297188216091025e+23	1203.873278492302	-0.5934590529643334	18.05326398960288	0.6369426751592357	29.761184910845103	143.89070099578498	145.5937957659811	59.433377559483134	0.005725698742445935	-9.564607438762325e+22	0.5907519757072108	0.023670599833400176	-6.942188661209537e+22	0.2158482810382856	0.15666711872489125	0.0	238.300064	229.177414	-24.19541	3.7828230000000014	-18.027552	12.975574	0.0		True	0.0	None	0.0	None	0.0	None	0.0	None	0.0	None	0.0	None	0.0	None	0.0	None	8.9825e-07	12
2014-02-21 16:12:00	54.40891951215697	354057143.81920004	1.8296427847122784e+21	1164835366242.033	9.865002937574085	776530475681.7991	6.987473303045327e+20	-2.808885506295072e+23	1212.7616566861486	-0.5973765319284325	17.676526839222134	0.3521126760563381	29.488240840997246	144.9526657647692	147.3344656858929	60.644488178565766	0.008683981459132116	-9.20515084129976e+22	1.3289198889222598	0.034885628636969236	-7.861168572437137e+22	0.19576949908175026	0.1671865089617492	0.0	238.300903	229.0672	-24.194605	3.911948	-18.053125	13.079337	0.0		True	0.0	None	0.0	None	0.0	None	0.0	None	0.0	None	0.0	None	0.0	None	0.0	None	8.747299999999998e-07	12
2014-02-21 16:24:00	54.33759247508418	360349803.7099	1.9433448759539508e+21	1154861251339.579	10.825923491959676	768165920096.6382	7.019378224421112e+20	-2.8378328403195442e+23	1313.566575225797	-0.5929934831182186	17.986565615221373	0.6283662477558348	29.530213199478677	145.5962209702544	147.1334808156654	62.424211608830824	0.009718064175906354	-9.506370814118566e+22	1.3405901116464845	0.03771869515356178	-7.430900269633176e+22	0.1986451020223864	0.1552760744391735	0.0	238.301758	228.956955	-24.192938	4.007229	-18.052254	13.194901000000002	0.0		True	0.0	None	0.0	None	0.0	None	0.0	None	0.0	None	0.0	None	0.0	None	0.0	None	8.665899999999998e-07	12
2014-02-21 16:36:00	56.843112256142476	363029617.93070006	2.0545930605766952e+21	1244825229739.171	10.286931165801963	791900669420.8085	7.134838042620354e+20	-2.793097337893432e+23	1333.69119006306	-0.5793372679554979	18.282731349303074	0.7758620689655172	30.08648788843722	146.65344369421254	147.8438198490539	63.95707251534772	0.008868044108449966	-9.811144252647823e+22	1.3272297228671532	0.035883837990511834	-8.370624252971024e+22	0.2035003016090069	0.17362139586068692	0.0	238.30249	228.846695	-24.191889	4.101962	-18.051355	13.303226	0.0		True	0.0	None	0.0	None	0.0	None	0.0	None	0.0	None	0.0	None	0.0	None	0.0	None	8.6009e-07	12
2014-02-21 16:48:00	55.807796680531425	361323922.9268	2.223400916831832e+21	1228156745155.498	11.857459031178315	798642619815.1089	7.103609062486117e+20	-2.75047426046444e+23	1442.0259149165634	-0.5731896936687403	19.169100107085868	1.119724375538329	30.288659648923613	142.7933756415036	143.64507275338048	62.2712539184297	0.0102131430070442	-9.932016343456714e+22	1.3373970475701529	0.041719953827623696	-8.665678014436795e+22	0.20697991932698828	0.1805898494642968	0.0	238.303314	228.73642	-24.190039	4.228571	-18.050268	13.407445	0.0		True	0.0	None	0.0	None	0.0	None	0.0	None	0.0	None	0.0	None	0.0	None	0.0	None	1.0758e-06	12
2014-02-21 17:00:00	59.12460730978218	379309511.13030016	2.2481642966517786e+21	1274891580133.6672	10.988875975056178	816196270263.0396	7.289862207450267e+20	-2.915778744567404e+23	1463.1274291975901	-0.5788263556578177	18.37811717513059	0.7778738115816767	30.193064697868408	149.6988817687376	150.8238961799491	65.32913419548278	0.009497732044128071	-9.898984137878018e+22	1.3715367925897266	0.036699079157069	-8.983919666324554e+22	0.1965098663236388	0.17834444707678768	0.0	238.304077	228.626129	-24.188515	4.324596	-18.050179	13.521412	0.0		True	0.0	None	0.0	None	0.0	None	0.0	None	0.0	None	0.0	None	0.0	None	0.0	None	1.3388e-06	12
2014-02-21 17:12:00	55.622171492104435	351083302.64180005	2.000121885938301e+21	1212159948039.6443	6.189429198053531	472975213808.3456	6.714813555657513e+20	-2.642522008437841e+23	1414.1464066122421	-0.5667557800457743	18.008841019263265	0.7511737089201878	30.61792865620728	151.36951430027833	154.19495818353118	64.90374445011814	0.0058116706085009715	-8.813790386641857e+22	0.8634569141367309	0.022504486837795986	-8.951405842136915e+22	0.1890340602572376	0.1919855722815996	0.0	238.304825	228.515823	-24.186403	4.450742	-18.04888	13.630363	0.0		True	0.0	None	0.0	None	0.0	None	0.0	None	0.0	None	0.0	None	0.0	None	0.0	None	1.6662e-06	12
2014-02-21 17:24:00	53.8929429999551	345497488.6365	2.0209049798434342e+21	1173646490975.9648	2.4473258620210085	87636656615.02448	6.668729086251125e+20	-2.6077104344319174e+23	1427.4999656299392	-0.5683317084602273	18.640949163641704	1.0318949343339587	30.32454129605808	145.93195153870042	148.7918997163849	63.221401707329775	0.00229580287243997	-8.997768160207569e+22	0.15983999742257024	0.009033144910527357	-9.10468347663191e+22	0.19609987686128247	0.19843001918236608	0.0	238.305618	228.40551800000003	-24.184479	4.545978	-18.045218	13.746173	0.0		True	0.0	None	0.0	None	0.0	None	0.0	None	0.0	None	0.0	None	0.0	None	0.0	None	1.6466999999999996e-06	12
2014-02-21 17:36:00	51.281589754696725	345570930.6784	1.9284473115079567e+21	1107327316156.4644	3.352537174775601	275169915615.5825	6.647340455902156e+20	-2.6432431326571503e+23	1376.3939856218035	-0.5759534155540027	18.20468395156297	0.5687203791469194	30.089084752069034	141.71082162132905	145.73583567874613	61.570335892738754	0.0031777603552375364	-8.061167125497154e+22	0.5071190124650026	0.012311841603180293	-9.52646885382994e+22	0.1756500066875968	0.2075784178437081	0.0	238.306351	228.29519700000003	-24.182919	4.677511	-18.01613	13.851586	0.0		True	0.0	None	0.0	None	0.0	None	0.0	None	0.0	None	0.0	None	0.0	None	0.0	None	1.6461000000000004e-06	12
2014-02-21 17:48:00	53.39178298548873	351039335.9088	1.93420724825184e+21	1151487534406.89	2.193607719649449	115612496737.3444	6.805983378566125e+20	-2.7367808460396296e+23	1338.6333212792301	-0.5870454922423239	18.393723105973717	1.5625	29.735213721676267	142.37798793639988	147.38560031765257	61.254649918056145	0.0020161835658542735	-7.581301039224877e+22	0.2066052124202032	0.007874877401566518	-9.662032325818636e+22	0.16262056959545695	0.20725271192172448	0.0	238.307068	228.18486	-24.180887	4.773448	-18.021801	13.974497	0.0		True	0.0	None	0.0	None	0.0	None	0.0	None	0.0	None	0.0	None	0.0	None	0.0	None	1.4975e-06	12
2014-02-21 18:00:00	54.38008089990795	343554492.09730005	1.8783653169654032e+21	1160021813700.565	6.717181572494526	443405582162.802	6.659401046827223e+20	-2.768155699070292e+23	1359.9852775054947	-0.6067116973346601	17.997022759557193	0.38461538461538464	28.682298251640702	141.77602945766662	146.91815328278142	59.078316603219996	0.006458828435090889	-7.188727830499403e+22	0.828965552124493	0.02433792209477326	-9.921898066179287e+22	0.15755924658371076	0.21746362094209146	0.0	238.307831	228.07452400000003	-24.179033	4.9000010000000005	-18.040337	14.080353	66560.0		False	0.0	None	0.0	None	0.0	None	0.0	None	0.0	None	0.0	None	0.0	None	0.0	None	1.4122e-06	12
2014-02-21 18:12:00	56.35648717091591	348754302.4711	2.0842582334003505e+21	1206701875743.1	0.6237734811347969	49264670536.19149	6.779501488713153e+20	-2.8315797357013722e+23	1470.87114522931	-0.6113596103049319	19.094854934436288	1.6869728209934396	28.86598928751469	141.92941629088932	147.7823694623346	59.23806914868848	0.0005846049495171481	-6.33683210361756e+22	-0.08977234329528146	0.002219958497863807	-1.0281519692710832e+23	0.13681702678507893	0.2219858333292258	0.0	238.308487	227.964188	-24.178509	4.994606	-18.039974	14.20249	66560.0		False	0.0	None	0.0	None	0.0	None	0.0	None	0.0	None	0.0	None	0.0	None	0.0	None	1.3923e-06	12
2014-02-21 18:24:00	58.675641550944775	349812976.8843	1.8628720894512765e+21	1259182530058.9	7.054388214158355	524661100737.2981	6.842476249216936e+20	-2.867826436211316e+23	1308.506193391716	-0.6173116591444319	17.922891482806687	0.8395522388059702	28.3544353411944	143.10980112212613	149.4445793602892	56.56040389189233	0.006580586020670107	-6.8200073854386725e+22	0.9516068407089132	0.024937890742797408	-9.820127941330881e+22	0.14680351716278714	0.21138236944639407	0.0	238.30925	227.853851	-24.174927	5.1233830000000005	-18.036594	14.310195000000002	0.0		True	0.0	None	0.0	None	0.0	None	0.0	None	0.0	None	0.0	None	0.0	None	0.0	None	1.3522e-06	12
2014-02-21 18:36:00	60.19383402535418	349287526.4394	1.920400775624966e+21	1295297411224.022	6.197955084008544	382506644733.0495	6.937198049532234e+20	-2.9317769710904355e+23	1324.2096810626656	-0.6320266291888348	18.53563756422396	1.3736263736263736	28.03369376554239	141.04256928065936	146.74321423756098	56.541264888286285	0.005675783043963868	-5.834729764659507e+22	0.6810691984616166	0.021745435157799718	-1.0052195293843406e+23	0.12578393997050594	0.21670322027097125	0.0	238.309967	227.743515	-24.172403	5.219464	-18.033569	14.412181	0.0		True	0.0	None	0.0	None	0.0	None	0.0	None	0.0	None	0.0	None	0.0	None	0.0	None	1.2523999999999999e-06	12
2014-02-21 18:48:00	69.02079932015249	365905039.1917	2.0596944300457056e+21	1523480232294.9976	12.158313354205164	888301773575.9025	7.463407581665349e+20	-3.036703221932234e+23	1256.8261244652276	-0.6249158272917462	18.85446586241301	2.1069692058346843	28.57008558761756	135.42622570314356	140.64941496381536	55.43951421953749	0.009852766089307264	-6.756238492168164e+22	1.3996552690968378	0.040898188135784136	-1.039772071061298e+23	0.1390350013863761	0.2139721851280149	0.0	238.310669	227.633163	-24.172161	5.348329	-18.034149	14.538763	0.0		True	0.0	None	0.0	None	0.0	None	0.0	None	0.0	None	0.0	None	0.0	None	0.0	None	1.2538e-06	12
2014-02-21 19:00:00	62.45812352322425	361126981.5028	2.112102634338624e+21	1404783940770.1665	16.26365151336109	1160390250316.6184	7.464408944149176e+20	-3.0341321187933846e+23	1284.6412629928782	-0.6326478610062776	19.308036832723094	2.2617124394184165	28.08845028180601	134.44247480200406	138.30894565864705	55.719948858259116	0.01313703676361962	-7.63896802787496e+22	1.8224649934083843	0.055169061249573575	-9.96019091724486e+22	0.15928036729832112	0.2076802601962836	0.0	238.311432	227.522827	-24.170403	5.443852	-18.032562	14.640368	0.0		True	0.0	None	0.0	None	0.0	None	0.0	None	0.0	None	0.0	None	0.0	None	0.0	None	1.1857e-06	12
2014-02-21 19:12:00	66.6751636062411	376717040.76990014	2.3100933254641319e+21	1583432389912.0532	15.890940487770276	1065004531314.3108	7.885153519827693e+20	-3.074869528821244e+23	1267.8353059092738	-0.6146089135647077	20.546040503409213	3.7900874635568513	29.57550635023348	133.85902643123364	137.0143051610315	55.659107405164825	0.011582318139774252	-8.001447651103684e+22	1.5092893660793487	0.05225128618478142	-1.1070684386404776e+23	0.15993397448882807	0.22128227683710505	0.0	238.312088	227.412491	-24.168243	5.5710760000000015	-18.031281	14.744907	0.0		True	0.0	None	0.0	None	0.0	None	0.0	None	0.0	None	0.0	None	0.0	None	0.0	None	1.1942e-06	12
2014-02-21 19:24:00	69.18391436463817	400030205.2299	2.5919329999307785e+21	1617619592479.0757	14.381345578099625	1097089177683.0032	8.469875601966617e+20	-3.341641590175378e+23	1327.6816956081568	-0.6290057478011981	20.75845008254852	3.333333333333333	28.865787759138087	131.15058734230823	133.23122077072554	53.391371427199715	0.009783228284421512	-9.930222669575331e+22	1.4511044414534229	0.04413814899022196	-1.05126453781972e+23	0.1869191224598335	0.19788221414657148	0.0	238.312851	227.302155	-24.165728	5.6683	-18.028957	14.867331	0.0		True	0.0	None	0.0	None	0.0	None	0.0	None	0.0	None	0.0	None	0.0	None	0.0	None	1.1246e-06	12
2014-02-21 19:36:00	63.24351340656629	382900744.5561	2.436293452745918e+21	1496880808446.124	15.601231107379286	1091411705486.8344	8.079452467199342e+20	-3.097497743320225e+23	1283.7629850705064	-0.609133196011134	20.75818461207417	3.4289713086074176	29.96897584866325	130.59337669599347	132.08093584108317	54.47709741947137	0.010917586499215736	-9.573083216499577e+22	1.4850071407810392	0.05064197806461891	-1.012040689081394e+23	0.18825785387324764	0.19902115530604544	0.0	238.313583	227.191833	-24.164354	5.7952309999999985	-18.027716	14.969667	0.0		True	0.0	None	0.0	None	0.0	None	0.0	None	0.0	None	0.0	None	0.0	None	0.0	None	1.115e-06	12
2014-02-21 19:48:00	58.40354617275756	357976231.16	2.417878840411882e+21	1408370653000.0388	7.1423831385546075	527517780680.937	7.615017176221271e+20	-2.851838993859378e+23	1357.6669542825716	-0.5998716009729164	21.22033047161904	3.206562266964952	29.85045164498963	129.25943479808208	129.89783150136802	54.509055737944145	0.005326161922859511	-9.574360912167143e+22	0.7648530012222402	0.024942146065509933	-9.484311686881862e+22	0.201392407532156	0.19949826227870496	0.0	238.314331	227.081528	-24.162611	5.893219	-18.026142	15.074834	0.0		True	0.0	None	0.0	None	0.0	None	0.0	None	0.0	None	0.0	None	0.0	None	0.0	None	1.1363e-06	12
2014-02-21 20:00:00	51.51720960336685	345660634.2936	2.2813857275257647e+21	1221306609317.6543	8.725955518632425	797660297605.4841	7.282522182767941e+20	-2.684704990182824e+23	1348.393792128681	-0.5848360021126737	20.75651367911916	2.1978021978021984	30.088669843132553	127.24493149076064	128.23397917315887	54.02661252631752	0.006849258648848057	-9.283087367801918e+22	1.217348642130792	0.031857283442681	-9.556640419497597e+22	0.2022227292496009	0.20818180757308288	0.0	238.315125	226.971222	-24.161219	6.018767	-18.024876000000006	15.227304	0.0		True	0.0	None	0.0	None	0.0	None	0.0	None	0.0	None	0.0	None	0.0	None	0.0	None	1.163e-06	12
2014-02-21 20:12:00	50.71474629092966	342578805.0165	2.1748041157024224e+21	1174503366527.5	8.753810279351583	691330409933.1259	7.19155165505566e+20	-2.660580362633437e+23	1311.1282582778474	-0.5847946098634178	20.586250203690085	2.401921537229784	30.033363979520765	125.64791775436274	126.70382773389312	54.49567995702096	0.007008655147599346	-9.097878532506368e+22	1.0761822543491115	0.03224732169247593	-9.69202521500486e+22	0.1999710439768756	0.2130303667574677	0.0	238.315887	226.860931	-24.158998	6.145485	-18.023577	15.398657	0.0		True	0.0	None	0.0	None	0.0	None	0.0	None	0.0	None	0.0	None	0.0	None	0.0	None	1.1429e-06	12
2014-02-21 20:24:00	54.71301852085102	364005132.1981	2.255162778846896e+21	1265659793819.4849	9.39158259278111	680757727225.1665	7.44619713971449e+20	-2.800814998982201e+23	1348.7756027173587	-0.5793812726341576	19.864964345403653	2.065131056393964	30.362143447881287	134.57624119326738	134.9887111713445	58.209907029909495	0.007459557261938927	-9.810034540273655e+22	1.0512960403930591	0.03267189215262432	-9.829305019375889e+22	0.2029320143813224	0.20333064673335485	0.0	238.31665	226.750656	-24.156715	6.244491	-18.02223	15.534437	1024.0		True	0.0	None	0.0	None	0.0	None	0.0	None	0.0	None	0.0	None	0.0	None	0.0	None	1.0976999999999999e-06	12
2014-02-21 20:36:00	117.99559608363475	567377568.5542	4.617076910754133e+21	3335733006300.01	16.513476419888942	1257866938086.0618	1.2966036169064438e+21	-4.2370570720652255e+23	1254.637239361943	-0.5623150957793328	25.280777828315	9.635510645976183	34.08810585780623	121.54782719029598	119.88553149215694	54.91917813221974	0.005959392428686013	-1.4462945482697274e+23	0.8825742952848398	0.03725870150640512	-1.408866162986168e+23	0.19194295559465124	0.186975699856146	0.0	238.31749	226.640396	-24.157045	6.371615	-18.022654	15.667137	66560.0		False	0.0	None	0.0	None	0.0	None	0.0	None	0.0	None	0.0	None	0.0	None	0.0	None	1.0699e-06	12
2014-02-21 20:48:00	59.33955666904045	391647633.1646	2.557496358532496e+21	1358374800924.095	8.555297048208278	570313318309.5254	7.891539439649658e+20	-2.9689003549537e+23	1450.1217394246744	-0.570804817226217	20.34627388480584	2.560240963855421	30.503267878407545	135.53421121723213	135.3103817796343	60.753064852914285	0.006442241753168885	-9.938001612614236e+22	0.8349542742951696	0.0278129694101805	-1.15410625707657e+23	0.1910693696612996	0.22189003751205336	0.0	238.318237	226.530136	-24.155952	6.4970620000000014	-18.022472	15.7961	66560.0		False	0.0	None	0.0	None	0.0	None	0.0	None	0.0	None	0.0	None	0.0	None	0.0	None	1.0669e-06	12
2014-02-21 21:00:00	62.895941224234676	408681256.61530006	2.9209166828729286e+21	1466102388279.4128	7.777599120479738	607001465013.3588	8.18224375679519e+20	-2.998129695672892e+23	1571.0087074565768	-0.5523993445077614	21.48819178587413	2.8571428571428568	31.474086408410678	133.75907032595356	132.03856215877911	60.38544308820016	0.005555427943199812	-1.1347469501978806e+23	0.8429513515962613	0.02451813203697412	-1.2426037778734273e+23	0.2090748350133685	0.2289472377965599	0.0	238.319107	226.419907	-24.152357	6.598963	-18.019089	15.930066	0.0		True	0.0	None	0.0	None	0.0	None	0.0	None	0.0	None	0.0	None	0.0	None	0.0	None	1.0565e-06	12
2014-02-21 21:12:00	62.31622223570302	401978890.18210006	2.9575499983818347e+21	1471525067355.623	7.611704882558694	599027667204.4584	8.016457234097466e+20	-2.8917475740291035e+23	1621.9931777088352	-0.5416822419223548	21.917362905548586	4.0786598689002185	31.44289333016805	136.05508579638308	135.3905103806595	61.393060937270725	0.005543849149714999	-1.068744972978985e+23	0.8482232242754321	0.02456483325845933	-1.250800287650408e+23	0.20019734025397207	0.2342999472348759	0.0	238.319946	226.309692	-24.129467	6.724987	-18.017641	16.253744	0.0		True	0.0	None	0.0	None	0.0	None	0.0	None	0.0	None	0.0	None	0.0	None	0.0	None	1.0865e-06	12
2014-02-21 21:24:00	69.56809423864725	436045175.9261	3.4450855272646543e+21	1582307369476.6992	10.504278537226831	681360986462.329	8.60659082636828e+20	-3.095054755885294e+23	1782.8894934722737	-0.5344711424776716	22.065321252968946	3.5738831615120272	31.39232207836864	138.99956713595776	137.35818197465088	62.93659070214292	0.007219435420774455	-1.135086369988865e+23	0.9104171633414486	0.03139829122561364	-1.3465294748248059e+23	0.19601298097398367	0.2325261436557749	0.0	238.320801	226.199509	-24.126545	6.850549000000001	-18.015612	16.38818	0.0		True	0.0	None	0.0	None	0.0	None	0.0	None	0.0	None	0.0	None	0.0	None	0.0	None	1.0455e-06	12
2014-02-21 21:36:00	61.74557762679361	396746893.8277	3.149882099315184e+21	1424173987511.2195	11.788521741903764	793828531669.9509	7.80037827415108e+20	-2.8209772749332432e+23	1810.5499077235293	-0.5353940620620168	22.39399468514044	3.3587786259541987	31.365454633436197	137.22971544975778	135.8823279806148	63.640590992283755	0.008998871558705164	-1.0716406033579e+23	1.1780764934706147	0.0387040090417957	-1.2940207281461334e+23	0.20338696833917388	0.24559255410910816	0.0	238.321747	226.08934	-24.125193	6.949801	-18.015892	16.520985	0.0		True	0.0	None	0.0	None	0.0	None	0.0	None	0.0	None	0.0	None	0.0	None	0.0	None	9.93e-07	12
2014-02-21 21:48:00	60.54517626103564	392493750.985	3.0355579119601063e+21	1381493033162.0803	8.33229394802119	706773864894.9136	7.844540228029194e+20	-2.8349145157289788e+23	1727.6916015216946	-0.5438695754423821	21.89326100347501	3.9304610733182166	30.935541910880215	137.1561027693762	137.10719320746924	61.737992433280105	0.006298030195027355	-1.0205787111697875e+23	1.0385562724351916	0.027501173308237568	-1.2838714486582863e+23	0.19579486692448486	0.24630676368907234	0.0	238.322586	225.979187	-24.12280100000001	7.072348	-18.013578	16.655012	0.0		True	0.0	None	0.0	None	0.0	None	0.0	None	0.0	None	0.0	None	0.0	None	0.0	None	1.0789e-06	12
2014-02-21 22:00:00	62.62853319728963	386086696.6082001	2.88079906999733e+21	1437447421545.2456	10.372915786984013	738702772500.3962	7.779703963174505e+20	-2.861607742427908e+23	1658.4130210258525	-0.5581009214711791	21.46291068132648	2.5229357798165144	30.283593951771106	134.76038238128794	135.32711273330955	60.25077975047489	0.007930363751516829	-9.81201574041663e+22	1.0978981131854086	0.03448660366179259	-1.277049986369998e+23	0.191364279073766	0.2490637565696369	0.0	238.323563	225.869064	-24.141428	7.1741449999999976	-18.010567	16.783766	0.0		True	0.0	None	0.0	None	0.0	None	0.0	None	0.0	None	0.0	None	0.0	None	0.0	None	1.102e-06	12
2014-02-21 22:12:00	65.34801036091864	389096684.22900003	3.130332913792171e+21	1534512842633.4116	10.739050692709226	779635368094.6814	7.960099577215299e+20	-2.8532618832011832e+23	1721.7679646079016	-0.5521685265396746	22.66154376129651	4.455807158509861	30.79440760290565	135.03161202408896	135.00147449489515	59.70444767312721	0.007850183254904407	-9.385825265327203e+22	1.1070784935935083	0.03557398542895476	-1.310678881887629e+23	0.18163622966497786	0.253645005822808	0.0	238.324509	225.758957	-24.144951	7.2716699999999985	-18.009844	16.886572	0.0		True	0.0	None	0.0	None	0.0	None	0.0	None	0.0	None	0.0	None	0.0	None	0.0	None	1.0329e-06	12
2014-02-21 22:24:00	61.985922086585724	391685017.584	2.884448384298295e+21	1433671180566.2332	7.105417025213318	612807078725.827	8.024434026399979e+20	-3.0379398080774376e+23	1633.046420015537	-0.5840225338017738	21.38450466524826	3.5338345864661656	29.503355777317672	133.923183246256	135.12670128097827	57.025140421047524	0.005342418815949864	-9.474119325947245e+22	0.8956782476970029	0.022904523059802617	-1.237942739440984e+23	0.1821332720144212	0.2379857736047032	0.0	238.325485	225.64888	-24.144478	7.394441	-18.010218	17.016371	0.0		True	0.0	None	0.0	None	0.0	None	0.0	None	0.0	None	0.0	None	0.0	None	0.0	None	1.0351e-06	12
2014-02-21 22:36:00	65.15611020828202	403447280.2983	3.124829725205289e+21	1523541373296.1274	11.566487686333215	818032189319.3671	8.44357637170074e+20	-3.110545105529944e+23	1618.2643260071052	-0.5805467803850924	22.4149949180732	3.9202200825309483	30.04203589621923	126.92802170419307	128.6598927055219	54.54596861235421	0.00795494338812463	-9.312468704180867e+22	1.0936421203576467	0.03627749984229093	-1.3088176016189217e+23	0.17380631176309722	0.2442754626449152	0.0	238.326538	225.538834	-24.170467	7.497808	-18.008579	17.120407	0.0		True	0.0	None	0.0	None	0.0	None	0.0	None	0.0	None	0.0	None	0.0	None	0.0	None	1.0184e-06	12
2014-02-21 22:48:00	61.49461684460679	391327555.925	2.8628531822349643e+21	1450425899455.9468	14.239614368672587	1133699514667.9868	8.189211954083631e+20	-3.01800264148524e+23	1538.6803566063716	-0.5807198262392592	21.634623866518787	3.4975017844396863	29.655839152167033	127.72910700616107	129.8802329135264	52.904884828448154	0.010163893196768444	-9.033581110917936e+22	1.5729604850626198	0.046039743222696994	-1.2978186843194656e+23	0.17382289799682982	0.24972444705255906	0.0	238.327515	225.428818	-24.169638	7.618724	-18.03072	17.224113	0.0		True	0.0	None	0.0	None	0.0	None	0.0	None	0.0	None	0.0	None	0.0	None	0.0	None	1.0867000000000001e-06	12
2014-02-21 23:00:00	69.03346431862418	412252229.6776	3.139796495251161e+21	1584006126091.558	17.589608830463824	1271004090961.876	8.599703118555021e+20	-3.2537331120381125e+23	1601.7792548170034	-0.5943009651819291	22.462932429246337	4.810298102981029	29.88305077300531	128.08038271356293	130.54474271661098	51.355572316878344	0.011917079153430777	-9.416307280632429e+22	1.6738132301383106	0.053524529066797666	-1.3611269805294383e+23	0.17199076607190172	0.2486126090892285	0.0	238.328629	225.318832	-24.16894	7.723777	-18.031763	17.354509	0.0		True	0.0	None	0.0	None	0.0	None	0.0	None	0.0	None	0.0	None	0.0	None	0.0	None	1.0563e-06	12
2014-02-21 23:12:00	72.92286475530679	420562656.1402	3.078091917725566e+21	1691630899576.1968	15.590453596123204	1159927864297.4912	8.800568546314115e+20	-3.3464415620292524e+23	1533.9266684712995	-0.5991561430009571	21.75226509455997	3.044341495698213	29.453277302939874	129.75225967403978	133.21682552911383	51.92472243984392	0.010317970612920715	-9.673726036313389e+22	1.4921100241461858	0.04636253444703335	-1.341645164823658e+23	0.17320106366509444	0.240211857082057	0.0	238.329758	225.208862	-24.169458	7.844291	-18.029655	17.457989	0.0		True	0.0	None	0.0	None	0.0	None	0.0	None	0.0	None	0.0	None	0.0	None	0.0	None	1.0255e-06	12
2014-02-21 23:24:00	71.00831062162099	405957730.4503	2.9900229092395534e+21	1616446989753.1792	20.136088305538614	1518102720574.558	8.565128978323077e+20	-3.2250984200530194e+23	1529.5167349188696	-0.5982045112660586	21.583259108732637	4.008152173913043	29.36115459064609	125.9456937293913	128.72980762191014	51.53346916921073	0.013679407816262644	-9.72778372524539e+22	2.0045427928679143	0.062071456286935375	-1.3136545172754806e+23	0.18043493100488608	0.2436620394568641	0.0	238.330841	225.098938	-24.166748	7.947669	-18.027866	17.582601999999998	0.0		True	0.0	None	0.0	None	0.0	None	0.0	None	0.0	None	0.0	None	0.0	None	0.0	None	1.0018999999999999e-06	12
2014-02-21 23:36:00	78.55187528099404	451996144.3605	3.444783237651058e+21	1829355774284.4368	13.811101943718429	888293995177.2195	9.628496130700707e+20	-3.64052188143703e+23	1560.696336972899	-0.6064799486436858	22.070413064273204	4.693140794223827	29.07332476296257	129.72844236122637	131.77711381440685	52.37350213506718	0.008309928967339605	-1.0470023342081393e+23	1.038807222094429	0.03804068136153757	-1.392480503164868e+23	0.17442167429844485	0.2319753957126079	0.0	238.332031	224.989029	-24.166222	8.06754	-18.029083	17.685968	0.0		True	0.0	None	0.0	None	0.0	None	0.0	None	0.0	None	0.0	None	0.0	None	0.0	None	1.1168e-06	12
2014-02-21 23:48:00	67.69558174881936	418635364.6841	3.0222910458441887e+21	1574322932699.42	17.42375979477716	1201143952978.8965	8.951029775730989e+20	-3.44663892085578e+23	1483.5371908932602	-0.6199367585338569	21.921494056024393	3.585397653194263	28.64712032369319	123.22907946229476	125.2913231071812	47.59323947895803	0.011358383177820834	-1.0299465994935952e+23	1.521829135291238	0.05138518182380835	-1.3066221010729619e+23	0.18525345155520145	0.23501825650095826	0.0	238.333206	224.87915	-24.165207	8.167463	-18.028994	17.789953	0.0		True	0.0	None	0.0	None	0.0	None	0.0	None	0.0	None	0.0	None	0.0	None	0.0	None	1.0814e-06	12
2014-02-22 00:00:00	73.69219116913541	444123567.6094	3.31482578957128e+21	1733469874485.4575	19.3825703650364	1419212815453.6057	9.504705222191299e+20	-3.653628475976826e+23	1533.1823350756454	-0.6194525740803699	21.811008304713344	3.6855036855036856	28.506026841064237	126.32442060609732	128.8855977858978	49.104806408711326	0.011905755752479359	-1.1452038549118973e+23	1.6942441211766903	0.053897585605083335	-1.3190973610313593e+23	0.1941630027345004	0.22364568842348848	0.0	238.334396	224.769302	-24.163427	8.293246	-18.028967	17.898148000000006	0.0		True	0.0	None	0.0	None	0.0	None	0.0	None	0.0	None	0.0	None	0.0	None	0.0	None	1.1231e-06	12
2014-02-22 00:12:00	70.72653518001619	434895681.7809	3.323585394001061e+21	1718692273793.545	16.217895837778872	1151412639925.0984	9.330916006482008e+20	-3.5357352933852785e+23	1544.8253552985057	-0.6121843315713345	22.17785450615025	4.938271604938271	29.171403965871118	128.02038247894902	130.09858441890498	49.502751553660296	0.010011046813443749	-1.1431471932440745e+23	1.3812915212053851	0.04626203266842933	-1.326549717513928e+23	0.19792680795222464	0.22968149047573946	0.0	238.335693	224.659485	-24.160925	8.393071	-18.048117	18.018286	0.0		True	0.0	None	0.0	None	0.0	None	0.0	None	0.0	None	0.0	None	0.0	None	0.0	None	9.661e-07	12
2014-02-22 00:24:00	73.43995417676173	444607553.9227001	3.2489302217621247e+21	1777216950723.7593	17.45203545948169	1308280483378.5242	9.518342295726066e+20	-3.625373456952301e+23	1463.1595067395801	-0.6139930796235676	22.04034607535319	4.724880382775119	29.326090429442072	126.15276480648191	128.13912882842234	50.18319505220953	0.010437820250886177	-1.1683580581984272e+23	1.520618214277334	0.04864044919668422	-1.3162732206460994e+23	0.19787306625765425	0.22292397127272384	0.0	238.336899	224.549698	-24.159552	8.496677	-18.049421	18.126337	0.0		True	0.0	None	0.0	None	0.0	None	0.0	None	0.0	None	0.0	None	0.0	None	0.0	None	1.0160999999999999e-06	12
