Timestamp	TOTUSJH	TOTBSQ	TOTPOT	TOTUSJZ	ABSNJZH	SAVNCPP	USFLUX	TOTFZ	MEANPOT	EPSZ	MEANSHR	SHRGT45	MEANGAM	MEANGBT	MEANGBZ	MEANGBH	MEANJZH	TOTFY	MEANJZD	MEANALP	TOTFX	EPSY	EPSX	R_VALUE	CRVAL1	CRLN_OBS	LAT_MIN	LON_MIN	LAT_MAX	LON_MAX	QUALITY	NOAA_AR	IS_TMFI	BFLARE	BFLARE_label	CFLARE	CFLARE_label	MFLARE	MFLARE_label	XFLARE	XFLARE_label	BFLARE_loc	BFLARE_label_loc	CFLARE_loc	CFLARE_label_loc	MFLARE_loc	MFLARE_label_loc	XFLARE_loc	XFLARE_label_loc	XR_MAX	XR_QUAL
2014-02-25 00:00:00	5.179431626695049	27049294.955400005	9.022743444388418e+19	122636196670.71768	0.5364126368499433	192926507607.7718	5.354060455543562e+19	-2.3916611630087235e+22	763.3717586938412	-0.6657806803280387	19.633495844112016	11.235955056179774	29.826632747069265	138.69576606880022	156.90625256589453	50.71535522515415	0.006027108279212846	-1.8548201891506605e+21	4.206993969358805	0.023809771395275084	3.981530440745351e+21	0.05163371243882192	-0.1108361872737642	1.9118130252004704	184.026031	185.258835	-11.401359	-10.432382	-9.781506	-6.897943	0.0		True	0.0	None	0.0	None	0.0	None	0.0	None	0.0	None	0.0	None	0.0	None	0.0	None	9.7035e-07	12
2014-02-25 00:12:00	5.094311399432518	21026766.9827	8.072292197765282e+19	120053908322.3925	0.14522296994541814	159548676097.4077	4.603739960709538e+19	-1.598608178647484e+22	667.9484050339205	-0.5724755778767049	20.237099331843762	10.989010989010987	33.745273027660126	136.5509212243418	153.94739226598963	54.505989956608744	0.0015958568125870127	-3.0058405711681364e+21	3.4025770829086075	0.008784335185102535	2.7722704068214543e+21	0.1076417812049852	-0.09927742922711323	1.939385976142096	184.029099	185.149002	-11.403039	-10.308917	-9.78436	-6.7769020000000015	0.0		True	0.0	None	0.0	None	0.0	None	0.0	None	0.0	None	0.0	None	0.0	None	0.0	None	1.0093e-06	12
2014-02-25 00:24:00	6.187893343892963	24405793.6439	1.3085295224599885e+20	152532768046.9524	0.5133251838989273	289525290949.39417	5.337491909003647e+19	-1.908101187072507e+22	920.8464622472856	-0.5887025852687682	24.912907900660553	14.018691588785044	37.74573384018716	124.0961642275793	141.0676206609875	53.827428110247794	0.004797431625223621	-1.6610824682904711e+21	5.251035401791029	0.02647811291758965	1.3101437420965538e+21	0.0512490401479986	-0.04042159887910761	0.0	184.032166	185.039215	-11.376513	-10.186722	-9.78566	-6.684057000000001	0.0		True	0.0	None	0.0	None	0.0	None	0.0	None	0.0	None	0.0	None	0.0	None	0.0	None	1.0553e-06	12
2014-02-25 00:36:00	2.86619485922711	15625031.298100002	1.0651722687226076e+20	79855851769.24695	0.39998296875661216	50693308457.63324	3.549079084929613e+19	-1.0949066164208014e+22	1041.637333999059	-0.527647148514994	26.370777481164225	18.181818181818183	37.5835106598549	114.64692622517687	134.35440491612886	44.07001697454189	0.0051945840098261324	-1.8044191184420701e+21	-1.2775794330691652	0.033514098787519785	6.31513607106855e+20	0.0869568772617574	-0.03043331267168875	0.0	184.035248	184.929443	-11.37693	-10.092645	-9.786697	-6.563567999999999	0.0		True	0.0	None	0.0	None	0.0	None	0.0	None	0.0	None	0.0	None	0.0	None	0.0	None	1.2528e-06	12
2014-02-25 00:48:00	2.7135968933351133	14627120.7084	9.63806594602412e+19	77661998670.695	0.2707961036778122	44868141916.309166	3.4185286962710938e+19	-1.0728814387257596e+22	942.5115974239586	-0.5523068390459527	27.44757339003301	16.883116883116884	38.36082775524051	101.82859166372113	120.08906302991844	43.667522783987856	-0.0035168325152962624	-3.205594374451325e+21	1.1307359463159257	-0.02385261457720379	4.8702442753792e+20	0.1650202559491992	-0.02507144894137639	0.0	184.038406	184.819702	-11.380404	-9.970064	-9.790741	-6.471266	0.0		True	0.0	None	0.0	None	0.0	None	0.0	None	0.0	None	0.0	None	0.0	None	0.0	None	0.00049688	12
2014-02-25 01:00:00	3.4585623043868	14159338.2297	1.630187426914563e+20	113125544519.06148	0.13632088753512805	52344717318.86186	3.2399208532037845e+19	-6.678316201274563e+21	1410.9308015972185	-0.3551496980665421	35.16972878280032	24.13793103448276	44.52502813060814	106.04879043324536	119.962026815353	48.18032955840196	0.001566906753277334	-2.1046809008103248e+21	-0.7905455411236921	0.014208956082153541	1.691762219172838e+21	0.11192593520901986	-0.08996711494806847	0.0	184.041519	184.709976	-11.382631	-9.847397	-9.793558	-6.349291	0.0		True	0.0	None	0.0	None	0.0	None	0.0	None	0.0	None	0.0	None	0.0	None	0.0	None	0.00043661	12
2014-02-25 01:12:00	3.07028087972931	13389706.1572	1.6739750885647047e+20	107478096617.82367	1.4874826779263002	211323159427.7098	3.1669336982679327e+19	-7.693961271534512e+21	1556.1500375420185	-0.4326796256454595	36.94099981336275	25.92592592592593	42.27639766848847	96.37159098022114	114.8213906430702	53.257535708309625	0.01836398367810247	-2.420785887699092e+21	3.5445157364843483	0.15508213866609658	1.8319086715299965e+21	0.13613595061007527	-0.1030196969078562	0.0	184.044693	184.600296	-11.383856	-9.724506	-9.795874	-6.2573349999999985	0.0		True	0.0	None	0.0	None	0.0	None	0.0	None	0.0	None	0.0	None	0.0	None	0.0	None	0.0001797	12
2014-02-25 01:24:00	4.0418423448327365	16555611.5699	1.3431750572015172e+20	97765460144.05513	1.851919032562048	146325015848.44006	3.3857892507194155e+19	-1.2188529907935381e+22	1532.414002333914	-0.5543620956042662	28.10464873667951	21.21212121212121	36.013959781434025	132.53993193611782	149.6722480616876	60.509952777903464	0.02805937928124315	-5.5644335140964185e+20	3.356789218324375	0.14393107372742256	1.779274977095154e+21	0.025308310739893185	-0.0809254776752468	0.0	184.047943	184.490646	-11.359195	-9.6022	-9.799212	-6.137222	0.0		True	0.0	None	0.0	None	0.0	None	0.0	None	0.0	None	0.0	None	0.0	None	0.0	None	7.0675e-05	12
2014-02-25 01:36:00	4.318848509282172	18946529.556100003	1.7520356827406234e+20	121025240501.781	0.5445937214770669	112361971609.1123	4.053855283068787e+19	-1.233554224516225e+22	1552.0710388913035	-0.4902483573995473	27.64577981464231	16.470588235294116	37.60444983904086	131.55782419169577	155.27032791171112	55.18215710486639	-0.006406984958553728	-2.57322484831972e+21	2.564817803734636	-0.038575743233056514	3.352272155597215e+21	0.1022670288858347	-0.1332285103625907	0.0	184.051178	184.381027	-11.360852	-9.508825	-9.802897	-6.045273	0.0		True	0.0	None	0.0	None	0.0	None	0.0	None	0.0	None	0.0	None	0.0	None	0.0	None	4.287800000000001e-05	12
2014-02-25 01:48:00	2.846834751384612	11947786.6236	4.370084848687566e+19	71950471689.35132	0.7926875944331336	72253189619.45529	2.660393645438441e+19	-8.907260660384428e+21	609.3735850697161	-0.5613635616116395	17.69111414449447	3.7037037037037033	33.43216260459173	141.28900581654423	155.58734073855715	61.05882398106697	-0.01467939989690988	-2.1973939668299405e+21	-2.59600107066682	-0.08498466357181096	1.0604359864075325e+21	0.1384866740197481	-0.06683200872727042	0.0	184.054443	184.271439	-11.36097	-9.386874	-9.828749	-5.953865	0.0		True	0.0	None	0.0	None	0.0	None	0.0	None	0.0	None	0.0	None	0.0	None	0.0	None	3.1075e-05	12
2014-02-25 02:00:00	4.948373822450332	21010289.7949	1.021466775676118e+20	134294298079.49165	1.270115234013321	146500532934.58386	4.662205196877455e+19	-1.6181130315303645e+22	836.0339390454808	-0.579914947525263	18.024855109198114	3.260869565217391	32.39701091193927	129.32488956255355	147.17914954098092	47.803037384773425	-0.013805600369710012	-2.2984338776887185e+21	-2.3293063932857594	-0.07652571043445891	1.537692480785031e+21	0.08237348909485792	-0.05510930552614545	0.0	184.057785	184.16188	-11.362145	-9.265513	-9.831	-5.8621050000000015	0.0		True	0.0	None	0.0	None	0.0	None	0.0	None	0.0	None	0.0	None	0.0	None	0.0	None	2.2511999999999997e-05	12
2014-02-25 02:12:00	4.533258709382618	15547735.4688	5.362417229156575e+19	93348192393.9298	0.5747655436762032	63030000924.21303	3.1932783422663942e+19	-1.2603652288863506e+22	734.1509689610872	-0.6104031055097752	15.428171686718164	1.8181818181818181	30.561769214232807	155.77967830287238	171.41429675321356	53.18166459991066	0.010450282612294604	-1.1544761253517264e+21	1.56573962544345	0.04591123531976079	9.153541204248835e+20	0.05591203216342696	-0.04433119741348402	0.0	184.061081	184.052338	-11.365592	-9.173759	-9.834546	-5.77051	0.0		True	0.0	None	0.0	None	0.0	None	0.0	None	0.0	None	0.0	None	0.0	None	0.0	None	1.8532e-05	12
2014-02-25 02:24:00	3.1424461155175654	13232203.743	5.683488167726434e+19	85598696508.50928	1.4130482331788294	85795669059.24911	3.0552374899329778e+19	-9.91681830043485e+21	713.2654161527797	-0.5643228477758483	16.969385085707138	3.333333333333333	31.067240307050728	118.49481114490602	127.03734836416086	42.59854645684032	0.023550803886313827	7.692061309897524e+20	2.7740415028454426	0.1365301018684636	2.430687457514528e+21	-0.04377216373398159	-0.13831981453340594	2.0119220948336647	184.064438	183.942841	-11.36757	-9.083532	-9.836617	-5.6510690000000015	0.0		True	0.0	None	0.0	None	0.0	None	0.0	None	0.0	None	0.0	None	0.0	None	0.0	None	1.5382999999999998e-05	12
2014-02-25 02:36:00	4.607305261426122	21973793.8698	8.307801088210475e+19	106439617818.8042	0.5551183418273048	53553942695.81435	4.468089529088506e+19	-1.748555770440972e+22	802.0084107657287	-0.5991863045960135	17.49808568887319	3.8461538461538463	31.64870600452677	129.5442201541623	141.00822011277697	60.195063646342675	-0.0071169018182987796	-8.76556098295061e+19	-0.3957313221911122	-0.0315944984022921	1.3300794397607726e+21	0.003003738389059568	-0.04557849385200935	1.956757440534786	184.067856	183.833359	-11.396791	-8.991889	-9.837006	-5.560149	0.0		True	0.0	None	0.0	None	0.0	None	0.0	None	0.0	None	0.0	None	0.0	None	0.0	None	1.235e-05	12
2014-02-25 02:48:00	5.020268134865759	20756957.6295	1.224038054921956e+20	127846158027.68788	1.010622821500018	100232818409.59166	4.416579815935618e+19	-1.3944751850920929e+22	970.1947036807874	-0.5058650511275786	26.67071376133523	13.684210526315795	38.112690133428494	116.06940899846643	137.58368289337307	43.87969685004853	-0.010638134963158085	-4.218406101821968e+20	2.0467163928805827	-0.06466500922302758	2.1657381145688004e+21	0.015302848277175552	-0.07856512857078479	2.1451256592935217	184.071259	183.723907	-11.370551	-8.898846	-9.865415	-5.467827	0.0		True	0.0	None	0.0	None	0.0	None	0.0	None	0.0	None	0.0	None	0.0	None	0.0	None	1.0025e-05	12
2014-02-25 03:00:00	4.081021090811522	18480853.2958	9.608442421426066e+19	96653893613.28627	0.09925753401984104	77180297883.2514	3.5035601806850195e+19	-1.2899152485809587e+22	1096.2168929900154	-0.5255651881510999	25.23195065842201	18.181818181818183	39.174346593960465	139.40438301459645	168.6596428630109	54.64126174460148	0.0015039020306036525	2.7128833869529088e+20	1.7738385019281264	0.007041102837983513	1.3884443791326474e+21	-0.011053416643181978	-0.056571005898174535	2.094175571549654	184.074661	183.614456	-11.371593	-8.805907000000003	-9.868387	-5.3764400000000006	0.0		True	0.0	None	0.0	None	0.0	None	0.0	None	0.0	None	0.0	None	0.0	None	0.0	None	8.2612e-06	12
2014-02-25 03:12:00	4.202039769112393	19992549.821	1.1558431504309156e+20	92328558253.67087	0.10592350470249398	28326512784.401836	3.819665182201453e+19	-1.4622355947546026e+22	1338.9766119363935	-0.5507273043798909	21.83127955755127	10.769230769230768	35.63703842738955	145.10175024603404	162.74879084249426	64.66605632085923	0.0016295923800383688	-7.786780924300384e+20	0.845326121424591	0.006833114794616678	9.14019152670508e+20	0.02932764654081888	-0.03442504791345194	2.060546552460719	184.078171	183.505066	-11.373052	-8.683517	-9.869986	-5.284548	0.0		True	0.0	None	0.0	None	0.0	None	0.0	None	0.0	None	0.0	None	0.0	None	0.0	None	6.9754999999999995e-06	12
2014-02-25 03:24:00	4.445302845361168	17810879.5791	1.377199473366812e+20	105199571118.79608	0.7979006483392719	68935233040.19391	3.648095762829055e+19	-1.2349624880016113e+22	1502.917998671569	-0.5221026854626508	26.51398986193088	14.492753623188404	36.210417358438384	121.39729070583624	152.3692375127071	49.357901694919605	-0.01156377751216336	-2.0961909209878013e+21	1.93786666930866	-0.05886396253657769	2.2460772223762212e+21	0.08862025524849224	-0.09495696921586064	1.90212983502134	184.081619	183.395676	-11.374668	-8.590997	-9.871748	-5.192712	0.0		True	0.0	None	0.0	None	0.0	None	0.0	None	0.0	None	0.0	None	0.0	None	0.0	None	6.0570000000000015e-06	12
2014-02-25 03:36:00	2.3320675278191643	12868924.9468	8.701828144378274e+19	63300526735.37878	0.5198939862841943	54054028199.59299	2.6508647441448178e+19	-8.37990020665019e+21	1236.2951854641049	-0.4903250985987793	29.224886288921947	18.867924528301888	38.55150886173958	117.02926953195505	140.80937898199699	44.65114507926116	-0.009809320495928194	-3.1346078127904486e+21	-1.1942735623576153	-0.0542152551557482	2.3841491903303385e+21	0.18341231362818064	-0.13950144488537128	0.0	184.085114	183.286316	-11.376294	-8.500671	-9.874434	-5.102563	0.0		True	0.0	None	0.0	None	0.0	None	0.0	None	0.0	None	0.0	None	0.0	None	0.0	None	5.301599999999999e-06	12
2014-02-25 03:48:00	2.961779752746044	17984844.274600007	9.003419268349026e+19	74601206080.43999	1.4134552596840633	117333412352.43495	3.793479438559635e+19	-1.3376958034562658e+22	954.8532918142478	-0.5600647076286138	22.42577423073833	8.450704225352112	35.27969015341085	127.88816511508269	143.18325750782498	51.83500937727358	-0.019907820558930464	-4.490515657703159e+21	-0.024435399885035337	-0.10075410928143276	4.025689322872008e+21	0.18800831492744205	-0.16854702749253686	0.0	184.088684	183.17698700000003	-11.377566	-8.409875999999999	-9.876282000000002	-5.012425	0.0		True	0.0	None	0.0	None	0.0	None	0.0	None	0.0	None	0.0	None	0.0	None	0.0	None	4.6792e-06	12
2014-02-25 04:00:00	2.9735275737759954	13846853.9148	6.578530887294264e+19	61861560293.214615	1.2033921214586227	60217783476.64196	2.784825272466151e+19	-1.1120390431719849e+22	1125.8062954450456	-0.6047228181450014	18.473449625876924	2.272727272727273	29.46680115758629	150.18139836285496	167.92880073212118	60.97423399160459	-0.027349820942241424	-2.573488400966353e+21	2.5839824505261864	-0.10831435579794772	2.7025538240624444e+21	0.13994537043023245	-0.14696390155636252	0.0	184.092224	183.067673	-11.381243	-8.319048	-9.879631	-4.921753	0.0		True	0.0	None	0.0	None	0.0	None	0.0	None	0.0	None	0.0	None	0.0	None	0.0	None	4.1006999999999995e-06	12
2014-02-25 04:12:00	3.0103917774869187	16497938.9229	6.208501749869273e+19	64303055159.29478	0.37944010892318536	57780651076.855225	3.284591614849743e+19	-1.2995661836058798e+22	882.0606624678599	-0.5931386526663113	15.07278081904691	0.0	30.625182216225852	147.84340036934583	161.96629948442404	57.187971669977436	0.007159247338173309	-1.6370616710328163e+20	2.11441602086994	0.02887287069622053	1.474747317479359e+21	0.007471759161921544	-0.06730935661051671	0.0	184.095779	182.958374	-11.382719	-8.196064	-9.881245	-4.831009	0.0		True	0.0	None	0.0	None	0.0	None	0.0	None	0.0	None	0.0	None	0.0	None	0.0	None	3.6114999999999996e-06	12
2014-02-25 04:24:00	3.6646106229484814	21569215.138	7.566683423715544e+19	89082607939.17023	0.4523719893904108	61533706434.85027	4.410484970716853e+19	-1.6467469727534657e+22	730.4631793151544	-0.574883573058457	16.84908162839193	3.8461538461538463	32.596626190789195	137.3084401715775	147.60341055212376	59.42824833447587	0.005799640889620652	-1.7013743844171235e+20	1.5299995514408984	0.026634399287846718	3.505895949994521e+21	0.005939541419580792	-0.12239172282393875	1.5468476476499735	184.099396	182.849091	-11.410925	-8.103976	-9.880539	-4.740487	0.0		True	0.0	None	0.0	None	0.0	None	0.0	None	0.0	None	0.0	None	0.0	None	0.0	None	3.643e-06	12
2014-02-25 04:36:00	3.48133714241162	15384279.1798	6.133257277949959e+19	76067736755.20566	0.15983016934386707	77033959801.4652	3.135323897936576e+19	-1.071424195361708e+22	796.2521951788436	-0.524410948807605	16.57280084003585	1.7241379310344829	34.14059465014728	156.58042986326885	167.25411474175266	58.58277883780625	0.0027556925748942604	8.999984112879301e+20	2.5758271839574003	0.013630429581545528	3.0018172577311894e+21	-0.04405062185752729	-0.14692461147402194	0.0	184.102966	182.739822	-11.414264	-7.982409	-9.883574	-4.650576	0.0		True	0.0	None	0.0	None	0.0	None	0.0	None	0.0	None	0.0	None	0.0	None	0.0	None	5.0986e-06	12
2014-02-25 04:48:00	4.53678737568229	19918979.1274	1.0668546945261584e+20	92490664189.82796	1.176938323233652	42170824635.28472	3.88488381706276e+19	-1.4971658390731705e+22	1316.9306769060086	-0.5659659575471181	17.810198830398914	6.557377049180328	30.101760760509	161.24780491573014	172.58962986292912	74.50154696611553	-0.019294070872682825	-1.2121204907346297e+21	-1.3407100103985958	-0.07546304179089887	4.0050171163530436e+21	0.04582117199693733	-0.1513996170693131	0.0	184.106583	182.630585	-11.414336	-7.890689999999997	-9.884145	-4.588998	0.0		True	0.0	None	0.0	None	0.0	None	0.0	None	0.0	None	0.0	None	0.0	None	0.0	None	3.7154e-06	12
2014-02-25 05:00:00	4.2853983380230245	17576097.757600002	9.34625405125137e+19	91361269899.34364	0.9968034016330136	138307319375.81305	3.552335423127121e+19	-1.2251715753793634e+22	1153.7060269887156	-0.5248822270581021	16.65720778111357	0.0	32.859019886537126	152.7293475487287	163.98362459396756	66.85363617978997	0.016341039371033008	-4.0962489531254686e+21	4.397020192901186	0.07438420829135713	3.778843667725162e+21	0.1754895654051696	-0.16189143789153226	0.0	184.110245	182.521347	-11.415024	-7.766822	-9.884949	-4.467651999999998	0.0		True	0.0	None	0.0	None	0.0	None	0.0	None	0.0	None	0.0	None	0.0	None	0.0	None	3.25e-06	12
2014-02-25 05:12:00	4.694180607570174	18773577.2591	6.451079525499662e+19	97008697835.82576	0.761982519450149	69250774049.34492	3.65653556170021e+19	-1.274383999350679e+22	796.3245036206304	-0.5111410898660039	12.73192083007176	0.0	34.2003862870853	181.80425551684812	192.75712270940568	79.59591932481666	0.012491516712297526	-1.5500952250842604e+21	2.201553157715863	0.05371838593063097	3.496680824547374e+21	0.062172576174006976	-0.14024793535412886	0.0	184.113876	182.412125	-11.41479	-7.673869	-9.884841	-4.345619	0.0		True	0.0	None	0.0	None	0.0	None	0.0	None	0.0	None	0.0	None	0.0	None	0.0	None	2.7567000000000002e-06	12
2014-02-25 05:24:00	4.774011432030521	19814199.819000002	7.540198566401103e+19	102936574665.43996	0.2787923577284975	19594403810.654842	3.939497281539891e+19	-1.433654715301989e+22	822.8508752824441	-0.544823049026101	15.334178422625055	0.0	34.42469160548029	162.59888417555618	174.82174850287709	72.05953623644297	-0.00404046895258692	-1.5188431281693382e+21	-0.03933742206834906	-0.018216107535768657	3.1025560890772334e+21	0.057719668149471576	-0.11790454494961808	0.0	184.117523	182.302917	-11.414742	-7.553371	-9.885262	-4.225517	0.0		True	0.0	None	0.0	None	0.0	None	0.0	None	0.0	None	0.0	None	0.0	None	0.0	None	2.5791000000000004e-06	12
2014-02-25 05:36:00	4.824661083344771	18445286.701300006	8.926664899694572e+19	99208928389.81523	0.5573337345479215	31707891501.59152	3.4250886338532532e+19	-1.2076573034412075e+22	1158.907252089291	-0.4929986661719442	15.859296102325873	1.7241379310344829	35.713278959228525	162.93955556152582	166.68557862954404	77.64470654598293	-0.00960920231979175	-2.5345681119371387e+21	-0.5045370582570751	-0.040476271185109367	4.919290729048725e+21	0.10346798673319027	-0.2008188714648136	0.0	184.121216	182.19371	-11.417484	-7.430086	-9.888083	-4.1029339999999985	0.0		True	0.0	None	0.0	None	0.0	None	0.0	None	0.0	None	0.0	None	0.0	None	0.0	None	2.2913e-06	12
2014-02-25 05:48:00	2.57118097670922	13967277.2459	4.393780018828109e+19	55396757940.40878	0.9572021789015676	134635186899.07768	2.566081687040652e+19	-9.858051844278e+21	827.1147440020752	-0.5314553561309859	12.995064095110035	0.0	31.90082009508767	181.1622938886196	194.4797795822754	77.98143675058127	0.02393005447253919	-1.1611330333099224e+21	6.526942296672348	0.08949887561849537	3.345659765757696e+21	0.06259759833697368	-0.18036715878461604	0.0	184.124847	182.084503	-11.421233	-7.308767	-9.888881	-3.982283	0.0		True	0.0	None	0.0	None	0.0	None	0.0	None	0.0	None	0.0	None	0.0	None	0.0	None	2.1207e-06	12
2014-02-25 06:00:00	2.62071136184828	12170459.101799995	4.096632566138218e+19	54646096197.67018	1.7883226410401358	134352861794.7736	2.3265623051262407e+19	-8.08852001453719e+21	734.4549442734784	-0.5004371467547363	15.259292937391605	0.0	35.14192247290304	173.05379305607158	177.78800560852474	71.93334565087886	-0.04257911050095562	-2.3492295758236948e+21	-0.6440999846583528	-0.1958624135122083	3.0991713942650696e+21	0.14534695394016614	-0.1917458925813947	0.0	184.12851	181.975311	-11.419986	-7.217611	-9.890484	-3.861978	66560.0		False	0.0	None	0.0	None	0.0	None	0.0	None	0.0	None	0.0	None	0.0	None	0.0	None	1.9868e-06	12
2014-02-25 06:12:00	4.115209903192353	16360299.975900002	6.688289580263209e+19	74314112766.7885	0.4683485656927164	81609422587.72557	2.851067947165016e+19	-1.323017952751283e+22	1291.3320181553916	-0.6089223755661589	14.959623046761141	0.0	27.542180640838023	169.82259858827226	182.76393713680832	72.81213360636741	-0.012008937581864523	-3.2749422175263387e+21	4.057649434526335	-0.035585480653447785	1.43578374039216e+21	0.15073004797788514	-0.06608231159529981	0.0	184.132172	181.866119	-11.420666	-7.094614999999999	-9.891606	-3.76864	66560.0		False	0.0	None	0.0	None	0.0	None	0.0	None	0.0	None	0.0	None	0.0	None	0.0	None	2.029e-06	12
2014-02-25 06:24:00	4.899240627226792	18262969.4229	6.7887300863707546e+19	101374633769.98012	0.7722236269906948	81733714667.3865	3.5713191163815027e+19	-1.3703520274364638e+22	838.0042218755462	-0.5649997484177741	14.83450030805001	0.0	31.62999180735788	172.018602656709	178.13430981796284	70.39199834994614	0.012659403721158927	-3.8906140943195135e+21	0.9531472046473466	0.05403652553604072	1.2193603228951155e+21	0.16041104332828746	-0.05027454711437632	0.0	184.135849	181.756943	-11.422068	-6.972428999999999	-9.893442	-3.647499	0.0		True	0.0	None	0.0	None	0.0	None	0.0	None	0.0	None	0.0	None	0.0	None	0.0	None	4.5325e-06	12
2014-02-25 06:36:00	6.207793702456063	22941413.7469	6.60127709465828e+19	116131526813.94072	0.2022766416403708	105621276859.5546	4.392981926605402e+19	-1.929867611766034e+22	753.1326381764476	-0.6334243894216683	11.840347038256324	0.0	29.48974488989653	175.17709764189868	187.155443378884	76.46948176470718	0.0030647976006116786	-3.2348043521731487e+21	3.1031048991650825	0.01079584192181953	1.0452220343629197e+21	0.10617329184558807	-0.034306453193467645	0.0	184.139572	181.647766	-11.422545	-6.880325	-9.894338	-3.527197	0.0		True	0.0	None	0.0	None	0.0	None	0.0	None	0.0	None	0.0	None	0.0	None	0.0	None	2.825e-06	12
2014-02-25 06:48:00	7.16985572326486	26690618.8343	1.2294579588692043e+20	139732801194.3262	0.03538380209011971	157123631555.36276	5.204183280155143e+19	-2.282701014247028e+22	1171.8554127502762	-0.6439880781037272	14.992232809095766	0.0	27.01021247026994	154.2166737092836	163.5605971129714	63.286410033009005	-0.0004478962289888572	-7.58665513475773e+21	3.8565543594431535	-0.0016127876379687946	3.295550408396749e+21	0.2140322113572989	-0.0929729807167688	0.0	184.143234	181.538589	-11.421886	-6.759125	-9.894083	-3.4059730000000004	0.0		True	0.0	None	0.0	None	0.0	None	0.0	None	0.0	None	0.0	None	0.0	None	0.0	None	2.1878e-06	12
2014-02-25 07:00:00	5.375052200906812	28687554.0343	1.097246978534818e+20	110015160188.12614	0.7808109608251185	93069668718.63876	5.67766700996408e+19	-2.58891594485614e+22	972.01485163089	-0.6795350497916953	14.595252688219828	1.1764705882352942	27.341297206503647	162.17153944956183	173.6494641982891	65.35599265980561	-0.009186011303824923	-5.812535305514507e+21	2.123102690354948	-0.03241106520283067	2.950381767459521e+21	0.1525666167762844	-0.07744120952395478	0.0	184.146912	181.429413	-11.421803	-6.637088	-9.894397	-3.314652	0.0		True	0.0	None	0.0	None	0.0	None	0.0	None	0.0	None	0.0	None	0.0	None	0.0	None	1.8716e-06	12
2014-02-25 07:12:00	4.722648913327816	19365507.5733	6.507627608545821e+19	110686357711.21213	1.5116528131717604	163387834061.77725	4.0580661321560105e+19	-1.6027600005529755e+22	731.3670032351251	-0.6231994814088646	13.23005988841461	0.0	28.084375401764984	168.6483195381177	180.96674133301846	58.2432470353067	0.02256198228614568	-3.4743186007435337e+21	4.72850769346999	0.09617922485381217	3.6727517613236e+21	0.13509156389512586	-0.14280721955942702	0.0	184.15062	181.320221	-11.421943	-6.515959	-9.895209	-3.193512	0.0		True	0.0	None	0.0	None	0.0	None	0.0	None	0.0	None	0.0	None	0.0	None	0.0	None	1.6611e-06	12
2014-02-25 07:24:00	4.398271772392406	21672720.4136	7.404372498093303e+19	105561493039.18182	0.8257973726617758	152812632481.9034	4.371298343555934e+19	-1.8183171434386838e+22	785.267116797177	-0.6317477534942144	13.913166885697846	1.4084507042253522	29.234716569594497	168.51625981665208	182.33397567093934	65.5266368788655	0.011630948910729235	-4.258784005570418e+21	4.173286316269483	0.0467021678677088	2.9228357539177777e+21	0.14796523465912811	-0.10154966244657153	0.0	184.154282	181.211029	-11.394659	-6.421366	-9.895951	-3.071202	0.0		True	0.0	None	0.0	None	0.0	None	0.0	None	0.0	None	0.0	None	0.0	None	0.0	None	1.6054e-06	12
2014-02-25 07:36:00	5.860478921374685	25276786.1994	1.1998669149020596e+20	130802143215.69122	1.7131005962032404	140747201475.13953	5.37237780407339e+19	-2.0883440374397616e+22	951.0358362872798	-0.6221105991778838	18.261737259275108	4.2105263157894735	30.926750237028607	150.7273975662446	166.72030350220382	57.08074083409853	0.01803263785477096	-7.09736208544559e+21	1.2936081671875463	0.08356233071646	2.3955436985676884e+21	0.2114280070908245	-0.07136243353369097	0.0	184.157944	181.101837	-11.396208	-6.301008	-9.897633	-2.979986	0.0		True	0.0	None	0.0	None	0.0	None	0.0	None	0.0	None	0.0	None	0.0	None	0.0	None	1.645e-06	12
2014-02-25 07:48:00	3.5972781672758214	15678882.6632	4.139082295593043e+19	65783788902.85356	0.2332718300091106	35504568979.88636	2.851131250096196e+19	-1.3582670080584735e+22	779.1688748306963	-0.6523153038070246	11.636635350643015	0.0	27.341695449743337	189.2338044290283	204.19402002010682	56.09407720070421	-0.005831795750227765	-5.19599721054083e+21	1.7210744860815048	-0.01800877851160631	1.6407936981518424e+21	0.2495406631292099	-0.07880003219871283	0.0	184.161636	180.99263	-11.396946	-6.180154	-9.898504	-2.860008	0.0		True	0.0	None	0.0	None	0.0	None	0.0	None	0.0	None	0.0	None	0.0	None	0.0	None	1.3981e-06	12
2014-02-25 08:00:00	4.317694757903313	18626959.917500004	6.670913128006213e+19	79329638277.99289	0.9660429128668488	58903239772.92711	3.590410869669961e+19	-1.6078822393286293e+22	965.982962158432	-0.6499796849256841	13.157453504201953	0.0	26.7088335868168	169.09671079137	180.4219634350921	59.90352671983421	-0.018577748324362483	-5.764318646857911e+21	-1.2337857140048194	-0.0628645537939053	1.5733965413817094e+21	0.23302017562308416	-0.06360389854529785	0.0	184.165268	180.883423	-11.425966	-6.058077	-9.897766	-2.738797	0.0		True	0.0	None	0.0	None	0.0	None	0.0	None	0.0	None	0.0	None	0.0	None	0.0	None	1.3466e-06	12
2014-02-25 08:12:00	5.925738569525462	25999242.9168	9.655456971390958e+19	121872784971.63167	0.6370496547202185	61020368781.25429	5.158714016490377e+19	-2.2056209114649325e+22	920.3079078609736	-0.6387892239149912	13.917041200120153	1.2658227848101269	29.02047426914595	163.3514623058793	178.18777747750647	61.88939821087599	-0.008063919680002765	-4.967098893178682e+21	1.497696468767589	-0.02990332487066897	3.2168056576176124e+21	0.14385650909408634	-0.09316473102125726	0.0	184.1689	180.7742	-11.427069	-5.935895	-9.899004	-2.646461	0.0		True	0.0	None	0.0	None	0.0	None	0.0	None	0.0	None	0.0	None	0.0	None	0.0	None	1.532e-06	12
2014-02-25 08:24:00	7.008747130817994	27752257.2006	6.630252580922244e+19	137845193422.8248	0.2592138288349453	162402503885.53772	5.48823033662271e+19	-2.696050293532672e+22	631.9612510875621	-0.7315047422290788	11.093829414262345	0.0	25.26759812549828	157.73475123852566	173.26624470062112	53.54838732876156	0.003281187706771459	-3.2104888722382505e+21	3.986053477242273	0.010788626684735696	7.976757625603862e+20	0.08710845790041663	-0.02164290497376244	0.0	184.172562	180.664963	-11.427283	-5.8414220000000014	-9.925532	-2.524027	0.0		True	0.0	None	0.0	None	0.0	None	0.0	None	0.0	None	0.0	None	0.0	None	0.0	None	1.4196000000000001e-06	12
2014-02-25 08:36:00	3.9434496908337926	23991156.0423	4.491097764056572e+19	71983103799.12874	0.8266632665913441	70360356594.74811	4.406150949332423e+19	-2.060618092116578e+22	554.3832524194166	-0.6467460144872821	10.123755841931544	0.0	26.38919246154687	179.5315923528307	199.5226213249402	63.9597484962356	-0.013551856829366295	-3.9030893836701925e+21	-0.5029742992616537	-0.041848590875965486	2.907557750107561e+21	0.12250244296765635	-0.09125666682088364	0.0	184.176163	180.55571	-11.427509	-5.724443	-9.926005	-2.433543	0.0		True	0.0	None	0.0	None	0.0	None	0.0	None	0.0	None	0.0	None	0.0	None	0.0	None	1.3332e-06	12
2014-02-25 08:48:00	6.469546919815168	28483280.3137	7.214853817517384e+19	124674014589.28145	0.6767825118351725	126779055822.2005	5.5460952349203735e+19	-2.509153106267523e+22	654.5411608893003	-0.6633224208944951	12.017571908490892	0.0	28.04373829414381	167.35465084144082	181.82984552749642	62.34179712907325	0.008154006166688824	-2.570538472207181e+21	2.961771954314232	0.02857016035911386	2.726247780502221e+21	0.06795503224286341	-0.07207138030771766	0.0	184.179764	180.446457	-11.4291	-5.60254	-9.928052	-2.312463	0.0		True	0.0	None	0.0	None	0.0	None	0.0	None	0.0	None	0.0	None	0.0	None	0.0	None	1.2927000000000001e-06	12
2014-02-25 09:00:00	4.649848561028283	19537933.0642	4.729872797143548e+19	77693328261.8927	0.986842276986296	54659098256.5463	3.4795863890064703e+19	-1.6823266857537103e+22	774.2461517285421	-0.6483643725451924	10.842036055741927	0.0	26.22491611632425	169.08494722085027	185.27109728114903	69.79632090225262	0.02145309297796296	-3.6644794300643e+21	1.9772513329582395	0.061283830927586914	2.7325937087841263e+21	0.14122809359788244	-0.10531345786879688	0.0	184.18338	180.337173	-11.429279	-5.479684	-9.92895	-2.190629	0.0		True	0.0	None	0.0	None	0.0	None	0.0	None	0.0	None	0.0	None	0.0	None	0.0	None	1.1788e-06	12
2014-02-25 09:12:00	3.248642337527776	15101963.0113	4.93074967201274e+19	60527419749.86105	1.0991880889674204	55708177930.70985	2.8540203289444712e+19	-1.0420806944587766e+22	807.1282713841392	-0.5195835404197922	13.672418590070286	0.0	32.009399525357374	188.39808872916302	194.7778564005026	70.93493840233809	0.023895393238422186	-3.1857931142393485e+21	0.7457178906103408	0.09579526127721393	2.958193159017642e+21	0.15884428856070296	-0.14749610879283007	0.0	184.18692	180.227875	-11.428479	-5.388236	-9.928226	-2.099236	0.0		True	0.0	None	0.0	None	0.0	None	0.0	None	0.0	None	0.0	None	0.0	None	0.0	None	1.1521e-06	12
2014-02-25 09:24:00	3.1643668480381866	15150842.8386	4.780797234666816e+19	57110353705.25495	0.913252086227951	52910279947.40635	2.796976011503413e+19	-1.2144941912154125e+22	899.9697230291605	-0.6035958074557544	13.600643186411435	2.5	27.98452831936601	185.22926774184293	204.5190655168153	54.089281292805346	0.022831302155698768	-1.8001646098699434e+21	2.471842268070662	0.07517768763801991	6.703749630074267e+20	0.0894670241411635	-0.03331720481014798	0.0	184.19046	180.118561	-11.428769	-5.266254	-9.930399	-1.978202	0.0		True	0.0	None	0.0	None	0.0	None	0.0	None	0.0	None	0.0	None	0.0	None	0.0	None	1.1241e-06	12
2014-02-25 09:36:00	5.057746403316491	15787005.5031	4.977574344735742e+19	96156972917.61064	0.7781241795246118	129223512264.09575	3.189567510238816e+19	-1.2709975074183993e+22	749.6097949392374	-0.6062230429970211	12.86508269023986	0.0	27.84334557025166	163.99975738390117	180.3237694020048	56.292245295536326	-0.015562483590492237	2.75980323728875e+20	5.011530310777218	-0.06137242645211938	9.20377938035433e+20	-0.01316333279032516	-0.04389893064672165	0.0	184.194031	180.009232	-11.428642	-5.174544999999998	-9.930867	-1.857779	0.0		True	0.0	None	0.0	None	0.0	None	0.0	None	0.0	None	0.0	None	0.0	None	0.0	None	1.1901e-06	12
2014-02-25 09:48:00	3.274941024494689	14886036.2431	3.1077604286070387e+19	61927676385.97124	0.5073879359466831	132534291531.7109	2.922767561805624e+19	-1.3726564456314171e+22	557.1674345673281	-0.694336929220559	9.916921170666182	0.0	25.016126048561702	154.46923605591195	174.8358608509436	64.71645213987911	0.012080665141587692	-3.8402408224506656e+20	6.1190411680215835	0.040233821408741266	5.072021571326933e+20	0.019425261350820268	-0.02565603282586569	0.0	184.197525	179.899872	-11.428761	-5.05172	-9.931554	-1.734948	0.0		True	0.0	None	0.0	None	0.0	None	0.0	None	0.0	None	0.0	None	0.0	None	0.0	None	1.5259e-06	12
2014-02-25 10:00:00	4.60742191506109	20752384.8222	3.940065755528595e+19	82074772907.6842	0.8062641126507316	56708234576.028175	4.026891614431069e+19	-2.0041652266435703e+22	539.4215014109906	-0.7271985154909133	9.762347314883591	0.0	23.89938706900744	155.67290189292729	170.05504332843032	62.60922129836176	0.014659347502740575	-2.3251559294254918e+21	0.8683995871120787	0.044988038376832816	1.2260232492507068e+21	0.0843667935998882	-0.04448546831169122	0.0	184.200989	179.790482	-11.43017	-4.92981	-9.933315	-1.6435509999999998	0.0		True	0.0	None	0.0	None	0.0	None	0.0	None	0.0	None	0.0	None	0.0	None	0.0	None	1.6052000000000001e-06	12
2014-02-25 10:12:00	4.105873192341401	18427391.6355	2.9636748145451704e+19	79383585839.67453	0.3649989186087709	32939336591.172	3.755876594542761e+19	-1.6914133399872207e+22	405.74698379401184	-0.6911516125355538	9.077922025064716	0.0	26.284398924857744	151.3766085263134	166.77948300267832	56.54833049351332	-0.006636343974704925	-7.931106685008346e+20	0.9759544467595248	-0.023424760724578792	9.999858977295856e+20	0.03240838324342673	-0.04086179583601004	0.0	184.204483	179.681076	-11.459409	-4.839201	-9.932993	-1.523733	0.0		True	0.0	None	0.0	None	0.0	None	0.0	None	0.0	None	0.0	None	0.0	None	0.0	None	1.4165000000000001e-06	12
2014-02-25 10:24:00	3.5449042132493185	16053468.7775	2.473526794780338e+19	69519990651.46179	0.26614316976686764	67923625262.71525	3.1528549516590043e+19	-1.4416668637371807e+22	413.8963742686231	-0.6762130459875932	9.050504370789199	0.0	24.878460497726717	173.53678060660368	191.94048676829811	54.86255834282195	0.005914292661485946	-4.702573636721064e+20	2.9270673360628754	0.019780953248843186	-1.08827323662517e+21	0.022057395663689302	0.05104539604228847	0.0	184.207901	179.571655	-11.488591	-4.717323	-9.959193	-1.401857	0.0		True	0.0	None	0.0	None	0.0	None	0.0	None	0.0	None	0.0	None	0.0	None	0.0	None	1.2248000000000001e-06	12
2014-02-25 10:36:00	4.687701860004312	25196770.153	4.559029201223089e+19	90733847578.16043	0.2320836951493508	92166533586.35526	5.169047738704004e+19	-2.3771240337452244e+22	457.7186589293331	-0.7103861324570936	8.953909003389967	0.0	23.90790606572876	164.58887224667004	180.27904389106536	53.305072503769004	-0.0030944492686580108	-1.3491183654590134e+21	2.3831093054535315	-0.010770493058721442	1.2064026119504069e+20	0.040317415677939485	-0.003605245975908712	0.0	184.211304	179.462204	-11.490469	-4.595343	-9.961321	-1.280302	0.0		True	0.0	None	0.0	None	0.0	None	0.0	None	0.0	None	0.0	None	0.0	None	0.0	None	1.1581e-06	12
2014-02-25 10:48:00	4.1833476325715955	16914889.0123	3.578416858845746e+19	84548456613.73148	1.609139997716412	134903812229.69685	3.588984368361332e+19	-1.6175293735410711e+22	489.90941844615935	-0.720063124354125	10.517799646802098	0.0	24.328355307782626	141.3127912208629	156.05315949848432	45.66772361861715	0.029257090867571126	-1.0440150958326685e+21	4.756654428150647	0.11061404850253104	-1.9170535843162208e+21	0.046475617943951636	0.08534000161339031	0.0	184.214722	179.352722	-11.490808	-4.474875	-9.962314	-1.160366	0.0		True	0.0	None	0.0	None	0.0	None	0.0	None	0.0	None	0.0	None	0.0	None	0.0	None	1.2557e-06	12
2014-02-25 11:00:00	2.9615133505912286	12033380.7428	4.59585339808656e+19	59162245493.52696	0.7026169740123723	91524589607.16203	2.536515118916325e+19	-1.0667074273887828e+22	865.1545065025851	-0.6674906085894384	13.484629765988295	0.0	26.58635076771604	139.64140655923015	153.53901409749741	54.24793833513003	0.01756542435030931	2.384938455822969e+21	4.437376609743602	0.07003216914416736	2.3536080375203185e+20	-0.14923717417272844	-0.014727667784137819	0.0	184.218063	179.24321	-11.51898	-4.353867	-9.961946	-1.069189	0.0		True	0.0	None	0.0	None	0.0	None	0.0	None	0.0	None	0.0	None	0.0	None	0.0	None	1.2578e-06	12
2014-02-25 11:12:00	3.1445620292129286	14218349.920400005	2.283604414140929e+19	66981051335.21092	0.20945053094511604	77738043739.43184	2.855200539955975e+19	-1.2411181053072527e+22	390.80102858755737	-0.6572815075251071	8.142410081978653	0.0	27.285834668740158	162.78340251580298	182.82895467742	55.29475378981208	-0.004760239339661728	1.1367853547243374e+21	3.426401748684215	-0.017777307256382994	-7.126367826937153e+20	-0.06020281135941539	0.03774040333823095	0.0	184.221375	179.133682	-11.547945	-4.261273	-9.962043	-0.947442	0.0		True	0.0	None	0.0	None	0.0	None	0.0	None	0.0	None	0.0	None	0.0	None	0.0	None	1.1639e-06	12
2014-02-25 11:24:00	2.6595091690300965	9121961.0639	2.4078273250573337e+19	60501027424.76539	0.460461891612775	44516503262.63272	2.081823490160605e+19	-7.657827298214203e+21	477.12174889703095	-0.6321277051839008	12.99364641913615	0.0	27.889923519344656	139.65198967467737	154.14840445777813	47.48537081183378	-0.012117418200336185	4.8390277703097673e+20	2.180895932573776	-0.061855929565989225	-1.6074911569913453e+20	-0.03994453518794306	0.013269295018044028	0.0	184.224731	179.024124	-11.547861	-4.139467	-9.989785	-0.826184	0.0		True	0.0	None	0.0	None	0.0	None	0.0	None	0.0	None	0.0	None	0.0	None	0.0	None	1.103e-06	12
2014-02-25 11:36:00	1.8351252904660191	10663184.0926	3.290832745948292e+19	38318142780.93457	1.1495372325513302	82200096788.90656	2.290406559791705e+19	-8.920681509819751e+21	652.0930930368701	-0.6299390248792149	12.126659137221866	0.0	28.790327177739037	148.0798518625544	165.55252088681033	50.05808440974079	-0.030250979803982374	1.5877074986544605e+21	1.0524637726038737	-0.13228017867957248	1.295999084578664e+21	-0.11211687272938156	-0.09151771629613252	0.0	184.227966	178.91451999999995	-11.548055	-4.01685	-9.99075	-0.734163	0.0		True	0.0	None	0.0	None	0.0	None	0.0	None	0.0	None	0.0	None	0.0	None	0.0	None	1.0691e-06	12
2014-02-25 11:48:00	0.8304411328408945	5189824.830600001	1.235696820952548e+19	20518730242.524544	0.3157036962021818	34239034888.52611	1.2425474556192758e+19	-4.649296176890354e+21	422.937982545724	-0.6745621271759307	11.107899575951938	0.0	28.010574579504272	144.66230480783813	158.2754224264608	48.82170363712787	-0.014350168009190084	-2.367212556455249e+20	1.6373932168453742	-0.0726533589942749	1.4792427421555168e+21	0.034345670329569214	-0.21462197562672394	0.0	184.231201	178.804901	-11.548444	-3.896564	-9.991836	-0.61347	0.0		True	0.0	None	0.0	None	0.0	None	0.0	None	0.0	None	0.0	None	0.0	None	0.0	None	1.0763e-06	12
