Timestamp	TOTUSJH	TOTBSQ	TOTPOT	TOTUSJZ	ABSNJZH	SAVNCPP	USFLUX	TOTFZ	MEANPOT	EPSZ	MEANSHR	SHRGT45	MEANGAM	MEANGBT	MEANGBZ	MEANGBH	MEANJZH	TOTFY	MEANJZD	MEANALP	TOTFX	EPSY	EPSX	R_VALUE	CRVAL1	CRLN_OBS	LAT_MIN	LON_MIN	LAT_MAX	LON_MAX	QUALITY	NOAA_AR	IS_TMFI	BFLARE	BFLARE_label	CFLARE	CFLARE_label	MFLARE	MFLARE_label	XFLARE	XFLARE_label	BFLARE_loc	BFLARE_label_loc	CFLARE_loc	CFLARE_label_loc	MFLARE_loc	MFLARE_label_loc	XFLARE_loc	XFLARE_label_loc	XR_MAX	XR_QUAL
2014-02-19 10:36:00	130.15182065032772	844479783.3608	6.535866608758622e+21	3110646297575.7744	9.50302598790853	962462598516.1588	1.6673333583148218e+21	-6.528561025833092e+23	1699.9733915348074	-0.5821242918967185	23.427683819965463	4.110535405872193	30.86339700012526	129.3374157807244	129.59162973719575	56.68266008052482	0.003282565108085848	-1.9196603142671707e+23	0.6464940597129745	0.014225320394931237	2.604328738755602e+23	0.17116802564963546	-0.2322170256072502	0.0	237.952179	258.48288	-24.346418	-25.579943	-18.209131	-16.365042000000006	0.0		True	0.0	None	0.0	None	0.0	None	0.0	None	0.0	None	0.0	None	0.0	None	0.0	None	1.8375e-06	12
2014-02-19 10:48:00	137.99561906572802	860041162.2934	6.671881604908549e+21	3266050628276.681	17.652854838564078	1840201541662.701	1.7039193201461423e+21	-6.633246404258962e+23	1679.6526070192126	-0.5807569867489736	23.639265157499324	5.0150451354062175	31.070344518989852	128.52900464321513	129.25143659163652	56.4497686817726	0.005901990918944861	-2.025697676699776e+23	1.196426525867092	0.02596932121328729	2.523150351869705e+23	0.1773547984029677	-0.2209079998182525	0.0	237.953705	258.373413	-24.350201	-25.4737	-18.208765	-16.259441	0.0		True	0.0	None	0.0	None	0.0	None	0.0	None	0.0	None	0.0	None	0.0	None	0.0	None	1.0686e-06	12
2014-02-19 11:00:00	132.94145519780074	850667397.9472001	6.51877617562212e+21	3134622703147.819	15.319105713172467	1547605272866.9666	1.6545082116555394e+21	-6.529431987245842e+23	1727.7558906587528	-0.5779671568594859	23.481520380219173	4.716649067229849	31.19322012407041	132.26448555389766	132.87535892274838	58.23948283114441	0.00539215266215152	-2.0298423423297614e+23	1.0593371842550392	0.02282473060588279	2.361391883375653e+23	0.1796759978143501	-0.2090238409300558	0.0	237.955292	258.263885	-24.352821	-25.362835	-18.212215	-16.143632999999998	0.0		True	0.0	None	0.0	None	0.0	None	0.0	None	0.0	None	0.0	None	0.0	None	0.0	None	1.2253e-06	12
2014-02-19 11:12:00	140.92892276097436	839186401.4012	6.398950398413187e+21	3251597587568.035	16.151898974368287	1654165150358.2754	1.6248141294405443e+21	-6.423870988159636e+23	1732.5874746600382	-0.5764024102811306	23.62258698943968	5.393743257820928	31.149887111543503	133.0161809672439	133.78616590619737	58.490484895751635	0.005807946412933579	-2.0164171052127365e+23	1.1414606161192928	0.02441901025651104	2.362584194744704e+23	0.1809294865539785	-0.2119904379856001	0.0	237.956802	258.154358	-24.356527	-25.26034	-18.21641	-16.015692	0.0		True	0.0	None	0.0	None	0.0	None	0.0	None	0.0	None	0.0	None	0.0	None	0.0	None	1.0126e-06	12
2014-02-19 11:24:00	139.02563292614298	834277047.7401001	6.37802518799113e+21	3171520937235.6284	17.203394249526553	1433271764502.0366	1.6194846304198e+21	-6.478768214767141e+23	1740.6920083926248	-0.5847490879941795	23.680207172515804	4.820587169264226	30.836507133687697	130.48887301506235	132.01954875725184	57.698640016814004	0.0062353730516587725	-2.1198348545041065e+23	1.005700915549837	0.026023956940380226	2.2470709216390544e+23	0.19132826746976045	-0.20281211312541209	0.0	237.958298	258.0448	-24.35512	-25.150221	-18.210199	-15.9117	0.0		True	0.0	None	0.0	None	0.0	None	0.0	None	0.0	None	0.0	None	0.0	None	0.0	None	1.0456e-06	12
2014-02-19 11:36:00	130.24168263478822	817801833.5087	6.270470136030237e+21	3106575802349.128	12.889201198649205	1258689438047.9858	1.5908509249748953e+21	-6.288533143525188e+23	1736.5143922486366	-0.5790136006940887	23.646198380856234	4.5972784111805804	31.030097283161307	130.20863300096426	132.72119421427723	57.10879315743031	0.004740419712633027	-2.105511349863665e+23	0.8886324477883101	0.019962827223103486	2.2033992126803044e+23	0.19386392345599127	-0.20287690034903166	0.0	237.959808	257.935211	-24.355707	-25.038727	-18.212824	-15.806532999999998	0.0		True	0.0	None	0.0	None	0.0	None	0.0	None	0.0	None	0.0	None	0.0	None	0.0	None	1.0411e-06	12
2014-02-19 11:48:00	133.48596574660496	816529766.6533	6.394374613689933e+21	3118305855913.918	12.958479373123204	1058935189859.1708	1.5825469630485884e+21	-6.206835108634883e+23	1780.6512564279678	-0.5723816053965669	23.944935740474552	5.066568047337278	31.00205810664393	130.03708646159717	132.0576410237703	56.536020351492965	0.004792337046273374	-2.1071239640722497e+23	0.7552056002410114	0.020186176269430256	2.264318213861641e+23	0.19431465089951688	-0.20881078225773328	0.0	237.96119700000003	257.825592	-24.356501	-24.92786	-18.215631	-15.679342000000002	0.0		True	0.0	None	0.0	None	0.0	None	0.0	None	0.0	None	0.0	None	0.0	None	0.0	None	9.2575e-07	12
2014-02-19 12:00:00	133.10186816169005	814496795.8626	6.300707960600155e+21	3138149962579.1104	7.796068183565698	964942749237.2048	1.5894626145153987e+21	-6.217729779026513e+23	1742.3250251737154	-0.5748174304903956	23.737566860198736	4.333455747337497	31.06385178011217	130.00552649367305	133.48307256596505	56.006879103037775	0.002863043769212523	-2.142103599417063e+23	0.6892003248740152	0.012155869560605164	2.1812836435378745e+23	0.1980334512147176	-0.20165557264623973	0.0	237.96261600000003	257.715912	-24.361513	-24.810776	-18.221275	-15.572695	0.0		True	0.0	None	0.0	None	0.0	None	0.0	None	0.0	None	0.0	None	0.0	None	0.0	None	9.1841e-07	12
2014-02-19 12:12:00	133.3946989717038	790529126.5159001	6.067567363940964e+21	3073991110671.877	11.948983902549177	1499062220978.064	1.5355382558548474e+21	-6.044902603756215e+23	1761.9744858998267	-0.5757831580946121	23.40881522327273	5.013497878904745	30.863077034434518	130.173786628251	134.08046248310626	55.043152810117284	0.004608169650038247	-2.072111756277932e+23	1.1243950456933207	0.01918433022390028	2.1117876484971167e+23	0.19737076495050784	-0.2011499342803806	0.0	237.96398900000003	257.606232	-24.36334	-24.701584	-18.225056	-15.446965	0.0		True	0.0	None	0.0	None	0.0	None	0.0	None	0.0	None	0.0	None	0.0	None	0.0	None	9.1444e-07	12
2014-02-19 12:24:00	130.01565999501886	780864287.2209	6.023590592128029e+21	3059748997015.5737	12.355200508179527	1054366756662.5786	1.5230362963335997e+21	-5.96171984556919e+23	1743.1534983091349	-0.5748883139227331	23.76856997120645	5.8800922367409685	30.91704686842835	129.10192013869684	132.79238926974574	55.98895190820887	0.004748347620361079	-2.018576926214984e+23	0.7808103908179826	0.02009344822583609	2.0496902667216085e+23	0.1946512609943468	-0.1976515186930796	0.0	237.965317	257.496521	-24.368256	-24.594873	-18.230597	-15.343719	0.0		True	0.0	None	0.0	None	0.0	None	0.0	None	0.0	None	0.0	None	0.0	None	0.0	None	8.390900000000002e-07	12
2014-02-19 12:36:00	131.11622947451687	788288693.0857	6.229667817338957e+21	3073978957301.2783	11.37057815028733	1455820194614.387	1.5378384015952016e+21	-6.108751699154726e+23	1797.2641027353318	-0.5835185859073238	24.12061150010428	6.130268199233716	30.64660737959024	130.3997725623708	133.8190563883195	54.58051974416124	0.004356543352600511	-2.088575475692904e+23	1.0849005560294525	0.01821814191388133	2.036779510349918e+23	0.1995043616367113	-0.19455672094985446	0.0	237.966675	257.38678	-24.370117	-24.484987	-18.234369	-15.240047	0.0		True	0.0	None	0.0	None	0.0	None	0.0	None	0.0	None	0.0	None	0.0	None	0.0	None	8.3041e-07	12
2014-02-19 12:48:00	125.2500174579867	747618375.5626	5.748532309060084e+21	2842125591827.4937	7.931637102042843	777815466806.8279	1.4501880721740113e+21	-5.815390260078456e+23	1796.0871020111	-0.5857150151504459	23.42028609323448	4.190871369294605	30.33936281348857	128.87209092589165	132.00068932797734	55.18636457681507	0.0032911357269887315	-1.989147902601935e+23	0.6277589038701128	0.013380973957250087	2.013909916457128e+23	0.2003431827966868	-0.2028371656029506	0.0	237.967926	257.276978	-24.374264	-24.37521	-18.239191	-15.113577	0.0		True	0.0	None	0.0	None	0.0	None	0.0	None	0.0	None	0.0	None	0.0	None	0.0	None	8.666800000000002e-07	12
2014-02-19 13:00:00	124.30538479477563	728428675.4314001	5.516960653948435e+21	2870139020264.1426	7.486959032672338	1055981697713.8082	1.4227520040225625e+21	-5.618282396809909e+23	1728.036778225691	-0.5807698854733525	23.44975549476752	4.450915141430949	30.77268595375724	128.35873557029907	132.51288555368996	54.63465925639166	0.0031143756375508896	-1.9466919182857637e+23	0.854409758321663	0.013004083955573769	1.8960659163625976e+23	0.20123232735269286	-0.19599904513897126	0.0	237.969177	257.167175	-24.367279	-24.259592	-18.242964	-15.009332999999998	0.0		True	0.0	None	0.0	None	0.0	None	0.0	None	0.0	None	0.0	None	0.0	None	0.0	None	9.7876e-07	12
2014-02-19 13:12:00	121.51594369179594	736533199.8355	5.621845193359696e+21	2757673252048.2983	9.379841895178627	852699509908.3892	1.4405638719418713e+21	-5.681614730084115e+23	1745.6396690194479	-0.5808539086751968	23.467610375982872	4.783505154639175	30.643231849172114	128.10834804972427	131.43272128632722	54.397978686839934	0.0038679760392489188	-2.031088813036945e+23	0.6818944280144569	0.016111703036087555	1.9362403737944454e+23	0.2076462294551797	-0.1979494989862816	0.0	237.970444	257.057343	-24.363119	-24.144131	-18.247238	-14.905154	0.0		True	0.0	None	0.0	None	0.0	None	0.0	None	0.0	None	0.0	None	0.0	None	0.0	None	9.7424e-07	12
2014-02-19 13:24:00	125.48506421165537	751118690.7009001	5.827788467225428e+21	2929014996084.846	13.140299522187151	1516680338651.032	1.465368602896237e+21	-5.676161308873531e+23	1759.5224545080378	-0.5690280077102972	23.589788236971287	4.691259021651963	30.821863964260963	128.99264679882575	131.9444520545344	56.25325572971839	0.005270878268025332	-1.995205673647096e+23	1.1727738107422234	0.022303923024667303	2.086377760527941e+23	0.2000168507672312	-0.20915673741483126	0.0	237.971542	256.947449	-24.366543	-24.03469500000001	-18.252836	-14.79829	0.0		True	0.0	None	0.0	None	0.0	None	0.0	None	0.0	None	0.0	None	0.0	None	0.0	None	9.4167e-07	12
2014-02-19 13:36:00	128.82148475065543	756295807.0335	5.881782377546154e+21	3012947677035.128	11.544079868902664	1430007391892.1394	1.4890076174758844e+21	-5.777598651906208e+23	1728.6905533204376	-0.5752320949615284	23.87450634276061	5.07416081186573	30.62035759092927	127.3431600679726	130.26662717439208	55.722310252966956	0.0045058859753718435	-2.0350349926759047e+23	1.0843168138639672	0.019379968819190786	2.0368607901461728e+23	0.2026131465138646	-0.2027949274521185	0.0	237.972748	256.837555	-24.37215	-23.92174	-18.259113	-14.678391	0.0		True	0.0	None	0.0	None	0.0	None	0.0	None	0.0	None	0.0	None	0.0	None	0.0	None	9.1395e-07	12
2014-02-19 13:48:00	124.28568160677544	750778393.4025	5.936272967166547e+21	3009430010276.7583	3.031810900554736	582881569608.5613	1.4741159260907105e+21	-5.668933812383516e+23	1732.5336044816129	-0.5685610846305404	24.959457959412926	6.899224806201551	31.35268473989857	128.26530537637905	131.01245374189608	55.09613557221953	0.001175120504090983	-2.01852740052548e+23	0.3272819636511545	0.005148952720645011	2.038609173363993e+23	0.20244655629815825	-0.20446064129619207	0.0	237.973877	256.72763100000003	-24.37571	-23.811295	-18.263416	-14.573913	0.0		True	0.0	None	0.0	None	0.0	None	0.0	None	0.0	None	0.0	None	0.0	None	0.0	None	9.8189e-07	12
2014-02-19 14:00:00	132.09458229099855	762929672.8367	5.76861141792448e+21	3022660598002.0586	16.751220398383712	1286287801503.6482	1.4824894202587796e+21	-5.821993023564864e+23	1722.3193503164155	-0.5746119482081465	23.480618659920783	4.282315622521808	30.909584224681225	130.66117295166183	134.19844822361807	56.46820961145258	0.0066420382229911605	-2.023965087855957e+23	0.959430314293146	0.0278880661232022	1.970917083947405e+23	0.1997588313024241	-0.19452316428065533	0.0	237.974945	256.61764500000004	-24.380581	-23.692074	-18.270149	-14.470664	0.0		True	0.0	None	0.0	None	0.0	None	0.0	None	0.0	None	0.0	None	0.0	None	0.0	None	9.7605e-07	12
2014-02-19 14:12:00	129.47721627372707	743423532.9553001	5.610233283840015e+21	2950407110264.9824	14.65002401002525	1183116146974.171	1.442916510265721e+21	-5.80317003225474e+23	1745.6331435802356	-0.5877821805710499	23.716669226034604	5.661157024793388	30.451207727325386	130.82042686490792	134.23127361164129	55.95522261485342	0.006053728929762501	-1.9363122374180865e+23	0.9303914035428008	0.0248222476371532	1.986532596054844e+23	0.1961220889358996	-0.20120872809079346	0.0	237.976059	256.50766	-24.385372	-23.575117	-18.275629	-14.365182	0.0		True	0.0	None	0.0	None	0.0	None	0.0	None	0.0	None	0.0	None	0.0	None	0.0	None	1.2043e-06	12
2014-02-19 14:24:00	131.53085603758586	759760971.8094	5.584135603290811e+21	2992203495578.8853	18.16854690161609	1628423980834.1238	1.4677183157020996e+21	-5.958782531294888e+23	1714.1380338893634	-0.5905653183535227	23.19134949951375	4.647370566653078	30.49849290881425	134.7352018085268	137.35145934530487	57.60812527826924	0.007406664044686544	-1.9530332439378085e+23	1.291487580741458	0.03006918803524293	1.9433872177668178e+23	0.19356197233304706	-0.1926059702492993	0.0	237.977051	256.397644	-24.38625	-23.465662	-18.280075	-14.244935	0.0		True	0.0	None	0.0	None	0.0	None	0.0	None	0.0	None	0.0	None	0.0	None	0.0	None	9.5253e-07	12
2014-02-19 14:36:00	126.84601204878588	748428059.0994	5.403576713050795e+21	2895941434463.033	17.546475206173728	1408420373908.587	1.449754986218486e+21	-5.795618934341807e+23	1666.1847718930874	-0.5830922384726367	23.037718350717	4.8730548730548735	30.58766617124383	131.87598441095386	134.60371906061778	56.89958771458886	0.007185288782216924	-1.929572503078934e+23	1.1220638776054035	0.0296185369364182	1.915893916872851e+23	0.19413263067533287	-0.1927564398766616	0.0	237.978104	256.287598	-24.386774	-23.356462	-18.283897	-14.138333	0.0		True	0.0	None	0.0	None	0.0	None	0.0	None	0.0	None	0.0	None	0.0	None	0.0	None	8.9029e-07	12
2014-02-19 14:48:00	127.8217706108331	740525528.7169001	5.242175582742416e+21	2885132234747.4736	22.922224950079414	1806519404542.9463	1.4367411318578503e+21	-5.81269023363073e+23	1648.8262525232724	-0.5910505434842698	22.671875614452816	4.177109440267335	30.499890909397248	132.39979463849778	135.853988906229	56.08198641053669	0.009574864223090816	-1.857489128885675e+23	1.4620463624135704	0.03891013653464784	1.8839114107850884e+23	0.18887467162657454	-0.1915613628915567	0.0	237.979065	256.177521	-24.391897	-23.23591	-18.290785	-14.036775	0.0		True	0.0	None	0.0	None	0.0	None	0.0	None	0.0	None	0.0	None	0.0	None	0.0	None	8.645099999999998e-07	12
2014-02-19 15:00:00	127.42360830619884	734669679.2328	5.432149505684302e+21	2989885964095.6143	13.947876056055255	1102475886126.7336	1.444857411319516e+21	-5.777448098641851e+23	1653.9984915960003	-0.5921496100904793	23.696743903399824	5.135463000404368	30.942878926284354	131.90192740635558	133.50556204804562	56.643716062195345	0.005640063103944706	-1.880737940551675e+23	0.8673540349984472	0.02384855577018995	1.9422299383313883e+23	0.19276300178998512	-0.19906551838334074	0.0	237.980011	256.067413	-24.383825	-23.126366	-18.29641	-13.934193	0.0		True	0.0	None	0.0	None	0.0	None	0.0	None	0.0	None	0.0	None	0.0	None	0.0	None	8.511199999999998e-07	12
2014-02-19 15:12:00	115.47563819724004	718349751.3178	5.247928716964744e+21	2857490740309.122	16.404988888391838	1676167470601.166	1.4246650557181185e+21	-5.624461585915873e+23	1569.3493097101693	-0.5895659977336526	24.34363298751897	6.513105639396348	31.39439991900066	129.12287987656651	129.83396813844863	55.35031223038364	0.00651508692946459	-1.87422354858411e+23	0.9722516087348996	0.02873369160515445	1.858695965368664e+23	0.1964594227408108	-0.194831794042318	0.0	237.980972	255.957275	-24.383879	-23.016666	-18.301952	-13.814148	0.0		True	0.0	None	0.0	None	0.0	None	0.0	None	0.0	None	0.0	None	0.0	None	0.0	None	8.371899999999998e-07	12
2014-02-19 15:24:00	119.76807432288322	741483078.7377	5.376215398445571e+21	2780709625576.9297	20.74856037226633	1584762469825.7236	1.4570858839538687e+21	-5.836699515284336e+23	1610.9114727987567	-0.5927254755087566	23.929354816218318	5.531237564663749	31.36536227480363	130.4052437257859	131.898597774813	56.49492614841011	0.0082564903988326	-1.813529070037561e+23	1.220027127795354	0.0351378992558546	1.9439181977046596e+23	0.18416656152541394	-0.1974077704475574	0.0	237.981842	255.847137	-24.375643	-22.898134	-18.324007	-13.710541	0.0		True	0.0	None	0.0	None	0.0	None	0.0	None	0.0	None	0.0	None	0.0	None	0.0	None	9.4701e-07	12
2014-02-19 15:36:00	123.75619638837946	752699059.1675	5.518874091191827e+21	2986025900874.7607	19.056445939968906	1822598381428.5483	1.4843792268910988e+21	-5.883279999666448e+23	1571.7249814159313	-0.5885531190043873	24.53912505258081	6.959152798789713	31.88834897047673	129.13685556994986	129.94483994730817	56.32314210991317	0.007210157374184225	-1.8016247474059622e+23	1.3412498112355309	0.031882644199473516	1.9790916876369106e+23	0.1802314124810288	-0.1979848971356792	0.0	237.982758	255.736954	-24.37845	-22.788326	-18.328955	-13.607668	0.0		True	0.0	None	0.0	None	0.0	None	0.0	None	0.0	None	0.0	None	0.0	None	0.0	None	1.0934e-06	12
2014-02-19 15:48:00	118.11643119032594	735273260.6991	5.347055963643042e+21	2750100382928.7173	12.168408423857665	1081702661874.8271	1.4611854749767751e+21	-5.739225928112903e+23	1596.4567242411472	-0.5877492071867328	23.257749741667837	4.9960348929421095	30.38526256948063	133.83992114976678	134.49783143956265	57.781772688199894	0.0048249042124733	-1.7520721217465935e+23	0.8345490395612833	0.02084649743886248	2.0084059450997298e+23	0.17942820397543324	-0.20567913107571686	0.0	237.983658	255.626755	-24.38113	-22.679081	-18.338842	-13.505212	0.0		True	0.0	None	0.0	None	0.0	None	0.0	None	0.0	None	0.0	None	0.0	None	0.0	None	1.1481999999999999e-06	12
2014-02-19 16:00:00	116.35162928579562	733495401.5288	5.078925025940208e+21	2758667844565.038	14.185727504488494	1253338189464.5125	1.461719942761304e+21	-5.72197665467255e+23	1485.767473048616	-0.5874031527114937	22.908365085765446	4.972804972804973	31.16182301350608	133.98153863987628	134.87760019763542	57.07332557951743	0.0055111606466544255	-1.7157829275924185e+23	0.8983566584086872	0.02436671450295064	1.891441588458092e+23	0.17613778626889898	-0.19417044480995	0.0	237.984436	255.516541	-24.383709	-22.56983	-18.34853	-13.402716	0.0		True	0.0	None	0.0	None	0.0	None	0.0	None	0.0	None	0.0	None	0.0	None	0.0	None	1.339e-06	12
2014-02-19 16:12:00	117.18897176780963	720178777.2436001	5.074337330689483e+21	2738677535576.177	10.39577568947826	606295263997.6951	1.4226215678144435e+21	-5.6129929192054745e+23	1551.9538928482852	-0.5868697218163629	22.4841846155124	3.290008123476848	30.97100508424404	136.40930088387998	136.9349118701397	57.98757232194855	0.004222492156571186	-1.6780555808099965e+23	0.4791835286530222	0.018193041198432663	1.9481986356228965e+23	0.17545007201643814	-0.20369503539171893	0.0	237.985306	255.406311	-24.383375	-22.455002	-18.339819	-13.281903	0.0		True	0.0	None	0.0	None	0.0	None	0.0	None	0.0	None	0.0	None	0.0	None	0.0	None	1.3312e-06	12
2014-02-19 16:24:00	110.5715220941833	704736215.0206	4.746584301168464e+21	2527029992719.311	11.168511220376878	932095831044.8666	1.377987954796365e+21	-5.520114767395667e+23	1527.4000635777256	-0.5898057209318384	21.67615521273179	3.5470085470085464	30.77702587109887	139.74089063060123	139.906749655313	58.12486768539065	0.004772868042896102	-1.700720891135383e+23	0.7751006604253088	0.019936762506676173	1.959727427939849e+23	0.18171631452749545	-0.20939029298683984	0.0	237.986099	255.296051	-24.376425	-22.332464	-18.344618	-13.17975	0.0		True	0.0	None	0.0	None	0.0	None	0.0	None	0.0	None	0.0	None	0.0	None	0.0	None	1.2267e-06	12
2014-02-19 16:36:00	103.58986930385059	697843806.267	4.838871746747383e+21	2362720342686.1875	17.855658449739046	1567975776281.7373	1.363666671293208e+21	-5.475588522108491e+23	1565.7960738471813	-0.5908266110494781	22.086600724073378	3.8246669531585735	30.79962197317027	137.94209811072201	137.37626499438977	57.381765947407686	0.007676551354144044	-1.6825137196237648e+23	1.2961189022394537	0.03217565064680825	1.9694064710439694e+23	0.18154649039018209	-0.2125027741525326	0.0	237.986877	255.185776	-24.372337	-22.224653	-18.331944	-13.078248	0.0		True	0.0	None	0.0	None	0.0	None	0.0	None	0.0	None	0.0	None	0.0	None	0.0	None	1.0839e-06	12
2014-02-19 16:48:00	102.70502636840179	679201289.7774	4.632542392772732e+21	2333451483460.7754	13.795119042093262	1011741562398.2544	1.3204185578892852e+21	-5.330424293550401e+23	1562.133700978145	-0.5909500860911873	22.065513827686644	3.2691446484549935	30.53565650433326	137.91556708217897	136.8715238763301	58.08554146685156	0.00617784103989846	-1.596015804297441e+23	0.8816746512943542	0.025532914546713085	1.946777811283962e+23	0.17694007550086788	-0.2158268182460948	0.0	237.987701	255.0755	-24.371408	-22.111635	-18.322088	-12.976806	0.0		True	0.0	None	0.0	None	0.0	None	0.0	None	0.0	None	0.0	None	0.0	None	0.0	None	1.029e-06	12
2014-02-19 17:00:00	98.90996818460691	671306055.8134	4.4505633923264697e+21	2192040306037.8403	18.110327440851886	1304589053351.2869	1.2901806968633342e+21	-5.29427725155082e+23	1569.6565727421662	-0.5938457418802306	21.408159865927924	1.873536299765808	30.343051616093998	140.79672353762166	140.00349559487407	59.19191477634961	0.008482588965270205	-1.5913424124806586e+23	1.189076008677442	0.033852398668776464	1.9240340270082974e+23	0.17849686947321014	-0.21581404975284613	0.0	237.988388	254.965195	-24.372143	-22.00312000000001	-18.311615	-12.874842999999998	0.0		True	0.0	None	0.0	None	0.0	None	0.0	None	0.0	None	0.0	None	0.0	None	0.0	None	9.8355e-07	12
2014-02-19 17:12:00	94.7448577563364	647779569.0555	4.272071801466658e+21	2104050171423.265	17.224017030675498	1188154423464.2363	1.2510131030448865e+21	-5.125578630168253e+23	1563.838028791312	-0.5958036676492231	21.151668638146752	2.236266407389402	29.96845800572248	138.80092648468934	137.6338244399092	58.15679303834013	0.008373367540435342	-1.5051539173762696e+23	1.1240305034024356	0.03332404688001429	1.924836055435097e+23	0.1749609730052935	-0.2237453493936641	0.0	237.989197	254.854889	-24.374067	-21.87612	-18.313887	-12.770638	0.0		True	0.0	None	0.0	None	0.0	None	0.0	None	0.0	None	0.0	None	0.0	None	0.0	None	9.537e-07	12
2014-02-19 17:24:00	97.10238639197658	638843895.6273	4.4192844934170343e+21	2149583071859.376	14.16582433119008	824491555493.8384	1.2316856091696337e+21	-4.980676799448153e+23	1635.2155042436139	-0.5870580680168173	21.559794551243773	2.0147420147420148	30.417144694517308	140.06489695536243	138.72082067274022	59.07966870828634	0.006961093037439843	-1.5113922551362467e+23	0.7884359715738479	0.027943723862667358	1.9556471532946482e+23	0.17814346383892518	-0.23050651262152744	0.0	237.989914	254.744568	-24.365919	-21.768297	-18.316875	-12.669256	0.0		True	0.0	None	0.0	None	0.0	None	0.0	None	0.0	None	0.0	None	0.0	None	0.0	None	9.261100000000001e-07	12
2014-02-19 17:36:00	94.43515040494776	623016155.0539	4.220786133536937e+21	2080156156529.6624	17.31475549496543	1068874465048.6422	1.1836082185935533e+21	-4.8141536825804735e+23	1636.5586529303241	-0.5818460563696595	21.684316186591115	2.4716786817713703	30.630347548287386	139.98680965762597	138.4743797874677	60.28911584887378	0.008915940007706192	-1.4760254866703303e+23	1.0710919360903215	0.03513846894545709	1.9302404861003945e+23	0.17839472213523022	-0.23329184914607165	0.0	237.990631	254.634232	-24.35615	-21.657625	-18.319345	-12.567968	0.0		True	0.0	None	0.0	None	0.0	None	0.0	None	0.0	None	0.0	None	0.0	None	0.0	None	9.1354e-07	12
2014-02-19 17:48:00	101.91606474565916	663324755.2179999	4.4924455088968497e+21	2188680468899.6936	16.240085026580307	1060930150069.138	1.232226741165123e+21	-5.057363976092521e+23	1693.0694437826858	-0.5740972186889767	21.333776102683057	2.3523523523523524	31.28271974810988	145.18583024160628	143.78567586039603	62.81191897367219	0.008128170683974126	-1.5380398237439e+23	1.0333432853109088	0.03110717249048002	1.994149759019738e+23	0.17459379811663828	-0.2263700686196332	0.0	237.991394	254.523895	-24.357754	-21.529831	-18.313845	-12.468816	0.0		True	0.0	None	0.0	None	0.0	None	0.0	None	0.0	None	0.0	None	0.0	None	0.0	None	8.9795e-07	12
2014-02-19 18:00:00	98.95278804247437	646706418.9262	4.352607713154944e+21	2116226891920.3984	13.467723193120401	899004359646.3019	1.1850215812441967e+21	-4.952710274884805e+23	1755.4668256680359	-0.5766644366793547	21.12677302619535	1.7139796464916983	30.58269466476911	148.60368524377546	147.21036416862518	63.881398408374004	0.007213563574247669	-1.5158550877430597e+23	0.9370747455053982	0.026416649497857214	1.9629560276798952e+23	0.17649724529489402	-0.2285550474592821	0.0	237.992065	254.413559	-24.358702	-21.418394	-18.30275	-12.368594	66560.0		False	0.0	None	0.0	None	0.0	None	0.0	None	0.0	None	0.0	None	0.0	None	0.0	None	9.145299999999999e-07	12
2014-02-19 18:12:00	90.07267860955778	623958715.2024	4.310064635293508e+21	1874164408437.4824	20.921083681046024	1475809123758.6338	1.1198837377608626e+21	-4.728846013420417e+23	1894.584310661384	-0.5706723535763034	21.375832579226827	1.8680677174547573	30.698136298786824	147.81902672407276	146.12629706817418	65.21953059637082	0.012213125324603634	-1.5050744139834988e+23	1.676611846002289	0.0426945772454328	1.932297174439055e+23	0.18163085786635408	-0.2331876684536778	0.0	237.992813	254.303207	-24.337948	-21.297039	-18.305243	-12.246387	66560.0		False	0.0	None	0.0	None	0.0	None	0.0	None	0.0	None	0.0	None	0.0	None	0.0	None	1.0252e-06	12
2014-02-19 18:24:00	97.59308303888346	629934599.1282	4.4870060319859744e+21	2086724160495.2173	15.494769419950874	1138263927335.3215	1.1408401074261448e+21	-4.7347143461886494e+23	1895.9919216780386	-0.5659601443499119	21.944165630309357	2.7497194163860827	30.8639424308402	148.7599884747878	147.1092603700168	66.17839981335541	0.008695156801319234	-1.535258129721621e+23	1.24307466346748	0.03141513615781784	1.892024795454888e+23	0.18351580458302985	-0.2261616114626307	0.0	237.993576	254.192871	-24.34256700000001	-21.18523	-18.299036	-12.145377	0.0		True	0.0	None	0.0	None	0.0	None	0.0	None	0.0	None	0.0	None	0.0	None	0.0	None	9.7297e-07	12
2014-02-19 18:36:00	94.74453191539664	616538086.7593	4.2600554732181835e+21	1987391560011.5024	9.697348802962164	629089753650.3296	1.120361224049239e+21	-4.707790045574615e+23	1858.4972699289867	-0.5749692785680168	21.467147483162105	2.4333719582850524	30.198324654030284	146.43196523511682	146.41177125725176	64.96060675575606	0.005618394439723154	-1.4445237617383647e+23	0.7093087064240218	0.019973354739724287	1.8532699718858564e+23	0.1764217981517251	-0.2263425701680628	0.0	237.994217	254.08252	-24.342831	-21.06282	-18.301512	-12.043526	0.0		True	0.0	None	0.0	None	0.0	None	0.0	None	0.0	None	0.0	None	0.0	None	0.0	None	9.125399999999999e-07	12
2014-02-19 18:48:00	100.57375718774985	617204539.0169001	4.3091992829920396e+21	2086926646043.441	8.478911069865303	728541271388.6814	1.1213408500620392e+21	-4.716939460110683e+23	1877.7608572080667	-0.5754646252664299	21.74248579930078	2.083333333333333	30.29468610921077	147.8833005160159	148.1525222222877	66.16971825725533	0.004906777239505385	-1.4571657278225907e+23	0.8204928847312201	0.017439430897349	1.7797911202874335e+23	0.1777736043898336	-0.2171337662376304	0.0	237.994965	253.972168	-24.339256	-20.943718	-18.242474	-11.943347	0.0		True	0.0	None	0.0	None	0.0	None	0.0	None	0.0	None	0.0	None	0.0	None	0.0	None	9.4104e-07	12
2014-02-19 19:00:00																																	False	0.0	None	0.0	None	0.0	None	0.0	None	0.0	None	0.0	None	0.0	None	0.0	None	9.7161e-07	12
2014-02-19 19:12:00																																	False	0.0	None	0.0	None	0.0	None	0.0	None	0.0	None	0.0	None	0.0	None	0.0	None	9.8591e-07	12
2014-02-19 19:24:00	100.07977282384545	578810044.1912	3.778321090127821e+21	2073809065624.9368	8.31182929236975	912680564380.9	1.0839866085609856e+21	-4.582504151206594e+23	1685.442285291739	-0.5961482501378578	21.13679868790747	3.080568720379147	29.66148715067273	137.40792037459155	141.6642597134651	58.572428503092745	0.004924069486001036	-1.5447424432820404e+23	1.0522276776608979	0.017993569503895437	1.3200734750788204e+23	0.20095901151203355	-0.17173132118482204	0.0	237.997147	253.641144	-24.319973	-20.568512	-17.950026	-11.640315	0.0		True	0.0	None	0.0	None	0.0	None	0.0	None	0.0	None	0.0	None	0.0	None	0.0	None	1.0834e-06	12
2014-02-19 19:36:00	99.57196895108848	572256893.9920001	3.701120778884036e+21	2059398957805.568	1.1368077333743725	352151657982.1187	1.0787000067984432e+21	-4.649744649430126e+23	1671.8034225283825	-0.611822750562957	21.049313001152502	2.2795440911817635	29.02154922948107	136.45597209717894	140.63440673486215	57.78452252471591	0.0006819482503745486	-1.4964331396600643e+23	0.41110798805621257	0.002464953325276378	1.2683047704582294e+23	0.19690368150702475	-0.16688609197259416	0.0	237.997818	253.530823	-24.318579	-20.442265	-17.923098	-11.538789	0.0		True	0.0	None	0.0	None	0.0	None	0.0	None	0.0	None	0.0	None	0.0	None	0.0	None	1.1331e-06	12
2014-02-19 19:48:00	105.36652592856359	566971436.6707001	3.773074604926654e+21	2242117311749.731	6.787995778899946	565111754209.0844	1.087793741440876e+21	-4.617750965451799e+23	1647.956199719962	-0.6132772592892579	21.826787452618042	4.060324825986078	29.32819570939425	134.9831836769542	139.13642708633216	56.263752714823205	0.0039373525399651645	-1.4629025351830032e+23	0.6379057379727574	0.014842305518061203	1.2270806442725809e+23	0.1942861068291848	-0.16296692049367734	0.0	237.998596	253.420502	-24.303547	-20.323618	-17.927059	-11.419566	0.0		True	0.0	None	0.0	None	0.0	None	0.0	None	0.0	None	0.0	None	0.0	None	0.0	None	1.3083e-06	12
2014-02-19 20:00:00	100.98832792300196	583687801.8909	3.8094770545908557e+21	2197914992908.1409	17.614204769489234	1471255037289.144	1.126703692692549e+21	-4.700778811661597e+23	1578.6939778364008	-0.6064244692059899	21.479405187053214	3.8525041276829937	29.73646400992476	137.02924680596954	140.83733848235616	57.02959275987924	0.009694113797187251	-1.5323412597477145e+23	1.5757577865261154	0.037570944102672366	1.1997897523647427e+23	0.19767984674787994	-0.15477900426448588	0.0	237.999344	253.310196	-24.29995	-20.188843	-17.455692000000006	-11.314838	0.0		True	0.0	None	0.0	None	0.0	None	0.0	None	0.0	None	0.0	None	0.0	None	0.0	None	1.2165000000000001e-06	12
2014-02-19 20:12:00	99.18175745334759	566446485.2939	3.8987720175554097e+21	2250165878552.0205	12.60027344495498	1020547847485.05	1.110824864884314e+21	-4.421466520657702e+23	1554.1156303329587	-0.5877530620308455	22.633527043964712	4.7644256220222365	30.999946914404074	130.37345927001897	133.52632193205866	55.47100929698643	0.006670340627292207	-1.4687766269746813e+23	1.008228618086907	0.028019999316220026	1.3364286533753766e+23	0.1952469742585073	-0.17765373310805802	0.0	238.000107	253.199905	-24.300335	-20.053307	-17.370153	-11.214439	0.0		True	0.0	None	0.0	None	0.0	None	0.0	None	0.0	None	0.0	None	0.0	None	0.0	None	1.1421e-06	12
2014-02-19 20:24:00	99.61948936120592	574052321.5633	3.8148008103793614e+21	2277698589718.394	3.9354959873068114	544151518132.0243	1.128011048079455e+21	-4.479324015425283e+23	1485.2613240393525	-0.5875549328193211	22.165215906362686	4.446742502585316	31.069807292748884	133.09339237286264	135.37978309445649	56.09455855656592	0.0020348996831989715	-1.4701371107707916e+23	0.5475349297052453	0.008636727757221017	1.418633213423236e+23	0.1928385417932559	-0.18608275256216514	0.0	238.000931	253.08963	-24.302946	-19.941893	-17.345226	-11.113243	0.0		True	0.0	None	0.0	None	0.0	None	0.0	None	0.0	None	0.0	None	0.0	None	0.0	None	1.0778e-06	12
2014-02-19 20:36:00	98.77249802537077	591248349.1351	3.756898465444436e+21	2164407857669.4128	13.593446888356668	1172658599670.5437	1.1526101693568666e+21	-4.709159499355782e+23	1472.6162367885197	-0.5997371488674982	21.418916175189022	2.8630921395106714	30.52670722191524	134.0768950632591	136.67724443144286	57.16713389608503	0.0070762347154381434	-1.4525592880044908e+23	1.1879215706112864	0.02874359064435666	1.4056083591128273e+23	0.18499134847056914	-0.17901189157724906	0.0	238.001678	252.97937	-24.285927	-19.807331	-17.320877	-11.008668	0.0		True	0.0	None	0.0	None	0.0	None	0.0	None	0.0	None	0.0	None	0.0	None	0.0	None	1.3903e-06	12
2014-02-19 20:48:00	89.26002749205679	578237461.516	3.7448456887391643e+21	1959180131141.5056	7.3179996728730305	462252580740.9308	1.1264205363792784e+21	-4.547821271775419e+23	1503.1024266811526	-0.5922221513708075	21.3436258665722	2.9317697228144985	30.81317733596374	133.04191059528824	135.54844970062442	55.16765698218048	0.0039008527040901016	-1.3968951850402158e+23	0.4732540995171285	0.015896901945651326	1.3897162356081716e+23	0.1819051854254336	-0.18097033495019327	0.0	238.002502	252.86911	-24.281704	-19.676325	-17.293026	-10.887754	0.0		True	0.0	None	0.0	None	0.0	None	0.0	None	0.0	None	0.0	None	0.0	None	0.0	None	1.1161e-06	12
2014-02-19 21:00:00	85.42716044991533	569641417.8311	3.603557707845208e+21	1843508058243.691	3.2302640058472503	388144338419.41785	1.106365597208611e+21	-4.588064961302237e+23	1516.7310639593095	-0.6064785432588299	20.826675589281656	1.4533258803801008	29.69401551499065	134.08910405434605	135.45878844151505	57.443066740492384	0.0018056254923685016	-1.3030953591872983e+23	0.4063250642524444	0.007059785823066612	1.413811297106139e+23	0.17225113023311311	-0.18688624139890944	0.0	238.003326	252.758881	-24.2661	-19.55784	-17.268379	-10.789079	0.0		True	0.0	None	0.0	None	0.0	None	0.0	None	0.0	None	0.0	None	0.0	None	0.0	None	9.515299999999999e-07	12
2014-02-19 21:12:00	85.96699463042775	586617025.6789	3.635216021762048e+21	1864892682275.2576	7.337266899919111	706225730911.8247	1.129253365824231e+21	-4.677567612013258e+23	1496.5939292371252	-0.60041684910948	20.41030405011467	1.8042646254784045	30.03864519907157	134.56667698528102	135.3148894824927	59.51265793185566	0.0040116276106720115	-1.3471765901142767e+23	0.7513716534725638	0.01563063185494171	1.477081342609335e+23	0.17292481702521567	-0.1895995096533056	0.0	238.004181	252.648682	-24.262318	-19.428017	-17.242643	-10.686474	0.0		True	0.0	None	0.0	None	0.0	None	0.0	None	0.0	None	0.0	None	0.0	None	0.0	None	9.2675e-07	12
2014-02-19 21:24:00	82.660578666941	583215955.2271001	3.5524269934235474e+21	1770317946749.7969	7.1196309648745215	434073600493.5742	1.0987689095909356e+21	-4.559784574020173e+23	1522.4426020945034	-0.5887114148391287	20.207989305635067	1.593625498007968	30.3666772780688	139.45142161824842	140.75117047600932	61.22801046219922	0.004052151943582539	-1.2722092000815091e+23	0.4807389055251461	0.015367848353202153	1.4802958021832227e+23	0.16425426815526306	-0.19112022112820384	0.0	238.005081	252.538483	-24.263437	-19.310776	-17.216198000000002	-10.581094	0.0		True	0.0	None	0.0	None	0.0	None	0.0	None	0.0	None	0.0	None	0.0	None	0.0	None	9.6676e-07	12
2014-02-19 21:36:00	89.0831091101153	600488635.1175	3.6774640408389217e+21	1910617557312.468	10.752443855987261	886075846928.775	1.1374271405503692e+21	-4.66032104244157e+23	1504.118888354222	-0.5843843300588609	20.10477861970933	1.3579576317218904	30.605144062928897	139.41626017461078	140.01031361183001	61.971335409486244	0.00584054527755962	-1.377777839138309e+23	0.9365410028939096	0.02260329995899056	1.543433111595583e+23	0.17276744931567245	-0.1935399120996837	0.0	238.005966	252.428314	-24.245413	-19.188984	-17.220845999999998	-10.464613	0.0		True	0.0	None	0.0	None	0.0	None	0.0	None	0.0	None	0.0	None	0.0	None	0.0	None	9.582e-07	12
2014-02-19 21:48:00	87.05268579235525	593616574.9830999	3.6206022729500517e+21	1875611051481.36	4.497156212852182	348801554623.0586	1.1196779906848003e+21	-4.56338558098165e+23	1517.1211635713416	-0.5788535100447333	20.063730095795847	1.391207568169171	30.50822883825468	141.01577775157062	141.40985772067273	61.49506131002945	0.002502591103423584	-1.3092753332465403e+23	0.3776865358441193	0.009596660107611394	1.4872874243153606e+23	0.16607814720353242	-0.18865851476550896	0.0	238.006882	252.318176	-24.242588	-19.076565	-17.198528	-10.364367	0.0		True	0.0	None	0.0	None	0.0	None	0.0	None	0.0	None	0.0	None	0.0	None	0.0	None	9.6589e-07	12
2014-02-19 22:00:00	82.85286267565371	597218800.6561	3.714952065380366e+21	1773680168618.7305	0.4440213240616448	19491337092.92495	1.1298385321844168e+21	-4.613390362454965e+23	1531.9334915136396	-0.5816667017683779	20.45836474712701	1.9167579408543265	30.413981198671273	137.63272177598324	137.96826239804741	60.638498782641115	0.00024316611394394565	-1.3547236511368819e+23	-0.020769828385847632	0.0009401245212362317	1.549023393397977e+23	0.1708066250749872	-0.19530437648038004	0.0	238.007843	252.208038	-24.242935	-18.94993	-17.201147	-10.263288	0.0		True	0.0	None	0.0	None	0.0	None	0.0	None	0.0	None	0.0	None	0.0	None	0.0	None	9.3082e-07	12
2014-02-19 22:12:00	82.40240597882494	598789189.6336	3.79918172686761e+21	1806884870462.9272	7.80714370625015	534745271780.9571	1.1287398204450593e+21	-4.491469039851961e+23	1539.6851194213575	-0.5648095270680259	20.999986657511553	1.829924650161464	31.21775334810361	133.45147846647222	134.39393169565392	59.9144295153744	0.0042019072692412	-1.2696012842347951e+23	0.5599945380069555	0.016664286994398512	1.5244755885338488e+23	0.15965442365316812	-0.1917052814005223	0.0	238.008743	252.097946	-24.222927	-18.833639	-17.204922	-10.15616	0.0		True	0.0	None	0.0	None	0.0	None	0.0	None	0.0	None	0.0	None	0.0	None	0.0	None	9.2204e-07	12
2014-02-19 22:24:00	83.86059576696981	600499059.6775	3.729024967347719e+21	1835579544520.914	5.783964849210447	405709318660.76587	1.1040906714690418e+21	-4.457767804582591e+23	1578.3627592076753	-0.558975269371062	20.809135271781045	1.6863406408094437	31.38288850317185	140.69277661337696	141.14637116071827	64.78115179009264	0.003251244996745614	-1.2854605861178941e+23	0.4437224734225997	0.012356744961304376	1.4548874971356132e+23	0.16118844876856808	-0.18243348829877404	0.0	238.009766	251.987869	-24.224224	-18.729502	-17.210159	-10.051416	0.0		True	0.0	None	0.0	None	0.0	None	0.0	None	0.0	None	0.0	None	0.0	None	0.0	None	1.4522e-06	12
