Timestamp	TOTUSJH	TOTBSQ	TOTPOT	TOTUSJZ	ABSNJZH	SAVNCPP	USFLUX	TOTFZ	MEANPOT	EPSZ	MEANSHR	SHRGT45	MEANGAM	MEANGBT	MEANGBZ	MEANGBH	MEANJZH	TOTFY	MEANJZD	MEANALP	TOTFX	EPSY	EPSX	R_VALUE	CRVAL1	CRLN_OBS	LAT_MIN	LON_MIN	LAT_MAX	LON_MAX	QUALITY	NOAA_AR	IS_TMFI	BFLARE	BFLARE_label	CFLARE	CFLARE_label	MFLARE	MFLARE_label	XFLARE	XFLARE_label	BFLARE_loc	BFLARE_label_loc	CFLARE_loc	CFLARE_label_loc	MFLARE_loc	MFLARE_label_loc	XFLARE_loc	XFLARE_label_loc	XR_MAX	XR_QUAL
2014-02-25 13:48:00	6.1890158889073845	24365824.9538	1.7767808531875326e+20	170842415549.80374	0.8040974062173322	127380353931.27292	6.388579320711456e+19	-2.1731264426316787e+22	1053.4591442522383	-0.6715702192405365	21.28409995166608	3.937007874015748	27.26168777856553	109.51835807171814	112.84928975185007	46.95215671555422	0.006331475639506552	7.019151403182887e+21	1.945773655906389	0.03948506996272818	6.191073515358258e+21	-0.21691572815291527	-0.19132529596429546	0.0	170.897568	177.707062	7.339380999999999	-7.37114	8.240271	-5.734664	0.0		True	0.0	None	0.0	None	0.0	None	0.0	None	0.0	None	0.0	None	0.0	None	0.0	None	1.1924e-06	12
2014-02-25 14:00:00	5.96358532958336	28876183.7081	1.7612810860836746e+20	158679006979.8406	0.6596785265987287	53241437797.66054	7.363961313930435e+19	-2.61381569699681e+22	954.1163512131903	-0.6815890947313488	19.79620166526065	5.035971223021583	26.71967811950877	107.3963117408676	111.00811797075256	45.76197766839774	0.004745888680566393	8.63942292201056e+21	0.7430865350935609	0.027170814956881482	6.043517353243549e+21	-0.2252850671598681	-0.1575931893944661	0.0	170.900726	177.59712199999996	7.276928999999999	-7.310591	8.238453999999999	-5.584086	0.0		True	0.0	None	0.0	None	0.0	None	0.0	None	0.0	None	0.0	None	0.0	None	0.0	None	1.4256e-06	12
2014-02-25 14:12:00	6.81456872220093	34724662.4301	1.82593165818256e+20	183051828506.2729	1.9833855998962648	205145135141.56946	8.745303173903014e+19	-2.971340710066559e+22	808.7662800091323	-0.6443203667001225	18.186816200258075	0.5882352941176471	28.139373278795862	114.2880951606295	120.31945875557943	44.41554172579682	0.01166697411703685	8.942385348288727e+21	2.341140571792983	0.06947246087980084	1.0344205552273615e+22	-0.1939111522035496	-0.22430892196516508	0.0	170.903854	177.487152	7.210800999999999	-7.311097	8.265022	-5.341355999999998	0.0		True	0.0	None	0.0	None	0.0	None	0.0	None	0.0	None	0.0	None	0.0	None	0.0	None	1.1574e-06	12
2014-02-25 14:24:00	8.429130320914165	41971279.5564	2.432965850681873e+20	227511274739.1252	2.3110768676225395	263486574242.6257	1.034163748025803e+20	-3.5632929310435944e+22	911.4385672836424	-0.6392735895398417	18.853322339478414	2.985074626865672	28.49248194990313	113.62119323474137	118.77210745340125	45.67353103142454	0.011497894863793727	9.570041001202363e+21	2.543245517077016	0.06718011373142	1.228774852639709e+22	-0.17169159486111435	-0.22044870460684174	0.0	170.906937	177.377136	7.086047	-7.430733999999997	8.384867	-4.978496	0.0		True	0.0	None	0.0	None	0.0	None	0.0	None	0.0	None	0.0	None	0.0	None	0.0	None	1.1318000000000001e-06	12
2014-02-25 14:36:00	9.218044082672296	41861949.976	1.9236849034287324e+20	219430738502.45764	2.2628438491858214	213369341738.09924	9.932879542526055e+19	-3.812515797453185e+22	813.7694897891819	-0.6857718691809274	16.938978168046606	0.5617977528089888	26.13342398356847	118.30396689731288	124.12922858781694	47.51076955943939	0.012712605894302368	1.0934428974254108e+22	2.325671489918515	0.0641307508537996	9.64323246442043e+21	-0.19668177640364007	-0.17345652853397792	0.0	170.910019	177.26712	7.0843110000000005	-7.34058	8.414387	-4.858097	0.0		True	0.0	None	0.0	None	0.0	None	0.0	None	0.0	None	0.0	None	0.0	None	0.0	None	1.6648e-06	12
2014-02-25 14:48:00	7.731414558318129	45478456.45190001	2.329702792406176e+20	185593949421.0417	2.401367126730838	183666291114.27136	1.0322278985021638e+20	-4.0982154497043445e+22	963.8659023371596	-0.6785417190475199	17.799021280365427	2.1978021978021984	26.785250009568358	130.3324465901282	136.8159052255233	48.00279818743393	0.013194324872147459	1.331738874501644e+22	1.957963998807884	0.0629144929365485	1.0676725077170262e+22	-0.22049606623096046	-0.17677458583060876	0.0	170.913116	177.157059	7.0831240000000015	-7.249511999999997	8.413501	-4.737339	0.0		True	0.0	None	0.0	None	0.0	None	0.0	None	0.0	None	0.0	None	0.0	None	0.0	None	1.4390000000000001e-06	12
2014-02-25 15:00:00	9.227742667165359	42376279.4046	2.0669506463836904e+20	214973176966.88602	3.2365809915726347	286552082235.2591	9.686706388997492e+19	-3.7452895031552048e+22	879.3145516721155	-0.6655029574054273	16.760347856611926	1.1299435028248588	28.20698774397421	133.67820495758124	141.41265535596068	46.47378257502664	0.018285768313969688	1.286149650106496e+22	3.1411370781694434	0.09171666261336288	8.224297905166188e+21	-0.22853677802229924	-0.14613809089685595	0.0	170.916138	177.046982	7.0818	-7.157928	8.412069	-4.616592	0.0		True	0.0	None	0.0	None	0.0	None	0.0	None	0.0	None	0.0	None	0.0	None	0.0	None	1.6195e-06	12
2014-02-25 15:12:00	5.713549397926839	35276956.3654	1.64573713422526e+20	153830369668.87387	1.8710247587636029	210641187196.89	8.279167030542398e+19	-2.7328999444697896e+22	764.9497769753606	-0.5833377634297127	17.19630090166297	1.2345679012345678	30.300929278186945	124.37805054057137	132.21744136869043	42.4543742364306	0.011549535547923474	1.0968575389578713e+22	2.5228687328020163	0.06699537959372966	9.142369912265404e+21	-0.23412435016929925	-0.1951439761949526	0.0	170.919128	176.936874	7.0774979999999985	-7.036579	8.438196000000001	-4.4953660000000015	0.0		True	0.0	None	0.0	None	0.0	None	0.0	None	0.0	None	0.0	None	0.0	None	0.0	None	5.7916e-06	12
2014-02-25 15:24:00	8.031005858059082	44825308.01990001	2.1823076329856664e+20	187647562014.4364	1.676997117980417	135521015025.73555	1.0224165451838166e+20	-4.054563409973737e+22	944.3962995925248	-0.6810960594034553	16.722327808099898	0.0	25.184363643081145	124.11249982772772	130.48093654195	48.94274775334346	0.009637914471151822	1.424897217275581e+22	1.5112394680293328	0.04450886290528299	8.325544125014507e+21	-0.2393579238035972	-0.13985464580448376	0.0	170.92215	176.826752	7.075817	-6.945456	8.436415	-4.375068	0.0		True	0.0	None	0.0	None	0.0	None	0.0	None	0.0	None	0.0	None	0.0	None	0.0	None	3.368e-06	12
2014-02-25 15:36:00	7.708806755589084	45703053.8904	2.3155080205779567e+20	163356396125.4165	1.2157700387952046	44996045161.6161	9.406866065406371e+19	-3.7978869068740524e+22	1132.1736836664202	-0.6257261347431965	15.917551339653555	0.6493506493506493	28.28439222886164	149.31688760487253	155.1752857479431	58.666957984165876	0.007894610641527303	1.6830959694678139e+22	0.5669418749261633	0.0327256908990551	6.818037521861067e+21	-0.2773008152166849	-0.11233152460033713	0.0	170.925095	176.716599	7.0750990000000025	-6.825114	8.435605	-4.254811	0.0		True	0.0	None	0.0	None	0.0	None	0.0	None	0.0	None	0.0	None	0.0	None	0.0	None	1.6527e-06	12
2014-02-25 15:48:00	7.074357629972953	46048845.9307	2.3555553774407297e+20	173561463163.63696	1.496734585248857	127827034348.62595	1.0015797434390608e+20	-3.725362871858199e+22	1043.3544207077593	-0.6091682990908255	16.825149684813233	0.5882352941176471	28.540170342324963	140.5011338757552	143.85646584967347	58.071018008562056	0.008804321089699158	1.7134949562709023e+22	1.459040674046607	0.04039750756901836	7.622026062650808e+21	-0.2801892980405441	-0.1246347486653018	0.0	170.928024	176.60643000000005	7.0706539999999976	-6.705253999999999	8.431764999999999	-4.134071	0.0		True	0.0	None	0.0	None	0.0	None	0.0	None	0.0	None	0.0	None	0.0	None	0.0	None	1.5983000000000004e-06	12
2014-02-25 16:00:00	6.904247236253741	43998429.2691	2.361691009135489e+20	176260049923.36868	1.5463928196238248	161945316101.23285	9.943312968190216e+19	-3.38613188870627e+22	956.0873830213671	-0.5795009499079228	17.445965731273393	2.1505376344086025	30.298153491091927	130.99569542301606	133.23959588947957	52.73453953035003	0.008313939890450671	1.685108336457245e+22	1.689496769617189	0.04450335535870755	8.339481705846858e+21	-0.28838861384334025	-0.14272148070772367	0.0	170.930939	176.496231	7.069698	-6.612894	8.430698	-4.014006	0.0		True	0.0	None	0.0	None	0.0	None	0.0	None	0.0	None	0.0	None	0.0	None	0.0	None	1.2781999999999999e-06	12
2014-02-25 16:12:00	6.603736141954881	42025976.3809	2.298879948935193e+20	148216421408.1817	0.3043103910548625	43889528219.94649	9.182888678671576e+19	-3.567887277770085e+22	1131.3900436645654	-0.6392648184923542	17.284099215942508	0.0	27.343439146000627	120.4344558556718	123.07299934467899	60.92405468560146	0.001988956804280148	1.4427085028340418e+22	0.5566463025601375	0.00883445671925578	7.484316575513281e+21	-0.25849269256566776	-0.13409785412769776	0.0	170.933823	176.38601699999995	7.068109	-6.492003	8.428995	-3.893206	0.0		True	0.0	None	0.0	None	0.0	None	0.0	None	0.0	None	0.0	None	0.0	None	0.0	None	1.076e-06	12
2014-02-25 16:24:00	6.883140232056164	40248018.1802	1.9230896705150727e+20	161388173125.3553	0.6970778570448704	31677069380.304005	9.144647700962904e+19	-3.3642207971065406e+22	916.4946555158516	-0.6294010734784984	15.483967981153542	0.0	27.4224015814608	125.2543620377358	132.218214240007	56.60386872054802	-0.004411885171170066	1.312104103860773e+22	-0.3890497965107468	-0.021258801876284462	7.246496924976357e+21	-0.2454772683754265	-0.1355723425603185	0.0	170.936691	176.275787	7.065322	-6.370876	8.426427	-3.771233	0.0		True	0.0	None	0.0	None	0.0	None	0.0	None	0.0	None	0.0	None	0.0	None	0.0	None	1.0805e-06	12
2014-02-25 16:36:00	5.079107124211721	31594650.3289	1.717974773248126e+20	132082914049.69475	0.7978503494271277	93977552396.35236	7.353951772368807e+19	-2.4006974400851364e+22	965.3825754794037	-0.5721519046205367	16.376220778029015	0.7462686567164178	29.108825325381805	132.16646454957916	133.88332785871313	56.57604459019352	0.005954107085277073	1.1933448563845518e+22	1.3609543528988677	0.03212501771737448	6.200090858226046e+21	-0.2844067399119352	-0.14776513416986886	0.0	170.93958999999995	176.165543	7.0609410000000015	-6.278585	8.451877	-3.651419	0.0		True	0.0	None	0.0	None	0.0	None	0.0	None	0.0	None	0.0	None	0.0	None	0.0	None	9.9641e-07	12
2014-02-25 16:48:00	4.433659810247789	25491087.726500005	1.280003313155473e+20	105867881236.84448	1.0594294555264416	112582342898.65672	5.8088388335627035e+19	-2.0038027070846307e+22	954.2829968605324	-0.5919077920325244	16.186057464513272	0.99009900990099	27.99162285675199	131.37590579604634	132.62572214734573	57.71527057714425	0.010489400549766749	1.056814020711037e+22	2.1631148961456432	0.05221505780217103	5.2647714597922e+21	-0.3121746723749011	-0.1555172692053777	0.0	170.942429	176.055283	7.061614	-6.159068	8.422504	-3.5324120000000003	0.0		True	0.0	None	0.0	None	0.0	None	0.0	None	0.0	None	0.0	None	0.0	None	0.0	None	9.964000000000001e-07	12
2014-02-25 17:00:00	3.71653598246393	22172805.7103	1.1356981075582848e+20	88763880683.84198	0.14046153533279632	22254539323.254158	4.905280451293223e+19	-1.7222711350014146e+22	1006.0777026392776	-0.5848822196045181	16.40435587883584	0.0	29.603035849736266	127.76414313401226	130.99686251171025	58.088970020660106	0.0016524886509740745	8.623875591216953e+21	0.5080850042901539	0.007994103415305156	5.230465437309331e+21	-0.2928662853877566	-0.17762628498884328	0.0	170.945312	175.945007	7.0601059999999976	-6.038839	8.420877	-3.442125	0.0		True	0.0	None	0.0	None	0.0	None	0.0	None	0.0	None	0.0	None	0.0	None	0.0	None	1.163e-06	12
2014-02-25 17:12:00	3.456133757362152	19497380.0098	1.0316394638290004e+20	75348968616.88599	0.1106614654801524	9136878964.09613	4.26239987339199e+19	-1.6703235096186729e+22	1125.8133031035575	-0.6450774452915334	17.282107436085028	0.0	26.627071683733725	117.78109454075857	120.52795464878548	52.16385172211441	-0.0016037893547848176	7.210425516583942e+21	0.25697497614239345	-0.006900233838356155	3.967623618953456e+21	-0.2784659884697859	-0.1532292692555796	0.0	170.94812	175.83471699999996	7.058534	-5.919062	8.419189	-3.322419	0.0		True	0.0	None	0.0	None	0.0	None	0.0	None	0.0	None	0.0	None	0.0	None	0.0	None	1.1734e-06	12
2014-02-25 17:24:00	4.2416698843912455	21188850.5827	1.0733976351372186e+20	94359993632.59438	0.44329713631349416	59580904476.97717	4.64251938081015e+19	-1.7643577942223345e+22	1049.6812012635596	-0.6269988905932954	16.13665994199122	0.0	27.290207976591226	127.63050602043856	131.63082384099772	55.55837029907544	0.005757105666409015	7.178411636220786e+21	1.5016310211561756	0.025717589871213118	4.264016760335047e+21	-0.2550988323837259	-0.15153013674188967	0.0	170.950928	175.724426	7.0583050000000025	-5.798063	8.418575	-3.20129	0.0		True	0.0	None	0.0	None	0.0	None	0.0	None	0.0	None	0.0	None	0.0	None	0.0	None	1.0879e-06	12
2014-02-25 17:36:00	3.6095767175463855	21518548.856300004	1.1129605067471762e+20	87278222668.02069	0.21730403571706647	39269195821.223465	4.7197334797696e+19	-1.7063405705574148e+22	1034.623214820576	-0.5970905810192831	16.859064057193706	0.0	28.508165863181592	128.10026992573478	131.9838155524861	50.59664307111168	0.002682765873050205	8.713157145983581e+21	0.9408449627340262	0.012646060603696295	4.93335073093842e+21	-0.30489482302516696	-0.17263008951054012	0.0	170.95372	175.61412	7.057121	-5.705257	8.417583	-3.080464	0.0		True	0.0	None	0.0	None	0.0	None	0.0	None	0.0	None	0.0	None	0.0	None	0.0	None	1.1733e-06	12
2014-02-25 17:48:00	3.3124105045964884	18466402.2817	6.826790641407145e+19	81472871499.02855	0.35816338206411324	52083185887.564835	4.246130890924376e+19	-1.4453957458607684e+22	667.5955365974221	-0.5893754545943999	14.512390972795991	0.0	28.98528688606295	132.7028072536865	135.1901991317881	51.88998067737033	0.004651472494339133	7.250724379464386e+21	1.3126882857831532	0.024406324658150447	3.4238911756397293e+21	-0.2956559813824973	-0.13961279628110965	0.0	170.95649699999996	175.503799	7.054331	-5.5850300000000015	8.414964	-2.960958	0.0		True	0.0	None	0.0	None	0.0	None	0.0	None	0.0	None	0.0	None	0.0	None	0.0	None	1.1441e-06	12
2014-02-25 18:00:00	3.9495420086995137	22438051.695800006	1.358052738667754e+20	99071178937.13644	0.45750311080414896	71518251328.26385	5.034730107833315e+19	-1.8534144961233784e+22	1175.397668154486	-0.6219777556539058	19.40499731194386	0.0	27.95126262375469	123.20413407266794	125.62688695997043	53.18326181723078	0.005258656446024701	8.716932276823082e+21	1.5953476081504474	0.025141663472042115	4.201969178653125e+21	-0.2925270081282776	-0.14101170377873087	0.0	170.959274	175.39347800000004	7.0527570000000015	-5.4645199999999985	8.413013000000001	-2.840473	66560.0		False	0.0	None	0.0	None	0.0	None	0.0	None	0.0	None	0.0	None	0.0	None	0.0	None	1.1096e-06	12
2014-02-25 18:12:00	4.2263741082798765	24305379.1851	9.893265128537652e+19	90001895727.49513	0.2617548410411736	9327217464.44259	5.136770246599769e+19	-2.066336083296679e+22	908.4755622077977	-0.6401562834879914	15.011764796474292	0.0	27.179280471659908	133.7031968930958	139.52522217291906	54.75507457754714	-0.0031921322078191892	9.087437530382848e+21	-0.2207487974762868	-0.013132187812686977	3.885944119183006e+21	-0.2815311740865501	-0.12038755773017418	0.0	170.962097	175.283142	7.050708	-5.343075	8.411682	-2.719071	66560.0		False	0.0	None	0.0	None	0.0	None	0.0	None	0.0	None	0.0	None	0.0	None	0.0	None	1.4912e-06	6
2014-02-25 18:24:00	7.5517135777835405	36975892.4553	1.6704623604407026e+20	158888679414.92108	0.10265860270777223	13953357536.357365	7.750502174147514e+19	-3.1753738010131e+22	1006.269087495659	-0.6466416028390628	16.046569383064654	0.0	26.977921894160442	144.8131499714729	149.85112696311114	53.999255684893896	-0.0008212688216621777	1.2994301721294907e+22	-0.2166359637343457	-0.003372155520533736	4.6275213559387206e+21	-0.264619431266696	-0.09423608098742586	0.0	170.964874	175.172821	7.0492089999999985	-5.222853	8.438624	-2.598873	0.0		True	0.0	None	0.0	None	0.0	None	0.0	None	0.0	None	0.0	None	0.0	None	0.0	None	1.2755e-06	8
2014-02-25 18:36:00	6.722075515621662	33814686.5207	1.3280519605841129e+20	136298181430.47595	0.28062130247339623	35333371996.92514	6.597887070810348e+19	-2.8554861086123552e+22	990.1049745789996	-0.6358610679220011	14.644518596043596	0.0	28.299640795422462	145.05781268617778	154.95079934000657	56.13520692935438	-0.002778428737360359	1.0735102963660437e+22	0.6789327539803921	-0.01014609324678353	5.194449020372424e+21	-0.2390498071112287	-0.11567024932807304	0.0	170.967682	175.062485	7.048514999999999	-5.130586	8.437874	-2.478349	0.0		True	0.0	None	0.0	None	0.0	None	0.0	None	0.0	None	0.0	None	0.0	None	0.0	None	1.2634e-06	12
2014-02-25 18:48:00	6.7114969183756426	33523166.7034	1.337851418430031e+20	143255999856.0274	0.22644891854409746	60694245745.39775	6.780160307547205e+19	-2.9288368077369525e+22	959.4139177491862	-0.6578661899254062	14.916898430702933	0.0	26.77236620406061	141.4722394414501	149.24732692971017	55.96820930600968	0.002156656367086642	1.1453354742012359e+22	1.1218159139472357	0.008149026594849227	4.255394543241172e+21	-0.2572616823882963	-0.09558334514904336	0.0	170.970444	174.952148	7.047053	-5.009822	8.436364	-2.357593	66560.0		False	0.0	None	0.0	None	0.0	None	0.0	None	0.0	None	0.0	None	0.0	None	0.0	None	1.1694e-06	12
2014-02-25 19:00:00	6.62028815586959	33885016.013500005	1.460916118745649e+20	144887960209.906	0.1428202344161803	39079068605.292816	7.05154266025971e+19	-2.9099585736067735e+22	973.4963320514836	-0.6466459968432736	15.506010903509829	0.0	26.927595757303845	149.41856239015132	156.15304647977638	51.83677596157155	-0.0012638958797892062	1.224135981872038e+22	-0.6711644947454065	-0.005119314364595253	5.304831457293691e+21	-0.27202539563586625	-0.11788305362489955	0.0	170.973221	174.841827	7.045806	-4.889335	8.435077	-2.23747	66560.0		False	0.0	None	0.0	None	0.0	None	0.0	None	0.0	None	0.0	None	0.0	None	0.0	None	1.2538e-06	12
2014-02-25 19:12:00	8.737810839643497	38338526.5366	1.7635605243133152e+20	197294969665.2622	0.3281782415511734	47941618561.834435	8.030668281710004e+19	-3.2712840556800706e+22	983.6579174902803	-0.6424958557675567	16.293024343039967	2.2222222222222223	28.54525270350845	144.91338790858896	150.25366395830162	56.66122370632929	0.0024309499374161	1.2864670642984926e+22	0.689193642023718	0.010423176195171337	5.718739077828336e+21	-0.25266829273295993	-0.11231877437671302	0.0	170.975998	174.731491	7.0443570000000015	-4.768569	8.433355	-2.116702	0.0		True	0.0	None	0.0	None	0.0	None	0.0	None	0.0	None	0.0	None	0.0	None	0.0	None	1.2514e-06	12
2014-02-25 19:24:00	9.025874633787147	38973871.599	1.978147670540442e+20	209472454187.9244	1.0918437894239093	154093222057.00485	8.63087605597162e+19	-3.2896497180132038e+22	986.4368223542397	-0.6355703380424637	17.554543894588114	1.9867549668874167	28.09906101873457	134.96915240282937	139.5490667620735	52.085003811001776	0.00723075357234377	1.3570410989728691e+22	1.9804660257214173	0.03425687381562253	5.858727664471477e+21	-0.26218447067142764	-0.1131924016656634	0.0	170.978775	174.62117	7.042197	-4.648344	8.431157	-1.99648	0.0		True	0.0	None	0.0	None	0.0	None	0.0	None	0.0	None	0.0	None	0.0	None	0.0	None	1.2736e-06	12
2014-02-25 19:36:00	9.79374280511034	43338506.7069	2.19079869770446e+20	238588785772.6222	0.9060634822381074	116596542095.36801	1.0358624646819632e+20	-3.944655777882068e+22	896.5451103723958	-0.6853661700247502	17.395800311569847	2.717391304347826	26.399268827057448	124.64483828296189	128.4553640638697	49.43652821963497	0.0049242580556418895	1.301799606809784e+22	1.229777132396228	0.024809636862448747	6.259274168970563e+21	-0.22618181684232666	-0.10875206877051008	0.0	170.981552	174.510849	7.042234	-4.527629	8.430954	-1.875757	0.0		True	0.0	None	0.0	None	0.0	None	0.0	None	0.0	None	0.0	None	0.0	None	0.0	None	1.2823e-06	12
2014-02-25 19:48:00	9.030183950889189	41120550.4443	2.219345913569497e+20	209046003199.4223	0.5094615801966247	44004165790.66275	9.554166128154024e+19	-3.6458533443017938e+22	988.8395734821356	-0.6676176670661621	17.387418635922902	0.0	26.955183078993176	126.38822363408691	130.92438709603599	49.01538840656187	0.0030145655632936373	1.4262482205798174e+22	0.5053157217816523	0.014858878343999304	5.141103044529849e+21	-0.26117027202121684	-0.09414232819046836	0.0	170.98439	174.400543	7.042725	-4.406603	8.431419	-1.755059	0.0		True	0.0	None	0.0	None	0.0	None	0.0	None	0.0	None	0.0	None	0.0	None	0.0	None	1.3197e-06	12
2014-02-25 20:00:00	7.094289318272527	35365711.2503	1.7211952833441828e+20	165840525541.92453	0.2434776258611781	5045420570.601058	7.655463888583369e+19	-2.9475856005569098e+22	1004.6804036375252	-0.6275835101637246	16.34807169754195	0.0	28.342027730218128	137.26064502281702	139.27200461655633	55.18935724297172	-0.0018874234562882024	1.1960283284890033e+22	0.07590314601730515	-0.008459863896302308	3.4906109472181683e+21	-0.25465169069443233	-0.07432014427188155	0.0	170.98718300000004	174.29023700000005	7.040379	-4.288133	8.429044000000001	-1.636911	0.0		True	0.0	None	0.0	None	0.0	None	0.0	None	0.0	None	0.0	None	0.0	None	0.0	None	1.5896e-06	12
2014-02-25 20:12:00	7.111159000077107	39211384.1261	2.313794170393611e+20	162754645341.9743	0.3386554904532403	34871575914.630875	8.45817343048933e+19	-3.286164876233045e+22	1218.361559657155	-0.6310513203952308	18.5152471655275	2.097902097902098	28.068591317682447	128.69504670765454	133.5097933350767	57.815825459593114	-0.002368220212959721	1.3441420405240578e+22	0.4732421732847038	-0.010590301337252372	4.447636053039367e+21	-0.2581193097175849	-0.08540918394591482	0.0	170.98998999999995	174.179947	7.038564	-4.1677620000000015	8.426822	-1.516773	0.0		True	0.0	None	0.0	None	0.0	None	0.0	None	0.0	None	0.0	None	0.0	None	0.0	None	1.6494999999999996e-06	12
2014-02-25 20:24:00	6.61133455874035	40457558.91990001	2.1997647107040625e+20	158658709279.4815	1.3738385580821622	64625271933.44795	9.000943387662228e+19	-3.3196932987479157e+22	1055.0281162857034	-0.6178538281607668	16.9393810331431	0.6369426751592357	28.552712799099197	131.97157489048158	136.15802114600248	52.560577430893936	-0.008750564064217594	1.5240568346685368e+22	-0.7988140840856801	-0.0419784830401593	4.258858487325345e+21	-0.2836540200836309	-0.07926491344792005	0.0	170.992874	174.069672	7.065973	-4.076034	8.425180000000001	-1.42626	0.0		True	0.0	None	0.0	None	0.0	None	0.0	None	0.0	None	0.0	None	0.0	None	0.0	None	1.9169e-06	12
2014-02-25 20:36:00	6.542926506855085	41278154.59190001	2.1863182110496968e+20	144866215352.5028	0.13197904995473134	50843551900.96869	8.988204860453693e+19	-3.669403985754537e+22	1135.3579932837524	-0.6693645483008549	16.464215525603496	0.0	25.45971348002709	126.71571358914207	130.09250748206054	54.525181206308886	0.0009102003445153887	1.4566408699794726e+22	0.6804642926247736	0.003830571154396879	4.717889726274801e+21	-0.2657172014189876	-0.08606269949619083	0.0	170.995712	173.959412	7.0647990000000025	-3.955889	8.423759	-1.306368	0.0		True	0.0	None	0.0	None	0.0	None	0.0	None	0.0	None	0.0	None	0.0	None	0.0	None	1.8208000000000002e-06	12
2014-02-25 20:48:00	6.243144586098762	40406043.792	2.1100559422110928e+20	145547263785.07404	0.6105855723006066	78559960321.67664	8.504524184700017e+19	-3.219199701467009e+22	1103.364516728578	-0.5999141759530368	16.635508196554873	0.0	29.23626265888516	146.57767648467404	148.11162441281562	62.829268528186866	-0.00424017758542088	1.5347770990238072e+22	-1.0586932745106397	-0.018890067814756783	6.58494917655806e+20	-0.2860134890708629	-0.012271386447840538	0.0	170.99856599999995	173.849167	7.063009	-3.835608	8.42188	-1.185755	0.0		True	0.0	None	0.0	None	0.0	None	0.0	None	0.0	None	0.0	None	0.0	None	0.0	None	1.2295999999999998e-06	12
2014-02-25 21:00:00	7.887333814914905	48226121.15050001	2.409486038173424e+20	166948469846.60724	0.2287621703269425	6024168708.738158	1.0004410473823823e+20	-4.147609925882711e+22	1155.6125199570174	-0.6475943469108172	17.215810910434012	0.6369426751592357	27.537446514445513	131.83786062558815	136.11851381073984	54.21379167000588	0.0014570838874327552	1.7125154283960796e+22	-0.07445982804206314	0.0057581314877904535	4.25176913441705e+21	-0.2673865986061436	-0.0663857427535784	0.0	171.001419	173.738922	7.061960000000001	-3.715141000000002	8.420746000000001	-1.06534	0.0		True	0.0	None	0.0	None	0.0	None	0.0	None	0.0	None	0.0	None	0.0	None	0.0	None	1.3031e-06	12
2014-02-25 21:12:00	7.3056292380152215	48328694.6708	2.458157279953096e+20	169718248836.24854	1.7005459594621068	137209006132.15614	9.780738523994186e+19	-3.772054470681536e+22	1149.6648981818407	-0.5877063336569076	17.26455412434534	0.0	30.261576476750488	140.80818366408488	143.82500043264764	57.29544141332911	0.010562397263739795	1.5983288910891174e+22	1.6537654588939188	0.044324426686241584	4.5462578265322747e+21	-0.2490282205257164	-0.07083313721627015	0.0	171.004303	173.62870800000005	7.061364	-3.593556	8.419941	-0.944131	0.0		True	0.0	None	0.0	None	0.0	None	0.0	None	0.0	None	0.0	None	0.0	None	0.0	None	1.2047e-06	12
2014-02-25 21:24:00	8.578659745071295	49540984.6005	2.736204706651236e+20	189802995732.1865	0.3320990168885697	83269481650.73215	9.911349116041726e+19	-3.975438284468225e+22	1329.2429440494216	-0.6042377552382736	17.515244719632793	0.0	28.34875058073504	143.58183172653025	147.42617532301873	60.641175312903115	0.002142574302506901	1.4624555782052153e+22	1.0424694921599744	0.008357265873756672	9.62000497320402e+20	-0.22228262960661585	-0.014621709090793671	0.0	171.007202	173.518509	7.060009	-3.473869	8.418512	-0.8542549999999999	0.0		True	0.0	None	0.0	None	0.0	None	0.0	None	0.0	None	0.0	None	0.0	None	0.0	None	1.2788e-06	12
2014-02-25 21:36:00	8.391523665027465	46607135.3766	2.6303375670783007e+20	185280022229.10693	0.30916833834569635	49190802001.801125	9.193325579471567e+19	-3.673265558634352e+22	1375.4236765988267	-0.5934544853380291	18.149121630181863	0.0	28.98667181906169	141.06825307105112	141.8041607257138	68.69533776840835	0.0021470023496228913	1.6154160741382711e+22	0.6628603957388987	0.008325933423796391	4.336738335992303e+21	-0.2609873692989744	-0.07006454546098344	0.0	171.010193	173.40833999999995	7.057211	-3.352129	8.41577	-0.73249	0.0		True	0.0	None	0.0	None	0.0	None	0.0	None	0.0	None	0.0	None	0.0	None	0.0	None	1.3563999999999998e-06	12
2014-02-25 21:48:00	9.194099224904644	48242192.0615	2.569278672743886e+20	190752161202.6112	1.5616789669691082	82015839039.42426	9.268225027639704e+19	-3.7419388282549874e+22	1334.229966448546	-0.5840595521609039	17.730189122009932	0.6896551724137931	30.130196546575647	137.3847671974367	141.58133362217924	69.33046664566534	-0.010770199772200744	1.511236416546831e+22	-1.0975422783139643	-0.04087174863886092	2.8785673103666383e+21	-0.23588094438978485	-0.04493004325626007	0.0	171.013138	173.298187	7.05527	-3.261756	8.413744	-0.6131850000000001	0.0		True	0.0	None	0.0	None	0.0	None	0.0	None	0.0	None	0.0	None	0.0	None	0.0	None	1.575e-06	12
2014-02-25 22:00:00	7.948525650639308	50301433.5855	2.4328965645992854e+20	171439242378.88733	1.3858303271304806	102913286400.90747	1.00717854436204e+20	-4.074759092102516e+22	1137.8506862460686	-0.6099708508694388	16.506747233048223	0.0	28.95442233895913	131.51080442899843	137.82409487123024	61.02637289703306	-0.008607641783419134	1.4272743611136085e+22	-1.2403020911353548	-0.03422486006644235	2.6951944966676724e+21	-0.21365576143138013	-0.04034570003358737	0.0	171.016144	173.188049	7.054424000000001	-3.17086	8.412819	-0.492572	0.0		True	0.0	None	0.0	None	0.0	None	0.0	None	0.0	None	0.0	None	0.0	None	0.0	None	1.3593e-06	12
2014-02-25 22:12:00	6.019996548056918	40411339.8553	1.931328375931177e+20	136872966794.61514	0.10001356122803544	51350933627.807236	7.803093135255293e+19	-3.159200544948969e+22	1192.0206855551241	-0.5886558264358098	17.299592259927984	0.819672131147541	30.020365608625642	132.51764777459357	141.42242567115983	59.26730517187414	-0.0008197832887543888	1.459002205915916e+22	0.8166956602689971	-0.003115701314707832	2.525763318972188e+21	-0.2718567995527413	-0.04706270693349871	0.0	171.019135	173.07794199999995	7.054502	-3.0792490000000003	8.41283	-0.370977	0.0		True	0.0	None	0.0	None	0.0	None	0.0	None	0.0	None	0.0	None	0.0	None	0.0	None	1.2336e-06	12
2014-02-25 22:24:00	7.47705343802997	51968453.0812	2.6330551030700448e+20	166532752827.8896	0.40702985735739095	45292255934.713684	1.0074182829453602e+20	-4.143107663947141e+22	1216.3535826284985	-0.6003077148564536	19.90031387446656	3.0674846625766867	30.99500094508587	122.41276727980068	130.52251512768214	58.113648027228145	-0.002497115689309147	1.6451396833836475e+22	0.5391348670207079	-0.00978842854589338	4.189071714826542e+21	-0.2383693893705938	-0.060696758869682385	0.0	171.022156	172.96785	7.053753	-2.959356	8.412006	-0.251217	0.0		True	0.0	None	0.0	None	0.0	None	0.0	None	0.0	None	0.0	None	0.0	None	0.0	None	1.1856e-06	12
2014-02-25 22:36:00	10.3375046777672	62221598.2962	2.822052112638368e+20	211017738825.7523	0.26764844229122475	35191200594.16583	1.1606750700069727e+20	-5.212969511906312e+22	1228.3053273547412	-0.6308577338618006	18.05943422043972	1.7341040462427744	28.783487846872863	135.69066011392874	142.40173640401918	62.12414134660983	0.0015471008224926287	1.7861023316823589e+22	0.3946733852631894	0.005275182336718053	3.39607527265322e+21	-0.21614867818368733	-0.041098271256657416	0.0	171.025192	172.857788	7.053007000000001	-2.869648	8.411189	-0.131508	0.0		True	0.0	None	0.0	None	0.0	None	0.0	None	0.0	None	0.0	None	0.0	None	0.0	None	1.1691e-06	12
2014-02-25 22:48:00	9.8459568904845	54913563.77940001	3.3818930149411566e+20	220078893820.85907	0.9353197041290084	20901099360.482048	1.0790759669446604e+20	-4.056182534490284e+22	1446.8870682983552	-0.5561927191594432	18.830520172052935	1.7045454545454544	30.620885561105823	142.1654895308359	145.81636466064256	68.75464621187474	-0.005314316500733002	2.0105027949282866e+22	-0.2304065305022321	-0.02189006598649629	5.282572782737996e+21	-0.2756845893596711	-0.07243580620954303	0.0	171.028244	172.747742	7.05054	-2.748327	8.408726	-0.01032	0.0		True	0.0	None	0.0	None	0.0	None	0.0	None	0.0	None	0.0	None	0.0	None	0.0	None	1.2458e-06	12
2014-02-25 23:00:00	11.009271708893671	61585875.77680001	3.136677108175961e+20	232626581306.8148	2.611875036528457	72490399856.65503	1.1730210237804254e+20	-4.988480384851409e+22	1312.1536666464365	-0.6099223336099767	17.144923897972234	1.1111111111111112	29.62813353004225	133.45375848409506	141.3341241737692	58.024545271548774	-0.014510416869602541	1.99793164926415e+22	-0.7813296073052113	-0.05268613537114853	4.88979681939756e+21	-0.2442794277818369	-0.05978566731508634	0.0	171.031342	172.637741	7.0488800000000005	-2.627357	8.406982000000001	0.11076099999999996	0.0		True	0.0	None	0.0	None	0.0	None	0.0	None	0.0	None	0.0	None	0.0	None	0.0	None	1.3554e-06	12
2014-02-25 23:12:00	10.325409900810453	68021715.47960001	3.341199735671745e+20	212801774863.66776	0.07608343374195525	3847174446.0344853	1.269121531816717e+20	-5.512669385803349e+22	1317.2148967185049	-0.6102417673022218	17.481180857494234	3.1413612565445024	29.682737525948173	139.05379978176876	146.64153962355616	65.16056171104327	-0.0003983425850364149	2.025267307977387e+22	0.039077125383247126	-0.0013892532851270554	8.858509467152754e+21	-0.2241931475996594	-0.09806197496298756	0.0	171.0345	172.527756	7.048901	-2.508192	8.406854	0.230067	0.0		True	0.0	None	0.0	None	0.0	None	0.0	None	0.0	None	0.0	None	0.0	None	0.0	None	1.5231999999999999e-06	12
2014-02-25 23:24:00	10.465201083747877	61678431.9623	3.473248859864263e+20	221348074410.15945	1.1818665217235855	83339140980.24507	1.1296328890839258e+20	-4.6690733561608755e+22	1520.5296467977896	-0.5700130654551901	19.005887663267046	2.9069767441860463	30.486184210653324	140.18569222451154	148.3806063747431	69.08987292256649	0.006871316986765032	1.912738747889294e+22	0.9399869361421808	0.024409665924559662	7.762885857789819e+21	-0.23351230403365986	-0.0947714038105392	0.0	171.037643	172.417801	7.018592	-2.417322	8.407231	0.350618	0.0		True	0.0	None	0.0	None	0.0	None	0.0	None	0.0	None	0.0	None	0.0	None	0.0	None	1.4831e-06	12
2014-02-25 23:36:00	9.961984603365973	59932910.59670001	3.173858780835637e+20	210580391129.6049	0.75158077024562	69715887187.4243	1.1222832524226652e+20	-4.6180557174832475e+22	1389.4620269350528	-0.5802048156695844	17.269089168581175	0.5813953488372093	30.798147200602468	140.70820472478593	149.69593637937814	71.39790019665905	-0.004369655640962907	1.7657958737850214e+22	-0.7863060116409407	-0.01705242841817127	4.086591454506006e+21	-0.2218516475626016	-0.05134325323538404	0.0	171.040878	172.307877	7.0187550000000005	-2.297421	8.407236	0.470495	0.0		True	0.0	None	0.0	None	0.0	None	0.0	None	0.0	None	0.0	None	0.0	None	0.0	None	2.2645e-06	12
2014-02-25 23:48:00	10.540372047561547	56032079.073	3.2472943341307966e+20	245547878673.0891	1.9882884161248202	249985317060.7488	1.0910740722012758e+20	-4.2544439145582754e+22	1350.9230602228854	-0.5717334484887391	19.74665030800089	4.972375690607736	30.94169953936652	137.62425623183313	143.95691617009683	58.819316385390216	0.010985018873617787	2.029856189133932e+22	2.6792353602589882	0.04515374178117034	5.801521647236518e+21	-0.27278222542281355	-0.07796374906968287	0.0	171.044083	172.197983	7.017782	-2.178634	8.406208	0.589429	0.0		True	0.0	None	0.0	None	0.0	None	0.0	None	0.0	None	0.0	None	0.0	None	0.0	None	1.8904e-06	12
2014-02-26 00:00:00	9.713268437590491	55308569.8347	3.4977401428254006e+20	217994357850.15045	0.6136902477684406	126722837774.47699	1.0970728549379613e+20	-4.2779303244192245e+22	1463.1962126095002	-0.5824099826224466	19.61212247819582	2.2222222222222223	30.057599368628413	140.30112660999055	144.43551428136885	59.138906314703064	0.0034093902653802256	2.1954196010338758e+22	1.3656635178922985	0.014023866695854478	5.220364255142974e+21	-0.29889086420796385	-0.07107157023492257	0.0	171.047318	172.08812	7.0169	-2.086351	8.405272	0.711646	0.0		True	0.0	None	0.0	None	0.0	None	0.0	None	0.0	None	0.0	None	0.0	None	0.0	None	1.7419e-06	12
2014-02-26 00:12:00	8.874532697018278	53239218.00960001	3.250371171704195e+20	211852350408.094	1.8013375008797672	222991374390.91006	1.1049727150667956e+20	-4.4768670461381166e+22	1352.2027476871212	-0.6331840415146862	19.35177314519395	2.7624309392265194	28.45684266151463	134.2378847089775	144.0134688511599	54.76976306959319	0.009952140888838492	1.892650090033075e+22	2.389774191701814	0.0362333700112511	5.592721102774309e+21	-0.26768626828309555	-0.07910044489647905	0.0	171.05058300000005	171.97828700000005	7.014929	-1.965412	8.403471000000001	0.802657	0.0		True	0.0	None	0.0	None	0.0	None	0.0	None	0.0	None	0.0	None	0.0	None	0.0	None	1.5094e-06	12
2014-02-26 00:24:00	9.423329881424142	45566905.1214	3.1877173493808595e+20	223704437230.49387	0.3640973497387717	3579392293.9203033	9.622174293356028e+19	-3.626127487382679e+22	1463.603660865443	-0.5992127772657715	21.467773543286672	6.097560975609754	28.95598749533043	129.02057678773826	132.2805758916115	54.259474137363405	-0.0022201057910900715	1.80290054859355e+22	0.042334933486439685	-0.009992904335424246	5.991489307398216e+21	-0.29792693406830395	-0.09900856934392098	0.0	171.053879	171.868484	6.985906	-1.845372	8.405108	0.922895	0.0		True	0.0	None	0.0	None	0.0	None	0.0	None	0.0	None	0.0	None	0.0	None	0.0	None	1.3708e-06	12
2014-02-26 00:36:00	13.471075051434864	73325013.4084	3.7601272250379207e+20	316191475356.357	0.1984712343887237	62086673021.037926	1.584548066116169e+20	-6.52073349238072e+22	1064.4087100637719	-0.6696252418492591	17.909684478200433	1.8796992481203008	27.579468695258946	131.71523492827265	139.48210723051548	54.397600140612894	0.0007461324601079839	1.9089869974544006e+22	0.4527265477532816	0.0032423240186252394	5.123017708972687e+21	-0.19603713007917828	-0.05260914245885543	0.0	171.057175	171.758682	6.9845289999999975	-1.755886	8.403655	1.042251	0.0		True	0.0	None	0.0	None	0.0	None	0.0	None	0.0	None	0.0	None	0.0	None	0.0	None	1.655e-06	12
2014-02-26 00:48:00	12.428109753679747	69738818.57370001	3.927278430950908e+20	291989794272.2638	0.4702446153450302	192626658339.8757	1.4800836645050034e+20	-6.066226342726519e+22	1182.8756735565535	-0.6549851316398139	18.939211830453605	2.4	29.029747545680753	133.34608584455722	142.19563429906003	54.569537368882074	0.0018809784613801207	2.0671904031432163e+22	1.4944491892451752	0.007009542147898097	5.380977285740663e+21	-0.22319954809314976	-0.05809971334283575	0.0	171.06059299999995	171.64894099999995	6.982306	-1.635744	8.401447000000001	1.162594	0.0		True	0.0	None	0.0	None	0.0	None	0.0	None	0.0	None	0.0	None	0.0	None	0.0	None	1.5113e-06	12
2014-02-26 01:00:00	9.276752127836392	58425240.7595	3.0729680797848915e+20	211073114668.4702	1.555842067015296	98858206912.8144	1.1844777185171502e+20	-4.958987572973523e+22	1211.4685621263263	-0.6391164207950378	18.829541935630072	4.18848167539267	28.000101571308278	135.41357949820105	142.1856977629453	55.232925129483796	-0.008145769984373278	1.9175941911138328e+22	-1.0038521404608904	-0.032492654574940924	5.782011674890563e+21	-0.2471403523254145	-0.07451881159757259	0.0	171.06398000000004	171.53923	6.981817	-1.515141	8.400988	1.283396	0.0		True	0.0	None	0.0	None	0.0	None	0.0	None	0.0	None	0.0	None	0.0	None	0.0	None	1.2755e-06	12
2014-02-26 01:12:00	10.816153437292817	61224237.6762	3.19032466991379e+20	269359258207.2469	0.8679641386130301	205227827136.30054	1.2821245271952838e+20	-4.943052396394794e+22	1049.0276190713462	-0.6079380840615828	18.670379249664585	2.6200873362445414	31.114127703860827	130.65995743163583	139.5687239756902	53.190087456027356	0.0037902364131573367	1.9313965528185366e+22	1.7381078188405688	0.01763352223238706	5.910823048669197e+21	-0.2375393634791379	-0.07269626439840786	0.0	171.067383	171.42953500000004	6.9826320000000015	-1.424194	8.401966	1.404205	0.0		True	0.0	None	0.0	None	0.0	None	0.0	None	0.0	None	0.0	None	0.0	None	0.0	None	1.095e-06	12
2014-02-26 01:24:00	11.581503388828438	56815615.35890001	2.886101914544784e+20	272580754487.51794	0.1272112593558251	113921143781.4523	1.1432452162825612e+20	-4.69614791719542e+22	1137.7993474341906	-0.6223883252328577	18.896810310863813	5.2356020942408374	30.3874250714262	134.93570884956	143.5528671161378	59.768415811309325	-0.0006660275358943723	1.789457281498102e+22	1.1567306920924256	-0.005570621626873637	6.031530111108025e+21	-0.23715976160573746	-0.0799368757252853	0.0	171.070892	171.319885	6.9835850000000015	-1.303661	8.403087	1.524884	0.0		True	0.0	None	0.0	None	0.0	None	0.0	None	0.0	None	0.0	None	0.0	None	0.0	None	1.1428e-06	12
2014-02-26 01:36:00	9.056154097711484	55473189.6583	2.7041679009457743e+20	207107816649.9178	1.1881521654423202	134408505056.96068	1.109930373074587e+20	-4.713722447900988e+22	1112.6793296811932	-0.6398354897371467	17.804359502113716	2.7322404371584703	29.374924438164104	131.68718160688977	138.22261267282215	58.89713923742268	0.006492634783837815	1.7670119045666972e+22	1.4243689933076316	0.02501703253983672	6.620213013900856e+21	-0.2398522483718264	-0.08986204178821988	0.0	171.074356	171.210251	6.982537	-1.18477	8.402184	1.643887	0.0		True	0.0	None	0.0	None	0.0	None	0.0	None	0.0	None	0.0	None	0.0	None	0.0	None	1.135e-06	12
