Timestamp	TOTUSJH	TOTBSQ	TOTPOT	TOTUSJZ	ABSNJZH	SAVNCPP	USFLUX	TOTFZ	MEANPOT	EPSZ	MEANSHR	SHRGT45	MEANGAM	MEANGBT	MEANGBZ	MEANGBH	MEANJZH	TOTFY	MEANJZD	MEANALP	TOTFX	EPSY	EPSX	R_VALUE	CRVAL1	CRLN_OBS	LAT_MIN	LON_MIN	LAT_MAX	LON_MAX	QUALITY	NOAA_AR	IS_TMFI	BFLARE	BFLARE_label	CFLARE	CFLARE_label	MFLARE	MFLARE_label	XFLARE	XFLARE_label	BFLARE_loc	BFLARE_label_loc	CFLARE_loc	CFLARE_label_loc	MFLARE_loc	MFLARE_label_loc	XFLARE_loc	XFLARE_label_loc	XR_MAX	XR_QUAL
2014-01-11 19:48:00	49.47760574447845	402546843.33470017	2.483990739244247e+21	1177285710607.3906	7.516625885554148	444870530937.46747	8.582000711996587e+20	-3.705398596878978e+23	1257.8432139847962	-0.6931161441385693	21.493731560107516	0.9414929388029591	25.65726665841466	110.99586858144542	111.09388790683563	36.46702386103672	0.005054892996337692	2.7272463144000466e+22	-0.3522879091797009	0.022057168188554143	1.4183398565125198e+23	-0.05101471272605503	-0.26530863730882914	0.0	2.895786	46.938835	6.020326	-44.04045900000001	7.642415	-40.22707	0.0		True	0.0	None	0.0	None	0.0	None	0.0	None	0.0	None	0.0	None	0.0	None	0.0	None	9.0585e-07	12
2014-01-11 20:00:00	52.04972751306775	390949692.2036	2.5916711496978803e+21	1249313272478.0884	8.943186093202526	479436399020.49	8.348765829862974e+20	-3.5474213936695756e+23	1333.899191818737	-0.6832495378573937	22.212708530550017	1.7088174982911826	26.016582647119442	111.11566061628885	110.31434117344112	38.66307472306006	0.006112909154615535	3.4687641432851302e+22	-0.5457530860839948	0.027180214766943826	1.3934698313540518e+23	-0.06680997927297892	-0.2683886442106625	0.0	2.898434	46.828335	6.025176	-43.949867	7.637378	-40.109818	0.0		True	0.0	None	0.0	None	0.0	None	0.0	None	0.0	None	0.0	None	0.0	None	0.0	None	8.570999999999998e-07	12
2014-01-11 20:12:00	50.07473855753854	365861832.3026	2.349451648176878e+21	1155650704708.0708	7.71632109295695	463236770106.0263	7.730297858709682e+20	-3.3563959478111734e+23	1354.5994520903266	-0.6907861855864978	21.265715160644525	1.2251148545176112	25.13983697395152	111.61173147084905	111.6578099823139	37.480267832338974	0.005908362245755704	3.0312313666875918e+22	-0.4696136176020211	0.024947928520995408	1.3094301613755535e+23	-0.06238634493614489	-0.2694962932065305	0.0	2.901154	46.717854	6.0277949999999985	-43.830441	7.653896	-39.994305	0.0		True	0.0	None	0.0	None	0.0	None	0.0	None	0.0	None	0.0	None	0.0	None	0.0	None	1.3218e-06	12
2014-01-11 20:24:00	53.0908788370141	368008391.5002	2.503670723055425e+21	1223129420480.0803	7.432831943943442	488571942860.7643	7.74082884199895e+20	-3.339405742036031e+23	1438.0105031385965	-0.6832804686462247	22.05293124246707	1.7543859649122806	25.458462595286736	115.14920112496188	114.92180184749421	38.59882524386343	0.005669589583480887	3.4447328126111733e+22	-0.6022863627933706	0.023997726706943296	1.3022635148436887e+23	-0.07048315875287835	-0.2664579549356464	0.4935145725516179	2.903889	46.607388	6.023461	-43.707489	7.6495419999999985	-39.87542	0.0		True	0.0	None	0.0	None	0.0	None	0.0	None	0.0	None	0.0	None	0.0	None	0.0	None	1.0291e-06	12
2014-01-11 20:36:00	53.46342287194521	355303347.1133	2.418252501047803e+21	1210602633463.1	11.419981417755606	735723490932.6205	7.371041705143864e+20	-3.181204671735975e+23	1479.2144046131866	-0.6741861826438542	22.216037342377426	1.0560519902518275	26.03200867310431	115.67125776488899	116.08509466398422	39.21265812449412	0.009276995465276687	3.3320770811835177e+22	-0.7833580741262545	0.038396562101998336	1.263353895885407e+23	-0.0706160262996318	-0.2677400004981238	0.98415310519352	2.906639	46.496941	6.024113	-43.581989	7.647475	-39.760395	0.0		True	0.0	None	0.0	None	0.0	None	0.0	None	0.0	None	0.0	None	0.0	None	0.0	None	1.1296e-06	12
2014-01-11 20:48:00	53.95352256113043	358259630.54300004	2.459916430798908e+21	1260260374904.3833	12.214432161376704	828444303520.2992	7.438321612312686e+20	-3.224734238329251e+23	1484.2028321490784	-0.677771874559715	22.542312822815862	1.5224358974358974	25.811761374847435	115.59052604140864	115.66694551815785	40.45643894236087	0.009787205257513384	3.1367860887668128e+22	-0.6430905579518791	0.04064175878977341	1.264600533003825e+23	-0.06592870079668403	-0.2657926546738593	0.9802958766427978	2.909416	46.386517	6.031209	-43.461491	7.644807000000001	-39.643749	0.0		True	0.0	None	0.0	None	0.0	None	0.0	None	0.0	None	0.0	None	0.0	None	0.0	None	1.7124000000000001e-06	12
2014-01-11 21:00:00	53.071491345242436	343541422.31600004	2.3421650049416765e+21	1214893717141.6377	13.313162462293556	867830825887.1882	7.07943609075338e+20	-3.08250203086041e+23	1498.4028181558615	-0.6756345006276986	22.258968654218226	1.4443500424808835	25.678600329816213	114.26250190631292	114.1674200450748	40.986591032534974	0.01131109809880506	3.238510047614377e+22	-0.3337828063890589	0.04625437577943906	1.1993761985349091e+23	-0.07098289301652075	-0.262883829710144	1.0860546632561938	2.91222	46.276119	6.034406	-43.337833	7.655552	-39.527531	0.0		True	0.0	None	0.0	None	0.0	None	0.0	None	0.0	None	0.0	None	0.0	None	0.0	None	1.4556999999999999e-06	12
2014-01-11 21:12:00	51.696347915722896	348956493.5267	2.4578449861853887e+21	1159751205933.4312	11.863067894144676	622687496509.8729	7.176580536261559e+20	-3.170886900339784e+23	1571.0742591901474	-0.6842219182948984	22.539737131113966	1.9524617996604408	25.639086134766426	115.19072003999365	115.86786629124587	39.17409684199261	0.01007051603917205	3.4079375183258145e+22	-0.3483558930528709	0.040369782764656	1.2244225965423648e+23	-0.07353732944458463	-0.2642089750095039	1.0189471325215151	2.915045	46.165745	6.029507	-43.243767	7.658436	-39.413254	0.0		True	0.0	None	0.0	None	0.0	None	0.0	None	0.0	None	0.0	None	0.0	None	0.0	None	1.0466e-06	12
2014-01-11 21:24:00	51.39945652874014	348188652.3327	2.4285256141916366e+21	1096770261864.3948	12.383546640903175	706348917911.333	7.050187336143328e+20	-3.180659442371442e+23	1650.4050836303436	-0.6878443631863516	22.084250409483264	1.3537906137184117	25.153576352059414	119.1802804953492	120.28612087488632	40.216540907911465	0.011176486137999255	3.2288746476338755e+22	-0.607099341411747	0.04214325044999842	1.2029862633216865e+23	-0.0698271306957141	-0.2601559001234943	0.6602147830248034	2.917896	46.055397	6.031845	-43.121513	7.652981	-39.298241	0.0		True	0.0	None	0.0	None	0.0	None	0.0	None	0.0	None	0.0	None	0.0	None	0.0	None	1.0115e-06	12
2014-01-11 21:36:00	52.411016343342226	348809181.4105	2.544943910592405e+21	1179467315458.6987	10.959813953688657	616209388888.5511	7.14608080176842e+20	-3.1145104406431e+23	1663.4631267710904	-0.6723405817122233	23.13928294490823	1.6493055555555556	25.905078399998523	116.04460469893895	116.75719150914944	39.784081943765	0.009513727390354738	3.032141806660605e+22	-0.17514062633694194	0.0375768646904421	1.2477141333367796e+23	-0.06545593681500697	-0.2693485419958956	1.0227778106390095	2.92078	45.94508	6.039421	-43.001129	7.649375999999997	-39.184967	0.0		True	0.0	None	0.0	None	0.0	None	0.0	None	0.0	None	0.0	None	0.0	None	0.0	None	9.057299999999999e-07	12
2014-01-11 21:48:00	50.19565503764865	338655130.7364	2.394562255638446e+21	1155008221818.502	8.228321168262008	551262178949.0475	6.971688874174581e+20	-3.038102406533892e+23	1587.2135225715267	-0.6755108089582281	22.647543600060487	0.9683098591549296	26.12831414746892	114.60750233956348	115.581033127343	39.09546270010961	0.0072432404650193735	3.0821024171086448e+22	-0.4097908200220641	0.02900256019525552	1.2329875451029418e+23	-0.06852940482175761	-0.2741502104197146	0.8577372742456001	2.923639	45.834789	6.03725	-42.879303	7.665845	-39.069828	0.0		True	0.0	None	0.0	None	0.0	None	0.0	None	0.0	None	0.0	None	0.0	None	0.0	None	8.574600000000002e-07	12
2014-01-11 22:00:00	51.86882628007464	351366892.5491	2.528041874710787e+21	1194473143228.1104	11.71731471824496	732876321459.7698	7.405016815326138e+20	-3.1710181469362055e+23	1547.6284908677792	-0.6795563169131931	22.77755858751091	1.1382113821138211	25.672918864992127	111.62146272836588	112.37922646162669	37.70972803240938	0.00952627212865444	3.5406977801067688e+22	-0.5625049520363922	0.03971025556530212	1.285669728229405e+23	-0.07587794932920264	-0.27552191277319016	0.7160623312814043	2.926586	45.724537	6.034344	-42.758892	7.660959	-38.953148	0.0		True	0.0	None	0.0	None	0.0	None	0.0	None	0.0	None	0.0	None	0.0	None	0.0	None	1.2023000000000001e-06	12
2014-01-11 22:12:00	51.672338890346325	361312646.9576	2.673775622432545e+21	1203958058658.4758	10.94312806185444	690812657678.6548	7.680900988931683e+20	-3.234822372442431e+23	1574.1348405905746	-0.6741472870690405	22.76814317241951	1.1727912431587175	25.69940017385484	110.41764398371132	111.18673593931163	37.48738063222355	0.008556003175804879	3.5438886524914713e+22	-0.6519138706923712	0.03618217338670999	1.3442807521625174e+23	-0.07385576843738738	-0.2801523910091043	0.9197305177963048	2.929516	45.61431500000001	6.044267	-47.289124	9.273146	-38.841312	0.0		True	0.0	None	0.0	None	0.0	None	0.0	None	0.0	None	0.0	None	0.0	None	0.0	None	9.168000000000001e-07	12
2014-01-11 22:24:00	50.21047151898346	367184133.9384	2.794757410141641e+21	1163237953991.6558	9.309497342886843	555221014217.6925	7.828444661764425e+20	-3.2733719947077735e+23	1610.1119885862115	-0.6712727389347122	23.272756776685725	1.6067329762815608	25.82911298092261	113.13475238721873	114.0647709961446	36.5613922194409	0.007122798273058028	3.779548323219672e+22	-0.27317650730630033	0.030340657762737613	1.393582272279825e+23	-0.0775074681082883	-0.2857829144859081	0.9317409772592672	2.932528	45.504128	6.046772	-47.156197	9.260708	-38.729607	0.0		True	0.0	None	0.0	None	0.0	None	0.0	None	0.0	None	0.0	None	0.0	None	0.0	None	8.3728e-07	12
2014-01-11 22:36:00	52.687279652774066	368061328.3953	2.865142984362117e+21	1226043013344.8738	6.030603912369179	201688268894.70465	7.871128479444777e+20	-3.221225715614661e+23	1619.681541565336	-0.6590047208545512	23.372393916679894	1.4264264264264264	26.21671899142188	111.4764930081948	111.60166754026943	38.27408902516185	0.004527480414691576	3.634686585858608e+22	-0.13141189847374873	0.01975254180854016	1.429029082497204e+23	-0.0743591362535263	-0.2923535929317536	0.9518474402144328	2.9355740000000003	45.393974	6.042998000000001	-47.025135	9.234963	-38.616425	0.0		True	0.0	None	0.0	None	0.0	None	0.0	None	0.0	None	0.0	None	0.0	None	0.0	None	8.382800000000002e-07	12
2014-01-11 22:48:00	49.256458519008255	355776556.88960004	2.74700822808236e+21	1158363645792.831	7.209017307903818	328012054846.398	7.655555033235968e+20	-3.1608251879195276e+23	1594.8048365119134	-0.6689762651586258	23.513665365802737	1.927525057825752	25.70311315569421	108.89597839753631	109.3989308439476	37.09028344120573	0.005558224601313661	3.600622510689084e+22	-0.3572850971083528	0.02428167128513182	1.3630802384132371e+23	-0.07620576451531942	-0.28849059115648634	0.8099439018136594	2.938663	45.283863	6.0540379999999985	-46.897644	9.2274	-38.504612	0.0		True	0.0	None	0.0	None	0.0	None	0.0	None	0.0	None	0.0	None	0.0	None	0.0	None	8.7464e-07	12
2014-01-11 23:00:00	49.18610710379954	360251526.6698	2.7365233838085924e+21	1185597466248.1436	7.634601360498388	351938765540.95703	7.959165578683926e+20	-3.238370099670425e+23	1491.0035011976295	-0.6768745632389894	23.30784152920825	1.447178002894356	25.663901609829463	105.3973133279325	106.12036715197195	35.52583191359064	0.005524313574890295	3.861599842902355e+22	0.05332177539606415	0.025276093556994308	1.3733739767695117e+23	-0.08071402052947238	-0.2870585764067747	0.9692396093362616	2.9417880000000003	45.173786	6.049655	-46.791584	9.21796	-38.392338	0.0		True	0.0	None	0.0	None	0.0	None	0.0	None	0.0	None	0.0	None	0.0	None	0.0	None	9.821999999999999e-07	12
2014-01-11 23:12:00	45.04116874077979	357201437.96690005	2.623112558423618e+21	1067968689984.2708	6.014988685330732	238570497943.1908	7.753878552224367e+20	-3.204935427638643e+23	1495.2081330686872	-0.6756062008503518	22.983333528734452	2.4224072672218018	25.85516399124195	107.02192009094752	108.20374072446585	35.552893723462795	0.00455336009487565	3.797620890935791e+22	-0.3527329203851586	0.02009924078528904	1.3483704570364425e+23	-0.08005453714508788	-0.2842389378460686	0.9803565776194252	2.94495	45.063751	6.0510660000000005	-46.69809	9.210657	-38.291569	0.0		True	0.0	None	0.0	None	0.0	None	0.0	None	0.0	None	0.0	None	0.0	None	0.0	None	9.2801e-07	12
2014-01-11 23:24:00	45.82224316753003	357793850.8643	2.6778459603131564e+21	1117267132786.925	6.743949222383653	338085826258.6326	7.871154170742642e+20	-3.22448707420234e+23	1484.8182679186014	-0.6786021774225134	23.53580053890285	2.5773195876288657	25.817995516286892	106.30084363677388	107.54926459392712	35.29476550939625	0.004966089265378241	3.4456710616859965e+22	-0.3895660096584354	0.02245761502735881	1.365398429405296e+23	-0.07251509562091467	-0.28735185656556644	0.0	2.948154	44.953754	6.063791	-46.615326	9.228781	-38.180264	0.0		True	0.0	None	0.0	None	0.0	None	0.0	None	0.0	None	0.0	None	0.0	None	0.0	None	8.8195e-07	12
2014-01-11 23:36:00	45.07118437496194	357825214.1068	2.5289669159257427e+21	1092999848523.3168	6.616964118925576	221872842753.09247	7.863410993254797e+20	-3.217170263263213e+23	1388.9710594716607	-0.6770030258496429	22.744468054367037	1.5317286652078774	26.149615185299506	104.96468479123932	106.13205764848948	35.06561798967484	0.004826377913147757	3.4476378733956127e+22	-0.12837530099912806	0.02205382831188552	1.367040072231181e+23	-0.07255013198944567	-0.2876721434132269	0.9819674654948302	2.951401	44.8438	6.059028	-46.531471	9.253766	-38.081154	0.0		True	0.0	None	0.0	None	0.0	None	0.0	None	0.0	None	0.0	None	0.0	None	0.0	None	9.528900000000001e-07	12
2014-01-11 23:48:00	43.128591468951626	362506465.3429	2.5990301225365306e+21	1026520752176.8002	8.086083670099717	514476945524.5387	7.986948987241903e+20	-3.291770080515999e+23	1406.9274885977304	-0.6837561866579123	22.736035961256817	1.0783608914450036	25.79384162383968	105.02127822544337	105.44736842229814	35.287641041093345	0.005813144263191745	3.677684974272875e+22	-0.1893641220611693	0.026495569904466592	1.3794667547160867e+23	-0.07639172215040434	-0.2865385202353451	0.0	2.9546810000000003	44.733883	6.063614	-46.448849	9.279037	-37.97002	0.0		True	0.0	None	0.0	None	0.0	None	0.0	None	0.0	None	0.0	None	0.0	None	0.0	None	1.2159999999999999e-06	12
2014-01-12 00:00:00	44.399466699154864	359582370.3993	2.567283969848528e+21	1066736112875.0742	8.955827761022885	477768260292.3045	7.939798214388833e+20	-3.289243951530114e+23	1403.8718278629349	-0.6887873840056932	22.84526714934185	1.96078431372549	25.720534131882747	105.24947243465604	106.14308272840404	34.67461803118278	0.006503869107496649	3.3883284255782046e+22	-0.2329342237554282	0.029495948161772725	1.3635338996981908e+23	-0.07095362663266339	-0.28553216532914844	0.0	2.957962	44.624012	6.074471	-46.357639	9.299385	-37.860134	0.0		True	0.0	None	0.0	None	0.0	None	0.0	None	0.0	None	0.0	None	0.0	None	0.0	None	6.0962999999999996e-06	12
2014-01-12 00:12:00	45.09396637754681	374000391.6848	2.713422069269952e+21	1092874195860.6152	8.387480360884535	459208323804.9146	8.246020438767934e+20	-3.363606743669806e+23	1411.0303688122117	-0.6772058909287326	23.043249172818502	2.4171270718232045	26.25510239472181	107.96307767873394	108.4550972185486	35.976512772322785	0.005792458812765564	3.4060277974273607e+22	-0.2959786810063481	0.02674256596841999	1.4183839390904685e+23	-0.06857466597204727	-0.2855678538992306	0.0	2.96133	44.514179	6.073753	-46.271183	9.292424	-37.747456	0.0		True	0.0	None	0.0	None	0.0	None	0.0	None	0.0	None	0.0	None	0.0	None	0.0	None	5.57e-06	12
2014-01-12 00:24:00	43.64521442363718	370084293.1674	2.6357281839239576e+21	1071275271199.2017	5.178567025550912	273237474673.9873	8.130712833073944e+20	-3.320125925962124e+23	1388.8518520677026	-0.6755250107323985	22.825223875841733	2.0293911826452065	26.288866426013012	108.1311972726794	108.52040815235624	35.7073387848278	0.003623909744962149	3.3030425091147253e+22	-0.3758857688924068	0.016702751846536138	1.4138011796763155e+23	-0.06720491560188936	-0.2876571787853374	0.0	2.964691	44.404392	6.0676809999999985	-46.156662	9.311118	-37.63805	0.0		True	0.0	None	0.0	None	0.0	None	0.0	None	0.0	None	0.0	None	0.0	None	0.0	None	1.3594e-06	12
2014-01-12 00:36:00	42.93202100213581	374792236.5536	2.5220485347459387e+21	1037460842071.802	3.1782138955283594	85203046252.43509	8.182363103931415e+20	-3.41587710667094e+23	1336.4320195655498	-0.6862765536121652	22.007974328834266	0.9852216748768472	25.807167317408123	108.27290086306499	108.96991923903788	35.76627224229015	0.0022366037266209424	3.381710413710094e+22	-0.11786892768949266	0.010057585423657402	1.39084661849726e+23	-0.06794121965052591	-0.2794320153032904	0.0	2.968147	44.294647	6.061725	-46.072765	9.3084	-37.523251	0.0		True	0.0	None	0.0	None	0.0	None	0.0	None	0.0	None	0.0	None	0.0	None	0.0	None	1.0463e-06	12
2014-01-12 00:48:00	43.146167627440946	377310774.2601	2.671238113837318e+21	1050371706556.5156	6.049370649266832	373440996052.4957	8.310405694775483e+20	-3.419370404122345e+23	1373.912463054962	-0.6823928672818912	22.91637769379496	2.3224043715847	26.0355369901206	105.74586463896743	105.94780593402484	35.74589169079644	0.004132083776821607	3.5942451106145188e+22	-0.08927626386929755	0.019059590490136592	1.4075185220114289e+23	-0.07172920558092316	-0.2808939911364404	0.0	2.971645	44.184944	6.05623	-45.991314	9.303882000000002	-37.413296	0.0		True	0.0	None	0.0	None	0.0	None	0.0	None	0.0	None	0.0	None	0.0	None	0.0	None	1.0576e-06	12
2014-01-12 01:00:00	45.102252099359035	383429074.1596	2.6963006102201864e+21	1132082530537.045	7.974142511416153	592721139781.3135	8.639911426613705e+20	-3.480160077365708e+23	1301.4612575684712	-0.6834420759676734	22.72309901317132	1.7307692307692308	26.26604710430745	103.13895654444613	102.93711615996342	34.704973540333675	0.005111629815010353	3.1736682068385766e+22	-0.34586355911856964	0.024707611845794702	1.4527374644563507e+23	-0.062325247675279034	-0.2852920229162575	0.0	2.975182	44.075283	6.051694	-45.90757	9.300817	-37.305759	0.0		True	0.0	None	0.0	None	0.0	None	0.0	None	0.0	None	0.0	None	0.0	None	0.0	None	1.1604000000000001e-06	12
2014-01-12 01:12:00	44.567940380504474	378923420.6587	2.6621295619009387e+21	1087788978235.426	4.348280874774772	246735939818.5272	8.39915821034495e+20	-3.469031751729456e+23	1364.5671617147605	-0.6893572527969383	22.431208793303128	1.5656909462219195	25.599651195697714	105.75790900248876	106.12440347166523	35.34702537058961	0.0029600278248977326	3.2027244243566945e+22	-0.21505130600629346	0.013585468979806342	1.4301686555410297e+23	-0.0636437331407963	-0.28419951328740195	0.0	2.978764	43.965664	6.046432	-45.827232	9.316343	-37.196953	0.0		True	0.0	None	0.0	None	0.0	None	0.0	None	0.0	None	0.0	None	0.0	None	0.0	None	1.2504000000000001e-06	12
2014-01-12 01:24:00	44.56090301756818	392642778.4907	2.729906025398835e+21	1067137991424.2446	3.8575075006686004	259926646474.1464	8.614071285909886e+20	-3.594640908522085e+23	1384.2316734259534	-0.6893589796031638	22.385085569430146	1.5488215488215489	25.47242056276357	110.02457081200092	110.76904244911087	35.85848785137567	0.002597648148598384	3.788422860866967e+22	-0.25725801613544924	0.011631004291534693	1.467964726892487e+23	-0.07265213366601027	-0.28151759577011576	0.0	2.9823880000000003	43.856087	6.065325	-45.735893	9.31403	-37.089958	0.0		True	0.0	None	0.0	None	0.0	None	0.0	None	0.0	None	0.0	None	0.0	None	0.0	None	1.1607e-06	12
2014-01-12 01:36:00	44.6060785034804	384148941.9979	2.675889560270316e+21	1048467543387.4541	5.427759625494675	282967726102.85016	8.342952433252395e+20	-3.501600270554371e+23	1408.0432454920028	-0.6863637966420362	22.140124585938306	1.5373864430468205	25.462716546879268	112.98516493821276	112.70653126602514	36.76342105637148	0.003792983665614727	3.453912475318416e+22	-0.3817831652133913	0.016757131986513598	1.468835215437675e+23	-0.06770163058770619	-0.2879127362386556	0.0	2.986055	43.746555	6.058868	-45.650311	9.315253	-36.978264	0.0		True	0.0	None	0.0	None	0.0	None	0.0	None	0.0	None	0.0	None	0.0	None	0.0	None	1.1195e-06	12
2014-01-12 01:48:00	43.00005933690631	376498769.3046	2.6904191181595885e+21	1016897571063.4448	5.3694386029963015	243223498867.6195	8.30214213641465e+20	-3.439764435257798e+23	1401.0033744768314	-0.6879433467184921	22.32112784890244	1.7980636237897647	25.50941029473894	109.42749353971226	109.24921513780563	35.55367047621729	0.00371330470470007	3.2888244173834123e+22	-0.1154731844386416	0.016898083408196745	1.4409992571595186e+23	-0.06577557617821789	-0.28819585475913084	0.0	2.989758	43.637058	6.052862	-45.571022	9.310169	-36.870491	0.0		True	0.0	None	0.0	None	0.0	None	0.0	None	0.0	None	0.0	None	0.0	None	0.0	None	1.3481999999999999e-06	12
2014-01-12 02:00:00	47.526870626637184	393264587.2828	2.878374249986612e+21	1171453388209.2422	4.608659577304632	322590333762.8268	8.789414633958955e+20	-3.5812675787916347e+23	1382.2567405635293	-0.6857083599207516	22.826018076832035	1.7857142857142856	25.928732259038	109.84860155681822	109.78689384754722	36.23109982856064	0.002939196158995301	3.466166127910128e+22	0.3119332119304297	0.013903922681112678	1.4893583761577497e+23	-0.0663669786881457	-0.2851687194493164	0.0	2.993504	43.527603000000006	6.048353	-45.485592	9.322083	-36.761658	0.0		True	0.0	None	0.0	None	0.0	None	0.0	None	0.0	None	0.0	None	0.0	None	0.0	None	3.7936e-06	12
2014-01-12 02:12:00	47.87721289539549	390905363.2281	2.829114869367352e+21	1140091955533.9485	6.222873275778366	428942130336.4793	8.533434409582424e+20	-3.532207689775377e+23	1428.7640444802828	-0.6803966666671225	22.573862120233354	1.341381623071764	26.173754206822355	110.77653924867685	110.9789608675506	36.89967468589571	0.004173623927416745	3.1039057451822736e+22	-0.04583843736202894	0.018946871612870658	1.5015182732654432e+23	-0.05978943788566553	-0.2892321510501409	1.2357023744251212	2.997292	43.41819	6.070468	-45.399593	9.325568	-36.649746	0.0		True	0.0	None	0.0	None	0.0	None	0.0	None	0.0	None	0.0	None	0.0	None	0.0	None	3.9311e-06	12
2014-01-12 02:24:00	48.99875959695208	388999726.9739	2.9491071423668174e+21	1157012515630.6675	4.868186126845583	271309526988.3229	8.527438884711453e+20	-3.510305467858335e+23	1486.3716848089648	-0.6794900225398736	23.10399860044023	2.14190093708166	26.07175530040994	112.10223169448908	111.75702079367514	37.44569126304345	0.003258491383430778	3.420948599029339e+22	-0.039146459977107285	0.014902888267635259	1.5086618273174596e+23	-0.06621932085244965	-0.2920317529159141	1.2513166151746298	3.001064	43.308815	7.9901490000000015	-45.309269	9.319704	-42.683235	0.0		True	0.0	None	0.0	None	0.0	None	0.0	None	0.0	None	0.0	None	0.0	None	0.0	None	2.4769999999999997e-06	12
2014-01-12 02:36:00	49.147755514206345	403546492.3656	2.991450662743932e+21	1195922644718.3137	6.362594088942165	369937944530.1709	8.948191465281121e+20	-3.649874095994999e+23	1426.5507145297574	-0.6810387258849279	22.70569297698997	1.9632678910702976	26.04561540986668	109.69071693815201	109.68151206040432	35.76762276130946	0.004029508606043171	3.3579216744281484e+22	-0.22515494988818946	0.018758275855498968	1.567079119392002e+23	-0.06265626261693008	-0.29240503610869384	1.2218503397211655	3.004875	43.199474	7.984075999999999	-45.223557	9.337374	-42.560524	0.0		True	0.0	None	0.0	None	0.0	None	0.0	None	0.0	None	0.0	None	0.0	None	0.0	None	2.09e-06	12
2014-01-12 02:48:00	49.014147452216854	400947499.8414	3.030807705591236e+21	1207952412519.3506	8.961000661644603	626394909892.4429	8.82158976040976e+20	-3.559062458652589e+23	1463.8606791179204	-0.6683986709018213	23.17782502667308	2.4374599101988452	26.532912160863205	110.25256853339684	110.40464138192057	36.497932106523095	0.005747915754743172	3.181491536822792e+22	-0.11606633575876918	0.026791631436558324	1.5650557612293575e+23	-0.05974901366307608	-0.29392043630753595	0.0	3.008772	43.090172	7.978175999999999	-45.139328000000006	9.337849	-42.439339	0.0		True	0.0	None	0.0	None	0.0	None	0.0	None	0.0	None	0.0	None	0.0	None	0.0	None	2.0636e-06	12
2014-01-12 03:00:00	51.46683146907704	409441107.04590017	3.054219870370152e+21	1264583899155.6846	8.021746064221759	489915427024.218	9.115843421703472e+20	-3.691358069500407e+23	1419.622322362862	-0.6788632013510557	23.16127893676091	2.2222222222222223	26.14160700475206	111.00868091876787	111.19377385825057	35.58619476323051	0.004951695101371456	3.016689094641404e+22	0.024030307848353992	0.02333953250180857	1.605463291368295e+23	-0.055478747325811435	-0.29525446437586883	0.0	3.012707	42.980907	7.97118	-45.050373	9.332789	-42.318348	0.0		True	0.0	None	0.0	None	0.0	None	0.0	None	0.0	None	0.0	None	0.0	None	0.0	None	2.2724e-06	12
2014-01-12 03:12:00	52.34628360304389	406793141.3899	2.9876240808248177e+21	1241976231576.5894	9.2616627511004	583072015991.4941	8.83394287359803e+20	-3.646827846766859e+23	1467.476938677957	-0.6750394108083111	22.833583537866982	2.0874103065883887	26.244361397861343	114.01281286189064	114.27235763634238	36.52653261473323	0.006041528213372733	3.4718086001293777e+22	-0.005137214053836297	0.02718443472833226	1.574274647787232e+23	-0.06426427926803062	-0.291403234631682	0.0	3.016674	42.871674	7.961842999999999	-44.93111	9.351602	-42.195679	0.0		True	0.0	None	0.0	None	0.0	None	0.0	None	0.0	None	0.0	None	0.0	None	0.0	None	2.1834e-06	12
2014-01-12 03:24:00	55.80505902558774	406081014.9195	3.120971358212237e+21	1287869584388.3472	8.676440171156738	492287913019.6453	8.723752790362408e+20	-3.606901510429229e+23	1570.8899848675067	-0.6688198886105029	23.19341927893713	1.938502673796792	26.240873198943426	117.57564551661372	117.47307630511062	38.353604349353034	0.005799759472698354	3.4055178776499737e+22	-0.005738661564391373	0.02560645270787891	1.6047358791894448e+23	-0.06314777603450238	-0.2975626777901789	0.0	3.020672	42.76247	7.954900999999999	-44.836506	9.346582	-42.073971	0.0		True	0.0	None	0.0	None	0.0	None	0.0	None	0.0	None	0.0	None	0.0	None	0.0	None	1.7311e-06	12
2014-01-12 03:36:00	54.703329193156364	401001206.33650017	3.117197104606817e+21	1291833609701.1768	7.043103769260987	340951024751.3425	8.624979081375448e+20	-3.477462622249883e+23	1560.6441591842356	-0.6529865786018859	23.395787882418198	1.5957446808510638	27.084652328602573	114.60646021993679	114.26498479993508	38.59003682853563	0.004682914740200125	3.0003044817424286e+22	-0.12038990931502055	0.021250985565753267	1.6216909485688468e+23	-0.056338738071880036	-0.3045158321128102	0.0	3.0247040000000003	42.653305	7.947133999999997	-44.717319	9.340713	-41.951447	0.0		True	0.0	None	0.0	None	0.0	None	0.0	None	0.0	None	0.0	None	0.0	None	0.0	None	1.3808000000000002e-06	12
2014-01-12 03:48:00	51.10901698265977	396829696.0935	3.059453194588891e+21	1212046667256.8745	7.945782544441293	461105727309.2563	8.454153801917706e+20	-3.459221958259233e+23	1588.7785112556714	-0.6563897802712012	23.353865270436806	2.5517241379310347	26.76791647389749	117.62393423240931	117.48854378511513	39.73835566363889	0.005479850030649169	3.1711019699856774e+22	-0.17973885423320654	0.02417686382336353	1.5820098015808602e+23	-0.06017188114589572	-0.30018746370617505	0.0	3.028763	42.544163	7.942450999999997	-44.595711	9.353526	-41.8311	0.0		True	0.0	None	0.0	None	0.0	None	0.0	None	0.0	None	0.0	None	0.0	None	0.0	None	1.1811e-06	12
2014-01-12 04:00:00	52.600688435941144	405441289.2396	3.12768787164683e+21	1249302489950.876	7.713843120225625	479012097070.2766	8.604580035396794e+20	-3.4922281847906966e+23	1592.3653176620026	-0.6485778560505729	23.331897726880932	3.2454361054766734	27.30250139823063	117.10300640373623	116.76625448501949	40.99473439897663	0.005215580202992311	3.871209782426912e+22	0.0709303756433914	0.0230814645335308	1.603510900449287e+23	-0.07189624526665724	-0.29780461268153186	0.0	3.032852	42.435051	7.936821000000001	-44.504154	9.354123	-41.71637	0.0		True	0.0	None	0.0	None	0.0	None	0.0	None	0.0	None	0.0	None	0.0	None	0.0	None	1.0862e-06	12
2014-01-12 04:12:00	52.32110197977935	406348748.4668	3.078735718638041e+21	1234273685294.43	9.701209299765374	637710832717.4137	8.68803130676534e+20	-3.563096459681851e+23	1568.5034771772503	-0.6602617866876996	23.33638307909285	3.1123139377537217	26.72677183247968	115.87695405137522	116.28755813200372	39.96066705105231	0.006563741068853433	3.7713543488537687e+22	0.05107062189527415	0.02875943643873238	1.583939209567698e+23	-0.06988531432654381	-0.2935128319841365	0.0	3.036964	42.325966	7.929589	-44.38393	9.35093	-41.597393	0.0		True	0.0	None	0.0	None	0.0	None	0.0	None	0.0	None	0.0	None	0.0	None	0.0	None	9.764100000000002e-07	12
2014-01-12 04:24:00	50.95451381564754	388868472.2534	3.055939172957405e+21	1223922755178.1309	9.893206469974999	715976211705.1384	8.379689105144995e+20	-3.40448056466248e+23	1604.6601327824026	-0.6592279828608776	23.723246624538845	3.905160390516039	26.88797150142549	116.7435715570878	116.72840313527023	40.36392671258658	0.006899028221739888	3.4760151532911154e+22	-0.13468913885059589	0.030666080482834243	1.5108834121473212e+23	-0.06730796121096741	-0.2925605258159503	0.0	3.041107	42.216908	6.06456	-44.260525	9.345361	-35.406914	0.0		True	0.0	None	0.0	None	0.0	None	0.0	None	0.0	None	0.0	None	0.0	None	0.0	None	1.0035e-06	12
2014-01-12 04:36:00	50.67469316945849	384619153.8493	2.946138738036036e+21	1234476684168.7588	4.616749448891895	219941146052.31152	8.423578415170579e+20	-3.334808525614516e+23	1508.092678984176	-0.6528711906866907	23.34801845228189	2.6512576478586	27.135527580905517	113.33717763780227	113.55011554879795	39.128955068610246	0.003138510842210669	2.9851838327223466e+22	0.02004181991380711	0.014524339223809362	1.52793669242146e+23	-0.0584423515868564	-0.29913137141547325	0.0	3.045219	42.107868	7.92069	-44.165565	9.341693	-41.35743	0.0		True	0.0	None	0.0	None	0.0	None	0.0	None	0.0	None	0.0	None	0.0	None	0.0	None	1.1995000000000001e-06	12
2014-01-12 04:48:00	52.89984830639578	384056771.2853	3.1144982739596843e+21	1318864863287.8462	6.04284927959421	305143612834.5461	8.321795338776006e+20	-3.282083315603898e+23	1615.135732467268	-0.6434898812032983	24.282125283586154	2.6170798898071626	27.456421559758397	114.23523156758174	114.68223953863121	39.89123587668779	0.004161741928095186	2.9360730748172297e+22	0.041295431675652236	0.019147377373934592	1.5271500120802355e+23	-0.057565062566691964	-0.2994151840025152	0.0	3.049398	41.998848	6.08183	-44.045357	9.351071	-35.215717	0.0		True	0.0	None	0.0	None	0.0	None	0.0	None	0.0	None	0.0	None	0.0	None	0.0	None	1.4476e-06	12
2014-01-12 05:00:00	52.76912943040389	368944505.96	2.989375003105899e+21	1265307736148.4478	4.5486994724902345	305238594750.9923	7.816897591181805e+20	-3.189653255698219e+23	1705.2729536541276	-0.6509833229917763	24.084366937583948	2.196969696969697	26.880273195524712	118.33578685908206	118.83071058311735	41.577038217848894	0.003445984448856239	2.5503565267455453e+22	-0.4543605275625395	0.014935284718297684	1.4724853718538785e+23	-0.05205078525788382	-0.30052276645236425	0.0	3.053551	41.889851	6.07653	-43.924683	9.353364	-35.111542	0.0		True	0.0	None	0.0	None	0.0	None	0.0	None	0.0	None	0.0	None	0.0	None	0.0	None	1.0559000000000001e-06	12
2014-01-12 05:12:00	49.21985872397515	351461242.75960004	2.7409267753677976e+21	1163209479885.0105	6.056663237213902	270555416457.6836	7.363118736122616e+20	-3.044381697749768e+23	1684.8018543563314	-0.6522425829524512	23.718329011286784	1.8775510204081631	26.96281071157929	118.97455674607401	119.80508836028505	42.02608619009569	0.004944214887521553	2.507717717865515e+22	-0.33340033421009097	0.020859897544901914	1.3954696442919837e+23	-0.05372651802581787	-0.2989719475378195	0.0	3.05777	41.780869	7.928788000000001	-43.804688	9.347006	-41.011925	0.0		True	0.0	None	0.0	None	0.0	None	0.0	None	0.0	None	0.0	None	0.0	None	0.0	None	9.6266e-07	12
2014-01-12 05:24:00	49.86381705483429	342155813.5891	2.74223404671291e+21	1169593838163.9458	6.725808218511387	261083697358.3664	7.223066648418829e+20	-2.9487471077988315e+23	1700.8785151303248	-0.6489348051918454	24.000829786793126	2.9654036243822075	27.241336277944452	120.41567573495136	120.64354102436151	42.03960155450113	0.0055402044633536965	2.4757124680191654e+22	-0.17603958327526986	0.02384224062121495	1.3579444680307615e+23	-0.05448334256593169	-0.2988446945796902	0.0	3.061996	41.671898	7.924309	-43.68298	9.342362	-40.919746	0.0		True	0.0	None	0.0	None	0.0	None	0.0	None	0.0	None	0.0	None	0.0	None	0.0	None	8.825100000000002e-07	12
2014-01-12 05:36:00	48.857031292981866	327544391.6208	2.6249353933127213e+21	1183231190749.309	6.081043271657666	213669078833.3972	6.990053411601469e+20	-2.764523598962565e+23	1655.3954219293241	-0.6355322473186896	24.060236287417197	2.0938023450586267	27.671512117942683	116.51277912951984	116.28287506769087	42.0835987434869	0.005093001065039921	2.3171056202678507e+22	-0.27000774428724433	0.02270276796430057	1.3079572019121089e+23	-0.053267598897553635	-0.30068434946252875	0.0	3.066238	41.562939	7.920910000000001	-43.586868	9.338812	-40.805054	0.0		True	0.0	None	0.0	None	0.0	None	0.0	None	0.0	None	0.0	None	0.0	None	0.0	None	9.3634e-07	12
2014-01-12 05:48:00	47.83954719361128	311478968.8642	2.418452864680369e+21	1085869858810.5724	6.088774085207549	146266589957.32962	6.515730582736787e+20	-2.7247877437289133e+23	1737.6564211524978	-0.6587058395279722	22.909872264919052	1.5267175572519085	26.18989589624897	121.37912348011915	121.5695081974495	43.49394026518939	0.005809898936266746	2.2711591977626697e+22	-0.05137422188235019	0.02357011786402948	1.221964641060402e+23	-0.054904306932054885	-0.2954047509262687	0.0	3.070496	41.453995	7.918672999999999	-43.46674	9.334415	-40.686104	0.0		True	0.0	None	0.0	None	0.0	None	0.0	None	0.0	None	0.0	None	0.0	None	0.0	None	8.930500000000002e-07	12
2014-01-12 06:00:00	43.51903157250419	308863104.97380006	2.4215524491226325e+21	972973156568.3156	6.75269475728012	189940894076.3408	6.326051183792457e+20	-2.7113912756375024e+23	1807.1336166449728	-0.6610186491381631	23.127594690747962	1.7839444995044598	26.444204765527296	123.30646350601593	122.84707556792972	43.15368567898311	0.006692462593934706	2.31461122460346e+22	0.14883585178506045	0.02632489046337116	1.2162927701874204e+23	-0.056428638637102436	-0.2965238588505704	0.0	3.074759	41.345058	6.081246	-43.345051	9.329701	-34.564423	66560.0		False	0.0	None	0.0	None	0.0	None	0.0	None	0.0	None	0.0	None	0.0	None	0.0	None	8.1015e-07	12
2014-01-12 06:12:00	47.44090218842	310186325.5806	2.440772413574732e+21	1060162900065.6093	9.138577648750527	437101002976.803	6.350132066443208e+20	-2.703800870613691e+23	1825.0946215801184	-0.656356249927264	23.343955053035632	1.4895729890764648	26.69196627888053	120.56353023315872	121.32298331668457	41.68856769707834	0.009075052282771131	1.9931826932935607e+22	-0.4610069751963131	0.0355739592276416	1.2142460187879005e+23	-0.0483851430114064	-0.2947620780963221	0.0	3.079025	41.236126	7.929857000000001	-43.220913	9.322699	-40.45475	66560.0		False	0.0	None	0.0	None	0.0	None	0.0	None	0.0	None	0.0	None	0.0	None	0.0	None	8.7365e-07	12
2014-01-12 06:24:00	49.77092154290003	318091338.5261	2.4865809440268e+21	1103096969471.7217	6.332763860037442	321491904172.4044	6.462663594984508e+20	-2.7674593784466687e+23	1837.4518584194545	-0.6551141250977557	22.985563646758084	2.4533856722276743	26.612329434105536	122.86614145593063	123.70750656032062	42.054890163882106	0.006214684847926832	2.2011585404415246e+22	-0.5918967853510879	0.0240571126073836	1.2280951811055679e+23	-0.05210591572376322	-0.2907151976186624	0.0	3.083302	41.127201	7.885049	-43.100395	9.318707	-40.339161	0.0		True	0.0	None	0.0	None	0.0	None	0.0	None	0.0	None	0.0	None	0.0	None	0.0	None	8.785299999999998e-07	12
2014-01-12 06:36:00	48.74445038403486	326706324.52290004	2.4546536772665585e+21	1070468912066.3828	6.045078540866061	332605675460.7598	6.506694344009954e+20	-2.864244873337468e+23	1828.2122551017526	-0.6601462294837902	22.932118021285692	2.3738872403560842	26.419310918593197	124.67216678221044	124.47919868196112	44.90329126681913	0.005985226278085207	1.667384038789298e+22	-0.32622630629677835	0.022313270112086232	1.2679020974028796e+23	-0.03842958039497628	-0.29222389354574024	0.0	3.087574	41.018272	7.816331	-43.041634	9.312583	-40.252918	0.0		True	0.0	None	0.0	None	0.0	None	0.0	None	0.0	None	0.0	None	0.0	None	0.0	None	8.580899999999998e-07	12
2014-01-12 06:48:00	49.1365003464496	327218320.4168	2.331901232371144e+21	1117490795129.1084	4.046579375117156	442731179273.5213	6.514655420152541e+20	-2.833555701915149e+23	1704.74907689187	-0.6520511722253971	22.198856675888845	1.0679611650485437	27.114190880333553	124.0425066120978	123.8768835287853	45.497723357156495	0.0039287178399195705	2.1889992098528818e+22	-0.8444891168115629	0.014971211742105743	1.266608063266701e+23	-0.05037273485819695	-0.2914688678415554	0.0	3.091797	40.909348	7.808059	-42.961418	9.328557	-40.132729	0.0		True	0.0	None	0.0	None	0.0	None	0.0	None	0.0	None	0.0	None	0.0	None	0.0	None	1.0367e-06	12
2014-01-12 07:00:00	50.49860046903475	329628860.1412	2.4522298494939253e+21	1114158507009.578	3.7308684121803255	240888650966.8989	6.654315852156915e+20	-2.8852135910983864e+23	1738.6978809456675	-0.6590831484771614	22.504175602764665	1.4124293785310735	26.852290305371103	129.22072199423215	129.23934307693054	45.215594849493826	0.0035130587685313795	2.7452098609741044e+22	-0.4456361233642686	0.013644151925739121	1.234172490428644e+23	-0.06271014263843684	-0.2819279284089135	0.0	3.096066	40.800415	7.8019440000000015	-42.87905900000001	9.326328	-40.018501	0.0		True	0.0	None	0.0	None	0.0	None	0.0	None	0.0	None	0.0	None	0.0	None	0.0	None	8.616200000000002e-07	12
2014-01-12 07:12:00	50.55788594601404	329599498.7126	2.5281737801434897e+21	1151828827062.214	4.301009691647134	238133871192.2961	6.748957010057387e+20	-2.8938493689885924e+23	1748.1012789880276	-0.6611148711448874	22.715875520151144	2.1120293847566574	26.282054792162533	127.60860317330703	127.02704617006546	43.26079926339015	0.0039495038490790935	2.8639284221908607e+22	-0.2777822981899929	0.015711375489873274	1.2853453458078013e+23	-0.0654279275934336	-0.2936437990783877	0.0	3.100282	40.69148300000001	7.796424000000001	-42.793209	9.34919	-39.905178	0.0		True	0.0	None	0.0	None	0.0	None	0.0	None	0.0	None	0.0	None	0.0	None	0.0	None	7.8104e-07	12
2014-01-12 07:24:00	48.9118420552621	342768441.3094	2.61465447379655e+21	1136339537794.1687	7.162973475227853	390426531995.8622	7.12386734064868e+20	-3.009942037438868e+23	1664.2440257525268	-0.6612181239468866	23.101013349881715	2.53592561284869	26.98831961445971	123.61384378519459	123.64531022161181	40.74904052430182	0.006060045241309522	3.2368003887275608e+22	-0.05365088777931521	0.02517321953121745	1.331924003512994e+23	-0.07110539186482455	-0.2925944353373865	0.0	3.104538	40.582539	7.763392999999999	-42.678635	9.344463	-39.79126	0.0		True	0.0	None	0.0	None	0.0	None	0.0	None	0.0	None	0.0	None	0.0	None	0.0	None	7.588600000000002e-07	12
2014-01-12 07:36:00	50.352861790590886	337355452.1225	2.535232202689894e+21	1172243889921.5757	5.57051004187129	233609342072.67145	6.953833804124434e+20	-2.9359485639709706e+23	1635.8159060334256	-0.6553121943380488	22.888249316207446	1.8851756640959727	27.52297805659347	122.68696494694169	121.63402298335804	41.80309566303636	0.0047733590761536325	3.0860291687501886e+22	0.10856055650846408	0.019950661926944595	1.3343617353206858e+23	-0.06888106185449189	-0.2978333910697119	0.0	3.108788	40.473587	7.7572899999999985	-42.587654	9.340189	-39.705284000000006	0.0		True	0.0	None	0.0	None	0.0	None	0.0	None	0.0	None	0.0	None	0.0	None	0.0	None	1.0029e-06	12
