Timestamp	TOTUSJH	TOTBSQ	TOTPOT	TOTUSJZ	ABSNJZH	SAVNCPP	USFLUX	TOTFZ	MEANPOT	EPSZ	MEANSHR	SHRGT45	MEANGAM	MEANGBT	MEANGBZ	MEANGBH	MEANJZH	TOTFY	MEANJZD	MEANALP	TOTFX	EPSY	EPSX	R_VALUE	CRVAL1	CRLN_OBS	LAT_MIN	LON_MIN	LAT_MAX	LON_MAX	QUALITY	NOAA_AR	IS_TMFI	BFLARE	BFLARE_label	CFLARE	CFLARE_label	MFLARE	MFLARE_label	XFLARE	XFLARE_label	BFLARE_loc	BFLARE_label_loc	CFLARE_loc	CFLARE_label_loc	MFLARE_loc	MFLARE_label_loc	XFLARE_loc	XFLARE_label_loc	XR_MAX	XR_QUAL
2014-01-21 10:12:00	411.43278518564836	3269916163.2437	3.7491644503081318e+22	8937816151187.373	10.559588755856236	1870129823726.29	4.164080961969511e+21	-1.4182402568579456e+24	3578.4911491898383	-0.3265882861987953	35.87945782695017	25.681328431993915	48.95354466552652	120.35837720931984	118.1080176859886	72.52318050011792	0.001338520567354067	6.243267725960482e+23	0.2987022333490383	0.0048686014533522405	1.593088332200068e+23	-0.14376817306109746	-0.03668517979662949	3.04244094105288	280.129852	280.545807	8.150705	-9.75312	14.396531	4.235357	0.0	11957.0	True	0.0	None	0.0	None	0.0	None	0.0	None	0.0	None	0.0	None	0.0	None	0.0	None	6.1784e-07	12
2014-01-21 10:24:00	404.6452406484368	3277054418.8371	3.7379144411027794e+22	8958749314817.562	0.8845220420736917	1093966940122.1927	4.240081909823581e+21	-1.461093915932084e+24	3473.9587298845736	-0.335723711925148	35.889075172572056	25.54924709948161	48.69842199988044	119.30609819809044	116.35189034781578	71.09337693308477	0.000109173295738545	6.465013942666666e+23	0.2649601290170235	0.0004041460760837362	1.6412557138441734e+23	-0.148550237244351	-0.03771204947620472	2.9743308105673743	280.133301	280.436462	8.149384	-9.63284	14.394282999999998	4.35568	0.0	11957.0	True	0.0	None	0.0	None	0.0	None	0.0	None	0.0	None	0.0	None	0.0	None	0.0	None	6.3349e-07	12
2014-01-21 10:36:00	422.1365593916477	3353411593.8844004	3.908252393841896e+22	9492877408099.996	0.4736624957207205	1062287959582.6006	4.351943009888889e+21	-1.471316178817906e+24	3487.2181394754016	-0.3303745985884461	36.143346429327785	25.903543073823915	48.94113015858595	117.7217109458486	114.85204567343901	69.9287607458453	5.6127798995226975e-05	6.479312408233362e+23	0.2470164806735625	0.00021234311742670533	1.610115257545016e+23	-0.1454887988602864	-0.03615410402949165	2.056145680728843	280.136658	280.32711800000004	8.119252000000001	-9.512177	14.393453	4.44995	0.0	11957.0	True	0.0	None	0.0	None	0.0	None	0.0	None	0.0	None	0.0	None	0.0	None	0.0	None	6.244399999999999e-07	12
2014-01-21 10:48:00	413.594370461142	3331471770.2135	3.879301777650881e+22	9324004702024.676	5.914307703861637	2350258890046.937	4.341956885884927e+21	-1.479643367793732e+24	3484.9250681919566	-0.33443248032490425	36.333166474635284	26.556907659269857	48.25903579501834	117.76135419852874	115.09396873956871	69.40461373504591	0.0007056804323901253	6.517884614255208e+23	0.5502363587021263	0.002661255138567232	1.576159175914722e+23	-0.1473187637955724	-0.03562472106869875	2.7269514952069884	280.140076	280.217712	8.148842	-9.415153	14.391721	4.57033	0.0	11957.0	True	0.0	None	0.0	None	0.0	None	0.0	None	0.0	None	0.0	None	0.0	None	0.0	None	5.7659e-07	12
2014-01-21 11:00:00	418.07039990880963	3393203214.2863	3.972357052609482e+22	9488034262634.396	11.143570868292713	2097712962757.0627	4.409051553471913e+21	-1.5041139246938268e+24	3520.636783035389	-0.3337784627421785	36.43931508317885	27.436440677966104	48.47314851869847	117.09879377913721	114.66490269773544	69.19542126081835	0.0013116255730099716	6.557872968251688e+23	0.20075944853756386	0.004924484841330288	1.5047572365498938e+23	-0.1455259952232074	-0.03339212203078499	2.2108645501150437	280.143341	280.108276	8.119125	-9.296697	14.391064000000002	4.690008	0.0	11957.0	True	0.0	None	0.0	None	0.0	None	0.0	None	0.0	None	0.0	None	0.0	None	0.0	None	5.7695e-07	12
2014-01-21 11:12:00	416.31416188770913	3472882466.0885	4.065565485979173e+22	9604113279958.516	5.234484758972855	940222767773.5608	4.481683002382558e+21	-1.5202432257047172e+24	3463.813013614162	-0.3296176563863964	36.8810830583269	28.08327675944784	49.16423912293696	113.60975294266571	112.16781661975985	67.59319086484888	0.0005923373043988747	6.513905657234551e+23	0.12497454980618684	0.002267185608365673	1.3032337284180535e+23	-0.14123386839395008	-0.028256586842262375	2.35974253163304	280.146667	279.99881	8.119088	-9.19987	14.389882	4.783055	0.0	11957.0	True	0.0	None	0.0	None	0.0	None	0.0	None	0.0	None	0.0	None	0.0	None	0.0	None	6.4715e-07	12
2014-01-21 11:24:00	426.70581857627883	3536743559.9628	4.155936841086684e+22	9847672963683.98	3.4960713387917184	1161111944200.1917	4.553459432491442e+21	-1.5392945485524098e+24	3464.370657231351	-0.32772198962624005	37.05418117504964	27.90877892173143	49.36544850221152	113.9941593054065	112.79768494053785	68.0505147969437	0.0003870332490636244	6.607910808628874e+23	0.16287864646588546	0.0014890166781360314	1.3137706452673649e+23	-0.14068507417980106	-0.027970704514251103	2.0282757905761493	280.149902	279.889313	8.119425	-9.084503	14.389953	4.903937	0.0	11957.0	True	0.0	None	0.0	None	0.0	None	0.0	None	0.0	None	0.0	None	0.0	None	0.0	None	6.6081e-07	12
2014-01-21 11:36:00	445.9762413862278	3603271172.8348	4.374285497809203e+22	10817913971910.36	21.462131238745087	2134765663063.4688	4.6166086374639073e+21	-1.5119146124307015e+24	3450.429590944553	-0.3159495870450255	38.0901753004699	29.792583280955377	50.81418384792818	111.68952545101801	109.70798908152905	66.72996580505435	0.0022485208212409727	6.342870359478414e+23	0.3737509749980356	0.009052460584316038	1.1343136352563406e+23	-0.13254897163375304	-0.02370411144202161	2.0240929807077648	280.153107	279.779755	8.119100999999999	-8.991724000000003	14.38873	5.022995	0.0	11957.0	True	0.0	None	0.0	None	0.0	None	0.0	None	0.0	None	0.0	None	0.0	None	0.0	None	6.04e-07	12
2014-01-21 11:48:00	445.5077272176178	3604938680.1218	4.294826646060303e+22	11081716339615.22	16.98656810199729	2678191073383.9053	4.702399122328136e+21	-1.552125078517464e+24	3276.543812798201	-0.3242024762406533	38.0781983658467	29.72644376899696	49.63783430162496	109.59928627312333	107.72578810283476	65.18462024315035	0.0017210302028366044	6.284847627185758e+23	0.27493833602438256	0.0071167770843545905	1.120971979472788e+23	-0.13127570656064824	-0.0234144719759694	2.7677719336526585	280.156281	279.670166	8.149132	-8.898524	14.415147	5.1170849999999986	0.0	11957.0	True	0.0	None	0.0	None	0.0	None	0.0	None	0.0	None	0.0	None	0.0	None	0.0	None	5.6637e-07	12
2014-01-21 12:00:00	458.99160537533896	3682618111.7101	4.5150580037501365e+22	11152788912821.71	29.223615608707803	3473874123497.0254	4.710691392762368e+21	-1.526777185275599e+24	3457.169600502622	-0.3121810466904588	38.82199159235845	31.05552165954851	50.89619408636504	110.88817987089406	108.80561549680726	65.91949767017739	0.002971691642130141	6.492977591703328e+23	0.046920814100743065	0.012095212342887287	1.1400745148133073e+23	-0.1327623022052002	-0.02331117197531937	2.868294902595213	280.159393	279.56054700000004	8.148492999999998	-8.775345	14.445114000000002	5.238563	0.0	11957.0	True	0.0	None	0.0	None	0.0	None	0.0	None	0.0	None	0.0	None	0.0	None	0.0	None	5.481e-07	12
2014-01-21 12:12:00	473.91146614186175	3778157324.024601	4.697553592669219e+22	11750722980733.613	29.37155072970833	2546605744012.956	4.820540016657125e+21	-1.540124382734088e+24	3503.91002624697	-0.3069469228398518	38.80237184993476	31.441307578008914	50.987454021266224	111.14504367710177	108.7830109291908	66.27064410578352	0.002909514683477794	6.645115669465477e+23	-0.12206984831092972	0.011896491085884522	1.1542091311165362e+23	-0.1324372128331843	-0.023003397977567674	2.599626793697744	280.162506	279.450897	8.148463000000001	-8.682	14.444283	5.3577010000000005	0.0	11957.0	True	0.0	None	0.0	None	0.0	None	0.0	None	0.0	None	0.0	None	0.0	None	0.0	None	5.4203e-07	12
2014-01-21 12:24:00	478.12926602007315	3844006597.2048	4.749409712150582e+22	11860069393254.268	29.97180912598316	2823349095479.1006	4.898346201050554e+21	-1.5842265080158936e+24	3510.9403189117743	-0.31032776559427033	38.51570847190928	31.533477321814257	50.84665672947136	113.34412560005268	111.19313173892955	67.32522457693153	0.0029424513180819904	6.704822494638184e+23	0.04694256403233342	0.011900874783432104	1.0026855082867613e+23	-0.1313380740026347	-0.01964120356564973	2.8115870079754828	280.165527	279.341187	8.148137	-8.561344	14.443646	5.47668	0.0	11957.0	True	0.0	None	0.0	None	0.0	None	0.0	None	0.0	None	0.0	None	0.0	None	0.0	None	5.717899999999999e-07	12
2014-01-21 12:36:00	483.9030376417107	3854103231.1354	4.683677747739906e+22	11765556518267.645	11.367614867418178	1327164522085.625	4.920832449808749e+21	-1.6325254213233297e+24	3503.2763108962804	-0.3189510706031771	38.37939545627595	31.081752259858952	50.33298040032069	113.27475125473516	112.1725168015344	67.12835165331859	0.0011291958743834484	6.763105948953692e+23	0.1236153903971626	0.004472468797339773	8.92274584087752e+22	-0.13213269789532248	-0.017432618821708885	2.8220610687625682	280.16854900000004	279.231445	8.147478999999999	-8.467428	14.442177	5.5713019999999975	0.0	11957.0	True	0.0	None	0.0	None	0.0	None	0.0	None	0.0	None	0.0	None	0.0	None	0.0	None	6.3659e-07	12
2014-01-21 12:48:00	497.75811066726953	3932115156.4764	4.78278784089853e+22	12011516738863.18	15.591757756039035	1867594184749.6943	5.006442214873922e+21	-1.6512815338781775e+24	3484.304786289198	-0.3162149639239496	38.56700265699129	30.998452012383904	50.59779650147674	113.68927101005232	112.751006920205	66.57532341190496	0.0015087824420397752	7.068081281052158e+23	0.3546456649373309	0.006025207697240736	8.37611945692571e+22	-0.13535142381507062	-0.01603999231841382	2.9369629101169594	280.171478	279.121643	8.146129	-8.344833	14.471449	5.692007	0.0	11957.0	True	0.0	None	0.0	None	0.0	None	0.0	None	0.0	None	0.0	None	0.0	None	0.0	None	6.6422e-07	12
2014-01-21 13:00:00	526.0658049617302	4037962588.131001	4.8362440228465524e+22	12665668263439.582	26.13670454982017	3023155773957.3857	5.143726002630932e+21	-1.7494651066076474e+24	3469.209314674317	-0.3262349523974993	38.140392423975634	30.094312660760217	49.830715864772436	116.27093891232559	114.87611825283236	67.80550290665968	0.002489921363229511	7.43797988124745e+23	0.4372681907774957	0.009761084311631842	9.247769105778963e+22	-0.1387011952011751	-0.01724495963144394	2.867901099082005	280.174408	279.01181	8.117177	-8.224048	14.472226999999998	5.786192	0.0	11957.0	True	0.0	None	0.0	None	0.0	None	0.0	None	0.0	None	0.0	None	0.0	None	0.0	None	6.332100000000001e-07	12
2014-01-21 13:12:00	533.4433098366416	4178668366.878901	5.027197019307084e+22	12869535300986.62	10.560933168464457	2190954776457.569	5.300858258618276e+21	-1.796707334409755e+24	3512.8199359403247	-0.3237628399313239	38.26744983713384	29.53786191536749	50.0813639348829	116.71759559298677	115.23329498934687	68.14572497947479	0.0009800420534952167	7.570671293703728e+23	0.0949614102937948	0.0038184244211675188	9.076905477163326e+22	-0.13642188637479413	-0.016356390597359112	2.877561519242292	280.177307	278.901947	8.116663	-8.128686	14.534122	5.907294	0.0	11957.0	True	0.0	None	0.0	None	0.0	None	0.0	None	0.0	None	0.0	None	0.0	None	0.0	None	6.8459e-07	12
2014-01-21 13:24:00	531.7291682515513	4221568369.8888	5.085864633407001e+22	13111093472483.244	22.165077795643715	3074217650482.4365	5.357456780844946e+21	-1.8092146930442751e+24	3499.25993013987	-0.3227035702269308	38.40920648697117	30.83881578947368	50.34620939739669	117.08208822741189	115.84587473709117	68.18694813844758	0.002025502859877886	7.692667852581989e+23	0.3683301407673507	0.007938946999191815	1.0947235154684975e+23	-0.1372115421205787	-0.01952621699410528	2.6107793662154286	280.18014500000004	278.79205299999995	8.114799	-8.007791000000001	14.562928	6.025875	0.0	11957.0	True	0.0	None	0.0	None	0.0	None	0.0	None	0.0	None	0.0	None	0.0	None	0.0	None	6.8134e-07	12
2014-01-21 13:36:00	535.3535533504796	4300105911.7572	5.15427439580623e+22	13216294797699.48	20.113772268411704	2667762311743.373	5.440419107904808e+21	-1.844163320084984e+24	3502.483051807521	-0.3229294772269338	38.34811152212626	30.80949372800289	50.26122662532625	116.36505022587605	115.73944026547927	67.74215321866569	0.0018151585839194754	7.553074496452967e+23	0.2224462983562128	0.007071437031695448	8.507918861228873e+22	-0.13226108403908846	-0.014898126213784585	2.7532263225233002	280.182953	278.682098	8.114133	-7.913178	14.561729	6.120184	0.0	11957.0	True	0.0	None	0.0	None	0.0	None	0.0	None	0.0	None	0.0	None	0.0	None	0.0	None	9.1692e-07	12
2014-01-21 13:48:00	560.1966718762641	4412510392.1602	5.3967719302516384e+22	13622223880024.2	15.507314518265321	2416086442572.622	5.520384917226717e+21	-1.8359853237751407e+24	3627.331866295364	-0.31330766955057365	38.094945603984534	30.777470320449876	50.597440178495205	117.18204621245951	116.1917200406798	69.59661519835282	0.0013842108826444093	7.867147851073787e+23	0.10920367659006323	0.005351978612549857	7.3455593443407665e+22	-0.13425149576694592	-0.01253506795462112	2.7599887067809994	280.18573	278.572144	8.084475999999999	-7.790260000000001	14.561822	6.243291	0.0	11957.0	True	0.0	None	0.0	None	0.0	None	0.0	None	0.0	None	0.0	None	0.0	None	0.0	None	5.6953e-07	12
2014-01-21 14:00:00	570.9716466604089	4476070646.0158	5.505822543683464e+22	13739533262634.03	8.125817329267045	1634973005879.4312	5.523950276399606e+21	-1.827221712679579e+24	3721.889722946066	-0.3073843910354455	38.37904280367851	30.083490438998126	50.93389188330054	119.13437015109596	117.11180502812073	71.3924313055866	0.0007294925333752621	8.172946587791457e+23	0.10330307988447776	0.002777133918378661	7.337817552080145e+22	-0.13748940221213565	-0.012344044316700215	2.8598008338697545	280.188446	278.462097	8.084563000000001	-7.671031	14.592686	6.361707	0.0	11957.0	True	0.0	None	0.0	None	0.0	None	0.0	None	0.0	None	0.0	None	0.0	None	0.0	None	5.1743e-07	12
2014-01-21 14:12:00	575.1816707720493	4600331680.020201	5.738646528412156e+22	13751904432120.395	24.57609282873498	2961610280821.084	5.638484431425407e+21	-1.833210417525996e+24	3815.563772508719	-0.3000617401656001	38.31638173410767	30.10154525386313	50.949013234984754	117.93980700369015	116.0526684282842	70.74073567495971	0.0021704577257559816	8.50542105208696e+23	0.07690367273710279	0.008218446111815832	4.136613162573417e+22	-0.13921759429965444	-0.006770850373132928	2.758397139572358	280.191162	278.352051	8.083233	-7.576805999999999	14.621925	6.479961	0.0	11957.0	True	0.0	None	0.0	None	0.0	None	0.0	None	0.0	None	0.0	None	0.0	None	0.0	None	5.2747e-07	12
2014-01-21 14:24:00	587.5038187788522	4632314814.0858	5.681839033245628e+22	13909573199209.467	27.10004927634273	2934615486598.6084	5.711858731707726e+21	-1.906215800758778e+24	3728.4102641453087	-0.3098571069632001	38.193243252895634	29.99564270152505	50.711203020794834	118.23312792273654	116.52321523979488	70.35203897414483	0.002361660067655141	8.62788264913114e+23	0.2326425234480416	0.008932604155599558	9.519321159651243e+21	-0.1402470148350256	-0.0015473742865886409	2.765131450837846	280.193817	278.241974	8.051655	-7.455936	14.620065	6.575425	0.0	11957.0	True	0.0	None	0.0	None	0.0	None	0.0	None	0.0	None	0.0	None	0.0	None	0.0	None	9.2698e-07	12
2014-01-21 14:36:00	589.9037682889109	4680366558.7616005	5.553269190134753e+22	13647077470228.018	23.661017352661162	2700978133176.7627	5.777254702648131e+21	-2.0178223309485927e+24	3745.892905949372	-0.32463146518541564	37.38178119786285	29.015497626086177	49.95136673187307	120.66492265246366	118.98228686432805	71.82418050413759	0.002119782955801932	8.873985493063202e+23	0.08883177872225005	0.00763288070906767	8.353376667856811e+21	-0.14276652946411575	-0.0013439086610054507	2.623362539743248	280.196442	278.131836	8.051459	-7.334386999999999	14.619192000000002	6.6962470000000005	0.0	11957.0	True	0.0	None	0.0	None	0.0	None	0.0	None	0.0	None	0.0	None	0.0	None	0.0	None	5.629600000000001e-07	12
2014-01-21 14:48:00	599.1665206434268	4752872609.651701	5.691140415832103e+22	13582377006738.012	23.72605595185811	2038500812462.9849	5.863664461264351e+21	-2.0438930985295235e+24	3778.972046019693	-0.3238093881424023	37.759501292956465	30.45855379188713	50.002511672413036	120.0753292870856	118.66563690811218	71.29992971397904	0.0020922447929328136	9.097372305516848e+23	0.04639148177737827	0.00754178096494929	-4.345312050064357e+21	-0.14412762399718504	0.000688418018159291	2.9759809213802217	280.199036	278.021698	8.051252	-7.213603	14.618148	6.814314	0.0	11957.0	True	0.0	None	0.0	None	0.0	None	0.0	None	0.0	None	0.0	None	0.0	None	0.0	None	5.453800000000001e-07	12
2014-01-21 15:00:00	619.863856785302	4826940482.0383	5.800133266153425e+22	13844593356014.547	34.907582644340266	1873325058890.96	5.912708847590864e+21	-2.0376156455476992e+24	3787.8796232898108	-0.3178614255614362	37.62533853109971	30.277536860364272	50.077322883302315	120.60673903299671	118.94550781765574	71.88592774524999	0.0030275440281301185	8.88950369987294e+23	0.15414071115620165	0.010975089753423569	1.5647391123820442e+22	-0.1386733717298172	-0.0024409422158701713	3.0424733968332327	280.20159900000004	277.91149900000005	8.049228	-7.1171880000000005	14.646565	6.936189	0.0	11957.0	True	0.0	None	0.0	None	0.0	None	0.0	None	0.0	None	0.0	None	0.0	None	0.0	None	5.3073e-07	12
2014-01-21 15:12:00	637.855300374173	4923964730.8959	6.032078324911321e+22	14377147898039.402	33.31013393571228	2400724988997.3228	5.959915505982951e+21	-2.0304630270888976e+24	3846.284232689763	-0.3105043418165831	39.0075980178766	32.3566771106783	51.30252821194855	119.41699696553951	117.72058402985748	71.99999914496425	0.0028209801774824084	8.914774597018235e+23	0.07899053931709388	0.01032411840982705	1.6799209428131202e+22	-0.13632733922069834	-0.0025689842153882466	3.048757253610632	280.204132	277.80127000000005	8.018473	-6.995394	14.645368	7.034408999999999	0.0	11957.0	True	0.0	None	0.0	None	0.0	None	0.0	None	0.0	None	0.0	None	0.0	None	0.0	None	5.157100000000001e-07	12
2014-01-21 15:24:00	621.2064653361953	4917427516.0303	6.064725101009204e+22	13791269201025.832	22.25921149370768	1399369978236.04	5.878827811768474e+21	-1.992861689872243e+24	4009.006791992314	-0.30515937391302744	38.38523383188581	31.340531998946535	50.79796140236899	119.91372290683842	118.46636149874537	73.09796011970441	0.00195410512630214	8.956842246011105e+23	0.1662823755424125	0.006936465932062475	2.010201072838184e+22	-0.13715273799084998	-0.003078144880520641	3.1962329374050342	280.206604	277.69101	7.988596	-6.874791	14.645123000000002	7.155369	0.0	11957.0	True	0.0	None	0.0	None	0.0	None	0.0	None	0.0	None	0.0	None	0.0	None	0.0	None	5.104600000000001e-07	12
2014-01-21 15:36:00	620.5739540848288	4994737274.764601	6.166235782706112e+22	13755247079513.02	16.6617393313579	1081360440728.1729	5.974547550597927e+21	-2.020656038228868e+24	4056.87715420305	-0.3046262125218005	38.08418693088826	31.38488422892093	50.23928089204927	119.78244796195835	118.41584702844528	72.39997932695611	0.0014560639108064232	9.192281994219752e+23	0.041529690913203535	0.005113895235941204	1.206640576846287e+22	-0.13857925324024606	-0.001819084207532861	3.290669116008484	280.209076	277.580719	7.9870100000000015	-6.780067	14.642828	7.276741	0.0	11957.0	True	0.0	None	0.0	None	0.0	None	0.0	None	0.0	None	0.0	None	0.0	None	0.0	None	5.012399999999999e-07	12
2014-01-21 15:48:00	614.7928331556609	5057458298.0009	6.33761868123224e+22	13793277573364.48	12.53716189526634	1274604891209.9514	5.985762529944507e+21	-1.9711125660577447e+24	4121.379556381738	-0.2934720038163004	38.38415694749008	30.98713187667329	50.96380580458857	118.73258623422636	117.6119125259018	72.38043674687749	0.0010827499693640502	9.121575703170944e+23	0.21612879825311349	0.0038330094157551673	2.549959550648414e+22	-0.1358079262274478	-0.0037965449151186608	3.5143750327742103	280.211517	277.470428	7.986547	-6.656356	14.641489000000002	7.401586999999999	0.0	11957.0	True	0.0	None	0.0	None	0.0	None	0.0	None	0.0	None	0.0	None	0.0	None	0.0	None	5.082e-07	12
2014-01-21 16:00:00	623.4388745371375	5137631733.809	6.548960566444855e+22	14232587665914.324	19.754032539967984	1554982720162.3083	6.0269317208377e+21	-1.956188135428206e+24	4197.550462549466	-0.28670491497056777	38.64685212807851	31.281920326864142	51.5555793054556	118.85226123754776	117.95343225586844	72.61596672061366	0.0016817667750696394	9.049281231469944e+23	0.2598831116264573	0.005977148105391243	3.866191840362681e+22	-0.13262903291484382	-0.005666408985802619	3.35794208387945	280.21392799999995	277.360077	7.987489	-6.53526	14.642119	7.523972	0.0	11957.0	True	0.0	None	0.0	None	0.0	None	0.0	None	0.0	None	0.0	None	0.0	None	0.0	None	5.1173e-07	12
2014-01-21 16:12:00	625.5047906724839	5171667524.4816	6.498827885992786e+22	13950970579441.055	14.054353048048176	1542261442132.531	6.030123843550382e+21	-1.9957091510675512e+24	4229.501405489361	-0.2905722583204597	38.089025699408396	30.285220397579952	50.87386092993821	120.28571499661231	119.00939465618157	74.1668601286592	0.0012148286842465364	8.931456470922507e+23	0.16482749202925304	0.00421141395511383	2.8576607637911374e+22	-0.13004066626936026	-0.004160711199847851	3.5336708021280194	280.216339	277.249725	7.9866100000000015	-6.416043	14.640552	7.643628	0.0	11957.0	True	0.0	None	0.0	None	0.0	None	0.0	None	0.0	None	0.0	None	0.0	None	0.0	None	4.903800000000001e-07	12
2014-01-21 16:24:00	636.9868822552287	5249773410.976299	6.628938873642522e+22	13889557119249.807	35.91238655416686	3110985444677.8267	6.032509351961786e+21	-1.9931355396174048e+24	4304.5064749586345	-0.28588003852882393	38.54665938335835	31.41600551914453	52.031465653367995	119.94022381461193	119.10815981812964	73.96557772220338	0.003096963310983689	8.946645855084821e+23	-0.02641090134477983	0.01063979472776169	1.6089331425533586e+22	-0.12832380994251666	-0.0023077300045121303	3.2116489331918303	280.21868900000004	277.139343	7.985339999999999	-6.318924	14.638695000000002	7.7662270000000015	0.0	11957.0	True	0.0	None	0.0	None	0.0	None	0.0	None	0.0	None	0.0	None	0.0	None	0.0	None	4.8315e-07	12
2014-01-21 16:36:00	639.1520845558376	5329096479.677	6.730275253157497e+22	13750123896528.912	39.290461366270684	2230006902810.1245	6.111826692459729e+21	-2.0314453149072945e+24	4353.414434993634	-0.28703775783299634	38.767681873093174	31.23443003178421	51.76267536815009	121.29538015650243	120.50363750017729	75.06906133108444	0.0033751792256911514	9.181227559832268e+23	-0.029551457969285343	0.011457035355074946	1.407792137107273e+22	-0.12972827541011273	-0.001989172416135821	3.3413687479115897	280.221039	277.028931	7.984583	-6.198225	14.637264000000002	7.860319	0.0	11957.0	True	0.0	None	0.0	None	0.0	None	0.0	None	0.0	None	0.0	None	0.0	None	0.0	None	5.0088e-07	12
2014-01-21 16:48:00	656.8143761151433	5383771912.5751	6.7664634569213386e+22	14265744787861.707	23.260869100284648	859895221048.6859	6.10355707582854e+21	-2.0389168841367303e+24	4480.354530587076	-0.2851677186391733	38.1921181249283	30.179387970453742	51.271314302429644	124.6852086033608	123.40551636736568	77.26345284305955	0.0020454510288678025	8.910754151775558e+23	0.14847572186064226	0.006723717721045083	-2.186504283755745e+22	-0.12462790673746628	0.003058096400321888	3.3090553209739797	280.223358	276.918518	7.982467	-6.078755	14.634541	7.980952999999999	0.0	11957.0	True	0.0	None	0.0	None	0.0	None	0.0	None	0.0	None	0.0	None	0.0	None	0.0	None	5.9513e-07	12
2014-01-21 17:00:00	667.4500654652363	5493000816.2136	7.036592812728036e+22	14307594127635.627	17.553465954198586	951094749033.0486	6.10825817864125e+21	-2.01624612449108e+24	4678.554853627223	-0.27638940953948754	38.467080874932755	31.30242825607064	51.801653234622144	123.50207643537158	122.77521861813804	77.83275807900081	0.0015499749186930318	8.955384957231735e+23	0.0960787665698627	0.005007258601637072	-3.4353142872463093e+22	-0.1227614788920101	0.004709169559714502	3.342193333063883	280.225677	276.808075	7.981791	-5.958926	14.633154	8.101239	0.0	11957.0	True	0.0	None	0.0	None	0.0	None	0.0	None	0.0	None	0.0	None	0.0	None	0.0	None	7.9794e-07	12
2014-01-21 17:12:00	678.1325801545818	5578759692.3774	7.1761857352043376e+22	14475876720009.17	17.077097811796992	422497149552.32623	6.08115472995804e+21	-2.011605852284384e+24	4807.878854149849	-0.27151432806654946	38.72629427403935	31.65762078476732	52.316989150966364	124.4793562888947	123.87761498599	79.26937422455687	0.0015195851407543153	8.588561728974995e+23	0.0331502977409518	0.004814876463645314	-7.50817259374351e+22	-0.11592318466625047	0.010134074895849698	3.3448773535504435	280.227997	276.697632	7.980911	-5.837833	14.631747	8.223007	0.0	11957.0	True	0.0	None	0.0	None	0.0	None	0.0	None	0.0	None	0.0	None	0.0	None	0.0	None	1.28e-06	12
2014-01-21 17:24:00	683.6196370136453	5653360638.7214	7.23011941733301e+22	14461784728151.625	19.363648201315865	211615774148.4468	6.10386241727458e+21	-2.0356262996639712e+24	4892.771057903513	-0.2711308120106535	38.50695749020026	31.410083580479913	52.2199139682516	125.96101799337757	125.27855301570706	80.01974981470163	0.0017402397952112755	8.560292166803637e+23	-0.015010440292399462	0.005389149637113497	-7.315603523989483e+22	-0.1140169473452488	0.00974385880225014	3.30781913837479	280.230286	276.587189	7.980109	-5.741326	14.630254	8.343985	0.0	11957.0	True	0.0	None	0.0	None	0.0	None	0.0	None	0.0	None	0.0	None	0.0	None	0.0	None	1.4336000000000001e-06	12
2014-01-21 17:36:00	675.3128389787986	5754837878.554501	7.335705188949974e+22	14532627994738.035	4.041579801422999	1139091515569.848	6.201705683909422e+21	-2.1091156564073568e+24	4951.318732508257	-0.275965519458527	38.34613363935349	31.69594836859089	51.885629690880464	126.47469442671556	125.88434029675514	80.82016124009613	0.0003622785766782895	8.844457420964458e+23	0.1161111617795893	0.001100801777163031	-7.537512652397863e+22	-0.1157245824376863	0.009862397010922593	3.221111512378206	280.232574	276.476715	7.950458999999999	-5.620815	14.630221	8.439867	0.0	11957.0	True	0.0	None	0.0	None	0.0	None	0.0	None	0.0	None	0.0	None	0.0	None	0.0	None	1.4457e-06	12
2014-01-21 17:48:00	690.1301030833812	5834526568.3599	7.331805258210702e+22	14550582101519.494	3.3885036707455027	903580842541.5222	6.228239693909065e+21	-2.1638476929710409e+24	5051.934821334608	-0.2792598954076431	37.704344529708	30.096998535871162	51.459896409638176	129.41659559169364	129.73044326267606	82.17871196199994	0.00031007537250599403	8.651969374493901e+23	0.10263664840857864	0.0009079742857293512	-1.1420597467095587e+23	-0.11165980260255004	0.01473909122399859	3.516857920129913	280.234833	276.366241	7.950100999999999	-5.49989	14.628657999999998	8.561387	0.0	11957.0	True	0.0	None	0.0	None	0.0	None	0.0	None	0.0	None	0.0	None	0.0	None	0.0	None	1.3722e-06	12
2014-01-21 18:00:00	705.7304529879782	5969370697.2089	7.614697098894785e+22	14790183355615.672	16.760502931122886	790266877699.7236	6.298488528350976e+21	-2.1552994485297e+24	5210.148703297074	-0.2718733268504041	38.037872325313685	31.31303952748751	51.68371283512806	129.4229153904079	130.17559997722125	82.4008052270335	0.0015231282198403205	8.512796487688065e+23	0.0058680875080880535	0.004415156586398111	-1.3383978738944243e+23	-0.10738193727498173	0.016882790132638527	3.7536393207961734	280.237091	276.255737	7.949057000000002	-5.3775559999999984	14.626767	8.682691	66560.0	11957.0	False	0.0	None	0.0	None	0.0	None	0.0	None	0.0	None	0.0	None	0.0	None	0.0	None	1.2092e-06	12
2014-01-21 18:12:00	734.6936265735269	6097761124.5024	7.84870842350416e+22	15376106501101.814	15.31575268451099	1451287118485.57	6.396436728727174e+21	-2.1601663720886825e+24	5215.29816845105	-0.26674992566714145	38.35710567874172	31.521355453582768	52.391768719254245	127.36553081227233	129.2831858356895	80.85996323136091	0.0013515489485096178	8.243346561849228e+23	-0.032667811889405214	0.003965583015625843	-1.26391682520235e+23	-0.1017936447411512	0.015607581134881915	3.8687805092883822	280.239349	276.145264	7.948326	-5.282735	14.625185	8.777595	66560.0	11957.0	False	0.0	None	0.0	None	0.0	None	0.0	None	0.0	None	0.0	None	0.0	None	0.0	None	1.1224e-06	12
2014-01-21 18:24:00	737.1667143769182	6125751307.225301	7.807057355424505e+22	15500019461751.707	5.96220485540289	582912364070.7546	6.406199950328048e+21	-2.249215499845488e+24	5259.092085504112	-0.2764771327362032	38.54557266475667	31.705135086777602	52.02277247832864	129.28372968697892	130.93498328248225	81.878864091265	0.0005333874445699491	8.421225150634142e+23	0.00011486748491999305	0.0015249811976739546	-1.433292187245318e+23	-0.1035150337499129	0.01761825464612036	3.8906928694434817	280.241608	276.03476	7.946203999999999	-5.162463	14.623409	8.897948	0.0	11957.0	True	0.0	None	0.0	None	0.0	None	0.0	None	0.0	None	0.0	None	0.0	None	0.0	None	9.6642e-07	12
2014-01-21 18:36:00	750.829246344856	6195608129.946501	7.842986761247556e+22	15715129443433.547	8.099468854844227	1361607145283.3672	6.44159851260566e+21	-2.299783453850264e+24	5284.241121095716	-0.2795056180376039	38.38567129563091	31.853972798854688	51.919416964478934	128.76399218895608	131.24551305816343	81.13120760545755	0.0007247846849972461	8.117704867315047e+23	-0.13016776373589992	0.0020434329748538877	-1.7200356907505994e+23	-0.09865903297056623	0.020904561165752483	3.8885551703152017	280.243866	275.924255	7.945415	-5.0419839999999985	14.622109	9.018223	0.0	11957.0	True	0.0	None	0.0	None	0.0	None	0.0	None	0.0	None	0.0	None	0.0	None	0.0	None	8.548299999999998e-07	12
2014-01-21 18:48:00	772.3646556000713	6221192168.6371	7.803311556165182e+22	16089601492396.875	4.740060060483066	794271383220.0825	6.533775936821658e+21	-2.3946147976200897e+24	5280.662454017399	-0.2898341759016769	37.99933108240688	31.266289206434802	50.92811816233175	130.27450671587246	133.31934095569514	80.79216950965855	0.0004259962308333843	8.391971332856703e+23	0.07493769375274859	0.0011814255086113107	-1.6925879203829328e+23	-0.10157291677418698	0.020486377413723403	3.8013361662359295	280.246124	275.813782	7.915392999999999	-4.920982	14.621864000000002	9.130538	0.0	11957.0	True	0.0	None	0.0	None	0.0	None	0.0	None	0.0	None	0.0	None	0.0	None	0.0	None	7.9765e-07	12
2014-01-21 19:00:00	764.1703696340317	6242773805.0365	7.731408383363407e+22	15749565743101.836	2.4387467080500485	353134047596.8881	6.55245812607306e+21	-2.505362955518646e+24	5248.039577130941	-0.3021903229954477	37.93363250711303	31.38916433787073	50.78082289520493	128.73474234822896	131.94031752170514	79.09825181924971	0.0002198455519742223	8.67452773345733e+23	0.06251515073238666	0.0005999908520257606	-1.900870468151569e+23	-0.10462988334014788	0.022927802116572627	3.6700227611111695	280.248383	275.70327799999995	7.914600999999997	-4.798661	14.620397	9.235872	66560.0	11957.0	False	0.0	None	0.0	None	0.0	None	0.0	None	0.0	None	0.0	None	0.0	None	0.0	None	7.6275e-07	12
2014-01-21 19:12:00	769.4922309722432	6221320140.527301	7.59226080806243e+22	15991545372712.57	12.238053153548552	1544126016544.1128	6.565589943436602e+21	-2.537684016588606e+24	5105.262847552782	-0.30714428990174786	37.68237129059567	30.889444543668514	50.63504339756778	129.5880924583063	132.0969560190701	78.69834398477741	0.001092878474151505	8.584603696200579e+23	0.27079349652259105	0.003009790385918372	-2.064130599303261e+23	-0.10390229788742428	0.024982855353273388	3.71454584338984	280.25064100000003	275.592804	7.914671	-4.70432	14.619107	9.358451	66560.0	11957.0	False	0.0	None	0.0	None	0.0	None	0.0	None	0.0	None	0.0	None	0.0	None	0.0	None	7.5967e-07	12
2014-01-21 19:24:00	795.4443402828331	6368262732.8442	7.825773363422261e+22	16678975551664.314	6.62179859663092	1442438306498.9153	6.737946590303279e+21	-2.6121203843833834e+24	5111.646560046284	-0.3088586254852184	37.46789547503885	30.716516308119363	50.47584144475393	129.2171272796738	131.9978793324477	78.51632932192331	-0.0005744100101171861	8.323644224813512e+23	0.2457197405256687	-0.0015888842173215813	-2.121922239068931e+23	-0.09841925087655357	0.02508973131803244	3.762275273257608	280.25293	275.48233	7.912522	-4.584016	14.616226	9.479463	0.0	11957.0	True	0.0	None	0.0	None	0.0	None	0.0	None	0.0	None	0.0	None	0.0	None	0.0	None	7.0911e-07	12
2014-01-21 19:36:00	788.9615100262315	6363047157.265501	7.81247183058693e+22	16323858409852.59	3.157342568349538	1654394553787.5576	6.762444093003521e+21	-2.598027765911918e+24	5097.651509122122	-0.30744407880997154	37.264915402552774	29.91334488734835	49.82020136402189	129.37588155110444	131.81587168029057	78.75199912469839	0.0002735998759401679	8.244249810145189e+23	0.2815335874737249	0.0007590378558231462	-2.083591242808195e+23	-0.0975603810558083	0.024656695308136568	3.7179989500435577	280.25524900000005	275.371887	7.881576	-4.463419999999998	14.613925	9.601927	0.0	11957.0	True	0.0	None	0.0	None	0.0	None	0.0	None	0.0	None	0.0	None	0.0	None	0.0	None	6.9093e-07	12
2014-01-21 19:48:00	791.61044279578	6432702338.414801	7.981741608347306e+22	16954223931740.62	9.492900877219322	1756589104507.546	6.96672734224743e+21	-2.611147474636598e+24	4894.655533448392	-0.3056507132772628	37.9071699462266	30.82498574802509	49.98876683102375	126.60177338077824	128.46886227074964	76.96364224566867	0.0007731004867838848	8.272975579696994e+23	0.2809336336768725	0.002260520634611168	-2.266228210987733e+23	-0.09684021723865603	0.026527581297715	3.6256976342051335	280.257538	275.261444	7.851836	-4.340775	14.645195	9.725062	0.0	11957.0	True	0.0	None	0.0	None	0.0	None	0.0	None	0.0	None	0.0	None	0.0	None	0.0	None	6.609899999999999e-07	12
2014-01-21 20:00:00	789.9628191070198	6504822611.517601	8.114612735045945e+22	17239406684312.074	34.68098712588744	1461545255612.9	7.076014543799756e+21	-2.632104653641131e+24	4851.674777308685	-0.30468794181555786	37.743480996223454	30.53835159599809	50.30851037148752	125.85896120040344	127.64743050058468	76.8629819755547	0.00275377061504585	8.329793760371944e+23	0.2278999941412095	0.008172959365605428	-2.177300953239785e+23	-0.09642427070993816	0.02520406417875404	3.5717939982576166	280.259857	275.15100099999995	7.851857000000001	-4.219683	14.676013	9.84817	0.0	11957.0	True	0.0	None	0.0	None	0.0	None	0.0	None	0.0	None	0.0	None	0.0	None	0.0	None	5.822e-07	12
2014-01-21 20:12:00	776.7894310977838	6491820729.622701	7.987327897060424e+22	16608586847020.182	23.362067812942662	657789581158.9863	7.110474551116722e+21	-2.676806858205348e+24	4766.111011714193	-0.3104831947333279	37.135652127796114	29.2733180125208	49.97840682094756	125.3967321032572	127.66608460421287	75.84184571957016	0.0018516341295825203	8.755586117000084e+23	0.10236613776905172	0.005492169655629029	-2.238848727844187e+23	-0.10155616349517048	0.025968437110615944	3.5661727980434264	280.262177	275.040588	7.850295	-4.0990400000000005	14.67375	9.969769	0.0	11957.0	True	0.0	None	0.0	None	0.0	None	0.0	None	0.0	None	0.0	None	0.0	None	0.0	None	5.9287e-07	12
2014-01-21 20:24:00	748.9858663435898	6602550266.738001	8.291599713260746e+22	16778601128685.82	31.58183321023705	962562192129.6052	7.279725896817582e+21	-2.619298143812394e+24	4646.473910772033	-0.2987175311219882	38.1410107526584	31.264419141177346	50.98598372499406	122.889734291565	124.35828722401376	74.22649266551821	0.0023503634152144863	8.999814731326594e+23	0.07350181622466619	0.007366155998308282	-2.2235046021621754e+23	-0.10263827519780563	0.02535793058782989	3.6422329599825813	280.264526	274.930176	7.849621000000001	-4.00415	14.67234	10.093739	0.0	11957.0	True	0.0	None	0.0	None	0.0	None	0.0	None	0.0	None	0.0	None	0.0	None	0.0	None	5.9522e-07	12
2014-01-21 20:36:00	733.7769305464619	6524909072.410501	8.268866298442927e+22	16508325063093.95	26.392974909961985	1575356733441.331	7.183181931530432e+21	-2.548158441306329e+24	4713.361245491504	-0.2940624280808349	38.18209664141335	31.34746404239213	50.87914455450729	122.73666090329843	124.16724153398668	74.54624873827309	0.0019979541945467053	9.165645128774433e+23	0.2341885963781751	0.006251563524453297	-2.1306994855260197e+23	-0.10577332311066726	0.02458868546271235	3.485907478752192	280.266937	274.81982400000004	7.848258	-3.881954	14.672239	10.217724	0.0	11957.0	True	0.0	None	0.0	None	0.0	None	0.0	None	0.0	None	0.0	None	0.0	None	0.0	None	7.317199999999998e-07	12
2014-01-21 20:48:00	743.4392154551732	6537279524.850201	8.198229162482955e+22	16107560357044.48	4.277363680632544	882127956505.0558	7.226753832126047e+21	-2.6160351133887565e+24	4776.509607865623	-0.3013242365804663	37.418964839911425	29.828226555246054	50.21285605694436	123.98897995226605	125.53945370115248	75.22383316271038	0.00033096283508453616	9.221476662303494e+23	0.1189299237819122	0.0010055961444848849	-1.930072483529493e+23	-0.10621625073731436	0.022231261907303904	3.4579003713193868	280.269287	274.709442	7.847047	-3.760965	14.701604	10.340436	0.0	11957.0	True	0.0	None	0.0	None	0.0	None	0.0	None	0.0	None	0.0	None	0.0	None	0.0	None	5.666399999999999e-07	12
2014-01-21 21:00:00	726.838203274672	6440701919.3675	8.123244667514218e+22	15533402003805.492	14.134434954431846	1063438268563.4252	7.081717577512909e+21	-2.527774444413668e+24	4845.293316088238	-0.2955239229511523	37.779491840223216	30.442015209125472	50.49194512032761	123.4506008884805	124.91959565735864	75.51797770603764	0.0011196478892927632	9.164288338031646e+23	0.16542384005755567	0.003387893971769501	-2.248020408095399e+23	-0.1071403521265841	0.026281767795492576	3.4603285581046244	280.271729	274.599121	7.846103	-3.639728	14.699345	10.463408	0.0	11957.0	True	0.0	None	0.0	None	0.0	None	0.0	None	0.0	None	0.0	None	0.0	None	0.0	None	5.3507e-07	12
2014-01-21 21:12:00	715.4263468176616	6433340118.445301	8.173954767612254e+22	15503125697966.436	25.857461169301978	666494655030.1438	7.127325465303692e+21	-2.534908626823831e+24	4777.522743181327	-0.2966971242457448	38.390379812669075	30.98657145074905	50.64200782490365	120.56746022570631	121.73460421472994	74.15001823963561	0.0020072551753844104	9.470436781996492e+23	0.10159171171235892	0.006199334320726983	-2.5799643485189287e+23	-0.1108462580795328	0.030197064886761712	3.701813926545692	280.27417	274.488831	7.84704	-3.518568	14.698253	10.585995	0.0	11957.0	True	0.0	None	0.0	None	0.0	None	0.0	None	0.0	None	0.0	None	0.0	None	0.0	None	5.566600000000001e-07	12
2014-01-21 21:24:00	700.1923297871402	6372542730.966101	8.090087973937332e+22	14866406855416.086	30.649165590262715	513348783442.1541	6.978862690347612e+21	-2.4929531159086754e+24	4907.936751289648	-0.29457021695453045	38.03813762137125	30.035449564937164	50.909295535911426	121.48064759534162	122.04331007766123	75.62706673153222	0.002469317240594805	9.297043865689868e+23	-0.0273878659592059	0.007430367318509791	-2.4762742466275642e+23	-0.10985494316261243	0.029259942251345563	3.728137629925728	280.276642	274.37854	7.8472940000000015	-3.397993	14.697755	10.708529	0.0	11957.0	True	0.0	None	0.0	None	0.0	None	0.0	None	0.0	None	0.0	None	0.0	None	0.0	None	5.8419e-07	12
2014-01-21 21:36:00	718.4123675600388	6446228635.599001	8.26992625111487e+22	15639175690787.152	45.664059015889464	1371184702399.5498	7.044141205676738e+21	-2.455424016693797e+24	4933.17533338343	-0.2868192469333963	38.49229761895909	31.22078745147746	51.19721979483518	121.62366461424824	122.22432237955131	76.78575437866724	0.0036178148483512478	9.33425042211628e+23	-0.06742670540447786	0.011009909602006035	-2.470719877944179e+23	-0.10903382302027033	0.028860596375916862	3.739786543042116	280.279144	274.26828	7.8477960000000015	-3.276845	14.696983	10.831674	0.0	11957.0	True	0.0	None	0.0	None	0.0	None	0.0	None	0.0	None	0.0	None	0.0	None	0.0	None	6.096500000000001e-07	12
2014-01-21 21:48:00	722.7456129399595	6514983550.949401	8.409597283220423e+22	15543184897129.926	30.628150324931426	1024046698856.5673	7.070757738118126e+21	-2.4269878345718217e+24	4905.732005141825	-0.2805058049140412	39.169019498576134	32.243569879144715	52.14127616872515	119.94446015732224	120.29742757546036	75.83727443655164	0.002372803712808446	9.171654794442516e+23	0.10035692395658426	0.007342701789755722	-2.768679909218616e+23	-0.10600392691967116	0.031999780774414906	3.7455494825292655	280.281677	274.158081	7.848028999999999	-3.154933	14.696303	10.955646	0.0	11957.0	True	0.0	None	0.0	None	0.0	None	0.0	None	0.0	None	0.0	None	0.0	None	0.0	None	5.640999999999999e-07	12
2014-01-21 22:00:00	718.2188611367727	6532276545.9764	8.351491587201474e+22	15336908227835.645	23.30265522417181	1027473749162.0192	7.041813750215271e+21	-2.4358847493018834e+24	4922.941574984454	-0.28078876029662003	38.90309396522128	31.885079066854548	52.40269446243245	120.40470496559037	121.01885924014644	76.29076853838677	0.001824368216094247	9.31013235826012e+23	0.12103016583226668	0.005570494664300888	-2.8273900225793934e+23	-0.10731954883425916	0.03259182683181662	3.7652948879427375	280.284241	274.047882	7.873912	-3.032952	14.695144	11.0781	0.0	11957.0	True	0.0	None	0.0	None	0.0	None	0.0	None	0.0	None	0.0	None	0.0	None	0.0	None	6.0463e-07	12
