Timestamp	TOTUSJH	TOTBSQ	TOTPOT	TOTUSJZ	ABSNJZH	SAVNCPP	USFLUX	TOTFZ	MEANPOT	EPSZ	MEANSHR	SHRGT45	MEANGAM	MEANGBT	MEANGBZ	MEANGBH	MEANJZH	TOTFY	MEANJZD	MEANALP	TOTFX	EPSY	EPSX	R_VALUE	CRVAL1	CRLN_OBS	LAT_MIN	LON_MIN	LAT_MAX	LON_MAX	QUALITY	NOAA_AR	IS_TMFI	BFLARE	BFLARE_label	CFLARE	CFLARE_label	MFLARE	MFLARE_label	XFLARE	XFLARE_label	BFLARE_loc	BFLARE_label_loc	CFLARE_loc	CFLARE_label_loc	MFLARE_loc	MFLARE_label_loc	XFLARE_loc	XFLARE_label_loc	XR_MAX	XR_QUAL
2014-02-23 12:36:00	52.49527361218325	410894584.2221	2.948517422320837e+21	1224513176548.3606	1.844178707423008	291475912816.27484	8.747720112139824e+20	-3.533215566191779e+23	1503.178724989576	-0.6474811590276265	21.514538148223487	1.6926201760324981	27.396172790989656	130.98434414889533	130.0209321377911	47.28431329768979	0.0012485976353574866	-7.699927064430707e+22	0.3831411091639957	0.005448564863220939	-1.4884263694676963e+23	0.14110539271396308	0.2727623075285399	0.0	232.884674	204.707367	-32.165085	22.906622	-27.483471	30.30312	0.0		True	0.0	None	0.0	None	0.0	None	0.0	None	0.0	None	0.0	None	0.0	None	0.0	None	2.4208e-06	12
2014-02-23 12:48:00	51.16325144422346	416880440.4598	3.060239000500472e+21	1199912814895.0537	3.375867382086704	307960647606.445	8.916373409747918e+20	-3.5544014312373635e+23	1524.021543602807	-0.6420110572062421	21.94906766287562	2.0502645502645502	27.724043967283247	126.98261129140856	126.65355790732315	45.770397887812976	0.0022327165225441165	-7.774893135604673e+22	0.3954494196915391	0.00986342568460619	-1.529540190804045e+23	0.14043341637743598	0.27627203452810145	0.0	232.883789	204.597595	-32.160114	23.01721	-27.477209	30.410706	0.0		True	0.0	None	0.0	None	0.0	None	0.0	None	0.0	None	0.0	None	0.0	None	0.0	None	2.6808999999999996e-06	12
2014-02-23 13:00:00	52.94444443065905	412884434.8716	3.095066256092912e+21	1280346594964.6155	0.3808072198717623	32965797179.8094	9.053177555605379e+20	-3.5155393203242454e+23	1478.7719657567184	-0.6411371174728879	22.022490187688657	2.982233502538071	27.59870825545556	128.74024207084065	128.0717713733703	45.059782030769284	0.0002416289466191385	-7.613038511305653e+22	0.04061305902985859	0.001123988299893828	-1.5512003383986654e+23	0.13884076159041245	0.2828960290201394	0.0	232.882889	204.487793	-32.156479	23.134367	-27.472223	30.517323	0.0		True	0.0	None	0.0	None	0.0	None	0.0	None	0.0	None	0.0	None	0.0	None	0.0	None	2.327e-06	12
2014-02-23 13:12:00	51.340004631526774	419801426.2839	2.9971643399701544e+21	1254069272127.5068	1.526529584355122	137797414265.6372	9.203264967985982e+20	-3.6116829353834106e+23	1397.4151896897783	-0.6478181880058321	21.612804595976773	1.4860681114551082	27.90320101853991	124.41110794665572	123.56514504153508	44.16541620194669	0.0009452195568762367	-7.612887116667829e+22	0.1656676865245663	0.0044134887018132726	-1.556577661208689e+23	0.13655037902404207	0.2791992924117302	0.0	232.881958	204.37796	-32.151965999999994	23.243958	-27.46838	30.629738	0.0		True	0.0	None	0.0	None	0.0	None	0.0	None	0.0	None	0.0	None	0.0	None	0.0	None	1.9419e-06	12
2014-02-23 13:24:00	51.51484854054493	430915002.84590006	3.075832402775929e+21	1256750043064.8865	1.7569224458814483	296539375231.31714	9.301285282461952e+20	-3.769033842720176e+23	1450.257990955936	-0.6586063864371676	22.022138450673538	2.316844082654978	27.38588906835679	128.07104863023406	127.32964930057123	44.313429750475656	0.0011001392898443633	-7.50417741394108e+22	0.3605436198013257	0.0049164048541008466	-1.541613897760609e+23	0.1311290738162277	0.2693838264271621	0.0	232.880997	204.268097	-32.147265999999995	23.353991	-27.46438	30.736862	0.0		True	0.0	None	0.0	None	0.0	None	0.0	None	0.0	None	0.0	None	0.0	None	0.0	None	1.7718000000000001e-06	12
2014-02-23 13:36:00	54.711939634595566	438099114.9823	3.1205643280191067e+21	1299286767824.3018	1.2417533394363065	40532880300.79437	9.297502316938346e+20	-3.805968154194544e+23	1488.121687394341	-0.6541543151610305	21.740515921481155	2.46991766941102	27.422939209008533	131.59612357567948	130.7783687174022	46.669345320081966	-0.00078641756772407	-7.813519483640494e+22	0.04984442969384608	-0.003427022329880106	-1.5781978146196436e+23	0.13429559259935284	0.2712542167420293	0.0	232.880005	204.158203	-32.142662	23.471197	-27.458431	30.843231	0.0		True	0.0	None	0.0	None	0.0	None	0.0	None	0.0	None	0.0	None	0.0	None	0.0	None	1.5237000000000001e-06	12
2014-02-23 13:48:00	53.34061359048878	442417844.9854	3.1981357404551224e+21	1273305878699.789	0.8654106954489191	218586353678.07727	9.344611343032074e+20	-3.816437357984486e+23	1512.6602140178854	-0.6495507031021397	22.117456089904827	2.449748743718593	27.46424778435043	131.41107734805368	129.94688676771497	47.52447372253126	0.0005435996830709291	-7.856732572988092e+22	0.2666136457035597	0.0023716682996163625	-1.6142551696426378e+23	0.13372016066746206	0.2747432964500138	0.0	232.878967	204.048264	-32.137646000000004	23.580946	-27.452061	30.949736	0.0		True	0.0	None	0.0	None	0.0	None	0.0	None	0.0	None	0.0	None	0.0	None	0.0	None	1.2938e-06	12
2014-02-23 14:00:00	52.02709092888424	433261741.5112	3.0690052911967885e+21	1231957956999.3809	1.07208996378857	181608620561.22226	9.19994708420996e+20	-3.704699738492115e+23	1467.251451087833	-0.6438580682896248	21.79001955525823	2.2857142857142856	27.748743198309413	129.80143717411838	128.49443346777923	47.47809991120139	0.0006806920405006793	-7.266329876624663e+22	0.2239077449103073	0.003010555011990725	-1.586194683503146e+23	0.12628513639874572	0.27567260964239204	0.0	232.87793	203.938324	-32.146652	23.695765	-27.444216	31.056578	0.0		True	0.0	None	0.0	None	0.0	None	0.0	None	0.0	None	0.0	None	0.0	None	0.0	None	1.4091999999999996e-06	12
2014-02-23 14:12:00	50.76586766838282	424206551.52850014	3.0711196853417935e+21	1210087663729.0315	5.2033050025910565	539836378253.5403	9.10064421500944e+20	-3.631936477230807e+23	1459.9199729397849	-0.6446861765833111	22.38943145630445	2.3358585858585856	27.95752017947849	126.11613536599941	124.91381095138357	46.56110937805519	0.003284914774363041	-7.142799830613421e+22	0.6618064679581658	0.014915879479086687	-1.5693390777517116e+23	0.12678812919132046	0.2785652271567071	0.0	232.876862	203.828354	-32.141791999999995	23.812922	-27.438049	31.167849	0.0		True	0.0	None	0.0	None	0.0	None	0.0	None	0.0	None	0.0	None	0.0	None	0.0	None	1.2887e-06	12
2014-02-23 14:24:00	52.01780090137432	431719275.0773001	3.084621169327265e+21	1248840524057.7432	2.204510260371205	326344101541.1329	9.217851084205632e+20	-3.697049401481055e+23	1460.8047980729086	-0.6448241449030855	22.095630984988915	2.0754716981132075	27.72748043346711	127.17796223838215	125.72323618641177	46.91420893043549	0.0013864844404850346	-7.214675280090569e+22	0.3985780144252016	0.006208993547209303	-1.590132603557993e+23	0.12583539771943913	0.2773443860287713	0.0	232.875732	203.718338	-32.137356	23.922167	-27.434341	31.269249	0.0		True	0.0	None	0.0	None	0.0	None	0.0	None	0.0	None	0.0	None	0.0	None	0.0	None	1.1387e-06	12
2014-02-23 14:36:00	50.029605951940276	424774713.9124	3.047329717799436e+21	1201762320574.705	1.5273375695319322	21262154587.20331	9.138605086314467e+20	-3.676926925988767e+23	1461.5282501438571	-0.6517991092937271	22.00126166243709	2.2929936305732483	27.323028571631216	127.20891088896576	126.2156727636804	45.81688057930994	-0.000972826477408874	-7.169500600958381e+22	-0.026299818740046253	-0.004353606237919343	-1.545752136185095e+23	0.12709184054640607	0.2740113920766559	0.0	232.874664	203.608307	-32.133263	24.041517	-27.430999999999997	31.378014	0.0		True	0.0	None	0.0	None	0.0	None	0.0	None	0.0	None	0.0	None	0.0	None	0.0	None	1.2456e-06	12
2014-02-23 14:48:00	50.307063930185116	426678027.73770016	3.136377395122633e+21	1200907275010.3271	0.5366119039057977	19738060032.19191	9.265185781592768e+20	-3.693045221805373e+23	1475.1103017581893	-0.6517362232002496	22.06681211519241	2.1236727045596497	27.19416563268886	124.2053185132052	122.83212198876085	44.76582985337446	-0.0003351729568430966	-7.07859070334489e+22	0.023942453603879973	-0.001522822644449416	-1.588743019449776e+23	0.12492059245142725	0.2803760346659861	0.0	232.873505	203.498245	-32.129482	24.153706	-27.42778	31.48263	0.0		True	0.0	None	0.0	None	0.0	None	0.0	None	0.0	None	0.0	None	0.0	None	0.0	None	1.2128e-06	12
2014-02-23 15:00:00	50.30138126462083	430823024.0067	3.0788712498373177e+21	1210899983132.0762	2.2280085177278246	100778831150.1476	9.373542119393818e+20	-3.726371985474572e+23	1413.6280124682382	-0.6512905305820803	22.0582637224109	2.4390243902439024	27.454758911382537	121.95558557869239	120.50634082516008	44.63229616190419	-0.0013585417791023321	-6.9772106395385455e+22	-0.11934136278378775	-0.006263606228385157	-1.6086732034113406e+23	0.12194679535809334	0.2811618454268503	0.0	232.87229900000003	203.388153	-32.131111	24.269802	-27.423443	31.587437	0.0		True	0.0	None	0.0	None	0.0	None	0.0	None	0.0	None	0.0	None	0.0	None	0.0	None	1.0967e-06	12
2014-02-23 15:12:00	51.30468334583848	423580571.5928	3.060090440267684e+21	1216129533365.6875	1.7462448462994709	249364069359.07904	9.103109410634216e+20	-3.640320219011953e+23	1459.2832411165125	-0.6471292326171915	22.149656318333026	2.4065864471184293	27.5204946936838	123.21826970601904	122.08972091444514	44.442395257874296	0.0011059182053828188	-7.1559026453449655e+22	0.30670937700073403	0.005005776164466397	-1.578729882582205e+23	0.12720841873691804	0.2806462607573965	0.0	232.871078	203.27803	-32.131901	24.379446	-27.444414	31.689314000000003	0.0		True	0.0	None	0.0	None	0.0	None	0.0	None	0.0	None	0.0	None	0.0	None	0.0	None	1.0270999999999999e-06	12
2014-02-23 15:24:00	52.416267891991176	441449909.3407	3.122465808142695e+21	1239893967543.75	0.6422389113163965	18981170387.856083	9.410379953045128e+20	-3.835315941376047e+23	1467.6503990393576	-0.6541948952070478	21.64027393473231	1.9975031210986267	27.473457553002877	128.4134476871937	127.5618156883986	44.802362548373566	-0.00040089819682671433	-7.207084504955353e+22	0.023011516417216608	-0.0017589702819165874	-1.6243032052982822e+23	0.1229321903210926	0.2770595386186971	0.0	232.869904	203.167908	-32.126469	24.498755	-27.437677	31.785568	0.0		True	0.0	None	0.0	None	0.0	None	0.0	None	0.0	None	0.0	None	0.0	None	0.0	None	1.0899e-06	12
2014-02-23 15:36:00	52.674205721385725	447391556.874	3.1344859775957095e+21	1226368146611.3179	1.7734167618729648	201012096207.71066	9.366732396436995e+20	-3.855972162767653e+23	1515.881471734213	-0.648983465274406	21.407792838044823	1.7983301220295438	27.436725591513767	131.77039331722872	131.0120358665715	47.015228190696746	0.0011389959934958026	-7.32522102742118e+22	0.25074228532006426	0.004807692914733296	-1.643107021543598e+23	0.12328790576290262	0.27654486174835136	0.0	232.868637	203.057739	-32.122715	24.629354	-27.432343	31.89187	0.0		True	0.0	None	0.0	None	0.0	None	0.0	None	0.0	None	0.0	None	0.0	None	0.0	None	1.0233e-06	12
2014-02-23 15:48:00	54.83349059460685	451344767.47520006	3.1485036698589845e+21	1275242158230.464	0.7224557303041901	83761266573.32498	9.205030348333658e+20	-3.885737118610524e+23	1567.9777589555372	-0.6482648729576266	21.734968015308887	2.513227513227513	27.804462868385826	137.21022643881994	136.51572981924258	48.88763175747144	0.00047781463644457024	-6.9526177490652495e+22	0.10759552022476218	0.0019422530878063198	-1.6487092361698588e+23	0.11599183692159808	0.27505728022895803	0.0	232.867355	202.947556	-32.120213	24.769001	-27.428226	31.995173	0.0		True	0.0	None	0.0	None	0.0	None	0.0	None	0.0	None	0.0	None	0.0	None	0.0	None	1.0069e-06	12
2014-02-23 16:00:00	54.37653204611789	438314290.09510016	3.044020178058495e+21	1219066076339.4463	0.36196034678047984	56505525634.7793	8.75022820428175e+20	-3.756258865878041e+23	1633.7188082194652	-0.6452935697846688	21.677628868937937	2.138275124732716	27.509387369969488	136.8076501642507	136.04152547717553	49.17577703401003	-0.0002579902685534425	-7.057545959915631e+22	0.07822478086571248	-0.0010038341381587818	-1.630995119467339e+23	0.12124268291953205	0.2801911956875826	0.0	232.866058	202.837357	-32.116543	24.90933	-27.452898	32.091843	0.0		True	0.0	None	0.0	None	0.0	None	0.0	None	0.0	None	0.0	None	0.0	None	0.0	None	1.011e-06	12
2014-02-23 16:12:00	55.10111713442088	448347241.8694	3.256624599552672e+21	1241476753246.7114	3.4225162992854714	154275874769.19754	8.900757284421059e+20	-3.848527945330298e+23	1707.657289911645	-0.646349771044233	22.30812072441701	3.3426183844011144	27.75753708526165	141.53862026244178	140.4216803734295	50.73731914395144	-0.00238336789643835	-6.9319073234896806e+22	-0.2086712723777812	-0.009273398240910904	-1.6530293701531854e+23	0.11641949272770233	0.2776217738588373	0.0	232.864746	202.727142	-32.112789	25.035698	-27.44989600000001	32.206848	0.0		True	0.0	None	0.0	None	0.0	None	0.0	None	0.0	None	0.0	None	0.0	None	0.0	None	1.0204e-06	12
2014-02-23 16:24:00	53.12551830559409	427875782.40260017	3.0001028577828935e+21	1175531196036.698	4.470956210297974	227121977293.3043	8.439269757445134e+20	-3.662518804636884e+23	1683.3369036063175	-0.6445395515872137	21.54889828688778	1.9374068554396424	27.73763621400085	141.21588361295332	140.03676393447827	51.075395232359895	-0.003331562004692976	-6.050905033201629e+22	-0.3287253669731811	-0.012707741821348545	-1.6216801967506693e+23	0.1064853950199242	0.28538748402007713	0.0	232.863403	202.616898	-32.113079	25.163168	-27.446239	32.314556	0.0		True	0.0	None	0.0	None	0.0	None	0.0	None	0.0	None	0.0	None	0.0	None	0.0	None	1.0203e-06	12
2014-02-23 16:36:00	53.6044938542132	427591000.43210006	3.054380286990274e+21	1204568069849.6182	3.2334863936529947	60625089760.80377	8.475661763404531e+20	-3.6301014533596866e+23	1702.3751714631678	-0.6392602853883165	21.58971259137568	2.0725388601036268	27.66435954917738	141.71731000022288	140.36310013696513	51.32633295591379	-0.002393402215879345	-6.13547927154305e+22	-0.08716272109921136	-0.009226236018390878	-1.626105968032864e+23	0.10804569184948573	0.2863570009136421	0.0	232.862061	202.506653	-32.11721	25.31572	-27.443342	32.41888	0.0		True	0.0	None	0.0	None	0.0	None	0.0	None	0.0	None	0.0	None	0.0	None	0.0	None	1.1228e-06	12
2014-02-23 16:48:00	52.492135329604615	421565681.544	3.0178741026442523e+21	1172302870215.2493	5.014072906677953	72757669663.4675	8.40840478322636e+20	-3.554159779491923e+23	1669.669259326622	-0.6348325073421978	21.960001566262132	2.351212343864805	28.20167536999261	135.6594799502397	134.7945067820797	49.963737423085966	-0.0036841094097560274	-5.165025879992971e+22	-0.10383909474293053	-0.014550641024061487	-1.6374696681170506e+23	0.09225601923704203	0.2924795281027421	0.0	232.860687	202.396378	-32.113155	25.435244	-27.463373	32.526913	0.0		True	0.0	None	0.0	None	0.0	None	0.0	None	0.0	None	0.0	None	0.0	None	0.0	None	1.6978999999999999e-06	12
2014-02-23 17:00:00	52.20082148062145	422231687.9142	2.828488763930793e+21	1140585222758.6729	8.788738525258418	356478887384.781	8.29687507847036e+20	-3.611615388770653e+23	1632.0423582427866	-0.6440775350581026	21.409068855957152	2.2988505747126435	27.75007939041314	136.93724165800458	137.2297393053488	50.47593132365114	-0.006734665536596489	-4.674793202169247e+22	-0.5306028842626709	-0.02532114971469086	-1.6081195777903902e+23	0.08336793812323477	0.2867840515250624	0.0	232.859283	202.286087	-32.111515000000004	25.554489	-27.460024	32.63451	0.0		True	0.0	None	0.0	None	0.0	None	0.0	None	0.0	None	0.0	None	0.0	None	0.0	None	1.7291999999999999e-06	12
2014-02-23 17:12:00	50.229156244789856	425196304.5751	2.880296799159858e+21	1102542344530.6765	5.963724573424496	131850555695.75575	8.274912921793293e+20	-3.6394744831739065e+23	1682.5646643091445	-0.6445203541346783	21.263358806939237	1.9394879751745533	27.60097767621222	139.52500123632973	139.60671492837352	50.700082596769676	-0.004626628838963922	-4.448524105451025e+22	-0.1986921990270514	-0.017057635864949447	-1.631683553802794e+23	0.0787796245056115	0.2889574488830001	0.0	232.857895	202.175797	-32.110516	25.667011	-27.45505	32.740223	0.0		True	0.0	None	0.0	None	0.0	None	0.0	None	0.0	None	0.0	None	0.0	None	0.0	None	1.3450999999999998e-06	12
2014-02-23 17:24:00	50.95117546922738	424204148.299	2.95755657170619e+21	1127717046715.9814	6.959214132516888	274993616307.3817	8.27305210265093e+20	-3.6154181900117633e+23	1717.0407637711378	-0.6417577897161778	21.801151472873226	3.469545104086353	27.97298507062437	138.95980397035638	139.61464667017907	49.78768764674953	-0.005365623849280562	-4.1045167223262195e+22	-0.4118503440884477	-0.019985094155946667	-1.61316437447617e+23	0.0728575628360324	0.28634607367767306	0.0	232.856537	202.065491	-32.10606	25.780603	-27.45118900000001	32.846889000000004	0.0		True	0.0	None	0.0	None	0.0	None	0.0	None	0.0	None	0.0	None	0.0	None	0.0	None	1.1066e-06	12
2014-02-23 17:36:00	55.764023780197114	436607985.4816	3.145903671676786e+21	1245598132430.0095	7.257271201850573	384719352990.9049	8.709031553635667e+20	-3.7213495367151e+23	1704.1900917843357	-0.6417948168751693	22.096086717533808	2.9496402877697845	27.769189468522743	136.78135323513882	137.32901371908906	48.29586650383528	-0.005221058418597535	-3.427829289833957e+22	-0.5376384167544763	-0.020248497072489786	-1.6829838491538626e+23	0.05911734572749304	0.2902523132038332	0.0	232.855148	201.9552	-32.101859999999995	25.893038	-27.472931	32.956215	0.0		True	0.0	None	0.0	None	0.0	None	0.0	None	0.0	None	0.0	None	0.0	None	0.0	None	1.0232e-06	12
2014-02-23 17:48:00	54.26846350703765	423490086.7638	3.099758221908855e+21	1220257149324.971	5.2612643226044336	209673895144.9457	8.597886074933872e+20	-3.591691823586696e+23	1670.7787269149246	-0.6386212123044154	22.205769107418586	3.579098067287044	27.77454647866931	129.3494378192353	129.8888268338569	46.533643156651756	-0.0037661161937039608	-3.4250038600209514e+22	-0.2915499007473241	-0.015163459493454868	-1.678972639539826e+23	0.06089832381692605	0.2985299394139367	0.0	232.853729	201.844879	-32.102093	26.013399	-27.469074	33.061726	0.0		True	0.0	None	0.0	None	0.0	None	0.0	None	0.0	None	0.0	None	0.0	None	0.0	None	1.0148e-06	12
2014-02-23 18:00:00	52.00659208751506	422511858.1946	3.085253604492033e+21	1189367402723.9011	4.139155594467226	174345528530.1552	8.689191556441352e+20	-3.634765477232284e+23	1651.1413124299554	-0.6477761664690197	22.245887988398795	2.4164889836531627	27.31198621900757	124.15143084629507	125.23337179569086	44.0040181611972	-0.002941830557546003	-3.465089054729372e+22	-0.2407048116975735	-0.011890623517280343	-1.6459321203105843e+23	0.06175369823462501	0.293332707664781	0.0	232.852341	201.734543	-32.098896	26.13366700000001	-27.464323	33.170311	66560.0		False	0.0	None	0.0	None	0.0	None	0.0	None	0.0	None	0.0	None	0.0	None	0.0	None	9.9335e-07	12
2014-02-23 18:12:00	55.47717219932541	442917006.78340006	3.3657059997187e+21	1287040744582.7078	0.7330770309629463	109807562328.60043	9.20368475278804e+20	-3.828490037643261e+23	1671.7236041832	-0.6508676164385305	22.93171553424311	3.5620052770448547	27.43542454411768	126.84059780684248	127.66958150716049	44.27898431232436	-0.0004835600468093313	-3.8790671348836596e+22	0.14070310232961414	-0.0020051413964004405	-1.7175241010929238e+23	0.06594660441224383	0.2919900030723928	0.0	232.850906	201.624207	-32.103096	26.241304	-27.485262	33.274002	66560.0		False	0.0	None	0.0	None	0.0	None	0.0	None	0.0	None	0.0	None	0.0	None	0.0	None	1.5253e-06	12
2014-02-23 18:24:00	54.437342698613435	448924450.0691	3.3990355058646597e+21	1287122805269.5771	1.5285024354648562	216103542522.9339	9.441204911827095e+20	-3.88114786027451e+23	1619.8922188637655	-0.6509901750914137	22.76268402695437	3.0379746835443036	27.34754339393477	125.44983560780355	126.12028441487814	43.7958533976832	0.0009674066047245924	-4.755076798132063e+22	0.2656913017835459	0.004124567188533223	-1.7368883875404186e+23	0.07975754567542212	0.2913306362513092	0.0	232.849472	201.51387	-32.098881	26.354536	-27.479551	33.38118	0.0		True	0.0	None	0.0	None	0.0	None	0.0	None	0.0	None	0.0	None	0.0	None	0.0	None	1.5265000000000001e-06	12
2014-02-23 18:36:00	59.20761667177167	458600099.7379	3.57721220113474e+21	1378413896476.21	2.111613709658056	251142651861.0252	9.61677328543212e+20	-3.938688153703032e+23	1666.8282227607958	-0.6467031113451587	23.14278551003399	3.96039603960396	27.611064754966197	128.01126953139757	128.5763585972743	44.84465791821247	0.0013066916520161234	-5.5631229757439395e+22	0.3018929095202039	0.005592358674061281	-1.7705638665847526e+23	0.09134231492348303	0.29071333313838343	0.0	232.848038	201.403534	-32.094707	26.474092	-27.478277	33.488914	0.0		True	0.0	None	0.0	None	0.0	None	0.0	None	0.0	None	0.0	None	0.0	None	0.0	None	1.3104e-06	12
2014-02-23 18:48:00	58.464048344567935	459535629.4549	3.5048038662144813e+21	1409537319852.9548	5.853757228043082	498983648741.8377	9.743658397161462e+20	-4.0071733344033925e+23	1592.680638967932	-0.6566083920674818	23.107746334677795	3.6813518406759207	27.45963904941339	126.25943492702757	126.24699812361534	44.778718671611436	0.0035327442534961273	-6.0321651444710675e+22	0.5849762059159761	0.015378913569564154	-1.7345191807649456e+23	0.0988419997256334	0.28421526977989875	0.0	232.846603	201.293198	-32.090042	26.589266	-27.476583	33.598572	0.0		True	0.0	None	0.0	None	0.0	None	0.0	None	0.0	None	0.0	None	0.0	None	0.0	None	1.2115e-06	12
2014-02-23 19:00:00	55.88457841988411	456783694.7731	3.424478479414962e+21	1342363052926.766	2.5967890640697915	288699453133.5004	9.748922066433608e+20	-3.955566613327183e+23	1530.319367987393	-0.6520571301899288	23.037168569912875	2.729970326409496	27.82484016736495	125.0664298119532	124.83957916302916	44.42447712380637	0.0015411211062728732	-6.314876806091037e+22	0.3328284568534948	0.006882259032588945	-1.6957180286336138e+23	0.1040978663792275	0.2795313894188489	0.0	232.845154	201.182861	-32.0877	26.721647	-27.472452	33.694981	0.0		True	0.0	None	0.0	None	0.0	None	0.0	None	0.0	None	0.0	None	0.0	None	0.0	None	1.1740000000000001e-06	12
2014-02-23 19:12:00	54.69456345870464	453222257.1948001	3.4247014206379854e+21	1316869039186.3516	0.14239926530423447	81496558619.50601	9.702202266597728e+20	-3.918497192250205e+23	1545.0902885822945	-0.651022196656553	23.053815638180236	2.576393049730377	27.40936131334988	125.12425668320827	124.36576829780378	43.94130709128514	-8.532011102710273e-05	-7.295541569484826e+22	-0.09485419948365736	-0.0003806042231229468	-1.671434316059964e+23	0.12120869979844907	0.2776934081158889	0.0	232.84375	201.07254	-32.083607	26.834581	-27.494043	33.802235	0.0		True	0.0	None	0.0	None	0.0	None	0.0	None	0.0	None	0.0	None	0.0	None	0.0	None	1.4913999999999996e-06	12
2014-02-23 19:24:00	54.237345936081496	453259906.37	3.3437931510191085e+21	1301552292084.1523	1.9704845157317208	197162301056.81827	9.796346371189312e+20	-3.9720263344095104e+23	1507.6843639229098	-0.6598607746378774	22.307642181068548	2.095808383233533	26.99681175819305	123.92097044544548	123.87430524012942	42.038530539717954	0.0011799308477435455	-7.471738102417923e+22	0.2293399272479872	0.005238223872644277	-1.6621175408831607e+23	0.12412573525612805	0.27612258221077834	0.0	232.8423	200.962204	-32.07856	26.9648	-27.489595	33.898613	0.0		True	0.0	None	0.0	None	0.0	None	0.0	None	0.0	None	0.0	None	0.0	None	0.0	None	1.6772999999999996e-06	12
2014-02-23 19:36:00	55.61614202067193	466236439.2596	3.602715221182411e+21	1353281162174.0762	1.7626716858562004	124285790387.57014	1.0165359641851037e+21	-4.068617259102985e+23	1550.1704815436135	-0.6570950578451423	22.59495592531733	2.5142857142857142	26.776732620018397	124.36730622708885	123.44004846345041	42.63657280943111	0.0010072409633464002	-8.199731166329247e+22	0.1379601716611398	0.004562971841346312	-1.7053110489447916e+23	0.13242835297419042	0.27541333848576066	0.0	232.840897	200.851898	-32.078136	27.087244	-27.46627800000001	34.00428400000001	0.0		True	0.0	None	0.0	None	0.0	None	0.0	None	0.0	None	0.0	None	0.0	None	0.0	None	1.6398e-06	12
2014-02-23 19:48:00	57.79662136130222	477343430.0837	3.680950781999244e+21	1372558608504.739	0.6877430246151697	61222349373.877686	1.0245828874615584e+21	-4.1213653937031576e+23	1583.8330800208093	-0.6501261247506529	22.52197959601011	1.7142857142857144	26.98282141190474	126.51204854303735	125.36672603679577	44.022659764426784	0.0003929960140658112	-8.265120091756717e+22	0.06795781344540272	0.0017462567599655426	-1.7501030441194046e+23	0.1303784057599522	0.27607057402045504	0.0	232.839478	200.741577	-32.073303	27.20964600000001	-27.46228	34.114735	0.0		True	0.0	None	0.0	None	0.0	None	0.0	None	0.0	None	0.0	None	0.0	None	0.0	None	1.4682e-06	12
2014-02-23 20:00:00	55.746319766164795	481915772.2264	3.640304065887124e+21	1353833975657.35	0.8439150319377368	51316918482.68734	1.0333895097057053e+21	-4.150851778239731e+23	1541.6768095121606	-0.6485650189945742	22.518491314816824	2.305961754780652	27.29217264496677	125.47828753423387	124.40219387544495	43.75527207237378	-0.0004746428751055888	-8.678303183700394e+22	-0.0560651358719744	-0.0021244743787577646	-1.7453493563680852e+23	0.1355973224262948	0.27270849429007443	0.0	232.83812000000003	200.631271	-32.070156	27.340176	-27.457541	34.209064	0.0		True	0.0	None	0.0	None	0.0	None	0.0	None	0.0	None	0.0	None	0.0	None	0.0	None	1.5311e-06	12
2014-02-23 20:12:00	59.745683770355406	492272999.1504	3.866262322582413e+21	1433569779604.3115	4.114629329297959	301024583693.79675	1.0512828422064312e+21	-4.22806905233972e+23	1606.6473088391253	-0.6467307085602144	23.00042939101135	2.593818984547461	27.33069841638452	126.63536035517569	125.25376161839607	44.12094351994605	-0.002270766738023156	-9.040292030848867e+22	-0.32270358743610483	-0.010151544274014771	-1.785682151313824e+23	0.13828143292661574	0.2731401660394941	0.0	232.836731	200.520981	-32.07143	27.464249	-27.447779	34.318946999999994	0.0		True	0.0	None	0.0	None	0.0	None	0.0	None	0.0	None	0.0	None	0.0	None	0.0	None	1.4552e-06	12
2014-02-23 20:24:00	56.29386982918586	474337524.8937	3.5846945866913887e+21	1309184961854.9834	3.6770786359928103	300378615382.9665	9.91485052506816e+20	-4.114671087590778e+23	1641.8664036971868	-0.6531833583508566	22.57266520152237	2.3722627737226274	27.170397580371088	127.85083446012564	126.8701956062173	44.421575351191656	-0.0022366658369785946	-8.435411095345898e+22	-0.35491354543048165	-0.009378306135490993	-1.716698108652907e+23	0.13390791222523332	0.27251719809784936	0.0	232.835342	200.41069	-32.066818	27.588001	-27.441559	34.415531	0.0		True	0.0	None	0.0	None	0.0	None	0.0	None	0.0	None	0.0	None	0.0	None	0.0	None	1.4075999999999999e-06	12
2014-02-23 20:36:00	58.63984262810085	470178397.8913	3.60842155235411e+21	1381532252334.8064	4.444792858927374	192058504148.6355	9.984693527362492e+20	-4.046873669426299e+23	1609.653231595896	-0.6481036622145044	22.771001608356052	2.1919431279620856	27.436426153747764	124.6415743688842	123.77621719837192	43.0762506390239	-0.0026331711249569754	-7.941886475958779e+22	-0.22100961844043554	-0.011471872875379594	-1.719214460010324e+23	0.1271886925664871	0.2753308550456384	0.0	232.833984	200.30043	-32.063118	27.71908	-27.436197	34.524513	0.0		True	0.0	None	0.0	None	0.0	None	0.0	None	0.0	None	0.0	None	0.0	None	0.0	None	1.3313999999999999e-06	12
2014-02-23 20:48:00	54.402808908485824	453861304.3047	3.464340637689588e+21	1282231676856.4895	2.4163421329204504	72318027701.31412	9.505528895363914e+20	-3.850290970441994e+23	1652.0605769224217	-0.6387896979819649	22.75256542890276	2.216592780240658	27.672975455392734	125.06704314242785	124.22784489966006	43.472518092135246	-0.0015302990075493669	-7.486926616603037e+22	-0.08896282410750903	-0.00649743644676367	-1.6953212306985525e+23	0.12421325112693947	0.28126542779597363	0.0	232.832687	200.190186	-32.059536	27.844	-27.430935	34.622704	0.0		True	0.0	None	0.0	None	0.0	None	0.0	None	0.0	None	0.0	None	0.0	None	0.0	None	1.3284999999999999e-06	12
2014-02-23 21:00:00	56.40118127895936	462419239.9543001	3.615083717584538e+21	1325309188621.9363	3.186217729050107	51366159027.45352	9.63232511555416e+20	-3.917819428588066e+23	1708.7949832473075	-0.6379635956009418	23.209923872240854	2.573760200878845	27.75673393086016	126.26990677632736	125.85750738327087	43.817281650795394	-0.0020001366786253027	-6.896828212350641e+22	-0.06263235071197515	-0.00841327926384368	-1.7331655464553232e+23	0.112305464935093	0.2822224311105601	0.0	232.83136	200.079956	-32.056503	27.96653	-27.426172	34.716835	0.0		True	0.0	None	0.0	None	0.0	None	0.0	None	0.0	None	0.0	None	0.0	None	0.0	None	1.3706e-06	12
2014-02-23 21:12:00	59.467901858696706	475916747.9258001	3.852134586157552e+21	1422597888052.7505	2.3189072739020444	23978613920.000008	9.891912387115235e+20	-3.956774927586836e+23	1744.2015718432162	-0.6260338688077681	23.65140920567277	2.7660853878532774	28.512951669409784	127.43057428596424	126.9345515882745	44.76184780933204	-0.0013944120708972007	-6.402312614966895e+22	-0.028006711410656308	-0.0059931176443816115	-1.819399509138416e+23	0.10129624780323168	0.28786214390706705	0.0	232.830048	199.969742	-32.054043	28.098036	-27.419706	34.824902	0.0		True	0.0	None	0.0	None	0.0	None	0.0	None	0.0	None	0.0	None	0.0	None	0.0	None	1.3961e-06	12
2014-02-23 21:24:00	57.61645206695111	460153599.9194	3.609509370164448e+21	1348703354713.089	3.0870919432829886	134718962439.34448	9.44794518112364e+20	-3.861496839055366e+23	1744.4889509981192	-0.631888370561765	23.35098437223887	3.7869062901155326	28.36909122320484	126.20072879455856	126.49405210984449	44.966377607540856	-0.0019814454064717517	-5.721886187091732e+22	-0.16795146851919582	-0.008222166906163264	-1.768748420069836e+23	0.0936319124421644	0.2894347978710336	0.0	232.828735	199.859543	-32.049854	28.222227	-27.413887	34.922337	0.0		True	0.0	None	0.0	None	0.0	None	0.0	None	0.0	None	0.0	None	0.0	None	0.0	None	1.2429e-06	12
2014-02-23 21:36:00	59.016234614773595	458883498.1007	3.5166669436078863e+21	1374262164363.2598	2.869749112398087	160965890039.1704	9.541955630384754e+20	-3.895431988133419e+23	1657.0744858432763	-0.6392058666056716	23.3654048488132	3.0037546933667083	28.081115622755746	122.78948825597926	123.305300594909	43.215634242904386	-0.001795837992739729	-5.171425956258131e+22	-0.19564614844204511	-0.0076302362663267205	-1.710809212043332e+23	0.08485851684811457	0.28072862992151143	0.0	232.827484	199.749374	-32.050724	28.364779	-27.408024	35.01894	0.0		True	0.0	None	0.0	None	0.0	None	0.0	None	0.0	None	0.0	None	0.0	None	0.0	None	1.1364e-06	12
2014-02-23 21:48:00	60.007285182783534	464563608.52010006	3.501957481238279e+21	1400093291065.62	0.568467654155418	22507176835.07039	9.57718234287955e+20	-4.006935347067077e+23	1659.4894818859837	-0.6494633989942536	23.09395252395349	3.9647577092511015	28.143283590592052	128.78354812563543	130.0610564615977	43.26328511802891	-0.00035775182766231467	-4.8858247027901715e+22	0.027510747104408644	-0.0014837061075189432	-1.7514684659472086e+23	0.0791918023006493	0.28388645301151233	0.0	232.826218	199.639221	-32.047447	28.490028	-27.403036	35.115986	0.0		True	0.0	None	0.0	None	0.0	None	0.0	None	0.0	None	0.0	None	0.0	None	0.0	None	1.1094e-06	12
2014-02-23 22:00:00	57.384088277527894	465799155.1009	3.514454547954008e+21	1368432230231.7725	0.0050378817356168115	52813591729.60622	9.673724504736486e+20	-3.9983228468726455e+23	1632.5344446012384	-0.6463482824799961	23.44436322572068	3.948180135718692	28.236508894251994	125.08180265907778	127.23769097766308	41.847344870099604	3.1078850929159853e-06	-4.273459864480543e+22	0.0632788216155096	7.97406227625611e-05	-1.789921127100613e+23	0.06908255159571848	0.2893494323953951	0.0	232.824997	199.529099	-32.045818	28.625109	-27.397161	35.215736	0.0		True	0.0	None	0.0	None	0.0	None	0.0	None	0.0	None	0.0	None	0.0	None	0.0	None	1.1153e-06	12
2014-02-23 22:12:00	60.37240294043319	475210961.2562	3.607914930748816e+21	1444168288190.9722	0.10611930581492346	152507889877.87366	9.984323798720391e+20	-4.130165962806652e+23	1614.208574691096	-0.6544380330775514	23.187233026211	3.86215092097445	27.95854107741788	126.75201958237557	128.6621229027085	42.14326666363733	6.305365764404246e-05	-3.723137600747735e+22	0.17599241191482898	0.0002699525543067813	-1.8098241797023822e+23	0.05899430846732018	0.2867724413611093	0.0	232.823792	199.418991	-32.041129999999995	28.75889	-27.393246	35.312737	0.0		True	0.0	None	0.0	None	0.0	None	0.0	None	0.0	None	0.0	None	0.0	None	0.0	None	1.0874e-06	12
2014-02-23 22:24:00	60.16669087472873	472050369.7477	3.5746050849050874e+21	1433442117749.2903	5.354653034568418	469865666830.0271	9.947219850384941e+20	-4.116648528680107e+23	1616.5952403387744	-0.6566635528102144	23.194930871603244	4.024024024024024	27.73982097764505	123.70764956134904	125.40231083808659	42.45047146952209	0.0032160078285696204	-3.8913807012986226e+22	0.5480683550287128	0.013622627173484718	-1.7993362413708866e+23	0.062073015435960825	0.28701953074862546	0.0	232.822617	199.308914	-32.039516	28.889614	-27.38958400000001	35.406532	0.0		True	0.0	None	0.0	None	0.0	None	0.0	None	0.0	None	0.0	None	0.0	None	0.0	None	1.2649e-06	12
2014-02-23 22:36:00	61.589448753204614	484867597.5143001	3.638144845468359e+21	1442791502280.5444	7.165017730380329	617691256528.6885	1.0123050007068381e+21	-4.24748201166192e+23	1641.3875522018525	-0.6596231248425862	22.908789967990213	3.8945476333133615	27.326559150621254	125.90679297520815	127.02795484165009	43.483230432251894	0.004293000437615536	-4.619705940919773e+22	0.7187526160499506	0.01769317356534867	-1.8016930623791366e+23	0.07174285518424249	0.279798338062586	0.0	232.82151800000003	199.198868	-32.035065	29.032135	-27.38339	35.489784	0.0		True	0.0	None	0.0	None	0.0	None	0.0	None	0.0	None	0.0	None	0.0	None	0.0	None	1.5017e-06	12
2014-02-23 22:48:00	62.260481813114026	492526807.5132	3.6551816064408617e+21	1487210441367.9812	4.595584132697876	488960089907.2929	1.0379034443209432e+21	-4.291340284336249e+23	1583.6044165067728	-0.6560706307527024	22.81745849575949	3.394706559263521	27.61536958889361	125.48113591940826	126.88571220623598	43.59340491683596	0.002644179593036753	-4.841198389903399e+22	0.5463571020951938	0.01073759416069142	-1.805391175426205e+23	0.07401342869164138	0.2760126321234944	0.0	232.820389	199.088837	-32.032337	29.165236	-27.37862800000001	35.572102	0.0		True	0.0	None	0.0	None	0.0	None	0.0	None	0.0	None	0.0	None	0.0	None	0.0	None	1.6136e-06	12
2014-02-23 23:00:00	57.09755764963447	476814610.3635	3.364539343626853e+21	1347752784202.9343	6.745782070281956	647542633482.4602	1.0031663213882668e+21	-4.2065250727896695e+23	1508.9067046338384	-0.6642956379814547	22.376947321792606	2.5610482430017867	27.595679696733278	121.24843057885599	122.69995260876324	41.92539019867962	0.004017737981108967	-4.910936536608543e+22	0.7489602387502741	0.01668163805350259	-1.736813551409903e+23	0.07755364970425141	0.2742780908764518	0.0	232.81929	198.978836	-32.026699	29.292921000000003	-27.371248	35.65913	0.0		True	0.0	None	0.0	None	0.0	None	0.0	None	0.0	None	0.0	None	0.0	None	0.0	None	2.0168e-06	12
2014-02-23 23:12:00	58.66054398275196	481894394.4172	3.3867238320000446e+21	1375393362774.0828	5.523584406033155	502145950012.4626	1.0161282073867464e+21	-4.3051736762445136e+23	1500.0934018393066	-0.6727074541293511	22.408787849403424	2.588235294117647	27.054571790326037	122.32094755337586	123.68836717778707	41.25020977052292	0.0032491672976665627	-5.8990274889665995e+22	0.5736009873689689	0.013729122185571879	-1.7230953521714234e+23	0.0921756022489532	0.26924328139823045	0.0	232.818207	198.868866	-32.022018	29.416449	-27.369404	35.741356	0.0		True	0.0	None	0.0	None	0.0	None	0.0	None	0.0	None	0.0	None	0.0	None	0.0	None	2.005e-06	12
2014-02-23 23:24:00	55.02712665725564	479793389.70290005	3.3206446631420135e+21	1307522363527.575	3.5989961036212814	505242203958.5672	1.02004967576942e+21	-4.302279558385301e+23	1456.2622851896729	-0.6751991069320518	22.185603045835318	2.56260920209668	26.923338929035392	119.23078377300772	120.44224916939413	40.78851847767605	0.002096095575784089	-6.281065571496208e+22	0.5714071308989286	0.00902359062923131	-1.676083539653754e+23	0.09857494862671327	0.26304429866999723	0.0	232.817215	198.758911	-32.020844	29.539587	-27.366117	35.83756599999999	0.0		True	0.0	None	0.0	None	0.0	None	0.0	None	0.0	None	0.0	None	0.0	None	0.0	None	1.7895e-06	12
2014-02-23 23:36:00	58.252058071166935	486482010.7552	3.4717513089962297e+21	1397333429779.6226	4.465269739674857	350178355913.6376	1.040291117600641e+21	-4.3308106466630665e+23	1476.1059912321305	-0.6703319297496022	22.53305299668797	3.049124788255224	27.208767777327896	122.20348474045211	123.18037698923376	41.5848161966176	0.0025213267869423238	-6.2603573854208755e+22	0.3839495549113692	0.01107613528756982	-1.6914391091682778e+23	0.09689912096075616	0.2618044829497092	0.0	232.816208	198.649002	-32.017876	29.654291	-27.37056500000001	35.935051	0.0		True	0.0	None	0.0	None	0.0	None	0.0	None	0.0	None	0.0	None	0.0	None	0.0	None	1.5548e-06	12
2014-02-23 23:48:00	52.293768756677636	467665685.3641	3.223445531206946e+21	1255109369772.896	6.3419624695996335	561907469189.4302	1.0005393909109184e+21	-4.237909813559056e+23	1432.8289516183972	-0.6823443871740524	22.10135550146688	3.3057851239669422	26.784904389138216	122.23087722685837	123.29215164989724	41.066885920111496	0.003743779497992701	-5.6564633417826865e+22	0.6440825691870025	0.016232810729620205	-1.622555732690503e+23	0.09107451980625814	0.2612471349758748	0.0	232.815216	198.539108	-32.029484000000004	29.769304	-27.381214	36.018993	0.0		True	0.0	None	0.0	None	0.0	None	0.0	None	0.0	None	0.0	None	0.0	None	0.0	None	1.4288e-06	12
2014-02-24 00:00:00	52.691506650395134	474736508.5537	3.239671310482378e+21	1249443896655.8147	7.1994469460925465	664749692163.7185	1.0042800796307448e+21	-4.276313889723717e+23	1451.178357375679	-0.6782729549123706	21.84070475424901	2.4390243902439024	26.706688528026373	122.02480646021648	122.98014164893502	41.38670373274661	0.004282835779947976	-6.162927927192964e+22	0.7678338271398196	0.018118096694857592	-1.6471160377499694e+23	0.09775118113135546	0.2612516973304799	0.0	232.81427	198.42926	-32.028831	29.882742	-27.378401	36.128815	0.0		True	0.0	None	0.0	None	0.0	None	0.0	None	0.0	None	0.0	None	0.0	None	0.0	None	1.3903999999999999e-06	12
2014-02-24 00:12:00	52.8721060359116	481327800.7529	3.3174895475788407e+21	1269039424015.5083	4.218984153044088	344623038648.449	1.0270451615898624e+21	-4.316034158597662e+23	1442.2788137633331	-0.6751985097921689	21.850059849193016	2.136258660508083	26.66407450516061	120.34320856947191	121.14523923449892	40.02755404391424	0.002435903090672107	-6.909309597755402e+22	0.3863309559221125	0.010125606826006276	-1.6512949335730654e+23	0.1080889393519756	0.2583278624324316	0.0	232.813339	198.319443	-32.029762	29.999002	-27.374537	36.227909	0.0		True	0.0	None	0.0	None	0.0	None	0.0	None	0.0	None	0.0	None	0.0	None	0.0	None	1.3000999999999998e-06	12
2014-02-24 00:24:00	51.24626601585902	476759348.0175	3.3303914174940127e+21	1234743894260.08	1.3518850187183236	99857729281.69417	1.0283714245537197e+21	-4.2976824705630176e+23	1422.428656408645	-0.6787699924302721	22.368175607133164	2.8927963698241634	26.597001234825267	117.2708284850461	118.27895630737969	38.65500746220764	0.0007668094263858897	-6.728068744953325e+22	0.1099710883831375	0.003336032363020847	-1.65181122563761e+23	0.10626218205655487	0.260884767732828	0.0	232.812439	198.209641	-32.024601000000004	30.113098	-27.372252000000003	36.310608	0.0		True	0.0	None	0.0	None	0.0	None	0.0	None	0.0	None	0.0	None	0.0	None	0.0	None	1.2193000000000001e-06	12
