Timestamp	TOTUSJH	TOTBSQ	TOTPOT	TOTUSJZ	ABSNJZH	SAVNCPP	USFLUX	TOTFZ	MEANPOT	EPSZ	MEANSHR	SHRGT45	MEANGAM	MEANGBT	MEANGBZ	MEANGBH	MEANJZH	TOTFY	MEANJZD	MEANALP	TOTFX	EPSY	EPSX	R_VALUE	CRVAL1	CRLN_OBS	LAT_MIN	LON_MIN	LAT_MAX	LON_MAX	QUALITY	NOAA_AR	IS_TMFI	BFLARE	BFLARE_label	CFLARE	CFLARE_label	MFLARE	MFLARE_label	XFLARE	XFLARE_label	BFLARE_loc	BFLARE_label_loc	CFLARE_loc	CFLARE_label_loc	MFLARE_loc	MFLARE_label_loc	XFLARE_loc	XFLARE_label_loc	XR_MAX	XR_QUAL
2014-01-17 09:48:00	16.05515728644842	98087808.6283	5.02918979664708e+20	327920338645.7771	1.0401242391045735	45055465819.717735	1.7252871583787526e+20	-7.55104500715227e+22	1423.6521896458344	-0.5796682826645939	19.18802639886045	2.255639097744361	31.92851006181821	159.70578113172147	163.4636045662311	70.83778644893691	0.003910241500393133	-1.4090641873433866e+22	-0.3325968243507456	0.013425617894732398	3.09009995278405e+22	0.10816910995337306	-0.2372165615746743	0.0	319.893433	333.433746	-15.489341	-14.881431	-13.676452	-11.227987	0.0		True	0.0	None	0.0	None	0.0	None	0.0	None	0.0	None	0.0	None	0.0	None	0.0	None	3.8031e-06	12
2014-01-17 10:00:00	13.582237030065064	89291442.1326	4.4623406419640975e+20	263063822622.5885	0.5786481285610654	34488208285.24034	1.5508167245005983e+20	-6.671698933272098e+22	1442.096431740052	-0.5626186265129056	17.740223017528827	1.7167381974248928	32.21248395581392	166.93791687634572	170.1717640255456	75.29419983440812	0.0024834683629230275	-1.4824414913518677e+22	0.2906509493086191	0.008294337719102875	3.015834168828468e+22	0.12501301453977273	-0.2543226987349674	0.0	319.896729	333.324493	-15.491388	-14.779552	-13.679132	-11.132163	0.0		True	0.0	None	0.0	None	0.0	None	0.0	None	0.0	None	0.0	None	0.0	None	0.0	None	2.7237e-06	12
2014-01-17 10:12:00	11.60381372759752	78168756.00400001	3.946712271303289e+20	236076964447.6873	1.2105748988640743	67369239515.05585	1.397843652062187e+20	-5.793461952832345e+22	1363.2215773297708	-0.558074832788278	18.250387267967003	2.293577981651376	31.57079641874603	160.27959532792826	162.3883688024628	72.7768103329536	0.005553095866348965	-1.2242378442381483e+22	0.6068305048079469	0.01987925694684539	2.839277098501614e+22	0.11792885424616815	-0.2735029771294555	0.0	319.9000240000001	333.21521	-15.493706	-14.655828	-13.682073999999998	-11.010707	0.0		True	0.0	None	0.0	None	0.0	None	0.0	None	0.0	None	0.0	None	0.0	None	0.0	None	2.2579e-06	12
2014-01-17 10:24:00	13.469350812100394	82296622.102	4.719906905888872e+20	272594073062.13684	2.37467786526431	195019791693.96225	1.4749388307477465e+20	-6.1570102065651606e+22	1586.6197911721356	-0.5633461317372017	18.335673420772512	2.6785714285714284	30.68540454346271	168.48336474153078	169.90330381152015	72.9106491158538	0.010601240469929956	-1.664381930553475e+22	1.5840558908392068	0.03691454728270044	2.6687717466462266e+22	0.15228545850237793	-0.2441838147936771	0.0	319.90332	333.105927	-15.496007999999998	-14.532084	-13.684988	-10.914834	0.0		True	0.0	None	0.0	None	0.0	None	0.0	None	0.0	None	0.0	None	0.0	None	0.0	None	1.8258000000000002e-06	12
2014-01-17 10:36:00	12.466860126568186	79055916.7875	4.120665407618575e+20	247340792302.77	1.996417199474947	165052176765.5055	1.4259809519494147e+20	-6.0012497259662825e+22	1423.3064248320459	-0.5716034893399029	17.280944842983878	2.293577981651376	30.27640013293259	166.03016208984604	167.0113623560401	69.426085172686	0.009157877061811684	-1.5533656628898319e+22	1.4867531412484694	0.03213689653728344	2.4513459902400726e+22	0.1479540551840065	-0.2334843550232353	0.0	319.906525	332.996582	-15.496904999999998	-14.414131	-13.710814	-10.820245	0.0		True	0.0	None	0.0	None	0.0	None	0.0	None	0.0	None	0.0	None	0.0	None	0.0	None	1.5034999999999999e-06	12
2014-01-17 10:48:00	12.88112628171516	70180757.3209	3.991536204726117e+20	265629292705.0964	0.6939225107421236	91980438566.04668	1.295754381412704e+20	-5.508187395699513e+22	1473.3211601427176	-0.5909873400147589	18.4757353763428	2.4509803921568643	30.72798407241027	165.94862449184274	166.84895226817517	68.33409087832679	0.003401580935010409	-1.3479691901245325e+22	0.8854129685773361	0.012429572664281916	2.3476535012898166e+22	0.14462701953740956	-0.2518856746026534	0.0	319.909668	332.887177	-15.497641	-14.315507	-13.713316	-10.700328	0.0		True	0.0	None	0.0	None	0.0	None	0.0	None	0.0	None	0.0	None	0.0	None	0.0	None	1.3627e-06	12
2014-01-17 11:00:00	9.9411050964294	60957655.7752	3.1074864379760633e+20	224552259244.9451	2.84477333902554	222952837677.05066	1.1781584237212031e+20	-4.5426916992822815e+22	1164.1278363830165	-0.5611416383619581	18.398909998947843	2.985074626865672	32.03582023856229	159.4471689915769	160.4663750920337	67.19227029301399	0.014153101189181791	-1.3039410502535943e+22	2.1782331660812155	0.059787046598379474	2.00169626165823e+22	0.16107093892863514	-0.2472620186721829	0.0	319.912872	332.777771	-15.496615	-14.19256	-13.713508	-10.603428	0.0		True	0.0	None	0.0	None	0.0	None	0.0	None	0.0	None	0.0	None	0.0	None	0.0	None	1.1786e-06	12
2014-01-17 11:12:00	10.416028806462188	57340483.4215	2.902554312328996e+20	237964553208.53104	1.267147385931251	118032895144.95705	1.1517247898155513e+20	-4.3868999265780125e+22	1103.8312779487187	-0.5760814734169865	17.76447866993021	1.5151515151515151	30.810844240438342	153.1558721863645	157.7743103383379	60.53414161920136	0.006399734272380057	-1.1339498629856917e+22	1.1706648345580863	0.02804252486362751	1.7191793618679084e+22	0.14890868695045678	-0.2257601943123165	0.0	319.915955	332.668304	-15.496974	-14.096251	-13.717193	-10.509003	0.0		True	0.0	None	0.0	None	0.0	None	0.0	None	0.0	None	0.0	None	0.0	None	0.0	None	1.0384e-06	12
2014-01-17 11:24:00	9.77739187105149	55888157.01880001	2.702285368400185e+20	221629777715.1444	0.8112499237732884	63620239570.01459	1.1281787667471158e+20	-4.531314351099949e+22	1088.1209218575902	-0.6105088454701133	17.63683063606112	0.53475935828877	28.73771192871776	148.1908550452658	152.07236541940614	61.75099357296006	0.0043382348864881735	-9.718126648861244e+21	0.6681223589081328	0.018026099409087427	1.4962334265022918e+22	0.13093336327656055	-0.20158913529050745	0.0	319.919006	332.558807	-15.47655	-13.997212	-13.721132	-10.388401	0.0		True	0.0	None	0.0	None	0.0	None	0.0	None	0.0	None	0.0	None	0.0	None	0.0	None	9.0956e-07	12
2014-01-17 11:36:00	7.844705960983572	51146916.57700001	2.5298309267801457e+20	181675037548.33087	1.101818852824726	77043854907.46985	1.07384149676835e+20	-4.052517961577708e+22	1002.5947715669755	-0.5966134368444432	18.143136151473264	1.0526315789473684	29.652282969937357	139.49071590466212	141.71752002980008	55.844223918135654	-0.005799046593814347	-1.0139282994456271e+22	-0.7963327887569499	-0.026984908995984536	1.6305887893372264e+22	0.14927096022310818	-0.24005598270260706	0.0	319.922089	332.44928	-15.477868	-13.873584	-13.724169	-10.290885	0.0		True	0.0	None	0.0	None	0.0	None	0.0	None	0.0	None	0.0	None	0.0	None	0.0	None	7.8862e-07	12
2014-01-17 11:48:00	7.598365942221231	43709056.4991	2.065763701761998e+20	175493585462.48132	0.1252671640293475	10668120466.03154	9.319461817276871e+19	-3.5701587814953903e+22	978.2975349183928	-0.6150402542698111	17.259812491105876	0.0	28.44777016640507	139.64838661723707	146.0464363628058	53.931411299396	-0.0007878437989267137	-9.490081318543978e+21	0.1317677346501461	-0.003549052777037601	1.186733536486755e+22	0.16348802348655456	-0.2044415782890211	0.0	319.925049	332.339691	-15.478457999999998	-13.775209	-13.750509	-10.196311	0.0		True	0.0	None	0.0	None	0.0	None	0.0	None	0.0	None	0.0	None	0.0	None	0.0	None	7.1852e-07	12
2014-01-17 12:00:00	7.66656342539429	44289104.533	1.8950992534881265e+20	192162420192.05554	0.9315246276652402	69943229711.37585	9.648359823065943e+19	-3.5907095628396395e+22	824.8469342435028	-0.6104792204424496	16.90730954068228	1.7341040462427744	29.971433194567016	139.19149799677498	147.00565578660226	52.95049122115507	0.00538453542003029	-8.290691129332615e+21	0.7940107916569846	0.02611994822867297	1.322129503674389e+22	0.1409552783088779	-0.2247835907086842	0.0	319.927979	332.230072	-15.478691	-13.653455	-13.752448	-10.076597	0.0		True	0.0	None	0.0	None	0.0	None	0.0	None	0.0	None	0.0	None	0.0	None	0.0	None	9.0639e-07	12
2014-01-17 12:12:00	7.610560837147447	45609038.19710001	2.103696261349764e+20	187902931543.40973	2.058252212298428	168521172796.93747	1.0003197589837968e+20	-3.722586117244154e+22	880.0309890935962	-0.6145840356984833	18.17996192671943	1.6666666666666667	29.98010161177611	135.5020288443003	142.5734182573439	51.84645862045212	0.011434734512769041	-8.788091009480097e+21	1.838727773033335	0.05590067069221149	1.1809748887521032e+22	0.14508785743525618	-0.19497421693635766	0.0	319.930908	332.120422	-15.48003	-13.555957	-13.755458	-9.981419	0.0		True	0.0	None	0.0	None	0.0	None	0.0	None	0.0	None	0.0	None	0.0	None	0.0	None	1.0294e-06	12
2014-01-17 12:24:00	8.152806679978895	43204169.00660001	2.1590111857526365e+20	185632244437.36047	2.133903140991546	154135041313.3238	9.348943668976678e+19	-3.529014459850405e+22	997.3663276429004	-0.6150567589100168	17.692728697994173	2.4539877300613497	29.350651627039948	139.99589306540713	146.32310030138657	52.6925456349747	0.01309143031283157	-9.196484314744136e+21	1.857197801280055	0.06116334833164424	1.143296861226896e+22	0.16028157153635195	-0.1992602948892474	0.0	319.933777	332.010712	-15.481931	-13.432028	-13.760043	-9.88696	0.0		True	0.0	None	0.0	None	0.0	None	0.0	None	0.0	None	0.0	None	0.0	None	0.0	None	6.3005e-07	12
2014-01-17 12:36:00	8.494095802717968	40462417.547	2.0755236011654955e+20	198685797465.63525	2.4249272755500737	175496863404.2336	9.043536357309048e+19	-3.362892147250146e+22	1001.8220820385492	-0.6258188410315948	18.122265168221137	0.0	27.92637794288955	141.2525108807457	146.81235887669547	51.42427036343285	0.015544405612500471	-7.593745199881705e+21	2.209522265596052	0.07372329452387541	1.0773238960321628e+22	0.1413161235029554	-0.20048504754510044	0.0	319.936584	331.9009700000001	-15.484413	-13.308742	-13.788362	-9.764277	0.0		True	0.0	None	0.0	None	0.0	None	0.0	None	0.0	None	0.0	None	0.0	None	0.0	None	6.286e-07	12
2014-01-17 12:48:00	8.567529672063591	42269720.9478	2.386413449557456e+20	227726304882.1249	1.420570935939146	55579268878.91287	1.0033935903054158e+20	-3.598758503434694e+22	935.9053303428976	-0.6410778692356229	19.650609812914077	2.083333333333333	28.422202946006287	125.61112314721035	131.95504101794302	46.2047013633775	0.007398806958016386	-7.723220270823019e+21	0.5685575909955473	0.040957585929460125	1.1812878092486924e+22	0.1375803791816297	-0.2104329787576455	0.0	319.939392	331.791199	-15.484346	-13.210475	-13.790993	-9.669675	0.0		True	0.0	None	0.0	None	0.0	None	0.0	None	0.0	None	0.0	None	0.0	None	0.0	None	1.4053e-06	12
2014-01-17 13:00:00	5.935559287637267	36783542.4752	1.6576186604811875e+20	139413932773.14694	0.10564096563290026	21418636137.07025	8.228297787448177e+19	-3.033050271926577e+22	866.7815626048554	-0.62088845770627	17.323498762748052	1.3888888888888888	28.80057237918891	123.71023677606026	130.90513170436765	50.05133812867816	0.0007336178168951407	-4.7134550957500216e+21	0.29214717665363005	0.0035436896180309546	1.133315967252978e+22	0.09648801050069886	-0.2319983976245236	0.0	319.942108	331.681366	-15.485994	-13.085822	-13.793751	-9.575839	0.0		True	0.0	None	0.0	None	0.0	None	0.0	None	0.0	None	0.0	None	0.0	None	0.0	None	1.3287999999999999e-06	12
2014-01-17 13:12:00	7.434509990711874	38532544.2658	1.617724765406107e+20	161939016998.48083	2.598454574468045	220188915393.68805	8.476315173716679e+19	-3.5062124575872977e+22	857.8351290577974	-0.6851695906525644	17.087702745502707	1.4084507042253522	27.187940772200626	122.7783290473832	131.09573342330586	47.75139257428607	0.018298975876535527	-7.987343130073794e+21	3.0457134827687184	0.08003387140020334	9.307485501960716e+21	0.15608536815821214	-0.1818830464076155	0.0	319.944794	331.571503	-15.489558	-12.985922	-13.79789	-9.482587	0.0		True	0.0	None	0.0	None	0.0	None	0.0	None	0.0	None	0.0	None	0.0	None	0.0	None	7.996599999999998e-07	12
2014-01-17 13:24:00	7.103950404217763	35676940.571600005	1.551323679530161e+20	170794149490.4779	2.829695794427366	281869618910.30835	7.909771734825091e+19	-3.00229596673714e+22	811.1989630142433	-0.6336557134889481	17.822866305294966	2.083333333333333	29.77450158317	129.25945125407324	137.3701700793865	45.908874170701544	0.01965066523907893	-9.17813621228481e+21	3.844831216017668	0.09710053081659063	7.656524553715427e+21	0.19371103030906728	-0.16159634435384676	0.0	319.94751	331.461609	-15.492385999999998	-12.863859	-13.801282999999998	-9.391244	0.0		True	0.0	None	0.0	None	0.0	None	0.0	None	0.0	None	0.0	None	0.0	None	0.0	None	7.276999999999998e-07	12
2014-01-17 13:36:00	6.289746552575071	35683389.1565	1.2757952278623715e+20	151064638105.86505	2.7622311274642213	258345551413.6689	8.001858205376343e+19	-3.1008511701231304e+22	681.3172681391152	-0.6543383303838112	15.601620895581865	2.127659574468085	27.89248071510355	131.98338737984815	143.03469792924432	43.634870694149015	0.019590291684143408	-8.085096234485551e+21	3.5990108964602054	0.09358356429615323	7.432832942483226e+21	0.17061084459773154	-0.15684685367898962	0.0	319.950043	331.351654	-15.493741	-12.741783	-13.803696	-9.298138	0.0		True	0.0	None	0.0	None	0.0	None	0.0	None	0.0	None	0.0	None	0.0	None	0.0	None	6.9554e-07	12
2014-01-17 13:48:00	7.7962327051826525	40946949.9362	1.680405855138119e+20	190421866076.12466	2.4706569095157827	209262120260.17987	9.156106211871962e+19	-3.4633922999878207e+22	748.712183212295	-0.6368945729055246	16.947351980511833	1.183431952662722	29.45976486008377	132.97099579774428	142.52584841653476	45.846864796428086	0.014619271653939545	-9.796558784654685e+21	2.4322870226203155	0.07372251969724769	8.204503710974845e+21	0.180152133592214	-0.15087531051338	0.0	319.952698	331.2416990000001	-15.493566	-12.641705	-13.805056	-9.204581	0.0		True	0.0	None	0.0	None	0.0	None	0.0	None	0.0	None	0.0	None	0.0	None	0.0	None	7.8795e-07	12
2014-01-17 14:00:00	7.766762877240312	38736189.4744	1.552724659761566e+20	162863972652.46426	4.341546187446148	278221720993.97217	8.170571971016894e+19	-3.3948903200777442e+22	872.5235692682834	-0.6599277134756415	16.307707451515398	1.4925373134328357	26.82947647566363	144.9109631811146	154.13803649161036	54.90918660830928	0.032399598413777216	-8.583177209322374e+21	4.078561138028514	0.13504184071766648	7.449089181679512e+21	0.16684711363442928	-0.14480174402303886	0.0	319.955261	331.131653	-15.495776	-12.518062	-13.833888	-9.111646	0.0		True	0.0	None	0.0	None	0.0	None	0.0	None	0.0	None	0.0	None	0.0	None	0.0	None	7.2538e-06	12
2014-01-17 14:12:00	7.636470548866125	38163621.58150001	1.3945049145574742e+20	173318275307.07092	3.065093142344061	191586961712.4481	8.153075061642635e+19	-3.305893863401948e+22	755.4275707055647	-0.6522692540261162	15.146150538396444	0.7194244604316548	28.47364933428314	144.00316830159426	154.3651112739011	55.351706747212354	0.02205102980103641	-7.233093523727801e+21	2.7075823508417707	0.09721723608455828	6.08381348464629e+21	0.1427125223000372	-0.12003665717146395	0.0	319.957703	331.021606	-15.496807	-12.393907	-13.836922	-8.993423	0.0		True	0.0	None	0.0	None	0.0	None	0.0	None	0.0	None	0.0	None	0.0	None	0.0	None	6.047300000000001e-06	12
2014-01-17 14:24:00	6.568680936281695	33118744.9174	1.524986313156841e+20	142232856677.61325	3.3398609501078567	251575640833.44345	7.1196880831974015e+19	-2.871110161312941e+22	973.131504347736	-0.6527751002678158	17.407482332926858	1.6949152542372878	27.420777359992822	139.47201808535317	148.35375814922418	56.11317959808554	0.028303906356846244	-8.444340964418728e+21	4.188193892483539	0.12203116294350512	6.513672016996301e+21	0.19199038734282967	-0.1480947321806012	0.0	319.960205	330.91149900000005	-15.497383	-12.295758	-13.838505	-8.898547	0.0		True	0.0	None	0.0	None	0.0	None	0.0	None	0.0	None	0.0	None	0.0	None	0.0	None	2.4259e-06	12
2014-01-17 14:36:00	5.156595805035007	30947443.754	1.3160830549911092e+20	126100220769.6238	2.5621973932662625	226274251648.19626	7.002572156565655e+19	-2.65112636441364e+22	805.6858998164822	-0.6450497681709108	16.62310005446777	2.4390243902439024	27.273333030915307	135.07522473840118	144.60057019136298	50.342654892134725	0.020830873115985873	-8.167481089057877e+21	3.6139304409452953	0.10065578890938943	5.426543037702478e+21	0.19872428013073304	-0.13203408088824345	0.0	319.962646	330.801361	-15.474766	-12.172669	-13.841568	-8.803653	0.0		True	0.0	None	0.0	None	0.0	None	0.0	None	0.0	None	0.0	None	0.0	None	0.0	None	2.0482e-06	12
2014-01-17 14:48:00	5.139988603408762	31012765.6996	1.4699369096152112e+20	125521377612.81895	1.3335482991073049	121179971817.5554	7.240313968786746e+19	-2.6522633696093403e+22	858.0183953723273	-0.6439672236990327	16.441025492730372	0.0	26.944593392383307	125.21581055390793	132.35987832461302	49.34345792163637	0.010337583714010116	-9.242663437649884e+21	1.8454420429002407	0.05231245391717878	7.157035195206065e+21	0.22441105893660312	-0.1737721878371367	0.0	319.965027	330.691223	-15.475098	-12.047826	-13.843834	-8.682121	0.0		True	0.0	None	0.0	None	0.0	None	0.0	None	0.0	None	0.0	None	0.0	None	0.0	None	1.5326e-06	12
2014-01-17 15:00:00	5.593576373860804	30408074.4493	1.3464835445399011e+20	135244475612.16885	2.6937880552477225	208023392502.37936	7.0445154376709235e+19	-2.5571636918550868e+22	798.3344027995282	-0.6332236475217936	16.265360151295127	0.7874015748031495	28.19822735098137	124.30240691770436	134.73526217295216	45.43977942839194	0.021210929568879704	-7.490857466319413e+21	3.2179327659645485	0.10848228870410084	5.94366978371879e+21	0.18549411220709	-0.14718151489868594	0.0	319.967438	330.581024	-15.475443	-11.952189	-13.847385999999998	-8.586314999999999	0.0		True	0.0	None	0.0	None	0.0	None	0.0	None	0.0	None	0.0	None	0.0	None	0.0	None	1.2655e-06	12
2014-01-17 15:12:00	6.330534063762742	31291143.4242	1.486893827646545e+20	144400908847.31534	1.2605728714101994	60172826937.75493	7.167688273328542e+19	-2.5824093868265717e+22	874.6966437151086	-0.6214284464517661	16.994105097394222	0.0	28.195981353711534	121.79202264228468	127.50850452135124	53.51122835005082	0.009848225557892179	-8.168272933283336e+21	0.9235663213174842	0.04969111375457675	6.19735525142234e+21	0.19656051379839434	-0.14913254519778887	0.0	319.969757	330.4707640000001	-15.477713	-11.860625	-13.850589	-8.495726	0.0		True	0.0	None	0.0	None	0.0	None	0.0	None	0.0	None	0.0	None	0.0	None	0.0	None	1.079e-06	12
2014-01-17 15:24:00	6.168454327435522	34482535.4258	1.5185923857914305e+20	137778623801.0288	2.2189492267989275	155506128125.61716	7.604161689430773e+19	-3.1242873812993545e+22	900.3783817853906	-0.6822434041145976	17.517021897099692	2.3622047244094486	26.282009085953412	120.89424504264193	128.92840996425218	51.056597036845744	0.01747204115589707	-7.95469769842152e+21	2.4056392700269416	0.07650491472822171	5.764366611713298e+21	0.173704892480685	-0.12587513950474827	0.0	319.972015	330.360504	-15.478013	-11.766281	-13.87641	-8.401247999999999	0.0		True	0.0	None	0.0	None	0.0	None	0.0	None	0.0	None	0.0	None	0.0	None	0.0	None	1.8622e-06	12
2014-01-17 15:36:00	6.659849353706617	35675981.1538	1.5895753534815135e+20	148030949217.25034	1.831997449436021	124743710897.87994	7.69682535078957e+19	-3.2609150403044203e+22	965.2660490711161	-0.6882578191345585	17.235339164831046	0.0	25.0730395359155	118.50159780733247	125.14907294508869	56.495459127105725	0.01477417297932275	-8.17033538687101e+21	1.9764803203451984	0.060833130314624013	8.263067556469522e+21	0.17244537638861002	-0.1744026074118853	0.0	319.974304	330.250214	-15.479182000000002	-11.670371	-13.878544	-8.305214	0.0		True	0.0	None	0.0	None	0.0	None	0.0	None	0.0	None	0.0	None	0.0	None	0.0	None	1.5105000000000004e-06	12
2014-01-17 15:48:00	6.446858358816434	37760055.065	1.652251969894805e+20	137556922123.66815	0.3510379858655527	35042098623.767136	7.885214581054326e+19	-3.3167348808817773e+22	995.2995588479973	-0.6614022765329355	16.177165122042652	1.6	26.58179232721025	145.92008846237897	153.0084880698237	58.38961274934341	-0.002808303886924421	-7.232062722907658e+21	-0.5507875217503414	-0.011191200834777044	8.292299171727977e+21	0.14421721725579795	-0.16535978143706664	0.0	319.9765930000001	330.13989300000014	-15.481544	-11.576665	-13.88055	-8.184974	0.0		True	0.0	None	0.0	None	0.0	None	0.0	None	0.0	None	0.0	None	0.0	None	0.0	None	1.1418e-06	12
2014-01-17 16:00:00	6.134486477088761	35411694.352	1.500694288384518e+20	132777748683.97025	1.5350554406553798	161562473348.2171	7.637649578370338e+19	-3.1390206072643828e+22	889.7663944588421	-0.6674749169031232	15.572399337659506	0.0	26.37056648140703	133.3445372643435	139.32419824290332	52.90015094342282	0.01208705071382189	-8.656995025974866e+21	2.4994760259283293	0.05199337916625348	7.41272891403147e+21	0.1840805702970222	-0.1576227503721452	0.0	319.978729	330.029541	-15.485168	-11.481978	-13.883817	-8.092822	0.0		True	0.0	None	0.0	None	0.0	None	0.0	None	0.0	None	0.0	None	0.0	None	0.0	None	1.255e-06	12
2014-01-17 16:12:00	5.453737474333533	34785009.4717	1.4340478028179156e+20	125926658696.27832	1.4380502725213506	93377827136.75644	7.764469878565922e+19	-2.9656511801356683e+22	799.8663404991431	-0.6419711383453204	16.348111368532447	0.7407407407407408	27.594954793456	121.14747711246586	129.24398448511377	52.04608849938825	0.010652224240898898	-8.07884634505271e+21	1.3590337466219262	0.0503554428111736	8.481287769635769e+21	0.17488186808312234	-0.18359347183434568	0.0	319.980957	329.919159	-15.487176000000002	-11.358593	-13.885921	-8.000002	0.0		True	0.0	None	0.0	None	0.0	None	0.0	None	0.0	None	0.0	None	0.0	None	0.0	None	8.9898e-06	12
2014-01-17 16:24:00	4.5692477113777645	29606759.6144	1.2145440617087482e+20	115006611553.21825	1.5751941670575094	125676292426.80055	7.082593174287665e+19	-2.5042053035015537e+22	703.4892002287703	-0.6368931317099876	15.537642112275885	0.0	27.52114869854741	107.42016379324929	114.56146144580241	47.44090935698486	0.012116878208134688	-8.465014068135835e+21	1.8994937160352143	0.06500591664341222	7.052923802614662e+21	0.21529022849227386	-0.17937661589000695	0.0	319.9831240000001	329.808777	-15.48939	-11.263613	-13.887807	-7.906441	0.0		True	0.0	None	0.0	None	0.0	None	0.0	None	0.0	None	0.0	None	0.0	None	0.0	None	2.4844e-06	12
2014-01-17 16:36:00	4.313980820702692	27031878.9638	8.936652588316253e+19	103061409254.50377	1.56341236979148	158178220391.28894	6.102467218269166e+19	-2.219533045675962e+22	634.8286772845275	-0.6182625039266084	12.49831053682662	0.0	27.76745881802681	131.21060336804894	141.3881373403575	50.20763971668688	0.01474917329991962	-7.444571026647525e+21	2.932081308051088	0.07147897791569324	5.259119959829313e+21	0.20737240801894985	-0.14649552891987785	0.0	319.98526	329.698364	-15.491326999999998	-11.140285	-13.861547	-7.813664	0.0		True	0.0	None	0.0	None	0.0	None	0.0	None	0.0	None	0.0	None	0.0	None	0.0	None	1.8456e-06	12
2014-01-17 16:48:00	5.778947475510795	34907378.0476	1.7940568744332027e+20	130164572024.88538	1.296863875188218	125785521007.98125	7.76546364053701e+19	-2.8957111381778206e+22	978.9141046123692	-0.624633788400476	17.635460320417852	0.7246376811594203	28.46545451437624	120.65156296496876	125.06425022710172	55.21050444806625	0.0093975643129581	-8.316359003114534e+21	1.790992048163699	0.04573531534506554	7.513131851098878e+21	0.17939216247524895	-0.16206575127715608	0.0	319.987427	329.587921	-15.492929	-11.043355	-13.862814000000002	-7.716031	0.0		True	0.0	None	0.0	None	0.0	None	0.0	None	0.0	None	0.0	None	0.0	None	0.0	None	1.2145e-06	12
2014-01-17 17:00:00	4.113258862345488	26243082.5021	1.4445525790931354e+20	103112879626.36418	1.2578210524446545	103212897587.1545	5.902453983739761e+19	-2.1458224383264398e+22	1035.9328845408188	-0.6156962395483472	17.844264800644513	3.8095238095238098	28.666588533075824	131.8705762402674	135.9582502605299	55.950789129917844	0.011979248118520521	-7.668905629115601e+21	1.93149436725898	0.05932999272252521	6.5275821600191e+21	0.22004226784860006	-0.18729451782604734	0.0	319.989532	329.477478	-15.494857	-10.919249	-13.838521	-7.594769	0.0		True	0.0	None	0.0	None	0.0	None	0.0	None	0.0	None	0.0	None	0.0	None	0.0	None	1.0018e-06	12
2014-01-17 17:12:00	5.300684380945915	31733506.1865	1.3622584873005182e+20	118375085735.935	0.4744860420254467	66961573104.3902	6.9694468297830334e+19	-2.7335726920963258e+22	861.9858440332538	-0.6486346436895324	15.56727657826313	1.680672268907563	27.52441140612278	136.41660266043758	142.96595796043437	54.32990907693753	0.003987277664079384	-7.054530755246483e+21	1.1056906968932263	0.018138900394993388	5.768830501988587e+21	0.1673931355861272	-0.13688545133559665	0.0	319.991608	329.367004	-15.497344	-10.823554	-13.84024	-7.498844	0.0		True	0.0	None	0.0	None	0.0	None	0.0	None	0.0	None	0.0	None	0.0	None	0.0	None	8.5265e-07	12
2014-01-17 17:24:00	6.011564637944063	32346927.4884	1.4586178673480113e+20	150520604833.56073	1.5458226632625425	153101501519.50424	7.32435834250532e+19	-2.6606617101413487e+22	825.804788498234	-0.6193613967256887	16.53892427170693	1.5037593984962403	28.981237021342093	127.64109509709598	136.5553857358823	44.199181277981644	0.011622726791447687	-7.511146589696743e+21	2.2619785586021988	0.05902185417550077	6.691223803076158e+21	0.17484801713325746	-0.15576146733277318	0.0	319.993713	329.2565	-15.499776	-10.704316	-13.839916	-7.375835	0.0		True	0.0	None	0.0	None	0.0	None	0.0	None	0.0	None	0.0	None	0.0	None	0.0	None	7.8708e-07	12
2014-01-17 17:36:00	3.508060874118253	26617065.961100005	1.1083870715836424e+20	76855800157.5901	1.0279263410809587	103136557326.81216	5.532013560866684e+19	-2.274111135678915e+22	948.4104512410437	-0.6433377795932067	15.877942711994455	1.1363636363636365	27.245165121790233	134.68111327589702	144.5371532659165	49.30121499911207	0.011680981148647258	-6.521074735338432e+21	2.303011000631378	0.047000769729318326	5.773799884260813e+21	0.18447883548758628	-0.16333870139758735	0.0	319.995789	329.146027	-15.501265	-10.612817	-13.84109	-7.283264	0.0		True	0.0	None	0.0	None	0.0	None	0.0	None	0.0	None	0.0	None	0.0	None	0.0	None	6.8197e-07	12
2014-01-17 17:48:00	4.498039371701489	26172725.6823	1.115693252355966e+20	93458672050.4631	0.9310471017731314	66521275077.72302	5.570934486109146e+19	-2.299006750349654e+22	965.6352483187308	-0.6614223249589619	15.081079176478292	0.0	26.59321962615911	128.90587200312171	134.98514440753274	52.48066781956338	0.010701690824978523	-6.09714642930266e+21	1.5024923059130224	0.04282256260701202	5.925632911296217e+21	0.17541439433665235	-0.17047996472593208	0.0	319.997833	329.035522	-15.503493	-10.519332	-13.843012	-7.16086	0.0		True	0.0	None	0.0	None	0.0	None	0.0	None	0.0	None	0.0	None	0.0	None	0.0	None	6.5872e-07	12
2014-01-17 18:00:00	4.858274634625227	28994172.2969	1.061099334750234e+20	99835598915.31827	1.1992814335191242	98489352260.20534	5.788624322289414e+19	-2.496341440785681e+22	907.947969631422	-0.6483072266184249	13.57959936872764	0.0	27.984716767088628	158.77406532296197	168.0201794969804	60.06694421051264	0.013628198108171868	-5.359592462379956e+21	2.1992875158844885	0.05018827024995349	6.331153447222602e+21	0.13919019523214635	-0.16442192023911334	0.0	319.999908	328.925018	-15.506023999999998	-10.425056	-13.818363	-7.03764	66560.0		False	0.0	None	0.0	None	0.0	None	0.0	None	0.0	None	0.0	None	0.0	None	0.0	None	6.0183e-07	12
2014-01-17 18:12:00	3.8203752232778174	22397951.1254	9.28998991259344e+19	83689633804.73065	1.7740288993359763	149502903207.4748	4.678087665357128e+19	-1.9279007379602102e+22	932.6988324467776	-0.6481325473532904	15.381925078534586	0.0	27.094009743514643	135.0193481564768	137.86563131798113	58.385608234233246	0.02365371865781302	-6.027274578782796e+21	3.9171262297134763	0.0961147979714789	6.227714191333038e+21	0.20262831739342627	-0.2093668093766881	0.0	320.001923	328.814484	-15.509746	-10.330287	-13.81946	-6.94425	66560.0		False	0.0	None	0.0	None	0.0	None	0.0	None	0.0	None	0.0	None	0.0	None	0.0	None	6.163e-07	12
2014-01-17 18:24:00	3.6527469439774842	22264329.7035	1.257196957787456e+20	87539941537.19203	1.037331491322433	38139391077.554634	4.905413395058384e+19	-1.8266297541947728e+22	1088.1069996205383	-0.6177723098907306	19.53344553421675	1.1494252873563218	29.17421504317412	124.67458470554493	127.54318560904952	51.645079173003	0.011923350474970494	-5.761009804557586e+21	0.8614642076488261	0.05759974168111095	5.689676372820645e+21	0.19483928399237024	-0.1924267634038184	0.0	320.003967	328.703979	-15.511844	-10.205773	-13.821653	-6.820442	0.0		True	0.0	None	0.0	None	0.0	None	0.0	None	0.0	None	0.0	None	0.0	None	0.0	None	6.5664e-07	12
2014-01-17 18:36:00	3.2134868106728236	21485123.3042	1.0744114961035583e+20	76667588771.66956	0.6856918728842627	43738544125.773926	4.790049751862038e+19	-1.8071526212998508e+22	951.7859651036998	-0.6333511408026188	19.132314189532057	0.0	27.905380466604967	115.59770801824413	126.1844555174934	39.274002856056974	-0.00806696321040309	-5.533161340280029e+21	-1.0111861710754382	-0.03907883309252648	5.053291126578234e+21	0.1939202038503328	-0.1771022359762846	0.0	320.006042	328.5934450000001	-15.513464	-10.111635	-13.822992	-6.726767	0.0		True	0.0	None	0.0	None	0.0	None	0.0	None	0.0	None	0.0	None	0.0	None	0.0	None	6.6544e-07	12
2014-01-17 18:48:00	4.320210085819621	21882303.404900003	1.027253577354516e+20	91901380775.63893	0.8099399992115499	38943989447.16353	4.750938035191449e+19	-1.8502228240108119e+22	979.1249121910284	-0.636676071997991	17.331413724977914	0.0	27.433452004618267	133.23779466759194	141.05733891746848	51.477450746654576	0.010252405053310758	-6.287765561683316e+21	0.9687271287421344	0.04523005069044853	5.120537740756317e+21	0.21636690605614226	-0.1762016884125924	0.0	320.008087	328.4829410000001	-15.515951	-9.989141	-13.825205	-6.604945	0.0		True	0.0	None	0.0	None	0.0	None	0.0	None	0.0	None	0.0	None	0.0	None	0.0	None	6.7016e-07	12
2014-01-17 19:00:00	5.744233866866527	24095852.2791	1.0871398514865449e+20	121599003864.47568	1.3085236042198718	73238909089.2673	5.47633376000037e+19	-2.1384425143224058e+22	861.6866823898575	-0.6682559865569291	16.985659637880936	3.1578947368421053	27.680701566342425	134.82344095994358	142.9165216790568	52.87358314244642	0.01377393267599865	-7.449083572038233e+21	1.5149849996605391	0.06510383514702504	1.0939091562061728e+21	0.2327813190224913	-0.034184287746254635	0.0	320.010132	328.372437	-15.518435	-9.893579	-13.827420000000002	-6.510751	0.0		True	0.0	None	0.0	None	0.0	None	0.0	None	0.0	None	0.0	None	0.0	None	0.0	None	6.8861e-07	12
2014-01-17 19:12:00	5.30189556810713	28033074.356	9.001200938131053e+19	110060683510.16266	1.9570509257536228	119307395970.09975	5.677043485337058e+19	-2.294766697853333e+22	706.0195188901407	-0.6163895877621308	14.57903112944488	1.0416666666666663	30.47278231061339	149.5655402181711	157.72582119034598	49.31615747562786	0.020385947143266903	-8.376355926517427e+21	2.4422353233497893	0.08638042756370277	1.2198665734323708e+21	0.22499448773266764	-0.032766426976048084	0.0	320.012238	328.261932	-15.522254	-9.769155	-13.803156	-6.388312	0.0		True	0.0	None	0.0	None	0.0	None	0.0	None	0.0	None	0.0	None	0.0	None	0.0	None	6.871299999999999e-07	12
2014-01-17 19:24:00	2.8724965227495964	18005645.9123	7.122684152539542e+19	64665841168.25031	0.34297915932889034	36829004641.59389	3.788724799681529e+19	-1.4302697091785338e+22	838.0139801509764	-0.5981316547463026	16.094632857375018	0.0	29.372727086208844	148.7980499311769	157.26052877852786	46.05449061525822	0.0053590493645139115	-5.973968872120028e+21	1.1308429797215451	0.023838365157700558	2.3289063380913703e+21	0.24982839697670106	-0.0973937008392494	0.0	320.014282	328.1514279999999	-15.525356	-9.648377	-13.805979	-6.296329	0.0		True	0.0	None	0.0	None	0.0	None	0.0	None	0.0	None	0.0	None	0.0	None	0.0	None	2.0273e-06	12
2014-01-17 19:36:00	4.450821133669142	23362486.5685	1.0278775094447351e+20	110518299526.80124	2.2965608181763324	179881787852.83054	5.249842006755191e+19	-1.790014075765524e+22	781.7964087511339	-0.5769323393115771	18.015773097988525	2.0202020202020203	30.73694870407348	129.50073900606586	138.0794855879294	46.219695041789706	0.023197584021983155	-7.671036783272937e+21	3.5706277099221424	0.12467397957529365	2.374012728419952e+21	0.24724214497732994	-0.07651586294800697	0.0	320.016357	328.040955	-15.528373	-9.554512	-13.808724	-6.174695	0.0		True	0.0	None	0.0	None	0.0	None	0.0	None	0.0	None	0.0	None	0.0	None	0.0	None	3.9611e-06	12
2014-01-17 19:48:00	5.234207876894429	26567574.1915	1.4251861518037798e+20	116000141803.85307	0.3947404807890519	36723987461.020485	5.657493722339899e+19	-2.298345720513553e+22	1129.6282526238085	-0.6514048859770171	18.758930234696887	2.1052631578947367	27.530279790356392	135.0903367717413	144.3282420829087	48.73478928932169	-0.0041551629556742286	-8.400233781366005e+21	-0.7596589037542579	-0.017994351270922658	3.91722448547182e+21	0.23808225541057115	-0.11102329586581897	0.0	320.018494	327.930481	-15.531164000000002	-9.428797	-13.811257	-6.051725	0.0		True	0.0	None	0.0	None	0.0	None	0.0	None	0.0	None	0.0	None	0.0	None	0.0	None	6.3861e-06	12
2014-01-17 20:00:00	3.9514520018771786	22215825.8786	1.1259436999354766e+20	88838264669.72406	1.055519694379762	75348255430.51204	4.8738349457726276e+19	-1.894789523932768e+22	1009.3108547009098	-0.6422233132707246	18.57002733864085	1.1904761904761905	27.915556599551447	122.98123752249896	132.31834739189944	45.940685559659755	0.01256571064737812	-6.911887455972708e+21	1.7627290522064392	0.0578630951338746	3.4594349287474363e+21	0.2342727361989921	-0.11725469947571253	0.0	320.020569	327.820007	-15.561117	-9.334299	-13.811514	-5.957722	0.0		True	0.0	None	0.0	None	0.0	None	0.0	None	0.0	None	0.0	None	0.0	None	0.0	None	7.149800000000001e-06	12
2014-01-17 20:12:00	5.1588152686688415	23409102.19560001	9.711971819592134e+19	113541546579.67854	1.1747841565834485	48297351208.26465	5.155414838928701e+19	-2.2458162995568688e+22	881.0828745687277	-0.7223986250774945	16.036614972090934	1.2048192771084338	23.39332650531861	124.23400471179876	133.54629594056965	48.985118415449726	0.014154025982933112	-5.038219446668475e+21	1.1434981203283034	0.058273304837653236	3.3524880167372037e+21	0.16206146521557202	-0.10783752590795576	0.0	320.022675	327.709564	-15.563655	-9.211913	-13.813803	-5.836672	0.0		True	0.0	None	0.0	None	0.0	None	0.0	None	0.0	None	0.0	None	0.0	None	0.0	None	7.1532e-06	12
2014-01-17 20:24:00	4.050638416948232	21328397.131	1.0963005935556564e+20	100993148806.45682	1.8453582702690243	184744485226.438	4.636606507132239e+19	-1.7910145660895134e+22	982.7380890363032	-0.6323074880014528	20.608442828340568	7.142857142857142	30.059651984727502	132.96390429077846	142.12037500233424	50.322572105469376	0.02196855083653601	-5.647006886812383e+21	4.321958417346949	0.1060108946573558	1.0366762378327363e+21	0.19936436067761068	-0.036599263915872184	0.0	320.0248410000001	327.599152	-15.568117	-9.087503	-13.817348999999998	-5.742433	0.0		True	0.0	None	0.0	None	0.0	None	0.0	None	0.0	None	0.0	None	0.0	None	0.0	None	5.8519000000000015e-06	12
2014-01-17 20:36:00	4.288589869457917	22088899.6396	1.1708677105501938e+20	105648933173.23804	0.3253488250480601	37497925910.29385	5.19036211388899e+19	-1.90923409639694e+22	968.8440882553073	-0.6508374819552729	16.633597170265254	0.0	26.48233846132236	117.5463599699536	127.62233802518057	46.605025879349405	0.0035752618137149467	-6.506029174341566e+21	0.8097517669949574	0.0178443542127335	3.420408926256436e+21	0.22178357558913306	-0.11659808176604305	0.0	320.026978	327.488739	-15.569762	-8.967541	-13.819099	-5.623461	0.0		True	0.0	None	0.0	None	0.0	None	0.0	None	0.0	None	0.0	None	0.0	None	0.0	None	4.0112e-06	12
2014-01-17 20:48:00	4.498605200391103	21616408.7315	1.1159627034308356e+20	118629718384.73164	1.7923727540821666	157161747761.94034	4.996515273608883e+19	-1.813424420401046e+22	913.3754324139034	-0.6316891090425115	18.191712355953204	3.260869565217391	29.273507862832503	124.39107940898501	134.2059053712122	46.43018119904261	0.019482312544371376	-4.958571572254381e+21	3.356929283768466	0.10163361444705477	4.324474180029138e+21	0.17272711359584425	-0.15063893543772947	0.0	320.029144	327.378357	-15.572003	-8.873377	-13.821444	-5.502786	0.0		True	0.0	None	0.0	None	0.0	None	0.0	None	0.0	None	0.0	None	0.0	None	0.0	None	2.733e-06	12
2014-01-17 21:00:00	4.957466723797552	25259517.2787	1.236517142357783e+20	109851444348.36838	1.050984297487841	66914402654.35444	5.712184348623827e+19	-2.3698641403801726e+22	990.5121591062907	-0.7064573142633861	18.727620054764017	1.0638297872340423	24.449802639964517	108.657169169528	116.96197362598805	52.26867852420082	0.011180684015828096	-5.544334899354793e+21	1.3988513075374711	0.04876472137166983	3.669422050123463e+21	0.16527681379011924	-0.1093855973538304	0.0	320.0314029999999	327.268005	-15.57421	-8.747695	-13.823761	-5.405375	0.0		True	0.0	None	0.0	None	0.0	None	0.0	None	0.0	None	0.0	None	0.0	None	0.0	None	1.8634e-06	12
2014-01-17 21:12:00	3.749185796982162	25372692.7191	1.0444280767557196e+20	86086186895.57486	0.9135856118793776	39145670209.15648	5.672933826535562e+19	-2.2806375048996964e+22	827.8323013791968	-0.6768261617960881	15.555117003066776	1.0526315789473684	25.59640249162313	132.86061096750822	140.46508255742026	58.24681720778424	0.00961669065136187	-3.810421093969391e+21	0.8097219414870784	0.042946190458779135	4.247483048436009e+21	0.11308209561219065	-0.12605280947939718	0.0	320.0336	327.157654	-15.576795	-8.624642999999999	-13.826443	-5.284235	0.0		True	0.0	None	0.0	None	0.0	None	0.0	None	0.0	None	0.0	None	0.0	None	0.0	None	1.3247e-06	12
2014-01-17 21:24:00	2.54575829565141	15696856.6451	7.256608190145298e+19	61528928506.756485	0.04823284946733708	21635517707.697044	3.48915855016567e+19	-1.3181808243524812e+22	895.7592738550334	-0.6323387132797992	15.778154345077722	1.639344262295082	27.809053513978714	130.69432776048774	139.87149677043612	65.4126084527976	-0.0007907024502842142	-3.4968564883298766e+21	0.6969615766726782	-0.00376486963506909	2.872147622797689e+21	0.16774616133873888	-0.13777852769491367	0.0	320.035858	327.047363	-15.579484	-8.529466000000001	-13.828925	-5.189991	0.0		True	0.0	None	0.0	None	0.0	None	0.0	None	0.0	None	0.0	None	0.0	None	0.0	None	1.057e-06	12
2014-01-17 21:36:00	2.688412817436645	19444048.1114	9.07721968934646e+19	63428998420.500885	0.4786088968804974	16330586135.435675	4.348785194384814e+19	-1.6496741185554274e+22	911.3372016780042	-0.6388501333072257	16.72131936626738	0.0	28.28694204218862	123.22591251711023	132.13343718039022	51.61560738860579	-0.006381451958406632	-4.558178918289047e+21	-0.4278652321528391	-0.030038956041580987	3.290191258033593e+21	0.17651930019591344	-0.12741541496945094	0.0	320.038177	326.937073	-15.580504	-8.405755000000001	-13.830062	-5.068132	0.0		True	0.0	None	0.0	None	0.0	None	0.0	None	0.0	None	0.0	None	0.0	None	0.0	None	8.7154e-07	12
