Timestamp	TOTUSJH	TOTBSQ	TOTPOT	TOTUSJZ	ABSNJZH	SAVNCPP	USFLUX	TOTFZ	MEANPOT	EPSZ	MEANSHR	SHRGT45	MEANGAM	MEANGBT	MEANGBZ	MEANGBH	MEANJZH	TOTFY	MEANJZD	MEANALP	TOTFX	EPSY	EPSX	R_VALUE	CRVAL1	CRLN_OBS	LAT_MIN	LON_MIN	LAT_MAX	LON_MAX	QUALITY	NOAA_AR	IS_TMFI	BFLARE	BFLARE_label	CFLARE	CFLARE_label	MFLARE	MFLARE_label	XFLARE	XFLARE_label	BFLARE_loc	BFLARE_label_loc	CFLARE_loc	CFLARE_label_loc	MFLARE_loc	MFLARE_label_loc	XFLARE_loc	XFLARE_label_loc	XR_MAX	XR_QUAL
2014-01-14 16:48:00	95.13555874181674	582042320.7275	4.540734815497673e+21	1857862363843.181	15.380322184979903	501479665266.5311	8.507796582116768e+20	-3.193702092628482e+23	2367.8076314504005	-0.4131686004724191	26.343532904472212	13.019390581717452	42.10702965424896	155.35793257165545	154.39545425317084	81.30171651844789	-0.010651192648878049	1.386039588803964e+23	0.6826437319723858	-0.03739787157646703	7.579157832176098e+22	-0.17931166417409436	-0.09805141317055366	0.0	4.099572	9.091672	4.121297	-9.932099	9.154794	0.5169729999999999	0.0	11954.0	True	0.0	None	0.0	None	0.0	None	0.0	None	0.0	None	0.0	None	0.0	None	0.0	None	8.1178e-07	12
2014-01-14 17:00:00	98.70467920000866	597408905.5552	4.7155968228064986e+21	1933610844158.7827	15.904011819919472	771361173817.9388	8.59854700121543e+20	-3.271706161679513e+23	2493.5280732850906	-0.4123729642022168	26.26621722024843	14.185393258426965	42.158413528798974	157.36864881992685	155.8796873330561	83.82974387890155	-0.011168547626347943	1.389026984242808e+23	1.0647861325771966	-0.0376977645392053	7.506471198032928e+22	-0.17507598376592298	-0.09461319646879178	0.0	4.102307	8.981207000000003	4.12095	-9.811336	9.153699	0.6361180000000001	0.0	11954.0	True	0.0	None	0.0	None	0.0	None	0.0	None	0.0	None	0.0	None	0.0	None	0.0	None	7.387600000000002e-07	12
2014-01-14 17:12:00	97.23532646496216	599564970.9573001	4.862378224399897e+21	1847281414850.075	15.167002467561192	306428499447.4109	8.382265292524167e+20	-3.228103210158675e+23	2651.2003696565453	-0.4054139164697985	27.254592440635967	14.989138305575668	43.48557704332074	158.50480699329594	156.22963425760344	87.3784033094473	-0.010982623075714116	1.4464671189096965e+23	0.4361703172065641	-0.035998901769882734	7.755056316921365e+22	-0.181660207727107	-0.09739489567721722	0.0	4.1049760000000015	8.870726	4.120196	-9.718391	9.152274	0.755656	0.0	11954.0	True	0.0	None	0.0	None	0.0	None	0.0	None	0.0	None	0.0	None	0.0	None	0.0	None	8.6958e-07	12
2014-01-14 17:24:00	91.40816056477892	589484165.9009	4.796230930916288e+21	1745370484630.8364	15.08561145649806	276906802872.52313	8.182716544055501e+20	-3.0902333944168e+23	2689.128830403178	-0.3947359431089763	27.312256373346177	13.402829486224869	43.27531740652841	161.53123870740615	160.4407981594071	89.3410577736879	-0.011232771002604659	1.408579580059888e+23	0.2755266174625405	-0.03669684913509498	7.444719360057455e+22	-0.17992718284112622	-0.09509632259761842	0.0	4.10768	8.76023	4.118464	-9.598848	9.149783	0.873658	0.0	11954.0	True	0.0	None	0.0	None	0.0	None	0.0	None	0.0	None	0.0	None	0.0	None	0.0	None	8.1366e-07	12
2014-01-14 17:36:00	98.60893062257216	597382097.539	4.555547466998151e+21	1881758904361.5552	18.919521938009275	781672750641.6235	8.581244779175493e+20	-3.253464285779293e+23	2469.595612567957	-0.4100920543183945	25.1639694096422	10.007199424046076	41.150618783774576	160.93803643152373	160.735537739025	87.6178801587937	-0.013620966118077232	1.428379588525858e+23	0.7315147714213601	-0.04492007629129122	6.548414782868508e+22	-0.1800441216967977	-0.08254133547964397	1.3942784391145726	4.110323	8.649723	4.1150699999999985	-9.478581	9.145604	0.992343	0.0	11954.0	True	0.0	None	0.0	None	0.0	None	0.0	None	0.0	None	0.0	None	0.0	None	0.0	None	7.278700000000002e-07	12
2014-01-14 17:48:00	98.74460339705703	616455880.2056999	4.758205840693039e+21	1878009369718.1216	18.351723195996136	763789724991.9409	8.715798828016186e+20	-3.385661425006318e+23	2681.786573195764	-0.4135508999687579	24.93732328980261	9.73053892215569	39.47168096516376	168.48474386488746	168.73817860349848	90.57934942038663	-0.013736319757482138	1.4588761260496145e+23	1.1050548615284543	-0.04212048804860847	6.878159627401057e+22	-0.17819842539914552	-0.08401516711125878	1.5501551036895018	4.113006	8.539206	4.115238	-9.357369	9.145154	1.112124	0.0	11954.0	True	0.0	None	0.0	None	0.0	None	0.0	None	0.0	None	0.0	None	0.0	None	0.0	None	7.104600000000002e-07	12
2014-01-14 18:00:00	101.70293892886835	614946699.4021	4.6729320255248096e+21	1848226063109.805	16.039020740779804	670367684223.0328	8.466865342180942e+20	-3.441141132544119e+23	2805.946785826406	-0.42135923153670185	24.743512822964483	10.047846889952151	39.81437684604442	169.8464723561986	171.83185896846226	92.46756218804238	-0.012790287672073207	1.4458298999057875e+23	1.0508879912307552	-0.036700038112199684	7.520041843201969e+22	-0.17703829982314112	-0.09208105480500224	1.5426128045732033	4.115682	8.428681	4.115108	-9.264424	9.117599	1.23116	66560.0	11954.0	False	0.0	None	0.0	None	0.0	None	0.0	None	0.0	None	0.0	None	0.0	None	0.0	None	7.1743e-07	12
2014-01-14 18:12:00	104.80920317120831	633471958.8534	4.725445065140232e+21	1945172762609.3984	22.98923740440525	919678585823.1508	8.707818923675893e+20	-3.53940135351841e+23	2649.440967943187	-0.4207169009984183	25.040953651834034	11.764705882352938	41.522788470738675	168.15659431768574	170.99827946009555	90.31142354202288	-0.01711782383053258	1.4965208419727406e+23	1.0654599429530107	-0.05108808439921809	6.248271578221534e+22	-0.17788646949813633	-0.07427113210466219	0.0	4.1183510000000005	8.318151	4.113464	-9.143606	9.115221	1.350578	66560.0	11954.0	False	0.0	None	0.0	None	0.0	None	0.0	None	0.0	None	0.0	None	0.0	None	0.0	None	7.103699999999998e-07	12
2014-01-14 18:24:00	115.16476134552305	676656520.5952	5.026597019618212e+21	2130949752760.3845	29.204958745380893	1341863365747.5403	9.264015451818019e+20	-3.768304654230273e+23	2617.539788333277	-0.4193389959520519	24.930102838224602	12.517289073305669	41.625489576501415	166.67924120161587	170.31973684415502	88.48349215078933	-0.020197066905519284	1.5200100180496064e+23	1.8242665179191149	-0.06081800730838265	5.437723355154832e+22	-0.16914754333634946	-0.06051128189584828	0.0	4.121017	8.207618	4.112262	-9.02395	9.113251	1.468897	0.0	11954.0	True	0.0	None	0.0	None	0.0	None	0.0	None	0.0	None	0.0	None	0.0	None	0.0	None	1.1816e-06	12
2014-01-14 18:36:00	106.92500273442428	649336198.7443001	4.777971872718146e+21	1933410638856.5369	28.210377287276145	1348847338255.5815	8.865725879653221e+20	-3.616586414945485e+23	2651.2530327289332	-0.4193886467289615	24.036062523558932	9.727339719970523	41.20757624810405	168.74454274858462	173.11539558285824	88.30304960910402	-0.02078878208347542	1.4870896940244618e+23	1.9540429931176084	-0.061216422920555534	5.496019979949443e+22	-0.17244673921358664	-0.06373325886148015	0.0	4.123684	8.097083999999999	4.109393	-8.904202	9.109589	1.587281	0.0	11954.0	True	0.0	None	0.0	None	0.0	None	0.0	None	0.0	None	0.0	None	0.0	None	0.0	None	1.2014e-06	12
2014-01-14 18:48:00	112.85916208290705	662932477.8271	4.932011056102452e+21	2051687497375.6367	23.100828547736352	1061729839835.7885	9.06550716422168e+20	-3.70100294012871e+23	2602.4812020386066	-0.4203757613229849	26.010609663309445	13.384723195515068	42.15254311995026	163.12661065445084	166.9480939570518	85.07286706582154	-0.016188387209345727	1.4176437220370946e+23	1.462661288034444	-0.04906649139145405	5.883292078323648e+22	-0.16102204418010233	-0.06682495060176255	0.0	4.1263510000000005	7.986550999999999	4.108649	-8.784571000000001	9.10783	1.675847	0.0	11954.0	True	0.0	None	0.0	None	0.0	None	0.0	None	0.0	None	0.0	None	0.0	None	0.0	None	1.1098e-06	12
2014-01-14 19:00:00	117.42745462185532	651444000.1842	4.588596082453929e+21	2006666729353.1768	29.76138020968843	1777032250132.772	8.812760798637602e+20	-3.884469672508426e+23	2663.9577812986568	-0.4489956468582028	23.954479880518214	11.025443330763302	40.21083874558872	173.17790281748452	176.3624049263102	86.59157959403576	-0.02294632244386155	1.4580127721851038e+23	2.693462613025902	-0.0630578115764314	5.9093236297682645e+22	-0.16852786685602625	-0.06830431974846392	0.0	4.129022	7.8760210000000015	4.107835	-8.691371	9.105264	1.795552	0.0	11954.0	True	0.0	None	0.0	None	0.0	None	0.0	None	0.0	None	0.0	None	0.0	None	0.0	None	1.036e-06	12
2014-01-14 19:12:00	114.51867199084595	626137466.6159	4.4773147038127877e+21	1987069835941.192	28.859845393546976	1419602212293.714	8.487904124851142e+20	-3.717197167176182e+23	2690.6305267415364	-0.44702665590494506	24.170742230480407	10.614525139664805	39.75411405754567	173.69283013115555	177.03630964085872	85.74000917174244	-0.02303259807944691	1.514264254898233e+23	2.2272690463402145	-0.06370562381003735	5.976949606503024e+22	-0.18210400352203512	-0.07187823714869379	0.0	4.131698	7.765498	4.136954	-8.570283	9.103581	1.915426	0.0	11954.0	True	0.0	None	0.0	None	0.0	None	0.0	None	0.0	None	0.0	None	0.0	None	0.0	None	9.335299999999999e-07	12
2014-01-14 19:24:00	115.38447295564664	638877247.3234	4.554846987314599e+21	2097247369378.5042	18.95642120147943	1322830755754.3254	8.681457917375406e+20	-3.768554031024193e+23	2618.122830521646	-0.444165524281626	23.955858701864386	10.76335877862596	40.44485944154114	173.26639599774361	175.12150597590093	86.96946870226118	-0.014470550535480482	1.5289408326044815e+23	1.9851393402187487	-0.041091495820224665	6.276343708474056e+22	-0.1802024863962991	-0.07397361085701169	0.0	4.1343809999999985	7.6549809999999985	4.135952	-8.450733999999999	9.074727	2.033357	0.0	11954.0	True	0.0	None	0.0	None	0.0	None	0.0	None	0.0	None	0.0	None	0.0	None	0.0	None	9.2628e-07	12
2014-01-14 19:36:00																																	False	0.0	None	0.0	None	0.0	None	0.0	None	0.0	None	0.0	None	0.0	None	0.0	None	1.2263e-06	12
2014-01-14 19:48:00																																	False	0.0	None	0.0	None	0.0	None	0.0	None	0.0	None	0.0	None	0.0	None	0.0	None	1.2104999999999999e-06	12
2014-01-14 20:00:00	118.60643248443606	642215297.2946	4.72906884466141e+21	2292282469424.763	18.620419560762528	1659571399539.3184	9.424380379363848e+20	-3.932271471563609e+23	2268.10662926148	-0.4610524459817935	25.79237540311289	13.949044585987261	40.65610203575471	160.33517315375892	164.35459047892178	75.60467106119916	-0.011867698891499379	1.5055508101870682e+23	2.078039808472348	-0.03968926043090792	5.0807715606749755e+22	-0.1765233882264505	-0.05957122168354441	0.0	4.1424	7.3235	4.130157	-8.119061	9.067642	2.360587	1024.0	11954.0	True	0.0	None	0.0	None	0.0	None	0.0	None	0.0	None	0.0	None	0.0	None	0.0	None	1.0912e-06	12
2014-01-14 20:12:00	118.59162773304311	631855448.9422001	4.6766371610329513e+21	2300325620156.8413	22.54770007684369	1530532355413.7568	9.338323099366611e+20	-3.955517461812481e+23	2282.2079961677164	-0.4713820528888813	25.11096373027327	11.989630589760209	39.595586277906435	158.7091333322936	161.86302263284873	78.57095718523895	-0.014612897003787229	1.5794977133148058e+23	1.949992617667996	-0.048505284415770136	5.270195609480464e+22	-0.18822995520147784	-0.0628053257129229	0.0	4.145136	7.213037	4.128992	-7.997424	9.065086	2.4805770000000003	0.0	11954.0	True	0.0	None	0.0	None	0.0	None	0.0	None	0.0	None	0.0	None	0.0	None	0.0	None	8.662099999999998e-07	12
2014-01-14 20:24:00	124.32154176328243	664143903.6508	5.083869504471095e+21	2498717302763.0864	15.935871320293968	1388002668336.1216	9.902278657519853e+20	-4.046153540936392e+23	2206.3906633119673	-0.4587411135406468	26.964209414817976	14.985590778097984	41.71027665922167	147.01000603884629	150.69893495534149	74.52363763930806	-0.009184940242244364	1.5155628421743668e+23	1.5726986577476108	-0.03289768940458373	5.4888421179475576e+22	-0.1718301045241591	-0.0622308945955951	0.0	4.147891	7.102591	4.127424	-7.876678	9.062363	2.599708	0.0	11954.0	True	0.0	None	0.0	None	0.0	None	0.0	None	0.0	None	0.0	None	0.0	None	0.0	None	8.043000000000002e-07	12
2014-01-14 20:36:00	126.80986124794715	673529225.2781	5.184630272898685e+21	2618503532174.3267	11.671174812575885	978909119378.2017	1.0069510211130168e+21	-4.084059744824855e+23	2227.0161764451345	-0.4565865752039539	27.021967325003928	14.37535653166001	41.43817069157349	152.96451670714382	155.78726776226722	76.58929952720744	-0.006657829328337643	1.457919652770863e+23	1.0977739618532518	-0.023793143381470483	4.874825048110557e+22	-0.16299138180451206	-0.054499194735230336	0.0	4.150664	6.992164999999999	4.126	-7.7560660000000015	9.059304	2.718747	0.0	11954.0	True	0.0	None	0.0	None	0.0	None	0.0	None	0.0	None	0.0	None	0.0	None	0.0	None	8.0653e-07	12
2014-01-14 20:48:00	120.47294771268986	655706495.0627	4.966800842790648e+21	2406986659459.9287	17.477983102358642	620442135211.3081	9.786301586157779e+20	-4.0475024511989036e+23	2250.2625623853382	-0.4647989122943752	26.206314094035267	14.380264741275573	40.8594386893425	151.64533858305322	155.10021840268038	77.16205494004792	-0.010516235320312059	1.4672980489411155e+23	0.7338713962802167	-0.03639433735519969	5.358596326178633e+22	-0.16849861003974825	-0.06153596628693101	0.0	4.153461	6.881761	4.125445	-7.635996	9.029992	2.809073	0.0	11954.0	True	0.0	None	0.0	None	0.0	None	0.0	None	0.0	None	0.0	None	0.0	None	0.0	None	8.1094e-07	12
2014-01-14 21:00:00	114.54869228950452	647940521.8439001	4.863050440837702e+21	2248013183984.2373	13.042997214486064	1118991095832.0889	9.572756503241939e+20	-3.904186309030898e+23	2319.0716064208523	-0.4537147595225181	25.26021068904657	12.096263457884731	40.158416974119866	157.174276581614	160.79221618044338	81.30222338954479	-0.008260289559522523	1.48565340111337e+23	1.3931279066955562	-0.027694469854860515	5.183772178963852e+22	-0.17265130868902634	-0.060241847120812965	0.0	4.156281	6.771381	4.124736	-7.516139	9.028181	2.927709	0.0	11954.0	True	0.0	None	0.0	None	0.0	None	0.0	None	0.0	None	0.0	None	0.0	None	0.0	None	7.5994e-07	12
2014-01-14 21:12:00	109.95868554086263	621313267.0043	4.90874512593944e+21	2156408907108.311	19.71526515690332	1055675992922.0768	9.152237304088461e+20	-3.589976581180242e+23	2386.198879805433	-0.4350794395668831	26.51839468201212	13.105229180116206	41.038836244106776	151.49012526106702	153.33139839786375	80.41617772464876	-0.0127277373511319	1.5216950278265254e+23	1.3397446274124811	-0.04422278082357205	4.5162049923505e+22	-0.1844185344743443	-0.05473316866025437	0.0	4.159127	6.661026	4.124264	-7.397413	9.026671	3.044855	0.0	11954.0	True	0.0	None	0.0	None	0.0	None	0.0	None	0.0	None	0.0	None	0.0	None	0.0	None	7.890000000000002e-07	12
2014-01-14 21:24:00	104.01642227828205	617359715.2949001	5.273529627919291e+21	2048039456373.0715	19.100719199998906	906279437076.9708	8.990394138077624e+20	-3.375137886584177e+23	2537.3157756659084	-0.41166192856898814	28.689058574535192	16.61341853035144	42.990410292635794	144.4082159950089	145.5948764672334	80.42285291113508	-0.012204932396165435	1.5202524066540607e+23	1.1383773219394564	-0.04383396196735729	4.6945829430291505e+22	-0.18542354673048048	-0.05725932193277986	0.0	4.162	6.5507	4.1222650000000005	-7.303272	9.023798	3.137414	4096.0	11954.0	True	0.0	None	0.0	None	0.0	None	0.0	None	0.0	None	0.0	None	0.0	None	0.0	None	8.089699999999998e-07	12
2014-01-14 21:36:00	104.5951773992444	602255148.3652	4.904795735826636e+21	1986141401742.1216	21.282733064177748	1124311375399.4453	8.803107035994691e+20	-3.394293799691412e+23	2483.69084468305	-0.4243815444267749	28.031893199315	14.66039004707465	42.02455834369717	146.1026255522879	147.31826174356752	80.47330615288755	-0.014312530641679725	1.4415391422628915e+23	1.4863102384901576	-0.04961928872022823	4.857501406817211e+22	-0.1802326621227637	-0.060732336996512565	0.0	4.164902	6.440402	4.121049	-7.182767	9.021615	3.256598	4096.0	11954.0	True	0.0	None	0.0	None	0.0	None	0.0	None	0.0	None	0.0	None	0.0	None	0.0	None	8.0745e-07	12
2014-01-14 21:48:00	97.4050995539977	595734081.0458001	4.7547189748982e+21	1813158406954.472	19.625255243947088	968259913226.9712	8.62192015640757e+20	-3.4060271054924807e+23	2544.5929228696327	-0.4305099692251493	26.84857463909282	13.077469793887706	40.70803175008147	153.034440336641	154.41376562503368	82.76679018203366	-0.013948297970111644	1.381454119851294e+23	1.3527778134064454	-0.04605767115024528	3.948349795835584e+22	-0.1746109916929577	-0.04990576693750432	0.0	4.167783999999998	6.3301339999999975	4.120479	-7.064142	9.019667	3.373243	0.0	11954.0	True	0.0	None	0.0	None	0.0	None	0.0	None	0.0	None	0.0	None	0.0	None	0.0	None	7.626600000000002e-07	12
2014-01-14 22:00:00	94.29701903458314	576188795.9990001	4.461134124719498e+21	1733181995248.682	23.04226855940547	1100677102489.6316	8.362814181944994e+20	-3.359391531328333e+23	2480.9274799390632	-0.43901895055564216	25.944105076401573	12.186115214180207	40.54766783771055	150.02514329457242	152.15951378326068	81.24022503680642	-0.0170179236036968	1.4138978862825666e+23	1.5979534609180732	-0.05558068658919652	3.918656244189136e+22	-0.18477392719483696	-0.05121059381941055	0.0	4.170749	6.219899	4.11816	-6.944297	9.016727	3.492288	0.0	11954.0	True	0.0	None	0.0	None	0.0	None	0.0	None	0.0	None	0.0	None	0.0	None	0.0	None	7.4601e-07	12
2014-01-14 22:12:00	90.89290079875292	571072413.2818	4.5139467998559753e+21	1720349307563.93	25.201604052937004	1149618874419.2456	8.387482042594237e+20	-3.257753386239645e+23	2510.298368145573	-0.42955086253720426	25.772558865364623	11.521418020679464	39.652136226029135	151.8801954667372	152.93343688462915	82.36657327106506	-0.018612706095226736	1.4176041645087762e+23	1.6689837338466198	-0.06174010823562315	3.877817949644348e+22	-0.1869181056408804	-0.051130943553547734	0.0	4.173697	6.109696	4.116417	-6.823523	9.01426	3.58334	0.0	11954.0	True	0.0	None	0.0	None	0.0	None	0.0	None	0.0	None	0.0	None	0.0	None	0.0	None	7.451099999999998e-07	12
2014-01-14 22:24:00	95.37529589170464	582582192.1747	4.614455233236477e+21	1830170552458.9084	24.13449643104993	993944067251.2472	8.556174806577317e+20	-3.3597408771767626e+23	2487.2048151702224	-0.4342462701102219	26.42549663513824	12.741589119541874	40.31182452006793	154.90277505795882	155.48417440298516	82.76272421599906	-0.017275945906263374	1.405237291421983e+23	0.7421290774285132	-0.05776799611623321	3.2023212629482833e+22	-0.18162682026018706	-0.041389979613501764	2.258207082020205	4.176729	5.999529	4.115108	-6.704014	9.012375	3.701295	0.0	11954.0	True	0.0	None	0.0	None	0.0	None	0.0	None	0.0	None	0.0	None	0.0	None	0.0	None	7.6075e-07	12
2014-01-14 22:36:00	89.19649565169955	554267183.7414	4.601008510043203e+21	1765390169633.5957	22.65141821441359	848282493905.2179	8.192289256203371e+20	-3.10072672241414e+23	2515.976258846741	-0.4212420991041988	26.67037520367927	12.636165577342048	40.51732630507429	150.29510712146023	149.862478469989	79.37063928503545	-0.01644983167350297	1.4455524616259091e+23	1.1312002512744328	-0.057509311008434025	2.822336212731644e+22	-0.1963822057902754	-0.03834219965386818	2.249563709172557	4.179797	5.889397	4.113775	-6.584289	8.981808000000003	3.819945	0.0	11954.0	True	0.0	None	0.0	None	0.0	None	0.0	None	0.0	None	0.0	None	0.0	None	0.0	None	7.2331e-07	12
2014-01-14 22:48:00	87.0999661782407	525664022.3146	4.297064369722242e+21	1653552719737.7764	19.456204677185625	750026402928.9509	7.715254314112242e+20	-2.9371608996256103e+23	2624.195996866962	-0.4207333807198189	25.789025458913642	12.327656123276565	38.75598914247309	154.1195655099432	153.79900530541812	82.3589064475387	-0.015779565837133514	1.3846366159147775e+23	0.4407793805706015	-0.052103546313385464	2.654747599197296e+22	-0.19834216251364747	-0.03802791098405516	0.0	4.182902	5.779303	4.113974	-6.463407	8.980832000000003	3.91139	0.0	11954.0	True	0.0	None	0.0	None	0.0	None	0.0	None	0.0	None	0.0	None	0.0	None	0.0	None	7.2222e-07	12
2014-01-14 23:00:00	78.78301043971291	513636038.8397	4.067791135866588e+21	1503291110710.519	19.716403844994094	752449923131.8721	7.5398708537258e+20	-2.935694285017927e+23	2561.0315814723244	-0.4303708098840947	25.224596742860196	9.615384615384617	38.719560140525545	153.05035958857175	154.46988721004269	82.04849254960463	-0.016485287495814464	1.4401469165744425e+23	1.082184160561246	-0.053672716191152166	2.4641478166926617e+22	-0.21112457043000304	-0.036124241442860895	0.0	4.186046	5.669246	4.111633	-6.343131	8.977872	4.030405	0.0	11954.0	True	0.0	None	0.0	None	0.0	None	0.0	None	0.0	None	0.0	None	0.0	None	0.0	None	7.358799999999998e-07	12
2014-01-14 23:12:00	82.04453079963099	510029029.8641	4.231209131450432e+21	1650958011280.6145	17.43458724348649	832839949577.1975	7.568353629323497e+20	-2.780882954640073e+23	2458.3687228438353	-0.4105587819636364	27.2769229145148	12.037037037037035	41.25639989079907	145.1483915330215	144.7680590742513	79.51076054134452	-0.013452613613801305	1.4462993602343389e+23	1.2630974737241984	-0.048468053724471855	1.6229600073519523e+22	-0.21352603233509704	-0.02396075256178313	0.0	4.189227	5.559227	4.109585	-6.223189	8.975188000000003	4.149539	0.0	11954.0	True	0.0	None	0.0	None	0.0	None	0.0	None	0.0	None	0.0	None	0.0	None	0.0	None	8.002e-07	12
2014-01-14 23:24:00	80.92634924656767	506709758.60170007	4.1880467719750114e+21	1549994038623.6592	26.92331138599361	1331760839638.414	7.550594327202645e+20	-2.813511604470414e+23	2551.412361187469	-0.4180969941232729	26.48512849837393	11.165048543689322	39.43324152560249	149.23361990062642	149.9112663489659	80.71300348049903	-0.021782614389962464	1.456643200930402e+23	1.8189674668398144	-0.07493647584378096	1.5048551822638608e+22	-0.21646192709901368	-0.0223626384655975	2.255609457559584	4.192449	5.449249	4.108338	-6.103905	8.972963	4.267852	0.0	11954.0	True	0.0	None	0.0	None	0.0	None	0.0	None	0.0	None	0.0	None	0.0	None	0.0	None	7.9477e-07	12
2014-01-14 23:36:00	74.3427376612056	490215634.0484	3.851769724261533e+21	1438372050530.5735	20.65033331991853	927561374143.3776	7.136427853982684e+20	-2.711699622034647e+23	2539.695829287617	-0.4165258097228293	25.379321833865394	9.982486865148859	39.45334599530207	152.80479001465932	153.91553852332353	83.47051656108566	-0.018082603607634445	1.3874707462087325e+23	1.2441379878954215	-0.05947650112912331	6.74984544778933e+21	-0.21311998251403166	-0.010367980353719582	2.251607637750852	4.195711	5.339311	4.107422	-5.985354	8.971244	4.385742	0.0	11954.0	True	0.0	None	0.0	None	0.0	None	0.0	None	0.0	None	0.0	None	0.0	None	0.0	None	8.8387e-07	12
2014-01-14 23:48:00	79.76399996227316	501317699.9485	4.059032255113031e+21	1588346895078.2507	25.99842957591225	1097038496947.8438	7.264094072257485e+20	-2.696536865162504e+23	2509.358894547012	-0.4050241217993275	27.51318338469243	13.628899835796387	41.53203441166721	150.264469249541	151.87214057408312	80.44410444010946	-0.021345180275790014	1.415139496046583e+23	1.134259692386082	-0.07382106259414871	1.3308718900861255e+22	-0.2125562008866765	-0.019989907257472617	2.2530220692472764	4.199013	5.229413	4.106916	-5.8651519999999975	8.970055	4.5050870000000005	0.0	11954.0	True	0.0	None	0.0	None	0.0	None	0.0	None	0.0	None	0.0	None	0.0	None	0.0	None	7.9547e-07	12
2014-01-15 00:00:00	78.79366508337624	485502289.33800006	3.90536947378518e+21	1491281439428.6494	20.53847701276841	937997610124.1927	6.982934349486944e+20	-2.583823047404865e+23	2606.9971018215965	-0.40073659744485984	24.80069017556159	9.485815602836881	40.18776551269606	156.27613887389384	157.5729899933761	81.4012124531439	-0.018207869692170576	1.3729697476097129e+23	1.6343220316665532	-0.060401882488187085	1.263878144685794e+22	-0.21293997884431454	-0.019602047740653404	2.23683694893342	4.202307	5.119557	4.10537	-5.744689	8.967817	4.5958120000000005	0.0	11954.0	True	0.0	None	0.0	None	0.0	None	0.0	None	0.0	None	0.0	None	0.0	None	0.0	None	8.362900000000002e-07	12
2014-01-15 00:12:00	81.65206285818792	488415478.7955	3.740986379894873e+21	1539028784496.4758	23.452433783992504	989624263739.4288	7.059346106677448e+20	-2.685949680454044e+23	2445.238060244725	-0.4140911531613879	24.56981855280408	8.506944444444445	40.276030294446414	153.30322106510326	156.22019524046553	81.87749580858457	-0.02035801543749349	1.26709016436804e+23	1.4507586922878912	-0.06791271450327331	9.1948448779896e+21	-0.1953464843890592	-0.014175633841446943	2.2491871978461715	4.205692	5.009742	4.103237	-5.624413	8.964922	4.715567	0.0	11954.0	True	0.0	None	0.0	None	0.0	None	0.0	None	0.0	None	0.0	None	0.0	None	0.0	None	8.2236e-07	12
2014-01-15 00:24:00	78.28952437386063	468818775.5739	3.486201940008673e+21	1438350822065.4658	26.208480947814866	1131869306612.377	6.767081498110934e+20	-2.632811379350288e+23	2492.9392700428252	-0.42286552509808817	23.81314988366757	7.1225071225071215	39.06630177329574	154.35367802656774	158.1736086160841	83.54541581091647	-0.02488934562945381	1.228857074253459e+23	1.1537699780403698	-0.07857836576468756	7.228174023806778e+21	-0.1973712572234946	-0.011609436316063376	2.2533591521730307	4.209069	4.8999690000000005	4.103224	-5.503755	8.934919	4.835491	0.0	11954.0	True	0.0	None	0.0	None	0.0	None	0.0	None	0.0	None	0.0	None	0.0	None	0.0	None	7.604900000000002e-07	12
2014-01-15 00:36:00	74.14475234125153	467697558.5631	3.5580714181812405e+21	1424433245821.9648	24.860398342632948	1180067839367.103	6.817443752001143e+20	-2.50933305106734e+23	2422.407045019928	-0.4039994657278239	24.703968586942054	8.408679927667269	39.837636048126	153.0071435159022	156.43649278596422	79.63019042365988	-0.022477756186829075	1.1295805139127476e+23	1.029102475982112	-0.07571920289198789	8.812697845021681e+21	-0.1818610422889872	-0.014188332710538869	2.256049329133062	4.212538	4.790238	4.101229	-5.3835510000000015	8.931931	4.955246	0.0	11954.0	True	0.0	None	0.0	None	0.0	None	0.0	None	0.0	None	0.0	None	0.0	None	0.0	None	7.211399999999998e-07	12
2014-01-15 00:48:00	75.43814385329566	457001131.8443	3.311050947541645e+21	1378889288319.2373	23.925967337266243	1211354487297.6824	6.657100351452824e+20	-2.6857619858369807e+23	2475.8477228257198	-0.44252497267687546	22.98368271928469	5.958291956305858	37.3121400130335	160.91321424947628	163.96431809410197	81.19689015828664	-0.023759649788745032	1.1786863616482542e+23	0.8117393686931379	-0.0725870062999337	6.550736067776439e+21	-0.1942086278432638	-0.01079345196891228	2.250286481548052	4.216049	4.680549	4.100177	-5.263056	8.930209	5.075103	0.0	11954.0	True	0.0	None	0.0	None	0.0	None	0.0	None	0.0	None	0.0	None	0.0	None	0.0	None	7.2307e-07	12
2014-01-15 01:00:00	69.05138842587738	435784126.1649	3.123860867199923e+21	1297453711363.6233	24.287130459186987	1248979500431.4329	6.460688411179036e+20	-2.4680549064535388e+23	2285.934716842226	-0.4264527565200435	23.150403810788358	6.316812439261417	38.47604509973613	150.5570156804205	154.5571705045979	76.41248280144737	-0.02360265350747035	1.124293705681113e+23	1.8536530287256336	-0.07814071883739968	2.357598370143888e+21	-0.1942655929866652	-0.0040736708129388175	1.9504473350321627	4.219602	4.570901	4.099494	-5.1434940000000005	8.928780999999997	5.165269	0.0	11954.0	True	0.0	None	0.0	None	0.0	None	0.0	None	0.0	None	0.0	None	0.0	None	0.0	None	7.1616e-07	12
2014-01-15 01:12:00	68.86210134725192	414853653.8117	3.0235911538030695e+21	1290245316499.238	20.750294839441107	717538974980.9789	6.147320447156697e+20	-2.3098787633482173e+23	2327.9393092686482	-0.41925833870092016	22.944098605397212	4.9079754601227	38.2442206712093	155.07572448453806	158.09238213715142	77.77821395092784	-0.0212170703879766	1.0603219114547247e+23	1.252736491196145	-0.07048519305338552	3.803450386350858e+21	-0.19245547001796293	-0.006903515091854375	2.4257083437005607	4.223195	4.461295	4.098527	-5.023097	8.927028	5.285099	0.0	11954.0	True	0.0	None	0.0	None	0.0	None	0.0	None	0.0	None	0.0	None	0.0	None	0.0	None	7.767699999999998e-07	12
2014-01-15 01:24:00	72.99766410900855	425213103.3615	3.0537291424103137e+21	1340739833276.759	20.92612031440524	893359127284.4287	6.32579657834232e+20	-2.495416483936889e+23	2329.704656844901	-0.4418999038742068	23.728520626504782	7.29483282674772	37.65171709336186	155.8201330236366	160.3683154849524	77.8492760496447	-0.021201742973054955	1.132635085398202e+23	0.6983268996155029	-0.06826167825616798	6.555602889833063e+21	-0.20057226462349428	-0.011608965098621058	2.437921691430457	4.2268300000000005	4.351731	4.0979730000000005	-4.873958999999998	8.896011999999997	5.40479	0.0	11954.0	True	0.0	None	0.0	None	0.0	None	0.0	None	0.0	None	0.0	None	0.0	None	0.0	None	8.2905e-07	12
2014-01-15 01:36:00	75.07560652699179	421077304.7905	2.862175095499823e+21	1374619083283.7356	22.458642026261373	870020050926.8765	6.237119714940984e+20	-2.5265281274895922e+23	2240.312722729825	-0.4518037402142889	23.34107436741755	6.548856548856549	37.22534960925199	160.78040764381888	163.75102887699887	80.963335372136	-0.02334578173208042	1.0493150387653015e+23	0.7162965099503624	-0.0734757018411016	1.3193926891354467e+21	-0.18764266030488425	-0.0023593901262246642	2.4272392504305658	4.230507	4.242207	4.096775	-4.754136	8.893885000000003	5.524046	0.0	11954.0	True	0.0	None	0.0	None	0.0	None	0.0	None	0.0	None	0.0	None	0.0	None	0.0	None	8.231699999999998e-07	12
2014-01-15 01:48:00	72.92225267746255	427893941.6997	2.9865150522343214e+21	1375790206173.4312	17.75433292585823	703557801993.1351	6.483088295996827e+20	-2.479349105219276e+23	2198.2471831223943	-0.4363037999484509	22.582670763812324	4.789833822091887	37.14343083778394	157.1005926351524	161.97074021006696	77.87303009026238	-0.01735516415039905	1.1056229973995854e+23	1.0151120959542748	-0.0577765902673269	3.41618695718764e+21	-0.1945621591006937	-0.00601163969857114	2.4226061943824795	4.234223	4.132723	4.095935	-4.604244	8.892306	5.643177	0.0	11954.0	True	0.0	None	0.0	None	0.0	None	0.0	None	0.0	None	0.0	None	0.0	None	0.0	None	7.9905e-07	12
2014-01-15 02:00:00	70.31884103868104	429585602.0781	3.1720106557498893e+21	1320397008074.5024	16.069647847514773	537995937097.6811	6.446564313692048e+20	-2.4371583108680168e+23	2374.237450094819	-0.4271904326196119	22.308666687647037	4.671968190854871	36.96295271430665	156.67923280944453	159.5151459386801	78.72705765890234	-0.01597380501741031	1.103703502804981e+23	0.7205690148103916	-0.05242092890957548	-3.2858434058198644e+21	-0.19345956097497607	0.005759498099869239	2.419197798250856	4.237978	4.023278	4.094276	-4.4557699999999985	8.859997	5.7593760000000005	0.0	11954.0	True	0.0	None	0.0	None	0.0	None	0.0	None	0.0	None	0.0	None	0.0	None	0.0	None	7.6456e-07	12
2014-01-15 02:12:00	68.72510367045399	414693001.2952	2.915349592065816e+21	1286435870573.171	15.659503388407627	536880885454.7779	6.201111893102347e+20	-2.429135580117688e+23	2322.9843703222546	-0.4410750634631392	21.46447250606416	3.5978835978835977	36.50209227027617	160.89332674546725	165.195702253661	79.03723097255386	-0.016570903056516	1.0554133553850737e+23	1.0012435749129929	-0.0524076482708241	-6.718324631841857e+21	-0.1916387526972712	0.012198929889339695	2.3999274143879057	4.241722	3.913872	4.09376	-4.3338	8.858521000000003	5.880875	0.0	11954.0	True	0.0	None	0.0	None	0.0	None	0.0	None	0.0	None	0.0	None	0.0	None	0.0	None	7.5153e-07	12
2014-01-15 02:24:00	75.4327874894073	430197333.6633	3.069350228107137e+21	1367862616242.248	15.884837574721315	604237581466.2297	6.425351784473871e+20	-2.6027348135526813e+23	2448.2847347187744	-0.4555642956650412	21.73354418039635	3.707627118644069	35.051721659566816	161.46536775738562	165.8375635476649	80.36227827258317	-0.016827158447798002	1.1273989232341377e+23	0.3808579822071343	-0.050735701060324635	-1.0889699126674417e+22	-0.1973319347489068	0.019060559250275805	2.4041631795269374	4.245554	3.804504	4.092467	-4.212896	8.856633	6.0010980000000025	0.0	11954.0	True	0.0	None	0.0	None	0.0	None	0.0	None	0.0	None	0.0	None	0.0	None	0.0	None	7.2132e-07	12
2014-01-15 02:36:00	68.32284894073265	401293811.7336	2.9086922704878457e+21	1247317324280.7178	15.668765009526648	689005297504.4304	5.980875584701581e+20	-2.3440269429921666e+23	2406.821304361661	-0.4398327858241967	22.182281879178273	2.747252747252748	36.508907015454774	155.9616209514141	160.26353636451515	79.1396898273552	-0.01721842308739192	1.1334065863865542e+23	1.4876252287889316	-0.05423632342644063	-9.490054624398461e+21	-0.21267220406841425	0.017807121097954574	2.401741352688389	4.249372	3.695172	4.090766	-4.0928580000000006	8.854569999999997	6.120183	0.0	11954.0	True	0.0	None	0.0	None	0.0	None	0.0	None	0.0	None	0.0	None	0.0	None	0.0	None	7.2132e-07	12
2014-01-15 02:48:00	68.28853665439378	397327548.9655	3.0215203587657727e+21	1298115499720.8352	15.26543379004982	642773786868.6692	6.013255061441994e+20	-2.2895661450778348e+23	2462.300548356406	-0.4339023724394949	22.717163455794964	4.329004329004329	36.411354314476036	154.1610569866411	158.1581786254676	78.04737810878926	-0.016521032240313656	1.0971693749099176e+23	0.3300366638526094	-0.05358841156041879	-7.305736858927596e+21	-0.2079277752096508	0.013845315464339128	2.232279991481496	4.2532760000000005	3.5858760000000003	4.092099	-3.944007	8.855762	6.240069	0.0	11954.0	True	0.0	None	0.0	None	0.0	None	0.0	None	0.0	None	0.0	None	0.0	None	0.0	None	7.1562e-07	12
2014-01-15 03:00:00	63.90768865379733	406534053.9318	2.9786294209456935e+21	1251641049365.6	11.81845084164364	512595693314.1086	6.166936301313536e+20	-2.323438107819479e+23	2338.758290439258	-0.4303498438050896	22.44122810204124	4.066736183524505	36.701999757840646	154.45012804079695	158.2867174940836	79.1078190946658	-0.012323723505363544	1.0266258414443216e+23	0.5057891966751945	-0.04064913843695978	-1.1656510771003969e+22	-0.19015280373724466	0.021590321570139508	2.2359660499326988	4.257214	3.476614	4.091794	-3.82496	8.855143	6.358291	0.0	11954.0	True	0.0	None	0.0	None	0.0	None	0.0	None	0.0	None	0.0	None	0.0	None	0.0	None	7.1942e-07	12
2014-01-15 03:12:00	59.16242326112526	376775767.1824	2.77143113640698e+21	1135947471775.3892	12.765385020408594	597811735678.2041	5.6066364069257753e+20	-2.15608068767071e+23	2409.759756602381	-0.4308931541104263	22.4910426784861	4.849884526558892	36.86448521937069	153.4794287567682	157.0481110010327	79.61330722310026	-0.01474062935382055	1.0389649008615914e+23	0.9389613158977144	-0.047355861879092624	-3.153682164082331e+21	-0.2076373420077915	0.006302640075178717	0.0	4.261186	3.367386	4.091136	-3.675575	8.854222	6.478426	0.0	11954.0	True	0.0	None	0.0	None	0.0	None	0.0	None	0.0	None	0.0	None	0.0	None	0.0	None	7.794799999999998e-07	12
2014-01-15 03:24:00	61.02284652312968	374566052.0563	2.5930621009855963e+21	1119908501881.3174	16.01555432429186	775675448627.4329	5.478548115058539e+20	-2.2350822917476448e+23	2431.558976845805	-0.4493166781419996	21.29842571064156	2.86425902864259	35.29915297992215	161.8272410128196	167.71064489692904	81.44080280900634	-0.019944650466116886	1.0002017797460558e+23	0.6940525778696338	-0.059003838701889876	-1.7368026634238026e+21	-0.20106970683205366	0.0034914795137478967	0.0	4.265189	3.258189	4.089959	-3.555563	8.85277	6.598592	0.0	11954.0	True	0.0	None	0.0	None	0.0	None	0.0	None	0.0	None	0.0	None	0.0	None	0.0	None	7.1263e-07	12
2014-01-15 03:36:00	62.91117412736832	383690908.9437	2.737308977357623e+21	1193057541808.8313	17.516265349991595	857735977990.4006	5.707535525785648e+20	-2.205744355914169e+23	2352.9205311114624	-0.4328737107578194	21.872334634242243	4.223744292237443	36.57076988970859	155.51879461453038	160.22789557802608	80.44827881163397	-0.019995736700903648	1.018586302729123e+23	0.28521119113568394	-0.06372092731122585	-7.341505482587023e+21	-0.19989589065805605	0.014407584053317112	0.0	4.269222	3.149022	4.089407	-3.40675	8.851778999999997	6.717882	0.0	11954.0	True	0.0	None	0.0	None	0.0	None	0.0	None	0.0	None	0.0	None	0.0	None	0.0	None	6.8595e-07	12
2014-01-15 03:48:00	62.89750603392653	377537881.4261	2.5677829194071503e+21	1142594929105.4724	16.173899118989087	769264739051.3047	5.578284995843943e+20	-2.1850471152345786e+23	2301.794188562796	-0.4358005170172722	20.87078123687611	2.023809523809524	35.616143297875354	163.4935506238625	166.96153751625468	82.26783448385952	-0.019254641808320337	9.757743982240736e+22	0.4837521999240098	-0.05967467821445392	-4.695965141965322e+21	-0.1946150196365978	0.009365949239698064	0.0	4.2732839999999985	3.039884	4.089074	-3.287618	8.851109	6.837047	0.0	11954.0	True	0.0	None	0.0	None	0.0	None	0.0	None	0.0	None	0.0	None	0.0	None	0.0	None	7.062100000000002e-07	12
2014-01-15 04:00:00	59.17451110402111	363920713.6083	2.614467885146048e+21	1131203132445.243	7.2002415300512	417844774639.0958	5.56584343445719e+20	-1.9998428319944925e+23	2244.7668115783126	-0.4137867738542089	21.547466360559888	2.394526795895097	36.07490901158032	156.13308850709709	158.47674707583548	81.06159191479166	-0.008210081562202052	9.686673564090282e+22	0.9359660406618368	-0.02798893481837209	-1.4955248500902229e+22	-0.20042662049928567	0.030943851838619738	0.0	4.277373000000001	2.930773	4.087545	-3.166925	8.849353	6.957328	0.0	11954.0	True	0.0	None	0.0	None	0.0	None	0.0	None	0.0	None	0.0	None	0.0	None	0.0	None	7.4601e-07	12
2014-01-15 04:12:00	61.310909535492655	375532940.6959	2.6668132161552363e+21	1243494585758.5244	9.332437021505136	325367616739.28625	5.885119694610581e+20	-2.136170284861565e+23	2115.9915592752523	-0.4283269256929294	21.808114747157973	3.2665964172813484	36.863850534784866	153.05398298198753	155.0517102537249	77.43256650290303	-0.009833969464178223	1.0179146665510724e+23	0.6735101230705189	-0.03479760886020593	-9.289514903894859e+21	-0.20410370036105016	0.018626555140110426	0.0	4.281487	2.821688	4.060583	-3.046421	8.849941000000003	7.0782089999999975	0.0	11954.0	True	0.0	None	0.0	None	0.0	None	0.0	None	0.0	None	0.0	None	0.0	None	0.0	None	7.3851e-07	12
2014-01-15 04:24:00	56.145709796992534	345746757.6488	2.457150334362514e+21	1059465925358.1782	12.242728971356161	445289922454.9314	5.327505443496932e+20	-1.981050225794387e+23	2234.5441020121293	-0.4314444723178672	21.25335634929616	2.5362318840579707	36.24400985214893	153.22761550928362	156.15819629417058	78.61024280602116	-0.014785904554777969	1.009652155854677e+23	1.0284814437136904	-0.04947383872404646	-9.376603838330142e+21	-0.2198878331984956	0.020420905247568	0.0	4.285625	2.712626	4.060666	-2.926759	8.849427	7.198333	0.0	11954.0	True	0.0	None	0.0	None	0.0	None	0.0	None	0.0	None	0.0	None	0.0	None	0.0	None	8.7381e-07	12
2014-01-15 04:36:00	57.418069393410406	357266114.0889	2.6127541606125315e+21	1178218609314.2302	16.935986531729622	750581969516.7122	5.689243390257757e+20	-2.068788100980996e+23	2169.096075994511	-0.4360253216187678	21.658947413123478	2.9768467475192946	35.61384762015071	151.37602979303404	152.25136438656614	76.27284942546656	-0.018672532008522185	1.0785487911520498e+23	0.8047211765673401	-0.06602167997187441	-9.953695735567104e+21	-0.2273188749106817	0.020978771979295485	0.0	4.289735	2.603585	4.060205000000002	-2.8067580000000003	8.848399	7.31838	0.0	11954.0	True	0.0	None	0.0	None	0.0	None	0.0	None	0.0	None	0.0	None	0.0	None	0.0	None	7.8039e-07	12
