Timestamp	TOTUSJH	TOTBSQ	TOTPOT	TOTUSJZ	ABSNJZH	SAVNCPP	USFLUX	TOTFZ	MEANPOT	EPSZ	MEANSHR	SHRGT45	MEANGAM	MEANGBT	MEANGBZ	MEANGBH	MEANJZH	TOTFY	MEANJZD	MEANALP	TOTFX	EPSY	EPSX	R_VALUE	CRVAL1	CRLN_OBS	LAT_MIN	LON_MIN	LAT_MAX	LON_MAX	QUALITY	NOAA_AR	IS_TMFI	BFLARE	BFLARE_label	CFLARE	CFLARE_label	MFLARE	MFLARE_label	XFLARE	XFLARE_label	BFLARE_loc	BFLARE_label_loc	CFLARE_loc	CFLARE_label_loc	MFLARE_loc	MFLARE_label_loc	XFLARE_loc	XFLARE_label_loc	XR_MAX	XR_QUAL
2014-01-20 05:48:00	44.850959090012026	330272122.65720004	2.3564764040693232e+21	1076025486549.4784	12.880429989568558	773746134767.4559	6.909641461438015e+20	-3.075336522723509e+23	1560.5947247550225	-0.7011456308510563	23.47524800146368	6.244503078276164	26.652301783857045	90.58841840892543	96.75507415478779	31.62369227943825	0.01132843446751852	3.0891715553861623e+22	-0.5855487287105562	0.04585080292682939	1.084850668938255e+23	-0.07042998784049176	-0.2473349830275758	2.751671070076428	239.600601	296.112152	-0.21480900000000008	-57.194996	0.897359	-55.170067	0.0		True	0.0	None	0.0	None	0.0	None	0.0	None	0.0	None	0.0	None	0.0	None	0.0	None	6.4063e-07	12
2014-01-20 06:00:00	58.5833917059783	433119756.5369	2.772928103615218e+21	1287835176953.9521	16.650562762110848	895064427952.1658	8.960752275144291e+20	-4.1281794000647546e+23	1461.146939757447	-0.7176919587717242	21.363071199972122	3.3589923023093067	25.555269700595172	96.3962993194549	99.81683749260237	32.633837740999866	0.011651898363968405	5.041129412072569e+22	-0.9243207090286932	0.04476160344254182	1.3365494171294994e+23	-0.08764100809464241	-0.2323616965773896	2.93308785407489	239.605072	296.003174	-0.29188000000000003	-57.305252	1.020944	-54.861023	66560.0		False	0.0	None	0.0	None	0.0	None	0.0	None	0.0	None	0.0	None	0.0	None	0.0	None	5.4731e-07	12
2014-01-20 06:12:00	55.40265062049085	438691479.33870006	2.765480334918294e+21	1178695520958.6138	15.72488765945568	795959618644.7468	8.80103875822305e+20	-4.232220447821287e+23	1557.4947163065538	-0.7264345585204691	21.27421390451621	3.5153328347045627	24.677734862953905	98.62611125874456	101.33873366249313	32.26952953373255	0.011761322108792582	5.737650656901749e+22	-0.9422001920598496	0.04152486479778408	1.348768880379022e+23	-0.09848323765924737	-0.2315078664365585	3.2161009998171166	239.609573	295.894226	-0.303458	-57.19678100000001	1.043212	-54.70751600000001	66560.0		False	0.0	None	0.0	None	0.0	None	0.0	None	0.0	None	0.0	None	0.0	None	0.0	None	5.177900000000001e-07	12
2014-01-20 06:24:00	58.42487238603898	462638040.8635	2.8399227838184817e+21	1260516972126.9346	15.397098006939466	810304951116.3605	9.564333312774448e+20	-4.506517048216978e+23	1414.3023547976684	-0.7334781853414856	20.577124829227927	1.1243386243386242	23.87536725078745	100.53708961538423	101.48032318220658	32.80069391216325	0.010183265877605466	5.582303513470345e+22	-0.8996822062937015	0.038398048156755835	1.4370955068635744e+23	-0.09085725866066864	-0.2339008580814639	2.9180530382211223	239.614075	295.785278	-0.316175	-57.086487	1.064299	-54.552578	0.0		True	0.0	None	0.0	None	0.0	None	0.0	None	0.0	None	0.0	None	0.0	None	0.0	None	2.4761000000000003e-06	12
2014-01-20 06:36:00	58.855300178370285	458817653.0509	2.7574152539690427e+21	1253880378275.0603	14.801070708844076	827040249670.4221	9.493461521966422e+20	-4.454029445913151e+23	1383.2764509095016	-0.7309715375107713	20.729069219001367	0.9327115256495668	24.398311987050125	102.41822550480484	103.46370542716	32.88516301198489	0.009860806601495051	5.4639237615206676e+22	-0.8596738597198549	0.037272891334356496	1.4241962249187405e+23	-0.08967100018759683	-0.2337314822202429	2.7681551885231293	239.61853	295.676331	-0.324358	-56.975876	1.086013	-54.398117000000006	0.0		True	0.0	None	0.0	None	0.0	None	0.0	None	0.0	None	0.0	None	0.0	None	0.0	None	2.8731e-06	12
2014-01-20 06:48:00	60.128276567353716	471738352.2950001	2.941700145681154e+21	1301227484928.7173	14.526213426914527	998906324338.1312	9.685243802470019e+20	-4.524124010324662e+23	1434.6257102680215	-0.722139030687437	21.512957741117244	2.7849740932642484	25.105070347457104	102.74048028625415	104.51336214365564	34.103364267807876	0.009408169317949824	5.093195476445306e+22	-0.7703307303690321	0.03576127718689484	1.493726571928148e+23	-0.0812974011337481	-0.2384280926655793	2.7880610046100283	239.623077	295.567383	-0.432566	-57.033474	1.089298	-54.147266	0.0		True	0.0	None	0.0	None	0.0	None	0.0	None	0.0	None	0.0	None	0.0	None	0.0	None	1.9601e-06	12
2014-01-20 07:00:00	60.1053784976324	480557386.5827	2.897488665165514e+21	1317174791773.1377	11.162184305508504	807051651921.9651	9.993815150165363e+20	-4.626393431354076e+23	1351.7791225572435	-0.7249112254520509	20.85008400958021	2.5402726146220567	25.676156114361554	105.13565523987472	107.19843936733463	33.944333835659734	0.006915851490401799	4.909283495196187e+22	-0.6924876660551226	0.026931911530006392	1.5056996500627372e+23	-0.07692373697566379	-0.2359286114951616	2.759971298098129	239.627502	295.458405	-0.45474	-56.97966	1.111399	-53.99734100000001	0.0		True	0.0	None	0.0	None	0.0	None	0.0	None	0.0	None	0.0	None	0.0	None	0.0	None	1.3616e-06	12
2014-01-20 07:12:00	64.05601304054309	524941758.8234	3.029783034129836e+21	1412486145293.5908	11.425588117206425	730198746925.605	1.0770507579728653e+21	-5.092888985827714e+23	1339.6288073621588	-0.7305344219392009	20.243156997495557	2.2313564298297126	24.852910608739577	107.93291946333427	110.32911256622948	34.58400353507029	0.006709094607872239	4.688060777191256e+22	-0.5895604417828523	0.025154587242829915	1.636220332691514e+23	-0.06724650349559204	-0.2347027940790066	3.1878494429185986	239.63205	295.349457	-0.514493	-57.037025	1.1745709999999998	-53.747753	0.0		True	0.0	None	0.0	None	0.0	None	0.0	None	0.0	None	0.0	None	0.0	None	0.0	None	9.4484e-07	12
2014-01-20 07:24:00	64.72958408671741	558794204.1515	3.1397560265025525e+21	1454950532419.0095	13.459119141384045	812993739239.5997	1.1416011041949917e+21	-5.471350409535418e+23	1314.9030377515116	-0.7372760906639659	20.206937527805096	2.39154616240267	24.97053669650102	108.61925822580872	112.3113030985498	35.01301079802121	0.007485605751604031	4.6523859183681455e+22	-0.3348769949875705	0.027728469414320427	1.6978840974010107e+23	-0.06269188857245588	-0.2287934889987473	3.111348514424925	239.636475	295.240479	-0.5952649999999999	-57.091633	1.232111	-53.497829	0.0		True	0.0	None	0.0	None	0.0	None	0.0	None	0.0	None	0.0	None	0.0	None	0.0	None	8.8179e-07	12
2014-01-20 07:36:00	64.268160816885	566997358.2518001	3.217431124749436e+21	1453726698384.1133	14.463640219976721	885583994447.4689	1.1663600201671336e+21	-5.543657608917898e+23	1306.0291829880086	-0.7362120139822976	20.599373886323075	2.425876010781672	25.13185467721841	105.18363136832785	108.77474819390233	34.42947447467055	0.007797110630715214	4.845220742405882e+22	-0.5272430595507355	0.02938487268817113	1.7472095097394134e+23	-0.0643457798551113	-0.2320339246682589	3.1673211621266715	239.640991	295.1315	-0.627732	-56.983208	1.255443	-53.34877	0.0		True	0.0	None	0.0	None	0.0	None	0.0	None	0.0	None	0.0	None	0.0	None	0.0	None	6.3855e-07	12
2014-01-20 07:48:00	64.18296156581374	575545378.1333001	3.319972957883676e+21	1422414415132.8567	13.923679378059392	961529444706.2759	1.1811744094751582e+21	-5.594103253219792e+23	1326.2050949239085	-0.7318775198572453	20.98583803373237	2.59946949602122	25.222580343899818	104.59623717188276	107.83726985290402	32.95203116054659	0.007386567309315327	5.118474820681341e+22	-0.4204994167734827	0.027937482222839004	1.810285310217498e+23	-0.06696509677499929	-0.2368399479064693	3.0578099431462236	239.645386	295.022491	-0.6382899999999999	-56.876072	1.278587	-53.201115	0.0		True	0.0	None	0.0	None	0.0	None	0.0	None	0.0	None	0.0	None	0.0	None	0.0	None	5.463799999999999e-07	12
2014-01-20 08:00:00	65.62718798523474	591440963.5819	3.5871484696635916e+21	1495251682087.7314	16.499666664888736	1001619015931.0392	1.2089404948502568e+21	-5.595569438296699e+23	1345.1575613165974	-0.7123942446924457	22.085204276022765	4.3326693227091635	27.17543470609039	99.85881297948288	103.33962505113615	33.49662985858791	0.008216965470562118	5.36552377467292e+22	-0.3521256805011633	0.03258292028144092	1.880786482183177e+23	-0.0683106214476897	-0.2394504223703285	3.323096732092858	239.649841	294.913483	-0.651161	-56.81805	1.299373	-53.05161999999999	0.0		True	0.0	None	0.0	None	0.0	None	0.0	None	0.0	None	0.0	None	0.0	None	0.0	None	4.903e-07	12
2014-01-20 08:12:00	64.8804835748072	597992928.1022999	3.601321902335222e+21	1470919164628.88	17.141170399897486	1110503526626.67	1.2099044340079455e+21	-5.649216047253454e+23	1360.6366497801935	-0.7113439747958518	22.187512794978733	5.117912694430506	27.263169454625398	102.61599312830238	105.58324540827756	34.12421899343256	0.008600687606571742	5.67758493995669e+22	-0.44034984305996655	0.033499406261386665	1.8773541769541405e+23	-0.07149161591002362	-0.2363946733783394	3.1972049818296164	239.654266	294.804474	-0.701975	-56.76678100000001	1.292914	-52.905506	0.0		True	0.0	None	0.0	None	0.0	None	0.0	None	0.0	None	0.0	None	0.0	None	0.0	None	4.6705e-07	12
2014-01-20 08:24:00	66.53157114602479	621455440.2524	3.643072381055566e+21	1495323000983.5957	17.301942048089433	995124823663.4828	1.2534070407373492e+21	-5.894415508972675e+23	1324.5709518357553	-0.7141974220432225	22.23243405506602	4.78029937228392	27.37894292086668	104.48084532232632	106.16576727457823	34.482046539342136	0.008354390172906534	6.069546098202073e+22	-0.3919427624046184	0.032482841789387464	1.930239313558542e+23	-0.07354171367304801	-0.2338776320691139	2.9383424515476264	239.658691	294.6954350000001	-0.773858	-56.769402	1.3104360000000002	-52.663048	0.0		True	0.0	None	0.0	None	0.0	None	0.0	None	0.0	None	0.0	None	0.0	None	0.0	None	4.5602e-07	12
2014-01-20 08:36:00	68.92975606446552	632357923.109	3.684899889977388e+21	1556519964943.617	15.001670799207089	793389924805.0409	1.274581585133968e+21	-6.002499050502532e+23	1339.1320954436567	-0.7147540290581476	21.52877919982725	2.3648648648648654	26.348409257382606	105.31750701374241	106.01784861677912	35.60422929276279	0.007240188609655928	5.769400776601644e+22	-0.5473015306811291	0.02766972419624053	2.004734179386406e+23	-0.06869976014376866	-0.23871587814529524	3.1387733395860558	239.663055	294.586365	-0.785628	-56.661385	1.328628	-52.516438	0.0		True	0.0	None	0.0	None	0.0	None	0.0	None	0.0	None	0.0	None	0.0	None	0.0	None	4.8541e-07	12
2014-01-20 08:48:00	66.76632190156607	631972234.4384	3.612666510192071e+21	1526533816787.6504	11.832489061658347	623302866418.4457	1.272722439237776e+21	-6.042605234622888e+23	1315.4213303000458	-0.7199689477031131	21.497696984228764	2.272727272727273	26.22952696814447	104.05421513015064	105.7045666903289	34.86573769988571	0.005721706509505972	5.493596643843713e+22	-0.5915174502471676	0.02177145744859438	1.998292330578669e+23	-0.06545552524449089	-0.2380940621780854	2.3707149852081604	239.667358	294.477264	-0.799091	-56.554459	1.34879	-52.371021	0.0		True	0.0	None	0.0	None	0.0	None	0.0	None	0.0	None	0.0	None	0.0	None	0.0	None	4.6939999999999995e-07	12
2014-01-20 09:00:00	68.46361242107042	652885338.6468	3.736789860411288e+21	1537162091692.42	14.824293413593807	681605795296.2936	1.2942689025238174e+21	-6.1994693620729e+23	1346.2941342862018	-0.7149985578449901	21.960508530900203	2.9665071770334928	26.74230155080223	105.04042357876308	106.12627448472244	36.260351089991495	0.0070929633557865095	5.881110794110319e+22	-0.5202269439015003	0.0264791062752522	2.065427454652696e+23	-0.0678281557779886	-0.2382103314268723	2.072769795933964	239.671768	294.3681640000001	-0.805924	-56.448303	1.3718780000000002	-52.226482	0.0		True	0.0	None	0.0	None	0.0	None	0.0	None	0.0	None	0.0	None	0.0	None	0.0	None	5.5352e-07	12
2014-01-20 09:12:00	75.22239808804487	662748191.7519	3.960233661555845e+21	1683842902722.512	15.111088581625898	871409079638.9984	1.3021912224948397e+21	-6.204529009967302e+23	1410.598020139357	-0.7049327863608776	22.305210087729698	3.878902554399243	27.56018317495473	107.9355872160501	109.75122410837116	37.140880168602884	0.007148102451100236	6.269022996889849e+22	-0.8089860204978908	0.02674668316402384	2.0861739631686465e+23	-0.0712260324975299	-0.2370224109400593	2.80519327573412	239.676025	294.259033	-0.8118310000000001	-56.341511	1.366017	-52.082047	0.0		True	0.0	None	0.0	None	0.0	None	0.0	None	0.0	None	0.0	None	0.0	None	0.0	None	5.632e-07	12
2014-01-20 09:24:00	77.3384490881682	668927143.1084001	4.083372838622334e+21	1756061014499.4983	15.237930250558133	868051153823.662	1.3018046167487165e+21	-6.195816733960738e+23	1462.7623829252313	-0.6974405656422846	22.66543641368908	4.186489058039962	27.78526341298165	108.55031527038756	109.83151903467493	37.9518137856676	0.007249253211492925	6.488681292648707e+22	-0.5624997650010243	0.02684000432545249	2.1448880648384066e+23	-0.07304072643421254	-0.24144225199249786	2.378926877453976	239.680344	294.1498410000001	-0.82219	-56.23505400000001	1.385595	-51.9856	0.0		True	0.0	None	0.0	None	0.0	None	0.0	None	0.0	None	0.0	None	0.0	None	0.0	None	5.3245e-07	12
2014-01-20 09:36:00	77.00833532769414	674073370.0216	4.2144862447372903e+21	1748746548815.2742	13.041765793127567	785512665713.7617	1.2942091129427187e+21	-6.179701591564949e+23	1529.3752400879853	-0.6903158564075736	23.053141661776923	3.5180722891566263	27.76675417293646	107.99785129586569	109.6093907347075	38.5095206789706	0.006285188334037382	7.118188869194582e+22	-0.7429612915948007	0.02289240163378611	2.157135582123784e+23	-0.07951514442082541	-0.2409671202883969	2.376086115143173	239.68454	294.0406490000001	-0.830025	-56.12748000000001	1.381426	-51.840851	0.0		True	0.0	None	0.0	None	0.0	None	0.0	None	0.0	None	0.0	None	0.0	None	0.0	None	5.528199999999999e-07	12
2014-01-20 09:48:00	81.61979150501669	677931136.4621999	4.263676275615367e+21	1798667688362.7722	16.52403575553157	756586124229.1224	1.2817256192776864e+21	-6.20902441947021e+23	1601.2434302161319	-0.6896445393988312	22.746462091161188	4.1895261845386536	27.289798901263328	113.76690312903595	115.28873235894224	40.47426735700593	0.008241414341911005	7.584861096598782e+22	-0.5516874723799111	0.02885128704847073	2.138739458778115e+23	-0.0842460535501374	-0.23755261524144425	2.9365510987314183	239.688828	293.931427	-0.8386950000000001	-56.019836	1.391824	-51.743633	0.0		True	0.0	None	0.0	None	0.0	None	0.0	None	0.0	None	0.0	None	0.0	None	0.0	None	5.056899999999999e-07	12
2014-01-20 10:00:00	76.90999304267815	671529297.7971001	4.1903116794684186e+21	1678199072519.5322	16.11854466768531	987126015394.0632	1.2402242259379513e+21	-6.172777599764624e+23	1675.650855604292	-0.6921547285243511	22.68191401789232	4.514073287307489	27.107614962157808	115.77886524307252	117.97434758618564	40.36232266630634	0.008560034342902449	7.257092877740053e+22	-1.0288746200937522	0.028369441486865283	2.118828365036601e+23	-0.08137392072670338	-0.2375846283280196	2.074758065512051	239.692978	293.822174	-0.849535	-55.915028	1.391837	-51.64843	0.0		True	0.0	None	0.0	None	0.0	None	0.0	None	0.0	None	0.0	None	0.0	None	0.0	None	4.9264e-07	12
2014-01-20 10:12:00	80.86276570405897	674806008.6826	4.0863780048156224e+21	1766282075612.4768	15.17295654695388	680870821491.3616	1.2532533606956424e+21	-6.223684642904464e+23	1591.8208566265298	-0.6944742450810424	22.861387658552804	4.397309881013968	27.4011571000759	116.10938641589199	117.25695740500238	41.17854392571879	0.00784943432330775	7.793772263639415e+22	-0.6913186366959989	0.026539106452810983	2.126513069095461e+23	-0.08696735807935498	-0.23728846222932104	0.0	239.697189	293.712891	-0.8561030000000001	-55.808929000000006	1.385293	-51.50547	0.0		True	0.0	None	0.0	None	0.0	None	0.0	None	0.0	None	0.0	None	0.0	None	0.0	None	5.442e-07	12
2014-01-20 10:24:00	77.62593592369862	669138945.3246999	4.06324844466394e+21	1649598644089.941	15.423500882774448	683064805993.941	1.232067178008787e+21	-6.190339828260124e+23	1652.9301055734736	-0.6966035994044749	22.425802775761188	3.403565640194489	27.18917388878104	114.54437979314056	116.24407623663208	40.96286561179807	0.008332523437479443	7.781596986571255e+22	-0.7242801714060614	0.02717166595541396	2.073738632270117e+23	-0.08756689649272625	-0.2333593688780561	2.5574027967876907	239.701279	293.6035770000001	-0.863692	-55.703087	1.39336	-51.409702	0.0		True	0.0	None	0.0	None	0.0	None	0.0	None	0.0	None	0.0	None	0.0	None	0.0	None	5.7994e-07	12
2014-01-20 10:36:00	81.35844515280795	675085989.4627	4.198083622229774e+21	1755711328813.0068	18.248237436504787	785205669455.537	1.2359795630980984e+21	-6.199006478912392e+23	1702.2631045287937	-0.6914336319934699	22.59897818700798	4.577275175013463	27.252089519165487	115.09297455249441	116.85634307268222	40.825352525290896	0.009826729906572313	7.739370004230611e+22	-0.5312306497952212	0.03196221453229753	2.1335473448777413e+23	-0.08632448973186684	-0.23797464879527985	2.8974775744478483	239.705383	293.494232	-0.8700469999999999	-55.649841	1.394154	-51.268543	0.0		True	0.0	None	0.0	None	0.0	None	0.0	None	0.0	None	0.0	None	0.0	None	0.0	None	5.7494e-07	12
2014-01-20 10:48:00	78.9922339318443	657746323.595	4.0049117136945147e+21	1652426913294.2568	15.944372112495484	804429332381.1003	1.1939345715914083e+21	-6.036787943505795e+23	1717.3386218997284	-0.6910906114711964	22.138038594616283	3.2460136674259683	27.162404423672594	115.29615494432224	116.84311046676888	41.23942257035143	0.009079938560646627	7.640362967515197e+22	-0.8991395582857132	0.028668971265253976	2.0500813679447646e+23	-0.08746676485070562	-0.2346930187704868	2.8843187967957755	239.709427	293.3848270000001	-0.875059	-55.544052	1.415537	-51.125755	0.0		True	0.0	None	0.0	None	0.0	None	0.0	None	0.0	None	0.0	None	0.0	None	0.0	None	5.2078e-07	12
2014-01-20 11:00:00	79.79930824936706	642781411.3845	3.898009494777673e+21	1611249846841.3047	15.328030645336044	688519978156.9155	1.1550628238082553e+21	-5.901424966183606e+23	1749.1957933339213	-0.6913231001832538	21.9947354671284	1.907032181168057	27.133243308293988	115.61661668495766	117.18275665398764	41.43587472036259	0.00913470241080813	7.565348913967589e+22	-0.8053695653845003	0.02819852982377993	1.9953982320519904e+23	-0.08862436606652885	-0.23375115328704285	2.5293730535835173	239.71344	293.275391	-0.8779100000000001	-55.437279	1.412709	-50.982357	0.0		True	0.0	None	0.0	None	0.0	None	0.0	None	0.0	None	0.0	None	0.0	None	0.0	None	5.207200000000001e-07	12
2014-01-20 11:12:00	77.35271063767944	619284116.1335001	3.683597137065724e+21	1513290684205.8154	16.356962968515056	762603608235.7571	1.1083203859674568e+21	-5.709109440963922e+23	1765.5638335323777	-0.6941701098776902	21.296305254917364	2.2915340547422023	26.226348192733887	118.04484260788138	119.12072177750149	41.3044150961089	0.010411816020697044	7.706793716583367e+22	-0.9527974352870201	0.031180689162709937	1.9136577892020144e+23	-0.0937068363527834	-0.2326814806293805	0.0	239.71742200000003	293.165924	-0.888438	-55.333298	1.428574	-50.88842800000001	0.0		True	0.0	None	0.0	None	0.0	None	0.0	None	0.0	None	0.0	None	0.0	None	0.0	None	5.9794e-07	12
2014-01-20 11:24:00	77.10690019542247	613535878.2958001	3.6324274376232036e+21	1585558851410.6255	16.77709186438764	696255349070.862	1.1021882178900461e+21	-5.64433182566848e+23	1719.1522108834972	-0.6927238422482153	21.498910431327246	1.508485229415462	26.610298562147737	118.84167698456328	120.35975689954935	41.80890774097343	0.010544998029156278	7.0502947799175585e+22	-0.8497160860583083	0.03230878322421493	1.887433521111281e+23	-0.08652764294821745	-0.2316430431652441	0.0	239.721329	293.056427	-0.87829	-55.22853900000001	1.423131	-50.747227	0.0		True	0.0	None	0.0	None	0.0	None	0.0	None	0.0	None	0.0	None	0.0	None	0.0	None	8.3538e-07	12
2014-01-20 11:36:00	71.9163224483417	606651231.2416	3.559513890656396e+21	1432432374807.2246	14.779666251028935	756997651460.1672	1.0853111781213539e+21	-5.595125605186001e+23	1731.4392895686497	-0.6944776755631674	21.16258519290476	1.227390180878553	26.303416991363672	120.96642970385788	122.35323810997036	42.39105694620035	0.009547588017460551	7.213147051867082e+22	-0.9598804408935678	0.028755418190367844	1.8753978605689278e+23	-0.08953095875868967	-0.2327779640472877	0.0	239.725266	292.946869	-0.880392	-55.125992	1.433536	-50.608326	0.0		True	0.0	None	0.0	None	0.0	None	0.0	None	0.0	None	0.0	None	0.0	None	0.0	None	7.292700000000002e-07	12
2014-01-20 11:48:00	70.95756862117285	591100790.6042	3.5267599521831694e+21	1414652930379.0386	12.557519402852517	573575207963.6189	1.0709483194285072e+21	-5.443645399721991e+23	1721.0656875784298	-0.6934509683856401	21.22328803976581	1.8146467919637068	26.185117692876073	119.4908254646553	120.90951450597495	42.949605239051905	0.00813837939264583	7.248251622167018e+22	-0.7136650465177443	0.025089943686911143	1.8060872072334406e+23	-0.09233347761320386	-0.23007246631253905	0.0	239.729111	292.837311	-0.8838889999999999	-55.023422	1.433514	-50.469303	0.0		True	0.0	None	0.0	None	0.0	None	0.0	None	0.0	None	0.0	None	0.0	None	0.0	None	5.723400000000001e-07	12
2014-01-20 12:00:00	65.91670038065473	572097592.9202001	3.2632636396793894e+21	1286707162962.3994	15.345239047780025	864265821955.8973	1.0261062779894147e+21	-5.3701487489092045e+23	1708.7586770368134	-0.7068115733142115	20.450019348021364	1.321279554937413	25.299559714892716	120.608456738116	121.77934505901115	42.3895090199891	0.010671237168136316	6.486249117654363e+22	-0.8836229593913278	0.031430258609149414	1.7483821428583454e+23	-0.08537111648328961	-0.2301196467601001	0.0	239.732971	292.727661	-0.8913620000000001	-54.91946400000001	1.436457	-50.375572	0.0		True	0.0	None	0.0	None	0.0	None	0.0	None	0.0	None	0.0	None	0.0	None	0.0	None	6.112300000000001e-07	12
2014-01-20 12:12:00	67.19142329605128	561332943.1768	3.146672742816056e+21	1310191624219.1772	14.671451527500944	848815230119.3165	9.966911066705976e+20	-5.278466690728638e+23	1711.9970155936076	-0.7080676777507671	20.524101714389264	0.9393063583815028	25.52254354495913	119.91737437440105	121.3566353730478	43.67700182867013	0.010608424821041896	6.346819548240572e+22	-1.0186147948355329	0.030673271783921624	1.670181181021576e+23	-0.08513793951791569	-0.2240425827345203	0.0	239.73671	292.618011	-0.882279	-54.815052	1.43557	-50.235409	0.0		True	0.0	None	0.0	None	0.0	None	0.0	None	0.0	None	0.0	None	0.0	None	0.0	None	6.465099999999999e-07	12
2014-01-20 12:24:00	73.66431748628808	577990416.4414	3.402515092561857e+21	1464490345519.8594	10.527614177932046	606482550124.7325	1.0398066050062528e+21	-5.338091458605189e+23	1709.1726540563245	-0.6954291343928399	21.329977552249648	1.867911941294196	26.190418004861908	118.24530515066463	118.65111134726078	44.21420623976083	0.00702309151296334	6.360307571929784e+22	-0.7942274175833492	0.02148620309890037	1.781792930689765e+23	-0.08286001136396973	-0.2321261681381228	0.0	239.740509	292.508301	-0.886928	-54.710377	1.441162	-50.14089600000001	0.0		True	0.0	None	0.0	None	0.0	None	0.0	None	0.0	None	0.0	None	0.0	None	0.0	None	7.099500000000002e-07	12
2014-01-20 12:36:00	68.97685618842885	576329874.5678	3.394640417521676e+21	1330031607371.9521	8.843616413335068	657700074717.1798	1.0252145404814544e+21	-5.335615264396671e+23	1764.0582000670074	-0.6971093234063055	21.05540779924166	1.6563146997929608	25.693062445295592	119.8298613685806	120.3071408859895	44.098749826213805	0.006103254943640489	6.563151281123198e+22	-0.8910394781222853	0.018083352210461312	1.7665933129103673e+23	-0.08574894782100388	-0.2308091209864068	0.0	239.744186	292.39859	-0.890358	-54.60717	1.43773	-50.001991	0.0		True	0.0	None	0.0	None	0.0	None	0.0	None	0.0	None	0.0	None	0.0	None	0.0	None	8.481399999999998e-07	12
2014-01-20 12:48:00	68.85506948235657	568843566.9864	3.408634211844798e+21	1334741567492.4138	10.479642425003735	551714468622.1464	1.0100097905389154e+21	-5.251819435935774e+23	1792.3583385320105	-0.6951914065570415	21.3825564492892	1.9553072625698324	25.960302099048786	119.34023529185326	120.21567048791272	44.02864270343677	0.0073181860509802625	5.7521761838269215e+22	-0.7563418761587221	0.021735261361994444	1.7203330220203738e+23	-0.07614243979212572	-0.2277231248929585	0.0	239.747864	292.288818	-0.895912	-54.505573	1.435594	-49.910267	0.0		True	0.0	None	0.0	None	0.0	None	0.0	None	0.0	None	0.0	None	0.0	None	0.0	None	6.4358e-07	12
2014-01-20 13:00:00	67.8776797344741	560057402.3189001	3.258209940406022e+21	1335224395315.1687	6.610390020336013	674154777198.207	9.977558959093168e+20	-5.142870768951292e+23	1715.6571326450405	-0.6914496211179378	21.0503574390232	1.6083916083916083	26.299400134359693	117.67028394884665	117.97260410483564	43.91944638434659	0.0046226503638713366	5.872792336143934e+22	-0.9255074900984126	0.013956144934819548	1.718167909095308e+23	-0.07895862482578185	-0.2310045504027329	0.0	239.751495	292.178986	-0.896093	-54.403198	1.441545	-49.772434	0.0		True	0.0	None	0.0	None	0.0	None	0.0	None	0.0	None	0.0	None	0.0	None	0.0	None	6.6072e-07	12
2014-01-20 13:12:00	67.52052533620683	552564513.0962999	3.287210617739728e+21	1325716195872.875	7.4584405025294975	541541502694.4478	9.872829992034584e+20	-5.086354542009645e+23	1745.5760571438684	-0.6931242846001445	21.45723845431653	1.3399153737658671	26.1886198794062	116.00651417250047	116.65361462039313	42.743155654397356	0.0052598311019248925	6.195154935650214e+22	-0.7497587627055368	0.015944327132622216	1.7165337897651195e+23	-0.08442219859614862	-0.233914337900802	0.0	239.75506600000003	292.069122	-0.8939370000000001	-54.251595	1.441169	-49.679642	0.0		True	0.0	None	0.0	None	0.0	None	0.0	None	0.0	None	0.0	None	0.0	None	0.0	None	8.9102e-07	12
2014-01-20 13:24:00	67.81886643380928	551292184.4753001	3.3064341751110136e+21	1320388095070.025	9.42598112802374	671139309894.0193	9.819563673947191e+20	-5.070070336686028e+23	1778.358393446159	-0.6924997042177454	21.35592338355989	1.5	26.09700267559637	116.26453218065916	117.00003290136722	43.05834738786528	0.0067328436628741	6.2949250415562005e+22	-0.9411533841560524	0.02020440774739069	1.710521081844017e+23	-0.08597974860048772	-0.2336329211577472	0.0	239.758606	291.959198	-0.8935850000000001	-54.15013100000001	1.438128	-49.542637	0.0		True	0.0	None	0.0	None	0.0	None	0.0	None	0.0	None	0.0	None	0.0	None	0.0	None	7.9433e-07	12
2014-01-20 13:36:00	63.76675453976428	544824645.2953	3.152050027039995e+21	1194457917017.4126	9.658617831408096	644523717992.0629	9.541972919953267e+20	-5.029102782305349e+23	1800.7990655365204	-0.6950584572066287	20.731671282619605	1.0622154779969648	25.822979391238146	117.84288422338749	119.28191859865495	41.992801340490104	0.007328238111842258	6.1946667323032085e+22	-0.9600839469482106	0.020917200197968208	1.6781757021329327e+23	-0.08561478435106024	-0.2319360460379125	0.0	239.76207	291.8492740000001	-0.8977940000000001	-54.047649	1.437264	-49.450474	0.0		True	0.0	None	0.0	None	0.0	None	0.0	None	0.0	None	0.0	None	0.0	None	0.0	None	6.2254e-07	12
2014-01-20 13:48:00	64.81654464707786	540801353.9504001	3.127590161544229e+21	1226177010833.1548	10.589000371386538	711864224361.8611	9.458147367347736e+20	-4.990016326413521e+23	1806.008506784712	-0.6947870914721516	20.350470704092587	0.8435582822085892	25.591079231336213	119.90994458355247	120.60895176617348	43.9832086132977	0.008120399057811763	6.4541703197931354e+22	-1.0718033986682889	0.02310638692426352	1.6630025282473706e+23	-0.08986492089451628	-0.23154887962907136	0.0	239.765594	291.739288	-0.894799	-53.943996	1.440469	-49.311935	0.0		True	0.0	None	0.0	None	0.0	None	0.0	None	0.0	None	0.0	None	0.0	None	0.0	None	5.6558e-07	12
2014-01-20 14:00:00	60.19543705420303	529037009.2344001	3.1059729394981704e+21	1218322859380.5444	9.488740740350186	748797767066.2085	9.545426684294775e+20	-4.871750428497555e+23	1707.1222428310693	-0.6934042480473535	20.883357533077763	1.4598540145985401	25.838871891444267	112.84956201984319	113.06304632123944	42.153467261814384	0.006926088131642472	6.00610045474524e+22	-1.073122664012111	0.021183215132723497	1.6487028242291004e+23	-0.08548581522481373	-0.2346625835758781	0.0	239.768951	291.629242	-0.8954110000000001	-53.84020200000001	1.4431459999999998	-49.173389	0.0		True	0.0	None	0.0	None	0.0	None	0.0	None	0.0	None	0.0	None	0.0	None	0.0	None	5.5387e-07	12
2014-01-20 14:12:00	63.32796621957308	529740965.9911001	3.382465464005724e+21	1294935209581.9695	7.626032936943961	625502476170.0979	9.741089426301245e+20	-4.783373727349767e+23	1761.3781217682606	-0.6799207170897772	21.91161464925669	1.7980636237897647	26.402023141029428	108.82282486059154	109.03270278316694	41.33630675531245	0.00527388169913137	6.572621884840409e+22	-0.8493290384075797	0.01713863884802402	1.6630660574128766e+23	-0.09342489296935264	-0.2363923729936791	0.0	239.7724	291.519196	-0.896257	-53.689728	1.438952	-49.081051	0.0		True	0.0	None	0.0	None	0.0	None	0.0	None	0.0	None	0.0	None	0.0	None	0.0	None	7.760500000000002e-07	12
2014-01-20 14:24:00	64.45488553344804	523441570.45760006	3.3521696417096537e+21	1312146565278.4336	11.607108510183313	884109463043.7421	9.643145399659448e+20	-4.724533156282201e+23	1761.4380387216681	-0.679638954977147	21.648140536284366	0.9769713886950452	26.152677910619005	111.51280167637428	110.9703259005308	42.37380117944293	0.008099866371377048	6.170439653733465e+22	-1.2113926122443883	0.02640401017493376	1.632300462949464e+23	-0.0887637152559009	-0.2348115557983869	0.0	239.775696	291.409088	-0.8955139999999999	-53.594395	1.439913	-48.950542	0.0		True	0.0	None	0.0	None	0.0	None	0.0	None	0.0	None	0.0	None	0.0	None	0.0	None	7.7704e-07	12
2014-01-20 14:36:00	67.99001243708177	525112029.9684	3.416923228587074e+21	1405558883086.0845	12.650037479314225	834097448891.4419	9.692534676381392e+20	-4.719637862419967e+23	1751.4630060993666	-0.6767749135131911	22.076872890768822	1.9060585432266848	26.905867367254327	110.73040328241692	109.95287656071993	42.17606884559707	0.008611325717708798	6.403401783839163e+22	-1.1148841592311984	0.02873393283631228	1.642608475645485e+23	-0.09182191123083122	-0.2355426923520361	0.0	239.779083	291.298981	-0.902237	-53.49276700000001	1.442956	-48.814167	0.0		True	0.0	None	0.0	None	0.0	None	0.0	None	0.0	None	0.0	None	0.0	None	0.0	None	6.523300000000001e-07	12
2014-01-20 14:48:00	63.866195757870344	534707678.2798	3.501275692978625e+21	1291979610851.291	11.450233074182576	510818072683.0536	9.771345388565405e+20	-4.822536058734593e+23	1827.0378625019518	-0.6791201756960411	21.98019433691436	1.8018018018018016	26.33859769337568	111.43682594686649	111.15064558724319	42.35463893075447	0.007935019455427982	6.7650168249838985e+22	-0.5819325692673118	0.025506221225579283	1.6921914814609944e+23	-0.09526646060942563	-0.23829814068879746	0.0	239.782318	291.188812	-0.906411	-53.345119	1.442009	-48.679466	0.0		True	0.0	None	0.0	None	0.0	None	0.0	None	0.0	None	0.0	None	0.0	None	0.0	None	8.6397e-07	12
2014-01-20 15:00:00	63.475834684081256	531482559.8322	3.4721451488137566e+21	1276121902995.9297	10.937463989682104	551789386289.7996	9.694230389903312e+20	-4.7772271027026164e+23	1829.587170431979	-0.6768217903672524	21.91029851865191	1.8894331700489853	26.334495641413532	112.21661368513807	111.96095167150251	42.724730736875344	0.007653928614193219	6.919128841034238e+22	-0.7582192951987397	0.024545433393292813	1.6378866377361988e+23	-0.0980279369034218	-0.23205038042760626	0.0	239.785614	291.078613	-0.912457	-53.245201	1.435916	-48.54472	0.0		True	0.0	None	0.0	None	0.0	None	0.0	None	0.0	None	0.0	None	0.0	None	0.0	None	1.0119e-06	12
2014-01-20 15:12:00	60.735255481692974	525182859.6649	3.483712097793594e+21	1250594594720.7495	9.134621680587411	511075205743.2993	9.627014379310947e+20	-4.625782963400013e+23	1804.119571895009	-0.6632269670239188	22.314796194370622	2.269601100412655	27.212529589687662	108.67615305299141	108.63772830554363	42.022205515433676	0.0062824083085195395	7.0131257335910135e+22	-0.6538903010735926	0.020915030366576232	1.6283223015513535e+23	-0.10055149898836152	-0.2334625878343275	0.0	239.788788	290.968384	-0.906264	-53.146759	1.445976	-48.411411	0.0		True	0.0	None	0.0	None	0.0	None	0.0	None	0.0	None	0.0	None	0.0	None	0.0	None	8.9323e-07	12
2014-01-20 15:24:00	64.94860234231604	528999023.2340001	3.5232381024937333e+21	1339081831595.6553	11.102325563759381	581658670206.2471	9.706314679654912e+20	-4.686542295131193e+23	1822.0830846415768	-0.6670912250393715	22.63330717828404	2.335164835164836	27.07479390219528	107.73461719556104	107.99901045339467	42.215661162181966	0.00762522360148309	6.652264697354046e+22	-0.7046169980354025	0.025178492160498	1.6436857587944358e+23	-0.09468958406401938	-0.2339653154422784	0.0	239.791977	290.8581240000001	-0.905547	-53.047325	1.442843	-48.277744	0.0		True	0.0	None	0.0	None	0.0	None	0.0	None	0.0	None	0.0	None	0.0	None	0.0	None	6.9717e-07	12
2014-01-20 15:36:00	69.28329378416325	537310732.8859	3.5322225350385284e+21	1416954740412.7795	11.863092608855656	810843929740.8881	9.881987997536824e+20	-4.835791142265201e+23	1825.4758862004776	-0.6776877182038799	22.048014059493536	1.7158544955387784	26.24725813894949	112.67809428858908	112.28055024717241	42.531739006542956	0.008142136313559133	6.299889778372306e+22	-1.092845661159185	0.02632032668540837	1.6902823342843377e+23	-0.08828664851809967	-0.236876147985355	0.0	239.795135	290.747833	-0.910561	-52.898029	1.437785	-48.18626	0.0		True	0.0	None	0.0	None	0.0	None	0.0	None	0.0	None	0.0	None	0.0	None	0.0	None	6.9518e-07	12
2014-01-20 15:48:00	69.48373735171651	550096139.6209	3.6766247147980556e+21	1476670224426.8103	9.958119651690053	768622924659.5391	1.0210135475915968e+21	-4.874077240132572e+23	1783.795804684529	-0.667177455692794	22.630576051675405	2.6417525773195876	27.16966997552545	109.21686491592644	109.55821786927187	42.35976269145418	0.006416314208563178	6.514306356938536e+22	-0.972548612307393	0.02171635386057406	1.7630377117142256e+23	-0.08916966487604189	-0.24132958031661164	0.0	239.798264	290.637512	-0.914162	-52.798717	1.444821	-48.052422	0.0		True	0.0	None	0.0	None	0.0	None	0.0	None	0.0	None	0.0	None	0.0	None	0.0	None	8.186399999999998e-07	12
2014-01-20 16:00:00	70.61717653420884	562655057.5254	3.9191045917574043e+21	1509841821094.5027	13.079918549938435	870828764938.1815	1.0479260063418344e+21	-4.946335606897549e+23	1829.5319495400413	-0.6619556057060526	23.41258762567081	2.169869807811532	27.34277874205264	109.47099017545216	109.83915585547192	41.371546742793505	0.0081090629571844	6.836863049568083e+22	-0.9138904754139554	0.02797521220968973	1.8218009656984602e+23	-0.0914960120133213	-0.2438070235353875	0.0	239.801392	290.527191	-0.904181	-52.700836	1.444182	-47.920238	0.0		True	0.0	None	0.0	None	0.0	None	0.0	None	0.0	None	0.0	None	0.0	None	0.0	None	8.3484e-07	12
2014-01-20 16:12:00	74.69174263770151	574528828.2613001	3.834780196062016e+21	1603662102648.6506	13.196922980045807	963288459028.5292	1.0520956836487572e+21	-5.093254229257525e+23	1796.8515647462082	-0.6675305284612701	22.871563675907666	2.177971375233354	27.42036753194107	111.30723686554958	111.50907966935664	43.474213381000816	0.008212148711914006	6.814978101262335e+22	-0.7237687040227266	0.027549711730858108	1.8489588206328947e+23	-0.08931825761328226	-0.2423276756047823	0.0	239.804443	290.41684	-0.907865	-52.554947	1.440465	-47.831509	0.0		True	0.0	None	0.0	None	0.0	None	0.0	None	0.0	None	0.0	None	0.0	None	0.0	None	7.2175e-07	12
2014-01-20 16:24:00	78.78203881994351	598775232.3018	4.0783111022329106e+21	1769679083023.2275	12.951213013228225	834770033783.9818	1.1220426735368611e+21	-5.2649516357928564e+23	1726.203249776655	-0.6620916099542019	23.32458851731882	1.6301292861157952	27.76948217459773	108.95382222721918	108.12999599547877	44.522425247163135	0.0072800522839956295	7.417325542242298e+22	-0.9215199424684244	0.026026852865937804	1.899736678126269e+23	-0.093276241635942	-0.2389005261052612	0.0	239.807556	290.306458	-0.911457	-52.456383	1.436833	-47.698555	0.0		True	0.0	None	0.0	None	0.0	None	0.0	None	0.0	None	0.0	None	0.0	None	0.0	None	5.992900000000001e-07	12
2014-01-20 16:36:00	78.02896712358259	593367783.2843001	4.166805613665607e+21	1724212627068.5269	10.19007089278501	744573027158.5708	1.10610500122406e+21	-5.133107717709886e+23	1783.7127759842429	-0.6513942747072073	23.597319214628076	3.1267765776009093	28.193485487588248	111.02717705814749	110.02102103439043	45.384865902310345	0.005793104543936903	7.3080535055037956e+22	-0.8313093935480863	0.02079852151427069	1.929658455144336e+23	-0.09273961261936954	-0.244874750141064	0.0	239.810547	290.196045	-0.915358	-52.359028	1.443847	-47.567062	0.0		True	0.0	None	0.0	None	0.0	None	0.0	None	0.0	None	0.0	None	0.0	None	0.0	None	5.7713e-07	12
2014-01-20 16:48:00	78.38884440610681	593254224.196	4.236620011034235e+21	1804406100350.549	9.147330358209775	818669021600.9912	1.1233377570940934e+21	-5.144891942848875e+23	1731.8785920943121	-0.6530147260477139	24.28960361314541	3.474484256243214	28.436801958286523	107.52481436011252	106.53796294212776	43.722794150844535	0.004965977393164919	7.088794140219054e+22	-0.8728648892329377	0.018655495898536142	1.9623436692598093e+23	-0.08997442540883623	-0.2490702094092165	0.0	239.813629	290.085632	-0.908273	-52.212654	1.443163	-47.477463	0.0		True	0.0	None	0.0	None	0.0	None	0.0	None	0.0	None	0.0	None	0.0	None	0.0	None	5.4773e-07	12
2014-01-20 17:00:00	75.97141771596056	592850003.8762	4.2350273154429134e+21	1802501959777.0527	9.288592649842153	747899636698.1733	1.16420285562194e+21	-5.138168182687555e+23	1607.3188516962591	-0.6526058745999311	24.549064643290077	3.3266129032258065	28.403202316490155	101.31620100487072	100.51730841981032	41.249897605044495	0.004681750327541407	6.827147329122319e+22	-0.7403490527513776	0.018961198892251417	1.965629606843491e+23	-0.0867125460929153	-0.2496573454009922	0.0	239.816589	289.975189	-0.909724	-52.114906	1.443529	-47.345726	0.0		True	0.0	None	0.0	None	0.0	None	0.0	None	0.0	None	0.0	None	0.0	None	0.0	None	5.86e-07	12
2014-01-20 17:12:00	78.96994157420194	610962434.0913	4.3992637475395134e+21	1956419147832.2668	11.017480978732808	800107619543.2672	1.2050588453269456e+21	-5.2691455286479496e+23	1582.6988118053146	-0.6494013550263709	24.798787658523683	4.108934543717153	28.955286362993213	99.79453583477684	99.559521170239	39.7581052553983	0.005263966067239755	6.8398817508594895e+22	-0.7507931455187251	0.021866106055679086	2.017782487769459e+23	-0.08429883845641402	-0.2486837143862681	0.0	239.819611	289.864716	-0.911596	-51.970909000000006	1.4416719999999998	-47.214607	0.0		True	0.0	None	0.0	None	0.0	None	0.0	None	0.0	None	0.0	None	0.0	None	0.0	None	5.7767e-07	12
2014-01-20 17:24:00	73.20767249692057	610709098.102	4.2954717560301106e+21	1714456796860.7505	7.29634216513508	593654110195.76	1.1901662905372568e+21	-5.331699943128773e+23	1619.6467837502307	-0.657383531778901	23.82594477107639	2.904356534802204	28.003130009163236	105.45162867815924	104.48896851980284	41.27554383166176	0.0036536515599074008	6.8376142716201215e+22	-0.58385143257893	0.014417095611974375	2.016107229184486e+23	-0.08430585116876843	-0.2485803223931089	0.0	239.822571	289.754272	-0.910943	-51.873787	1.443511	-47.127186	0.0		True	0.0	None	0.0	None	0.0	None	0.0	None	0.0	None	0.0	None	0.0	None	0.0	None	5.658500000000001e-07	12
2014-01-20 17:36:00	71.96892013505362	606404705.3679	4.222212961609722e+21	1677632373421.0637	8.084311737686537	680445459535.6444	1.1765352044597612e+21	-5.2876120834470784e+23	1604.8820903988392	-0.6565752313121417	23.87086401651512	3.382130237253912	28.04897634469234	105.20286696291141	104.59485842005743	40.930571276205846	0.0040809246530472175	6.691510544056783e+22	-0.6746229445771119	0.01609530909996942	2.00226642759116e+23	-0.08309006057848968	-0.2486261325712017	0.0	239.825516	289.643768	-0.907098	-51.728542	1.446465	-46.994598	0.0		True	0.0	None	0.0	None	0.0	None	0.0	None	0.0	None	0.0	None	0.0	None	0.0	None	7.0115e-07	12
