Timestamp	TOTUSJH	TOTBSQ	TOTPOT	TOTUSJZ	ABSNJZH	SAVNCPP	USFLUX	TOTFZ	MEANPOT	EPSZ	MEANSHR	SHRGT45	MEANGAM	MEANGBT	MEANGBZ	MEANGBH	MEANJZH	TOTFY	MEANJZD	MEANALP	TOTFX	EPSY	EPSX	R_VALUE	CRVAL1	CRLN_OBS	LAT_MIN	LON_MIN	LAT_MAX	LON_MAX	QUALITY	NOAA_AR	IS_TMFI	BFLARE	BFLARE_label	CFLARE	CFLARE_label	MFLARE	MFLARE_label	XFLARE	XFLARE_label	BFLARE_loc	BFLARE_label_loc	CFLARE_loc	CFLARE_label_loc	MFLARE_loc	MFLARE_label_loc	XFLARE_loc	XFLARE_label_loc	XR_MAX	XR_QUAL
2014-02-21 13:24:00	25.44564030562145	176542363.2353	1.368466598753849e+21	594705723362.2847	5.697952485857309	526383185507.6602	3.529478162789343e+20	-1.3814783575205335e+23	1734.7434476358515	-0.5892270129943535	22.44669884993636	3.872053872053872	30.31259411467369	146.54150063374726	143.8438878830986	60.07219247284851	0.009592512602453385	3.8698521034916e+21	1.7222452067760063	0.040617570676386376	-7.064306608794777e+22	-0.01650566136817948	0.3013062245468112	0.0	254.523102	230.608261	-14.375016	21.402626	-11.655149	26.008583	0.0		True	0.0	None	0.0	None	0.0	None	0.0	None	0.0	None	0.0	None	0.0	None	0.0	None	1.8727e-06	12
2014-02-21 13:36:00	25.141485381871053	172596324.6799	1.3087824536813374e+21	589085116428.7194	3.4154039401957283	306048472545.7215	3.5225327111264305e+20	-1.345794236215196e+23	1620.8819017772107	-0.5871304559354926	22.183015776815548	2.960526315789473	30.258201202959253	138.42236802102505	136.2787315965742	57.115669688163386	0.005617440691111396	4.375396574277648e+21	0.9783112347691192	0.02493606387653824	-6.923780338958853e+22	-0.01908856879026973	0.30206417874419256	0.0	254.525696	230.498352	-14.370389	21.508383	-11.65384	26.116501	0.0		True	0.0	None	0.0	None	0.0	None	0.0	None	0.0	None	0.0	None	0.0	None	0.0	None	1.1081e-06	12
2014-02-21 13:48:00	23.79866371398651	174628830.8125	1.2607535619621952e+21	543555309126.9553	3.944351764472332	363648351257.2801	3.4633835284496725e+20	-1.4067121698252403e+23	1680.2318219613517	-0.6065641632316189	21.703896249220772	2.3008849557522124	29.214052260495	143.04131110156877	141.44303172743392	58.020405658867254	0.006981153565437754	2.975435929268503e+21	1.2509343157727526	0.02811846530556266	-6.79157109801729e+22	-0.012829865578757723	0.2928476577129978	0.0	254.528275	230.388428	-14.386758	21.629993	-11.667115	26.22376400000001	0.0		True	0.0	None	0.0	None	0.0	None	0.0	None	0.0	None	0.0	None	0.0	None	0.0	None	9.127299999999999e-07	12
2014-02-21 14:00:00	24.01433796550312	173801450.337	1.225511042782709e+21	536062815422.87103	3.3460087620215475	337458336217.9589	3.4169608403959264e+20	-1.406187265107446e+23	1671.7284447769541	-0.6092244789758161	21.39568693613941	1.4492753623188406	29.026901486992003	144.3500830263524	142.6511681136881	59.333317398419744	0.006061610076125992	2.8763071943833394e+21	1.1882106781171686	0.023926933526570604	-6.944159035175624e+22	-0.012461475049261579	0.3008526513576996	0.0	254.530823	230.278473	-14.383875	21.735872	-11.665953	26.348448	0.0		True	0.0	None	0.0	None	0.0	None	0.0	None	0.0	None	0.0	None	0.0	None	0.0	None	9.1064e-07	12
2014-02-21 14:12:00	23.32212419081048	174232214.4636	1.2812797045327308e+21	542163585098.6449	4.483774643360958	384921003265.7865	3.465747070079487e+20	-1.3603559584416248e+23	1654.8661490947586	-0.5879110011472646	21.994538924560786	1.3722126929674099	30.328112199814754	143.02523307168428	139.64109830250956	60.683171207319916	0.007690865597531659	1.122109233037591e+21	1.2832939024002687	0.03241299470550856	-6.991245892687705e+22	-0.004849468688676519	0.3021437401388136	0.0	254.53334	230.168488	-14.381042	21.858624	-11.666498	26.453585	0.0		True	0.0	None	0.0	None	0.0	None	0.0	None	0.0	None	0.0	None	0.0	None	0.0	None	9.0643e-07	12
2014-02-21 14:24:00	23.34413169724013	167380724.79909998	1.2428662075245168e+21	543806300077.767	5.148377445241684	443434381187.4429	3.3403922482337513e+20	-1.3146758856700487e+23	1647.6444467007327	-0.5914264011397823	22.178554627158903	2.8169014084507045	30.591084686643185	141.16012172683273	138.67933174241483	59.9588643791241	0.009064044797960712	3.420582421780647e+21	1.5174512833040483	0.03865523981884717	-6.783611255379032e+22	-0.015387996186487118	0.30517079040020184	0.0	254.535919	230.058472	-14.377075	21.959524	-11.664237	26.562187	0.0		True	0.0	None	0.0	None	0.0	None	0.0	None	0.0	None	0.0	None	0.0	None	0.0	None	8.76e-07	12
2014-02-21 14:36:00	25.230949560828492	169640691.6013	1.2271151787217471e+21	569476443653.8672	6.400387294207211	523921850671.6945	3.3596541430057966e+20	-1.3188617902908723e+23	1655.916970664796	-0.5854053399740972	21.1868275126282	0.8960573476702508	30.17312279166889	145.0175702322081	142.49556650122298	60.08258469009356	0.011470228125819376	3.1859319823157234e+21	1.8250574168032687	0.047595500606124726	-6.998178258306645e+22	-0.014141448398702563	0.3106292829667772	0.0	254.538376	229.948425	-14.372159	22.05699	-11.677743	26.683104	0.0		True	0.0	None	0.0	None	0.0	None	0.0	None	0.0	None	0.0	None	0.0	None	0.0	None	7.9582e-07	12
2014-02-21 14:48:00	23.052230532367343	168648179.14600003	1.2610278420666185e+21	523697350280.7402	5.142367138980903	442858727215.7556	3.355085214659472e+20	-1.3158354449492656e+23	1704.7351482060953	-0.5874993082921167	21.887126221386247	2.154398563734291	29.645191589277378	139.51617730035423	138.21783968860728	57.01536158723067	0.009232256982012393	5.830318700537112e+20	1.5454841588413908	0.038414737883208205	-7.0138467484002905e+22	-0.0026031432857626163	0.3131569474715709	0.0	254.540802	229.838348	-14.369713	22.157745	-11.677037	26.791676	0.0		True	0.0	None	0.0	None	0.0	None	0.0	None	0.0	None	0.0	None	0.0	None	0.0	None	7.8961e-07	12
2014-02-21 15:00:00	22.48079685493245	168344969.03750002	1.2325302706452706e+21	522399916959.9318	3.1369084429097507	272927791108.6472	3.3489589622211045e+20	-1.3171960900631607e+23	1636.8238110036789	-0.5891660179652073	22.29947187638918	2.9982363315696645	30.4792358704485	134.78776775624058	133.74687288414148	55.98427695152757	0.005532466389611553	4.8483377786983855e+20	0.9356842065168668	0.023451057253086192	-6.952958020220989e+22	-0.0021686033570666287	0.3109974756800578	0.0	254.543213	229.728256	-14.365058	22.258648	-11.675811	26.900429	0.0		True	0.0	None	0.0	None	0.0	None	0.0	None	0.0	None	0.0	None	0.0	None	0.0	None	7.9477e-07	12
2014-02-21 15:12:00	22.66293374615031	172856899.44900003	1.250185816030723e+21	537394351629.5582	2.8342975746382715	312485985501.9634	3.441847533097519e+20	-1.361016872327748e+23	1651.5331007230272	-0.5928766702565824	21.760761919157254	1.5789473684210529	29.719000339918505	135.41036700558058	133.8120946821016	57.80261119253064	0.0049724518853303	-1.1205531045270732e+21	1.0656885137629304	0.020587640240744758	-6.966736294173332e+22	0.004881275221235497	0.3034801037830571	0.0	254.545578	229.618134	-14.373822	22.356434	-11.689884	27.005327	0.0		True	0.0	None	0.0	None	0.0	None	0.0	None	0.0	None	0.0	None	0.0	None	0.0	None	7.663500000000002e-07	12
2014-02-21 15:24:00	22.104084545501667	172346881.17790002	1.2226114482447474e+21	519615002578.1383	3.193941497709205	386744024060.3385	3.517980165411666e+20	-1.3814313595756137e+23	1547.2446228978774	-0.6035501630269039	21.479725638999987	1.680672268907563	29.46821723496277	129.90276498832577	128.3919311659106	55.51514418217743	0.00536796890371295	-5.849277906476256e+20	1.2635449405042205	0.023113779915282687	-6.934687502609439e+22	0.0025555613817308718	0.3029779035873601	0.0	254.548035	229.50798	-14.374596	22.449512	-11.687274	27.111263	0.0		True	0.0	None	0.0	None	0.0	None	0.0	None	0.0	None	0.0	None	0.0	None	0.0	None	7.528900000000002e-07	12
2014-02-21 15:36:00	22.92988651184241	177906048.04260004	1.283764898264152e+21	545225337816.1368	1.8758612543919693	260208784148.6717	3.5651265392519086e+20	-1.4077840198346025e+23	1608.4167754266534	-0.5958444356215311	21.686176624563775	2.1630615640599005	29.97121839354337	136.98588670124028	134.83872707350045	60.03858330566618	0.003121233368372661	2.3378716547249904e+21	0.8416680001779966	0.013214460671162168	-7.0425641919594076e+22	-0.009895039274766369	0.2980764539989216	0.0	254.550354	229.397812	-14.369778	22.548403	-11.692721	27.233608	0.0		True	0.0	None	0.0	None	0.0	None	0.0	None	0.0	None	0.0	None	0.0	None	0.0	None	9.364299999999998e-07	12
2014-02-21 15:48:00	23.45034599662468	181957401.861	1.2199990859425634e+21	545329449107.7418	2.727189372096591	255718288573.9175	3.60346280632098e+20	-1.4363616726352634e+23	1549.146102133065	-0.5944038965736725	20.885398991105905	1.1804384485666104	29.52498536847828	137.49302961008286	136.5792997542092	59.520033422126744	0.004598970273350069	1.1989000532452264e+21	0.8383189447508312	0.01880083843740601	-7.098087280729435e+22	-0.0049613608941813155	0.29373735168976256	0.0	254.552673	229.287628	-14.366093	22.645641	-11.707106	27.33810200000001	0.0		True	0.0	None	0.0	None	0.0	None	0.0	None	0.0	None	0.0	None	0.0	None	0.0	None	8.920100000000002e-07	12
2014-02-21 16:00:00	23.56528920759227	188480420.5466	1.3239820598193352e+21	521760145448.252	2.9377513168422387	300088131492.9697	3.655254536435393e+20	-1.5209444170819163e+23	1730.800739244363	-0.6076234916267323	21.268834899114076	2.430555555555556	28.90342075760147	141.4262284902523	139.63311456617632	62.186895576037614	0.0051002627028511075	4.643733237159655e+21	1.0128307514312491	0.019390742509905905	-7.422913952197732e+22	-0.018551903488752464	0.2965484368148512	0.0	254.554962	229.177414	-14.36213	22.745016	-11.704963	27.44488	0.0		True	0.0	None	0.0	None	0.0	None	0.0	None	0.0	None	0.0	None	0.0	None	0.0	None	8.9825e-07	12
2014-02-21 16:12:00	23.097938970025247	186903792.2344	1.2873655475191326e+21	504155599442.7381	0.2020738763193141	75750030238.24017	3.5642677491334434e+20	-1.5107226550611267e+23	1759.2913410017184	-0.6086310582074059	21.0717260650623	1.2704174228675136	28.740098772114692	140.80927676752918	139.66989769102256	60.878955444657755	0.000366740247403474	5.513071914086119e+21	0.267269769791405	0.0013442053063240085	-7.61032084691803e+22	-0.02221073988532989	0.3066001303972096	0.0	254.557343	229.0672	-14.357891	22.846085	-11.711118	27.549829	0.0		True	0.0	None	0.0	None	0.0	None	0.0	None	0.0	None	0.0	None	0.0	None	0.0	None	8.747299999999998e-07	12
2014-02-21 16:24:00	23.37024030473513	188695490.931	1.3272283880722158e+21	525036296615.1554	2.6826630006221883	304172509546.23315	3.665102845857186e+20	-1.494037789824683e+23	1705.4360792150446	-0.5961938068924889	21.61515726121985	2.901023890784983	29.331158904471213	136.15918514320367	134.6828692198244	58.36630034403232	0.004577923209252881	7.637031951095498e+21	1.0091332400344597	0.01781348823707537	-7.878024612552691e+22	-0.030475475140541688	0.3143715317335889	0.0	254.559601	228.956955	-14.355348	22.943495	-11.72298	27.662003	0.0		True	0.0	None	0.0	None	0.0	None	0.0	None	0.0	None	0.0	None	0.0	None	0.0	None	8.665899999999998e-07	12
2014-02-21 16:36:00	24.513557330492358	185241260.7827	1.4036165545660986e+21	533476247819.5679	0.3226583010366585	112128472682.38052	3.6056020199131926e+20	-1.4552619544632786e+23	1838.095584161627	-0.5915492417148017	22.383107731328963	2.608695652173913	29.529260431766343	131.45661347502343	129.87583155154962	59.07629537430463	0.0005611448713681019	5.977900861841533e+21	0.379124141647748	0.0021888451080024312	-7.746943520794377e+22	-0.02429956140214514	0.31490540594964395	0.0	254.561844	228.846695	-14.351009	23.040382	-11.722209	27.778587	0.0		True	0.0	None	0.0	None	0.0	None	0.0	None	0.0	None	0.0	None	0.0	None	0.0	None	8.6009e-07	12
2014-02-21 16:48:00	22.013955342802358	173552223.68530002	1.25788021067403e+21	494007943858.5991	0.9676633438627014	23183261022.36037	3.38379433669285e+20	-1.352611007429806e+23	1734.739017155044	-0.5868542300995406	22.288950894459877	3.47985347985348	29.95284486029973	132.69930448620872	131.22614460247672	58.58859754051138	-0.0017722771865617238	9.948756402194975e+21	-0.08255093173474687	-0.007027276938612332	-7.277659234320762e+22	-0.04316444082435872	0.31575412911947365	0.0	254.564072	228.73642	-14.348775	23.141836	-11.726968	27.884626	0.0		True	0.0	None	0.0	None	0.0	None	0.0	None	0.0	None	0.0	None	0.0	None	0.0	None	1.0758e-06	12
2014-02-21 17:00:00	23.50119309354719	176043593.0135	1.293989384460573e+21	526072713894.6255	0.19335798085559805	65778948019.1499	3.4448674176650694e+20	-1.373007854365687e+23	1718.4429519411747	-0.5872733081423294	22.482693088633393	2.4691358024691357	30.2736423175788	137.02497826990378	135.07627278511532	60.37471822073171	0.0003410193665883563	1.307935036632818e+22	0.225553764699585	0.0013839492382775995	-7.106690161595394e+22	-0.05594398701771985	0.3039727287700631	0.0	254.566284	228.626129	-14.344589	23.26544	-11.740484	27.987762	0.0		True	0.0	None	0.0	None	0.0	None	0.0	None	0.0	None	0.0	None	0.0	None	0.0	None	1.3388e-06	12
2014-02-21 17:12:00	22.78616182584523	162616346.9911	1.2381336401377244e+21	525830531221.2326	0.2334157343516883	141814337782.96588	3.194396807906269e+20	-1.246058052863381e+23	1762.3792528268102	-0.576981110720899	22.79132951273872	3.9697542533081283	30.64933768662751	137.60287803382624	136.88955327343785	59.46642852584709	0.0004412395734436451	1.6962256066604549e+22	0.5212143526293025	0.0018204109181864173	-6.614156826660544e+22	-0.07854290033399307	0.3062653095142136	0.0	254.568573	228.515823	-14.339232	23.362783	-11.745744	28.09638	0.0		True	0.0	None	0.0	None	0.0	None	0.0	None	0.0	None	0.0	None	0.0	None	0.0	None	1.6662e-06	12
2014-02-21 17:24:00	22.243350192345066	153525019.9092	1.185056035983405e+21	499890042347.2094	2.1436385409403997	194411313969.7694	3.0637126875777624e+20	-1.1829593777961955e+23	1736.0538199799005	-0.5802004831921351	23.251266423311318	4.474708171206227	30.672002871760537	133.86976961902252	133.99154325511623	56.98626887823446	0.004170502997938521	1.682983784947093e+22	0.7353858760581888	0.017672182984946116	-6.245580573137044e+22	-0.08254450859081497	0.3063240322842115	0.0	254.57077	228.40551800000003	-14.350018	23.46414	-11.755011	28.202456	0.0		True	0.0	None	0.0	None	0.0	None	0.0	None	0.0	None	0.0	None	0.0	None	0.0	None	1.6466999999999996e-06	12
2014-02-21 17:36:00	26.363991565328607	162299221.2029	1.2285676715334034e+21	600878240655.515	1.70242340889805	96655444631.5201	3.299429701529566e+20	-1.29291411611321e+23	1672.8669457351916	-0.5998472738645553	22.742780795560776	3.9783001808318255	29.808923486974468	139.27676044486893	139.15015451435698	56.98960170349951	0.0030785233433961124	1.2569886971231772e+22	0.3398306871987869	0.013113016768000441	-6.5061682138477475e+22	-0.058317968212350725	0.30185355838740546	0.0	254.572952	228.29519700000003	-14.34687	23.573238	-11.766185	28.309841	0.0		True	0.0	None	0.0	None	0.0	None	0.0	None	0.0	None	0.0	None	0.0	None	0.0	None	1.6461000000000004e-06	12
2014-02-21 17:48:00	24.66239804312037	156365777.79500002	1.265359399347939e+21	575382646052.1658	0.8348947110989005	75194366530.24858	3.1834241083394346e+20	-1.2451468048131402e+23	1767.7166416127054	-0.5996065511669653	24.607347670558234	5.936920222634509	30.17523888220849	133.3631855413403	134.70210031795204	54.338194279772736	-0.001548969779404268	1.441934419994435e+22	0.27124511723864136	-0.006675853874420523	-6.327562611562021e+22	-0.06943705924792952	0.3047068811601789	0.0	254.575104	228.18486	-14.341401	23.696915	-11.767413	28.413219	0.0		True	0.0	None	0.0	None	0.0	None	0.0	None	0.0	None	0.0	None	0.0	None	0.0	None	1.4975e-06	12
2014-02-21 18:00:00	26.219451794611558	159333367.5891	1.2905888667850092e+21	612520656726.2289	0.9669512137142704	131389373193.15732	3.296698161375554e+20	-1.2548122328805497e+23	1684.2229727969507	-0.5930065553222121	23.888001007752038	7.625649913344888	30.75585188044736	130.28903783280057	131.3820585192803	53.26951302390396	0.0016758253270611272	1.5066229239369848e+22	0.44274441793733976	0.00761921555414535	-6.328312848749316e+22	-0.07120087347589639	0.2990671357118785	0.0	254.577271	228.07452400000003	-14.336135	23.79797	-11.767651	28.519094	66560.0		False	0.0	None	0.0	None	0.0	None	0.0	None	0.0	None	0.0	None	0.0	None	0.0	None	1.4122e-06	12
2014-02-21 18:12:00	27.78211220272882	172821385.9817	1.4672032832494557e+21	705469343770.9778	4.103255572759426	364994655744.68506	3.674403704475062e+20	-1.3422066889820714e+23	1622.2982519267798	-0.5848027915318413	25.36475409461589	10.572687224669604	32.322795104433595	123.18017227556057	122.3459891028242	51.04296153675821	0.006025338579676103	1.0340821089278002e+22	1.0421033497482879	0.029963038506516406	-6.785580305957611e+22	-0.04505521459088698	0.2956494210364127	0.0	254.579529	227.964188	-14.332869	23.902224	-11.768103	28.625233	66560.0		False	0.0	None	0.0	None	0.0	None	0.0	None	0.0	None	0.0	None	0.0	None	0.0	None	1.3923e-06	12
2014-02-21 18:24:00	27.43546223295838	173206974.7193	1.3323060170829312e+21	680989657366.8464	2.6481155097568765	264615455229.37225	3.728246242199e+20	-1.3710021372767603e+23	1456.0366252900562	-0.5960192512767031	23.79967524000068	6.966618287373004	31.625033788188514	122.50205064209736	122.7388699876244	51.560734221309346	0.003843418736947571	1.0621643980980772e+22	0.7467400746956496	0.01915858450026893	-6.7796442351118265e+22	-0.04617574342696956	0.2947332007052927	0.0	254.581696	227.853851	-14.327735	24.029896	-11.764868	28.729742	0.0		True	0.0	None	0.0	None	0.0	None	0.0	None	0.0	None	0.0	None	0.0	None	0.0	None	1.3522e-06	12
2014-02-21 18:36:00	29.537119278781038	185764886.2001	1.5940820406722211e+21	765263783289.4011	5.204819928978038	469794328967.6671	4.0711017267174015e+20	-1.471367406420104e+23	1594.0546885338995	-0.5964101553625065	24.515132514333164	7.3041168658698545	30.05954397203756	128.21841924759414	128.61646862353234	50.75182714327571	0.006912111459466186	9.93290828849876e+21	1.213075098648888	0.03510165527560466	-7.560266544601778e+22	-0.040262461637359616	0.3064509737522685	0.0	254.583862	227.743515	-14.321795000000002	24.132761	-11.774175	28.833683	0.0		True	0.0	None	0.0	None	0.0	None	0.0	None	0.0	None	0.0	None	0.0	None	0.0	None	1.2523999999999999e-06	12
2014-02-21 18:48:00	27.679503098962968	182397363.3598	1.4971252629142823e+21	689940302972.5823	4.011549124420892	291137167577.6089	3.967714724263639e+20	-1.4875522759989009e+23	1596.7649916019898	-0.6141030370776014	23.44104799811441	5.6657223796034	29.09626484222187	128.6281741529165	128.04698941590954	50.193857123107044	0.005682080912777467	3.977679258327225e+21	0.8018048249876044	0.027251618447602263	-7.356573845830395e+22	-0.016420968543233466	0.30369987086177763	0.0	254.586014	227.633163	-14.318697	24.239725	-11.772974	28.938765000000004	0.0		True	0.0	None	0.0	None	0.0	None	0.0	None	0.0	None	0.0	None	0.0	None	0.0	None	1.2538e-06	12
2014-02-21 19:00:00	27.33284807676509	190213860.6167	1.4520886162991512e+21	674960754508.0786	3.538616613470295	295385693743.2952	4.146584851504104e+20	-1.5454873821306214e+23	1477.5728247157708	-0.6118018663498117	22.644699701874643	4.594594594594595	29.12390367591871	122.94968177001844	122.69653291735905	49.74462028238318	0.004781914342527426	-1.7831564214997158e+21	0.7761282765354299	0.02308392705719369	-7.627493190395829e+22	0.0070588633675106515	0.3019445272352436	0.0	254.588272	227.522827	-14.314181	24.363413	-11.755331	29.042414	0.0		True	0.0	None	0.0	None	0.0	None	0.0	None	0.0	None	0.0	None	0.0	None	0.0	None	1.1857e-06	12
2014-02-21 19:12:00	24.964189460240608	185012332.7238	1.4381734140973576e+21	613545263904.6373	2.8850177789941176	152682018839.29456	3.932854811387556e+20	-1.5055555503126164e+23	1564.9216157303274	-0.6127503005188396	23.78563444172761	6.213872832369943	30.039880752513703	123.85072772324236	122.55777877630042	50.68340059436542	0.0041691008366967035	-3.8936714310026936e+21	0.4289996790507401	0.01933796095636333	-7.464684978117469e+22	0.015846963195566704	0.3038073196748002	0.0	254.590439	227.412491	-14.309292999999998	24.468782	-11.748727	29.145792	0.0		True	0.0	None	0.0	None	0.0	None	0.0	None	0.0	None	0.0	None	0.0	None	0.0	None	1.1942e-06	12
2014-02-21 19:24:00	26.93691611985443	196569741.98440003	1.6284191140941222e+21	693679140226.6528	4.025116414662266	268699722967.5215	4.2241608566171927e+20	-1.551108729550508e+23	1554.0919815549685	-0.594173263905841	24.89716165284479	8.365019011406844	32.2774442400584	123.20880543610508	122.22856081984676	50.11661188630032	0.005101541716935698	-7.012548751070587e+21	0.6621620559461828	0.02568953553856068	-7.849517081616277e+22	0.02686252034007886	0.3006864119590222	0.0	254.592606	227.302155	-14.30406	24.581406	-11.74176	29.250172	0.0		True	0.0	None	0.0	None	0.0	None	0.0	None	0.0	None	0.0	None	0.0	None	0.0	None	1.1246e-06	12
2014-02-21 19:36:00	26.4735904539478	193218729.2541	1.4415412890746972e+21	662332761848.8768	4.040316904420772	330849475226.6097	4.181508694066938e+20	-1.566544200887919e+23	1433.8994123004654	-0.6104933137748445	22.976256977869163	4.7556142668428	29.800855401731052	121.49635899820284	120.39037893577743	48.4999686980406	0.005337274642563766	-8.538849565255348e+21	0.8497804472326218	0.025967926817891958	-7.865089241772402e+22	0.03327649844774852	0.30650806990463275	0.0	254.594788	227.191833	-14.299173	24.702721	-11.735118	29.354702000000003	0.0		True	0.0	None	0.0	None	0.0	None	0.0	None	0.0	None	0.0	None	0.0	None	0.0	None	1.115e-06	12
2014-02-21 19:48:00	27.39332339909173	200559698.8713	1.4200413286997806e+21	664832109635.6619	5.372437464749776	468367482962.6722	4.276604522103656e+20	-1.648623590854328e+23	1420.0168527163064	-0.6189639163616848	22.03699124066704	3.3200531208499333	29.179271192781172	127.49870738866647	126.82390184763297	49.40311331373807	0.007134711108565441	-6.904243994050555e+21	1.2093761790519515	0.033091810335529284	-7.96650202352189e+22	0.025921489452056343	0.2990966112299248	0.0	254.596985	227.081528	-14.294664	24.808849	-11.730706	29.458778	0.0		True	0.0	None	0.0	None	0.0	None	0.0	None	0.0	None	0.0	None	0.0	None	0.0	None	1.1363e-06	12
2014-02-21 20:00:00	27.69481419397905	208444202.45780003	1.5878176200777345e+21	689066335443.2028	4.557646660508336	442881680192.8915	4.474231564766391e+20	-1.6823332325900674e+23	1467.0011707446652	-0.6077285731362384	23.5784307853941	5.398773006134969	30.360310141671683	124.14611340788107	122.67574459588707	47.74010469364724	0.005592204491421272	-4.35823615293388e+21	1.0565657656452545	0.027199949498004704	-8.567302915457863e+22	0.015743757463172362	0.3094865318936387	0.0	254.599274	226.971222	-14.289732	24.923931	-11.723988	29.56336	0.0		True	0.0	None	0.0	None	0.0	None	0.0	None	0.0	None	0.0	None	0.0	None	0.0	None	1.163e-06	12
2014-02-21 20:12:00	27.423753675846488	209374896.245	1.5411729950608688e+21	658633978301.7708	2.3138415188940056	163800713615.5247	4.365118872426191e+20	-1.696833276243352e+23	1518.957077614465	-0.6102419134588645	23.40990560621639	3.7958115183246073	29.71442030502509	124.61114625576172	122.5094870678335	48.803265746252755	0.003028588375515715	-4.727457959083737e+21	0.4168550190755022	0.013726122463747228	-8.48643222218536e+22	0.017001629041213242	0.3052024444717833	0.0	254.601486	226.860931	-14.284757	25.024263	-11.719105	29.667974	0.0		True	0.0	None	0.0	None	0.0	None	0.0	None	0.0	None	0.0	None	0.0	None	0.0	None	1.1429e-06	12
2014-02-21 20:24:00	29.234953796742353	202394478.6511	1.54325840340148e+21	677093228248.9159	3.3050480829191464	203612466740.47607	4.08162131152324e+20	-1.589157109298034e+23	1674.4289218244592	-0.5912289768120592	23.64906260315557	4.610951008645533	29.844654451603805	131.96468134166142	128.64020754863904	52.96729331363326	0.004762317122361882	-4.74895184763371e+21	0.5704309407162447	0.020524682054455446	-8.321271314179872e+22	0.017667969550515042	0.3095840364727236	0.0	254.60369900000003	226.750656	-14.279745000000002	25.125214	-11.714186	29.773258	1024.0		True	0.0	None	0.0	None	0.0	None	0.0	None	0.0	None	0.0	None	0.0	None	0.0	None	1.0976999999999999e-06	12
2014-02-21 20:36:00	42.79072507196496	239697222.1701	2.1160644963166708e+21	1215362597342.8938	6.285425111183947	472110255579.6534	5.327360317384429e+20	-1.7391091162501455e+23	1394.0240320821651	-0.5463254361853641	26.882320786676733	9.886264216972881	34.478772553820704	117.80259358627752	115.36778800210348	51.20743241581004	0.005499059589837225	-2.417971433062724e+21	0.7332255318131485	0.03391569734164634	-9.62958849388019e+22	0.0075958390736290985	0.3025048333682563	0.0	254.605942	226.640396	-14.275235999999998	25.156206	-11.711686	29.878904	66560.0		False	0.0	None	0.0	None	0.0	None	0.0	None	0.0	None	0.0	None	0.0	None	0.0	None	1.0699e-06	12
2014-02-21 20:48:00	28.58844960410472	196148974.2605	1.5587536378609174e+21	708440968903.5674	2.7752854635979936	307437932078.1637	4.047914701919218e+20	-1.516801058395451e+23	1612.2545641267536	-0.5822776170107149	24.265361700970157	4.945054945054945	30.864582112796565	126.07131787220469	123.52424899575169	51.16601297225847	0.0038122053071401006	1.9298352017957464e+21	0.821057031377984	0.017884175814497926	-8.260291167570741e+22	-0.007408353497021725	0.3171004285793273	0.0	254.608185	226.530136	-14.27135	25.256935	-11.707888	29.980089000000003	66560.0		False	0.0	None	0.0	None	0.0	None	0.0	None	0.0	None	0.0	None	0.0	None	0.0	None	1.0669e-06	12
2014-02-21 21:00:00	27.308637911034275	188588369.25599998	1.434354994156595e+21	652353769810.7449	3.0981881523813835	306545067706.2462	3.8403174706543297e+20	-1.483238152289893e+23	1597.70801028651	-0.5922205066421226	24.20195290468905	3.6982248520710064	30.45472440844168	122.10529244661707	120.3185423498198	51.21219823214521	0.004583118568611514	2.716100342430728e+21	0.8816342319921427	0.02063572189727051	-7.816868150881906e+22	-0.01084472050831381	0.3121083158171874	0.0	254.610565	226.419907	-14.264235	25.359348	-11.700885	30.068127	0.0		True	0.0	None	0.0	None	0.0	None	0.0	None	0.0	None	0.0	None	0.0	None	0.0	None	1.0565e-06	12
2014-02-21 21:12:00	26.138169536020232	183549499.6676	1.368650781388576e+21	586370307165.2891	3.965502369437087	325720472715.7404	3.691169680771029e+20	-1.4463189651168046e+23	1612.795328052042	-0.593332778069261	24.11414562217889	3.5993740219092327	30.30743404248199	122.6688489818105	122.27980677416971	50.804008311470575	0.006205794005378853	6.494356608443255e+21	0.9910099459642148	0.027118677962215697	-7.439326858462014e+22	-0.02664221891018976	0.30518831449742223	0.0	254.612839	226.309692	-14.259003	25.460823	-11.695737	30.170078000000004	0.0		True	0.0	None	0.0	None	0.0	None	0.0	None	0.0	None	0.0	None	0.0	None	0.0	None	1.0865e-06	12
2014-02-21 21:24:00	26.439697266479932	184869735.7202	1.3582376871635984e+21	613653300334.5452	5.7794553110399365	441847813896.2803	3.7843902253283095e+20	-1.4294576304912029e+23	1524.1954731639773	-0.5822277191216809	23.54852970201981	3.5767511177347244	30.39958880084775	121.51463050790191	120.91624877997327	50.92150389157592	0.008613197184858326	9.457952194453058e+21	1.2801956798045788	0.039516829810506825	-7.326043142948676e+22	-0.03852287620337544	0.2983946707004051	0.0	254.615158	226.199509	-14.254069	25.56045	-11.690895	30.266014	0.0		True	0.0	None	0.0	None	0.0	None	0.0	None	0.0	None	0.0	None	0.0	None	0.0	None	1.0455e-06	12
2014-02-21 21:36:00	28.463529501309036	189224939.2094	1.4058720485931307e+21	668821039235.9453	6.010711511755938	289907102605.49023	3.919241722782859e+20	-1.4745745848370063e+23	1510.1332723564701	-0.5867807634390524	23.79027155652714	4.136947218259629	30.988694640012106	120.81116217471748	121.69270510585916	49.22330153019126	0.008574481471834433	1.4460575906351217e+22	0.8040053145287243	0.04003691247287184	-7.627525649206413e+22	-0.05754329321385294	0.30352383457680554	0.0	254.617493	226.08934	-14.248629	25.661924	-11.687522	30.363943	0.0		True	0.0	None	0.0	None	0.0	None	0.0	None	0.0	None	0.0	None	0.0	None	0.0	None	9.93e-07	12
2014-02-21 21:48:00	31.63754294916604	200446550.24410003	1.4775039989511278e+21	730918615463.4583	7.13494818834384	520698775224.7731	4.1838070600931534e+20	-1.5640123062063137e+23	1477.4787128587686	-0.5875287501275738	23.57276766730032	3.4528552456839305	30.88059164066857	118.77454094793512	120.47765177960493	48.702725506355065	0.00947536279992542	1.950169509953155e+22	1.3443147858530853	0.0448436169313033	-7.554406009905716e+22	-0.07325905622180807	0.2837848975576187	0.0	254.619888	225.979187	-14.242501	25.764614	-11.683455	30.456551	0.0		True	0.0	None	0.0	None	0.0	None	0.0	None	0.0	None	0.0	None	0.0	None	0.0	None	1.0789e-06	12
2014-02-21 22:00:00	30.630908083290148	194784050.9099	1.4240463514654993e+21	719921043863.3982	7.539121398353629	603179229927.9487	4.142242197568509e+20	-1.5276570136268435e+23	1424.0217546387341	-0.5905544406215731	23.703459112136176	2.523240371845949	30.76621200832966	115.28061624366312	117.07736431507848	46.715321894769	0.010012113410828192	1.9077324400682496e+22	1.5572253177357849	0.04866859402139757	-7.381120724134109e+22	-0.073748220572457	0.28533588243427976	0.0	254.622314	225.869064	-14.23579	25.865557	-11.676851	30.562044	0.0		True	0.0	None	0.0	None	0.0	None	0.0	None	0.0	None	0.0	None	0.0	None	0.0	None	1.102e-06	12
2014-02-21 22:12:00	34.3567358270097	212416987.695	1.507230733157718e+21	810207942246.2599	8.948803109533742	705428857764.7083	4.453121231452494e+20	-1.7116399268490104e+23	1432.9865131510408	-0.6067512871892295	23.31394893477217	3.787878787878788	29.50556912278681	124.58382709304315	125.85175863483843	48.78617738960036	0.011298993825168866	1.8553187638586817e+22	1.7146098569191894	0.0524393193819082	-7.85651034948317e+22	-0.06576833307399756	0.2785017860701567	0.0	254.62471	225.758957	-14.230493	25.969862	-11.679515	30.667723	0.0		True	0.0	None	0.0	None	0.0	None	0.0	None	0.0	None	0.0	None	0.0	None	0.0	None	1.0329e-06	12
2014-02-21 22:24:00	34.29926963582313	223227893.4164	1.644465535392343e+21	812454119008.77	9.00933762938367	644866103041.1886	4.610282427741501e+20	-1.7834039566459854e+23	1504.569798061609	-0.6015734544361121	24.07054352067687	4.25273390036452	30.4382155137613	126.27893456616863	128.90593995712123	48.61643956727804	0.010946947301802762	2.13809509432672e+22	1.5231743185906423	0.05039965174173282	-8.328580556264898e+22	-0.0721217000228037	0.2809376393447281	0.0	254.627136	225.64888	-14.226241	26.075211	-11.675253	30.770369	0.0		True	0.0	None	0.0	None	0.0	None	0.0	None	0.0	None	0.0	None	0.0	None	0.0	None	1.0351e-06	12
2014-02-21 22:36:00	34.05573990980422	211030287.5685	1.5046559676412396e+21	790110033648.8716	9.77806512070192	713190040087.1395	4.3999400534442417e+20	-1.7164761910906374e+23	1471.410993285403	-0.6124639101908356	22.80743816203525	2.9870129870129865	29.53074729833038	127.7592075274492	129.14225628884205	49.801570178858434	0.012698785871041457	1.6462605433366582e+22	1.800461278611411	0.05747091704250781	-8.066302204153584e+22	-0.05874099360062826	0.28781750742477896	0.0	254.629578	225.538834	-14.220366	26.194073	-11.669384	30.877361	0.0		True	0.0	None	0.0	None	0.0	None	0.0	None	0.0	None	0.0	None	0.0	None	0.0	None	1.0184e-06	12
2014-02-21 22:48:00	31.944270484728136	212658159.7181	1.5893732954200904e+21	744738867967.143	10.637832650177064	710171997224.4934	4.431127730832611e+20	-1.7415092347627545e+23	1570.5740185079615	-0.6166392983778785	23.232461577076073	3.543307086614173	29.094930371668053	130.41031185487205	131.49437172439858	50.60953005430931	0.013960410302069641	2.1422399169305147e+22	1.8116177181584607	0.061885366395684815	-8.161409269109024e+22	-0.07585313318841375	0.2889818546476842	0.0	254.63217200000003	225.428818	-14.215831	26.310213	-11.664843	30.975813	0.0		True	0.0	None	0.0	None	0.0	None	0.0	None	0.0	None	0.0	None	0.0	None	0.0	None	1.0867000000000001e-06	12
2014-02-21 23:00:00	32.017451222289445	212253848.5648	1.4961437575467112e+21	722475315348.04	11.044295871864254	819873791686.5792	4.3930343671878255e+20	-1.7970905566073498e+23	1512.1837748691958	-0.6375318852797525	22.135678203140998	1.74496644295302	28.52906057371167	129.56468696342495	130.99637517727277	48.788401139789286	0.014824558217267454	1.4263473745157171e+22	2.139129793055204	0.06355104403213871	-8.10525493967521e+22	-0.050600785107654096	0.2875402379343308	0.0	254.634674	225.318832	-14.210161	26.412979	-11.66326	31.083334000000004	0.0		True	0.0	None	0.0	None	0.0	None	0.0	None	0.0	None	0.0	None	0.0	None	0.0	None	1.0563e-06	12
2014-02-21 23:12:00	32.884628565350816	204714522.4469	1.4613984604928433e+21	723696392424.1636	12.418719215741728	878018229613.6462	4.242163946852037e+20	-1.6986686889547167e+23	1503.297870553851	-0.6248093311898639	22.518217277014593	4.0983606557377055	28.888415587174038	129.98426743548143	131.14162852527826	49.84747847641146	0.01696546340948324	1.0736440833825216e+22	2.3314536332079694	0.0746716497424063	-7.696232078988917e+22	-0.0394910935861767	0.2830850800525489	0.0	254.637207	225.208862	-14.203419	26.518137	-11.65654	31.189838	0.0		True	0.0	None	0.0	None	0.0	None	0.0	None	0.0	None	0.0	None	0.0	None	0.0	None	1.0255e-06	12
2014-02-21 23:24:00	30.38119099082594	215351308.5301	1.4191717017066658e+21	692741867116.1592	11.311299315574185	830721515723.5518	4.424536180526944e+20	-1.765897879508618e+23	1382.4294468889475	-0.6174554059387785	21.892255603392567	3.104786545924968	29.66442919190381	130.08101804926076	131.32753947598349	50.01780662778571	0.014632987471635425	1.0183087452849504e+22	2.0888052403180217	0.06494753304603254	-8.33785133670982e+22	-0.03560569651207051	0.2915373216937046	0.0	254.639786	225.098938	-14.197025	26.628922	-11.650166	31.295214	0.0		True	0.0	None	0.0	None	0.0	None	0.0	None	0.0	None	0.0	None	0.0	None	0.0	None	1.0018999999999999e-06	12
2014-02-21 23:36:00	29.06807979029516	213625853.49770004	1.481342149634645e+21	642072238762.4043	8.727783983210253	560128007500.931	4.2757726327594313e+20	-1.769961439493003e+23	1564.4200802736234	-0.6238749173499962	21.877126173515826	2.8050490883590458	28.85238697389943	134.6647048208635	134.12401328534128	51.743149906160575	0.012240931252749304	9.373736681454602e+21	1.5268874038928066	0.05031848998689364	-8.395287063062127e+22	-0.03304048928364372	0.29591656099003305	0.0	254.64238	224.989029	-14.191466	26.75458900000001	-11.648756	31.401754	0.0		True	0.0	None	0.0	None	0.0	None	0.0	None	0.0	None	0.0	None	0.0	None	0.0	None	1.1168e-06	12
2014-02-21 23:48:00	31.061282020148468	219171458.0693	1.5951346825636644e+21	687914556230.2734	9.845354939291418	654245063687.1713	4.470218648117464e+20	-1.806381053270199e+23	1541.8687751659795	-0.6206015927315331	23.242927578123588	4.621309370988447	29.45487518338682	130.1513045811561	129.43427823164754	49.99232038142845	0.01263845306712634	9.86930037013742e+21	1.6322970345975407	0.055437178061767366	-8.507568219681957e+22	-0.03390704036540305	0.2922866345308728	0.0	254.645096	224.87915	-14.186719	26.860352	-11.650248	31.508898	0.0		True	0.0	None	0.0	None	0.0	None	0.0	None	0.0	None	0.0	None	0.0	None	0.0	None	1.0814e-06	12
2014-02-22 00:00:00	28.151287458824676	210561761.3611	1.388007733681506e+21	615352052277.7104	8.588204877821843	566048418420.9929	4.160561146536072e+20	-1.7298773407510983e+23	1503.8155789726318	-0.6186190695846083	21.442229196453365	1.4388489208633095	29.056903273668024	134.4012537204031	133.55105909723034	52.104899776315676	0.01235712932060697	9.049234599403716e+21	1.5828932985492468	0.050397411911449926	-8.143147437460873e+22	-0.032360844069472317	0.29120598163711936	0.0	254.647751	224.769302	-14.197482	26.970047	-11.659072	31.620834	0.0		True	0.0	None	0.0	None	0.0	None	0.0	None	0.0	None	0.0	None	0.0	None	0.0	None	1.1231e-06	12
2014-02-22 00:12:00	29.43777771178335	220175344.2793	1.5158571543253706e+21	649989911317.5054	11.072031133645961	850687575256.7604	4.497920083226415e+20	-1.81249730120609e+23	1457.7534485576784	-0.6198637598839043	22.25719253317207	3.4482758620689653	29.538370090380184	127.70269584992106	128.35752048852447	48.36955010313872	0.014140525074899057	1.1774090168553188e+22	2.1114348987686866	0.06208835027445358	-8.406572622038363e+22	-0.040266718169648934	0.28749999846986163	0.0	254.650436	224.659485	-14.193181	27.09807	-11.652692	31.729877	0.0		True	0.0	None	0.0	None	0.0	None	0.0	None	0.0	None	0.0	None	0.0	None	0.0	None	9.661e-07	12
2014-02-22 00:24:00	27.710995769229484	217508522.0571	1.5433855548594646e+21	599613186304.1604	9.59053012623422	726539083052.2422	4.370030374938984e+20	-1.7890419843024218e+23	1568.3528800888944	-0.6193438331107571	21.84538086314301	2.834008097165992	28.757518487845783	131.05910935821035	130.98506040628268	48.84775729274615	0.012942685730410554	6.723877071915279e+21	1.9054448006794482	0.05445744486171028	-8.58171755983565e+22	-0.0232772167205976	0.2970882681802981	0.0	254.653152	224.549698	-14.18883	27.20425800000001	-11.648374	31.851761	0.0		True	0.0	None	0.0	None	0.0	None	0.0	None	0.0	None	0.0	None	0.0	None	0.0	None	1.0160999999999999e-06	12
2014-02-22 00:36:00	27.814733892514525	222571411.4339	1.5864842880958223e+21	636744175531.8428	10.964702712511668	907070367749.9641	4.3751630459770896e+20	-1.829651564838514e+23	1645.4571137787866	-0.618993978761803	21.67581354508345	3.4435261707988976	28.787107107579665	139.56317761690514	139.59550801682016	54.465397415832435	0.015102896298225437	2.1620462421699e+21	2.4279842234786204	0.06085723873592245	-8.767185026521682e+22	-0.007314472500811209	0.2966048206335142	0.0	254.65594500000003	224.439941	-14.185116	27.308868	-11.644684	31.966206	0.0		True	0.0	None	0.0	None	0.0	None	0.0	None	0.0	None	0.0	None	0.0	None	0.0	None	9.1334e-07	12
2014-02-22 00:48:00	27.347495408998252	213921169.3894	1.4957665572344433e+21	598422955611.235	8.739226124342082	612551978673.1223	4.223932053627216e+20	-1.7303532193374106e+23	1593.0590216038995	-0.6090717585234751	21.43888437333563	3.5360678925035365	29.06652216166689	134.28878853811085	134.0792007819002	52.47819386844883	0.01236099876144566	3.018755922644066e+21	1.683646811237042	0.0507777900943848	-8.535969875339213e+22	-0.010625801471112532	0.3004599364207892	0.0	254.658783	224.330231	-14.180163	27.438433000000003	-11.637617	32.077641	0.0		True	0.0	None	0.0	None	0.0	None	0.0	None	0.0	None	0.0	None	0.0	None	0.0	None	9.213200000000001e-07	6
2014-02-22 01:00:00	30.894035334271887	222426165.3491	1.6048710828990034e+21	663679307617.3357	8.911941119575303	604011191230.8517	4.410438351739196e+20	-1.8218670915135112e+23	1644.1459879041458	-0.6167630974583769	21.72133416771872	2.7210884353741496	28.93489949792035	136.89371196825175	135.66025525704444	53.09855758266989	0.012125089958605857	3.7462644609738437e+21	1.5968753156199185	0.049564421506885586	-8.932843566246237e+22	-0.012682361318294493	0.3024067064328058	0.0	254.661591	224.220535	-14.176387	27.548279	-11.633858	32.185421000000005	0.0		True	0.0	None	0.0	None	0.0	None	0.0	None	0.0	None	0.0	None	0.0	None	0.0	None	9.609e-07	2
2014-02-22 01:12:00	30.42060895441333	224546540.6671	1.603052585881627e+21	652499486479.739	7.140396910520368	542592990946.1468	4.4522635478067695e+20	-1.834678722095364e+23	1603.0248758769526	-0.6152351281434871	21.737635751600102	2.1248339973439574	29.682733771449872	133.47066195334924	132.01998902868985	52.82516412340623	0.00948259881875215	3.035014007851683e+21	1.4001616997651736	0.03937406276257214	-9.045872480909793e+22	-0.010177516147924516	0.30334131245638885	0.0	254.664429	224.110886	-14.171902	27.656443	-11.631535	32.295101	0.0		True	0.0	None	0.0	None	0.0	None	0.0	None	0.0	None	0.0	None	0.0	None	0.0	None	1.2728e-06	12
