Timestamp	TOTUSJH	TOTBSQ	TOTPOT	TOTUSJZ	ABSNJZH	SAVNCPP	USFLUX	TOTFZ	MEANPOT	EPSZ	MEANSHR	SHRGT45	MEANGAM	MEANGBT	MEANGBZ	MEANGBH	MEANJZH	TOTFY	MEANJZD	MEANALP	TOTFX	EPSY	EPSX	R_VALUE	CRVAL1	CRLN_OBS	LAT_MIN	LON_MIN	LAT_MAX	LON_MAX	QUALITY	NOAA_AR	IS_TMFI	BFLARE	BFLARE_label	CFLARE	CFLARE_label	MFLARE	MFLARE_label	XFLARE	XFLARE_label	BFLARE_loc	BFLARE_label_loc	CFLARE_loc	CFLARE_label_loc	MFLARE_loc	MFLARE_label_loc	XFLARE_loc	XFLARE_label_loc	XR_MAX	XR_QUAL
2014-03-11 18:12:00	178.75590981010586	2145055413.6191	1.0618106923142418e+22	4150453684680.299	0.18632299401870844	61304544084.81551	4.817595514705293e+21	-2.1793404522356545e+24	993.9452879469078	-0.7650221524996449	19.123205593487388	0.2859273993038289	22.53756651737823	91.65266775071821	92.33846797892599	28.014437674975106	-2.3165857766841777e-05	5.0689252616648725e+22	0.0146876803465438	-9.843602453331512e-05	-6.404792313614755e+23	-0.017793640780451	0.2248298560717452	0.0	407.048187	350.846039	-17.896324	50.751205	-10.605814	59.188267	66560.0		False	0.0	None	0.0	None	0.0	None	0.0	None	0.0	None	0.0	None	0.0	None	0.0	None	-99999.0	0
2014-03-11 18:24:00	171.3193512964929	2114319219.387	1.0240352818138054e+22	3977701994362.842	2.7746174172995532	425489597089.185	4.786089422756154e+21	-2.1552568813302696e+24	959.4192766988227	-0.7675664280824721	18.981501863305322	0.2986188876446435	22.561937032984662	89.63033803878972	90.43737808503424	27.301676504283535	-0.000345230486163936	4.9131747645670126e+22	-0.08203402510648429	-0.001484864423620356	-6.285920510187739e+23	-0.017497626557888474	0.22386480215004104	0.0	407.050171	350.735687	-17.897607999999995	50.870293	-10.607043	59.295177	66560.0		False	0.0	None	0.0	None	0.0	None	0.0	None	0.0	None	0.0	None	0.0	None	0.0	None	-99999.0	0
2014-03-11 18:36:00	166.98393482943072	2086390524.9665	9.998461953073629e+21	3886386086204.6265	0.7065431505884604	156427240112.30487	4.730246726872357e+21	-2.13420128537394e+24	947.7229408116484	-0.7702420170715178	18.780750587444988	0.2391742195367573	22.457076747777347	89.55622541145546	90.29309520541484	27.03502421138228	-8.894047716370347e-05	5.137535068308983e+22	0.016025558376934285	-0.00038259601291385837	-6.20405579793952e+23	-0.01854157525304192	0.2239069240834004	0.0	407.052246	350.625336	-17.892866	51.002945	-10.613873	59.400639	66560.0		False	0.0	None	0.0	None	0.0	None	0.0	None	0.0	None	0.0	None	0.0	None	0.0	None	6.5049e-06	8
2014-03-11 18:48:00	171.28805989039338	2074147798.2938	1.00318134835856e+22	3982812024922.768	1.6025297577920508	349948453698.77405	4.695213099016525e+21	-2.115101064148053e+24	958.7289591385021	-0.7678544777612827	18.774180780767573	0.2284553877395609	22.397299407645487	90.17100093694916	90.525317928939	27.402983566796607	0.00020341834955471576	5.355229062907344e+22	-0.08559833386223709	0.0008741049124234926	-6.229458429166754e+23	-0.019441324507332984	0.2261507797401701	0.0	407.05423	350.514984	-17.888737	51.120293	-10.614707	59.487976	0.0		True	0.0	None	0.0	None	0.0	None	0.0	None	0.0	None	0.0	None	0.0	None	0.0	None	5.8016e-06	12
2014-03-11 19:00:00	172.74064913482633	2073695199.8277	1.0175235307079924e+22	4001388894643.72	1.7696708038714144	286382688548.925	4.682123629271717e+21	-2.1055877644860447e+24	975.1584304615276	-0.7645676130751689	18.978639393411665	0.15273004963726616	22.61508912628737	90.36380320114269	90.60645859812664	27.93018771358809	-0.00022526359519748146	7.309457484071768e+22	-0.07024588045754178	-0.0009673304714977027	-6.255662675672041e+23	-0.0265416362866988	0.22715163722037754	0.0	407.056244	350.404633	-17.88327	51.241322	-10.620633	59.592674	0.0		True	0.0	None	0.0	None	0.0	None	0.0	None	0.0	None	0.0	None	0.0	None	0.0	None	4.1236e-06	12
2014-03-11 19:12:00	171.52652538267404	2085878532.6594	1.0295765495933728e+22	3962238263485.959	2.5665570229717574	564533143096.0106	4.6250458585815303e+21	-2.115316728819284e+24	1019.1370288878802	-0.7636137588189498	18.944482185192808	0.21033258840541608	22.57849906898532	92.33314513827264	92.59488847759235	28.468321578191713	-0.0003373941137073429	6.4148966182101e+22	-0.14302258723135758	-0.0013953669124934375	-6.305943409831429e+23	-0.023157304304970944	0.2276399124763101	0.0	407.058228	350.294281	-17.883004999999994	51.36196500000001	-10.620825	59.701244	0.0		True	0.0	None	0.0	None	0.0	None	0.0	None	0.0	None	0.0	None	0.0	None	0.0	None	3.6843e-06	12
2014-03-11 19:24:00	169.12093850790637	2061250375.2854	1.038097301049941e+22	3869436268076.411	0.4664678511662932	231133346839.2125	4.528878222994162e+21	-2.0757035954418888e+24	1060.04023607362	-0.7582667478534676	19.1375783689763	0.12205044751830756	22.63902072466001	92.26726077201107	92.70066787270193	28.551048556943165	-6.325845554194375e-05	7.953308238958886e+22	-0.060406730935056274	-0.00025741639430849547	-6.27834236687443e+23	-0.02905390339099782	0.22935154416529485	0.0	407.060242	350.183929	-17.874464	51.499146	-10.628518	59.783974	0.0		True	0.0	None	0.0	None	0.0	None	0.0	None	0.0	None	0.0	None	0.0	None	0.0	None	5.838e-06	12
2014-03-11 19:36:00	169.5045542336771	2027995340.7844	1.0274722663034937e+22	3860106445340.523	4.751724067909954	628650493775.395	4.436431302337884e+21	-2.0422715886152776e+24	1074.6953838057318	-0.7582876652861535	19.208503186118648	0.11112654535352133	22.657286545546288	93.2658077166394	93.90839241899175	28.74498153544079	-0.000660053350175018	8.590437946873838e+22	-0.16829045694057773	-0.0026651663824999875	-6.122775678473119e+23	-0.031895969031901616	0.2273363298095041	0.0	407.062225	350.073578	-17.874294	51.617519	-10.628305	59.86906800000001	0.0		True	0.0	None	0.0	None	0.0	None	0.0	None	0.0	None	0.0	None	0.0	None	0.0	None	7.716799999999999e-06	12
2014-03-11 19:48:00	171.42745948575566	2029198261.809	1.030460972767342e+22	3879070465648.7637	8.511808643211698	722898097524.7089	4.395896787239452e+21	-2.039351256016788e+24	1096.5569982211855	-0.7567545486671327	19.17114198973425	0.18371961560203506	22.598899820492715	94.4372462318324	94.7199673172327	29.88768155063909	-0.0012030824937401693	9.772989704568824e+22	-0.1968826944319048	-0.004776324593927032	-6.142689963626989e+23	-0.0362652308727567	0.22794055498345225	0.0	407.064209	349.963226	-17.872309	51.751339	-10.633281	59.937321	0.0		True	0.0	None	0.0	None	0.0	None	0.0	None	0.0	None	0.0	None	0.0	None	0.0	None	8.0486e-06	12
2014-03-11 20:00:00	179.29919659965165	2065251277.1371	1.0917087091835613e+22	4044412501880.882	6.4846440879044405	468696162347.2747	4.4265398345589153e+21	-2.0565603655604543e+24	1161.568965925944	-0.749818209781114	19.555909491985236	0.4097781545852762	22.969720733135503	96.65846097658184	96.73103914380407	30.836855127223128	-0.0009164279378044717	1.1058605308035914e+23	-0.12763083349834567	-0.0035899187051166397	-6.32578460928615e+23	-0.04031947602222555	0.23063696892277946	0.0	407.066223	349.852875	-17.863424	51.881744	-10.639311	59.994762	0.0		True	0.0	None	0.0	None	0.0	None	0.0	None	0.0	None	0.0	None	0.0	None	0.0	None	6.8485000000000014e-06	12
2014-03-11 20:12:00	182.97063494159755	2099020423.3169	1.1296037928945265e+22	4224442059617.3086	6.812947995401224	1238915988098.723	4.5360276807477184e+21	-2.0848918751750675e+24	1158.1929977134475	-0.7479185999390748	19.73964933204118	0.4493464052287581	23.011673166013022	95.29715111320117	95.46621280181117	30.77096315308919	-0.0009276889971951556	1.2803612781129022e+23	-0.32510014279677363	-0.0037138743085843094	-6.422894286445504e+23	-0.045930727916621394	0.23041013107078426	0.0	407.068237	349.742554	-17.861667999999995	52.016586	-10.644518	60.053368000000006	0.0		True	0.0	None	0.0	None	0.0	None	0.0	None	0.0	None	0.0	None	0.0	None	0.0	None	4.9048e-06	12
2014-03-11 20:24:00	186.43468203959893	2106544650.5110002	1.15448118916115e+22	4231715967675.5713	1.3985431290329675	502554837967.8275	4.493169161841701e+21	-2.0815506387195408e+24	1215.6472498076696	-0.744052877568671	19.87018524462012	0.27968116347364	23.022194907337862	97.41926576711764	97.61149743804563	31.71253422225637	0.00019557308474800272	1.2780119951418264e+23	-0.13543114819380575	0.0007613345565130568	-6.489067563357785e+23	-0.045682698506796966	0.2319525311295786	0.0	407.070282	349.632233	-17.85148	52.13798900000001	-10.650197	60.123299	0.0		True	0.0	None	0.0	None	0.0	None	0.0	None	0.0	None	0.0	None	0.0	None	0.0	None	3.8887e-06	12
2014-03-11 20:36:00	193.5498216466159	2155423361.5593004	1.2120349834736766e+22	4514088038970.117	2.498550065203688	403323948507.4492	4.649237820879238e+21	-2.1205944570660768e+24	1203.383947281376	-0.7408195235112142	20.386056395778148	0.6460970464135021	23.40221190084004	95.97085864606608	96.1404666874192	31.605915958694357	0.00032949361271313304	1.29489585952442e+23	-0.10248273517068132	0.0013318028320193742	-6.664632414192806e+23	-0.045236567060386035	0.2328257434139782	2.3067238362067566	407.072327	349.521912	-17.842985000000006	52.276245	-10.657866	60.223587	0.0		True	0.0	None	0.0	None	0.0	None	0.0	None	0.0	None	0.0	None	0.0	None	0.0	None	3.0227999999999997e-06	12
2014-03-11 20:48:00	190.8544018328505	2138228024.5091	1.197844441086859e+22	4485008737312.102	4.720435026853067	460238103383.6482	4.6806237560060217e+21	-2.1089692901410352e+24	1165.9273058106664	-0.7426834588079461	20.277622469720843	0.6980351602895553	23.30307185111179	93.13948801591265	93.11348816053874	31.077439098657926	0.0006101906704825575	1.3009701465351384e+23	-0.11464467537499305	0.0025336084200228287	-6.594347974929951e+23	-0.04581427585273101	0.23222306676057075	2.301087016447777	407.074402	349.411591	-17.844254	52.399025	-10.664483	60.30481700000001	0.0		True	0.0	None	0.0	None	0.0	None	0.0	None	0.0	None	0.0	None	0.0	None	0.0	None	2.5447999999999998e-06	12
2014-03-11 21:00:00	185.38269429908027	2097542934.4579	1.1581332221167084e+22	4358509485878.322	5.327956098146615	566070425802.467	4.664801547067448e+21	-2.0795677159460472e+24	1114.5951749250364	-0.7465341651867528	20.159041030574347	0.7029652351738241	23.191136733996053	91.21668627751959	91.33145266584322	30.28525108996601	0.0006811501020386878	1.1264399177906067e+23	-0.1394188164795299	0.002909042316680451	-6.442527525518766e+23	-0.04043753310905228	0.2312772443559423	2.293456834292421	407.076447	349.3013	-17.839154999999995	52.53678100000001	-10.664481	60.404377	0.0		True	0.0	None	0.0	None	0.0	None	0.0	None	0.0	None	0.0	None	0.0	None	0.0	None	2.2291e-06	10
2014-03-11 21:12:00	214.04823593762114	2326901511.1853	1.3830309838743784e+22	5322022471874.786	1.2950666652712588	1717993317717.7866	5.142419854177392e+21	-2.2527365597753787e+24	1164.491083528199	-0.7289871856462166	21.564726260321592	3.690036900369003	25.699159650055922	90.33443958686195	91.81550930433235	30.50926568751657	-0.0001448296427277185	1.212964458758941e+23	-0.3701770137410715	-0.000643983101033697	-6.973611660823241e+23	-0.03925161791522283	0.2256665794477126	2.940744175399919	407.078491	349.19101	-18.405066	52.659397	-10.6744	60.485252	0.0		True	0.0	None	0.0	None	0.0	None	0.0	None	0.0	None	0.0	None	0.0	None	0.0	None	2.0162e-06	12
2014-03-11 21:24:00	208.61398915549407	2405480657.0610003	1.343828381957297e+22	5136570518703.896	3.1428749557191846	1093970854533.4364	5.36416789841543e+21	-2.3498795746005284e+24	1076.702636916872	-0.7355820882800509	20.944041871474788	3.2985741647158973	25.718952405701213	89.06169505851351	90.13350936504676	29.964162167060906	0.0003344195526409007	1.2811562517696925e+23	-0.22430156332218348	0.0015056016065244985	-7.028995017144124e+23	-0.0401039951696247	0.22002841716260715	2.9285813798298275	407.080597	349.08075	-18.428465	52.798088	-10.68569	60.567799	0.0		True	0.0	None	0.0	None	0.0	None	0.0	None	0.0	None	0.0	None	0.0	None	0.0	None	1.5892e-06	12
2014-03-11 21:36:00	229.34512589652002	2579651939.6921	1.4899583655214137e+22	5468789844133.895	2.203391058567324	1551646873572.0786	5.544891268819029e+21	-2.483536410250558e+24	1172.0842430511066	-0.7249312196901674	21.349913498316006	4.220643543669033	26.14344565276672	89.658241088861	91.4367720512406	30.45261074737132	0.00023019129320594689	1.1579173400250145e+23	-0.3123506959637479	0.0009903499481617511	-7.61121433487418e+23	-0.033798998321109434	0.22216734445004446	3.4027238519900944	407.082703	348.97049	-18.654394	52.922588	-10.687425	60.734703	0.0		True	0.0	None	0.0	None	0.0	None	0.0	None	0.0	None	0.0	None	0.0	None	0.0	None	1.6595e-06	12
2014-03-11 21:48:00	254.63899911902408	2802911230.9068003	1.6477109540081891e+22	6186331676673.625	3.661835801277815	2225481745777.457	6.012965163627282e+21	-2.6648857109904936e+24	1176.9161496349448	-0.7159072320868383	21.286315273257586	4.354012521343199	26.62054736928676	89.81647394364391	91.57882562538269	31.32095373439527	-0.00034735683943064067	1.1425791457459474e+23	-0.4067646510658144	-0.0015227398510902642	-8.29920972975653e+23	-0.030694775025346045	0.22295381155125826	3.4265508289430118	407.084808	348.86026	-18.872	53.047047	-10.697954	61.185326	0.0		True	0.0	None	0.0	None	0.0	None	0.0	None	0.0	None	0.0	None	0.0	None	0.0	None	6.8833000000000015e-06	12
2014-03-11 22:00:00	260.6001128922113	2875595629.6769	1.6912047865510777e+22	6263105017155.357	1.2405003599866038	2066320789562.12	6.146416327332431e+21	-2.7203406516800126e+24	1183.2884640124519	-0.7123327236423902	21.336929188495947	4.618100724772346	26.750915564633146	89.79350163446053	91.51746848666843	31.232420504698272	-0.00011527742402997898	1.0668534704672322e+23	-0.36994411862170745	-0.0005038612653653268	-8.5522175407293e+23	-0.02793601006829536	0.22394343922360047	3.632668273327208	407.086914	348.750031	-18.895237	53.186573	-10.708777	61.32693100000001	0.0		True	0.0	None	0.0	None	0.0	None	0.0	None	0.0	None	0.0	None	0.0	None	0.0	None	6.9752e-06	12
2014-03-11 22:12:00	263.8030468265794	2995507744.9492	1.7475721860496646e+22	6294692632005.643	11.49549863599314	2181471906575.0525	6.340813853084148e+21	-2.8457769016819493e+24	1197.4692821212336	-0.7153487690848684	20.8322487974242	4.368004368004368	26.255455010706	89.66524467647233	91.26348947185429	31.111156346928677	-0.0010460914219667977	7.07170839814378e+22	-0.38248255036505135	-0.004474401252448055	-8.733948868254652e+23	-0.01777629825777768	0.21954706176944072	3.619996982048189	407.089081	348.639832	-19.113663	53.31216	-10.709014	61.824257	0.0		True	0.0	None	0.0	None	0.0	None	0.0	None	0.0	None	0.0	None	0.0	None	0.0	None	5.0199e-06	12
2014-03-11 22:24:00	270.99256218171627	3046770897.640201	1.7553060327646854e+22	6484468713106.647	17.940892447506553	1389594097422.0107	6.433871279207214e+21	-2.883556803878092e+24	1185.4012573195935	-0.7126497185684393	20.59179851971824	4.0	26.12409877695168	88.3688568666516	90.7071914705122	31.396036403475968	-0.0016091929722402505	6.131865001425072e+22	-0.2401162658142809	-0.006876747399848609	-8.748153160058216e+23	-0.015154450440123824	0.21620412953628987	3.597657563760339	407.091248	348.529633	-19.177881	53.427933	-10.720654	62.023735	0.0		True	0.0	None	0.0	None	0.0	None	0.0	None	0.0	None	0.0	None	0.0	None	0.0	None	3.6020999999999998e-06	12
2014-03-11 22:36:00	266.41303169296805	3104441568.3061004	1.7783744591451136e+22	6380820916431.902	20.889486850569753	1543577177348.6057	6.475935207530917e+21	-2.923826068418557e+24	1194.2323044422888	-0.709178349338357	20.669495153120124	4.468028181574957	26.693469992777338	88.5585225008968	91.08094021536085	31.097493610947264	-0.0018629703781833367	5.6590171599193546e+22	-0.2652179665602885	-0.007873845602909057	-8.785979744702817e+23	-0.013726030052532293	0.2131052417915789	3.5652620995405018	407.093414	348.419464	-19.200787	53.57836500000001	-10.730967	62.168274	0.0		True	0.0	None	0.0	None	0.0	None	0.0	None	0.0	None	0.0	None	0.0	None	0.0	None	2.7573000000000003e-06	12
2014-03-11 22:48:00	268.9993399437167	3140566184.1082	1.8021141934134188e+22	6287684482788.588	23.20885939912011	881278968256.398	6.481386635022044e+21	-2.9500259974649824e+24	1216.1397001704386	-0.7073028516329684	20.732431617043254	4.965047499551892	26.98813808816245	88.27683813655693	90.53243607430248	31.37634469862176	-0.002080019662943189	5.97033342103956e+22	-0.1182229248492419	-0.008656957339515717	-8.786299809684938e+23	-0.014314564880206698	0.21066169979629584	3.5773389588236784	407.095642	348.309326	-19.21796	53.704758	-10.737494	62.311459	0.0		True	0.0	None	0.0	None	0.0	None	0.0	None	0.0	None	0.0	None	0.0	None	0.0	None	2.1669999999999998e-06	12
2014-03-11 23:00:00	282.735746334909	3217344278.7301	1.948590488625077e+22	6681304740890.723	29.051434045058144	1690984660608.1628	6.579235862923454e+21	-2.953800464658463e+24	1286.7344834845067	-0.6913072385430232	21.12091073202972	5.305621327720775	27.519052284941157	88.89072882314278	91.74913404996576	32.35884853215395	-0.002548371407461241	4.139333246992234e+22	-0.2597987489639267	-0.010679733921180122	-9.09741444723438e+23	-0.009687692417363059	0.2129158192859242	3.3187189257733665	407.0979	348.199188	-19.260227	53.82004499999999	-10.748137	62.505863	0.0		True	0.0	None	0.0	None	0.0	None	0.0	None	0.0	None	0.0	None	0.0	None	0.0	None	1.7763e-06	12
2014-03-11 23:12:00	281.7692709859588	3236011192.0237	2.0047940922265538e+22	6515261325853.159	28.40406543888267	1743626073289.1204	6.51261082607031e+21	-2.948232028232742e+24	1352.1888766706834	-0.6860236026329051	21.46725239042453	5.956646363310641	27.48993929242189	89.66800354955816	92.47258022899904	32.41812828657041	-0.002544483153174117	4.86959107408592e+22	-0.1482599217460384	-0.010412826109467723	-9.20762596272565e+23	-0.0113310430793873	0.2142520898679643	3.4257875691832185	407.100159	348.089111	-19.283186	53.960663	-10.760458	62.653519	0.0		True	0.0	None	0.0	None	0.0	None	0.0	None	0.0	None	0.0	None	0.0	None	0.0	None	1.9085e-06	12
2014-03-11 23:24:00	271.58344142644216	3286889241.9904003	2.021860060419725e+22	6395522706082.006	22.21205470708943	1154052112941.0977	6.548845868315595e+21	-2.99500797858662e+24	1356.7726276667474	-0.6861205957464346	21.57558694380571	5.757062650387666	27.624135253770557	89.39183078765562	91.68178939385211	32.72386248018184	-0.001979507593537957	6.2860482026982e+22	-0.1250175719201156	-0.00801576593186964	-9.249085165475832e+23	-0.014400586471096629	0.21188550645666512	3.458943747616785	407.102417	347.979034	-19.306614	54.101677	-10.764865	62.800175	0.0		True	0.0	None	0.0	None	0.0	None	0.0	None	0.0	None	0.0	None	0.0	None	0.0	None	1.3888e-06	12
2014-03-11 23:36:00	282.33498060891367	3303174385.7468004	1.9817300736571404e+22	6633430623674.02	26.0642925876586	1440193419145.3394	6.572764826713949e+21	-3.023423357936374e+24	1327.713068847414	-0.6892152257261749	21.53969220306048	5.427529139603168	27.563177672437	89.01066434544373	91.82640869989092	32.66290023739133	-0.002319093565945244	5.891741484263817e+22	-0.11524657351649388	-0.009342421307749676	-9.257796528645944e+23	-0.013430728866792759	0.21103939372132047	3.5427562525676097	407.104736	347.868988	-19.376635	54.22948100000001	-10.776013	62.94769300000001	0.0		True	0.0	None	0.0	None	0.0	None	0.0	None	0.0	None	0.0	None	0.0	None	0.0	None	1.1705e-06	12
2014-03-11 23:48:00	288.42666449017014	3343796607.5343003	2.015491123006652e+22	6693292399811.459	25.90281975427773	1564366725511.5815	6.646007457562322e+21	-3.0413627815587723e+24	1335.1267009781184	-0.6848821160182389	21.49950182327087	5.929444884314242	27.566867242909325	88.76390180417302	90.89929108690245	33.23579395736266	-0.002278773621384511	5.4052800504535095e+22	-0.18964922273271287	-0.00919533732752912	-9.298059254278842e+23	-0.012172108046671164	0.20938227216911195	3.6338881611421066	407.107056	347.758972	-19.429029	54.359703	-10.782358	63.18034399999999	0.0		True	0.0	None	0.0	None	0.0	None	0.0	None	0.0	None	0.0	None	0.0	None	0.0	None	1.3033e-06	12
2014-03-12 00:00:00	289.17819513269336	3381365576.6199	1.9614501452846606e+22	6551991969838.228	24.436028828027005	1443024339022.4011	6.757626622538227e+21	-3.133129977996335e+24	1311.7919169448594	-0.6977081250497688	20.565094178031927	4.263256061817213	25.902818495618416	90.25169233982884	92.4029028643067	34.18765532341695	-0.0021705479506152962	6.463587659296851e+22	-0.11088120941049906	-0.008513871795560717	-9.232293541707648e+23	-0.014393586153571647	0.20559141376615647	3.6728404927129614	407.109436	347.64898700000015	-19.471476000000006	54.503002	-10.786272	63.434898	0.0		True	0.0	None	0.0	None	0.0	None	0.0	None	0.0	None	0.0	None	0.0	None	0.0	None	2.2413e-06	12
2014-03-12 00:12:00	291.5796979652956	3397276956.3893003	1.930793166746361e+22	6582081764649.327	26.34670105108557	1671702978824.385	6.764108800116719e+21	-3.1598059589743127e+24	1293.7015960601461	-0.7003527673007454	20.43611186609927	4.04876312511123	25.927619483361262	89.16887289324549	91.85283634994158	34.33348023814607	-0.0023446383421807924	4.903736754141286e+22	-0.17835817142380142	-0.009122463291799738	-9.093231101985824e+23	-0.010868849703011602	0.20154622304871567	3.405522256299092	407.111816	347.539032	-19.495028	54.62122	-10.796654	63.586845	0.0		True	0.0	None	0.0	None	0.0	None	0.0	None	0.0	None	0.0	None	0.0	None	0.0	None	1.6665e-06	12
2014-03-12 00:24:00	286.69373688967687	3418175869.8963003	1.967450192571941e+22	6413674039675.192	23.62028204488016	1499264925424.7236	6.749425846356077e+21	-3.1704070090210383e+24	1325.8138803303502	-0.6984062178963673	20.70083366928491	4.599964202613209	26.15078373590612	88.63382432627044	90.03362459263279	33.364839482679045	-0.0021140501248438338	4.472362329313166e+22	-0.15810700387679066	-0.008138910484148769	-9.22488765268346e+23	-0.009852128293276394	0.2032142522299981	3.3705760887513354	407.114227	347.429077	-19.518061	54.763988	-10.803084	63.73904	0.0		True	0.0	None	0.0	None	0.0	None	0.0	None	0.0	None	0.0	None	0.0	None	0.0	None	1.474e-06	12
2014-03-12 00:36:00	299.6313073525695	3496175501.4634	2.092538252697122e+22	6705500955157.933	33.036344837192985	1901151989741.03	6.861554247574288e+21	-3.1972696535808684e+24	1379.7319192252262	-0.6886101977343781	21.2621946047767	5.341506129597199	26.53540558639121	88.59363723954188	90.26604589396685	33.50513539001311	-0.002892849810612345	5.4794865245098514e+22	-0.12527701835614086	-0.011191784866472971	-9.293477677401134e+23	-0.01180141404369712	0.20015776567071336	3.332339224575248	407.116699	347.319183	-19.5861	54.883095	-10.805717	63.98785	0.0		True	0.0	None	0.0	None	0.0	None	0.0	None	0.0	None	0.0	None	0.0	None	0.0	None	1.3812e-06	12
2014-03-12 00:48:00	306.1200077871021	3549514929.3231	2.0901109014283707e+22	6697251039673.924	33.03219883809805	1564967266701.7676	6.951925597029455e+21	-3.2469096565809725e+24	1363.3282224184693	-0.6887928185991724	20.704591250501228	4.417879417879418	26.59113943260343	88.28282743881167	90.267587867434	33.910276636265934	-0.002861664977743919	4.9936565143352195e+22	-0.1137339697638228	-0.01102190300836335	-9.234484316096676e+23	-0.010593441485671028	0.1958984743385778	3.464700796289581	407.119202	347.20929	-19.670925	55.02569200000001	-10.818789	64.323174	0.0		True	0.0	None	0.0	None	0.0	None	0.0	None	0.0	None	0.0	None	0.0	None	0.0	None	1.178e-06	12
2014-03-12 01:00:00	310.54661298651826	3525745017.3505	2.0955215160614748e+22	6709496363100.357	29.392435804446997	1244252560040.829	6.895036101178484e+21	-3.231846707846673e+24	1381.6992781898377	-0.6902197191630259	20.860314434809155	5.218914185639228	26.824826991960755	87.55548892149748	89.28169488806331	33.57684703189114	-0.002573993852740782	4.1148775127132074e+22	-0.09601109331405697	-0.009865817840643266	-9.168148186847136e+23	-0.008788070282911158	0.1958025005148497	3.370376411793306	407.121704	347.099457	-19.699265	55.144173	-10.820889	64.47811899999999	0.0		True	0.0	None	0.0	None	0.0	None	0.0	None	0.0	None	0.0	None	0.0	None	0.0	None	1.1368e-06	12
2014-03-12 01:12:00	306.6303671054408	3551997607.4047008	2.1860043343038104e+22	6582814572303.17	31.7416865961196	1142684724604.7563	6.842928954248848e+21	-3.204453044495457e+24	1458.9899975247235	-0.6793109869092834	21.152509116394487	5.41570643502925	27.057174552508545	89.20166617792076	90.56540650390244	34.04139534870696	-0.002813480464112711	3.902807118705879e+22	-0.12259101857206832	-0.010642807353570876	-9.281948696175844e+23	-0.008273548461191771	0.19676773669914469	3.0534377743685663	407.124207	346.98962400000005	-19.721786	55.291008	-10.836691	64.63678	0.0		True	0.0	None	0.0	None	0.0	None	0.0	None	0.0	None	0.0	None	0.0	None	0.0	None	1.0691e-06	12
2014-03-12 01:24:00	315.26037950876963	3639489343.1847	2.324250286461079e+22	6943825314386.607	42.53766607954685	2066384691074.9053	6.964010619303949e+21	-3.235635671680698e+24	1511.5995497378394	-0.6694321542395174	21.572283263573947	6.0977716358611165	27.928722742401327	87.78431972783596	90.18961912063732	34.359458766003804	-0.0036743254797915546	4.944353804924504e+22	-0.3017332565396134	-0.014003326221213495	-9.37100780333539e+23	-0.010229549166867994	0.1938801081990668	3.3236507180961965	407.12677	346.87982200000016	-19.766235	55.42482800000001	-10.84505	64.885307	0.0		True	0.0	None	0.0	None	0.0	None	0.0	None	0.0	None	0.0	None	0.0	None	0.0	None	1.0642000000000001e-06	12
2014-03-12 01:36:00	319.0034441189537	3683988510.4492	2.287678638399588e+22	6885665284429.768	33.6910957408332	1367177809477.8318	7.055770769725089e+21	-3.3188674920168566e+24	1482.819813495547	-0.6783580750296861	21.18420250524216	5.638288714814496	27.34600677151667	88.53390729048382	90.51774729992492	34.389388586077864	-0.0029001545787064823	5.394423591431295e+22	-0.20199024456733125	-0.01089788553528977	-9.523981431813972e+23	-0.011025902095158042	0.19466488873822696	3.351517659372412	407.129333	346.77005	-19.786627	55.556404	-10.852088	65.041893	0.0		True	0.0	None	0.0	None	0.0	None	0.0	None	0.0	None	0.0	None	0.0	None	0.0	None	9.2846e-07	12
2014-03-12 01:48:00	326.0500938935816	3752061222.7535	2.294876951694632e+22	7021218977127.242	33.67457459532818	1376980656634.092	7.222117439198859e+21	-3.400187996934536e+24	1453.8215308570345	-0.6823707962565153	20.87945718956008	5.174154467440686	27.060843944386978	87.8792946888628	90.23862704981372	33.874429087494356	-0.0028331292777493003	4.801719698086628e+22	-0.17786795909743294	-0.010669411774408036	-9.671426272761724e+23	-0.009636388625387677	0.19409217527473266	3.424738093946563	407.131958	346.660309	-19.80892	55.702358	-10.860875	65.200745	0.0		True	0.0	None	0.0	None	0.0	None	0.0	None	0.0	None	0.0	None	0.0	None	0.0	None	8.928200000000002e-07	12
2014-03-12 02:00:00	337.6924945021111	3777079198.3569	2.4119180149168957e+22	7239539273524.133	48.189309024493205	2337057906131.724	7.243947359426424e+21	-3.3927219011645723e+24	1529.1260812491666	-0.6763627511894459	20.781502741776425	5.2117538098846525	26.852759423829927	88.23646392481086	90.97632999516024	34.54152276201663	-0.004058047075746797	6.785558426009656e+22	-0.14265374149610852	-0.015223156819514187	-9.765618356509673e+23	-0.0135274835340829	0.19468440653528946	3.476435063404575	407.134583	346.550598	-19.825916	55.836788	-10.868347	65.362022	0.0		True	0.0	None	0.0	None	0.0	None	0.0	None	0.0	None	0.0	None	0.0	None	0.0	None	8.574600000000002e-07	12
2014-03-12 02:12:00	339.731629417171	3846921114.2072	2.244316085075284e+22	7202617850098.228	37.23196806734767	1548599913213.614	7.393043997681955e+21	-3.5394452010800047e+24	1397.2225329496425	-0.6928023364461564	20.21100216232195	3.778420835055808	26.292853727929426	86.30483680186924	88.34224957344334	33.8922601377868	-0.003078294176713325	6.481461282567601e+22	-0.14274445053606868	-0.011434744331194749	-9.466917514719546e+23	-0.012686653599773126	0.18530312522254785	3.3714674191708127	407.137268	346.440918	-19.841471	56.002769	-10.870361	65.489876	0.0		True	0.0	None	0.0	None	0.0	None	0.0	None	0.0	None	0.0	None	0.0	None	0.0	None	9.1616e-07	12
2014-03-12 02:24:00	335.5010485526925	3919539712.5852	2.10775039163563e+22	6860591282620.17	28.19928978433277	593932686865.0492	7.544045405274379e+21	-3.686343344448448e+24	1305.4023991685401	-0.708187212584407	19.11448291947514	2.113834512255305	25.19440249475913	86.20638439964476	87.12617630742052	32.97762493723062	-0.002319592809437589	6.80307310657215e+22	-0.0760238644540441	-0.008424549782060616	-9.695127102430438e+23	-0.013069453738233169	0.1862540842448044	3.25609196852008	407.139954	346.331238	-19.837238	56.147301	-10.886195	65.628105	0.0		True	0.0	None	0.0	None	0.0	None	0.0	None	0.0	None	0.0	None	0.0	None	0.0	None	8.562200000000002e-07	12
2014-03-12 02:36:00	330.5437317873283	3969399307.8415	2.2385673943581817e+22	6855105889049.979	31.582325159170708	1287188373022.3027	7.48549054464018e+21	-3.678409181949598e+24	1404.2086223943345	-0.6977867150300563	19.691832480405807	3.0656447850716426	25.63154073136157	87.84599187407818	89.48413664076936	34.15192610874285	-0.002631202629273575	2.921558286202223e+22	-0.12571846815343354	-0.00937403860468638	-9.717367616678588e+23	-0.005542136446651094	0.18433648059751145	3.466886004438944	407.142639	346.221588	-19.874445	56.28392	-10.891919	65.751717	0.0		True	0.0	None	0.0	None	0.0	None	0.0	None	0.0	None	0.0	None	0.0	None	0.0	None	1.3161000000000002e-06	12
2014-03-12 02:48:00	319.5555067555122	3949962563.5139	2.4473522110454e+22	6825170952576.822	39.220382979847386	1981238706834.7007	7.440952759991363e+21	-3.577561901343805e+24	1518.602329683227	-0.6819955555845157	20.567548101431857	4.326328800988875	26.54712468674881	86.90111091650078	90.17710995071238	34.01581329800454	-0.0032320051899338595	6.739975540134672e+22	-0.28918488516315743	-0.011806576960209843	-9.960277798233075e+23	-0.012848508257519186	0.18987414831957328	3.6061289865752735	407.145386	346.112	-19.904737	56.460171	-10.90181	65.86643199999999	0.0		True	0.0	None	0.0	None	0.0	None	0.0	None	0.0	None	0.0	None	0.0	None	0.0	None	1.4206e-06	12
2014-03-12 03:00:00	340.5309358300727	4068306642.9051	2.320300468976577e+22	7134898252842.518	25.593788693846715	855613289859.9353	7.691770131192999e+21	-3.7494913787449934e+24	1397.724686583185	-0.6939786351747131	20.03886921173789	3.136	26.027229951096157	86.66853199598589	88.95177021309206	34.036041672361456	-0.0020476669088604466	7.194648196747349e+22	-0.1269853384152247	-0.007428210588849628	-1.0003283134969189e+24	-0.013316291816123977	0.18514683929199344	3.607577847319648	407.148193	346.002411	-19.926872	56.636215	-10.910209	65.988106	0.0		True	0.0	None	0.0	None	0.0	None	0.0	None	0.0	None	0.0	None	0.0	None	0.0	None	1.4196000000000001e-06	12
2014-03-12 03:12:00	342.47093980677084	4078503709.068501	2.2996966605039507e+22	7081347504243.183	28.349144202999625	955333390199.793	7.655196626806385e+21	-3.762929622981903e+24	1404.869280242818	-0.6947247308586697	19.828575779955337	2.5880253123478827	25.91636915110249	87.26511998140694	89.24069372288892	34.09967430285612	-0.002299946795635212	6.457406999614671e+22	-0.14921289760379516	-0.008202947273466822	-9.811897706651764e+23	-0.011921882121986652	0.1811505575824379	3.626433410239408	407.15097	345.892822	-19.94833	56.775154	-10.924641	66.115936	0.0		True	0.0	None	0.0	None	0.0	None	0.0	None	0.0	None	0.0	None	0.0	None	0.0	None	1.2226e-06	12
2014-03-12 03:24:00	342.99063753663563	4096775482.7097006	2.3524650592826835e+22	7089658053842.83	33.322992454197816	1725011108490.9214	7.632246355652551e+21	-3.765810468588554e+24	1442.4882957121595	-0.6921556650001638	20.286798340298386	3.452768729641694	26.03234435593165	86.71882079143649	89.13891354012506	34.4557723631349	-0.0027140407602376463	5.062534677223802e+22	-0.2409491768642465	-0.009614972613931695	-1.001269306476457e+24	-0.009304934715457338	0.1840332189974016	3.6033212056403294	407.153809	345.783295	-19.964161	56.898022	-10.940396	66.24844399999999	0.0		True	0.0	None	0.0	None	0.0	None	0.0	None	0.0	None	0.0	None	0.0	None	0.0	None	1.1904999999999999e-06	12
2014-03-12 03:36:00	353.40588064559495	4197193911.8905	2.489414014787186e+22	7484528112039.236	30.978917154428547	1744356554586.541	7.866160991975611e+21	-3.8157373587753647e+24	1453.0980026293848	-0.6845527599908181	20.683543950668746	3.736434108527132	26.44190157125308	85.41291912713733	87.4955568178248	34.13039864108606	-0.002401652620701493	4.850164280921513e+22	-0.1952280017714354	-0.008763667103071448	-1.0307272085023648e+24	-0.008701315192142305	0.1849150214060799	3.7173704919989454	407.156616	345.673767	-19.979897	57.02235	-10.961371	66.36511999999999	0.0		True	0.0	None	0.0	None	0.0	None	0.0	None	0.0	None	0.0	None	0.0	None	0.0	None	1.1185e-06	12
2014-03-12 03:48:00	363.44633170273687	4254094769.1129	2.482338452415319e+22	7504569040134.647	27.340041629973143	1322310634149.088	7.9414316985869e+21	-3.884572357619221e+24	1448.6310958048816	-0.6875805148382373	20.419857481812674	3.433310082926451	26.126860136249032	86.47473347707913	88.68942669628059	34.366787965649856	-0.002119218791564464	6.418985912920289e+22	-0.16243803896629438	-0.0076171570462473205	-1.0416561882137684e+24	-0.011361790262674157	0.18437615063899013	3.6858881412668807	407.159485	345.564301	-19.991743	57.14830799999999	-10.976198	66.48468000000001	0.0		True	0.0	None	0.0	None	0.0	None	0.0	None	0.0	None	0.0	None	0.0	None	0.0	None	9.6773e-07	12
2014-03-12 04:00:00	367.17198354232164	4337442873.8525	2.533439764555868e+22	7742367753972.853	24.891203710528245	692750622224.9865	8.012166842750171e+21	-3.9633922834262033e+24	1469.3421274531022	-0.6880511041559801	20.644440149647558	3.7279519371485774	26.109375320467	87.8384833553322	90.67372246710615	35.00395272999821	-0.001917362787746745	3.353852465285362e+22	-0.10271348298030902	-0.0067995192755785465	-1.0521671302379545e+24	-0.0058223403763631425	0.18265786072809084	3.7309128449827833	407.162384	345.454834	-20.006975	57.26961899999999	-10.998147	66.605896	0.0		True	0.0	None	0.0	None	0.0	None	0.0	None	0.0	None	0.0	None	0.0	None	0.0	None	1.0385999999999999e-06	12
2014-03-12 04:12:00	388.65777902929085	4435014531.848801	2.570297443388956e+22	7958708972912.393	29.56105155623485	1042920280407.9508	8.125119882856112e+21	-4.074994986604732e+24	1497.9880808623275	-0.6918620650548996	20.209881040456885	3.0572755417956654	25.64924622320478	88.93460434169485	90.19773257890046	35.21759704404067	-0.0022880070863958873	4.8529503391014734e+22	-0.15538297322089098	-0.007879340608289273	-1.0840272745036494e+24	-0.008239451224496194	0.18404865556382533	3.7976526005530418	407.165283	345.345367	-20.022047	57.380909	-11.02002	66.72288499999999	0.0		True	0.0	None	0.0	None	0.0	None	0.0	None	0.0	None	0.0	None	0.0	None	0.0	None	1.1054e-06	12
2014-03-12 04:24:00	400.35665377192004	4530065854.723101	2.7133087671282e+22	7988215355929.242	33.6691932147757	1538512075664.6648	8.116625838127341e+21	-4.1164175015832736e+24	1601.6667594280948	-0.6842303836894139	20.56762855411543	3.1122608968328627	26.028623425966444	90.00427410616811	91.08453025349348	35.616461093370475	-0.0026394789287218327	5.816195943186432e+22	-0.2321618475885249	-0.00882585305113224	-1.1241691572526056e+24	-0.009667673359878115	0.18685925164366984	3.867000787555323	407.168182	345.235931	-20.021645	57.50629	-11.04173	66.84115600000001	0.0		True	0.0	None	0.0	None	0.0	None	0.0	None	0.0	None	0.0	None	0.0	None	0.0	None	1.0569e-06	12
2014-03-12 04:36:00	408.2080695654715	4588389715.2026	2.7995471513570047e+22	8225173466686.201	34.08643283703988	1086602286781.9438	8.193699662044996e+21	-4.1457736889788783e+24	1638.1898751349506	-0.6803506382191342	20.543416556255178	3.1628846751631947	25.825114471822435	90.22557055192229	90.92555169381559	36.25031455201145	-0.002649135994174234	6.0580184871622656e+22	-0.123088917943652	-0.008842671947088012	-1.1312598985429656e+24	-0.009941634670124318	0.18564771058571425	3.879419998200072	407.171143	345.126526	-20.028982	57.618198	-11.062884	66.95536	0.0		True	0.0	None	0.0	None	0.0	None	0.0	None	0.0	None	0.0	None	0.0	None	0.0	None	1.3006e-06	12
2014-03-12 04:48:00	407.7669257671203	4617969950.7299	2.9404366592471068e+22	8159126026647.473	43.5396187192292	2062670675326.656	8.115149609509778e+21	-4.1324325459720254e+24	1749.178711026261	-0.6738172367838559	21.202577511612734	3.634065413177437	26.170785989648557	91.32673951963915	93.01634311858729	36.69385634527361	-0.0034396917932713856	7.437861704367553e+22	-0.3136535084885621	-0.011265629876870114	-1.1739039645013086e+24	-0.01212786746175078	0.1914118904084442	3.848087341190973	407.174103	345.017151	-20.030674	57.731651	-11.085017	67.08918800000001	0.0		True	0.0	None	0.0	None	0.0	None	0.0	None	0.0	None	0.0	None	0.0	None	0.0	None	1.1025e-06	12
2014-03-12 05:00:00	410.0713016489228	4642613397.7714	3.0899158761614124e+22	8301787525995.577	51.527868356950464	1897919019758.3247	8.048425025845112e+21	-4.112621501162754e+24	1873.6244151706562	-0.6670275289921271	21.69289735529905	4.139152842647769	26.691692156033586	93.64793912877577	97.11503856750878	38.031831416206096	-0.004149449859635245	8.547558066299725e+22	-0.18919735254021733	-0.013315788245542477	-1.1788856777096448e+24	-0.013863314516710737	0.19120388305720584	3.8979040589085368	407.177063	344.907776	-20.051311	57.856205	-11.106287	67.223579	0.0		True	0.0	None	0.0	None	0.0	None	0.0	None	0.0	None	0.0	None	0.0	None	0.0	None	1.0001e-06	12
2014-03-12 05:12:00	415.60725747608564	4664925963.444301	2.9157998942898136e+22	8064591454021.744	41.91380248374903	1592119962456.14	7.948249260330218e+21	-4.1866507825868976e+24	1849.5149246819824	-0.6757863429275711	21.149963840127995	3.6559683261730265	26.25109916613223	95.71305292104843	98.18018493098494	38.28681915015719	-0.003530772679955272	1.0138980444937277e+23	-0.2581409916982815	-0.010723181475253307	-1.1762586986403164e+24	-0.016365789438173912	0.1898652659536416	3.897188408909322	407.180115	344.798401	-20.06558	57.981895	-11.148741	67.364296	0.0		True	0.0	None	0.0	None	0.0	None	0.0	None	0.0	None	0.0	None	0.0	None	0.0	None	9.006e-07	12
2014-03-12 05:24:00	425.01565595517786	4712728104.257801	3.0137371630259927e+22	8217454053211.728	36.32359113827786	1967187713964.1147	7.898315373147449e+21	-4.2012349451156873e+24	1941.401896692665	-0.6712619335577837	21.715147747277307	4.47429206946702	26.561893855788703	96.00152746443092	98.58978680744616	38.73203242717639	-0.003107502022266906	9.18748466331644e+22	-0.32391377249520303	-0.009223629901758177	-1.198978736412854e+24	-0.014679514000520753	0.19156957309298936	3.859904504628022	407.183105	344.689056	-20.079777	58.096664	-11.206421	67.504761	0.0		True	0.0	None	0.0	None	0.0	None	0.0	None	0.0	None	0.0	None	0.0	None	0.0	None	1.0562e-06	12
2014-03-12 05:36:00	424.30770319122087	4735409207.046301	3.0470445414102742e+22	8029099503757.832	44.54441082320552	2463390879774.21	7.800528710125853e+21	-4.21272585387192e+24	2023.2669009383405	-0.6698739857521852	21.625498657205334	4.206349206349207	26.38028874502998	97.82718851962343	99.81835681852341	40.192379067005774	-0.0039280785558382285	6.810227860146241e+22	-0.4180943768315472	-0.011266317897263465	-1.1831799125709634e+24	-0.010829079885091035	0.1881398105142234	3.8417151986600633	407.186096	344.57971200000014	-20.095491	58.22414000000001	-11.236503	67.657257	0.0		True	0.0	None	0.0	None	0.0	None	0.0	None	0.0	None	0.0	None	0.0	None	0.0	None	9.921500000000001e-07	12
2014-03-12 05:48:00	420.72414820088824	4747456662.3762	2.968899827481456e+22	7805915594487.987	32.09499205665878	1752978815108.2275	7.781642862555235e+21	-4.2300252962693845e+24	2000.127538086848	-0.6709178574214439	21.04362242824046	3.5340431242730603	26.15624614525197	97.24409271992396	98.3398790923579	40.56622257515952	-0.002871778100989512	9.018346536412372e+22	-0.30185554192276376	-0.008092112481073709	-1.1679086252419263e+24	-0.014303861825673028	0.18524020487593715	3.9512008332962583	407.189148	344.470398	-20.110296	58.33734499999999	-11.287957	67.78742199999999	0.0		True	0.0	None	0.0	None	0.0	None	0.0	None	0.0	None	0.0	None	0.0	None	0.0	None	8.9301e-07	12
2014-03-12 06:00:00	406.84958387191284	4639376296.9926	2.8068147108674458e+22	7424228264475.843	40.86428966643544	2509497854056.8306	7.521230479518544e+21	-4.172024087058139e+24	1990.2959967330864	-0.6771342074886689	20.722898978516973	3.1076372539787176	25.499054688995706	97.66438051204186	98.6070560974069	40.60402955860484	-0.003848223906811888	7.63533597084149e+22	-0.4548261798570311	-0.010503802164532748	-1.1247076417091749e+24	-0.012392419275726558	0.1825440126263056	3.8089643140916234	407.1922	344.361084	-20.10915	58.465176	-11.353082	67.931572	66560.0		False	0.0	None	0.0	None	0.0	None	0.0	None	0.0	None	0.0	None	0.0	None	0.0	None	9.6668e-07	12
