Timestamp	TOTUSJH	TOTBSQ	TOTPOT	TOTUSJZ	ABSNJZH	SAVNCPP	USFLUX	TOTFZ	MEANPOT	EPSZ	MEANSHR	SHRGT45	MEANGAM	MEANGBT	MEANGBZ	MEANGBH	MEANJZH	TOTFY	MEANJZD	MEANALP	TOTFX	EPSY	EPSX	R_VALUE	CRVAL1	CRLN_OBS	LAT_MIN	LON_MIN	LAT_MAX	LON_MAX	QUALITY	NOAA_AR	IS_TMFI	BFLARE	BFLARE_label	CFLARE	CFLARE_label	MFLARE	MFLARE_label	XFLARE	XFLARE_label	BFLARE_loc	BFLARE_label_loc	CFLARE_loc	CFLARE_label_loc	MFLARE_loc	MFLARE_label_loc	XFLARE_loc	XFLARE_label_loc	XR_MAX	XR_QUAL
2014-01-09 22:24:00	102.87885334241604	782895884.5125	6.307833030882095e+21	1894435071324.647	2.6260338755847594	113244364322.90793	9.859946947702673e+20	-4.85873592786852e+23	3370.9840624816716	-0.4673118448120525	28.47069862121905	13.981547196593327	40.1534422931533	163.30781147475798	162.09307616583706	85.42905372547149	0.0018637571863624968	-2.15364372049242e+22	0.1580475988591695	0.0045719754144925824	2.088090782666745e+23	0.0207136842798681	-0.2008319798131339	0.0	44.354111	71.84120899999998	-14.167397	-29.807388	-11.520702	-24.106499	0.0		True	0.0	None	0.0	None	0.0	None	0.0	None	0.0	None	0.0	None	0.0	None	0.0	None	9.5347e-07	12
2014-01-09 22:36:00	100.50255890114856	791850527.9514999	6.469786867830105e+21	1900915808711.0696	3.9994844274874017	155120893966.42926	1.002069372615112e+21	-4.899906748197612e+23	3291.666552341933	-0.46594234395496703	28.63949881178288	15.202702702702705	41.410533318372394	157.932009288014	157.8272511506106	83.17024973619348	0.002702354342896893	-2.7357745059184083e+22	-0.1380954905955517	0.006890867599717424	2.078353323427113e+23	0.0260150499045468	-0.19763494875498186	0.0	44.356449	71.731049	-14.175219	-29.731037	-11.524338	-23.974915	0.0		True	0.0	None	0.0	None	0.0	None	0.0	None	0.0	None	0.0	None	0.0	None	0.0	None	9.556e-07	12
2014-01-09 22:48:00	103.273381839618	791337035.6866	6.581080775959916e+21	1935094866662.7007	5.855615151307408	337196709272.74915	1.0293825318934648e+21	-4.875985096466028e+23	3245.2313301926306	-0.4639683475863598	28.779978373948087	15.062213490504256	40.048005654520786	155.66156803547003	153.19360097861338	82.96868474701245	0.003834718501183632	-3.2298014586888457e+22	-0.1046230647786479	0.010109026680219126	2.1295257220602864e+23	0.03073277740134945	-0.2026323934261116	0.0	44.358826	71.620926	-14.20605	-29.626009000000003	-11.526159	-23.844744	0.0		True	0.0	None	0.0	None	0.0	None	0.0	None	0.0	None	0.0	None	0.0	None	0.0	None	1.0275e-06	12
2014-01-09 23:00:00	101.81554432481924	783199714.1984999	6.40708953788494e+21	1885490036687.8315	1.0290862932373006	53433276651.354515	1.0064820534424243e+21	-4.9268195339516485e+23	3302.1598215178265	-0.4736762893540527	28.894264745929874	15.12662559890486	40.331687706294	156.63979165574426	154.82706478229244	84.15600624078158	0.0007043711794916499	-2.944282615941037e+22	-0.07191561389318467	0.001783229224809647	2.1306150770906046e+23	0.02830704178868105	-0.2048424621205094	2.2260342763675145	44.361183	71.510834	-14.215307	-29.560799	-11.530214	-23.730793	0.0		True	0.0	None	0.0	None	0.0	None	0.0	None	0.0	None	0.0	None	0.0	None	0.0	None	1.1418e-06	12
2014-01-09 23:12:00	107.19229089697636	793083192.4312999	6.950081279920459e+21	2048033151242.5483	0.8634666321759479	136841044814.4093	1.0139376379629546e+21	-4.728082474285941e+23	3400.468567612879	-0.4489043340783442	29.31608375453668	16.50422352176738	42.12907746571207	155.82182521348912	155.0016736009691	84.21104333162519	0.0005610569409850213	-3.2839825252943418e+22	0.0972166018814878	0.0015028550581956787	2.160419804319925e+23	0.03117953201238978	-0.20511947895629087	0.0	44.36364	71.400787	-14.221007	-29.456907	-11.516448	-23.601809	0.0		True	0.0	None	0.0	None	0.0	None	0.0	None	0.0	None	0.0	None	0.0	None	0.0	None	1.172e-06	12
2014-01-09 23:24:00	102.21620296642055	794554021.3285999	7.030474951226099e+21	1925284392251.1323	4.706476294760002	75511784412.76593	1.0262620037449016e+21	-4.70667735568472e+23	3410.9906967930524	-0.4460449069710639	30.184170842541327	17.8479381443299	41.812781707118546	151.55127748088591	150.83448885536853	81.36252291458257	0.00303252338579897	-3.975840421989052e+22	0.09566854974615016	0.008192579436542422	2.1597144457694425e+23	0.037678456310925736	-0.20467296911350533	2.329934215548101	44.366081	71.290779	-14.225922	-29.354498	-11.516217	-23.477203	0.0		True	0.0	None	0.0	None	0.0	None	0.0	None	0.0	None	0.0	None	0.0	None	0.0	None	9.8889e-07	12
2014-01-09 23:36:00	105.34037972319551	810733747.0221	6.974349161897599e+21	1912128836238.869	1.2117737040028214	16555269762.972445	1.0488471973736989e+21	-5.1249393263933316e+23	3450.456124653877	-0.4759901361226803	29.64993565795667	17.345597897503286	40.08949930803068	157.76029559318494	155.7225236262349	82.3570681596758	0.0007961719474394359	-3.87308333527544e+22	-0.021387472933264692	0.002025302101650099	2.32677310218805e+23	0.03597212272305352	-0.2161042258458301	2.0326071567716206	44.368607	71.180809	-14.23201	-29.27762	-11.51819	-23.348192	0.0		True	0.0	None	0.0	None	0.0	None	0.0	None	0.0	None	0.0	None	0.0	None	0.0	None	1.0319e-06	12
2014-01-09 23:48:00	109.2945328612968	826095610.2783	7.187320781799993e+21	2039246140833.432	4.4936492136150825	304293244311.0977	1.064134653665534e+21	-5.1204450521101616e+23	3475.889784013121	-0.4667292045278019	29.357465547782358	15.414258188824661	40.71924073295906	154.81793780463315	152.84691770149448	82.52174969590067	0.0028860945495279913	-4.5045973613025805e+22	-0.029984928310289687	0.0074173523331967205	2.255455442988126e+23	0.04105946107736022	-0.2055850446671489	0.0	44.371185	71.070885	-14.240162	-29.189169	-11.522289	-23.219276	0.0		True	0.0	None	0.0	None	0.0	None	0.0	None	0.0	None	0.0	None	0.0	None	0.0	None	9.7841e-07	12
2014-01-10 00:00:00	107.55496260424131	818825434.0934	7.259711815696345e+21	2022785723645.9944	3.1617489533674874	190667442201.47946	1.04438101143843e+21	-4.95943225017625e+23	3584.570204421372	-0.4560665190602805	29.43374617915885	15.803278688524587	40.61142851579075	155.86812185778186	153.28253921513348	84.2894289280194	-0.0020732780022081885	-4.069912647648872e+22	-0.2458257932469369	-0.005303771914652813	2.232471562836864e+23	0.037426681129209216	-0.2052967926979724	0.0	44.373798	70.960999	-14.245057	-29.085619	-11.52621	-23.114843	0.0		True	0.0	None	0.0	None	0.0	None	0.0	None	0.0	None	0.0	None	0.0	None	0.0	None	1.2048999999999999e-06	12
2014-01-10 00:12:00	104.72838144023927	826083651.4518001	7.533418584633139e+21	2010866236826.8064	6.582682529749029	337557550347.0532	1.0336905064346238e+21	-4.699758601773765e+23	3590.232255712113	-0.428389735518508	30.732401018470174	16.77215189873418	43.123522392994644	152.7149740657188	151.3155521840386	85.81404715607046	-0.004166254765663942	-4.339583170450075e+22	0.3694750130040042	-0.011157378289323916	2.0909748405879272e+23	0.03955592284991079	-0.1905953549608368	0.0	44.376457	70.851158	-14.249484	-28.982754	-11.529664	-22.986891	0.0		True	0.0	None	0.0	None	0.0	None	0.0	None	0.0	None	0.0	None	0.0	None	0.0	None	1.3293000000000001e-06	12
2014-01-10 00:24:00	99.00659532328648	814644039.109	7.361527019593506e+21	1847813528589.1365	5.580245756237604	452380881214.854	1.0028364315143044e+21	-4.629517747463808e+23	3702.828096860488	-0.427912831594116	30.70632120802268	16.83366733466934	42.83867265090952	153.5901597904293	153.1113994340004	88.11608184801555	-0.003727619075643022	-3.879537435300288e+22	0.5941348070879902	-0.009594309876484174	2.022636092435445e+23	0.035859109733928037	-0.1869550965805593	0.0	44.379166	70.741364	-14.255060999999998	-28.879984000000004	-11.529205	-22.880373	0.0		True	0.0	None	0.0	None	0.0	None	0.0	None	0.0	None	0.0	None	0.0	None	0.0	None	1.2867e-06	12
2014-01-10 00:36:00	100.03509759817301	815799543.5651	7.295902060701803e+21	1876308353408.092	0.7294896872129648	180278478374.6301	1.016684098082094e+21	-4.779029821378005e+23	3667.369817436968	-0.441106854915498	30.30105843605731	16.955941255006675	41.254064230169504	153.27283107836482	151.0970808134197	85.96638351700454	-0.0004869757591541821	-4.267562501839735e+22	-0.15203219761037515	-0.001240993510141962	2.067084539631672e+23	0.039389816420920466	-0.1907929421244882	0.0	44.381897	70.631599	-14.260247	-28.777103000000004	-11.515693	-22.755255	0.0		True	0.0	None	0.0	None	0.0	None	0.0	None	0.0	None	0.0	None	0.0	None	0.0	None	1.2237e-06	12
2014-01-10 00:48:00	98.02924977141492	792180811.3982999	6.582349480570469e+21	1743641825036.3438	6.143257698741497	196760862685.6129	9.650046716025416e+20	-4.7027572752974506e+23	3766.2803453044185	-0.4470085620883039	27.009969979213682	10.030395136778118	39.38232414604124	158.54792628445026	158.56277380221192	91.27443856550005	-0.004668128950411472	-3.8241476867855286e+22	0.2344508248070243	-0.01071848266397598	1.9300064009558844e+23	0.03634945753340398	-0.1834518210506505	0.0	44.384689	70.521889	-14.265946	-28.673698	-11.518409	-22.626741	0.0		True	0.0	None	0.0	None	0.0	None	0.0	None	0.0	None	0.0	None	0.0	None	0.0	None	1.0642000000000001e-06	12
2014-01-10 01:00:00	95.74343023077572	812471730.7669001	6.837814012561157e+21	1708813103748.02	6.090747526042013	213407338241.4564	1.0015576944629424e+21	-4.826763461366633e+23	3669.840043423265	-0.4473374726350625	27.162771551283328	10.477548111190305	39.800934899820106	156.39148935081406	155.5690556665332	88.54743521549267	-0.004341231308654321	-3.297847339398436e+22	0.29868593986854297	-0.01035911197829742	1.826017453055801e+23	0.030563973265950426	-0.169232662626939	0.0	44.387516	70.412216	-14.270731	-28.570675	-11.522215	-22.522903	0.0		True	0.0	None	0.0	None	0.0	None	0.0	None	0.0	None	0.0	None	0.0	None	0.0	None	1.0153e-06	12
2014-01-10 01:12:00	92.44265799021376	788839812.6062	6.431470440760013e+21	1606748082556.2476	5.19962877208896	438787608020.90906	9.861686600495911e+20	-4.879249898323212e+23	3550.4504472130548	-0.4657488471191197	26.71072127485075	8.651026392961878	38.85960623321489	154.53832506415154	153.34966310844013	86.38096808335594	-0.003812044554317419	-3.719131400402935e+22	0.6324184999273	-0.008994022121209545	1.893686761919109e+23	0.035500972446962806	-0.18076188851726235	0.0	44.390396	70.30259699999999	-14.288647	-28.468699	-11.525867	-22.395802	0.0		True	0.0	None	0.0	None	0.0	None	0.0	None	0.0	None	0.0	None	0.0	None	0.0	None	1.0167e-06	12
2014-01-10 01:24:00	92.31737194743755	780127143.988	6.428197707612596e+21	1585004081775.6277	5.961817668446879	308531573898.084	9.774948582470608e+20	-4.7787543605887754e+23	3609.507358379063	-0.4612504490187756	26.871703128013372	8.799403430275914	38.38869056577341	152.04361124415095	151.1137992074369	86.1394567101963	-0.00444579990189924	-4.131944168457796e+22	0.4522989559934058	-0.010459685794822137	1.8736091357373506e+23	0.03988196419426035	-0.18084274476875545	0.0	44.393311	70.19300799999999	-14.297123999999998	-28.365667	-11.529351	-22.292007	0.0		True	0.0	None	0.0	None	0.0	None	0.0	None	0.0	None	0.0	None	0.0	None	0.0	None	1.0128e-06	12
2014-01-10 01:36:00	98.05216370515551	790501725.7331	6.511848105665582e+21	1704622291200.8582	11.491061040570195	422580756098.37415	9.844964625730462e+20	-4.741542990983038e+23	3656.47789066714	-0.451652416420209	26.22563391011909	6.785980611483967	38.465886339093	155.7649892277912	156.16547818796562	89.13391531156843	-0.00856902389304265	-4.120931292961857e+22	0.4612191996533808	-0.020027404226245184	1.864470397688726e+23	0.03925364759757248	-0.17759884536773435	0.0	44.396263	70.083466	-14.30252	-28.259346	-11.533736	-22.167082	0.0		True	0.0	None	0.0	None	0.0	None	0.0	None	0.0	None	0.0	None	0.0	None	0.0	None	9.5723e-07	12
2014-01-10 01:48:00	96.04738281127892	815444615.8297	6.6079279192651e+21	1641878921472.8892	5.689374932912308	433154849920.9852	1.0077143951988646e+21	-4.878851409036251e+23	3582.2066271209887	-0.4505165022236446	26.004356917455226	6.119510439164866	38.98216432229621	152.3474262649794	154.6254517284399	88.20509210128775	-0.0040960222699152685	-4.398166409678996e+22	0.613022093974595	-0.009620051722375407	1.7729608922894147e+23	0.040612971803490806	-0.16371643093990448	0.0	44.399261	69.973961	-14.308035	-28.161077	-11.537275	-22.064322	0.0		True	0.0	None	0.0	None	0.0	None	0.0	None	0.0	None	0.0	None	0.0	None	0.0	None	1.1058e-06	12
2014-01-10 02:00:00	89.63348483882343	795531766.4061	6.371818147124647e+21	1543397955675.6829	5.113815635702651	444392711027.0377	9.78160380128228e+20	-4.932719909082237e+23	3623.788644275293	-0.4668919673398626	26.087534497201705	7.401812688821751	39.32648082380789	151.78200090439208	152.3178138580928	86.51658383667136	-0.0038623985163917306	-4.578477140331346e+22	0.6597876634824443	-0.008764343809399767	1.7977774406102928e+23	0.0433362169121744	-0.1701632895353128	0.0	44.402302	69.864502	-14.314017000000002	-28.084616	-11.537354	-21.933058	0.0		True	0.0	None	0.0	None	0.0	None	0.0	None	0.0	None	0.0	None	0.0	None	0.0	None	1.2772e-06	12
2014-01-10 02:12:00	83.11264712803587	782854654.4738	6.510328854171585e+21	1455749129061.0986	4.765061468910402	211338301806.39145	9.658173394686653e+20	-4.71550604140785e+23	3705.3619010596667	-0.4535599690622818	26.483964740331945	7.78533635676493	39.077952642485656	151.2877819371339	151.2493092142147	85.76763848612083	-0.0036017093491386275	-5.0152993928152976e+22	0.3140030697139008	-0.008374992195338903	1.82419063918628e+23	0.04823955302927036	-0.1754593976993427	0.0	44.40538	69.755081	-14.318177	-27.985905	-11.541525	-21.805559	0.0		True	0.0	None	0.0	None	0.0	None	0.0	None	0.0	None	0.0	None	0.0	None	0.0	None	1.2803e-06	12
2014-01-10 02:24:00	85.2720030052263	800080887.8567001	6.844575691742372e+21	1504214873269.3557	4.011705598377457	741939393066.371	9.859815584946496e+20	-4.709133439908747e+23	3751.0026105772936	-0.4431948134086785	27.356946305975953	9.461426491994178	40.09421098604307	152.0219151320853	152.03131149240642	85.86048696023359	-0.0029197275097361404	-4.2303909234820015e+22	1.0614205648014456	-0.006948646120541808	1.7955585703740104e+23	0.03981384982827551	-0.1689869815149438	0.0	44.408501	69.645699	-14.323031	-27.9564	-11.545435	-21.675999	0.0		True	0.0	None	0.0	None	0.0	None	0.0	None	0.0	None	0.0	None	0.0	None	0.0	None	1.2648e-06	12
2014-01-10 02:36:00	87.57740364236946	812871555.1299	7.172318734872325e+21	1626957567970.8042	4.065307379036796	295644804044.3925	1.0009151046033766e+21	-4.6222377559761226e+23	3654.0340971091937	-0.4281715456345136	29.504741243934674	13.870094722598104	42.44466821307757	143.24709995822892	144.465621616935	82.3190168565785	-0.0027505462645715803	-4.60768306414577e+22	0.39318037880938816	-0.007003595924729734	1.721224076540814e+23	0.04268233015098623	-0.1594420737624267	0.0	44.411652	69.536354	-14.326037	-27.853678	-11.537794	-21.575457	0.0		True	0.0	None	0.0	None	0.0	None	0.0	None	0.0	None	0.0	None	0.0	None	0.0	None	1.2098e-06	12
2014-01-10 02:48:00	94.21413155439272	796011302.9987001	6.692772509971682e+21	1696235003342.4219	4.270907737508066	579820318625.6913	9.854706276912579e+20	-4.7822069338460194e+23	3625.5900778064533	-0.4523728861386381	27.938623003924107	10.431654676258994	40.27608712182885	149.91960141707278	150.16925084234498	84.26198751246476	-0.00307259549461012	-4.224077083186529e+22	0.8199079326081963	-0.007388441144666841	1.7694519179799972e+23	0.0399576590437585	-0.16738131203712014	0.0	44.414848	69.427048	-14.331603	-27.750978000000003	-11.531906	-21.447699	0.0		True	0.0	None	0.0	None	0.0	None	0.0	None	0.0	None	0.0	None	0.0	None	0.0	None	1.0364e-06	12
2014-01-10 03:00:00	92.8956883673361	799172387.5369	6.793500715166182e+21	1727459341207.4607	5.457974503357338	438111614128.7871	9.868857662277076e+20	-4.74829794623652e+23	3744.815556591068	-0.4473886873672688	26.97993839592762	8.125915080527086	39.433821963952056	155.12194405728746	155.70858305043458	87.89657132556074	-0.00399558894828502	-4.547892137347407e+22	0.6303927072504693	-0.009437041269550724	1.818751856060511e+23	0.04285062809145019	-0.17136435302561884	0.0	44.418022	69.31777199999999	-14.336481	-27.648018	-11.514514	-21.344259	0.0		True	0.0	None	0.0	None	0.0	None	0.0	None	0.0	None	0.0	None	0.0	None	0.0	None	9.861799999999998e-07	12
2014-01-10 03:12:00	98.78051921948791	838098606.4731	7.522749713054863e+21	1784921576664.5051	8.086443440263414	563880598093.1387	1.0146270127083347e+21	-4.821602358514693e+23	4025.965407411056	-0.433195359742855	28.488813220533828	12.295664534470506	40.97824276685985	152.47973076211434	155.48653782928832	87.0813137211972	-0.0057472945559796824	-3.717706908795796e+22	0.787700155820803	-0.013464400987191141	1.68253497478863e+23	0.03340162174365637	-0.151166829922496	0.0	44.421242	69.20854200000001	-14.340726	-27.546743	-11.510223	-21.217878	0.0		True	0.0	None	0.0	None	0.0	None	0.0	None	0.0	None	0.0	None	0.0	None	0.0	None	1.3829e-06	12
2014-01-10 03:24:00	96.85013284725235	837759532.0058	7.38432233987332e+21	1779480371504.1956	9.36792997287126	452069023267.4448	1.0058113560520792e+21	-4.829398458228543e+23	4067.520068031719	-0.43407146173788014	27.399381379261822	10.095098756400878	40.217800931094644	154.14824634834454	155.71012941859775	88.04546348644304	-0.0068529114651582	-3.983966399287223e+22	0.625722439259467	-0.015594931088476462	1.7006346511569376e+23	0.03580831305204691	-0.1528548483407927	0.0	44.424534	69.099335	-14.345978	-27.447315000000003	-11.495003	-21.093246	0.0		True	0.0	None	0.0	None	0.0	None	0.0	None	0.0	None	0.0	None	0.0	None	0.0	None	1.2376e-06	12
2014-01-10 03:36:00	96.22689184935041	826647646.2092	7.064316491240595e+21	1718062042894.8232	3.6837456972094738	599680825911.792	9.920826357305926e+20	-4.837605013314715e+23	3871.425762087461	-0.4406537725900877	27.45430886967597	10.91703056768559	41.11747088448144	149.86998049109863	151.60199929532232	86.82783322647627	-0.002681037625334406	-3.5463664081775224e+22	0.8577947373361509	-0.006186422588713502	1.6205729775462158e+23	0.03230358271188024	-0.14761676373904364	0.0	44.427864	68.990166	-14.3502	-27.372786	-11.488893	-20.991266	0.0		True	0.0	None	0.0	None	0.0	None	0.0	None	0.0	None	0.0	None	0.0	None	0.0	None	9.7071e-07	12
2014-01-10 03:48:00	97.11362002121227	811890238.0089	6.880018075257114e+21	1688484644450.6008	3.042394742288728	677869505297.2966	9.742904878744449e+20	-4.818690970125628e+23	3906.911396879427	-0.44690916666684016	26.478556659376487	8.295625942684765	40.500729220073616	151.72188441844875	153.38344541713943	85.89768366920354	-0.002294415341092555	-4.1617515813905455e+22	1.00471730350626	-0.00517972818389511	1.661166489043237e+23	0.03859813676877402	-0.15406477317507644	0.0	44.431221	68.88101999999999	-14.353674	-27.268484	-11.492365	-20.864647	0.0		True	0.0	None	0.0	None	0.0	None	0.0	None	0.0	None	0.0	None	0.0	None	0.0	None	8.965300000000002e-07	12
2014-01-10 04:00:00	96.37400866862284	817650700.3609	7.250246664793848e+21	1699562457186.9255	5.312120193700352	414921527817.22894	9.784617536137668e+20	-4.764849672160441e+23	4037.9747429028585	-0.4388023027086459	27.86052882374736	11.168639053254438	41.22295847281387	148.67225032995486	150.8375198872155	86.0335028576306	-0.003929082983506177	-4.70790016427504e+22	0.6031456746491592	-0.009030856706361579	1.7815746118130062e+23	0.04335577353208761	-0.1640679341214872	0.0	44.434612	68.771912	-14.358328	-27.166822	-11.469043	-20.762505	0.0		True	0.0	None	0.0	None	0.0	None	0.0	None	0.0	None	0.0	None	0.0	None	0.0	None	9.0739e-07	12
2014-01-10 04:12:00	94.76344644293829	817507030.6734	7.215890855094151e+21	1601593482749.1235	5.042295214051384	520012935444.9409	9.775391591001366e+20	-4.712602694197791e+23	4042.7626308271456	-0.4340671167690132	28.15384498778861	11.01190476190476	41.04906399059371	149.8114299254458	150.66067841745155	85.72322595452073	-0.0037517077485501368	-3.82332311411519e+22	0.7603959199844261	-0.008601957465812984	1.6948219838890128e+23	0.035215759704581025	-0.15610619857455915	0.0	44.438019	68.662819	-14.362673999999998	-27.066305	-11.47337	-20.636839	0.0		True	0.0	None	0.0	None	0.0	None	0.0	None	0.0	None	0.0	None	0.0	None	0.0	None	8.956799999999998e-07	12
2014-01-10 04:24:00	96.04481799752668	794561970.7647	7.040933588384349e+21	1689926888368.2202	4.139313036492236	219193055990.51605	9.409681571260912e+20	-4.485501280661528e+23	3909.8313512425066	-0.4250800042091635	29.146544438992947	12.831858407079649	43.09566029289631	146.63873509650026	145.80876179199845	85.97743573933573	-0.0030525907348762787	-3.3801683840016287e+22	0.31767579351188424	-0.007311243453021488	1.6782219666506778e+23	0.03203303044620213	-0.15904099809833755	0.0	44.441456	68.55375699999999	-14.365078	-26.96457100000001	-11.475772	-20.532188	0.0		True	0.0	None	0.0	None	0.0	None	0.0	None	0.0	None	0.0	None	0.0	None	0.0	None	8.566800000000002e-07	12
2014-01-10 04:36:00	93.13691837079384	808173623.0575	7.08728376723694e+21	1663872469032.3433	1.24382716134326	401967227913.9364	9.679000445550228e+20	-4.661050136143834e+23	3831.035665662457	-0.4342767631797965	29.36772291920339	13.352476669059586	42.1463865856006	145.36938642163543	145.9304167746119	85.55206149083658	-0.0008929125350633598	-3.1603100232418805e+22	0.5670862375728967	-0.0021461120720542145	1.6176136041130462e+23	0.029445064254846283	-0.15071539235812684	0.0	44.444923	68.444725	-14.370298000000002	-26.863527	-11.461159	-20.408525	0.0		True	0.0	None	0.0	None	0.0	None	0.0	None	0.0	None	0.0	None	0.0	None	0.0	None	8.387300000000002e-07	12
2014-01-10 04:48:00	91.86433526772691	801909017.1052	7.188373785814802e+21	1633098303253.4082	3.073213720056513	490070372039.9899	9.448678472314974e+20	-4.491694607476912e+23	3965.385778924112	-0.4217669723808956	29.81197475703923	15.384615384615385	43.11223624107447	143.87672976322997	144.16191304480782	85.98401195149758	0.0022514386227520237	-2.873807071875433e+22	0.7055506585496263	0.005390998869327201	1.626297588900704e+23	0.026984846785755984	-0.15270820262784884	0.0	44.44841	68.335709	-14.353229999999998	-26.762875	-11.463288	-20.285334	0.0		True	0.0	None	0.0	None	0.0	None	0.0	None	0.0	None	0.0	None	0.0	None	0.0	None	7.9582e-07	12
2014-01-10 05:00:00	93.30399189317532	799560942.0007	7.083199879984957e+21	1604872264398.3557	5.297420601022143	491809194192.9918	9.38592554196784e+20	-4.6035133167622505e+23	4080.763595740238	-0.43353619270961896	29.18498611557101	14.460596786534047	41.66990410524164	146.80712779169244	148.2274609557837	87.19921898263306	0.00405311446137884	-3.7364297620095913e+22	0.5574684156618291	0.009243452603572906	1.6625209630021542e+23	0.03518785375183493	-0.15656802946033652	0.0	44.451908	68.22670699999999	-14.356	-26.66015100000001	-11.466066	-20.179819	0.0		True	0.0	None	0.0	None	0.0	None	0.0	None	0.0	None	0.0	None	0.0	None	0.0	None	8.516700000000002e-07	12
2014-01-10 05:12:00	96.37813392007864	801743946.0225	7.273720747903665e+21	1741900496324.817	4.202549140697956	369523174657.6659	9.457313496350994e+20	-4.513113821015566e+23	4057.0509949998277	-0.4238656362830372	29.244635123314143	13.407407407407408	42.36744934115754	147.72727400861518	146.84039335933642	88.91714690584914	0.0031129993634799675	-2.2300497970943387e+22	0.3741902407936111	0.007362716831887131	1.710585038073444e+23	0.02094433053708241	-0.1606558673975759	0.0	44.455421	68.117722	-14.360888	-26.558655	-11.463751	-20.058186	0.0		True	0.0	None	0.0	None	0.0	None	0.0	None	0.0	None	0.0	None	0.0	None	0.0	None	9.056399999999999e-07	12
2014-01-10 05:24:00	97.01409887605577	788707351.5996001	7.31453899029309e+21	1732020493290.1182	4.923522715910882	471538370701.0187	9.384814587330768e+20	-4.511187267282131e+23	4098.0317377482315	-0.4306878238686019	30.214944967015658	13.690476190476193	41.596524284378866	145.10279840992834	143.585298559392	84.9926634870473	0.0036633353541003603	-3.3314721811642265e+22	0.3907677568998347	0.008726602048838647	1.840520523377906e+23	0.031805917577189126	-0.1757164427085965	0.0	44.458958	68.008759	-14.36445	-26.454542	-11.467342	-19.952183	0.0		True	0.0	None	0.0	None	0.0	None	0.0	None	0.0	None	0.0	None	0.0	None	0.0	None	8.5221e-07	12
2014-01-10 05:36:00	102.82763277602508	789909939.5093001	7.21037649374881e+21	1817718641733.4136	9.62912279725085	792189817464.5221	9.403453710468864e+20	-4.578396484955884e+23	4173.190439979754	-0.43643882612169743	29.085495379591546	12.836279784780938	40.48470866517024	150.44933824213086	149.43667266949282	88.72145343994713	0.007401324210031402	-2.95340730443239e+22	0.907109528569604	0.016972741891681197	1.770942277772458e+23	0.028153560340201507	-0.1688163031270858	0.0	44.462502	67.899803	-14.366315	-26.349867	-11.470121	-19.828306	0.0		True	0.0	None	0.0	None	0.0	None	0.0	None	0.0	None	0.0	None	0.0	None	0.0	None	8.3359e-07	12
2014-01-10 05:48:00	102.26769817016549	789952222.957	6.918961495931354e+21	1718148256416.3423	6.2911695275762245	894225753691.7158	9.375139163849184e+20	-4.6760385280966524e+23	4148.000744853889	-0.4457227554512066	27.647465574821528	9.554140127388537	39.97974600650723	150.10840435068337	149.84176430872955	89.59225630470495	0.005008892935968332	-1.8671245041734213e+22	1.3990400996321304	0.011017309288785608	1.7616960170840722e+23	0.017797541097451016	-0.16792590529012386	0.0	44.466064	67.790863	-14.366302	-26.221497	-11.471924	-19.726675	0.0		True	0.0	None	0.0	None	0.0	None	0.0	None	0.0	None	0.0	None	0.0	None	0.0	None	8.349299999999998e-07	12
2014-01-10 06:00:00	97.6000664722237	772007891.6345999	6.80401935804594e+21	1733530871737.0764	4.739485049226404	612943096241.6305	9.124703956625392e+20	-4.557247941528853e+23	4021.459574365426	-0.4444966706698111	29.42186307744545	13.736263736263735	41.95877013054826	146.90064284102326	147.4082990307273	86.24151414846075	0.0037201609491573024	-1.4855567821248246e+22	0.9454067208428758	0.00850007716386886	1.769369241338243e+23	0.014489557123458126	-0.17257756151326994	0.0	44.469631	67.681931	-14.368493	-26.11801	-11.475013	-19.603844	66560.0		False	0.0	None	0.0	None	0.0	None	0.0	None	0.0	None	0.0	None	0.0	None	0.0	None	8.3177e-07	12
2014-01-10 06:12:00	98.37930277697642	778366433.4778999	6.502085727419788e+21	1698407854373.791	6.628891242782311	424572467237.3554	9.191511381027872e+20	-4.88659638139616e+23	4016.396250987761	-0.4727264879329451	28.535429339756803	12.141099261689913	39.95949240394764	148.23621519677505	149.66673266031867	86.3081154486097	0.0054379747684842605	-9.969287137533163e+21	0.54575060564031	0.01156550744479159	1.7009832827667614e+23	0.009644230314709656	-0.1645521321049318	0.0	44.473198	67.572998	-14.372565	-26.014004	-11.459735	-19.500454	66560.0		False	0.0	None	0.0	None	0.0	None	0.0	None	0.0	None	0.0	None	0.0	None	0.0	None	8.392799999999998e-07	12
2014-01-10 06:24:00	100.20206549430141	771650776.6527001	6.35938308570645e+21	1679483360739.4272	10.725995145916595	919174826460.3951	8.958042698148699e+20	-4.867574295914125e+23	4131.607548346222	-0.4749843517934566	27.95205596966897	11.993097497842967	39.813340603225576	150.67933839050855	152.919981890605	88.7694962128692	0.009254525578875406	-1.0121570540046032e+22	0.3519913243435749	0.018847744299761413	1.676656383861716e+23	0.009876762694985532	-0.16361035235505486	0.0	44.47678	67.46408100000001	-14.377104999999998	-25.886606	-11.464237	-19.377155	0.0		True	0.0	None	0.0	None	0.0	None	0.0	None	0.0	None	0.0	None	0.0	None	0.0	None	1.0862999999999999e-06	12
2014-01-10 06:36:00	106.65323689241826	799685322.6231999	6.723112729435333e+21	1849318007583.2625	10.221730121692538	1123072456485.979	9.204973861596131e+20	-4.871416375178185e+23	4163.171899920233	-0.4586946256964581	28.003404188051015	12.417763157894738	40.595811244774644	147.05079785006834	150.66616010339095	90.13858994140699	0.008406028060602417	-1.2445348174540038e+22	0.909198435844759	0.01752551940571822	1.647887720229918e+23	0.011718592464545659	-0.15516580452292042	0.0	44.480354	67.35515600000001	-14.379727	-25.783461	-11.466841	-19.277098	0.0		True	0.0	None	0.0	None	0.0	None	0.0	None	0.0	None	0.0	None	0.0	None	0.0	None	1.1934e-06	12
2014-01-10 06:48:00	96.2581622385505	789037712.9948001	6.283465211624284e+21	1594994338362.1548	2.4707031275897644	656399478942.6376	8.98527746680553e+20	-4.970162886997902e+23	4153.965920113787	-0.4743078353608002	26.997587017388266	10.44776119402985	39.648490575164	146.31601572696158	151.2338574440736	89.7131468981092	0.0021691862402017244	-1.6798930441086796e+22	1.1323953041721968	0.004247805527213708	1.6654012209507136e+23	0.01603139477527529	-0.1589309779328969	0.0	44.483887	67.246239	-14.381885999999998	-25.675734	-11.469839	-19.153238	0.0		True	0.0	None	0.0	None	0.0	None	0.0	None	0.0	None	0.0	None	0.0	None	0.0	None	1.012e-06	12
2014-01-10 07:00:00	98.86823961821086	796997140.871	6.440166687194514e+21	1654081331545.2395	4.838336168741805	634541982283.496	9.032385579961107e+20	-4.938274144879584e+23	4148.299577705387	-0.4665583299569026	27.346671695044645	11.633875106928999	40.66610924105526	151.07571696164226	154.68198993428337	94.16687476205252	0.0041388675523882	-1.2027114863640372e+22	1.0665890585534064	0.00827884842295161	1.6770772393558403e+23	0.011362979171170984	-0.15844692559523205	0.0	44.487411	67.137314	-14.385877	-25.546576	-11.468667	-19.050823	0.0		True	0.0	None	0.0	None	0.0	None	0.0	None	0.0	None	0.0	None	0.0	None	0.0	None	8.2485e-07	12
2014-01-10 07:12:00	95.95627588064264	800437213.0756	6.63922881261762e+21	1601750317094.1519	3.9683411020402666	793458367574.2776	8.898412515714842e+20	-4.706827062313155e+23	4439.835009562063	-0.4427805712557817	27.14346252596065	10.923623445825932	40.772300298154995	154.53461967893992	159.27188272475829	94.93540058135609	0.00352428161815299	-1.1472316759447576e+22	1.3846347741005711	0.006872447554399242	1.5541709271240525e+23	0.010792236258366087	-0.14620394627435568	0.0	44.490982	67.02838100000001	-14.387985999999998	-25.442389	-11.471633	-18.949755	0.0		True	0.0	None	0.0	None	0.0	None	0.0	None	0.0	None	0.0	None	0.0	None	0.0	None	9.7813e-07	12
2014-01-10 07:24:00	86.93947728076765	786295352.0421	6.329360667606368e+21	1500924692870.452	0.8080051021358559	509230221987.4835	8.746717703205901e+20	-4.690360455055607e+23	4289.762697214323	-0.4491671583700143	27.28600599853528	10.62106210621062	40.886298603123706	155.97266569016278	157.62669149103698	97.47851409527443	-0.0007272773196542357	-1.6827936793081957e+22	0.9006335576508594	-0.0014182079221090164	1.629721390729635e+23	0.016115086725225304	-0.15606845849551648	0.0	44.494549	66.919449	-14.385345999999998	-25.336115	-11.474965	-18.827057	0.0		True	0.0	None	0.0	None	0.0	None	0.0	None	0.0	None	0.0	None	0.0	None	0.0	None	1.4011000000000002e-06	12
2014-01-10 07:36:00	82.68081622192128	769377954.9504	6.049045455856682e+21	1348657696379.6047	2.464290072268116	326348942497.8114	8.647472255571891e+20	-4.71264332054146e+23	4350.385593100455	-0.4612245528829544	26.175617516627568	7.545367717287487	38.24721430583116	155.10844102794943	156.882029596075	97.11817022520037	-0.002353667690800493	-1.9925005777312198e+22	0.6124671231994723	-0.00438394527090954	1.566279912203194e+23	0.01950052498302636	-0.15329120051302125	0.0	44.4981	66.810501	-14.38561	-25.208874	-11.478624	-18.726568	0.0		True	0.0	None	0.0	None	0.0	None	0.0	None	0.0	None	0.0	None	0.0	None	0.0	None	1.3863999999999998e-06	12
2014-01-10 07:48:00	85.6868619409465	780184901.6167	6.414737156992241e+21	1416551057014.4814	1.6015238675058758	593192021936.3215	8.837440386079052e+20	-4.635057604889273e+23	4423.27292412685	-0.4473475919819432	26.46083388235371	9.24908424908425	39.547553780012066	155.0235775898112	156.1285568067789	95.54788526532444	-0.001466596948265454	-2.246944619407409e+22	1.067381033691023	-0.002836566872918428	1.573704019286142e+23	0.021686143959643425	-0.1518843482716066	0.0	44.501648	66.701546	-14.374268	-25.105371	-11.481308	-18.603308	0.0		True	0.0	None	0.0	None	0.0	None	0.0	None	0.0	None	0.0	None	0.0	None	0.0	None	1.3830000000000001e-06	12
2014-01-10 08:00:00	81.90337461247661	765817311.7536	6.448888603575738e+21	1393425936829.6138	0.5154489210613038	184023652487.7332	8.714988151444007e+20	-4.562245039445431e+23	4471.390251714922	-0.44858108168065336	26.932473500569657	9.023941068139964	39.85893999687463	155.32312951673163	155.08810231215642	94.82006545768299	-0.0004746306823768912	-2.5427681885040067e+22	0.3329590337027357	-0.0009292822500406633	1.6661218041736676e+23	0.02500167559173749	-0.16382081950135574	0.0	44.505173	66.592575	-14.375676	-24.975376	-11.466983	-18.503284	0.0		True	0.0	None	0.0	None	0.0	None	0.0	None	0.0	None	0.0	None	0.0	None	0.0	None	1.3826e-06	12
2014-01-10 08:12:00	75.54720521833265	755841703.1879001	6.383257367229757e+21	1276266453096.8286	1.6899833722178703	564549095129.2719	8.611183571176733e+20	-4.482611040324255e+23	4409.641975345263	-0.4465680818627572	27.273904833342442	8.440366972477065	40.381732862774	151.29620779691126	149.33933668871143	94.83171120927716	0.00155044346075034	-2.9842197583885507e+22	1.0177070816201643	0.0030913109964331767	1.633189854764164e+23	0.029729487599354964	-0.16270215153599202	0.0	44.50869	66.483589	-14.377837	-24.871861	-11.46994	-18.379906	0.0		True	0.0	None	0.0	None	0.0	None	0.0	None	0.0	None	0.0	None	0.0	None	0.0	None	1.3556e-06	12
2014-01-10 08:24:00	75.88842916894131	743386771.8469	6.340417586678559e+21	1249427859109.975	1.013115145182356	681951886434.6394	8.368939102927355e+20	-4.287226943135703e+23	4612.804285331898	-0.4342593329763811	26.75936383053525	9.27536231884058	40.03626901777455	156.5372910924116	154.24517220140504	98.65173538632885	-0.0009788552127365758	-3.654496155677747e+22	1.2946791671372204	-0.001900405549647632	1.6010813033335377e+23	0.0370169128898184	-0.16217580922320896	1.4832644714945975	44.512188	66.374588	-14.379147	-24.741446	-11.472857	-18.281757	0.0		True	0.0	None	0.0	None	0.0	None	0.0	None	0.0	None	0.0	None	0.0	None	0.0	None	1.1574e-06	12
2014-01-10 08:36:00	73.22962838042193	754182409.9690001	6.590564133356101e+21	1267304291401.419	1.2686272920545445	515612431732.3782	8.639086767735222e+20	-4.249166812750159e+23	4399.47634982614	-0.42424318869482985	27.62544129325404	10.99290780141844	41.333586979218026	150.3883847706017	146.51573962360226	96.33770485049824	-0.001124669585154738	-3.859153546760903e+22	0.8981826980404474	-0.002362128369930322	1.5698342713523906e+23	0.038530367916555404	-0.15673460853609508	0.0	44.515663	66.265564	-14.380859	-24.638296	-11.475349	-18.15863	0.0		True	0.0	None	0.0	None	0.0	None	0.0	None	0.0	None	0.0	None	0.0	None	0.0	None	1.0512e-06	12
2014-01-10 08:48:00	75.73427514736525	757954215.4001999	6.483644609259249e+21	1294744460489.6516	3.1025844999138017	450497162741.6494	8.749119558603717e+20	-4.340690703199856e+23	4410.207802513677	-0.4312244143417344	26.2524527900642	7.317073170731707	39.95932015695178	155.97970833280456	153.52805930547254	96.962292739471	-0.00280269602521572	-4.3739362936422815e+22	0.7996445151346551	-0.005720090572676645	1.5242875977615735e+23	0.04345271860083293	-0.15142982340311653	0.0	44.519119	66.15651700000001	-14.375441	-24.508385	-11.478126	-18.058657	0.0		True	0.0	None	0.0	None	0.0	None	0.0	None	0.0	None	0.0	None	0.0	None	0.0	None	9.864399999999998e-07	12
2014-01-10 09:00:00	72.79191651509127	754228225.7659	6.58864245724312e+21	1270680669699.1277	3.4301383823580216	338830575274.8348	8.692553662063018e+20	-4.161359742435749e+23	4344.274791138464	-0.4154511178137175	26.898149675438948	8.669001751313484	41.06930018442702	152.9400214752505	148.93634657064712	95.34974468087128	-0.00300362380241508	-4.841952403925126e+22	0.5830041164761671	-0.006426048218070225	1.5116546942217006e+23	0.04833983753190425	-0.15091668861466026	0.0	44.522545	66.04744699999999	-14.361829	-24.405237	-11.480659	-17.958520999999994	0.0		True	0.0	None	0.0	None	0.0	None	0.0	None	0.0	None	0.0	None	0.0	None	0.0	None	8.968999999999998e-07	12
2014-01-10 09:12:00	74.01646596147341	746856297.8484001	6.532595586861567e+21	1251773613259.3523	3.3462683952372263	745075681317.341	8.70185346262743e+20	-4.209710782399961e+23	4376.299247310733	-0.4244267629657761	27.043152283984927	8.98576512455516	39.965961811186396	151.44799945877082	146.9323497177239	97.52425383664499	-0.00297710711320038	-4.630459995835916e+22	1.3025440376805542	-0.006290911779455621	1.500219986094196e+23	0.046684707065665534	-0.15125350537062754	0.0	44.525955	65.938354	-14.363383	-24.300905	-11.483798	-17.838526	0.0		True	0.0	None	0.0	None	0.0	None	0.0	None	0.0	None	0.0	None	0.0	None	0.0	None	8.605299999999998e-07	12
2014-01-10 09:24:00	77.70526970591405	745592359.2367	6.577648847974176e+21	1314411398268.9907	6.976406073027053	457590703914.5067	8.626053589039101e+20	-4.104541701736705e+23	4478.196733810334	-0.41452510197409614	26.62174001213002	7.504520795660036	39.89243503874725	152.19689742265012	149.11073160921273	98.06267201616724	-0.0063077812595181285	-4.651484429326092e+22	0.8129878297255041	-0.01322968913886572	1.45559409997945e+23	0.046976183883854335	-0.14700308501472234	0.0	44.529339	65.829239	-14.365064000000002	-24.174826	-11.486269	-17.739172	0.0		True	0.0	None	0.0	None	0.0	None	0.0	None	0.0	None	0.0	None	0.0	None	0.0	None	8.364799999999998e-07	12
2014-01-10 09:36:00	81.78315086600023	744465644.1919	6.776472748399459e+21	1370982983496.916	6.4301022360816456	456672499198.07104	8.524051658259885e+20	-4.007616248087388e+23	4613.558748669584	-0.4053488583308131	27.204987663083468	7.414104882459313	41.282613193305075	153.3586101730341	148.7592841009513	96.29659350706692	-0.005819097046227734	-5.002007162663439e+22	0.8113637925416376	-0.012293181789857107	1.4178116428371116e+23	0.05059261584029697	-0.14340403251594613	0.0	44.532684	65.720085	-14.367247	-24.069361	-11.489223	-17.639706	0.0		True	0.0	None	0.0	None	0.0	None	0.0	None	0.0	None	0.0	None	0.0	None	0.0	None	8.520299999999998e-07	12
2014-01-10 09:48:00	81.79790452355606	738218961.7586	6.517832891476202e+21	1382368012871.6533	2.815926071310476	184031505927.2141	8.454778278822862e+20	-4.034341762120133e+23	4527.531177457639	-0.4115048896318343	26.57468626029036	7.564575645756457	40.711254531156726	154.55363424805498	150.28358499641672	97.23102472783896	-0.002597717777961693	-5.905474401374609e+22	0.3336055743699511	-0.005404850195622792	1.3619483427631891e+23	0.06023613603038418	-0.13891941623173198	0.0	44.536011	65.61090899999999	-14.347566	-23.965317	-11.492525	-17.517582	0.0		True	0.0	None	0.0	None	0.0	None	0.0	None	0.0	None	0.0	None	0.0	None	0.0	None	8.778399999999998e-07	12
2014-01-10 10:00:00	83.43007908690346	738101378.0504	6.377616919531646e+21	1420967612059.6592	2.385915763534316	211783776843.8292	8.528200060677389e+20	-4.024772868743172e+23	4303.1038024622885	-0.4105943306987107	26.312831885457395	6.720430107526879	41.27991633096907	154.32269660383767	150.93281634803245	98.5642758328402	-0.0021379173508372005	-5.085089548602337e+22	0.37290988385555496	-0.004583180399991467	1.3220145802790111e+23	0.05187644142521223	-0.13486765824206695	0.0	44.539291	65.501694	-14.348146	-23.841852	-11.495456	-17.417887	0.0		True	0.0	None	0.0	None	0.0	None	0.0	None	0.0	None	0.0	None	0.0	None	0.0	None	8.370999999999998e-07	12
2014-01-10 10:12:00	81.92582962012416	729753531.3218	6.577191768240804e+21	1366160688058.6667	4.30856362669029	575946757036.6123	8.316020922520705e+20	-3.748633044384711e+23	4429.821409525005	-0.38679801859037305	27.261341424225	9.481216457960645	42.88460493857572	154.55421107288964	150.90446546158486	97.31429636607308	-0.0038538136195798655	-4.864064499811604e+22	1.012327896676587	-0.008514773281419408	1.2900852125607548e+23	0.05018924201292985	-0.13311583132382726	0.0	44.542549	65.392448	-14.346652	-23.737005	-11.51759	-17.319019	0.0		True	0.0	None	0.0	None	0.0	None	0.0	None	0.0	None	0.0	None	0.0	None	0.0	None	7.999299999999998e-07	12
