Timestamp	TOTUSJH	TOTBSQ	TOTPOT	TOTUSJZ	ABSNJZH	SAVNCPP	USFLUX	TOTFZ	MEANPOT	EPSZ	MEANSHR	SHRGT45	MEANGAM	MEANGBT	MEANGBZ	MEANGBH	MEANJZH	TOTFY	MEANJZD	MEANALP	TOTFX	EPSY	EPSX	R_VALUE	CRVAL1	CRLN_OBS	LAT_MIN	LON_MIN	LAT_MAX	LON_MAX	QUALITY	NOAA_AR	IS_TMFI	BFLARE	BFLARE_label	CFLARE	CFLARE_label	MFLARE	MFLARE_label	XFLARE	XFLARE_label	BFLARE_loc	BFLARE_label_loc	CFLARE_loc	CFLARE_label_loc	MFLARE_loc	MFLARE_label_loc	XFLARE_loc	XFLARE_label_loc	XR_MAX	XR_QUAL
2014-02-03 18:36:00	272.08061763036085	3024686402.1561003	2.6098791328420645e+22	5713672153012.643	44.697675273128795	1253884900729.63	4.396133917166608e+21	-2.119707843208736e+24	2885.340151819853	-0.5276952166303046	26.874737229726033	8.72118631625312	33.802052931198794	116.47956204631315	116.56425455207838	53.290627784310324	-0.006562571615493878	-1.2437796954017191e+23	-0.11645889177608852	-0.01934629737084471	7.82397136922345e+23	0.030963540466588373	-0.194775533799122	3.4892658309287987	66.17115799999999	104.763908	-20.826614000000006	-48.799984	-15.633543	-37.74654	0.0	11970.0	True	0.0	None	0.0	None	0.0	None	0.0	None	0.0	None	0.0	None	0.0	None	0.0	None	2.5483000000000002e-06	12
2014-02-03 18:48:00	271.5215520525473	2999551688.5241003	2.5635462079011403e+22	5583410664810.237	37.88951100452988	895658667403.3097	4.2998472956445e+21	-2.096342723274196e+24	2940.7637550056074	-0.5262516791676275	26.65239856293909	9.293113954905543	33.866694319950106	118.64448268899812	119.27468626250428	54.11430918408906	-0.005772320384602358	-1.2512531844208794e+23	-0.0817406666298891	-0.016552610323664764	7.647629166482313e+23	0.03141061249454878	-0.1919809030188923	3.6084968985053365	66.172852	104.653503	-20.824795	-48.687172	-15.637587	-37.639549	0.0	11970.0	True	0.0	None	0.0	None	0.0	None	0.0	None	0.0	None	0.0	None	0.0	None	0.0	None	3.1655e-06	12
2014-02-03 19:00:00	272.006044289839	2969630263.79	2.497165924203987e+22	5486134914434.462	36.5986284699321	885586606650.8284	4.23384709428528e+21	-2.1122748320857988e+24	2940.318697250559	-0.5355938706500449	26.91520800899022	9.319781078967944	33.701633853462745	120.19643072493963	120.55641838528322	54.51630593181269	-0.005723006797487428	-1.2906420180084122e+23	0.1054218510428632	-0.01605151599082431	7.691074034921826e+23	0.03272585288374217	-0.1950168628270868	3.291296307473248	66.174545	104.543098	-20.821507	-48.582371	-15.633446	-37.530079	0.0	11970.0	True	0.0	None	0.0	None	0.0	None	0.0	None	0.0	None	0.0	None	0.0	None	0.0	None	3.1114e-06	12
2014-02-03 19:12:00	267.07659879764043	2942564522.498	2.4661964984006595e+22	5274440420131.113	36.8326517938758	989232263427.8575	4.1383723438459343e+21	-2.1017929964094208e+24	3061.3484612463258	-0.5378379484377392	26.78265822578866	9.924167490933067	33.43958804632537	122.97400393439491	123.0761913068758	55.9197874424465	-0.006071983480691691	-1.3605706727372556e+23	-0.06920844973832213	-0.016278950961499786	7.53154930149402e+23	0.034816299254002044	-0.1927284481294448	3.2067257105527136	66.176239	104.432693	-20.825558	-48.478958	-15.640166	-37.421215	0.0	11970.0	True	0.0	None	0.0	None	0.0	None	0.0	None	0.0	None	0.0	None	0.0	None	0.0	None	3.0383999999999996e-06	12
2014-02-03 19:24:00	271.73088428417407	2921629221.7330003	2.435101074235688e+22	5434484859457.104	33.359842643018524	1040468522069.2264	4.1038732827539166e+21	-2.0944460157829125e+24	3041.8041484144483	-0.5397983721246905	26.865305045055297	9.688122096881221	33.55677178851192	122.99681656043957	123.52272099314293	56.64043555393901	-0.005534147750998428	-1.3971383377267688e+23	-0.2022588062197164	-0.014830815538371938	7.461680678699089e+23	0.03600823294822391	-0.1923087562689179	3.237792810097683	66.178001	104.322304	-20.822842	-48.365028	-15.643504	-37.316124	0.0	11970.0	True	0.0	None	0.0	None	0.0	None	0.0	None	0.0	None	0.0	None	0.0	None	0.0	None	3.2432e-06	12
2014-02-03 19:36:00	278.045882846892	2934017904.777801	2.4256709259902505e+22	5450067582618.913	29.614746296613532	532836814596.9826	4.095620804126322e+21	-2.1094432483949487e+24	3077.504320552312	-0.5413680206413368	26.54531431119881	9.519797809604043	33.3184297113152	124.55606396908571	124.89674790019207	56.7421849771208	-0.004989847733212052	-1.3039874737707422e+23	-0.17544420813721173	-0.013096911959366886	7.533209499470747e+23	0.03346556576734185	-0.1933324690724948	3.4350355421594068	66.17977900000001	104.211929	-20.82403	-48.251286	-15.640689000000002	-37.208542	0.0	11970.0	True	0.0	None	0.0	None	0.0	None	0.0	None	0.0	None	0.0	None	0.0	None	0.0	None	6.9194e-06	12
2014-02-03 19:48:00	277.9620930280196	2916617577.579801	2.4046481208326283e+22	5395367242718.725	36.83501545524214	623458097769.0286	4.011077275040664e+21	-2.0882550423187352e+24	3166.058793309282	-0.5391276278947055	26.42950112278689	9.424724602203183	33.170624062881906	126.43364345908456	127.29535500992807	57.76166523756033	-0.006440814033090075	-1.460463403070787e+23	-0.03231361777300227	-0.016411063626179143	7.435257841393009e+23	0.037704981152604025	-0.19195705704437066	3.321631889424397	66.181511	104.101562	-20.825174	-48.138084	-15.644698000000002	-37.100559	0.0	11970.0	True	0.0	None	0.0	None	0.0	None	0.0	None	0.0	None	0.0	None	0.0	None	0.0	None	6.3654999999999994e-06	12
2014-02-03 20:00:00	290.8093611282348	2920057791.1278	2.4316893991281663e+22	5580369888367.999	35.05463455879661	600951693200.3683	3.9558502479919175e+21	-2.0770924021876944e+24	3279.066013844801	-0.5356138992467456	26.802586958647066	10.333094555873926	33.58565608756735	127.92051717551328	129.2452127022042	59.25612146653657	-0.00627881686526896	-1.3542571018575348e+23	-0.10106302915323864	-0.015641526547456173	7.511343718937576e+23	0.03492184200108422	-0.1936928801841121	3.578356817354698	66.18325	103.991203	-20.827164	-48.035751	-15.64569	-36.992249	0.0	11970.0	True	0.0	None	0.0	None	0.0	None	0.0	None	0.0	None	0.0	None	0.0	None	0.0	None	3.9029e-06	12
2014-02-03 20:12:00	293.64287714617967	2969347805.6938	2.457413159829143e+22	5623614269384.627	33.5084908777166	919344449584.9236	3.9860716362613874e+21	-2.132060131495252e+24	3345.5073212326347	-0.5406619945196648	27.09678596497984	11.227626107394686	33.83261552787675	130.25089981808568	132.3547297473995	59.992041869307386	-0.006058306070822022	-1.3336243127489427e+23	-0.27778817561359403	-0.014649284885915315	7.521671263808417e+23	0.03381893269422389	-0.1907395447031726	3.4225581021613185	66.185013	103.880867	-20.826447	-47.920372	-15.650681	-36.87314600000001	0.0	11970.0	True	0.0	None	0.0	None	0.0	None	0.0	None	0.0	None	0.0	None	0.0	None	0.0	None	3.0082e-06	12
2014-02-03 20:24:00	291.96849884537505	2991860011.3508	2.4186867471877207e+22	5532987916790.711	26.5316587439445	1253927354322.2722	3.978573934645101e+21	-2.1614092870864693e+24	3355.886982413593	-0.5439804189939994	26.22413437968676	9.968675142804496	33.39321454316986	131.759310585836	134.10210299770304	60.835844160528794	-0.004888826007728856	-1.1815657492858296e+23	-0.4522699451770778	-0.011487124841748492	7.394848450256935e+23	0.02973747893125208	-0.18611249532430474	3.4755820426614	66.186844	103.770546	-20.82354	-47.807945	-15.649242	-36.7519	0.0	11970.0	True	0.0	None	0.0	None	0.0	None	0.0	None	0.0	None	0.0	None	0.0	None	0.0	None	2.6867e-06	12
2014-02-03 20:36:00	300.6929007613764	2993484856.6111	2.4032088493339552e+22	5500560677994.037	33.65430790185827	883967827328.7242	3.944798027772328e+21	-2.1832208260133043e+24	3454.065688480692	-0.549171608317133	25.85274531579492	8.55125023859515	32.744901123939464	134.37593115285406	136.95601357591244	62.26431001408342	-0.006423803760614291	-1.148788149532893e+23	-0.3302705146326883	-0.014514232139178657	7.395785226969216e+23	0.028896840309400627	-0.18603501851342388	3.49829548694652	66.188698	103.660248	-20.825651	-47.698364	-15.650773	-36.633995	0.0	11970.0	True	0.0	None	0.0	None	0.0	None	0.0	None	0.0	None	0.0	None	0.0	None	0.0	None	2.6745999999999998e-06	12
2014-02-03 20:48:00	294.3421524800082	3008466128.624	2.4412229451504293e+22	5454673327853.233	35.75502157662449	1191015721323.444	3.951107699651009e+21	-2.1740991301328644e+24	3518.104101431693	-0.544153909474645	25.81030690095069	7.8086124401913874	32.68001847147738	133.25556997236743	136.14492571849206	62.38184985798563	-0.006843066330454447	-1.1298332450014446e+23	-0.2378992210522341	-0.015393285648971862	7.328272203347603e+23	0.028278525518953164	-0.1834188659512628	3.4714036641236063	66.19051400000001	103.549965	-20.821127	-47.57748400000001	-15.652382	-36.514702	0.0	11970.0	True	0.0	None	0.0	None	0.0	None	0.0	None	0.0	None	0.0	None	0.0	None	0.0	None	2.9093000000000002e-06	12
2014-02-03 21:00:00	301.9992792775041	3022114048.6393	2.536853385037941e+22	5656800275086.701	36.70960554890378	1166429156162.682	3.998449849028577e+21	-2.155324496246734e+24	3537.440487358156	-0.5370186257278481	26.881128364260753	10.462962962962962	33.20109462319009	130.29893120744316	132.8228568394575	62.02896184332632	-0.006798075101648848	-1.066434113429737e+23	-0.4228028021688314	-0.015805918328328818	7.50827899617024e+23	0.02657117213768137	-0.1870755737767586	3.3773831791798177	66.192352	103.439705	-20.821909	-47.4655	-15.658760999999998	-36.400387	0.0	11970.0	True	0.0	None	0.0	None	0.0	None	0.0	None	0.0	None	0.0	None	0.0	None	0.0	None	3.3343e-06	12
2014-02-03 21:12:00	314.04473393408705	3037114860.4085	2.5654301159907526e+22	5975509325805.9375	36.78668172084723	1331107313687.1208	4.069620258214684e+21	-2.175622201525202e+24	3468.729442060553	-0.5393984833484223	27.164957561942558	10.917579457712336	33.54945690254223	129.56604527018257	132.23240089047528	60.845769270145894	-0.006605617116330982	-9.348606698528865e+22	-0.4678470285748709	-0.015736507003015775	7.604977035417688e+23	0.023177848943958558	-0.1885489620361536	3.2989564862484664	66.194214	103.329468	-20.824488	-47.352215	-15.653416	-36.286362	0.0	11970.0	True	0.0	None	0.0	None	0.0	None	0.0	None	0.0	None	0.0	None	0.0	None	0.0	None	3.4669e-06	12
2014-02-03 21:24:00	309.88583953424865	3034445241.1277	2.5680065108050407e+22	5838330476336.461	44.319892257793576	1563365052687.7168	4.062175602176688e+21	-2.16428109130068e+24	3486.6131581884856	-0.5370588406531465	27.312660087149922	10.656328885683378	33.35365529502252	131.74596684058722	134.1590956816193	62.171583041592704	-0.00799132568658377	-9.727280612829106e+22	-0.34511975494302344	-0.019004607023147376	7.761873352234009e+23	0.024137909209816448	-0.19260819311331376	3.299023044796213	66.196159	103.219261	-20.816956	-47.241821	-15.654766	-36.166538	0.0	11970.0	True	0.0	None	0.0	None	0.0	None	0.0	None	0.0	None	0.0	None	0.0	None	0.0	None	3.4963e-06	12
2014-02-03 21:36:00	317.8174123737202	3067581527.2144003	2.6250652604860937e+22	6101570253080.414	52.77867693309015	1749869548707.7458	4.175083219878134e+21	-2.1739753404754247e+24	3374.257775474584	-0.5336371053792006	27.390738918449074	10.90815978149539	33.50836305076411	130.72582858580628	132.60517307445897	61.425715272294426	-0.009009675133678756	-7.938070374353414e+22	-0.2605948056715716	-0.02243725756622757	7.888896520081306e+23	0.01948526654373165	-0.19364561433763072	3.278971332309656	66.198074	103.109077	-20.815083	-47.127647	-15.655910999999998	-36.051655	0.0	11970.0	True	0.0	None	0.0	None	0.0	None	0.0	None	0.0	None	0.0	None	0.0	None	0.0	None	4.0763e-06	12
2014-02-03 21:48:00	297.06335541353803	3035730267.5661	2.6367403245042697e+22	5609193520969.738	51.995743441827095	1497699333937.7305	4.108435309162709e+21	-2.1222366630541363e+24	3460.7484854949885	-0.5264027610970561	27.381087785598172	11.051071988844345	33.73415536667307	128.75867747792918	130.19801862557009	61.2802468662849	-0.009063228767967071	-9.896313074868474e+22	-0.058808701147353086	-0.022442201847486583	7.897783612471353e+23	0.024546963201524767	-0.1958978078424589	3.3929081947395496	66.200066	102.998917	-20.819988	-47.02607	-15.649852	-35.938168	0.0	11970.0	True	0.0	None	0.0	None	0.0	None	0.0	None	0.0	None	0.0	None	0.0	None	0.0	None	3.812e-06	12
2014-02-03 22:00:00	294.6332722354655	3034697869.9622	2.693645940770115e+22	5761940303123.805	53.05346856912085	1614783084020.337	4.149109905635049e+21	-2.0998349494012747e+24	3423.2578755634227	-0.5210233178870274	27.938039470588002	11.81434599156118	33.97008343989572	125.95788552525144	127.81445767792705	60.09524506935752	-0.008954171910400141	-1.037822139136184e+23	-0.31245032701047404	-0.02298753728202034	7.966553423624764e+23	0.02575104936049973	-0.19767077874786	3.2740177786181146	66.202042	102.888794	-20.810295	-46.915237	-15.652246	-35.820393	0.0	11970.0	True	0.0	None	0.0	None	0.0	None	0.0	None	0.0	None	0.0	None	0.0	None	0.0	None	4.8978e-06	12
2014-02-03 22:12:00	290.862830339528	2996806451.2774	2.6374480680266423e+22	5708463524345.764	50.55855806852622	1350315056326.2666	4.120961531081665e+21	-2.0754565933225235e+24	3332.714046220198	-0.5214857916688127	27.783953138242502	11.159590535324721	34.06163093383196	126.7351103600274	128.46085367131616	60.31407931361787	-0.008485827134697251	-1.0581323342041663e+23	-0.20165712670454666	-0.02217909521248556	7.951747032919671e+23	0.02658696788784535	-0.19979811237458392	3.2400814945209087	66.204041	102.778694	-20.810446	-46.806004	-15.655137	-35.708534	0.0	11970.0	True	0.0	None	0.0	None	0.0	None	0.0	None	0.0	None	0.0	None	0.0	None	0.0	None	4.1527999999999994e-06	12
2014-02-03 22:24:00	301.6318226346217	3000543330.5874004	2.6257426243860543e+22	5800278311710.246	61.561934041842136	1976711482039.5864	4.121836324585831e+21	-2.0818999943470384e+24	3303.5092274999292	-0.5224533111985791	27.834075534048377	11.044277360066834	34.13841621353186	126.96847050053822	128.73479273254895	59.834784215439264	-0.010286037433891755	-1.113916877574163e+23	-0.027633899728004768	-0.02695245720140931	7.97953096758892e+23	0.0279537712026908	-0.20024652419176198	3.454530910366273	66.206131	102.668633	-20.816813	-46.693752	-15.660704	-35.593945	0.0	11970.0	True	0.0	None	0.0	None	0.0	None	0.0	None	0.0	None	0.0	None	0.0	None	0.0	None	3.0312e-06	12
2014-02-03 22:36:00	286.87282431081667	2971145848.5757003	2.552408015042155e+22	5692422659440.008	60.813941840034005	2063599478393.8533	4.154933930203888e+21	-2.077158571922554e+24	3141.9485899558354	-0.526420915926117	27.28253124740947	9.285597515121793	33.61070249425549	125.86350055734043	127.31441793037467	59.24067709240384	-0.009943417567042841	-1.094023690323084e+23	-0.09383162419808667	-0.026825008300851348	8.065071604703328e+23	0.027726191003881687	-0.20439567968217404	3.290928306814604	66.208191	102.558594	-20.82132	-46.582832	-15.651461	-35.480247	0.0	11970.0	True	0.0	None	0.0	None	0.0	None	0.0	None	0.0	None	0.0	None	0.0	None	0.0	None	7.866900000000001e-06	12
2014-02-03 22:48:00	287.0273398024406	2921904594.0856	2.500332097729495e+22	5568778585385.555	64.76998407627072	2224621182840.4985	4.0875447423909725e+21	-2.054939513889302e+24	3145.201225142426	-0.5295664515904688	27.37445524249865	9.67256932843301	33.573689519907845	126.16711577374605	127.48954916362601	58.99695552678185	-0.010820244583406404	-1.16941963856557e+23	-0.01295965562434368	-0.028984739743015263	7.929698645397593e+23	0.030136430013128736	-0.2043516291083964	3.3277717468065298	66.210335	102.448586	-20.828129	-46.47554	-15.654984	-35.364578	0.0	11970.0	True	0.0	None	0.0	None	0.0	None	0.0	None	0.0	None	0.0	None	0.0	None	0.0	None	4.8316000000000005e-06	12
2014-02-03 23:00:00	291.4478910435024	2904031843.6612005	2.429246677292137e+22	5520931978885.991	55.08213666074171	1756436863147.2356	4.0923813973892577e+21	-2.05856010336294e+24	3055.271809475554	-0.5337644814828825	26.71885860083652	8.936028060798398	33.19115320555367	126.1038384492444	127.00649648475506	58.87403850239914	-0.009200290071946171	-1.2636588751450317e+23	-0.023459238376556536	-0.024733223588974743	7.744643904813388e+23	0.03276543750950719	-0.2008110344395158	3.2108116264894586	66.212471	102.338623	-20.830606	-46.366356	-15.659825	-35.252403	0.0	11970.0	True	0.0	None	0.0	None	0.0	None	0.0	None	0.0	None	0.0	None	0.0	None	0.0	None	2.7896e-06	12
2014-02-03 23:12:00	290.5220373051876	2877302168.8309	2.4884511833262976e+22	5721180528630.622	61.429519556538686	2540485035433.336	4.1077264516370153e+21	-2.0090269595889985e+24	3043.3189793654938	-0.5257603055760968	27.228694310987848	9.761247360727626	33.639508453535896	125.5919130479039	125.53458940325923	59.001684516974926	-0.009977183621331605	-1.2038281858784777e+23	0.04290382419904877	-0.027985645546562743	7.851822595892915e+23	0.03150406080155683	-0.2054813962372357	3.232876697747442	66.21464499999999	102.228691	-20.823624	-46.265495	-15.656367	-35.139553	0.0	11970.0	True	0.0	None	0.0	None	0.0	None	0.0	None	0.0	None	0.0	None	0.0	None	0.0	None	3.14e-06	12
2014-02-03 23:24:00	285.67039584771703	2854201470.8764	2.4341772303979204e+22	5536011692640.41	52.150877132827	1463965399983.4487	4.059250993535362e+21	-2.0008730894776863e+24	3037.1233328843823	-0.5278644622790345	26.84733752583479	8.898094449047225	33.555964048159176	126.97917689439836	126.73876036426105	58.90384778370093	-0.008641404661611764	-1.2732210393391088e+23	0.08166342507729908	-0.023917851101477386	7.712582760937717e+23	0.03358974353883363	-0.20347109335893449	3.201589898473609	66.21684300000001	102.11879	-20.827719	-46.16785	-15.657483	-35.028042	0.0	11970.0	True	0.0	None	0.0	None	0.0	None	0.0	None	0.0	None	0.0	None	0.0	None	0.0	None	3.2222000000000007e-06	12
2014-02-03 23:36:00	286.0261014029718	2838629655.7154	2.392850219254575e+22	5577081558007.235	55.22930565679636	1975763241103.031	4.047677016774457e+21	-2.022913217421668e+24	3012.0108640479866	-0.5366065189045279	26.703959013993693	8.809762621196922	33.064173841518766	127.93626448708288	128.74068040891288	58.160213724510406	-0.009232582022199324	-1.3616612929458048e+23	0.10436950463372256	-0.02532375901461804	7.573199368641762e+23	0.03612000356920802	-0.20088989063784127	3.0233587027609015	66.219124	102.008926	-20.829866	-46.071552	-15.661969	-34.917793	0.0	11970.0	True	0.0	None	0.0	None	0.0	None	0.0	None	0.0	None	0.0	None	0.0	None	0.0	None	3.7162e-06	12
2014-02-03 23:48:00	284.6821047865134	2812744960.3786	2.3950928167206486e+22	5622407134084.922	55.45823771003537	2299186531715.414	4.006976915480381e+21	-1.983653385745028e+24	3022.413085776917	-0.5310347520227893	26.848154147174558	9.267638679403383	33.42292267258353	128.7730446347703	129.69660260468854	58.44686600129362	-0.009294157484504	-1.3153498884605906e+23	0.054244432787237264	-0.02575613286548033	7.494581746388329e+23	0.03521262872139979	-0.2006340113554198	3.1013050413592285	66.221451	101.899101	-20.830345	-45.962383	-15.664962	-34.806961	0.0	11970.0	True	0.0	None	0.0	None	0.0	None	0.0	None	0.0	None	0.0	None	0.0	None	0.0	None	3.3702999999999997e-06	12
2014-02-04 00:00:00	282.06131842101377	2798260047.4197	2.3989700259258927e+22	5476951716298.146	55.576705489139975	2026164505213.474	3.98474945450629e+21	-1.9628941634395263e+24	3026.291073999533	-0.5281974083494521	27.10704788792768	10.286480147428383	33.97529409658513	127.69542889166692	128.36766857850435	57.881843607111634	-0.00931089051585525	-1.3720439821236568e+23	-0.06694935946195947	-0.025992931593410058	7.342775437123242e+23	0.03692048654468906	-0.1975875739109864	3.069932121750331	66.22375500000001	101.789307	-20.827696	-45.864349	-15.665475	-34.694927	0.0	11970.0	True	0.0	None	0.0	None	0.0	None	0.0	None	0.0	None	0.0	None	0.0	None	0.0	None	3.4366000000000007e-06	12
2014-02-04 00:12:00	279.30445855255675	2794740076.6501	2.369906854813078e+22	5438121748542.953	49.67395018749012	1749662523115.335	4.01710129413995e+21	-1.9743637790583628e+24	2930.7104716074964	-0.531953125894015	27.133501550521466	9.952373131877156	33.95576616148234	125.31990111881224	125.48409768047472	56.736549006879365	-0.008157981636966679	-1.4249997899374391e+23	0.12102338034182365	-0.023204477471896568	7.447041883557369e+23	0.03839379048054993	-0.2006457599476096	3.1848057547673343	66.226105	101.67955	-20.827852	-45.754646	-15.670779	-34.582001	0.0	11970.0	True	0.0	None	0.0	None	0.0	None	0.0	None	0.0	None	0.0	None	0.0	None	0.0	None	4.3541e-06	12
2014-02-04 00:24:00	288.24078062051615	2804750834.1532	2.332823583004803e+22	5595894555279.562	46.900497928020926	1578583782193.5515	4.038835281230384e+21	-2.0135455078024247e+24	2899.134814303077	-0.5405733486149609	26.803990596845523	8.928866149529625	33.56714775926929	128.54265010063472	128.31134794811823	58.096352667594644	-0.007740633425981337	-1.4949499724360125e+23	0.043696510304090434	-0.021708548335238186	7.428895229545057e+23	0.040134683297700514	-0.1994423644851104	3.0846973972934446	66.22848499999999	101.569832	-20.827234	-45.647125	-15.668871	-34.472649	0.0	11970.0	True	0.0	None	0.0	None	0.0	None	0.0	None	0.0	None	0.0	None	0.0	None	0.0	None	6.9835e-06	12
2014-02-04 00:36:00	281.36727853469813	2751767715.3144	2.232303730758772e+22	5457172150559.328	44.54572643862543	1643096943077.8333	3.952483873768256e+21	-2.001612846263521e+24	2877.2610236309242	-0.5477165183070686	26.33920584784655	8.387538514207463	32.921484672455165	129.31317482770322	128.74140306524768	58.082386072317284	-0.007625081554026948	-1.3519890618074443e+23	0.03031418384890773	-0.020918611417276	7.41315277576406e+23	0.036995503056684635	-0.20285172707596194	3.189850842294491	66.230949	101.460152	-20.822466	-45.540413	-15.675005	-34.362099	0.0	11970.0	True	0.0	None	0.0	None	0.0	None	0.0	None	0.0	None	0.0	None	0.0	None	0.0	None	9.5858e-06	12
2014-02-04 00:48:00	287.55211040040723	2744536214.3677	2.249312746344601e+22	5591336565062.469	41.154561316932366	1285495218619.0483	3.956312530915084e+21	-1.973531522400608e+24	2859.0535884284886	-0.5414552923869733	26.653044888476163	9.621877110060769	33.39765172471619	128.79203257231595	128.01486258008006	58.47829960124889	-0.006947090026490946	-1.319230889148435e+23	0.046297415449358316	-0.019455754319486315	7.264846987816658e+23	0.03619423042916037	-0.1993173053121576	3.10455362049986	66.233452	101.350502	-20.825151	-45.431358	-15.679953	-34.251469	0.0	11970.0	True	0.0	None	0.0	None	0.0	None	0.0	None	0.0	None	0.0	None	0.0	None	0.0	None	1.1914000000000001e-05	12
2014-02-04 01:00:00	283.91018137656965	2717791729.0325003	2.2495895647475458e+22	5535489866178.483	37.36197153114514	842191583417.8864	3.875615928069833e+21	-1.9434726301026427e+24	2941.8402498202336	-0.5384553713479199	26.619772937346696	9.777700590482805	33.90472680180401	130.81931468804686	130.51184691846137	59.141618616018846	-0.006488706413884186	-1.236479360571104e+23	0.2505847481538971	-0.017871405366914214	7.179795668870215e+23	0.034257696401167693	-0.19892225304348726	3.10517855384857	66.235939	101.240891	-20.824579	-45.325924	-15.684477	-34.141903000000006	0.0	11970.0	True	0.0	None	0.0	None	0.0	None	0.0	None	0.0	None	0.0	None	0.0	None	0.0	None	1.2451e-05	12
2014-02-04 01:12:00	279.4612653734323	2712472288.1259003	2.1980641057502294e+22	5323913628800.951	40.20351901114045	1557340460297.1108	3.866248052394158e+21	-1.9701457429281663e+24	2927.850150087633	-0.5469158644655038	26.20479366087475	8.950999469308332	33.20405121586404	132.37551592777228	131.95175218132502	59.44943224229601	-0.0071118908563843	-1.2036030421610733e+23	0.08427619065618544	-0.019162936515853785	7.06775485272628e+23	0.03341222854398923	-0.19620209667148428	3.10112967728562	66.23846400000001	101.131317	-20.818281	-45.207439	-15.684119	-34.038028999999995	0.0	11970.0	True	0.0	None	0.0	None	0.0	None	0.0	None	0.0	None	0.0	None	0.0	None	0.0	None	1.7318e-05	12
2014-02-04 01:24:00	280.00024957330584	2674628099.2617	2.172474200671152e+22	5343364662320.584	33.861671388537395	874307152325.728	3.839971572277669e+21	-1.9407061171834087e+24	2914.386636166773	-0.5463663617441552	26.00716462369297	8.444681988241582	32.800690847228196	132.38019881521043	131.72722451350478	59.42235763829395	-0.00603272249929403	-1.3695334574220116e+23	0.1684146943790868	-0.016374294217407732	7.143048359291487e+23	0.03855643086777792	-0.20109800805352	3.098922480414036	66.241028	101.021774	-20.819071	-45.101612	-15.689923	-33.934059000000005	0.0	11970.0	True	0.0	None	0.0	None	0.0	None	0.0	None	0.0	None	0.0	None	0.0	None	0.0	None	3.8423e-05	12
2014-02-04 01:36:00	273.7105154689171	2662009238.9861	2.2033530242376403e+22	5305988950301.557	36.41787283282435	1042416113315.5586	3.8362141946182e+21	-1.9029011411904247e+24	2923.0027334562114	-0.5382625821041269	26.152098571268567	8.386187455954897	32.94829491691921	130.21456501842147	129.66161314961673	59.23904847163652	-0.006416115721075468	-1.4133985509383634e+23	0.16508173049059371	-0.01778707499789482	7.083291827811751e+23	0.03997998304285965	-0.2003609576191576	3.150297082503393	66.243668	100.91227	-20.817381	-44.983292	-15.690179	-33.824234000000004	0.0	11970.0	True	0.0	None	0.0	None	0.0	None	0.0	None	0.0	None	0.0	None	0.0	None	0.0	None	2.7496999999999998e-05	12
2014-02-04 01:48:00	281.5792768175544	2670603994.2302	2.1715879051834136e+22	5420555089772.908	40.2252697071763	1562836262568.9316	3.869280452151657e+21	-1.9407592126454992e+24	2847.7493768139925	-0.5472045522833265	26.24107654629412	8.516196447230929	32.82877090471381	130.31134935152556	130.47922068938084	58.802639241746114	-0.007005445786690403	-1.3096338899462973e+23	0.2062539924755452	-0.01947025913017964	7.132571725501894e+23	0.03692563310964618	-0.2011056133213832	3.1719315172314264	66.2463	100.802803	-20.810209	-45.441521	-15.696472	-33.714890000000004	0.0	11970.0	True	0.0	None	0.0	None	0.0	None	0.0	None	0.0	None	0.0	None	0.0	None	0.0	None	2.007e-05	12
2014-02-04 02:00:00	274.1103703552584	2670191827.0262003	2.1805129750783262e+22	5346011747322.233	38.039176548079006	1323188507324.4058	3.87678358844319e+21	-1.9396248889812887e+24	2869.447696585769	-0.5469690808610468	26.10729656833781	9.000349528137015	32.686985207621305	130.87059188288012	131.1813556238545	58.18157319042041	-0.006647881256217933	-1.3959608033205206e+23	0.22380910810425952	-0.018417768370554886	7.133590567181794e+23	0.0393657248805101	-0.20116536439268687	3.0215277920886034	66.24900799999999	100.693359	-20.81193	-45.355133	-15.681638	-33.591396	66560.0	11970.0	False	0.0	None	0.0	None	0.0	None	0.0	None	0.0	None	0.0	None	0.0	None	0.0	None	1.5373e-05	12
2014-02-04 02:12:00	277.0813733461199	2679409919.4800005	2.2247354722413726e+22	5472712592539.777	40.832332747076975	1819216161974.3047	3.9316667113558974e+21	-1.9375233783118407e+24	2881.8114784125523	-0.5444967613564475	25.90749482842421	8.102528814725614	32.467737032269824	131.04964762021564	131.06560153842685	58.61737459812755	-0.007024313219865298	-1.3032977563468818e+23	0.4303162640239983	-0.0197336774212136	7.221235234248002e+23	0.036626211345759885	-0.2029363486425126	3.119669049879109	66.251701	100.583954	-20.81395	-45.365948	-15.585119	-33.439609999999995	0.0	11970.0	True	0.0	None	0.0	None	0.0	None	0.0	None	0.0	None	0.0	None	0.0	None	0.0	None	1.1455999999999995e-05	12
2014-02-04 02:24:00	286.09718926354464	2728376046.2141	2.219158959295046e+22	5653612762475.338	41.55034496456539	1787485182784.3228	4.075019087774426e+21	-2.008361012797252e+24	2740.6888113211553	-0.5542747106028617	25.77959030699736	7.954731835328847	32.09855895478493	129.9688531837348	130.05546823479455	56.68864827578851	-0.006814883543474723	-1.313000446940498e+23	0.1955328681472575	-0.019596234180280385	7.429345150976514e+23	0.036236659550353545	-0.2050377450710845	3.003899689809616	66.25444	100.474586	-20.803886	-45.85059	-15.272746	-33.330112	0.0	11970.0	True	0.0	None	0.0	None	0.0	None	0.0	None	0.0	None	0.0	None	0.0	None	0.0	None	8.752999999999999e-06	12
2014-02-04 02:36:00	286.2736382817378	2745384045.4074	2.2568444643661945e+22	5703848969168.0	45.82337203486006	2157035294095.295	4.096129520273709e+21	-2.0057439632026945e+24	2758.725122448229	-0.5501231239819783	26.11081776728716	9.237012987012989	32.471519073778126	129.2667304239074	129.20295180861123	57.12791470083682	-0.0074388590965681935	-1.253328652226814e+23	0.3806609335742944	-0.021535142011278523	7.479553069876562e+23	0.03437552779359706	-0.2051445835698459	3.00300599530869	66.25724	100.365242	-20.80364	-45.82552	-15.189095000000002	-33.214088000000004	0.0	11970.0	True	0.0	None	0.0	None	0.0	None	0.0	None	0.0	None	0.0	None	0.0	None	0.0	None	7.163300000000001e-06	12
2014-02-04 02:48:00	292.19110106849024	2780744800.9102	2.283739205856493e+22	5807744880286.678	37.08044962502052	1441020978321.9448	4.1610369264629983e+21	-2.020655677979042e+24	2723.9441868405943	-0.5471654517130697	26.07828275481545	9.139870109298274	32.526212575789536	127.77484674628609	127.66653312665821	56.575251544153204	-0.005873665392843422	-1.3324932679469134e+23	0.2820713697915135	-0.017237611736334042	7.468634528638699e+23	0.03608206429261618	-0.20224023469597813	2.9976572780903847	66.260025	100.255928	-20.793404	-45.90394600000001	-15.107189000000002	-33.104191	0.0	11970.0	True	0.0	None	0.0	None	0.0	None	0.0	None	0.0	None	0.0	None	0.0	None	0.0	None	9.0271e-06	12
2014-02-04 03:00:00	284.9340598249076	2743446717.3159	2.2281204170508957e+22	5716036769237.24	39.05960927640003	1551484623061.1602	4.1221860063439414e+21	-1.999720871210463e+24	2659.289634549425	-0.5488584559004999	26.002188620169463	9.03471231573942	32.48209820114245	126.33239415803075	125.94579503634465	56.559258173207034	-0.006191093561008089	-1.2998947531047471e+23	0.28897960137421336	-0.01838440714123784	7.381619165403065e+23	0.035677890714335816	-0.2026014808114818	2.9988031636482413	66.26289399999999	100.146645	-20.795473	-45.81916	-15.083143	-32.989754	0.0	11970.0	True	0.0	None	0.0	None	0.0	None	0.0	None	0.0	None	0.0	None	0.0	None	0.0	None	1.1942999999999999e-05	12
2014-02-04 03:12:00	298.4074767687565	2743844408.3823004	2.210554446822132e+22	5842338705751.482	41.25240325842736	1694947718461.769	4.154421990012084e+21	-2.0244230867569888e+24	2634.148801545457	-0.5555577932420832	25.86755515344777	8.419053647729072	32.0320325313694	126.16870020321548	126.11503628150196	55.421668873434726	-0.00652831195733935	-1.2277898188521875e+23	0.26583976480033816	-0.019330078531599244	7.408987891315288e+23	0.03369395492418125	-0.2033231585819459	2.994879121925082	66.265739	100.037392	-20.795227	-45.734028	-15.059515	-32.875060999999995	0.0	11970.0	True	0.0	None	0.0	None	0.0	None	0.0	None	0.0	None	0.0	None	0.0	None	0.0	None	1.1955999999999999e-05	12
2014-02-04 03:24:00	290.98478814383975	2728541187.0667	2.2100982946963567e+22	5774637441485.152	46.55329901332038	1558368481115.0542	4.155460196112784e+21	-2.003059435086391e+24	2622.8140002754253	-0.552778129919147	25.70387893408657	8.163908589440505	31.95528428611025	125.580012496775	125.41664961802141	54.74672945593608	-0.00733700536064939	-1.3834586356865518e+23	0.3256520429104695	-0.0219755897591333	7.36890943886572e+23	0.03817888096876783	-0.2033575193930309	2.988643178731811	66.26861600000001	99.928162	-20.784649	-45.650822	-15.042973000000002	-32.749226	0.0	11970.0	True	0.0	None	0.0	None	0.0	None	0.0	None	0.0	None	0.0	None	0.0	None	0.0	None	1.1175e-05	12
2014-02-04 03:36:00	282.47767524750486	2716775343.337	2.2081172710547507e+22	5674458892271.479	38.303565065314274	1350631227464.8088	4.147386574721326e+21	-1.9931731707047407e+24	2621.2889081874505	-0.5524319297308312	25.552500295365128	7.488570077250513	31.85552954443501	125.5159979716952	125.79092536306091	54.48535085244489	-0.00603871434105538	-1.380110428727868e+23	0.2884287749452472	-0.018163640575724387	7.380198177598971e+23	0.038251421331053095	-0.2045510736834475	2.8156258560629257	66.27151500000001	99.818962	-20.784321	-45.555866	-15.048455	-32.645145	0.0	11970.0	True	0.0	None	0.0	None	0.0	None	0.0	None	0.0	None	0.0	None	0.0	None	0.0	None	1.0079e-05	12
2014-02-04 03:48:00	270.71675692101184	2709622062.4937	2.206120427638747e+22	5427659552731.941	38.895152505792105	1356959141154.6118	4.1260234218291347e+21	-1.9848553985782547e+24	2630.113459689341	-0.5515787701989805	25.93287462455361	8.296390120329322	32.20105449320929	124.780627442199	125.27325585277954	53.91162433214838	-0.006158193873621297	-1.2541002413501998e+23	0.1771475498688566	-0.018503033106947	7.468951621315971e+23	0.03485065306649922	-0.2075574448855107	2.8099545996771957	66.274475	99.709778	-20.774185	-45.461945	-15.032434	-32.519764	0.0	11970.0	True	0.0	None	0.0	None	0.0	None	0.0	None	0.0	None	0.0	None	0.0	None	0.0	None	8.5713e-06	12
2014-02-04 04:00:00	274.0069679452175	2705731700.3560004	2.2139574959000345e+22	5453535836751.664	30.469560085182856	1254933544654.0713	4.0998819767122657e+21	-1.9668555853472447e+24	2644.4816709491197	-0.5473627393409844	26.1152851806291	8.518401015228426	32.591648098246075	123.62304903344685	123.80647733315348	53.618695169468964	-0.004833369302852611	-1.254462786534247e+23	0.3893179490636828	-0.014555238127186503	7.380948511370794e+23	0.03491085936121152	-0.2054068547897691	2.7980581309395136	66.277466	99.600616	-20.773642	-45.376129	-15.027342	-32.369511	0.0	11970.0	True	0.0	None	0.0	None	0.0	None	0.0	None	0.0	None	0.0	None	0.0	None	0.0	None	5.2196999999999995e-05	12
2014-02-04 04:12:00	272.8718019354184	2706219913.7188	2.2439946469477058e+22	5482767079030.112	35.702744256165	1280745275346.4802	4.10774793679043e+21	-1.956614718212982e+24	2644.2856267821016	-0.544414440867901	26.622881053732254	10.046948356807512	33.157822095171355	122.29966425295427	122.93661956488329	53.02869036835008	-0.0055881584373399604	-1.2840620961159667e+23	0.3919684681105662	-0.017084919299523802	7.327386653351568e+23	0.035728135007341004	-0.20387943884786253	2.5969103404446825	66.280426	99.491478	-20.770357	-45.273239	-15.017924	-32.23539	0.0	11970.0	True	0.0	None	0.0	None	0.0	None	0.0	None	0.0	None	0.0	None	0.0	None	0.0	None	2.9646e-05	12
2014-02-04 04:24:00	280.405450725042	2724163350.528	2.2303261059837803e+22	5610716253020.138	36.92661090893108	1071590163370.8656	4.124286459745679e+21	-1.9684894342262728e+24	2633.124595849505	-0.5441109914862152	26.04932419680009	8.403888366259016	32.84128244306746	124.42542102754344	125.0182817580198	54.173910421209506	-0.005789684996696626	-1.3403357063226629e+23	0.2852515884199662	-0.017557302253555392	7.431968395536034e+23	0.03704827556660232	-0.20542735064152245	3.10256446301612	66.283417	99.382362	-20.764515	-45.153629	-15.023631	-32.079269000000004	0.0	11970.0	True	0.0	None	0.0	None	0.0	None	0.0	None	0.0	None	0.0	None	0.0	None	0.0	None	1.0855e-05	12
2014-02-04 04:36:00	292.5928606160828	2752894847.6409	2.2428817400666574e+22	5768497572522.92	30.9820518898984	1379890360399.9167	4.157690823941081e+21	-2.004292735771586e+24	2667.6047651002905	-0.5482251465147018	25.926658800702963	8.324119412415099	32.26033522730836	126.59023449559231	126.50802130292392	55.58870670276713	-0.004893705874253419	-1.3274765581896676e+23	0.426227483668743	-0.014538393942489429	7.530951945031853e+23	0.036309867197527934	-0.2059907297858299	2.9270014896650998	66.286407	99.273254	-20.761961	-45.062325	-15.009589000000002	-31.930828	0.0	11970.0	True	0.0	None	0.0	None	0.0	None	0.0	None	0.0	None	0.0	None	0.0	None	0.0	None	6.0165e-06	12
2014-02-04 04:48:00	280.6100476965009	2743502284.5183	2.2125817526456488e+22	5623015162324.184	35.73274420934828	1347645066616.8406	4.1224862851083655e+21	-1.9978625668408847e+24	2646.6171222638973	-0.5483373255064863	25.990248795241513	8.657664813343924	32.6126206324413	126.42990150382721	126.33558154205484	55.52914710349857	-0.005676369215146668	-1.3623780049405123e+23	0.3292357611642999	-0.01682385267510585	7.403351424522038e+23	0.03739209713204659	-0.2031938526345272	2.606946085925248	66.289467	99.164169	-20.754894	-44.942623	-15.014484	-31.816654	0.0	11970.0	True	0.0	None	0.0	None	0.0	None	0.0	None	0.0	None	0.0	None	0.0	None	0.0	None	4.1318e-06	12
2014-02-04 05:00:00	284.066691342086	2721861041.7585	2.1546249307768687e+22	5597395479477.43	30.10717838910016	799032097639.9368	4.091850498343936e+21	-1.9988265061045344e+24	2635.056844133595	-0.5529636862639077	25.5199668046685	7.698554490823453	32.06495021997785	127.19307386452768	127.24944982553491	56.108592736864864	-0.004889910409144089	-1.2201430875837347e+23	0.2537732831921619	-0.014245339416977684	7.370157895620615e+23	0.033754546351029965	-0.20389111640569185	2.605891059266014	66.292549	99.055099	-20.750685	-44.841888	-15.01361	-31.684141	0.0	11970.0	True	0.0	None	0.0	None	0.0	None	0.0	None	0.0	None	0.0	None	0.0	None	0.0	None	3.0007e-06	12
2014-02-04 05:12:00	293.2415932690901	2734184183.1569	2.197336691823666e+22	5688881541935.229	34.10481541694705	1173310665067.938	4.080608363923107e+21	-2.0015321819024809e+24	2711.514550789522	-0.5512166731401262	25.75552736839429	7.931825630940676	32.29001465890285	128.10535780584135	127.90706227735052	57.01983789174139	-0.005590036947540903	-1.1498310214460559e+23	0.3209322442126261	-0.016083621729795473	7.465814336652444e+23	0.031666042447160044	-0.2056065537262456	2.9830377664264223	66.29559300000001	98.946045	-20.744545	-44.723423	-15.004647	-31.571012	0.0	11970.0	True	0.0	None	0.0	None	0.0	None	0.0	None	0.0	None	0.0	None	0.0	None	0.0	None	2.638e-06	12
2014-02-04 05:24:00	289.27443122853265	2708891116.0076003	2.2108457107168086e+22	5626182068566.762	34.740357919549204	1140917541258.0278	4.003875587092108e+21	-1.975886221118648e+24	2814.434812230332	-0.5492346036050959	26.106631006859285	8.41927303465765	32.32456619909439	129.71469248731725	129.8389440099669	58.027006080768004	-0.00587326422984771	-1.2254128028265885e+23	0.3083567249913399	-0.01655600490932899	7.369515178304219e+23	0.03406264529908153	-0.2048494849782449	2.9502530314740016	66.298645	98.83699	-20.74366	-44.61499	-15.009391	-31.458078000000004	0.0	11970.0	True	0.0	None	0.0	None	0.0	None	0.0	None	0.0	None	0.0	None	0.0	None	0.0	None	2.5509e-06	12
2014-02-04 05:36:00	285.3701984728575	2674529567.2355	2.1251847490173525e+22	5581665015062.247	32.35043535942795	1265382192275.2708	3.9215773194352376e+21	-1.96317122856194e+24	2801.5344109508446	-0.5527111763648476	25.41714953556657	7.247899159663866	32.19304487741327	130.9857298938453	131.5509450506729	58.17788754660153	-0.0056645833233107965	-1.1501448742158094e+23	0.3283289663021133	-0.015582836461768916	7.287630619594782e+23	0.03238117578177225	-0.2051759334115378	2.7046203720045203	66.30169699999999	98.727951	-20.739288	-44.505463	-15.013759	-31.345716	0.0	11970.0	True	0.0	None	0.0	None	0.0	None	0.0	None	0.0	None	0.0	None	0.0	None	0.0	None	2.2463999999999998e-06	12
2014-02-04 05:48:00	289.8132946766612	2668893403.1242	2.1060851420740194e+22	5565187673424.455	28.257070615556717	949417191661.7228	3.9131150037447465e+21	-1.9734251816653093e+24	2798.4031266274505	-0.5567715085284166	25.39732622869593	6.9701782248103035	32.12835742140347	131.58977943438114	132.11241408059615	57.931539822878726	-0.004986248564594445	-1.098646546526618e+23	0.17371400943787912	-0.013601945478377418	7.284119743804074e+23	0.03099661951880895	-0.2055102152206772	2.7004941883925717	66.30481	98.618912	-20.73222	-44.379303	-15.011145	-31.238485	0.0	11970.0	True	0.0	None	0.0	None	0.0	None	0.0	None	0.0	None	0.0	None	0.0	None	0.0	None	3.3293e-06	12
2014-02-04 06:00:00	284.67311439100484	2641189236.5009003	2.059322873064697e+22	5472814153339.461	24.966695125989496	451654631829.7247	3.8430566640183904e+21	-1.964856097368324e+24	2833.777900970295	-0.5601685016822897	25.27784977481257	7.273391812865497	31.79367172047418	132.6698432879497	133.73756374020886	58.79313192591013	-0.004562627033258314	-1.0555875438784866e+23	0.003794657838452112	-0.012117695337408528	7.064503306801534e+23	0.030094157716734626	-0.2014046849436412	2.760547465267788	66.307877	98.50988	-20.730015	-44.278328	-15.008451	-31.053215	66560.0	11970.0	False	0.0	None	0.0	None	0.0	None	0.0	None	0.0	None	0.0	None	0.0	None	0.0	None	2.6622e-06	12
2014-02-04 06:12:00	286.40668627308185	2591837693.0741	2.017047940114529e+22	5426143991479.41	27.71412635767429	895657991721.9434	3.740008535798391e+21	-1.922883847539108e+24	2885.8277567413697	-0.558640999014094	24.91511844646729	6.916207486224586	31.7852506449543	134.9091794651841	136.7633563318791	59.87130365653668	-0.005265841983217612	-9.109890987077368e+22	-0.13686405864535567	-0.013720732297767772	6.910002649514566e+23	0.026466281925678764	-0.20075111599981046	2.7593345872175443	66.31100500000001	98.400856	-20.723873	-44.160336	-15.012298	-30.740240000000004	66560.0	11970.0	False	0.0	None	0.0	None	0.0	None	0.0	None	0.0	None	0.0	None	0.0	None	0.0	None	2.3518e-06	12
2014-02-04 06:24:00	296.2433231072194	2578133695.7469	2.0006469597294202e+22	5541257246332.412	17.819968959199155	413725871792.9564	3.7172705838680076e+21	-1.915515646331744e+24	2891.4801230711328	-0.5594583300954222	24.73762897910607	6.525911708253357	31.737173827162323	135.464736370304	136.86659552068696	60.49002521099202	-0.0034203395315161532	-9.413970958050233e+22	-0.06467849749153927	-0.008864571131147251	6.863907884649647e+23	0.02749507414279535	-0.2004718912335024	2.764158475868019	66.314079	98.291832	-20.722317	-44.04298	-15.019309	-30.592741	0.0	11970.0	True	0.0	None	0.0	None	0.0	None	0.0	None	0.0	None	0.0	None	0.0	None	0.0	None	2.5969e-06	12
