Timestamp	TOTUSJH	TOTBSQ	TOTPOT	TOTUSJZ	ABSNJZH	SAVNCPP	USFLUX	TOTFZ	MEANPOT	EPSZ	MEANSHR	SHRGT45	MEANGAM	MEANGBT	MEANGBZ	MEANGBH	MEANJZH	TOTFY	MEANJZD	MEANALP	TOTFX	EPSY	EPSX	R_VALUE	CRVAL1	CRLN_OBS	LAT_MIN	LON_MIN	LAT_MAX	LON_MAX	QUALITY	NOAA_AR	IS_TMFI	BFLARE	BFLARE_label	CFLARE	CFLARE_label	MFLARE	MFLARE_label	XFLARE	XFLARE_label	BFLARE_loc	BFLARE_label_loc	CFLARE_loc	CFLARE_label_loc	MFLARE_loc	MFLARE_label_loc	XFLARE_loc	XFLARE_label_loc	XR_MAX	XR_QUAL
2014-01-10 00:24:00	35.88885762125257	309733573.7477	2.1645256137300687e+21	888800362183.8887	3.456311293606141	181483026042.6713	7.205368584871157e+20	-2.8826693746371872e+23	1276.319111768862	-0.7007998352439243	22.32782841399156	1.7227877838684416	24.89814961683369	103.71670319896576	104.12002140024047	33.93590466324861	0.002706586760850541	-3.950083250602333e+22	0.2794136824112233	0.01312204000542656	1.1608044211865356e+23	0.0960296631857168	-0.2822007803861756	0.0	22.659565	70.741364	-9.890842999999998	-48.500362	-7.296757	-45.588718	0.0		True	0.0	None	0.0	None	0.0	None	0.0	None	0.0	None	0.0	None	0.0	None	0.0	None	1.2867e-06	12
2014-01-10 00:36:00	31.57363637785225	301143398.12170005	1.9684281107668093e+21	790746422946.0901	3.9055144289903523	195373786819.36084	7.080037949748275e+20	-2.8143322831619968e+23	1174.4856852144735	-0.7037032392018745	21.631772714995197	1.0301109350237718	24.76985055630582	100.5497246307758	100.88110000397249	33.01470590982757	0.003094702400150833	-3.804299082810747e+22	0.30436888863644224	0.015224426662757931	1.1096108496422544e+23	0.09512372094381244	-0.27745009138348875	0.0	22.662899	70.631599	-9.890395	-48.411949	-7.273416	-45.471931	0.0		True	0.0	None	0.0	None	0.0	None	0.0	None	0.0	None	0.0	None	0.0	None	0.0	None	1.2237e-06	12
2014-01-10 00:48:00	33.35094401276412	312646485.8773	2.078495102649312e+21	854450268916.3888	3.7980579530451246	237374466626.5371	7.469049761250827e+20	-2.951612304152086e+23	1158.4605602605886	-0.7108751890930397	22.015304024422328	1.4803849000740192	24.809979480950872	98.69715636138024	99.48933456437693	31.031119771671285	0.0028112938216470203	-3.750786234638889e+22	0.3454320055563969	0.014201025359588166	1.147456120669488e+23	0.09033506433232104	-0.2763567849373141	0.0	22.66634	70.521889	-9.882115	-48.434204	-7.2540559999999985	-45.368774	0.0		True	0.0	None	0.0	None	0.0	None	0.0	None	0.0	None	0.0	None	0.0	None	0.0	None	1.0642000000000001e-06	12
2014-01-10 01:00:00	33.182667140961925	317194915.74410003	2.178830544614684e+21	847021729472.895	4.548790930793743	246270037910.8547	7.447259956032866e+20	-2.9638422966585595e+23	1235.4150913601395	-0.7035847154250963	22.274116671180177	2.2590361445783134	24.946450830579554	102.32889055201152	102.87186994313579	32.270678740607536	0.003425294375597698	-3.338740492100821e+22	0.36457572985467823	0.016835887680785706	1.1875932170788129e+23	0.0792581569424718	-0.28192202959691776	0.0	22.669765	70.412216	-9.88796	-48.345413	-7.259881	-45.251915	0.0		True	0.0	None	0.0	None	0.0	None	0.0	None	0.0	None	0.0	None	0.0	None	0.0	None	1.0153e-06	12
2014-01-10 01:12:00	33.27764169381093	307933058.52730006	2.0613218029987213e+21	831830981583.9517	4.184666597294524	234372649126.6759	7.165406884958374e+20	-2.886428987471964e+23	1226.0258843432528	-0.7058169925631129	22.00650108542446	1.4218009478672986	24.78958682851295	100.61974844202685	101.51118863587843	32.058325047111026	0.003305423852523321	-3.2915550406134517e+22	0.3639467162585946	0.015933166925879653	1.156019962794564e+23	0.08048822575248983	-0.28268096565826434	0.0	22.673248	70.30259699999999	-9.891274	-48.258057	-7.26237	-45.15078	0.0		True	0.0	None	0.0	None	0.0	None	0.0	None	0.0	None	0.0	None	0.0	None	0.0	None	1.0167e-06	12
2014-01-10 01:24:00	33.444558835897716	317051372.3951	2.109716000335216e+21	822431597861.6553	4.987990048656551	377243484446.0619	7.246036561057369e+20	-2.972723177850384e+23	1265.8077623447439	-0.7060123785326327	21.707949559362078	1.4342629482071714	24.83339131413332	105.869236180962	106.542752226216	33.723564177999094	0.003974494062674542	-3.4812062490205828e+22	0.5909255530338431	0.01844351777421352	1.1844362920991677e+23	0.08267755041392505	-0.2812998835666872	0.0	22.676758	70.19300799999999	-9.899123	-48.169361	-7.244905	-45.038723	0.0		True	0.0	None	0.0	None	0.0	None	0.0	None	0.0	None	0.0	None	0.0	None	0.0	None	1.0128e-06	12
2014-01-10 01:36:00	33.83139456019571	313381042.33750004	2.149620062833225e+21	840424306779.7656	2.9115019616705147	163894704887.5741	7.2622161229496e+20	-2.9524114930216768e+23	1275.520822102583	-0.7094007355208081	22.12136251242888	1.3396375098502755	24.604635269362344	104.85867270370501	105.49235598351835	32.89612346162194	0.002294327786974401	-3.2141546148209604e+22	0.2538915320792848	0.010870023312434259	1.164596889219039e+23	0.07722919563282052	-0.2798274873776768	0.0	22.680317	70.083466	-9.906857	-48.081245	-7.248125999999999	-44.932499	0.0		True	0.0	None	0.0	None	0.0	None	0.0	None	0.0	None	0.0	None	0.0	None	0.0	None	9.5723e-07	12
2014-01-10 01:48:00	35.79557735004681	320412915.4349	2.191186628150064e+21	891693536466.4302	2.2162935085308355	110621183869.52612	7.472347411131569e+20	-2.9893782824278686e+23	1245.2342932017705	-0.7025195965486418	22.09661231932462	1.8867924528301887	25.11182875141353	104.66075144811735	105.335124029154	33.32968002348389	0.0016726743460610078	-3.2080883602354745e+22	0.16411852882213035	0.008125594340958034	1.2221279354758771e+23	0.07539176134960766	-0.2872064834377663	0.0	22.68391	69.973961	-9.914725	-47.988522	-7.230647999999999	-44.821762	0.0		True	0.0	None	0.0	None	0.0	None	0.0	None	0.0	None	0.0	None	0.0	None	0.0	None	1.1058e-06	12
2014-01-10 02:00:00	36.608892999638016	321356167.0357	2.2753352128960114e+21	878280328144.7249	1.9464691805732093	43192388322.18231	7.297512275425159e+20	-3.003323409408536e+23	1364.0906149194925	-0.7037249273202124	22.51615080537136	2.7070063694267517	24.944279620441083	106.69745289654894	107.29950300606907	34.295347643010416	0.0015497366087366315	-3.3732456978652483e+22	0.06759939804893034	0.007110357073252572	1.211904413507103e+23	0.07904034164708675	-0.2839678679434285	0.0	22.687553	69.864502	-9.920862	-47.894135	-7.20712	-44.709568	0.0		True	0.0	None	0.0	None	0.0	None	0.0	None	0.0	None	0.0	None	0.0	None	0.0	None	1.2772e-06	12
2014-01-10 02:12:00	38.08823476223453	353608413.1892	2.4090447960031416e+21	933898705635.8892	3.2479179746859383	130076087247.47435	8.131871995149744e+20	-3.258558123727126e+23	1264.0973593339866	-0.6938896858512134	22.37880288979134	1.4634146341463417	25.381782775772237	105.33672495071352	105.4504193956204	34.73727142988658	0.002263357473648737	-3.7849564914633e+22	0.17818087536338406	0.010844944540023596	1.3548965124260643e+23	0.08059829443269158	-0.28851678554467153	0.0	22.691231	69.755081	-9.928324	-47.772881	-7.007623	-44.608395	0.0		True	0.0	None	0.0	None	0.0	None	0.0	None	0.0	None	0.0	None	0.0	None	0.0	None	1.2803e-06	12
2014-01-10 02:24:00	41.20260907932603	359840599.8015	2.480597126485922e+21	1029493197703.182	4.782025751495807	174430340960.90808	8.286990882793326e+20	-3.319541752903501e+23	1263.7738677012376	-0.694633208834647	22.4415419917322	0.8795669824086604	25.462928296510373	105.4275767472113	105.49246171560655	34.242939381688196	0.003235470738495133	-4.065543317856959e+22	0.2319815231875169	0.015683971027119218	1.3743073983569154e+23	0.08507383279843117	-0.2875817293790222	0.0	22.695	69.645699	-9.933336	-47.675369	-6.982981	-44.493736	0.0		True	0.0	None	0.0	None	0.0	None	0.0	None	0.0	None	0.0	None	0.0	None	0.0	None	1.2648e-06	12
2014-01-10 02:36:00	41.10037969845303	362940869.9101	2.488488329661032e+21	1008127958081.1362	4.439224785824585	128827115324.11653	8.348121856846193e+20	-3.427445890834795e+23	1288.720242728085	-0.7110860846347413	22.321238927745448	1.1004126547455295	24.555051486814648	106.22979392287304	106.5335050370681	34.04674475015233	0.0030531119572383665	-3.985585169960738e+22	0.17415618228161062	0.014296489085927584	1.3572855922413188e+23	0.0826882245191446	-0.2815936205145904	0.0	22.698753	69.536354	-9.937532	-47.571625	-6.959642	-44.39712100000001	0.0		True	0.0	None	0.0	None	0.0	None	0.0	None	0.0	None	0.0	None	0.0	None	0.0	None	1.2098e-06	12
2014-01-10 02:48:00	39.31813430148797	364370885.3538	2.4880528436432213e+21	951456523177.8763	4.36265763239214	216151755067.0655	8.313103949247094e+20	-3.40364487523135e+23	1295.6232821393908	-0.7033767514419966	22.268756380176697	0.6224066390041494	25.094645482897626	104.80896147074041	105.17885361172588	33.915145130905586	0.0030170523045588795	-4.392810538369721e+22	0.2938170076915112	0.014058103764677272	1.3739950582394852e+23	0.09077917701295572	-0.2839415438416313	0.0	22.702599	69.427048	-9.944258	-47.450363	-6.940937	-44.281528	0.0		True	0.0	None	0.0	None	0.0	None	0.0	None	0.0	None	0.0	None	0.0	None	0.0	None	1.0364e-06	12
2014-01-10 03:00:00	42.522196040707975	369490241.0369	2.5827205618866287e+21	1042955166629.3441	5.846727617888664	296368167243.85925	8.434877751714594e+20	-3.423208254368335e+23	1301.7102624911952	-0.6976182839144535	22.526368151238298	1.0040160642570282	25.462933673042755	106.40842677605852	106.07660847539913	34.84700962427356	0.003913472301130297	-4.421905024395548e+22	0.3899043409673601	0.018642314959918253	1.3877315966621346e+23	0.09011434787278937	-0.28280690599583225	0.0	22.706421	69.31777199999999	-9.949362	-47.35171500000001	-6.9437929999999985	-44.184727	0.0		True	0.0	None	0.0	None	0.0	None	0.0	None	0.0	None	0.0	None	0.0	None	0.0	None	9.861799999999998e-07	12
2014-01-10 03:12:00	40.960762980363505	366692138.691	2.407209077478126e+21	973985573533.2913	6.438862884579576	366252247890.2925	8.213609737976097e+20	-3.458678033105786e+23	1282.8006584793527	-0.7102251705452011	21.9443792965703	0.6369426751592357	24.760722961548748	106.3474863502585	106.27583089935408	35.22064590514235	0.004556873945208476	-4.32454680072328e+22	0.5094552172310414	0.02053450693083644	1.3527628979287597e+23	0.08880277261067783	-0.2777842431970851	0.0	22.710293	69.20854200000001	-9.9402	-47.232529	-6.949025	-44.075508	0.0		True	0.0	None	0.0	None	0.0	None	0.0	None	0.0	None	0.0	None	0.0	None	0.0	None	1.3829e-06	12
2014-01-10 03:24:00	40.81019001772025	374928973.845	2.496886823419123e+21	988504313421.82	4.6484482368191715	259228977556.3366	8.36227641758598e+20	-3.4966656454188986e+23	1311.1044119405178	-0.7022515008686658	22.18858589679505	0.3486750348675035	25.307259645815247	105.37078218855535	105.99467615505868	35.38672172957851	0.00324159570210542	-4.7469662406880935e+22	0.3552984014142029	0.01456683717738206	1.385337634106189e+23	0.09533551403359132	-0.27822375125728394	0.0	22.714184	69.099335	-9.942212	-47.123108	-6.929892999999999	-43.969906	0.0		True	0.0	None	0.0	None	0.0	None	0.0	None	0.0	None	0.0	None	0.0	None	0.0	None	1.2376e-06	12
2014-01-10 03:36:00	41.85931465280507	372153591.8919	2.4867004739763663e+21	1022734105002.7266	4.230293565277507	235795551358.2319	8.3239876555542e+20	-3.459720023623161e+23	1316.7744804462511	-0.7000132500560989	22.058476232082906	0.7032348804500703	25.03252078913616	106.88063438828449	107.31564451845465	36.46633280402718	0.002974889989646629	-4.5764103469463465e+22	0.3259011988140844	0.013372911824117572	1.3724818217618854e+23	0.09259558168528864	-0.2776974593708049	0.0	22.718117000000003	68.990166	-9.945431	-47.009026	-6.935134	-43.862602	0.0		True	0.0	None	0.0	None	0.0	None	0.0	None	0.0	None	0.0	None	0.0	None	0.0	None	9.7071e-07	12
2014-01-10 03:48:00	44.29829172573107	373174584.5286	2.6555746368062337e+21	1060790099246.2484	5.88553249150954	353128432020.7494	8.130551916619653e+20	-3.3949258797318904e+23	1456.3826008630965	-0.6850239346565369	22.943343685989948	1.6751638747268751	25.70694685181593	112.13997608654171	112.64362574761923	38.37297974697204	0.004286622353612193	-4.516782516294544e+22	0.5054793956814116	0.018719645718494732	1.402811810489898e+23	0.09113907757963463	-0.2830576277795911	0.0	22.722069	68.88101999999999	-9.95019	-46.904037	-6.939773	-43.748348	0.0		True	0.0	None	0.0	None	0.0	None	0.0	None	0.0	None	0.0	None	0.0	None	0.0	None	8.965300000000002e-07	12
2014-01-10 04:00:00	44.06254166448078	374396706.1219	2.640979743919729e+21	1067380179068.9388	5.8488576163345325	316484121690.4133	8.249642400714903e+20	-3.417965983305073e+23	1407.3768918091992	-0.6874216794143037	22.805638603000396	1.5569709837225758	25.61951589245501	108.89762751215773	108.81125382858812	37.741223164909655	0.00413931890752621	-4.45445049315205e+22	0.4401925671448302	0.01851592449165329	1.4083921595266042e+23	0.08958795534616491	-0.2832559798150871	0.0	22.726063	68.771912	-9.953867	-46.789833	-6.922151	-43.625751	0.0		True	0.0	None	0.0	None	0.0	None	0.0	None	0.0	None	0.0	None	0.0	None	0.0	None	9.0739e-07	12
2014-01-10 04:12:00	44.63696719618654	373937756.5651	2.6636689448219344e+21	1035735004301.3864	6.185453365000504	282528213400.98425	8.047208012744642e+20	-3.438282115409685e+23	1502.4033297947449	-0.692356455392136	22.993769031566682	1.947565543071161	25.38307468440897	111.14884238984686	111.26583499526946	38.13269741478764	0.00463329840074944	-4.508255488375866e+22	0.3838218413008526	0.019548361968208344	1.3930376358775796e+23	0.09078137526716999	-0.2805117693750155	0.0	22.730068	68.662819	-9.944552	-46.679752	-6.923359	-43.508808	0.0		True	0.0	None	0.0	None	0.0	None	0.0	None	0.0	None	0.0	None	0.0	None	0.0	None	8.956799999999998e-07	12
2014-01-10 04:24:00	45.31418430676613	362184768.3707	2.5681574407906693e+21	1065194507836.6221	6.479879915142852	325917022094.55664	7.892667556665387e+20	-3.3386540111194144e+23	1472.8020662759955	-0.6941106356228465	22.695618415042645	1.1424219345011426	25.10659681134781	110.71215391283226	111.43536760330963	37.201823633636494	0.0049351712986617285	-4.664202490995767e+22	0.4878197044424106	0.021121511896063216	1.3485484890030125e+23	0.09696939380110386	-0.2803650350568268	0.0	22.734158	68.55375699999999	-9.94183	-46.57061	-6.8973179999999985	-43.386383	0.0		True	0.0	None	0.0	None	0.0	None	0.0	None	0.0	None	0.0	None	0.0	None	0.0	None	8.566800000000002e-07	12
2014-01-10 04:36:00	47.84204653897627	382774181.8011	2.8749727306556543e+21	1156350711752.89	5.952546032491052	291207940119.9445	8.309661568641891e+20	-3.460626222162996e+23	1548.5101204733594	-0.6807686488565337	23.43454774047451	2.503576537911302	25.836944142752102	108.70007208092831	109.13227007169417	38.04205255387237	0.004257901310794744	-5.152386748597338e+22	0.4093602019328693	0.018504705714572803	1.453450284293577e+23	0.10135689727960777	-0.2859203284890556	0.0	22.738224	68.444725	-9.947011	-46.455254	-6.7945210000000005	-43.273174	0.0		True	0.0	None	0.0	None	0.0	None	0.0	None	0.0	None	0.0	None	0.0	None	0.0	None	8.387300000000002e-07	12
2014-01-10 04:48:00	51.92932449309861	412890100.0045	3.0829599818369676e+21	1244095607145.6328	4.945948252825096	155651365547.72644	8.872350416233823e+20	-3.685435627879981e+23	1562.199600375053	-0.6721122400146564	23.421239130435573	1.8169582772543744	26.18781683496069	109.85651636698894	110.54344131490393	38.349352786317475	0.003328363561793472	-5.044891818434372e+22	0.20584320312146948	0.0143278051968112	1.592821456490944e+23	0.09200360237115393	-0.2904825657425373	0.0	22.742359	68.335709	-9.934471	-46.347542	-6.5604369999999985	-43.168526	0.0		True	0.0	None	0.0	None	0.0	None	0.0	None	0.0	None	0.0	None	0.0	None	0.0	None	7.9582e-07	12
2014-01-10 05:00:00	50.38024182060971	399370220.5899	2.8850463008690143e+21	1166873418436.3325	3.789780139737952	205391734580.29654	8.457092477888241e+20	-3.536223352361905e+23	1558.3949784196432	-0.6667323629798801	22.96992245191455	1.2912482065997128	26.389321106678015	108.58827472342352	109.31175048314049	38.377464462886856	0.0027186371160243554	-4.870449855536432e+22	0.289544893875093	0.011386820244970857	1.553457958812372e+23	0.0918292261937556	-0.29289459190327577	0.0	22.746456	68.22670699999999	-9.936472	-46.227318	-6.534875	-43.049282	0.0		True	0.0	None	0.0	None	0.0	None	0.0	None	0.0	None	0.0	None	0.0	None	0.0	None	8.516700000000002e-07	12
2014-01-10 05:12:00	54.94687889740598	405036040.6805	2.991213431626657e+21	1302684132859.4934	4.64374892530667	146488601698.6042	8.695786505481594e+20	-3.59667317205262e+23	1550.1345619256463	-0.6686439476360865	23.291129228072627	1.8582243633860973	26.363211150992875	112.50890717662165	113.52392898326885	39.355969896715756	0.003195973107575134	-5.405766867677424e+22	0.19811968916577333	0.013741729001346948	1.5592465958561348e+23	0.10049657351383368	-0.2898736552691484	0.0	22.750572	68.117722	-9.937292	-46.121765	-6.514297	-42.93166400000001	0.0		True	0.0	None	0.0	None	0.0	None	0.0	None	0.0	None	0.0	None	0.0	None	0.0	None	9.056399999999999e-07	12
2014-01-10 05:24:00	56.25801617449986	403215171.7199	3.100193075425614e+21	1366094249943.7363	5.936771124270117	290425432171.66833	8.773712878366312e+20	-3.564751593231505e+23	1567.767550141003	-0.6657022638973594	23.950620962629362	2.1490933512424446	26.41302897382637	109.89101059223894	110.69517213745569	38.993078199034464	0.003987086047192826	-6.000352499733531e+22	0.38328638104611856	0.017678526383749102	1.528129688471796e+23	0.11205404188160442	-0.28537174794338505	0.0	22.754707	68.008759	-9.939995	-46.00436	-6.493447	-42.819191	0.0		True	0.0	None	0.0	None	0.0	None	0.0	None	0.0	None	0.0	None	0.0	None	0.0	None	8.5221e-07	12
2014-01-10 05:36:00	55.139891723168134	386574440.1474	2.9374773026294087e+21	1272727760986.4631	5.820980359395517	295285287127.19763	8.314904174546914e+20	-3.436136864474022e+23	1614.5128671960226	-0.6693062437220222	23.227519992625624	1.094890510948905	25.76676290383511	114.21948430978004	114.87939663120515	39.384803858266814	0.004248890773281398	-5.789459883239198e+22	0.42354448620366536	0.01804084919487544	1.4584301982190214e+23	0.11276971204764015	-0.284079615044716	0.0	22.758854	67.899803	-9.930867999999998	-45.881355	-6.497331	-42.714405	0.0		True	0.0	None	0.0	None	0.0	None	0.0	None	0.0	None	0.0	None	0.0	None	0.0	None	8.3359e-07	12
2014-01-10 05:48:00	50.02785761161658	373922801.092	2.8802288821212676e+21	1151366998565.9048	4.282388602516498	141999809507.1566	8.054529335424701e+20	-3.303553387411615e+23	1640.5259226602966	-0.6652531392387508	23.132322923184205	0.907715582450832	25.805724921257053	111.70804744421929	112.4050019888855	38.39410911100569	0.003239325720511723	-5.906325022357971e+22	0.21107117858117336	0.013754786722363995	1.4161061507871104e+23	0.11893863369850413	-0.28516840862818765	0.0	22.763012	67.790863	-9.930995	-45.771305	-6.497413	-42.601078	0.0		True	0.0	None	0.0	None	0.0	None	0.0	None	0.0	None	0.0	None	0.0	None	0.0	None	8.349299999999998e-07	12
2014-01-10 06:00:00	52.8104791527795	370821194.8641	2.8948937210933207e+21	1229849631140.8125	3.7981539548860943	51572500457.28688	7.997158232189238e+20	-3.236918981206963e+23	1647.6325946306479	-0.6572867462886668	23.28062424509005	1.058201058201058	26.04466410509589	111.24969470780466	111.95637207048789	38.70191366511535	0.002870864667336428	-5.6766798696893215e+22	0.07659956436478307	0.012360622811730865	1.4405115445209038e+23	0.11527030682365726	-0.292509374373145	0.0	22.767181	67.681931	-9.931212	-45.659782	-6.478077	-42.485462	66560.0		False	0.0	None	0.0	None	0.0	None	0.0	None	0.0	None	0.0	None	0.0	None	0.0	None	8.3177e-07	12
2014-01-10 06:12:00	51.98190410330554	364477543.9188	2.9025135659537447e+21	1196289257007.2466	2.5860376076925857	61131056438.06444	7.84623876382828e+20	-3.2105298462536264e+23	1698.1782679201235	-0.6632748089914091	23.316161686346234	1.2432012432012431	25.683401103383307	113.08795689658531	113.5697396263031	39.00968924401672	0.0020093532305303697	-5.5651566031259115e+22	0.093335534260516	0.008531591368228722	1.4074991163694435e+23	0.11497255467825415	-0.2907802612876785	0.0	22.771347	67.572998	-9.921977	-45.537991	-6.4841370000000005	-42.373314	66560.0		False	0.0	None	0.0	None	0.0	None	0.0	None	0.0	None	0.0	None	0.0	None	0.0	None	8.392799999999998e-07	12
2014-01-10 06:24:00	54.15841842865918	378720955.6743001	3.0322874143304843e+21	1240305951200.6775	0.9336491262958296	85854275193.39543	8.12653531047226e+20	-3.309916280935493e+23	1702.6645588876415	-0.6580898360888163	23.39490402799093	1.715137956748695	26.04169720588	114.5510814767808	114.62144426103417	40.39885685955151	0.000696753079325246	-5.8985280147109095e+22	-0.1258035664823315	0.0029743768309852788	1.4508572537996653e+23	0.11727672257829065	-0.28846482246113936	0.0	22.775532	67.46408100000001	-9.956225	-45.458942	-6.467077	-42.269966	0.0		True	0.0	None	0.0	None	0.0	None	0.0	None	0.0	None	0.0	None	0.0	None	0.0	None	1.0862999999999999e-06	12
2014-01-10 06:36:00	56.90297816142984	390089521.0534	3.153923989717323e+21	1333773450989.5884	2.9610264057875577	129833122482.59167	8.468859771614809e+20	-3.419939704044055e+23	1661.906241532628	-0.660148575246009	23.56673047253602	1.6095171448565433	26.051927880807877	114.06627315824971	114.09832110776144	39.56037002557173	0.0020720968549947922	-5.9993343616591726e+22	0.1785294075473167	0.009144522544433849	1.5044777276936323e+23	0.11580473265626645	-0.2904082862197475	0.0	22.779755	67.35515600000001	-9.977605	-45.375748	-6.470861	-42.158825	0.0		True	0.0	None	0.0	None	0.0	None	0.0	None	0.0	None	0.0	None	0.0	None	0.0	None	1.1934e-06	12
2014-01-10 06:48:00	55.50619227316781	405608690.0046	3.181003458869699e+21	1348566285492.8992	4.3082004277438966	159406166247.36264	9.043382459367885e+20	-3.55378959486055e+23	1518.8674892893216	-0.6597386064079772	23.19788465630546	1.14140773620799	26.072079065674554	107.71525336570885	107.33879970694952	38.29865233763558	0.00273189627631192	-5.665732711047001e+22	0.19862183044269466	0.012799085732700156	1.583348620900028e+23	0.10518075151303136	-0.29393867721410977	0.0	22.783989	67.246239	-9.983102	-45.290901	-6.379638	-42.017769	0.0		True	0.0	None	0.0	None	0.0	None	0.0	None	0.0	None	0.0	None	0.0	None	0.0	None	1.012e-06	12
2014-01-10 07:00:00	58.03412698808538	421624956.98380005	3.244093935548903e+21	1430077031909.4758	3.4912528424355163	10161202080.96672	9.498731971187478e+20	-3.703566048922203e+23	1465.363388308721	-0.6614260564559394	22.804073395950127	1.3797240551889622	26.157486175723648	106.28463320584947	106.24252803248592	37.30000386315409	0.002094332838893531	-5.47625060044163e+22	0.011977350619026305	0.00996790684791675	1.6765977507454826e+23	0.09780127560756413	-0.2994263971237137	0.0	22.788162	67.137314	-9.991307	-45.204693	-6.09801	-41.827473	0.0		True	0.0	None	0.0	None	0.0	None	0.0	None	0.0	None	0.0	None	0.0	None	0.0	None	8.2485e-07	12
2014-01-10 07:12:00	58.11817625052373	431088470.8733	3.269306518840951e+21	1426468314944.5308	3.9377703534432817	26733625715.864	9.79232905576014e+20	-3.859293021049706e+23	1441.3032293710999	-0.6741071469506069	22.489013435060095	1.053864168618267	25.541764001963237	108.74844523383652	108.73070397158772	36.25302062281156	0.002305486155411758	-5.1858092978674965e+22	-0.006755521358390789	0.010912662454679072	1.704229030673599e+23	0.09058112694082378	-0.29767964322784224	0.0	22.792332	67.02838100000001	-10.02724	-45.170723	-6.072623	-41.613461	0.0		True	0.0	None	0.0	None	0.0	None	0.0	None	0.0	None	0.0	None	0.0	None	0.0	None	9.7813e-07	12
2014-01-10 07:24:00	68.49008935326123	493973048.4494	3.9195602967871006e+21	1669464965539.412	3.3203450671887165	44325776195.277145	1.1183484312190703e+21	-4.3921981872363e+23	1511.9764260345762	-0.6695240125686288	23.001147315155286	1.7418032786885245	25.7769212942024	112.86438888770307	112.34071226503616	36.45694779698445	0.001700996448354875	-5.530606272204811e+22	0.044619484584594506	0.008052250774581972	1.998301080072254e+23	0.08430570628766977	-0.3046106984284453	0.0	22.796497	66.919449	-10.210897	-45.295227	-6.048689	-41.452797	0.0		True	0.0	None	0.0	None	0.0	None	0.0	None	0.0	None	0.0	None	0.0	None	0.0	None	1.4011000000000002e-06	12
2014-01-10 07:36:00	67.16944305509405	497564960.4985001	3.911487362904505e+21	1683003512463.8926	3.200323271327765	47345854044.74042	1.1422616293567948e+21	-4.422747800191722e+23	1448.745628424678	-0.6693140966462889	22.9098666027152	2.2626660108214462	26.052613766733703	110.31366899205622	109.73772336871738	35.625446987701075	0.0015741875412335295	-5.157902507736199e+22	0.045760612551213546	0.007706124043721922	2.041863609567056e+23	0.0780568328450795	-0.3090043020886385	0.0	22.800652	66.810501	-10.217881	-45.211033	-6.027871	-41.330441	0.0		True	0.0	None	0.0	None	0.0	None	0.0	None	0.0	None	0.0	None	0.0	None	0.0	None	1.3863999999999998e-06	12
2014-01-10 07:48:00	66.18986324680611	501178691.7751	3.86468100360056e+21	1658849650079.4854	4.687273002390002	218981789972.36166	1.1613504183294668e+21	-4.498650050959744e+23	1403.7890800867974	-0.6758917136387516	22.80104554340457	1.7848528702363726	25.827258307531306	108.8437742297204	108.21093715900452	34.799707101909824	0.0022611061275397983	-4.7832922809018675e+22	0.20756566625459846	0.011161220623463051	2.042450016369921e+23	0.07186572816180822	-0.30686428727463505	0.0	22.804794	66.701546	-10.223885	-45.12682	-6.031771	-41.208241	0.0		True	0.0	None	0.0	None	0.0	None	0.0	None	0.0	None	0.0	None	0.0	None	0.0	None	1.3830000000000001e-06	12
2014-01-10 08:00:00	63.368585544627656	493616178.5166	3.762508709581144e+21	1623230357071.2542	2.2529643816495755	143855195752.95218	1.1600777497931452e+21	-4.391016172710137e+23	1341.4396094545873	-0.6698278135733368	22.582240803119788	1.7045454545454544	26.27374362247737	107.6913948311128	107.0167382662574	35.38295161410997	0.0010672498255090363	-4.510031311429655e+22	0.13383774783955413	0.00546824180286792	1.998590530238547e+23	0.06879829847262177	-0.3048751069098905	0.0	22.808926	66.592575	-10.231082	-45.043221	-6.036878	-41.090378	0.0		True	0.0	None	0.0	None	0.0	None	0.0	None	0.0	None	0.0	None	0.0	None	0.0	None	1.3826e-06	12
2014-01-10 08:12:00	61.59655738628226	499311825.6164	3.8842799731088535e+21	1572683352226.2896	1.212961317449412	69429263503.29584	1.1791513020312125e+21	-4.4433552599075855e+23	1350.3288487313375	-0.6700800045678122	22.95135403362945	2.4930747922437675	26.20398419685059	107.35702655807852	106.61008037160984	35.13860887669823	0.0005600006082407255	-4.2502265478907605e+22	-0.06298420977181607	0.002909161412301914	2.0331385596859185e+23	0.06409552372105652	-0.30660737565910284	0.0	22.813038	66.483589	-10.237415	-44.954086	-6.017313	-40.968353	0.0		True	0.0	None	0.0	None	0.0	None	0.0	None	0.0	None	0.0	None	0.0	None	0.0	None	1.3556e-06	12
2014-01-10 08:24:00	65.95871845609338	510274425.2403	3.8831488101920135e+21	1711855639060.3767	2.8392556186465385	87183915864.70255	1.207709814889722e+21	-4.543726335014763e+23	1305.3396558607865	-0.6704955200817284	22.88620858516174	1.9196428571428568	26.225230667366663	107.90979461590716	107.29088412684828	35.274042363579156	0.0012675248297529188	-4.323379539342171e+22	0.07647810663605763	0.006661704618413644	2.0585512011887406e+23	0.06379800188235839	-0.30377035421774073	0.0	22.817139	66.374588	-10.242851	-44.83271	-6.0206800000000005	-40.85015900000001	0.0		True	0.0	None	0.0	None	0.0	None	0.0	None	0.0	None	0.0	None	0.0	None	0.0	None	1.1574e-06	12
2014-01-10 08:36:00	63.59260125913906	509085832.9536001	3.828330079075541e+21	1655968970406.2913	4.237146622963372	79328323413.91122	1.2120790821549955e+21	-4.549383870889159e+23	1269.9043620253078	-0.6728977383171895	22.952095192125487	1.9383259911894275	26.289915503960373	106.83594494181378	106.38305319353745	34.27778238489227	0.001866584415402366	-4.513941550912839e+22	0.06866775090805723	0.009950458272706336	2.0454147416382704e+23	0.06676554774683333	-0.3025365615718041	0.0	22.821262	66.265564	-10.248734	-44.744118	-6.024499	-40.73243	0.0		True	0.0	None	0.0	None	0.0	None	0.0	None	0.0	None	0.0	None	0.0	None	0.0	None	1.0512e-06	12
2014-01-10 08:48:00	68.83752776229099	518938244.39550006	3.946147546383362e+21	1829665182043.0647	4.084267965229491	76916968643.91968	1.242934688984344e+21	-4.633914458816215e+23	1267.6611614048818	-0.6723877719761401	23.072458012048894	2.0904436860068256	26.47980990358992	107.30950355124864	106.4810041639461	35.441520777310465	0.0017424351387497824	-4.605514701579853e+22	0.06447881927722962	0.009412208995394414	2.070834001585757e+23	0.0668266925624199	-0.30048104530923675	0.0	22.825317	66.15651700000001	-10.254871	-44.655777	-6.028597	-40.61499	0.0		True	0.0	None	0.0	None	0.0	None	0.0	None	0.0	None	0.0	None	0.0	None	0.0	None	9.864399999999998e-07	12
2014-01-10 09:00:00	65.15699790576576	508999015.4805	3.961363959248761e+21	1741878632113.4631	5.326300010676903	125441686161.57256	1.2190550257900658e+21	-4.459133459300718e+23	1279.6462373741838	-0.6596612599596736	23.636906405475287	3.217503217503217	27.133081011751646	105.5317366993351	104.85822530006428	35.084839459503286	0.0022849849895653805	-4.27226102200312e+22	0.1057437582290789	0.012610120063152468	2.0877410758255944e+23	0.06320163131186338	-0.3088496725022105	0.0	22.829397	66.04744699999999	-10.259976	-44.534916	-6.033566	-40.497356	0.0		True	0.0	None	0.0	None	0.0	None	0.0	None	0.0	None	0.0	None	0.0	None	0.0	None	8.968999999999998e-07	12
2014-01-10 09:12:00	65.276737880421	506343311.7728	4.0785577374416655e+21	1794515848181.606	4.356831869141304	21015516455.631744	1.2433158176506286e+21	-4.449097759267028e+23	1269.050188025741	-0.6616288281029415	23.855393543136515	2.6859504132231407	27.0065392660519	103.70561139909658	103.02877213209996	34.751143857715356	0.0018003437475790504	-4.610966936818429e+22	0.017064086312571038	0.010356707249339969	2.080699736093287e+23	0.06857005208469923	-0.309422494742462	0.0	22.833405	65.938354	-10.26379	-44.444817	-6.0372949999999985	-40.378387	0.0		True	0.0	None	0.0	None	0.0	None	0.0	None	0.0	None	0.0	None	0.0	None	0.0	None	8.605299999999998e-07	12
2014-01-10 09:24:00	64.4812269874452	514077413.9651001	4.172697999316087e+21	1745312333808.9668	4.9762290635900674	72542435083.33682	1.2430269630057928e+21	-4.502306580833654e+23	1323.499709003961	-0.6594686461500825	24.048506040975408	3.285593934288121	26.966202584126982	104.10304274159971	103.50464920386156	35.74356015452082	0.0020961369265333056	-4.9066520581930075e+22	0.06004452221112633	0.011666290438939249	2.1207514913851504e+23	0.07186945473062202	-0.3106339139138704	0.0	22.837389	65.829239	-10.295037	-44.339706	-6.018697	-40.262001	0.0		True	0.0	None	0.0	None	0.0	None	0.0	None	0.0	None	0.0	None	0.0	None	0.0	None	8.364799999999998e-07	12
2014-01-10 09:36:00	67.46511901971584	529613291.4640001	4.4485003202806683e+21	1831082668186.6282	7.818030312228965	378938893838.8657	1.261914937605792e+21	-4.5720624795177e+23	1402.1192842871694	-0.6500410255746035	24.42056328331677	4.311427375470909	27.08524737469	106.95466760196035	106.33039140335964	36.96744310068085	0.003272511641786925	-4.96134130020349e+22	0.31168716894306275	0.01789261129955736	2.194977359481724e+23	0.0705387426671851	-0.31207476718932514	0.0	22.841335	65.720085	-10.301315	-44.256901	-6.0229370000000015	-40.145523	0.0		True	0.0	None	0.0	None	0.0	None	0.0	None	0.0	None	0.0	None	0.0	None	0.0	None	8.520299999999998e-07	12
2014-01-10 09:48:00	73.37072986084375	540647068.408	4.499106892950844e+21	1981194613192.3345	8.781813995902159	502650364909.3274	1.2772658084061577e+21	-4.625058812757653e+23	1398.1713789228768	-0.6441557940190002	24.355878219629048	2.5175402393726785	27.579543099982125	106.2623030644705	105.82960504360969	36.816310818569406	0.0036243557556344033	-5.2796330859661514e+22	0.40764581596990995	0.019758656456438668	2.255248867281576e+23	0.07353217289342423	-0.3141001409121618	0.0	22.845257	65.61090899999999	-10.307217	-44.171875	-6.028676	-40.027081	0.0		True	0.0	None	0.0	None	0.0	None	0.0	None	0.0	None	0.0	None	0.0	None	0.0	None	8.778399999999998e-07	12
2014-01-10 10:00:00	70.88107948485974	533959298.57150006	4.4547365327998917e+21	1860305931927.315	10.36127194542512	656073210125.6558	1.2406238676113424e+21	-4.5479216093785817e+23	1450.2202958547516	-0.6413460206503807	24.30513092302093	2.1184608733246866	27.68514800326447	109.23170809550808	108.45002303366819	38.56117738629943	0.004479581472297933	-5.68191356060355e+22	0.5351100642703958	0.02364475224274284	2.213825134012605e+23	0.08012610956745232	-0.3121927029671873	0.0	22.849144	65.501694	-10.340486	-44.088676	-6.032189	-39.91045	0.0		True	0.0	None	0.0	None	0.0	None	0.0	None	0.0	None	0.0	None	0.0	None	0.0	None	8.370999999999998e-07	12
2014-01-10 10:12:00	71.17473975721418	532196632.5339	4.441710525364743e+21	1871476117802.3257	7.409705191566124	320769331859.9889	1.2174141903569887e+21	-4.577053575051791e+23	1489.777540782292	-0.6475918738177033	24.7934503257091	3.0289532293986636	27.45362473069695	110.79750512362072	109.8504218501112	39.04908169152387	0.0033005368336597434	-5.242664264729016e+22	0.2807741785631784	0.01690087389459404	2.20372776379207e+23	0.07417668854694494	-0.31179800903293026	0.0	22.852997	65.392448	-10.344668	-43.996971	-6.036214	-39.794872	0.0		True	0.0	None	0.0	None	0.0	None	0.0	None	0.0	None	0.0	None	0.0	None	0.0	None	7.999299999999998e-07	12
2014-01-10 10:24:00	72.5048069878808	539249345.0033	4.511331102836784e+21	1956073273716.699	8.884997853088162	513623390355.7973	1.22490664025504e+21	-4.5679902715758586e+23	1490.5546533409927	-0.6378566259046549	24.828232450924663	3.3786748573935936	28.13323190323822	108.33691889015152	108.17814177383495	38.904072287829386	0.003898638812237017	-5.91565955144958e+22	0.4428808462106065	0.020119714540108767	2.219862343092443e+23	0.08260399907083317	-0.30997305597353497	0.0	22.856815	65.283165	-10.350539	-43.892933	-6.040108	-39.679794	0.0		True	0.0	None	0.0	None	0.0	None	0.0	None	0.0	None	0.0	None	0.0	None	0.0	None	7.330800000000002e-07	12
2014-01-10 10:36:00	70.68712838651159	542139733.7979	4.59245862759617e+21	1911276413165.6868	7.027718263389943	340796553284.17755	1.216081053176811e+21	-4.545025002864079e+23	1538.9684223249476	-0.6312662446023167	25.654656295417944	4.672897196261682	28.52001933147748	111.60052774161598	111.2683446279752	40.70218829297276	0.003127600473248752	-6.654321864575621e+22	0.2108144832200104	0.01589308662581292	2.222423990121689e+23	0.09242300694008658	-0.3086762438653565	0.0	22.860651	65.173851	-10.356814	-43.806919	-6.044409	-39.564251	0.0		True	0.0	None	0.0	None	0.0	None	0.0	None	0.0	None	0.0	None	0.0	None	0.0	None	7.173399999999998e-07	12
2014-01-10 10:48:00	71.86519191198053	527776077.4484	4.558892124325031e+21	1845198111663.5881	9.783343886492755	548075592489.2529	1.1479699280146855e+21	-4.4400651888471066e+23	1681.090583687415	-0.6334716492254939	25.780027221432285	5.484818805093046	28.34181082154583	115.04394335147987	114.69726164919771	42.070942711738404	0.004791059689761389	-6.8621888082614986e+22	0.5262628487677641	0.022696349617676883	2.1391545242847134e+23	0.09790401439567303	-0.305196812841992	0.0	22.864399	65.064499	-10.361723	-43.682751	-6.0491800000000016	-39.448174	0.0		True	0.0	None	0.0	None	0.0	None	0.0	None	0.0	None	0.0	None	0.0	None	0.0	None	7.052200000000002e-07	12
2014-01-10 11:00:00	67.1065751054459	508376524.0626	4.366444741895385e+21	1733033638539.3638	8.709854810937632	423605545527.8691	1.0966648113720896e+21	-4.214530822998743e+23	1695.6555039031446	-0.6242394503793465	25.61150041627183	4.641567818463126	28.625905154551397	113.35731806510836	113.52458595738855	42.219377227653496	0.004491931310437149	-7.094055368063101e+22	0.4141510250168968	0.021096255139944533	2.090188729211561e+23	0.10507431099458547	-0.3095903953037762	0.0	22.86816	64.955109	-10.367368	-43.596737	-6.034174	-39.333672	0.0		True	0.0	None	0.0	None	0.0	None	0.0	None	0.0	None	0.0	None	0.0	None	0.0	None	7.490900000000002e-07	12
2014-01-10 11:12:00	68.69794788047349	502537500.5366	4.315133331975581e+21	1769813604225.9807	4.247492937588127	110409480594.21477	1.0959352327201252e+21	-4.167856391940907e+23	1657.775409172431	-0.6244990991368679	25.697096712428827	5.0510204081632635	28.70615859014509	111.98636076453217	112.17505261342686	41.66986425201775	0.0021670882334633304	-7.287852740056629e+22	0.07854081308564702	0.01040578170369556	2.0365354171887967e+23	0.10919899926513707	-0.3051483577634652	0.0	22.87183	64.84568	-10.373882	-43.476547	-6.036926	-39.220325	0.0		True	0.0	None	0.0	None	0.0	None	0.0	None	0.0	None	0.0	None	0.0	None	0.0	None	9.4683e-07	12
2014-01-10 11:24:00	71.63649050716447	498055629.8126001	4.282464326453113e+21	1833496356936.3247	5.894162040578829	199943214183.6873	1.0829279524457021e+21	-4.1404327058049654e+23	1676.8798365733835	-0.6259726376941211	25.60649374900589	4.940197607904317	28.500053401605076	112.05892566689751	112.76497007011356	41.4367860100249	0.003065086864575573	-7.544775620725919e+22	0.20433746073471248	0.014556634596604709	1.983480818667222e+23	0.11406593058485445	-0.2998731794713298	0.0	22.875458	64.73620600000001	-10.380515	-43.384933	-6.043399	-39.122723	0.0		True	0.0	None	0.0	None	0.0	None	0.0	None	0.0	None	0.0	None	0.0	None	0.0	None	9.4737e-07	12
2014-01-10 11:36:00	67.34817045398688	492123114.1262	4.163269504118941e+21	1725113033070.4531	6.740897225011198	347750565624.107	1.0658397180656224e+21	-4.074578972128346e+23	1658.6710454226043	-0.6234426630920684	25.612468413549646	4.867724867724868	28.67172269201707	110.6030803933208	111.16015759423328	40.42596242567149	0.003566612288365713	-7.649557557996341e+22	0.3616050827634968	0.016874735841606047	1.962900416427561e+23	0.11704425335857932	-0.30033921820464865	0.0	22.879044	64.626694	-10.38633	-43.265476	-6.047299	-39.013435	0.0		True	0.0	None	0.0	None	0.0	None	0.0	None	0.0	None	0.0	None	0.0	None	0.0	None	9.4569e-07	12
2014-01-10 11:48:00	68.90229325546562	476759199.6141	4.062617686000242e+21	1698852876318.6367	7.2922928134422875	357228867105.29675	1.023252325533912e+21	-3.994872474685172e+23	1727.3285510720816	-0.6309448446104063	25.37869822784175	3.613777526821005	28.06897550021189	111.38369483645695	113.04397423292349	40.53628726624871	0.0041176131075337605	-7.802564581912095e+22	0.3742069815977663	0.0187566700287947	1.871169593281577e+23	0.12323266709746868	-0.2955300365040571	0.0	22.882586	64.517136	-10.389823	-43.146336	-6.05248	-38.900986	0.0		True	0.0	None	0.0	None	0.0	None	0.0	None	0.0	None	0.0	None	0.0	None	0.0	None	8.7564e-07	12
2014-01-10 12:00:00	66.85382165228596	470058633.6522	4.0398323560368743e+21	1676361754717.255	6.119517915866528	276912106332.34644	1.011208786963423e+21	-3.8394467925059086e+23	1717.640701444564	-0.6150411308996641	25.292630769331442	3.5008469791078487	28.743489143767928	111.14996036058659	112.22526066352668	41.799784137310695	0.0034554025498964016	-7.876037053480808e+22	0.3073040446756525	0.016121727837314696	1.872437591212677e+23	0.12616626816747425	-0.2999458505028144	0.0	22.886097	64.407547	-10.395343	-43.05024	-6.057861	-38.785892	0.0		True	0.0	None	0.0	None	0.0	None	0.0	None	0.0	None	0.0	None	0.0	None	0.0	None	8.367399999999998e-07	12
2014-01-10 12:12:00	65.17973481370885	457293695.7545	3.918765349191172e+21	1544645889414.8132	5.618941247264707	218073097657.7853	9.646753368957575e+20	-3.800736785570966e+23	1823.7204055904047	-0.625835357273201	24.838999733197433	2.719406674907293	27.98424181243327	115.05445989251012	116.31471920369015	41.02179404378173	0.003472769621300808	-7.538952768602859e+22	0.2401183024685617	0.015115158599837362	1.832369999496632e+23	0.12413759398746615	-0.3017209551698533	0.0	22.889555	64.297905	-10.399376	-42.933201	-6.061763	-38.67545300000001	0.0		True	0.0	None	0.0	None	0.0	None	0.0	None	0.0	None	0.0	None	0.0	None	0.0	None	8.440000000000002e-07	12
