Timestamp	TOTUSJH	TOTBSQ	TOTPOT	TOTUSJZ	ABSNJZH	SAVNCPP	USFLUX	TOTFZ	MEANPOT	EPSZ	MEANSHR	SHRGT45	MEANGAM	MEANGBT	MEANGBZ	MEANGBH	MEANJZH	TOTFY	MEANJZD	MEANALP	TOTFX	EPSY	EPSX	R_VALUE	CRVAL1	CRLN_OBS	LAT_MIN	LON_MIN	LAT_MAX	LON_MAX	QUALITY	NOAA_AR	IS_TMFI	BFLARE	BFLARE_label	CFLARE	CFLARE_label	MFLARE	MFLARE_label	XFLARE	XFLARE_label	BFLARE_loc	BFLARE_label_loc	CFLARE_loc	CFLARE_label_loc	MFLARE_loc	MFLARE_label_loc	XFLARE_loc	XFLARE_label_loc	XR_MAX	XR_QUAL
2014-02-09 13:00:00	8.177195324319296	41065450.4037	3.437033594102888e+20	224298941302.7061	0.060660074813112586	18075095659.540142	9.914521164679348e+19	-3.3618270543884243e+22	1340.9542857704073	-0.6164335704356282	24.85138470120977	6.7357512953367875	29.275769054495694	113.44592985538084	118.66597433936928	43.52613600869258	-0.0003143009057674227	-1.5484912805804446e+22	0.1828782203732089	-0.003990528048536181	8.249533821960157e+21	0.283935489075981	-0.15126565126728325	0.0	9.473333	28.850033000000003	-26.514957	-20.898596	-24.800823	-18.10347	0.0		True	0.0	None	0.0	None	0.0	None	0.0	None	0.0	None	0.0	None	0.0	None	0.0	None	1.1926e-06	12
2014-02-09 13:12:00	8.307312967422483	38901931.72960001	3.2845781486684144e+20	224432932645.8164	0.37828861104644795	121195276801.09407	9.442065161787446e+19	-3.074942550410103e+22	1322.5906604927611	-0.5951868092550907	24.084703446295862	5.3475935828877015	30.040848569056	120.72362098656755	123.97891420843716	46.947096987589504	0.0020229337489114864	-1.4394904196120085e+22	1.2655910913243609	0.013858123215997914	8.205712478808426e+21	0.27862820061073224	-0.15883001870312344	0.0	9.473475	28.740175	-26.518835	-20.793423	-24.803511	-17.961241	0.0		True	0.0	None	0.0	None	0.0	None	0.0	None	0.0	None	0.0	None	0.0	None	0.0	None	1.1729e-06	12
2014-02-09 13:24:00	8.582258968771402	44466051.2275	3.572005777262246e+20	245467559013.6982	0.05887507641914491	98584839209.34337	1.1089475103077142e+20	-3.520437334900704e+22	1211.5648857872432	-0.5961500076243756	23.514749543690314	4.0540540540540535	29.755923385126252	110.97735943999493	115.13094539752943	45.27396113215395	0.00026520304693308523	-1.5867023191853691e+22	0.8671960105583696	0.004516915661909014	1.0077945541808856e+22	0.26869178732495536	-0.1706596862845977	0.0	9.473581	28.630281	-26.523844	-20.6873	-24.808569	-17.818148	0.0		True	0.0	None	0.0	None	0.0	None	0.0	None	0.0	None	0.0	None	0.0	None	0.0	None	1.1475e-06	11
2014-02-09 13:36:00	8.611618642094943	45398137.7949	3.603525489854482e+20	224701012741.16315	1.4975641589481752	184920659980.2126	1.0608514700312304e+20	-3.5391558301458314e+22	1330.1021096392308	-0.5870149984146217	22.56241544928947	2.9411764705882346	29.92365191500277	119.95661662547556	125.08961628147092	47.13457475452133	0.00734100077915772	-1.6870948629276281e+22	1.7702158603367142	0.03800269629915605	1.0802992369926735e+22	0.2798266128468185	-0.17918167080663444	0.0	9.473658	28.520357	-26.528484	-20.580379	-24.785772	-17.674379000000005	0.0		True	0.0	None	0.0	None	0.0	None	0.0	None	0.0	None	0.0	None	0.0	None	0.0	None	1.1383e-06	12
2014-02-09 13:48:00	10.58325839022986	51747620.9348	4.5832970205970216e+20	295213381512.724	0.7668280252109845	5117797110.491158	1.2121606023222184e+20	-4.115729220137668e+22	1432.0180682751475	-0.5988857004739859	25.3976495428541	9.128630705394187	30.92291769430037	122.19355257138365	128.17897722107875	48.91057605428953	-0.00318185902577172	-1.904522495536444e+22	0.04147131196044435	-0.01665575107422461	1.0016988031320085e+22	0.27712981777981377	-0.14575863894116914	0.0	9.473652	28.4104	-26.533308	-20.47451	-24.789394	-17.541119000000002	0.0		True	0.0	None	0.0	None	0.0	None	0.0	None	0.0	None	0.0	None	0.0	None	0.0	None	1.1519e-06	12
2014-02-09 14:00:00	11.562835300106899	51708887.5678	4.3972846318919726e+20	302741914221.0112	0.34304583694150204	94260957196.68956	1.2236206887131175e+20	-4.247788994834785e+22	1391.2177585793493	-0.618564842743161	24.926676291583878	5.46218487394958	29.58278188500471	116.53545812952382	122.54900814927834	46.98348661644925	-0.0014413690627794204	-1.7558668997461105e+22	0.7734769547241057	-0.007657675830236697	1.2017256908438249e+22	0.2556900858399673	-0.1749958069671347	0.0	9.47361	28.300409	-26.535851	-20.369755	-24.791992	-17.41831	0.0		True	0.0	None	0.0	None	0.0	None	0.0	None	0.0	None	0.0	None	0.0	None	0.0	None	1.1672e-06	12
2014-02-09 14:12:00	12.234541449854856	59014028.49690001	5.1475949740352576e+20	298509937907.49634	0.3331479967551331	176347284641.14386	1.3216292216124958e+20	-4.7646758219410016e+22	1608.3289573855775	-0.6079469041057692	24.02864454962129	5.394190871369295	29.299860179478816	127.05590149751605	131.0580119835729	49.33220424344749	-0.0013823568330088509	-2.1378119430319366e+22	1.4290749824127729	-0.00778436794044092	1.2417962150402017e+22	0.2727732590623871	-0.1584464909422542	0.0	9.473587	28.190388	-26.539944	-20.264351	-24.794924	-17.276138	0.0		True	0.0	None	0.0	None	0.0	None	0.0	None	0.0	None	0.0	None	0.0	None	0.0	None	1.1936e-06	12
2014-02-09 14:24:00	13.792455829813086	67971941.6167	6.430645975870945e+20	382273274544.7916	0.12268243111459527	103423403915.36392	1.5669754144061116e+20	-5.505383928133201e+22	1614.0641146258954	-0.6098813746452549	25.79182282004363	9.666666666666666	29.34652181411219	126.38408757029629	130.8463282847935	47.98282305658567	0.00040894143704865097	-2.4297601163498323e+22	0.6733042787088668	-0.0027379540651075725	1.6040409821550633e+22	0.26916659385826525	-0.17769418662792047	0.0	9.473536	28.080336	-26.54488	-20.158539	-24.773527	-17.133661	0.0		True	0.0	None	0.0	None	0.0	None	0.0	None	0.0	None	0.0	None	0.0	None	0.0	None	1.3144e-06	12
2014-02-09 14:36:00	10.887200620172637	60003792.7728	5.333915444477797e+20	292598187159.3942	0.9881851643822042	34042251561.592663	1.3878409195165114e+20	-4.765038939251908e+22	1498.6451874281174	-0.5979642804823604	24.290839326272465	5.5970149253731325	30.50113195050735	120.85808129929264	124.66699087069418	48.865592619352896	-0.003687258076053001	-2.1692827586709198e+22	0.2480891997488041	-0.014211512695896784	1.432774317455291e+22	0.27222308578974475	-0.17979871198392855	0.0	9.473455	27.970255	-26.549679	-20.054171	-24.745974	-16.992720000000002	0.0		True	0.0	None	0.0	None	0.0	None	0.0	None	0.0	None	0.0	None	0.0	None	0.0	None	1.3434000000000001e-06	12
2014-02-09 14:48:00	11.783896753363054	60355630.6913	4.892427498977555e+20	296329461937.8318	0.45170964580889	129993734594.17752	1.385653265953517e+20	-4.843293370784238e+22	1395.4296667067706	-0.6042413803648133	22.81141258842976	4.545454545454546	29.68777153551044	124.68448816548094	129.6904580542975	49.40877901425624	0.0017110213856397346	-2.1545432163817456e+22	0.961730134855374	0.005410928658526436	1.364020473775206e+22	0.2687972970985545	-0.17017296926333844	0.0	9.473244	27.860144	-26.554075	-19.949436	-24.718039	-16.851536	0.0		True	0.0	None	0.0	None	0.0	None	0.0	None	0.0	None	0.0	None	0.0	None	0.0	None	1.2845e-06	12
2014-02-09 15:00:00	9.769734623626773	59926202.5933	4.921535127850623e+20	264064595734.2601	0.6557118682727247	99958601070.24768	1.36058848156119e+20	-4.5717827515868716e+22	1419.8668788548764	-0.5744554753841327	24.363064001889075	4.980842911877394	30.01638276399307	119.60277748138296	121.24637854989237	47.431621667734355	0.002512306008707757	-2.302434401857662e+22	0.7480396863995263	0.01254882115679623	1.3331623845184271e+22	0.2893064086216328	-0.1675150533119606	0.0	9.473106	27.750008	-26.561167	-19.844011	-24.723967	-16.714146	0.0		True	0.0	None	0.0	None	0.0	None	0.0	None	0.0	None	0.0	None	0.0	None	0.0	None	1.2006e-06	11
2014-02-09 15:12:00	10.698160436681997	60554646.4338	4.395370122122169e+20	288865480347.1206	0.543829014128387	119050638091.58095	1.386969594982214e+20	-4.855885759035832e+22	1268.0675579754527	-0.6038213093188971	22.611781945819985	1.9157088122605364	29.265438073665642	119.5929330902222	123.73930898708912	46.898797599	0.002083636069457421	-2.125206209066605e+22	0.8909350853576034	0.014512250899933344	1.438966111854134e+22	0.26426585373088424	-0.17893304019940678	0.0	9.472942	27.639843	-26.56452800000001	-19.738909	-24.726227	-16.572809	0.0		True	0.0	None	0.0	None	0.0	None	0.0	None	0.0	None	0.0	None	0.0	None	0.0	None	1.1703e-06	12
2014-02-09 15:24:00	11.006128375518594	61252711.9366	4.63209876839912e+20	286123636282.3465	1.7013747693693502	130887517746.73285	1.36811660761775e+20	-4.8258497629954435e+22	1373.1933477407526	-0.5932477123365886	23.229521555845004	2.755905511811024	29.210452724756998	123.24784103368765	125.55319512900962	48.21183642435238	0.00669832586365886	-2.24067077359298e+22	1.0065357899028642	0.04477213288960566	1.3686160355332312e+22	0.2754484444846039	-0.16824567112990485	0.0	9.472754	27.529654	-26.568806	-19.633879	-24.729406	-16.431616	0.0		True	0.0	None	0.0	None	0.0	None	0.0	None	0.0	None	0.0	None	0.0	None	0.0	None	1.1620999999999999e-06	12
2014-02-09 15:36:00	9.88400968622125	62939412.6304	4.715941936734972e+20	236682917743.0071	2.5804487832300538	252853988203.32346	1.3613908376585898e+20	-5.178155218906145e+22	1517.5397272847556	-0.6194979251771293	21.59453483942679	1.282051282051282	27.63057089778919	123.25064472258379	127.09218945282566	50.3281071010496	0.011027558902692535	-2.200333007362812e+22	2.110707130350644	0.049173366555506914	1.6121109230688689e+22	0.2632408020105589	-0.19286779360150588	0.0	9.472492	27.419441	-26.574631	-19.529369	-24.704098	-16.290993	0.0		True	0.0	None	0.0	None	0.0	None	0.0	None	0.0	None	0.0	None	0.0	None	0.0	None	2.0211e-06	12
2014-02-09 15:48:00	14.111480025632662	72536102.1867	6.262897251316723e+20	350343182108.91565	0.13038280824868712	83569852739.20523	1.5539637349937486e+20	-5.850822889359628e+22	1690.2799481073803	-0.6073657433164085	24.308944179154416	7.1684587813620055	29.422608954514264	139.96519632960906	139.9319813952212	55.11489536204356	-0.00046732189336447	-2.60099990427207e+22	0.5850980770522105	-0.0151699513061062	1.6700950304412112e+22	0.27000616325219473	-0.17337022992401466	0.0	9.472204	27.309204	-26.579441	-19.425304	-24.707832	-16.15522	0.0		True	0.0	None	0.0	None	0.0	None	0.0	None	0.0	None	0.0	None	0.0	None	0.0	None	3.7629e-06	12
2014-02-09 16:00:00	13.04260259602997	70561337.5394	6.023328678711516e+20	356489595493.7193	0.3857666911334864	141959631083.4124	1.5819870705489635e+20	-5.57603727046798e+22	1458.3563338592126	-0.5950402484725493	25.15427417687006	8.038585209003216	30.622095036249565	129.54353191665732	130.24982584078157	50.98635421801882	0.0012404073669887025	-2.563352961500764e+22	0.8916541383122845	-0.006154265337455104	1.6555381934774662e+22	0.2735451915310183	-0.17666880801174226	0.0	9.471949	27.198948	-26.58382000000001	-19.318689000000006	-24.711157	-16.016987	0.0		True	0.0	None	0.0	None	0.0	None	0.0	None	0.0	None	0.0	None	0.0	None	0.0	None	8.971599999999999e-06	12
2014-02-09 16:12:00	11.34702500151032	64764944.2262	5.0020759296122775e+20	278416641233.302	0.010006815697239962	88189405971.52206	1.4158203646136304e+20	-5.210447861497004e+22	1482.873524623179	-0.6057907067590476	23.200612786905552	5.118110236220472	28.783697148332163	136.6733526595104	136.4472539746663	54.80294220854781	3.9396912193858115e-05	-2.2647575194790896e+22	0.6782396255426618	2.182557283812151e-05	1.5656978536225713e+22	0.2633111576648475	-0.1820352558032572	0.0	9.471668	27.088669	-26.588398	-19.214127	-24.714661	-15.884945000000002	0.0		True	0.0	None	0.0	None	0.0	None	0.0	None	0.0	None	0.0	None	0.0	None	0.0	None	1.0717000000000001e-05	12
2014-02-09 16:24:00	10.602357095709893	67158735.3179	5.158703906822992e+20	290920263203.4921	0.1960892597725037	14605556364.519838	1.483870430648055e+20	-5.1118364929508e+22	1353.462308658832	-0.5731415661194079	23.03658562414473	5.2264808362369335	31.10699734259708	135.5390752396878	135.24615325426535	52.58472402301764	-0.0006832378389285841	-2.366565390655942e+22	-0.09941333053839664	-0.0032910638626974533	1.768140780550551e+22	0.2653404497962666	-0.19824479469987008	0.0	9.471375	26.978374	-26.59214	-19.110697	-24.718477	-15.779658	0.0		True	0.0	None	0.0	None	0.0	None	0.0	None	0.0	None	0.0	None	0.0	None	0.0	None	1.061e-05	12
2014-02-09 16:36:00	11.236482974856916	65298434.8135	5.058016602002415e+20	284864794856.8048	0.5791513934419934	133122176949.92	1.4294241974676283e+20	-5.189557577140286e+22	1426.4496674146792	-0.5984322999304291	23.52113775753901	4.868913857677903	29.68859078748629	135.03081504443452	133.67170036262868	50.755328910092686	0.002169106342479376	-2.2759736133546595e+22	0.9739915628694424	0.01022666735401266	1.713705370227422e+22	0.2624532253039071	-0.19761542884228814	0.0	9.470961	26.868061	-26.596136	-19.006607	-24.696913	-15.67791	0.0		True	0.0	None	0.0	None	0.0	None	0.0	None	0.0	None	0.0	None	0.0	None	0.0	None	8.9665e-06	12
2014-02-09 16:48:00	11.666513269264774	63368711.40610001	5.161242016166903e+20	294687347195.2745	0.757215602004273	94081120094.10199	1.417511093949648e+20	-5.197137537569807e+22	1500.5204814657584	-0.6175566490899624	23.38927604388557	2.3166023166023164	28.53591315126071	132.35792076952347	132.9834011037196	50.32400529921311	0.002923612362950861	-2.252347082022992e+22	0.7096201736776367	0.013972873488449479	1.5008648751500514e+22	0.2676380808678936	-0.17834222710755818	0.0	9.470636	26.757736	-26.600964	-18.904081	-24.699581	-15.547816	0.0		True	0.0	None	0.0	None	0.0	None	0.0	None	0.0	None	0.0	None	0.0	None	0.0	None	7.2836e-06	12
2014-02-09 17:00:00	9.232937248462504	57149663.1396	3.811790626865184e+20	217308649653.76733	0.9482818200185922	93039006490.80807	1.2361956255023265e+20	-4.661999794949145e+22	1341.2286430409254	-0.6142513651471665	20.78677358448668	0.4672897196261682	27.92131722673769	131.92068272936947	131.47683190399835	50.514942199791534	0.004431223458030805	-1.98356446110487e+22	0.8493395382592053	0.021356061706194328	1.4278298737604425e+22	0.2613486125441498	-0.1881266597449143	0.0	9.470295	26.647394	-26.602858	-18.796511	-24.701546	-15.438606	0.0		True	0.0	None	0.0	None	0.0	None	0.0	None	0.0	None	0.0	None	0.0	None	0.0	None	5.9963e-06	12
2014-02-09 17:12:00	9.826456989819247	64715659.7131	4.5206416737568175e+20	241429911427.0365	0.7687998685218937	79843666762.5651	1.4303537953837905e+20	-5.255133977352744e+22	1304.2085708369639	-0.611451314379323	21.41784096424396	1.532567049808429	29.05847672179427	129.87353030443745	129.99431651184463	50.539690768899966	0.002945593365984267	-2.24566033754866e+22	0.5976352084119994	0.011522138288238963	1.4511538534907243e+22	0.2612896209613561	-0.1688463005714846	0.0	9.46994	26.537041	-26.60701	-18.691475	-24.704657	-15.335902	0.0		True	0.0	None	0.0	None	0.0	None	0.0	None	0.0	None	0.0	None	0.0	None	0.0	None	4.9384e-06	12
2014-02-09 17:24:00	8.879153131591236	63614212.32280001	4.341832639621099e+20	211117921186.9705	0.17494280275799584	13107212585.065296	1.3312045795847704e+20	-5.09531009719656e+22	1427.6608708819665	-0.6031202714562082	20.150964989463013	0.4366812227074235	29.213183284804174	138.44795865514362	140.9899271828474	53.02313102007877	0.0007639423701222526	-2.2146672931683133e+22	0.11181930572993147	0.0017943452664316746	1.5615425376904215e+22	0.2621451322022121	-0.18483623984739228	0.0	9.46953	26.42668	-26.609213	-18.587536	-24.70693	-15.230295000000002	0.0		True	0.0	None	0.0	None	0.0	None	0.0	None	0.0	None	0.0	None	0.0	None	0.0	None	4.192e-06	12
2014-02-09 17:36:00	8.705442173693784	63950291.5411	4.5219104209718654e+20	197989664197.50146	0.2181690911336776	50862839892.71585	1.3403119721574354e+20	-5.1135316314530284e+22	1480.4086054745496	-0.602096219454353	20.810515303013002	3.0434782608695654	29.12786163800899	135.90251670101506	139.72833031372022	51.18053912410424	0.0009485612657985984	-2.230298002526977e+22	0.4320359952224976	0.0039014692244930603	1.6780847769423658e+22	0.2626079375980141	-0.19758722013298669	0.0	9.469107	26.316307	-26.616243	-18.486441	-24.7129	-15.101431	0.0		True	0.0	None	0.0	None	0.0	None	0.0	None	0.0	None	0.0	None	0.0	None	0.0	None	3.6064e-06	12
2014-02-09 17:48:00	8.61883684083953	59129408.3874	3.93303852501852e+20	194021181643.72028	0.236692758202258	63204691251.63878	1.2239015625004917e+20	-4.760692042322397e+22	1403.5671413513744	-0.6062531421376235	20.337801203786388	2.3696682464454977	29.72822956603817	135.8965761587651	137.20272556140972	51.49688783188837	0.0011217666265509855	-2.060555753196623e+22	0.5852193179984433	0.005176238517856436	1.587267468137763e+22	0.2624026903693201	-0.2021315139514715	0.0	9.468731	26.205931	-26.620344	-18.381346	-24.717058	-14.998643	0.0		True	0.0	None	0.0	None	0.0	None	0.0	None	0.0	None	0.0	None	0.0	None	0.0	None	3.0862e-06	12
2014-02-09 18:00:00	8.411559708049962	58637348.5826	4.395116333948444e+20	203685508070.74634	0.030486605518734226	1118265634.7022762	1.232560406675628e+20	-4.52482819990129e+22	1539.2866550066324	-0.5810524800964536	21.555427137988314	2.3255813953488373	29.752389868201586	137.8866363741789	135.39878649711508	52.17193985243086	0.000141798165203415	-2.053404952061986e+22	0.010161610957133464	-0.0014407863671892646	1.7712216855412537e+22	0.2636864842877317	-0.2274501279864765	0.0	9.468349	26.095549	-26.622143	-18.272289	-24.720001	-14.893075	66560.0		False	0.0	None	0.0	None	0.0	None	0.0	None	0.0	None	0.0	None	0.0	None	0.0	None	2.6949000000000002e-06	12
2014-02-09 18:12:00	7.58658653315012	56619959.4571	4.288606050703921e+20	185638753344.63605	1.1118216934456844	88502666068.18292	1.2131440219398948e+20	-4.558666871378852e+22	1552.5310977484219	-0.6062556399516388	22.14892854516056	2.403846153846154	28.641751782027697	131.997961479796	131.77551041907859	47.49634167346797	0.005345296603104253	-1.9804421999203017e+22	0.8312898873307029	0.021072826969756358	1.6264048637285115e+22	0.26337837073336184	-0.21629505934526605	0.0	9.467962	25.985163	-26.625942	-18.169865	-24.723852	-14.766823	66560.0		False	0.0	None	0.0	None	0.0	None	0.0	None	0.0	None	0.0	None	0.0	None	0.0	None	2.4278e-06	12
2014-02-09 18:24:00	6.972538165717813	51965713.5237	3.8761487085309886e+20	164382112485.10468	0.8002365387328935	107005421069.21808	1.0921132569028755e+20	-4.0352754602447485e+22	1512.2746092422956	-0.5847144553503008	22.56377317563529	1.0362694300518136	30.399653836097738	125.02196643542368	123.97343958336369	50.05099816321088	0.0041463033094968575	-1.8441591507793807e+22	1.0832057262853545	0.014162230961106366	1.504023099657776e+22	0.2672200507872731	-0.217934080638284	0.0	9.467478	25.874777	-26.629847	-18.064407	-24.727808	-14.663602	0.0		True	0.0	None	0.0	None	0.0	None	0.0	None	0.0	None	0.0	None	0.0	None	0.0	None	2.1418999999999998e-06	12
2014-02-09 18:36:00	8.406304137546247	56458117.4728	4.696490107521244e+20	198146409372.67468	0.3377589919511847	349835154.25681305	1.2123095070503217e+20	-4.412893277730436e+22	1676.0170622264682	-0.5885515535548738	22.992903878925084	4.265402843601897	29.470706303684807	119.41548595754404	120.2105571246905	47.12565436820829	-0.0016007535163563257	-1.985497047267202e+22	0.003239259623661625	-0.020416534260987936	1.5941803153343644e+22	0.2648075306159963	-0.2126172654053368	0.0	9.467091	25.764391	-26.635368	-17.960943	-24.731266	-14.55841	0.0		True	0.0	None	0.0	None	0.0	None	0.0	None	0.0	None	0.0	None	0.0	None	0.0	None	1.9466e-06	12
2014-02-09 18:48:00	9.753835005352132	63333430.0463	5.257433698270028e+20	228047313825.184	0.5658457966184418	50559356473.42433	1.3432145083463338e+20	-5.047744566951771e+22	1751.6724621246005	-0.6001390656263772	22.94371196182925	2.2123893805309733	28.24394458150484	130.20937063512181	131.37541391122124	47.9776328627981	-0.0025037424629134595	-2.232008624414323e+22	-0.43707871826094935	-0.01617553336685848	1.6185498203459173e+22	0.2653691272525965	-0.19243346488087465	0.0	9.466707	25.654007	-26.63842600000001	-17.855925	-24.735407	-14.451804999999998	0.0		True	0.0	None	0.0	None	0.0	None	0.0	None	0.0	None	0.0	None	0.0	None	0.0	None	1.8865e-06	12
2014-02-09 19:00:00	11.53701928749183	64298110.9957	5.203295290317367e+20	253167158229.95825	0.5341455970352393	2622628442.6778264	1.3000903319468892e+20	-5.1632007974593675e+22	1892.7605971267608	-0.6046559904116003	22.652618307717198	1.4492753623188406	28.0794823324368	143.4969616807501	142.0066981719649	56.707444383041505	-0.0025804135122475327	-2.2357501189011207e+22	-0.02475335831421824	-0.015543073448816946	1.7749448946956366e+22	0.2618259013134282	-0.2078615776005271	0.0	9.46633	25.543629	-26.640656	-17.751419	-24.737709	-14.349586	0.0		True	0.0	None	0.0	None	0.0	None	0.0	None	0.0	None	0.0	None	0.0	None	0.0	None	1.8854e-06	12
2014-02-09 19:12:00	11.634601701453311	60312188.8708	4.6106734893935775e+20	256146496870.8827	0.98529097258351	4609294152.778763	1.2271041608234854e+20	-4.739019123991871e+22	1744.611505209117	-0.5916580956669012	21.804265226882855	2.0100502512562812	29.278556061866798	144.60707312221732	146.31357228708686	54.83846113895676	-0.0049512109175050755	-2.1572630930977253e+22	0.045253214733873136	-0.02310346203994984	1.4782904714617552e+22	0.2693304542817621	-0.18456193197440404	0.0	9.465904	25.433254	-26.64451	-17.649829999999994	-24.741613	-14.246396	0.0		True	0.0	None	0.0	None	0.0	None	0.0	None	0.0	None	0.0	None	0.0	None	0.0	None	1.8563e-06	12
2014-02-09 19:24:00	11.637801428470993	56635695.9866	4.019070221251655e+20	267855616307.04025	0.6020355221008133	44933362575.985115	1.206099207585864e+20	-4.426496743602906e+22	1498.1722187468781	-0.5885148446147126	21.36677989789606	1.98019801980198	28.210013575045448	126.11435577997277	128.14870158907812	54.34694620857761	-0.002980373871786205	-2.1282339806571624e+22	0.4345958596207044	-0.0014458718432343665	1.2655098449507329e+22	0.2829545265655708	-0.16825299393609627	0.0	9.46549	25.322889	-26.650145	-17.546406	-24.723158	-14.122497	0.0		True	0.0	None	0.0	None	0.0	None	0.0	None	0.0	None	0.0	None	0.0	None	0.0	None	1.9426e-06	12
2014-02-09 19:36:00	10.356477774155204	58277761.3829	4.72621693430128e+20	244271599873.2017	0.27078291653518016	96323707288.14827	1.2579674359186784e+20	-4.57900531848349e+22	1639.9908709530537	-0.5916376447022723	22.32715113175262	2.3041474654377883	28.978493678343984	116.84815394925225	121.0609272891293	48.521105543630625	0.001247847541636775	-2.2715577508772134e+22	0.8672428475869866	0.0005399254971435544	1.2995070193982578e+22	0.2935002220043897	-0.1679048655233894	0.0	9.465134	25.212534	-26.645853	-17.443478	-24.726931	-14.018014	0.0		True	0.0	None	0.0	None	0.0	None	0.0	None	0.0	None	0.0	None	0.0	None	0.0	None	1.9225e-06	12
2014-02-09 19:48:00	11.77537676786459	63825287.9623	5.253846664390836e+20	306881089254.5573	0.3110151688753629	122068141227.94733	1.4667001055784178e+20	-5.078448835679933e+22	1443.8240276117115	-0.5991364373488991	24.04679235573611	4.744525547445255	29.625249357608066	108.79436840047407	113.1250058322213	43.7464501578384	0.0011350918572093536	-2.4862944051687764e+22	0.8703973670285853	0.007959921299461381	1.304896188844543e+22	0.2933237333509299	-0.15394678158449976	0.0	9.46479	25.10219	-26.64825200000001	-17.34079	-24.730288	-13.91379	0.0		True	0.0	None	0.0	None	0.0	None	0.0	None	0.0	None	0.0	None	0.0	None	0.0	None	1.8097e-06	12
2014-02-09 20:00:00	12.218184731886716	62040115.5494	4.66910821234732e+20	295197734945.8677	0.3573950483027541	4247209104.963959	1.4144226277299654e+20	-5.197609621340052e+22	1373.3507604013844	-0.630839033851195	23.33643023427351	6.25	28.606440691731766	116.82683072790249	122.19325927628654	42.395628111626145	-0.0013960744074326336	-2.3162291073870232e+22	-0.0324136185109174	0.008682724858000389	1.1291635685757534e+22	0.2811230236074032	-0.1370477020312743	0.0	9.464408	24.991858	-26.65123	-17.238066	-24.734209	-13.8132	0.0		True	0.0	None	0.0	None	0.0	None	0.0	None	0.0	None	0.0	None	0.0	None	0.0	None	1.9925999999999998e-06	12
2014-02-09 20:12:00	14.088311434186974	68373717.42	4.87333181011484e+20	377389236279.7677	0.03948155626737263	70581224357.45169	1.6476604298457245e+20	-5.575908307490616e+22	1125.630535817668	-0.6140643921390577	22.70105353502689	5.214723926380368	29.71243365573429	108.35178653684238	114.64340653540285	40.79292968627949	0.000121109068304824	-2.523265960531006e+22	0.4229925861806516	0.0100664441290105	1.0802462998270415e+22	0.2778825785526523	-0.11896551214313075	0.0	9.464041	24.88154	-26.656439	-17.135754000000002	-24.733427	-13.709356	0.0		True	0.0	None	0.0	None	0.0	None	0.0	None	0.0	None	0.0	None	0.0	None	0.0	None	2.192e-06	12
2014-02-09 20:24:00	11.505156746822607	64309753.03160001	5.083996683535851e+20	305538516974.3732	0.042072853309364	59219199367.76893	1.5679728187711134e+20	-5.285823295455792e+22	1263.4269229277875	-0.6189040091825984	23.315673112749085	4.29042904290429	29.00937822942349	109.3018825597971	113.33135411403705	41.611866479148496	-0.0001388543013510363	-2.4409764063128165e+22	0.3818368172048615	0.0027079117953935647	1.1912988685284529e+22	0.2858079053618581	-0.13948624550139752	0.0	9.463741	24.77124	-26.66055900000001	-17.032915	-24.73653	-13.608653	0.0		True	0.0	None	0.0	None	0.0	None	0.0	None	0.0	None	0.0	None	0.0	None	0.0	None	3.4106e-06	12
2014-02-09 20:36:00	12.817809175609868	67922474.2132	5.5978551175916965e+20	373759902638.1121	0.7828952427383916	187338584845.24664	1.7458377155605833e+20	-5.479616731371197e+22	1174.1259383952845	-0.6074690592731884	23.88748161606513	4.735376044568246	29.681837753173212	99.91447718732263	103.46739665650965	38.81564698567643	0.0021807666928646005	-2.6652889986080614e+22	1.0194988985558828	0.020582859813829558	1.169914140697547e+22	0.2954733296229034	-0.12969641442460894	0.0	9.463457	24.660957	-26.664341	-16.929882	-24.739304	-13.504198	0.0		True	0.0	None	0.0	None	0.0	None	0.0	None	0.0	None	0.0	None	0.0	None	0.0	None	3.3283999999999998e-06	12
2014-02-09 20:48:00	11.145576960874235	64562355.5243	4.875280996104239e+20	325937030431.5544	1.5065394070608886	217768310745.8709	1.6932650358275752e+20	-5.206303338003737e+22	1031.1864089465382	-0.6072081992105266	22.783661896971736	3.089887640449438	29.57401547490248	95.23614639816313	99.46492506581824	35.64308542049851	0.0042318522670249685	-2.5544066618884843e+22	1.1950723264096808	0.027354944815590827	1.2251678261170437e+22	0.2979189971307749	-0.1428906272127534	0.0	9.463194	24.550694	-26.66786	-16.825754	-24.742807	-13.402253	0.0		True	0.0	None	0.0	None	0.0	None	0.0	None	0.0	None	0.0	None	0.0	None	0.0	None	2.5439e-06	12
2014-02-09 21:00:00	10.619566429935091	66544671.9759	4.373790106040081e+20	281808075723.4857	1.6254651479480609	228047938186.61426	1.6436730947526925e+20	-5.444246546883967e+22	1038.9295366859913	-0.6160442573666404	20.4419922577384	0.9463722397476341	28.83954134253885	106.90203036499292	109.916674603402	42.05170856062896	0.0051276503089844215	-2.5311353358942848e+22	1.4054362861176368	0.02906355492495199	1.101825344528244e+22	0.2864108696891992	-0.12467715601640833	0.0	9.462903	24.440453	-26.67107	-16.722717000000006	-24.746012	-13.278192	0.0		True	0.0	None	0.0	None	0.0	None	0.0	None	0.0	None	0.0	None	0.0	None	0.0	None	2.0066e-06	12
2014-02-09 21:12:00	10.707035201476526	67813188.89359999	4.8077535108456166e+20	279333643811.3433	0.19617035563572305	12223730454.808449	1.645656474914174e+20	-5.4998387068830195e+22	1142.0112931107615	-0.6106934371834037	21.522657045002564	1.2618296529968454	28.95931934051395	111.41905433098431	112.68455536452083	45.14405288012707	-0.0006188339294502303	-2.6067719599272166e+22	0.07533262638802395	-0.004908018683213351	1.3470861838473134e+22	0.289451857227916	-0.14957833050020902	0.0	9.462633	24.330233	-26.67770800000001	-16.62182	-24.724264	-13.175729	0.0		True	0.0	None	0.0	None	0.0	None	0.0	None	0.0	None	0.0	None	0.0	None	0.0	None	1.7284999999999996e-06	12
2014-02-09 21:24:00	10.001977982927816	65466138.491	4.904171983542631e+20	253571434019.89084	0.17059948805084765	19108797304.13736	1.5215906043580773e+20	-5.331917199368905e+22	1300.2739185075945	-0.6132734606871529	22.323516085145073	3.873239436619718	28.55329520829584	113.52055468697942	115.07779988194395	46.11444642961098	-0.0006007024227142522	-2.483246456760308e+22	0.13144599341716148	-0.0031510235677703283	1.46543230429702e+22	0.28562130493263466	-0.1685530189338566	0.0	9.462436	24.220036	-26.681704	-16.519642	-24.728216	-13.07215	0.0		True	0.0	None	0.0	None	0.0	None	0.0	None	0.0	None	0.0	None	0.0	None	0.0	None	1.6592e-06	12
2014-02-09 21:36:00	10.703716217950797	67665923.91710001	6.055691666353935e+20	266960410624.3393	0.025351208515292385	72346984631.4655	1.5332114430534215e+20	-5.127050736408969e+22	1572.3644019178707	-0.5705386176031179	24.364301471061893	6.551724137931035	29.874638673496122	116.57680038588038	116.65208365804286	48.31199720890224	8.741796039755992e-05	-2.776661281643994e+22	0.4873577263162684	-0.002610670270181635	1.6129033139241276e+22	0.30898709036198235	-0.1794840102749387	0.0	9.462265	24.109865	-26.685232	-16.412041000000002	-24.731709	-12.971186	0.0		True	0.0	None	0.0	None	0.0	None	0.0	None	0.0	None	0.0	None	0.0	None	0.0	None	1.6513999999999996e-06	12
2014-02-09 21:48:00	11.19440180995856	72928496.0117	5.97829749271208e+20	286109001960.3352	0.14402666544895346	19150783330.96414	1.6512682880281693e+20	-5.59672194069444e+22	1461.5523322503284	-0.5778618683859738	22.92421891734415	2.272727272727273	29.50083253033101	125.6724068166718	126.34933377690515	50.08188631512697	-0.0004676190436654332	-2.818056254602603e+22	0.12146577963273968	-0.00660787319213981	1.787766001797355e+22	0.29096447344664444	-0.18458694446187854	0.0	9.462068	23.999718	-26.690279	-16.308687	-24.735756	-12.869831	0.0		True	0.0	None	0.0	None	0.0	None	0.0	None	0.0	None	0.0	None	0.0	None	0.0	None	1.5926e-06	12
2014-02-09 22:00:00	10.232905303999887	65362498.6179	4.919737980581363e+20	249597591456.8056	0.2437446509727372	30697150883.288006	1.423349084349148e+20	-4.9501863119369565e+22	1475.8958349985644	-0.5702697756553048	20.9290266787956	0.398406374501992	29.119327395281143	134.95110609618362	135.02600433183656	55.85596326792609	0.0009710942269830168	-2.611646173897381e+22	0.23891003817759576	0.0019366387828902122	1.6225247040650537e+22	0.3008660247975052	-0.1869175705066173	0.0	9.461899	23.889599	-26.694096	-16.200447	-24.739534	-12.761475	0.0		True	0.0	None	0.0	None	0.0	None	0.0	None	0.0	None	0.0	None	0.0	None	0.0	None	1.6508000000000001e-06	12
2014-02-09 22:12:00	8.683831644536625	65672077.42020001	4.9141783127321313e+20	216076186102.12885	0.8235011706642397	112966247603.60008	1.3857057593804015e+20	-4.615770533339515e+22	1486.0690563259607	-0.5292378335835832	21.34241699907991	2.409638554216868	30.99169604487959	129.84013434110628	127.8106898520378	56.706927573134	0.003307233617125461	-2.628786217523584e+22	0.8862390945283956	0.018169396435263042	1.8090844253867408e+22	0.3014129737749313	-0.20742710564703368	0.0	9.461809	23.779509	-26.698715000000004	-16.093548000000002	-24.744104	-12.650669	0.0		True	0.0	None	0.0	None	0.0	None	0.0	None	0.0	None	0.0	None	0.0	None	0.0	None	1.5129e-06	12
2014-02-09 22:24:00	9.149103087059057	62130917.19860001	4.563145422168596e+20	215969444263.3725	0.22085903252086392	66000151667.02847	1.3095286013458693e+20	-4.728128495486254e+22	1507.0129321770032	-0.5730190002474682	20.97619820268204	1.3157894736842104	29.674405823482427	134.87395812424455	131.94934258298005	58.39233854077137	-0.0009686799671967716	-2.437834902888137e+22	0.5654611238791777	-0.00451963567234165	1.6074700071239856e+22	0.2954500327465572	-0.19481510650341308	0.0	9.461747	23.669447	-26.70315900000001	-15.968664000000002	-24.748501	-12.546329	0.0		True	0.0	None	0.0	None	0.0	None	0.0	None	0.0	None	0.0	None	0.0	None	0.0	None	1.6605e-06	11
2014-02-09 22:36:00	9.220563909085437	62533378.1111	4.626860129428241e+20	215317666649.5596	1.6960275200881136	199344554264.904	1.3033860708817748e+20	-4.923035394044206e+22	1612.9472218291714	-0.5928005595162292	20.778978789387327	1.3888888888888888	28.723578451999412	136.27047509933686	134.85724447403302	55.64621644144845	0.007851979259667194	-2.383574131923738e+22	1.8027431832941647	0.03405568347509779	1.6331851663329741e+22	0.2870148121953792	-0.19665775337854485	0.0	9.461718	23.559418	-26.706888	-15.866109	-24.752186	-12.445662	0.0		True	0.0	None	0.0	None	0.0	None	0.0	None	0.0	None	0.0	None	0.0	None	0.0	None	1.5849e-06	12
2014-02-09 22:48:00	8.666580616137516	58818197.31990001	3.9846892339010975e+20	212126681015.0238	0.3788145613956634	50382404619.20178	1.2527785036578516e+20	-4.585837750657367e+22	1408.647467541534	-0.5870761547229055	20.442439515991946	0.4694835680751174	28.76514863031804	122.57608252328531	123.93593653063557	50.835999417382915	0.0017784721192284664	-2.3445503585591797e+22	0.4620325272651618	0.010596012233950569	1.4065843135340723e+22	0.30014790838594874	-0.1800700667974502	0.0	9.461667	23.449417	-26.7083	-15.75766	-24.75449	-12.34353	0.0		True	0.0	None	0.0	None	0.0	None	0.0	None	0.0	None	0.0	None	0.0	None	0.0	None	1.5492e-06	12
2014-02-09 23:00:00	9.127048177453982	63614756.758	4.979230031269488e+20	231901264777.78995	0.4257636507487714	99601744064.63266	1.3834113371469383e+20	-4.958349622397163e+22	1511.8127638839178	-0.5869036002893272	23.48067679796081	4.435483870967742	30.048093300170336	118.47412193457878	117.79428812960234	48.5825561238286	0.0017167889143095622	-2.281132574793954e+22	0.784473404531507	0.008435098539497794	1.6622872544464012e+22	0.2700101894461762	-0.19675949633377987	0.0	9.461649	23.339449	-26.712868	-15.655615	-24.758991	-12.225884	0.0		True	0.0	None	0.0	None	0.0	None	0.0	None	0.0	None	0.0	None	0.0	None	0.0	None	1.5913e-06	12
2014-02-09 23:12:00	9.443969313803484	68423605.58579999	5.078056123206632e+20	235830894445.7373	0.7939492377577015	83240981791.03325	1.4499318623662971e+20	-5.263521101610416e+22	1517.3454146060744	-0.5792391581572136	22.164645274782792	1.984126984126984	29.8096371433255	128.77611414811034	127.70981320504481	55.080281477843286	0.0031505922133242127	-2.472580208303337e+22	0.6451918598863886	0.01469497569469454	1.6990155230941886e+22	0.2721021253046018	-0.18697299816885152	0.0	9.461716	23.229515	-26.691092	-15.554529	-24.763382	-12.116808	0.0		True	0.0	None	0.0	None	0.0	None	0.0	None	0.0	None	0.0	None	0.0	None	0.0	None	2.6764e-06	12
2014-02-09 23:24:00	9.862160105389126	73030463.70289999	5.502844137701431e+20	238263115683.7357	1.072757318689141	40416908756.13978	1.5206604404254006e+20	-5.466467639524685e+22	1587.5748294194766	-0.5636249675115441	22.31057127646429	1.9157088122605364	30.47231286025444	128.48506433586456	126.7836940233461	54.928748178770725	-0.004110181297659544	-2.66867505099553e+22	-0.3024570373247728	-0.018788617585495385	1.936373100182438e+22	0.2751560949598907	-0.1996514564157288	0.0	9.461811	23.119612	-26.692553000000004	-15.453009	-24.766605	-12.013877	0.0		True	0.0	None	0.0	None	0.0	None	0.0	None	0.0	None	0.0	None	0.0	None	0.0	None	4.6342000000000005e-06	11
2014-02-09 23:36:00	8.882067984966179	66930972.80050001	5.176166862675644e+20	207324561465.2133	0.17262555450738734	3971249439.1752014	1.377889203613605e+20	-4.988759636866889e+22	1672.7842349429266	-0.56124569426577	22.76014504115444	1.7167381974248928	30.722524375613947	126.31939279138227	124.13831091351841	56.711863213355855	-0.0007408822081862119	-2.3576707703476404e+22	0.03328901630980943	-0.003303974535023622	1.7576773705164523e+22	0.26524279874604445	-0.19774231029705167	0.0	9.461893	23.009743	-26.694891	-15.351159	-24.769802	-11.913812	0.0		True	0.0	None	0.0	None	0.0	None	0.0	None	0.0	None	0.0	None	0.0	None	0.0	None	5.2176e-06	12
2014-02-09 23:48:00	10.747156590757776	68593720.8857	5.639027222512145e+20	268995335767.5667	0.7511718064412566	8562681531.633228	1.4659587778328543e+20	-5.17125959144326e+22	1596.2833826695417	-0.567674538577448	24.29986811637593	7.894736842105262	31.819950437140196	127.87399644951742	126.2775004784494	52.111539645090005	-0.002823954159553596	-2.389495916140102e+22	-0.06287035825703922	-0.013971048755449866	1.7573883916056076e+22	0.262306690979509	-0.19291714652206185	0.0	9.462008	22.899908	-26.697805	-15.248249	-24.773567	-11.809571	0.0		True	0.0	None	0.0	None	0.0	None	0.0	None	0.0	None	0.0	None	0.0	None	0.0	None	3.6266e-06	12
2014-02-10 00:00:00	9.368165780716378	62988680.2656	5.016137531685919e+20	227941623257.0877	0.911602709428788	23408965633.89594	1.317719944415004e+20	-4.390869646963696e+22	1593.7073409575257	-0.5248987261867831	23.92274461430405	4.641350210970463	32.50694977698617	119.845989736277	118.89133533307495	53.2922062831525	-0.003846424934298684	-2.403368042504933e+22	-0.19290328050223585	-0.0189815683099486	1.7005135134960696e+22	0.2873063710605053	-0.20328487267089165	0.0	9.462208	22.790108	-26.701658	-15.145567000000002	-24.77738	-11.70868	0.0		True	0.0	None	0.0	None	0.0	None	0.0	None	0.0	None	0.0	None	0.0	None	0.0	None	2.9520999999999997e-06	12
2014-02-10 00:12:00	10.004556554280253	65647800.94540001	5.5285856304834144e+20	256656871042.4237	0.39669502829946107	41751917329.21611	1.4279130889835744e+20	-4.751916305175103e+22	1576.87633405384	-0.5450497209336792	24.68986087389803	4.545454545454546	31.61104722052961	119.37146243144777	119.427488760136	52.718425296960284	-0.0015026326829525039	-2.5664823827018814e+22	0.3088630204092684	-0.007822113449638159	1.5725833663227909e+22	0.2943781869536353	-0.1803769405672641	0.0	9.46244	22.68034	-26.705006	-15.043418	-24.781546	-11.605222	0.0		True	0.0	None	0.0	None	0.0	None	0.0	None	0.0	None	0.0	None	0.0	None	0.0	None	2.9316000000000013e-06	12
2014-02-10 00:24:00	8.437675581642292	58970293.946	4.5552744289862805e+20	194891016913.5537	0.5669522129418603	16734907687.31622	1.2256777462946084e+20	-4.38458565810769e+22	1681.4033157399579	-0.5598643155761216	22.66667367334853	1.4705882352941175	29.815633950191746	113.34092775674677	116.068897229223	48.918366747755	-0.002779177514420884	-2.298489206452672e+22	0.1602042300776021	-0.012326969881312695	1.3455403143806864e+22	0.293492290212231	-0.17181099103351585	0.0	9.462708	22.570608	-26.68292000000001	-14.942226000000002	-24.760582	-11.484382	0.0		True	0.0	None	0.0	None	0.0	None	0.0	None	0.0	None	0.0	None	0.0	None	0.0	None	2.9122000000000007e-06	12
2014-02-10 00:36:00	9.475085966360265	66588743.2449	5.765714562114028e+20	233348646869.8336	1.6381257554946955	96852645942.9972	1.407498175445877e+20	-4.697758947625487e+22	1716.0112266111921	-0.5312236697245258	24.81061429981544	5.928853754940711	31.732629822371177	108.27692365844536	110.15363750176157	47.5734684702784	-0.006474805357686544	-2.5218482064001904e+22	-0.7475822570270284	-0.032132001758444835	1.5075323254350354e+22	0.28517117920008755	-0.17047210448095382	0.0	9.462961	22.460911	-26.686014	-14.841172	-24.764465	-11.381969	0.0		True	0.0	None	0.0	None	0.0	None	0.0	None	0.0	None	0.0	None	0.0	None	0.0	None	2.7086e-06	12
2014-02-10 00:48:00	11.107336355231777	75824763.5269	6.623842414875089e+20	277111660555.9037	0.13240362897526847	41981486919.44664	1.6160406902356083e+20	-5.5037493397902756e+22	1696.485547745591	-0.5465565266022576	25.136028521644484	6.122448979591836	32.182216375030535	115.62011771035635	117.11343793557886	48.969569136908795	-0.0004503524795077159	-2.9036146974210786e+22	0.2788467136436775	-0.002258151219828422	1.467240150482884e+22	0.28834699141189496	-0.14570606886865542	0.0	9.463245	22.351246	-26.687872	-14.738334	-24.767939	-11.280865	0.0		True	0.0	None	0.0	None	0.0	None	0.0	None	0.0	None	0.0	None	0.0	None	0.0	None	2.4951e-06	12
