Timestamp	TOTUSJH	TOTBSQ	TOTPOT	TOTUSJZ	ABSNJZH	SAVNCPP	USFLUX	TOTFZ	MEANPOT	EPSZ	MEANSHR	SHRGT45	MEANGAM	MEANGBT	MEANGBZ	MEANGBH	MEANJZH	TOTFY	MEANJZD	MEANALP	TOTFX	EPSY	EPSX	R_VALUE	CRVAL1	CRLN_OBS	LAT_MIN	LON_MIN	LAT_MAX	LON_MAX	QUALITY	NOAA_AR	IS_TMFI	BFLARE	BFLARE_label	CFLARE	CFLARE_label	MFLARE	MFLARE_label	XFLARE	XFLARE_label	BFLARE_loc	BFLARE_label_loc	CFLARE_loc	CFLARE_label_loc	MFLARE_loc	MFLARE_label_loc	XFLARE_loc	XFLARE_label_loc	XR_MAX	XR_QUAL
2014-03-23 06:00:00	27.946287277426855	191921730.0972	1.4559005562543009e+21	615476478364.3479	2.0612608215751336	181313252120.02484	3.8638806815563153e+20	-1.5668038696822336e+23	1756.8496531653839	-0.6147208737606166	21.968482116798285	4.006410256410256	28.1787805851021	140.2367906896493	138.9045517906862	55.66097762214442	-0.0033033025986780986	7.011122037915921e+22	-0.5558152424466469	-0.013302747104419676	-3.7067185180450186e+22	-0.2750748289933752	0.14542964121344798	0.0	215.468796	199.356247	13.940619	13.629597	16.191605	18.072216	66560.0		False	0.0	None	0.0	None	0.0	None	0.0	None	0.0	None	0.0	None	0.0	None	0.0	None	1.8840999999999999e-06	12
2014-03-23 06:12:00	23.457740857941307	176194313.16680002	1.2859279668255617e+21	541237610507.5039	1.092871045658859	43051466638.991035	3.630245685067287e+20	-1.4470859547617645e+23	1621.9213980983222	-0.6184291246644606	21.560813980561328	1.507537688442211	27.835058111093034	133.19303473011144	132.10797970190947	52.1529499976513	-0.0018306047665977536	6.382816686155125e+22	0.13794147785681454	-0.0076650208998947904	-3.54031980691446e+22	-0.27277714382643425	0.15129971181171553	0.0	215.471603	199.246857	13.945023	13.726535	16.18696	18.196552	66560.0		False	0.0	None	0.0	None	0.0	None	0.0	None	0.0	None	0.0	None	0.0	None	0.0	None	1.3821e-06	12
2014-03-23 06:24:00	24.15057686126489	178554143.1879	1.2843806566304671e+21	538606616120.562	2.039661378690037	116628350965.20775	3.718303001762611e+20	-1.4857670086510568e+23	1559.8740245463214	-0.6265680390634669	21.491877361303573	3.3870967741935485	27.840203585675866	126.62343794319507	126.33210762007558	50.50805610491717	-0.0032897764172419948	6.348335495414852e+22	0.35982394820072383	-0.014045781291459744	-3.318107177143494e+22	-0.267717892476994	0.13992906662214682	0.0	215.474442	199.137497	13.944998000000002	13.852659	16.191523	18.298038	0.0		True	0.0	None	0.0	None	0.0	None	0.0	None	0.0	None	0.0	None	0.0	None	0.0	None	1.2422e-06	12
2014-03-23 06:36:00	23.94680150869637	178817846.1163	1.2964132522160116e+21	534000728053.7663	1.5906671092246287	209011542851.0396	3.729352211476615e+20	-1.529941339045735e+23	1587.2881456211053	-0.6442454303088646	21.68989696288572	2.7642276422764227	27.25155943827577	129.08394493822942	128.94154210261507	48.15570709566217	-0.0025864505841050873	6.290859013767543e+22	0.6500844834689654	-0.01082011293606864	-3.254636937212224e+22	-0.264902782146206	0.13705002411538436	0.0	215.477325	199.028122	13.94899	13.951779	16.195667	18.424541	0.0		True	0.0	None	0.0	None	0.0	None	0.0	None	0.0	None	0.0	None	0.0	None	0.0	None	1.1995000000000001e-06	12
2014-03-23 06:48:00	27.528980482115983	181229770.5675	1.4109085157380637e+21	645954951217.9495	2.160379547449507	124343501422.6449	3.8411123998233376e+20	-1.5001341942079206e+23	1617.0406333628187	-0.6232869267724871	22.775362896119102	4.71841704718417	28.317581057255694	132.32463927745172	130.9564999256749	52.056970702278136	-0.0032882489306689604	6.50415776550256e+22	0.3620179546342359	-0.01468707190455822	-3.483266024872385e+22	-0.2702395906016933	0.14472533085082198	0.0	215.480209	198.918762	13.934684	14.079257	16.200045000000006	18.527462	0.0		True	0.0	None	0.0	None	0.0	None	0.0	None	0.0	None	0.0	None	0.0	None	0.0	None	1.1219e-06	12
2014-03-23 07:00:00	27.65273736797323	179997285.9221	1.3241623584163273e+21	641066094741.0121	1.0893942480061662	249929965163.76114	3.8122072685669456e+20	-1.519608004887946e+23	1531.6085114163184	-0.6357013555538895	22.47209115582994	3.2258064516129035	28.18723481276245	125.46920128541555	125.123328136683	49.343918728834154	-0.001673416663603942	6.26079585783363e+22	0.7343586000690903	-0.007400228047407389	-3.4555978950232127e+22	-0.261909413537506	0.14455887696362898	0.0	215.483063	198.809418	13.936566	14.17847	16.204309	18.629915	0.0		True	0.0	None	0.0	None	0.0	None	0.0	None	0.0	None	0.0	None	0.0	None	0.0	None	1.1084e-06	12
2014-03-23 07:12:00	25.78288999771739	181855466.157	1.2408462329675312e+21	600820216218.1448	3.677491841975893	174466758226.53632	3.822934478106319e+20	-1.539695733069607e+23	1430.843942039709	-0.6375232540489536	21.194285586127624	2.7565084226646253	28.071971558834747	125.85065476408691	127.18503345078496	47.67064945934648	-0.005631687353714997	6.175418068519512e+22	0.4893408690524113	-0.02469834644174937	-3.4564336263441297e+22	-0.2556980926553805	0.1431163810838148	0.0	215.485931	198.700073	13.940025	14.305095	16.207836	18.759062	0.0		True	0.0	None	0.0	None	0.0	None	0.0	None	0.0	None	0.0	None	0.0	None	0.0	None	1.147e-06	12
2014-03-23 07:24:00	31.692924312332835	186529293.5795	1.3610432465755505e+21	743336739815.6431	2.2425300757314917	84811250037.43918	3.902047445025703e+20	-1.5579921503551984e+23	1513.807683201558	-0.6289348622708405	22.60082713033421	4.579025110782865	28.8659270009124	124.48594521026848	125.44355182186376	48.78450242646455	-0.003312452105954936	6.236213639065564e+22	0.23962621001489545	-0.014761058736683671	-3.4325132305380936e+22	-0.2517453098388873	0.13856470556665731	0.0	215.488785	198.590729	13.943746	14.404437	16.215179	18.86175	0.0		True	0.0	None	0.0	None	0.0	None	0.0	None	0.0	None	0.0	None	0.0	None	0.0	None	1.1364e-06	12
2014-03-23 07:36:00	27.048090488629327	179278829.99190003	1.2794856970051107e+21	599795258518.1418	4.915703124745747	235508672976.65198	3.6015395477655565e+20	-1.485551735099262e+23	1621.946075473261	-0.6239448328291408	22.341037289597143	3.1986531986531985	28.953972369498768	125.59195268503227	127.65663536164007	48.5638292686122	-0.008275594486103951	5.954812775310705e+22	0.5911931013326868	-0.033768779266191686	-3.274465070591553e+22	-0.25010738931766713	0.13753042137833002	0.0	215.491638	198.481384	13.948731	14.530778	16.219082	18.987682	0.0		True	0.0	None	0.0	None	0.0	None	0.0	None	0.0	None	0.0	None	0.0	None	0.0	None	1.0978e-06	12
2014-03-23 07:48:00	29.352414626290784	179890228.0746	1.2992085348981416e+21	673252250425.0421	3.2853541248501825	160015422858.72678	3.649733795910188e+20	-1.5112518319368755e+23	1606.3827599934298	-0.6325818546175249	23.240445876854825	5.41871921182266	28.561499915263305	127.285573423359	127.29653001906964	50.05752514148373	-0.005394670155747426	5.85618519889836e+22	0.5025918607486022	-0.02237327942140393	-2.954130257697089e+22	-0.2451289994040887	0.12365438755503375	0.0	215.494492	198.37204	13.953214	14.631872	16.218851	19.089788	0.0		True	0.0	None	0.0	None	0.0	None	0.0	None	0.0	None	0.0	None	0.0	None	0.0	None	1.1234000000000001e-06	12
2014-03-23 08:00:00	31.408332313130234	174478522.5513	1.1804081143855396e+21	674811320809.1383	6.921252162445947	226553723005.32602	3.4531238580722185e+20	-1.439555354477581e+23	1570.3742699688235	-0.6212605974195439	22.31461313935697	4.593639575971731	28.985411872507743	125.225162348243	126.6633359537729	49.503036465087526	-0.012228360711035243	5.623036732828333e+22	0.1869454818026363	-0.04893503067845028	-3.047070169336966e+22	-0.2426701515216637	0.13150064899508773	0.0	215.497345	198.262695	13.955965	14.755415	16.220432000000002	19.212128	0.0		True	0.0	None	0.0	None	0.0	None	0.0	None	0.0	None	0.0	None	0.0	None	0.0	None	1.1862e-06	12
2014-03-23 08:12:00	27.80672579963705	175983321.2675	1.104141359033556e+21	569819057841.7029	5.661140897151365	276741833236.5266	3.377352226608248e+20	-1.489420080590293e+23	1580.6160645209168	-0.6372842021388292	21.078459634993514	2.8517110266159698	28.30106244193656	132.3172767171608	135.10665572847043	52.805004700643714	-0.010762625279755448	5.4411002058330205e+22	0.05118095204554249	-0.03929509820420163	-2.687626636123457e+22	-0.2328105581910412	0.11499656938760927	0.0	215.500198	198.153351	13.959787	14.87965	16.207401	19.317394	0.0		True	0.0	None	0.0	None	0.0	None	0.0	None	0.0	None	0.0	None	0.0	None	0.0	None	1.1283e-06	12
2014-03-23 08:24:00	26.67385069043217	176591327.65430003	1.1002713994046424e+21	552251517899.112	3.543218443785482	36591619946.855705	3.3338078377458644e+20	-1.4910328966701382e+23	1627.6816771092804	-0.6357776938179452	21.289589339022893	2.554027504911592	28.316802194147893	132.5264247863021	135.9223903554198	53.35321062577003	-0.00696113643179859	5.681739294845443e+22	-0.0740147209696597	-0.024532074237334608	-2.8426234152540325e+22	-0.2422698462132449	0.12120970391593745	0.0	215.503036	198.043991	13.963679999999998	14.980985999999998	16.211439000000002	19.419773	0.0		True	0.0	None	0.0	None	0.0	None	0.0	None	0.0	None	0.0	None	0.0	None	0.0	None	1.1504e-06	12
2014-03-23 08:36:00	25.36451125762925	189782060.5733	1.1520817819389875e+21	524434607461.5082	5.060955480078969	231223400825.57684	3.462735150390859e+20	-1.5827727155650257e+23	1665.0715057557559	-0.6279870679055491	20.575122813955826	1.9193857965451049	28.9702511929207	142.29182434999163	144.00543829013702	59.573897323256205	-0.009713926065410692	6.0531816309378085e+22	-0.6204657403563486	-0.03276094376047525	-3.198284806807082e+22	-0.24016839224798944	0.12689639380324091	0.0	215.505936	197.934631	13.950689	15.106603	16.216279999999998	19.54496	0.0		True	0.0	None	0.0	None	0.0	None	0.0	None	0.0	None	0.0	None	0.0	None	0.0	None	9.9314e-07	1
2014-03-23 08:48:00	27.55795832716205	193353884.0669	1.2070914625446926e+21	566926929108.4677	5.130659986279123	136663529736.8598	3.546223794110209e+20	-1.569985354519134e+23	1664.6960393532067	-0.6114065841770051	21.189579038403803	2.564102564102564	29.40849311963835	139.62142287534843	140.5636074645777	59.08206586908226	-0.009396813161683377	6.403056923863957e+22	0.11903514321591165	-0.03293405419223608	-3.28668070179849e+22	-0.24935717717632194	0.1279947112489199	0.0	215.50882	197.825272	13.953517000000002	15.212076	16.214159	19.649044	0.0		True	0.0	None	0.0	None	0.0	None	0.0	None	0.0	None	0.0	None	0.0	None	0.0	None	-99999.0	0
2014-03-23 09:00:00	27.522394966098762	195329433.8514	1.3140704466476322e+21	597479310612.4257	4.563480785884225	150323530744.7483	3.5980894907486e+20	-1.5590117614120614e+23	1720.8311064601596	-0.6009926279206209	23.14391837071224	6.2608695652173925	30.50681745755195	134.510969851511	134.5308351974407	56.85885497876501	-0.007936488323276912	6.563844240476968e+22	0.011503110372441764	-0.02918563847666992	-3.679693228613695e+22	-0.2530334983344127	0.14185066194774826	0.0	215.511642	197.715897	13.957428	15.33604	16.214342000000002	19.753576	0.0		True	0.0	None	0.0	None	0.0	None	0.0	None	0.0	None	0.0	None	0.0	None	0.0	None	-99999.0	0
2014-03-23 09:12:00	24.91685123073213	188150624.4581	1.1173524118352614e+21	551087213459.3784	2.3956364676285387	108746510599.91216	3.413092595268814e+20	-1.5381559840980718e+23	1566.7628052476803	-0.6155765725385229	21.837405349200893	3.910614525139665	30.937085131763638	133.19571099411542	135.52829768190063	58.61792562736315	-0.004461147984410686	5.945327543799639e+22	0.3873789946765174	-0.015762231448761658	-3.5110527080882934e+22	-0.2379345391408437	0.14051382398089002	0.0	215.514465	197.606522	13.960339	15.440575	16.21604	19.874186	0.0		True	0.0	None	0.0	None	0.0	None	0.0	None	0.0	None	0.0	None	0.0	None	0.0	None	-99999.0	0
2014-03-23 09:24:00	26.595297006643342	200335017.7009	1.263656036124676e+21	604161048861.7585	5.067655286742939	300425469275.34045	3.7546556387992175e+20	-1.6083726292346087e+23	1524.86608643136	-0.6045291181420647	23.266437134647674	4.967948717948718	31.30995276982345	126.93643193773144	128.18569419931677	56.99388412839728	-0.008121242446703427	6.334661975602689e+22	0.3262305738191215	-0.03153062573990214	-3.9619368474146035e+22	-0.2380970397178132	0.148914881102017	0.0	215.517273	197.497116	13.963978	15.563745	16.217159	19.978676	0.0		True	0.0	None	0.0	None	0.0	None	0.0	None	0.0	None	0.0	None	0.0	None	0.0	None	-99999.0	0
2014-03-23 09:36:00	26.864879923108465	204760829.7688	1.2834286466468896e+21	584491989865.7412	5.321230958359508	347677621134.54724	3.753609082199128e+20	-1.650335661950201e+23	1629.6880907383304	-0.6068940226825311	22.40408188781505	4.8903878583473865	30.711116185675905	136.06251879672445	136.52028221361962	58.8384817124191	-0.008973408024215023	6.4610225067419e+22	-0.1502339356480807	-0.032345062054915615	-4.298108731748657e+22	-0.2375974797227211	0.1580585427727712	0.0	215.520065	197.387711	13.96894	15.665688	16.205914	20.081572	0.0		True	0.0	None	0.0	None	0.0	None	0.0	None	0.0	None	0.0	None	0.0	None	0.0	None	-99999.0	0
2014-03-23 09:48:00	26.063840585469023	196592413.0953	1.2422508057727124e+21	586594488635.7933	3.1226118201355866	254504265522.72784	3.660250972766146e+20	-1.5806633263253084e+23	1566.8318925790875	-0.6054246098937858	23.12544741167697	7.035175879396986	31.22070465864779	130.50456043604046	131.19628950524648	57.095260973511635	-0.005230505561366142	6.241233121056668e+22	0.02521261004816604	-0.01978751811256904	-3.88543351592673e+22	-0.2390512935070308	0.148819614618177	0.0	215.522842	197.27829	13.972314	15.789902	16.206764	20.204523	0.0		True	0.0	None	0.0	None	0.0	None	0.0	None	0.0	None	0.0	None	0.0	None	0.0	None	1.2800999999999998e-06	7
2014-03-23 10:00:00	25.626665811265553	203800560.66580003	1.1522833312289274e+21	601841456630.3999	0.9107474257874816	330087901246.9957	3.840786164911023e+20	-1.700704233349307e+23	1390.471719782175	-0.6283634114481119	21.62585704953085	3.685897435897436	29.726338129626146	130.64893778022122	131.38523992365046	56.5086139535672	0.001459531131069682	6.2227599764285616e+22	1.0119662605525324	0.005488722045083836	-3.873438479933352e+22	-0.22991385631532785	0.14311289226887028	0.0	215.525604	197.168854	13.976907	15.892693	16.207554000000002	20.308231	0.0		True	0.0	None	0.0	None	0.0	None	0.0	None	0.0	None	0.0	None	0.0	None	0.0	None	1.1876e-06	12
2014-03-23 10:12:00	25.85690722364703	197503755.57490003	1.1644932333417592e+21	563842770036.2416	2.5858312393354588	155328495897.60773	3.7589945619128025e+20	-1.6437991190861953e+23	1446.9442120552326	-0.6267016338601218	20.925442725457632	2.4752475247524752	29.451435404732088	134.78735226264254	135.2846224382867	55.68987092864121	-0.004267048249728482	6.231377320305813e+22	0.4903510719724753	-0.016097072956162438	-3.765518304916841e+22	-0.2375724808762222	0.14356112292683598	0.0	215.528351	197.059402	13.982323999999998	16.017529999999994	16.209156	20.408298	0.0		True	0.0	None	0.0	None	0.0	None	0.0	None	0.0	None	0.0	None	0.0	None	0.0	None	1.0866e-06	12
2014-03-23 10:24:00	26.198102590339126	189519756.0118	1.2401711509460552e+21	583326965559.4772	2.2254386792908143	138747579369.1274	3.64710104570204e+20	-1.5245361745838597e+23	1530.8730473420956	-0.6057182133669089	21.891583474086556	1.9672131147540983	30.57298989157777	135.7163014711854	134.81311841616778	58.53371318594555	-0.0036482601299849407	6.272762320893213e+22	0.4351431803332275	-0.01462587325465898	-3.6264956804710384e+22	-0.2492250724666359	0.14408542879983338	0.0	215.531082	196.949936	13.986063	16.121599	16.194592999999998	20.513968	0.0		True	0.0	None	0.0	None	0.0	None	0.0	None	0.0	None	0.0	None	0.0	None	0.0	None	9.459200000000001e-07	12
2014-03-23 10:36:00	25.45796150722633	186492977.7629	1.1340801202804056e+21	579979940686.4303	3.5985480625027177	158313662596.6862	3.6438283223585135e+20	-1.509861116360362e+23	1404.5187733269	-0.6096237913496227	21.106436818724234	1.4802631578947367	29.95629691158975	131.33851285527018	130.06735263230465	56.173995199615156	-0.005918664576484733	5.9794989167947685e+22	0.4981496666752381	-0.02397565259778857	-3.853643901380207e+22	-0.2414291460670592	0.1555953047743795	0.0	215.533844	196.840439	13.990287	16.245703	16.196262	20.636818	0.0		True	0.0	None	0.0	None	0.0	None	0.0	None	0.0	None	0.0	None	0.0	None	0.0	None	1.06e-06	12
2014-03-23 10:48:00	25.27645888288998	184773448.8818	1.1500078525847203e+21	570954026413.4344	2.863786992294041	324100393226.9644	3.601139431910948e+20	-1.5313017443006566e+23	1462.7377475748667	-0.6240344732741385	20.983657786564766	1.8581081081081081	29.64437273439733	131.48651715921116	131.43595343182136	55.00149903131916	-0.004837478027523718	6.071720762405583e+22	1.047397744941199	-0.01908692200542373	-3.799372979263083e+22	-0.2474341247201957	0.1548316473034018	0.0	215.536575	196.730927	13.994692	16.370775	16.195442	20.737181	0.0		True	0.0	None	0.0	None	0.0	None	0.0	None	0.0	None	0.0	None	0.0	None	0.0	None	1.1577e-06	12
2014-03-23 11:00:00	24.31599294344349	178556260.1173	1.0784601500972595e+21	525752699574.8849	2.577660426429845	228697942120.2747	3.4084293308228115e+20	-1.5123017478923062e+23	1515.0493448264845	-0.6377505451429811	20.70247141818711	1.8656716417910448	28.429102860610858	135.1781480398755	134.25101462161226	56.14387791168144	-0.004809067959757174	5.843610148388407e+22	0.8163200188326328	-0.01762921060659515	-3.803613794197264e+22	-0.24643002383166945	0.16040163771174915	0.0	215.539246	196.621399	13.999621	16.474524	16.196451	20.841818	0.0		True	0.0	None	0.0	None	0.0	None	0.0	None	0.0	None	0.0	None	0.0	None	0.0	None	1.5147e-06	12
2014-03-23 11:12:00	25.988715250018306	194851680.8543	1.23769975923102e+21	569082767118.3646	1.0632654409955398	194734419805.9204	3.7491197044247246e+20	-1.631755367490709e+23	1532.8482400263777	-0.6305772900864791	21.47476274734021	2.631578947368421	28.95579322154925	135.45503943378282	133.98987538473733	55.619923190843814	-0.001748791843742664	6.254818547447952e+22	0.6127897371359174	-0.006693082036318636	-4.202155583816425e+22	-0.2417118771729633	0.16238854998464194	0.0	215.541901	196.511856	14.003221	16.60154	16.179464000000007	20.941574	0.0		True	0.0	None	0.0	None	0.0	None	0.0	None	0.0	None	0.0	None	0.0	None	0.0	None	2.0537e-06	12
2014-03-23 11:24:00	25.504181471192666	184250788.9449	1.236213026965988e+21	539105332614.8524	2.544437778321244	271600452719.4783	3.430515559671525e+20	-1.4922279736223924e+23	1698.6351809773416	-0.609836168699945	22.31487002135381	2.9197080291970803	29.94577523114112	141.75435656282866	140.46258879689418	57.987249251083526	-0.004643134631973073	6.092414022450666e+22	0.9482696572675788	-0.01715658293648216	-4.115808675961899e+22	-0.24898168987986746	0.16820278391897675	0.0	215.544525	196.402283	14.008292	16.70702	16.181929	21.041914	0.0		True	0.0	None	0.0	None	0.0	None	0.0	None	0.0	None	0.0	None	0.0	None	0.0	None	2.3437e-06	12
2014-03-23 11:36:00	23.54363633777311	171639810.8844	1.0876687629036e+21	490908763177.01	0.8873899587360443	408850778247.6395	3.189725884904438e+20	-1.3788826821581891e+23	1634.731261646169	-0.6049183063183899	20.77413953699955	1.7964071856287425	29.09826765092496	142.67454053324232	142.15965474205998	57.764253305696926	-0.0017712374425869148	5.7222989999953645e+22	1.5614173215831515	-0.006442783646438041	-3.75008193942964e+22	-0.25103828368536263	0.1645167674311768	0.0	215.54715	196.292694	14.013114000000002	16.831877	16.180046	21.15542	0.0		True	0.0	None	0.0	None	0.0	None	0.0	None	0.0	None	0.0	None	0.0	None	0.0	None	1.5112e-06	12
2014-03-23 11:48:00	25.09319902863232	180341185.3056	1.193745814777771e+21	539229619150.7593	1.7983272359764877	422758920813.8416	3.466219788612203e+20	-1.490791248701532e+23	1574.2114818085474	-0.6224568302641308	21.7075664659795	3.6777583187390537	29.296320629871484	140.7144297675531	139.55108956658887	55.96883248118745	-0.003149434739013113	5.805016847782959e+22	1.4166368347703249	-0.01229222914673304	-3.887798004216681e+22	-0.24237950080858586	0.16232899304444665	0.0	215.549713	196.18306	14.016947	16.956743	16.182554	21.25898	0.0		True	0.0	None	0.0	None	0.0	None	0.0	None	0.0	None	0.0	None	0.0	None	0.0	None	1.2063e-06	12
2014-03-23 12:00:00	20.65145918677767	167802330.7322	1.0391610240719584e+21	466760006390.0997	2.297628967165207	338616598079.8282	3.2942896857890534e+20	-1.3652204068430528e+23	1397.275982784187	-0.6126213874303094	21.456015273680514	2.5	29.380801861673678	133.38214436647885	132.91241124827084	53.66313239289798	-0.0041029088699378715	5.340680144651767e+22	1.156997364316793	-0.01698163451008352	-3.981242165524693e+22	-0.2396547007090118	0.17865203940071026	0.0	215.552261	196.07341	14.021925	17.063053	16.182137	21.359957	0.0		True	0.0	None	0.0	None	0.0	None	0.0	None	0.0	None	0.0	None	0.0	None	0.0	None	1.056e-06	12
2014-03-23 12:12:00	23.054468593699003	172115096.8718	1.0656479209553666e+21	546282232858.9672	3.9505592646962833	375518880212.3948	3.484494003000413e+20	-1.4306036585964445e+23	1304.7460011823766	-0.6258751579719773	22.388270635540447	3.089430894308943	29.284312400481163	128.75821881102027	127.93759391644257	50.88888167963329	-0.006423673601132167	5.3762731872781536e+22	1.1683666942973798	-0.028234650477266213	-3.725397331197978e+22	-0.2352067122273039	0.16298250246748755	0.0	215.554794	195.963745	14.028761	17.189768	16.167316	21.46966	0.0		True	0.0	None	0.0	None	0.0	None	0.0	None	0.0	None	0.0	None	0.0	None	0.0	None	9.9188e-07	12
2014-03-23 12:24:00	20.61351613880225	157437196.12559998	9.794147146774365e+20	474084178062.1594	3.3446099049004903	229362846888.3621	3.1281390746739494e+20	-1.279967143984548e+23	1355.673710427254	-0.612179700320058	22.09097680854009	2.0220588235294117	29.005834143731903	127.3879101007048	127.00036231547907	50.057097384100025	-0.006148179972243548	5.198123510966456e+22	0.8067839509468226	-0.026354493387324963	-3.6650364752253583e+22	-0.2486146389089273	0.17529050972988314	0.0	215.55729700000003	195.85405	14.032982	17.313786	16.166054000000006	21.569109	0.0		True	0.0	None	0.0	None	0.0	None	0.0	None	0.0	None	0.0	None	0.0	None	0.0	None	9.8238e-07	12
2014-03-23 12:36:00	22.02191449011353	163957805.74270004	1.0176771511184394e+21	504040030836.8781	2.4472093058045545	306640641519.7659	3.2700021938002146e+20	-1.336420522470235e+23	1328.0722410224025	-0.6137599238649266	22.289276357292533	2.772963604852686	29.982292959674677	127.8534055938947	127.6820136507316	50.32639410173614	-0.004241263961533025	5.2287560183011965e+22	1.0169452047375662	-0.018498226278140448	-3.815650402076936e+22	-0.2401340627251775	0.17523625691898004	0.0	215.55983	195.744324	14.037619	17.421871	16.163792	21.671743	0.0		True	0.0	None	0.0	None	0.0	None	0.0	None	0.0	None	0.0	None	0.0	None	0.0	None	9.309100000000001e-07	12
2014-03-23 12:48:00	22.144993824782595	160205459.4287	1.0696639326234141e+21	500733083450.5897	2.8976900095706686	448659345941.2101	3.245689743591444e+20	-1.3039682243134244e+23	1383.9224681591488	-0.6128823142434701	23.339696904087553	3.7800687285223367	30.17441053343961	123.16652600226818	122.41368065986907	48.86913696820066	-0.0049788488136953074	5.042770463756716e+22	1.4751896192885876	-0.022428587707907715	-4.0706618793861036e+22	-0.2370168823441333	0.1913264929791084	0.0	215.562317	195.634567	14.04267	17.54693	16.148767000000007	21.769463	0.0		True	0.0	None	0.0	None	0.0	None	0.0	None	0.0	None	0.0	None	0.0	None	0.0	None	8.975299999999999e-07	12
2014-03-23 13:00:00	20.782287362667745	160161061.7328	1.0219072716055128e+21	465783991733.3206	2.7330253644917075	375554329047.4149	3.264340629960525e+20	-1.344022682910738e+23	1342.9018825011951	-0.6318835861954967	22.01298471279009	2.094240837696335	29.07719467104139	123.210419457876	122.46209747971146	48.97746864648895	-0.0047696777739820355	4.700937219890437e+22	1.254246321968655	-0.020913539674062044	-4.162239534940063e+22	-0.22101152806076094	0.19568500423272064	0.0	215.564728	195.52478	14.046855	17.674765	16.148771	21.870052	0.0		True	0.0	None	0.0	None	0.0	None	0.0	None	0.0	None	0.0	None	0.0	None	0.0	None	9.9151e-07	12
2014-03-23 13:12:00	20.88573510131173	151749917.62090003	9.968311868013766e+20	483353137184.2314	3.1307830254450737	316353299836.1401	3.17971477415377e+20	-1.2812030088262752e+23	1347.5777995806575	-0.6357361564525362	21.45061725239064	2.154398563734291	28.100357529894037	127.52786830053478	125.78940964146356	51.32657848665927	-0.005620795377818804	4.500890910199573e+22	1.0869069765693518	-0.02522558511958343	-4.077658771796327e+22	-0.22333533937637068	0.2023344541847132	0.0	215.567123	195.414978	14.051008	17.80084	16.143059	21.971748	0.0		True	0.0	None	0.0	None	0.0	None	0.0	None	0.0	None	0.0	None	0.0	None	0.0	None	1.1585e-06	12
2014-03-23 13:24:00	23.3927665284941	153789035.17790002	1.1627991608620408e+21	566186167083.6733	2.3454078060642907	325440907023.6749	3.3040772839818985e+20	-1.276930665236373e+23	1423.6949441749066	-0.6252148620444511	23.64630810584254	3.089430894308943	29.359120983121	124.15018237572257	121.54831216375557	49.978193026075935	-0.0038136712293728304	4.751360138167868e+22	1.012704126199448	-0.01876774977314816	-4.380381791951651e+22	-0.2326376094005257	0.2144736493778321	0.0	215.569489	195.30513	14.057051	17.907992999999994	16.130693	22.07325	0.0		True	0.0	None	0.0	None	0.0	None	0.0	None	0.0	None	0.0	None	0.0	None	0.0	None	1.1037000000000001e-06	12
2014-03-23 13:36:00	22.21519361476959	146005799.0871	1.0724413809509064e+21	542008785051.481	2.441211522327352	293806189100.5763	3.16051619945851e+20	-1.2236202718710989e+23	1414.2456121885998	-0.6310502496420402	22.668880262101602	2.4518388791593697	28.54704613636456	128.3106434611664	126.22642625482356	51.01088084183503	-0.004275326659067168	4.599997472466191e+22	0.9847380905829084	-0.02050208171792684	-4.030256631490287e+22	-0.23723287527050216	0.20784997698136806	0.0	215.571823	195.195267	14.061391	18.03702	16.123596	22.175074	0.0		True	0.0	None	0.0	None	0.0	None	0.0	None	0.0	None	0.0	None	0.0	None	0.0	None	9.4864e-07	12
2014-03-23 13:48:00	18.50790137593175	128573633.7613	9.196690613801324e+20	446791097275.7319	2.4880222092135407	308416389273.7601	2.7524215768174893e+20	-1.0352168917208924e+23	1376.7370283802973	-0.6062710535879923	22.53355444641561	1.9880715705765408	29.232878761768745	124.63102812994933	120.70595309169512	53.188932890379895	-0.004946366221100479	4.095941918903326e+22	1.1734796275153858	-0.02409425471350009	-3.804912064145048e+22	-0.2398773670009104	0.2228333081103573	0.0	215.574127	195.085373	14.064754999999998	18.168026	16.108767999999998	22.288364	0.0		True	0.0	None	0.0	None	0.0	None	0.0	None	0.0	None	0.0	None	0.0	None	0.0	None	8.232600000000002e-07	12
2014-03-23 14:00:00	20.998152631103533	134347557.48620003	9.327394577603746e+20	498305301568.3317	1.88673040094722	192263683225.8241	2.916953471920092e+20	-1.1193242220702414e+23	1335.2484866920474	-0.6273553649046242	21.824127772016272	2.6615969581749046	28.514082410434337	126.32284849147014	123.82076518314895	50.47701822593385	-0.0035869399257551712	4.1893181754088006e+22	0.6995643684081306	-0.01725947844443719	-3.80067176688716e+22	-0.2348016044693649	0.21301887122465665	0.0	215.576401	194.975449	14.069787	18.29911	16.10804	22.392811	0.0		True	0.0	None	0.0	None	0.0	None	0.0	None	0.0	None	0.0	None	0.0	None	0.0	None	8.7723e-07	12
2014-03-23 14:12:00	20.362913175441488	136581251.5117	1.0648125315871155e+21	476108540216.6464	3.773476617557456	129477566812.38084	2.9819053736883166e+20	-1.126873333459512e+23	1476.5927393184345	-0.6212571763221199	22.87083645248993	2.394106813996317	28.977266955152782	126.85015765274046	123.31217897874424	51.43448363801887	-0.0069493123711923685	4.24737804780129e+22	-0.04796197089353045	-0.034082281529987636	-4.012669230826363e+22	-0.2341624399477721	0.22122269485290005	0.0	215.57867400000003	194.865524	14.075014	18.429035	16.108936	22.492525	0.0		True	0.0	None	0.0	None	0.0	None	0.0	None	0.0	None	0.0	None	0.0	None	0.0	None	9.2693e-07	12
2014-03-23 14:24:00	20.53004187893053	128334702.468	1.0240208146098608e+21	500001991392.0267	1.9468713603673016	145951067065.40695	2.8234406175868043e+20	-1.0221956999773086e+23	1491.4395032804266	-0.5997597851928812	22.961355975668997	4.25531914893617	29.55310789484436	123.71633709078615	120.54332981967718	50.47349025617451	-0.003765708627402905	4.156083822683048e+22	0.5403213318260432	-0.018965677822242427	-3.881283786141499e+22	-0.2438527124298534	0.2277291843333437	0.0	215.580887	194.755539	14.080242000000002	18.560207	16.087436999999998	22.620096	0.0		True	0.0	None	0.0	None	0.0	None	0.0	None	0.0	None	0.0	None	0.0	None	0.0	None	1.2678e-06	12
2014-03-23 14:36:00	19.35862910548402	122930487.7489	9.520928051050131e+20	480946419992.0349	3.2892287773213944	154925517567.98853	2.8162297825366222e+20	-1.0018493949202067e+23	1357.7906554361155	-0.6136634964549308	22.511650703251338	0.946969696969697	28.40239468965457	116.56431697310984	113.93482415451395	46.07817490013233	-0.006229599957048096	3.7680359499148233e+22	0.4759332207672323	-0.033162823340408265	-3.797963500025086e+22	-0.2308037642700549	0.2326369185479449	0.0	215.58313	194.645538	14.085581	18.692333	16.086906	22.755852	0.0		True	0.0	None	0.0	None	0.0	None	0.0	None	0.0	None	0.0	None	0.0	None	0.0	None	1.2386e-06	12
2014-03-23 14:48:00	21.40451259759313	125234906.2684	1.0381769880209763e+21	516187361297.3389	2.2752850305798824	79770820744.85612	2.7874442103528525e+20	-1.0523653052126596e+23	1572.905016001435	-0.6327448434286467	23.253000250998287	1.2072434607645874	28.251380818133274	122.04340853896494	118.19006967054077	50.47294769593457	-0.004578038290905196	3.822895641707693e+22	0.3072142336627245	-0.022254717682538103	-3.6977965977819247e+22	-0.2298553071138716	0.22233360580256809	0.0	215.585358	194.535507	14.090689	18.823256	16.068359	22.890408	0.0		True	0.0	None	0.0	None	0.0	None	0.0	None	0.0	None	0.0	None	0.0	None	0.0	None	1.3259e-06	12
2014-03-23 15:00:00	21.88433382587613	124802927.2126	1.0645338703699005e+21	530513060021.4292	3.7299334546650345	153714547426.3818	2.781196332626408e+20	-9.891721061915795e+22	1565.5860491390933	-0.5968078255353629	23.829578270002326	2.1484375	29.36517409406065	125.74179966862805	121.67270402739271	51.20452628560567	-0.007285026278642645	4.0404453036129834e+22	0.3643631586995965	-0.03743291562370028	-3.843283669778486e+22	-0.2437765238981383	0.2318809593920991	0.0	215.587494	194.425446	14.092457	18.95467	16.06115	23.025423	0.0		True	0.0	None	0.0	None	0.0	None	0.0	None	0.0	None	0.0	None	0.0	None	0.0	None	1.1225e-06	12
2014-03-23 15:12:00	20.963339727966517	118272339.0938	9.801009111590112e+20	510765679038.1332	2.3291715482341284	150691324496.41333	2.6804638030307567e+20	-9.381475831415619e+22	1481.9343016340674	-0.5972765698391698	23.04207790104973	1.2048192771084338	28.50833911973302	120.0176080143065	116.10885418421431	48.662383503789606	-0.004677051301674957	3.7451015928322806e+22	0.5792011498589432	-0.02465858575786215	-3.871928383503851e+22	-0.2384338534002857	0.2465083474199112	0.0	215.5896	194.315353	14.098373	19.087118	16.045074	23.157909	0.0		True	0.0	None	0.0	None	0.0	None	0.0	None	0.0	None	0.0	None	0.0	None	0.0	None	9.517200000000002e-07	12
2014-03-23 15:24:00	18.897843778510925	113750929.4331	9.115998574132948e+20	451675535859.4929	2.9973205249767463	104501467175.52243	2.531599110858714e+20	-9.04128695523109e+22	1488.9864701233614	-0.5984980333698241	22.6555969362523	1.9522776572668112	28.342537298597325	116.80453578600508	113.23656746095604	48.80146122610133	-0.0065017798806437	3.5893087958285404e+22	0.4339100741537361	-0.032968267334348406	-3.6116234051065567e+22	-0.2375982828658585	0.23907542321484185	0.0	215.59169	194.205246	14.103863	19.21838	16.043028	23.266289	0.0		True	0.0	None	0.0	None	0.0	None	0.0	None	0.0	None	0.0	None	0.0	None	0.0	None	8.4036e-07	12
2014-03-23 15:36:00	19.55066880338951	112068906.2448	8.775612133245429e+20	502067221739.2539	1.9153259283352684	18217530455.185417	2.5629056896914863e+20	-8.838464641428968e+22	1362.4578553051515	-0.5938531867423132	23.10342124556136	1.2371134020618555	29.046670591633692	118.3185527777792	113.77678179355316	49.35655545549142	-0.003949125625433543	3.6888271828337836e+22	0.03761963164959281	-0.021445651045598608	-3.4698077989724406e+22	-0.24785094094276325	0.23313510913926944	0.0	215.59375	194.095108	14.109326	19.350336	16.028828	23.394522	0.0		True	0.0	None	0.0	None	0.0	None	0.0	None	0.0	None	0.0	None	0.0	None	0.0	None	1.0221e-06	12
2014-03-23 15:48:00	18.704927252682573	116273719.9623	9.435570165690064e+20	475300330232.4813	2.3983941899520183	127108861655.68648	2.613589844350552e+20	-9.24278053839422e+22	1492.6176372767582	-0.5985610426609362	23.28056632197558	1.8907563025210083	28.558451895060692	120.68322819880495	116.53624520118456	49.373964368821824	-0.0050386432562017185	3.623474429641751e+22	-0.09695469570661376	-0.02580713341963233	-3.668562361842236e+22	-0.2346556454145143	0.2375755329523868	0.0	215.595795	193.98494	14.099922	19.483685	16.028107000000002	23.501366	0.0		True	0.0	None	0.0	None	0.0	None	0.0	None	0.0	None	0.0	None	0.0	None	0.0	None	1.0992e-06	12
2014-03-23 16:00:00	16.888795961373248	111574035.9274	8.756691888909551e+20	419794376379.6776	2.4485629472566	178870662335.69147	2.440678106474348e+20	-8.989678254610605e+22	1536.9868934163599	-0.6066921738785702	22.97399178044498	2.331002331002331	28.46741916494821	122.19265536178871	119.407139715089	49.711342688608646	-0.005707605937661071	3.3065560005068645e+22	0.7981433599255012	-0.02731778280264157	-3.622340703137048e+22	-0.2231516625158277	0.2444632269890105	0.0	215.597809	193.874756	14.101698	19.615147	16.006718	23.606224	0.0		True	0.0	None	0.0	None	0.0	None	0.0	None	0.0	None	0.0	None	0.0	None	0.0	None	1.1162e-06	12
2014-03-23 16:12:00	15.606786522312653	100226585.3911	7.585757900631929e+20	385359287600.7853	3.0771878132504202	103044581901.22673	2.221250661574908e+20	-7.863329752685204e+22	1420.8897608839904	-0.5907599069473815	22.33876706907193	1.4925373134328357	29.178972242655234	116.01311247125335	113.95042150460456	49.0694378763945	-0.007654696052861741	3.044137478304617e+22	0.2153126499669068	-0.03860081090370902	-3.2294827053670728e+22	-0.2287013809644905	0.2426260836714026	0.0	215.599808	193.764557	14.105232999999998	19.748852	16.003847	23.736145	0.0		True	0.0	None	0.0	None	0.0	None	0.0	None	0.0	None	0.0	None	0.0	None	0.0	None	1.1198999999999999e-06	12
2014-03-23 16:24:00	15.720018274481394	104118605.5406	8.114517673319302e+20	365365460949.0592	4.011922653062624	210427526962.3994	2.2377039964612752e+20	-8.356116011855386e+22	1595.3331297881489	-0.6043152661996112	22.1781763373452	0.7832898172323759	28.055649039927875	123.0273143757197	120.2969235793836	51.0745419256528	-0.010474993872226172	2.9906987469756934e+22	-0.1847126267643517	-0.04803574028939525	-3.2613900395709358e+22	-0.21628767561834766	0.2358641008750729	0.0	215.601776	193.654327	14.108356	19.902563	16.006994	23.842834	0.0		True	0.0	None	0.0	None	0.0	None	0.0	None	0.0	None	0.0	None	0.0	None	0.0	None	1.0267e-06	12
2014-03-23 16:36:00	18.099395578990844	108572639.4791	9.253946947988352e+20	440487638778.9916	2.4733950451705318	157194750136.8945	2.358206956376762e+20	-8.42759888863626e+22	1651.2089628610377	-0.5844817350905028	24.519098226454282	3.080568720379147	29.016549935129515	119.98136195469898	118.00233241291674	48.3120390780871	-0.005861125699456236	3.258006328007809e+22	-0.713084717829624	-0.028755164000301738	-3.5885015511814573e+22	-0.225953467493276	0.2488743995442929	0.0	215.60376	193.544067	14.111085	20.033833	15.985014	23.947611	0.0		True	0.0	None	0.0	None	0.0	None	0.0	None	0.0	None	0.0	None	0.0	None	0.0	None	1.0217e-06	12
2014-03-23 16:48:00	18.843793265930987	109147647.2815	8.803296659625626e+20	451313360240.3714	3.9215255181440223	170304176566.46207	2.3511570099515444e+20	-8.710990628061299e+22	1608.923836544773	-0.6009530343840734	22.88198910411685	3.1553398058252418	28.477414800514737	128.01372155421936	126.202867002547	49.586552217021655	-0.009518265820737915	3.1234372552006084e+22	-0.09842608236695263	-0.04488405342849493	-3.5203224447493136e+22	-0.21547940714968	0.2428596867464765	0.0	215.605743	193.433792	14.114639000000002	20.165098	15.985413	24.074972	0.0		True	0.0	None	0.0	None	0.0	None	0.0	None	0.0	None	0.0	None	0.0	None	0.0	None	1.1041e-06	12
2014-03-23 17:00:00	18.91599643310516	110174614.38750002	9.689177110068611e+20	449561030985.9568	3.1024095994562058	223193875891.49512	2.351523174940794e+20	-8.76884076433794e+22	1788.1918713247808	-0.5993051772259373	24.053521784580198	4.65686274509804	28.39960213535209	127.23949327409063	126.317964995081	49.02580285241135	-0.007603945096706388	3.361944761622542e+22	0.08435434050619857	-0.03521407208414259	-3.568958488094145e+22	-0.2297716374759751	0.24391996122428905	0.0	215.607651	193.323502	14.096491	20.29751	15.986759	24.177006	0.0		True	0.0	None	0.0	None	0.0	None	0.0	None	0.0	None	0.0	None	0.0	None	0.0	None	1.0173e-06	12
2014-03-23 17:12:00	21.056086141484393	117807850.5932	1.0094104093868115e+21	507092758804.6141	3.0015911963649047	148114990453.941	2.5819708310711085e+20	-9.491673606630703e+22	1689.0506026985138	-0.6066748045424861	23.86676528426761	3.111111111111111	27.588747330305228	119.66691842822708	119.27397779862808	46.55072132465642	-0.006670202658588679	3.447131771960724e+22	-0.4087994468750189	-0.03171606673448054	-3.715926923015141e+22	-0.2203286881383628	0.237509140447004	0.0	215.60954300000003	193.213196	14.099757	20.432133	15.970868	24.28516	0.0		True	0.0	None	0.0	None	0.0	None	0.0	None	0.0	None	0.0	None	0.0	None	0.0	None	9.3453e-07	12
2014-03-23 17:24:00	21.702177000575762	126221246.9476	1.1377177668311245e+21	534152083105.1794	4.243466313066373	318017571844.9383	2.8530711141046583e+20	-1.0189436374570904e+23	1663.4692515862762	-0.6078622341502613	24.364690185921106	4.271844660194175	27.698288208252816	120.27514115279376	120.28958039914663	45.32659327991896	-0.00823974041372111	3.573263195604424e+22	-0.033265745981224434	-0.041818596560446564	-3.891805088581151e+22	-0.21316701625495707	0.23216998949286016	0.0	215.61142	193.102875	14.101978	20.564415	15.966024	24.409575	0.0		True	0.0	None	0.0	None	0.0	None	0.0	None	0.0	None	0.0	None	0.0	None	0.0	None	9.2964e-07	12
2014-03-23 17:36:00	20.96377997347171	124482639.4602	1.1073146168091747e+21	531222493876.9518	0.14872720729434669	110505622914.87338	2.8576219737693592e+20	-9.982175516192354e+22	1588.1781927928696	-0.6038150208923859	23.985455448271257	3.428571428571429	28.433673248689484	116.30506513681068	116.30863742094904	44.4330805526424	0.00028328991865589847	3.696387667566612e+22	0.4029549274922582	0.0014899008017223304	-3.7372809265981394e+22	-0.22359198083600207	0.2260655863157321	0.0	215.613281	192.992538	14.097251000000002	20.698208	15.952867	24.51687	0.0		True	0.0	None	0.0	None	0.0	None	0.0	None	0.0	None	0.0	None	0.0	None	0.0	None	9.2259e-07	12
2014-03-23 17:48:00	19.862436872699632	121341384.6573	1.0336267408610478e+21	493928691064.8751	1.6197242154393516	85810296108.63553	2.728327568751028e+20	-9.710371072269389e+22	1562.8661658357305	-0.6025793929746555	23.90316947416812	2.6104417670682727	28.850421872160936	115.66647911233947	115.7771929997316	42.894325046528394	-0.003252458263934441	3.648179992895061e+22	0.3298698830125444	-0.01665875612014761	-3.670231767680491e+22	-0.2263886796106984	0.2277571077547233	0.0	215.615128	192.882172	14.085342	20.832167	15.945735999999998	24.624296	0.0		True	0.0	None	0.0	None	0.0	None	0.0	None	0.0	None	0.0	None	0.0	None	0.0	None	8.693099999999998e-07	12
