Timestamp	TOTUSJH	TOTBSQ	TOTPOT	TOTUSJZ	ABSNJZH	SAVNCPP	USFLUX	TOTFZ	MEANPOT	EPSZ	MEANSHR	SHRGT45	MEANGAM	MEANGBT	MEANGBZ	MEANGBH	MEANJZH	TOTFY	MEANJZD	MEANALP	TOTFX	EPSY	EPSX	R_VALUE	CRVAL1	CRLN_OBS	LAT_MIN	LON_MIN	LAT_MAX	LON_MAX	QUALITY	NOAA_AR	IS_TMFI	BFLARE	BFLARE_label	CFLARE	CFLARE_label	MFLARE	MFLARE_label	XFLARE	XFLARE_label	BFLARE_loc	BFLARE_label_loc	CFLARE_loc	CFLARE_label_loc	MFLARE_loc	MFLARE_label_loc	XFLARE_loc	XFLARE_label_loc	XR_MAX	XR_QUAL
2014-02-07 16:12:00	8.956430103057938	69053171.2116	3.8188272584660274e+20	197074127411.95905	0.5896795141449366	28487917296.108673	1.4081945387351114e+20	-6.04240579574243e+22	1283.717680002803	-0.6588913214424084	17.976097807950907	0.8928571428571428	26.897833932391052	147.7781391256151	146.69355384784083	57.60610839440036	0.002632497831004181	-1.5661320463799584e+22	0.2486002766444604	0.010295429591852513	-2.1510281563137007e+22	0.1707781384559928	0.2345578619317505	0.0	74.339493	53.42264599999999	-24.022505	17.624249	-22.369675	21.386337	0.0		True	0.0	None	0.0	None	0.0	None	0.0	None	0.0	None	0.0	None	0.0	None	0.0	None	1.2311e-06	12
2014-02-07 16:24:00	10.350248097220703	69951508.1397	3.906525252989903e+20	230429514949.62146	1.3780862267176843	155665482036.7771	1.4052089919441466e+20	-5.960201841631479e+22	1295.8427311598082	-0.6415808656572659	18.73320831363594	0.8810572687224669	27.35004558571765	145.2372652510329	144.90406354764806	55.45370513715867	0.006070864434879668	-1.3864187532470202e+22	1.3404896113521665	0.024001977501354903	-2.3277095404440687e+22	0.14923986930419272	0.2505643167191788	0.0	74.339798	53.312344	-23.989462	17.728373	-22.36644200000001	21.488485	0.0		True	0.0	None	0.0	None	0.0	None	0.0	None	0.0	None	0.0	None	0.0	None	0.0	None	1.253e-06	12
2014-02-07 16:36:00	8.72516942829844	70631784.2204	3.651671266504584e+20	187350183822.65866	1.6221862203161008	119302207471.8752	1.4002346581756704e+20	-6.080780592091511e+22	1238.5860388061326	-0.6482561370745548	17.974741889037762	0.0	27.84476490945931	149.379288967707	149.89885376380425	57.2480851132604	0.007307145136559011	-1.33553253954888e+22	1.050509831696941	0.027868001492237667	-2.3700181554862045e+22	0.14237763588301788	0.2526614455174092	0.0	74.340073	53.202023	-23.919342	17.838501	-22.363533	21.597643	0.0		True	0.0	None	0.0	None	0.0	None	0.0	None	0.0	None	0.0	None	0.0	None	0.0	None	1.4053e-06	12
2014-02-07 16:48:00	11.950720123865011	82001676.1	4.815324037917077e+20	256133286287.1552	0.5997906148628225	69601614982.60173	1.5866269385491127e+20	-6.775430820095237e+22	1462.0469867156064	-0.6221594175219548	18.503362304340907	1.2096774193548387	28.271345975374288	157.7289117299351	157.30629743978696	62.85198009550001	0.0024185105438017033	-1.453573702269702e+22	0.5486299321472892	0.009018065804052785	-2.8370373284297135e+22	0.13347558139729296	0.2605132483249328	0.0	74.34033199999998	53.091686	-23.914799	17.962353	-22.359037	21.70282000000001	0.0		True	0.0	None	0.0	None	0.0	None	0.0	None	0.0	None	0.0	None	0.0	None	0.0	None	1.2254000000000002e-06	12
2014-02-07 17:00:00	12.170993496093937	85415705.132	4.6408964959417e+20	266062148382.758	0.23025974631243906	8286137008.000773	1.6955062767774014e+20	-7.171520931738728e+22	1313.7346706288754	-0.632209409463381	18.193657656049425	0.3759398496240601	27.805271446332466	151.01111213993775	152.51458016798932	58.19368904928847	0.0008656381440317257	-1.347807823160591e+22	-0.06089603778682224	0.0033031965012813892	-2.832514325878333e+22	0.11881674697195545	0.2497018730482802	0.0	74.340637	52.981335	-23.925154	18.067663	-22.356579	21.830105	0.0		True	0.0	None	0.0	None	0.0	None	0.0	None	0.0	None	0.0	None	0.0	None	0.0	None	1.045e-06	12
2014-02-07 17:12:00	12.629679817897372	80558268.978	4.6272955579544496e+20	268796944383.78284	0.41881399467774416	75792244695.14706	1.5981768928135945e+20	-6.908661733938137e+22	1404.9572217388557	-0.6457603049217298	18.647428742014338	0.8064516129032258	27.59392475678864	145.54358900082772	148.54097006008215	57.25624729012734	0.001688766107571549	-1.2411966809574377e+22	0.5974452048760887	0.006317925088275407	-2.5928845276207223e+22	0.1160160358156697	0.24235980391947	0.0	74.340874	52.870975	-23.924744	18.167656	-22.35358	21.937712	0.0		True	0.0	None	0.0	None	0.0	None	0.0	None	0.0	None	0.0	None	0.0	None	0.0	None	1.1152e-06	12
2014-02-07 17:24:00	11.442584780542893	85779766.04570001	4.676470661576327e+20	256599309038.2885	0.5337242765138404	86179333150.66115	1.7412203638359648e+20	-7.274973404186818e+22	1239.9020731392695	-0.6386075734353908	18.412361248327105	1.056338028169014	28.914476574631976	139.8423403925188	142.57174495120967	53.620742333105795	0.0018793108327952125	-1.2551257093681822e+22	0.5932196867681678	0.007594289305993467	-2.8473582416994478e+22	0.11017673042690418	0.2499451800588673	0.0	74.341103	52.76060500000001	-23.920963	18.298508	-22.349751	22.04142	0.0		True	0.0	None	0.0	None	0.0	None	0.0	None	0.0	None	0.0	None	0.0	None	0.0	None	1.1517e-06	12
2014-02-07 17:36:00	12.179510890589	85832627.7922	5.1343830507551687e+20	272685840428.1565	0.23640373686917185	87581218986.24086	1.7338083010461735e+20	-7.267282115958311e+22	1375.8448232259686	-0.6375395314923914	19.966299027070868	2.491103202846975	28.49384488637197	141.36702591026574	144.13880865714253	53.7127599990764	0.0008412944372568393	-1.3017121000169088e+22	0.6093133809867715	0.003363877183089757	-2.8777082322931803e+22	0.1141957762394259	0.2524537686736085	0.0	74.341324	52.650227	-23.932835	18.405579	-22.34618900000001	22.146479	0.0		True	0.0	None	0.0	None	0.0	None	0.0	None	0.0	None	0.0	None	0.0	None	0.0	None	1.4023e-06	12
2014-02-07 17:48:00	12.65853852322108	92967374.7858	5.2180690276764864e+20	271221640353.0117	1.2458635364382358	77833545988.3717	1.85317734719592e+20	-7.997215425019346e+22	1373.8245736153324	-0.6477325487564246	18.75435547672567	0.6993006993006993	27.23715851284336	142.19664326161654	145.23665322833315	53.32083524973532	-0.004356166211322503	-1.212786904275453e+22	-0.532036678024455	-0.016266090440113592	-3.0713740283829897e+22	0.09822938496156026	0.24876520411903105	0.0	74.341537	52.539841	-23.930738	18.508423	-22.344122	22.257179	0.0		True	0.0	None	0.0	None	0.0	None	0.0	None	0.0	None	0.0	None	0.0	None	0.0	None	1.3245e-06	12
2014-02-07 18:00:00	11.801569968406081	86211472.3721	5.477803334337934e+20	243686664337.9819	2.5908434176507997	163549103443.08267	1.6941166569020788e+20	-7.3162432597702675e+22	1611.2169078674995	-0.6390143553948686	19.418502471162533	0.390625	27.290819057379853	142.44968843902691	145.96571751818013	51.40940852418221	-0.010120482100198436	-1.0713758554616628e+22	-1.2489735502439625	-0.036671049756459996	-3.0108564238312288e+22	0.09357596888938843	0.2629738253018976	0.0	74.341751	52.429447	-23.940054	18.612915	-22.34289	22.359606	66560.0		False	0.0	None	0.0	None	0.0	None	0.0	None	0.0	None	0.0	None	0.0	None	0.0	None	1.1429e-06	12
2014-02-07 18:12:00	14.304349650812464	91073967.6794	5.525834086959172e+20	283214127349.05273	1.83101954338622	99036958079.43056	1.766509259306988e+20	-7.94894274760228e+22	1570.14373393749	-0.6572075666462753	19.481489417107856	0.37735849056603776	26.877149802197238	140.96256544097938	144.94131754746672	51.22884813574273	-0.006909507710891397	-9.879208205274009e+21	-0.7306342019588554	-0.024263408530521068	-3.1843926015627617e+22	0.0816799238733793	0.2632811657312212	0.0	74.341949	52.319054	-23.93763	18.723682	-22.339132	22.465662	66560.0		False	0.0	None	0.0	None	0.0	None	0.0	None	0.0	None	0.0	None	0.0	None	0.0	None	1.0286e-06	12
2014-02-07 18:24:00	13.793485994484165	94485194.9026	5.6793433629138125e+20	294494925405.1012	0.07627388112105038	51367790303.96111	1.84430894988862e+20	-8.097472290501024e+22	1500.516432974938	-0.645317135160211	20.0345156140187	2.8070175438596485	27.635700949940023	142.99220099138662	147.48124641616008	54.52826802326212	-0.00026762765305631713	-1.1321111206982802e+22	0.35236901207955457	-0.0009812788927737461	-3.199895118585038e+22	0.09022206916954162	0.25501132657913345	0.0	74.342163	52.20866	-23.934389000000003	18.846245	-22.33588	22.575485	0.0		True	0.0	None	0.0	None	0.0	None	0.0	None	0.0	None	0.0	None	0.0	None	0.0	None	9.746e-07	12
2014-02-07 18:36:00	12.462238778820375	96095792.7352	5.91641853523606e+20	281281709491.0206	0.8513801704411298	21050404476.108315	1.882361468237704e+20	-8.339420621923245e+22	1499.9953524614305	-0.65345995606734	21.061651789942815	4.377104377104377	27.733202698117946	137.47828836678468	139.24547257158727	54.15762439359218	-0.0028665999004751845	-1.1387053866451705e+22	-0.13856646329897193	-0.010716561758740528	-3.281812746965643e+22	0.08922662684439485	0.25715613957829503	0.0	74.342361	52.098263	-23.941891	18.958296	-22.348415	22.680807	0.0		True	0.0	None	0.0	None	0.0	None	0.0	None	0.0	None	0.0	None	0.0	None	0.0	None	1.3706e-06	12
2014-02-07 18:48:00	13.106418547631938	98713116.5271	6.102425986947575e+20	292426500209.4123	0.4789696603778527	10700236052.505377	1.9070653077895263e+20	-8.27060968299982e+22	1506.573050783544	-0.6308849615502011	21.017913704075106	5.245901639344262	28.759836596326927	146.4155684439138	147.54161902067463	57.08923390544562	-0.0015703923291077134	-1.3929568596281566e+22	-0.06858822475353754	-0.005950312964716607	-3.380151282096344e+22	0.10625523008708253	0.2578391065924108	0.0	74.342621	51.987873	-23.930424	19.084406	-22.347637	22.80106	0.0		True	0.0	None	0.0	None	0.0	None	0.0	None	0.0	None	0.0	None	0.0	None	0.0	None	1.3055e-06	12
2014-02-07 19:00:00	16.20891263547318	110867541.9256	6.34990013858538e+20	359427684952.5705	1.4260009308194923	120286270123.34618	2.1681510867580106e+20	-9.487937463345127e+22	1346.8713199765946	-0.6443991480837854	19.68071353738487	2.8169014084507045	28.571718168238867	145.5813776437769	147.01805031690432	56.053774578201256	0.004016904030477443	-1.3988875032134672e+22	0.6624377234100997	0.01564365187263371	-3.80330530534212e+22	0.0950092597910098	0.2583118520893916	0.0	74.342834	51.87748300000001	-23.952291	19.189447	-22.343763	22.909477	0.0		True	0.0	None	0.0	None	0.0	None	0.0	None	0.0	None	0.0	None	0.0	None	0.0	None	1.2265e-06	12
2014-02-07 19:12:00	17.19536977820863	114100701.9108	7.320254242196758e+20	398794595728.8925	0.2730687634705969	55456686728.00726	2.253975998258549e+20	-9.67399347021256e+22	1469.8819997218488	-0.6384178895178654	21.005202055176508	3.2	29.421884319016552	139.6095228158603	139.36391898748755	58.10174906120207	-0.0007281833692549253	-1.9246040239859386e+22	0.2891216776712525	-0.0029213865270443077	-3.690595214588021e+22	0.12701079889437808	0.24355422765343754	0.0	74.343056	51.767105	-23.948982	19.301104	-22.340372	23.01432	0.0		True	0.0	None	0.0	None	0.0	None	0.0	None	0.0	None	0.0	None	0.0	None	0.0	None	1.2305e-06	12
2014-02-07 19:24:00	15.48211810672775	106382200.8373	6.170049975349816e+20	343109595383.1233	1.1475548384103085	230651604573.67624	2.0583435460844565e+20	-9.198674120860214e+22	1407.8691590706396	-0.651094184421255	19.47400885312821	0.30303030303030304	28.789582083473807	142.3734493714017	142.51723755422591	58.20591085837189	0.0034774389042736627	-1.8920954951315927e+22	1.366471393476397	0.013066600875306934	-3.5644766031030348e+22	0.1339249936527408	0.2522983156369263	0.0	74.343277	51.656731	-23.946312	19.422743	-22.337608	23.130579	0.0		True	0.0	None	0.0	None	0.0	None	0.0	None	0.0	None	0.0	None	0.0	None	0.0	None	1.1445e-06	12
2014-02-07 19:36:00	13.499961894841693	106986365.1483	7.063833279402626e+20	314672880946.1102	0.4192144730767122	50925371390.12535	2.070340939471992e+20	-8.784893602076559e+22	1555.256025968254	-0.6182948535003211	21.87529918984776	2.9239766081871337	29.888295027726823	137.51452275170362	136.35670698270278	58.22825949430005	0.0012257733130898018	-2.320375173685786e+22	0.2911156170265807	0.0048426176207784005	-3.6993384427267673e+22	0.16331171361491598	0.2603653526268307	0.0	74.343521	51.546368	-23.943604	19.534147	-22.333448	23.234995	0.0		True	0.0	None	0.0	None	0.0	None	0.0	None	0.0	None	0.0	None	0.0	None	0.0	None	1.5734e-06	12
2014-02-07 19:48:00	12.819256468644856	105706615.4071	6.16526322181158e+20	301333084442.4424	1.4618029325022637	116484552824.2203	2.0210914684125105e+20	-9.01007919739062e+22	1394.1032021144476	-0.6418210783952798	20.716948778609726	0.6006006006006006	29.859722636740926	138.97127165203568	138.0087839891755	54.7661724775469	0.004389798596102894	-2.1609090319822507e+22	0.6838805547086605	0.016845768568071354	-3.508916770274476e+22	0.15392949771436068	0.2499530466001973	0.0	74.343765	51.436016	-23.939596	19.645315	-22.329353	23.344734	0.0		True	0.0	None	0.0	None	0.0	None	0.0	None	0.0	None	0.0	None	0.0	None	0.0	None	1.4792e-06	12
2014-02-07 20:00:00	14.118823783595712	105747005.2506	6.707320261813409e+20	331033632292.0229	1.6248777195015944	163887967891.51596	2.0773266712733e+20	-8.932901719326804e+22	1434.8082478122674	-0.6360803263070974	21.745447755788522	3.4090909090909087	29.75108446754633	140.90745663364842	139.50549585563795	54.6073839361881	0.0046161298849477115	-2.146420833796216e+22	0.9102457342422521	0.018783563178315803	-3.606298530230785e+22	0.15283903341280008	0.25679175904365314	0.0	74.344025	51.32568	-23.938343	19.76796	-22.327988	23.449934	0.0		True	0.0	None	0.0	None	0.0	None	0.0	None	0.0	None	0.0	None	0.0	None	0.0	None	1.2678e-06	12
2014-02-07 20:12:00	14.405035376589684	102718360.1583	6.636703411155079e+20	321581956551.979	1.4468415337616611	141305362524.63733	2.008191098512393e+20	-8.6476329544458e+22	1505.2266306174474	-0.6339233334094307	21.042353054743494	1.5060240963855422	29.320904979601146	138.9975232390215	136.3533518305097	56.33991228853453	0.0043579564269929545	-2.07845044447528e+22	0.8320940337437315	0.017241347719608006	-3.4707189277304077e+22	0.1523628767581663	0.2544245024718521	0.0	74.344307	51.215359	-23.935738	19.879004	-22.325279	23.55961	0.0		True	0.0	None	0.0	None	0.0	None	0.0	None	0.0	None	0.0	None	0.0	None	0.0	None	1.8927000000000001e-06	12
2014-02-07 20:24:00	13.550548066768869	99217305.209	5.988324059204063e+20	299818990469.31946	2.296837423284808	180044560683.75546	1.9350368813085065e+20	-8.483176872837167e+22	1431.4701735892893	-0.6438113930734505	20.369879564896	0.31746031746031744	28.37560995883253	134.61482247246468	133.58409162743746	53.253706309024594	0.007291547375507326	-1.9950912707209527e+22	1.1174245140362091	0.02816571872807584	-3.410424957772754e+22	0.15141290928689002	0.25882643683483714	0.0	74.34465	51.105049	-23.932562	20.005785	-22.323439	23.664265	0.0		True	0.0	None	0.0	None	0.0	None	0.0	None	0.0	None	0.0	None	0.0	None	0.0	None	1.2025e-06	12
2014-02-07 20:36:00	12.657033915301435	100011028.2148	6.123013950725449e+20	271440145985.8793	1.6949189471362358	108586706228.38222	1.900377907799629e+20	-8.265657915840782e+22	1511.6558550456016	-0.6223247254405251	20.460952943496512	0.3278688524590164	29.219304419652577	135.1735479920842	134.93053632130508	53.377472960735176	0.005557111302086018	-2.0806948662383523e+22	0.6960201375181143	0.02089263662039624	-3.38993622596269e+22	0.1566563574903981	0.2552296686559073	0.0	74.344955	50.994759	-23.953966	20.115004000000006	-22.317991	23.771133	0.0		True	0.0	None	0.0	None	0.0	None	0.0	None	0.0	None	0.0	None	0.0	None	0.0	None	1.2633e-06	12
2014-02-07 20:48:00	13.417392316967632	100616226.33990002	5.807974757571459e+20	288850948865.1309	1.2089276252448014	86343797954.13828	1.890514564805896e+20	-8.513007714160114e+22	1477.4763959668467	-0.6370925759921886	20.446021358790414	1.0135135135135136	28.65972854215401	136.57764842867877	137.25415662714138	55.33012152255967	0.004084214950151356	-1.9499900279182586e+22	0.5702694641663453	0.014678748635838788	-3.2970052106593392e+22	0.14593246144709854	0.2467397673356696	0.0	74.345291	50.884491	-23.951147	20.227493	-22.3151	23.882217	0.0		True	0.0	None	0.0	None	0.0	None	0.0	None	0.0	None	0.0	None	0.0	None	0.0	None	1.2692e-06	12
2014-02-07 21:00:00	14.29661007222325	106634753.5723	6.403603572834869e+20	325564532807.6732	1.975552451136564	186583205075.53656	1.992248856700964e+20	-8.61790525156275e+22	1497.4629184827545	-0.6085418571995144	20.843782910188835	1.2422360248447204	29.73366840399612	139.8301823582093	137.97285394651712	58.320265811253655	0.006135256059430322	-2.0263920639707166e+22	1.1327978097261049	0.023034957973191758	-3.801305857974891e+22	0.1430909663110397	0.2684241308148467	0.0	74.345642	50.77424600000001	-23.948689	20.354958	-22.324118	23.987743	0.0		True	0.0	None	0.0	None	0.0	None	0.0	None	0.0	None	0.0	None	0.0	None	0.0	None	1.2743e-06	12
2014-02-07 21:12:00	15.224198703288796	115777244.6671	7.159308888494249e+20	338895488302.2165	0.9347616905900838	120819886586.2704	2.1104489687838985e+20	-9.317683237751434e+22	1643.557034371035	-0.6059994850511189	21.046078017933787	0.3048780487804878	29.82632243398481	145.45485840095282	144.44779610129552	59.59808301136975	0.0028498832030185483	-2.2394789620169967e+22	0.7201032992373074	0.010054541929929628	-3.8947880198340155e+22	0.1456502719760431	0.2533075523366105	0.0	74.346024	50.66402100000001	-23.945904	20.490042000000006	-22.325626	24.096979	0.0		True	0.0	None	0.0	None	0.0	None	0.0	None	0.0	None	0.0	None	0.0	None	0.0	None	1.2215999999999999e-06	12
2014-02-07 21:24:00	15.562552487546313	120596710.77	7.748258745414497e+20	356014250467.7152	1.3614831802765344	92840860273.91306	2.221313717255898e+20	-9.442008016210264e+22	1611.6959452357478	-0.5895443353193538	22.00189479846609	1.933701657458564	30.51418338499975	144.14742892777306	142.27801725509823	60.48058089829894	-0.003761003260432414	-2.354545878326717e+22	-0.5013658614329011	-0.01420476874210906	-4.2177567290117e+22	0.1470141925778827	0.26335018812470384	0.0	74.34642	50.553822	-23.942656	20.592953	-22.334192	24.202438	0.0		True	0.0	None	0.0	None	0.0	None	0.0	None	0.0	None	0.0	None	0.0	None	0.0	None	1.4764e-06	12
2014-02-07 21:36:00	14.900697663190467	117671185.3119	7.696556066317406e+20	327228975727.7456	1.542003787875729	4330741153.838243	2.0964807192428967e+20	-9.417503041452992e+22	1805.4228338230193	-0.6026333566262521	21.438150859552838	0.6230529595015576	29.789020855608374	152.82799891458	152.502627972589	60.06897977329078	-0.004803750117992925	-2.069987277114302e+22	-0.026373918968349917	-0.016353515627598115	-4.230479101367313e+22	0.1324600985516182	0.27071165358507304	0.0	74.346848	50.443645	-23.939034	20.694084	-22.330486	24.306072	0.0		True	0.0	None	0.0	None	0.0	None	0.0	None	0.0	None	0.0	None	0.0	None	0.0	None	1.4319e-06	12
2014-02-07 21:48:00	14.177204981364856	121741849.5735	7.684013828726531e+20	313891194616.0452	2.111421612541172	57200354114.32407	2.2018022291881152e+20	-9.92711960595544e+22	1686.8697887312726	-0.6140035773119312	21.525642952921068	0.8746355685131195	29.95444002072286	143.89318990638643	144.1690574615276	55.76708741049591	-0.006155748141519451	-2.040530954722676e+22	-0.3259979579916012	-0.02149119525307565	-4.446750864279553e+22	0.1262091478240901	0.2750365711766586	0.0	74.347298	50.333496	-23.936634	20.798347	-22.329473	24.412983	0.0		True	0.0	None	0.0	None	0.0	None	0.0	None	0.0	None	0.0	None	0.0	None	0.0	None	1.3442e-06	12
2014-02-07 22:00:00	14.573269706392624	123697054.92920002	8.019326274313813e+20	313907723010.4714	0.12096101965705652	78610067903.21138	2.2537052202630165e+20	-9.936674213898264e+22	1682.0193271535725	-0.6048800182965188	22.50218308559732	2.5069637883008355	30.55881452512537	139.69338036701143	141.3757967224576	56.89470170484376	0.0003369387734179846	-1.858576871813168e+22	0.4280418861596859	0.0012186346014829948	-4.527154190110305e+22	0.11313805686166233	0.2755836661641728	0.0	74.347778	50.223377	-23.941896	20.900053	-22.32736400000001	24.517244	0.0		True	0.0	None	0.0	None	0.0	None	0.0	None	0.0	None	0.0	None	0.0	None	0.0	None	1.3911000000000001e-06	12
2014-02-07 22:12:00	15.440133915445568	121385404.0263	8.199921448708786e+20	331768931516.5972	2.4161158862345444	41459820952.61791	2.199440423584576e+20	-9.610333311392499e+22	1794.8936277706866	-0.5961553536998658	22.4341936068254	4.069767441860465	30.532374783741307	146.67071024311787	146.4446220007505	59.98912576812872	-0.00702359269254228	-1.7661728705490417e+22	-0.2355934380522517	-0.02494055591122473	-4.640161420262544e+22	0.10956055094250508	0.2878419491904459	0.0	74.34833499999998	50.113285	-23.938606	21.005539	-22.329924	24.62541	0.0		True	0.0	None	0.0	None	0.0	None	0.0	None	0.0	None	0.0	None	0.0	None	0.0	None	1.912e-06	12
2014-02-07 22:24:00	13.762056213962786	119373426.5552	7.662005043239675e+20	310671187065.8013	0.6303275154462997	104105179505.53647	2.2078268344830847e+20	-9.638851409847836e+22	1634.3884466250418	-0.6080022418359439	21.96140944277068	2.26628895184136	30.14616754306725	141.1781861048697	143.20419334786013	54.52987047820208	0.001785630355371954	-1.3008361269083691e+22	0.5764785871297544	0.006567528273905924	-4.532968654875006e+22	0.08205451539728224	0.2859319007159148	0.0	74.348877	50.003223	-23.934862	21.109047	-22.329075	24.73156	0.0		True	0.0	None	0.0	None	0.0	None	0.0	None	0.0	None	0.0	None	0.0	None	0.0	None	2.1534e-06	12
2014-02-07 22:36:00	15.114732120380753	122347385.3812	7.738628266821858e+20	321716243583.1339	0.94546533820874	8879587431.874521	2.221134946904396e+20	-9.941436666703313e+22	1708.8231786748206	-0.6118457916347325	21.66829318319951	3.812316715542522	29.98023587714295	147.00866612170802	148.18584732587757	58.23072880833432	-0.002772625625245572	-1.284848318415532e+22	-0.05089963821739105	-0.00958864908402596	-4.757252414021882e+22	0.07907599906002266	0.2927851342665829	0.0	74.34944200000002	49.893192	-23.931839	21.208691	-22.327475	24.839878	0.0		True	0.0	None	0.0	None	0.0	None	0.0	None	0.0	None	0.0	None	0.0	None	0.0	None	1.9529e-06	12
2014-02-07 22:48:00	16.501173047107034	131023374.7609	8.51203972739e+20	352880237958.63525	0.08928943183385922	71305282182.59854	2.3765176352423808e+20	-1.0728060759735028e+23	1746.4458822494962	-0.6165382112750056	22.208142498186067	2.452316076294278	30.14490464739609	152.32617103790238	154.21932430929692	60.414204866513394	0.00024329545458817232	-1.3443671601192599e+22	0.3797714225454874	0.0008431314686310228	-4.819992763740234e+22	0.07726034954123988	0.2770034383164953	0.0	74.350037	49.783192	-23.939537	21.312593	-22.342268	24.946529	0.0		True	0.0	None	0.0	None	0.0	None	0.0	None	0.0	None	0.0	None	0.0	None	0.0	None	1.7533000000000004e-06	12
2014-02-07 23:00:00	18.47518412072008	133202285.43170002	8.371716180818275e+20	383901576740.1975	1.160983326109553	153752839753.31488	2.3744586376963208e+20	-1.1072881873628228e+23	1751.0539459908625	-0.6259454988529612	21.514042645468415	2.7777777777777777	30.062378702393108	156.7768691060771	159.2508541186142	57.994585679542396	0.0032249536836376482	-1.3061143267919362e+22	0.8347898395725265	0.010721074594188695	-4.862803098609572e+22	0.07383411050287772	0.2748922770170872	0.0	74.350677	49.673225	-23.954304	21.416014	-22.338848	25.052635	0.0		True	0.0	None	0.0	None	0.0	None	0.0	None	0.0	None	0.0	None	0.0	None	0.0	None	1.4487e-06	12
2014-02-07 23:12:00	19.631432053344763	125986312.7317	8.117408741086923e+20	388669328994.6003	2.4136777653422112	181816061159.27945	2.2212877728100103e+20	-1.0502382666570797e+23	1846.6172799333015	-0.6276997372937793	22.35066834412757	4.833836858006042	29.31553550600623	157.91650878741405	160.27645720254762	60.75989462165474	0.007292077840913025	-1.2763525878797952e+22	1.0736190056415098	0.023540280121688014	-4.513153729711183e+22	0.07628423087805625	0.2697393058742108	0.0	74.351349	49.563293	-23.951801	21.519051	-22.343851	25.158468	0.0		True	0.0	None	0.0	None	0.0	None	0.0	None	0.0	None	0.0	None	0.0	None	0.0	None	1.4584999999999999e-06	12
2014-02-07 23:24:00	17.298326601354393	123612157.9281	7.394994729642838e+20	356617053423.8812	0.4768318583946157	11770745770.999537	2.2383223478250268e+20	-1.0607359633726189e+23	1647.4363308563916	-0.6461503384089307	21.150087509150747	2.9585798816568047	28.32582936740396	154.35522546037444	155.79222932681668	57.93920427586026	0.0014107451431793366	-1.3264754786519545e+22	0.06806476078180912	0.004686672171048625	-4.380288143797926e+22	0.08080263223063955	0.26682650199250485	0.0	74.35204300000002	49.453392	-23.948456	21.622744	-22.343513	25.264881	0.0		True	0.0	None	0.0	None	0.0	None	0.0	None	0.0	None	0.0	None	0.0	None	0.0	None	1.6709e-06	12
2014-02-07 23:36:00	18.367869147137338	125674956.2009	8.10323751302151e+20	394457554003.8466	2.320782283667712	142448646120.7806	2.3287255155801027e+20	-1.0696944717668797e+23	1690.2029680593707	-0.6409121460742008	21.350813016985718	1.9390581717451525	28.71793974102806	149.21459030766826	150.74969291809674	52.20533308672756	0.0064287597885532176	-1.4882841609567828e+22	0.7712140687493128	0.022507658851736626	-4.5104008785963405e+22	0.08917119988397296	0.2702426518089113	0.0	74.352776	49.343525	-23.945784	21.725683	-22.346893	25.370607	0.0		True	0.0	None	0.0	None	0.0	None	0.0	None	0.0	None	0.0	None	0.0	None	0.0	None	1.8633000000000002e-06	11
2014-02-07 23:48:00	18.03256554680695	125332898.274	8.178069998368033e+20	411264867243.874	1.8630342989205049	138517849797.84622	2.3452522523128545e+20	-1.0030794397388496e+23	1583.0285064341915	-0.602639729352438	22.388488058959883	3.5989717223650386	30.75225362287083	141.00706571151844	141.6559430203278	58.84171411141989	0.004789291256865051	-1.5047226470944077e+22	0.6959345668525849	0.018550253921764275	-4.694661324528047e+22	0.09040217682375623	0.28205038583499603	0.0	74.353592	49.233696	-23.942364	21.828222	-22.355558	25.475901	0.0		True	0.0	None	0.0	None	0.0	None	0.0	None	0.0	None	0.0	None	0.0	None	0.0	None	1.7435e-06	12
2014-02-08 00:00:00	16.64736617220882	127951760.65010002	8.94141320039776e+20	389445667071.0753	2.0850259780539453	179985958758.68808	2.3573674138547005e+20	-1.0405357651075287e+23	1735.2493449217375	-0.6123478478139938	23.68249663177018	4.896907216494847	30.919397235991802	141.77115676358116	142.0880025582818	56.49684875242338	0.005373778293953468	-1.4043240105117867e+22	0.9065823021268185	0.020213264432085983	-4.681097776741177e+22	0.08264346256099553	0.27547925262310524	0.0	74.354393	49.123894	-23.956244	21.934013	-22.352266	25.578213	0.0		True	0.0	None	0.0	None	0.0	None	0.0	None	0.0	None	0.0	None	0.0	None	0.0	None	1.6201e-06	12
2014-02-08 00:12:00	16.140066320159548	126433816.87250002	7.414442683565715e+20	356817970332.2772	2.935802323058397	231697643720.7997	2.349324506393488e+20	-1.0636474184232335e+23	1504.8464940136762	-0.6334641469858232	21.14687825812853	1.6172506738544474	29.897184427873977	138.54188827427953	140.06554127653874	54.447502403299644	0.007913213808782741	-1.4140775932737586e+22	1.2204951468352363	0.028430464151811424	-4.36853662839954e+22	0.08421657786965027	0.2601718653148937	0.0	74.355232	49.014133	-23.98	22.045424	-22.355959	25.687201	0.0		True	0.0	None	0.0	None	0.0	None	0.0	None	0.0	None	0.0	None	0.0	None	0.0	None	1.2471999999999999e-06	12
2014-02-08 00:24:00	18.932296465686786	130599434.4176	8.117846977572213e+20	412904411379.721	3.653674121639003	221164985726.91705	2.444215326317488e+20	-1.115015713468247e+23	1571.3708717343964	-0.6428758785151781	21.631416873776693	4.370179948586118	29.19825160475552	141.60908417118495	143.60987423298215	53.54091058961101	0.009392478461796923	-1.49218517629424e+22	1.1110729837235145	0.034057577654822216	-4.5048027651663135e+22	0.08603375221804027	0.25972988543684505	0.0	74.35611	48.904408	-24.007303	22.154137	-22.353834	25.793306	0.0		True	0.0	None	0.0	None	0.0	None	0.0	None	0.0	None	0.0	None	0.0	None	0.0	None	1.5858000000000001e-06	12
2014-02-08 00:36:00	18.70593325200188	139813974.84350002	9.11308511368591e+20	387741181757.9254	4.177561192129356	255256368234.8179	2.549223774904952e+20	-1.1705829217405222e+23	1750.5190699536927	-0.6304332171770582	21.641186333474888	3.0612244897959178	29.466218811455878	151.99591304471	154.43442223025576	55.95919737158062	0.010657043857472846	-1.4514956518793828e+22	1.2724883178245063	0.03665213000528425	-4.903369187331471e+22	0.07817225559486424	0.2640775595102573	0.0	74.35701800000002	48.794716	-24.009224	22.255447	-22.350998	25.916533	0.0		True	0.0	None	0.0	None	0.0	None	0.0	None	0.0	None	0.0	None	0.0	None	0.0	None	2.5852999999999996e-06	12
2014-02-08 00:48:00	19.02729234533624	134352793.1353	8.187388989935229e+20	390691483972.9969	3.653149752031127	274456858379.5724	2.424519476245192e+20	-1.1661505616024432e+23	1736.6190571310879	-0.6535749782326543	19.941294882021843	1.4084507042253522	28.26708436421373	156.23917580079438	157.82917176763158	58.81821241840254	0.010290562681777823	-1.2673227654300128e+22	1.5107627523869869	0.03288719848858086	-4.706388997931538e+22	0.07102774513879996	0.263771950909213	0.0	74.357956	48.685059	-24.005449	22.361568	-22.34878	26.025602	0.0		True	0.0	None	0.0	None	0.0	None	0.0	None	0.0	None	0.0	None	0.0	None	0.0	None	2.4009e-06	11
2014-02-08 01:00:00	17.756883597620362	136136118.27	8.399727753040141e+20	374179217987.5965	3.0612030899693563	198821649935.8249	2.4741060277161008e+20	-1.1422045791425034e+23	1634.3376133839954	-0.6317686401019784	21.265949557090032	3.875968992248062	29.488833535192466	149.14192362415275	150.43297743308156	57.04867153320274	0.007910085503796786	-1.2281406530586417e+22	1.0038998360292064	0.02756069678256072	-4.946791452936953e+22	0.06793010327618472	0.2736136560962045	0.0	74.358932	48.575436	-24.002668	22.466328	-22.345978	26.139795	0.0		True	0.0	None	0.0	None	0.0	None	0.0	None	0.0	None	0.0	None	0.0	None	0.0	None	1.7459999999999999e-06	12
2014-02-08 01:12:00	18.351647269441273	139272642.20349997	8.688184310994064e+20	390735986473.2743	3.2956184262632418	222677378503.8804	2.4881651704127613e+20	-1.193789499522732e+23	1739.917671079353	-0.6454304611264208	21.16927130729561	2.6595744680851063	29.023909373996485	155.110806561817	154.9695766862576	59.24000986319722	0.008764942623040539	-1.3429452280050775e+22	1.1572119424752692	0.02876216479290321	-4.82326320612326e+22	0.07260725262915904	0.2607730254376354	0.0	74.359955	48.465851	-24.023735	22.569927	-22.344069	26.246334	0.0		True	0.0	None	0.0	None	0.0	None	0.0	None	0.0	None	0.0	None	0.0	None	0.0	None	1.487e-06	11
2014-02-08 01:24:00	17.261731805904525	135306959.90670002	8.376878570165855e+20	374753729736.8104	2.8668268233395624	186415242012.47607	2.4928206107560044e+20	-1.150473378421479e+23	1592.848641275476	-0.6402416344941497	21.201904387834908	1.2626262626262623	29.917298376639447	143.30479149195043	143.58667757676182	55.75368124459899	0.007239461675099905	-1.3232097057894757e+22	0.9198092066356484	0.025834703827851885	-4.956302249915257e+22	0.07363698810445768	0.2758195985279247	0.0	74.361046	48.356297	-24.025694	22.67444200000001	-22.341187	26.360367	0.0		True	0.0	None	0.0	None	0.0	None	0.0	None	0.0	None	0.0	None	0.0	None	0.0	None	1.203e-06	11
2014-02-08 01:36:00	17.572802430092516	135027253.384	8.249988991935612e+20	377277588668.0831	3.2864206143327874	179445952702.01733	2.512194095720468e+20	-1.1795460307370551e+23	1601.0655865129654	-0.6577804160824653	21.065007802085315	1.804123711340206	28.41782463487501	145.14820102555385	145.93690306102485	56.00526370795593	0.008470156222507179	-1.454494306656075e+22	0.9036501581223764	0.029363289245727613	-4.797194125131764e+22	0.08111068540699333	0.26751820322652203	0.0	74.362122	48.246777	-24.018063	22.777811	-22.352974	26.466602	0.0		True	0.0	None	0.0	None	0.0	None	0.0	None	0.0	None	0.0	None	0.0	None	0.0	None	1.0916e-06	11
2014-02-08 01:48:00	19.21027322025645	135983891.30130002	8.693394448492053e+20	391568462977.8524	4.6110614746841385	307550970670.2924	2.50639952555974e+20	-1.1835442652465295e+23	1704.6907427556366	-0.6553668686670979	21.32067477148512	1.8229166666666667	28.40124528979661	151.63342640111622	152.8262716279651	56.65872390665211	0.012007972590323277	-1.3383501135435753e+22	1.5648441007041065	0.04096841710214027	-4.957061491456235e+22	0.0741087890709865	0.27448858169822915	0.0	74.363235	48.137291	-24.017134	22.883169	-22.355238	26.575106	0.0		True	0.0	None	0.0	None	0.0	None	0.0	None	0.0	None	0.0	None	0.0	None	0.0	None	1.0825e-06	12
2014-02-08 02:00:00	19.740403513421608	141859192.28370002	9.796697493632192e+20	425751509214.1693	4.328305512016662	284324007456.0057	2.691154533935782e+20	-1.2348034288553155e+23	1715.5314427570606	-0.6554322158211212	22.196547175843676	3.0232558139534884	29.1865461841438	151.98291183889785	153.71616485018302	53.79459038522675	0.010065826772131772	-1.4633286951918822e+22	1.2918650318132119	0.036862010460986486	-5.16118140230522e+22	0.07767331599114198	0.27395490518710264	0.0	74.364388	48.027836	-24.013079	22.98726700000001	-22.352783	26.682236	0.0		True	0.0	None	0.0	None	0.0	None	0.0	None	0.0	None	0.0	None	0.0	None	0.0	None	1.0265e-06	12
2014-02-08 02:12:00	18.17800645933187	132835226.7213	9.12984759541957e+20	396490856125.5317	3.886770296933412	269281601511.7039	2.57620275699006e+20	-1.1510349611152162e+23	1652.5619390210245	-0.6524733869393271	22.60523839172327	3.8461538461538463	28.989575130902285	142.4973377886109	143.78929073585957	51.26530657799454	0.009343197829166854	-1.5550988421731084e+22	1.2646561124003808	0.035413686271100316	-4.847621215621988e+22	0.08815202342724922	0.2747912913167554	0.0	74.36556999999998	47.918415	-24.009008	23.093552	-22.348679	26.791636	0.0		True	0.0	None	0.0	None	0.0	None	0.0	None	0.0	None	0.0	None	0.0	None	0.0	None	1.7178e-06	12
2014-02-08 02:24:00	16.808677231734684	123304665.29	8.154389681964943e+20	371172369081.5555	3.29497622078122	236084633996.9021	2.3747589679790827e+20	-1.0560318084654945e+23	1633.0186180019782	-0.644889061280708	21.658542344550014	3.4574468085106385	29.02639663415067	142.69110927074792	144.7383864286711	51.58074123528519	0.008763234629737288	-1.388487446450996e+22	1.226664928899571	0.0324912305067575	-4.570626977268527e+22	0.08479104121332796	0.27911539379841416	0.0	74.366776	47.809021	-24.00693900000001	23.200542	-22.348215	26.901836	0.0		True	0.0	None	0.0	None	0.0	None	0.0	None	0.0	None	0.0	None	0.0	None	0.0	None	1.4041999999999998e-06	12
2014-02-08 02:36:00	15.551855996515634	123034171.6978	8.728805451430667e+20	360930225532.5167	2.3828313534325183	138016668627.0354	2.484389397538941e+20	-1.030048602073144e+23	1553.8241749428655	-0.6304046307696392	22.88795626259449	5.4373522458628845	29.42069059404039	134.51089203634524	134.688825142509	51.29072667917554	0.0056331710483038255	-1.5324547107614485e+22	0.6374179302571495	0.023757577334065257	-4.67253931431981e+22	0.0937884430078732	0.2859661588076439	0.0	74.368011	47.699657	-24.029137	23.303446	-22.344404	27.014448	0.0		True	0.0	None	0.0	None	0.0	None	0.0	None	0.0	None	0.0	None	0.0	None	0.0	None	1.6402000000000004e-06	12
2014-02-08 02:48:00	16.667219944033338	118110600.5286	8.162983788320167e+20	364761197737.7453	2.5877090841311308	209309948463.4784	2.336885415057912e+20	-1.0113909382135872e+23	1592.3891031660462	-0.6447891905075788	22.252449335891523	3.886010362694301	28.53453447345524	134.75634273570552	136.81137163748122	49.50749320988361	0.006703909544381168	-1.1432475937920602e+22	1.05931001971535	0.026640742526382998	-4.481227686760047e+22	0.0728851389407294	0.2856904351674112	0.0	74.36927800000002	47.590328	-24.024637	23.40733	-22.343233	27.121439	0.0		True	0.0	None	0.0	None	0.0	None	0.0	None	0.0	None	0.0	None	0.0	None	0.0	None	1.2533e-06	12
2014-02-08 03:00:00	17.63379101597523	115150477.1372	7.811005054469325e+20	385244031772.2155	4.910719346067396	398937565009.6861	2.234535836756194e+20	-9.579902391379158e+22	1598.2566406527897	-0.6264447294582357	21.538140110906475	2.1739130434782608	29.70232351289061	143.49502694615774	143.81057459211002	54.60969655265085	0.013344346049096184	-1.179062640929111e+22	2.1177024022579616	0.052440890601154484	-4.4480477406935135e+22	0.0771007414204787	0.2908647655996541	0.0	74.370575	47.481022	-24.022621	23.512886	-22.344551	27.23023	0.0		True	0.0	None	0.0	None	0.0	None	0.0	None	0.0	None	0.0	None	0.0	None	0.0	None	1.1098e-06	12
2014-02-08 03:12:00	17.52432178731153	114489277.4411	8.61881695126921e+20	396987940249.3262	3.496149286607777	318582944406.5129	2.285697025668552e+20	-9.575204098175619e+22	1707.857190078769	-0.6297536847570071	23.18409840295504	4.473684210526316	28.58593019663724	138.22584103338977	138.9415577978638	51.04390662453024	0.009200392859494151	-1.4376730921419758e+22	1.6377004875860202	0.037474269731548514	-4.24494238475366e+22	0.09455463486411876	0.2791865406700998	0.0	74.371941	47.371742	-24.01675	23.623043	-22.352634	27.337755	0.0		True	0.0	None	0.0	None	0.0	None	0.0	None	0.0	None	0.0	None	0.0	None	0.0	None	1.0897e-06	12
2014-02-08 03:24:00	16.25323442117731	105561940.1546	7.923194000076855e+20	377892382512.6691	4.690643455517794	345718621257.3482	2.204838279989097e+20	-8.749972336407451e+22	1574.158896392444	-0.6241468810719745	22.97371310020846	2.638522427440633	28.434765634615324	134.52894421362984	136.1438711134203	45.9438789737074	0.01237636795651133	-1.1451596179205932e+22	1.7818330800312712	0.05471794168298412	-4.1440800560882735e+22	0.08168572155145487	0.29560260792573384	0.0	74.37329100000002	47.262489	-24.01339500000001	23.727476	-22.349249	27.445318	0.0		True	0.0	None	0.0	None	0.0	None	0.0	None	0.0	None	0.0	None	0.0	None	0.0	None	1.0488e-06	12
2014-02-08 03:36:00	19.201057335202293	109298040.3049	9.340916166826128e+20	457778477012.3315	5.5698918012062535	445482006932.9871	2.290425260315322e+20	-8.94833243191049e+22	1732.4114027874537	-0.6164776376423216	24.278275406486543	5.172413793103448	29.867122604553533	135.07449592384694	135.92902155406978	48.5965545557055	0.013718945323168112	-1.166270643498207e+22	2.1432649961256764	0.06305139189545646	-4.418549054080795e+22	0.08034790578314054	0.304407184622764	0.0	74.374664	47.15325900000001	-24.010372	23.832243	-22.346176	27.553293	0.0		True	0.0	None	0.0	None	0.0	None	0.0	None	0.0	None	0.0	None	0.0	None	0.0	None	1.0771e-06	12
2014-02-08 03:48:00	18.027384926036675	102762352.1783	7.950438019821805e+20	416945224743.9049	4.031748501457809	340097680652.71857	2.1094470422245048e+20	-8.626204739458322e+22	1676.9122829665325	-0.6320817205390533	23.407459271965752	4.481792717086835	28.5021486642664	132.48243100107217	133.74954894179677	48.627652912290344	0.011293413169349604	-1.0412564256757092e+22	1.860782371546842	0.048078121616581884	-4.081284377620834e+22	0.07629765035054988	0.2990544891214497	0.0	74.376053	47.044056	-24.006792	23.944561	-22.344254	27.663042	0.0		True	0.0	None	0.0	None	0.0	None	0.0	None	0.0	None	0.0	None	0.0	None	0.0	None	1.1681e-06	12
2014-02-08 04:00:00	17.190214535626932	108262520.2168	7.93059586109219e+20	373774405947.76776	4.862826960117741	395798193804.1983	2.1379985760434648e+20	-9.154120003785228e+22	1682.1508339033887	-0.6366869347634461	22.91816672443922	2.8169014084507045	29.477676714737324	139.56075156860263	141.49420937729636	53.307364079381024	0.01369810411300772	-1.2328365539486897e+22	2.1776814710870727	0.05488770386738377	-4.2269008686375535e+22	0.0857461914715289	0.2939892154012593	0.0	74.377472	46.934872	-24.004562	24.0548	-22.340273	27.770565	0.0		True	0.0	None	0.0	None	0.0	None	0.0	None	0.0	None	0.0	None	0.0	None	0.0	None	1.1789e-06	12
