Timestamp	TOTUSJH	TOTBSQ	TOTPOT	TOTUSJZ	ABSNJZH	SAVNCPP	USFLUX	TOTFZ	MEANPOT	EPSZ	MEANSHR	SHRGT45	MEANGAM	MEANGBT	MEANGBZ	MEANGBH	MEANJZH	TOTFY	MEANJZD	MEANALP	TOTFX	EPSY	EPSX	R_VALUE	CRVAL1	CRLN_OBS	LAT_MIN	LON_MIN	LAT_MAX	LON_MAX	QUALITY	NOAA_AR	IS_TMFI	BFLARE	BFLARE_label	CFLARE	CFLARE_label	MFLARE	MFLARE_label	XFLARE	XFLARE_label	BFLARE_loc	BFLARE_label_loc	CFLARE_loc	CFLARE_label_loc	MFLARE_loc	MFLARE_label_loc	XFLARE_loc	XFLARE_label_loc	XR_MAX	XR_QUAL
2014-02-10 20:00:00	12.848026319433513	107763789.6904	6.531441320201231e+20	281661280289.3717	0.6497976569057924	49994215979.036064	2.0376193802128333e+20	-8.673034926659874e+22	1527.3576627104671	-0.6060184273012605	19.52441250178436	0.6211180124223602	29.275361750078268	146.17660241606467	144.90042137460847	62.68982376914812	0.002018005145670163	-2.712441378088408e+22	-0.3032329830378185	0.00750904586470647	-3.732682098613757e+22	0.18952874881700152	0.2608169059787978	0.0	29.64695	11.824651	-23.849913	15.679539000000002	-20.723167	19.159597	0.0		True	0.0	None	0.0	None	0.0	None	0.0	None	0.0	None	0.0	None	0.0	None	0.0	None	1.5609e-06	12
2014-02-10 20:12:00	15.900646179385564	116725548.8385	7.02829009405328e+20	327246238734.84784	0.42723048419599147	33511752779.41236	2.1910779348626296e+20	-9.49017481527088e+22	1542.9187728307247	-0.6122034776274289	19.47244494748801	2.0408163265306123	29.19702160007978	149.7412248789089	149.3670163106061	63.1934726465333	0.0012455699247696545	-2.866603674362207e+22	-0.19081509901536586	0.004540528967980753	-4.029182964905364e+22	0.1849222772588112	0.2599193240511293	0.0	29.647488	11.714337	-23.84725	15.806923	-20.721649	19.266718	0.0		True	0.0	None	0.0	None	0.0	None	0.0	None	0.0	None	0.0	None	0.0	None	0.0	None	1.9158e-06	12
2014-02-10 20:24:00	14.113114342683305	109361389.1075	6.896469292504387e+20	292268019159.47144	0.15073680167262338	98654291536.76813	2.0535854026996643e+20	-8.818050024926675e+22	1607.72508357556	-0.6071500616257843	19.691348461734023	1.5479876160990709	29.771216787507228	153.38109526302543	151.70994895595382	64.68145289017035	-0.00046667740455920556	-3.0933186648202598e+22	-0.5965128371392429	-0.0017152555947926044	-3.6310887594523217e+22	0.2129845728550884	0.2500117098267995	0.0	29.648041	11.604039	-23.845427	15.925624	-20.720968	19.369343	0.0		True	0.0	None	0.0	None	0.0	None	0.0	None	0.0	None	0.0	None	0.0	None	0.0	None	1.4997e-06	12
2014-02-10 20:36:00	14.166128783544526	106593595.3802	6.468482408488103e+20	297681547714.4656	1.789530409320299	147236174950.8995	2.0180101971509264e+20	-8.450649737987284e+22	1507.9517967188406	-0.5969618400621078	19.41131656661891	2.1671826625387	30.134347104666052	144.70645878122792	143.12804262495268	60.55654957834096	0.005540341824521049	-2.7507617216410306e+22	0.8902549840976169	0.021025359419291973	-3.685620467661173e+22	0.1943163933941895	0.2603556938652155	0.0	29.648609000000004	11.493759	-23.843151	16.033064000000003	-20.742487	19.477604	0.0		True	0.0	None	0.0	None	0.0	None	0.0	None	0.0	None	0.0	None	0.0	None	0.0	None	1.2546e-06	12
2014-02-10 20:48:00	13.239084455090609	107798060.7698	6.2283771600946e+20	282414415672.3148	1.02534491802826	54788152166.688416	1.9946033602463928e+20	-8.910879996276426e+22	1537.668186267277	-0.6224395954996407	18.9965778381187	0.6557377049180327	29.043925642930287	148.14802407342128	147.71957736212818	62.05176521938283	-0.0033617866164860986	-2.689747384623039e+22	-0.3508201991178593	-0.011725206335980374	-3.647916166246712e+22	0.18788327020233445	0.25481293249196696	0.0	29.649197	11.383498	-23.840212	16.143933999999998	-20.741823	19.59807	66560.0		False	0.0	None	0.0	None	0.0	None	0.0	None	0.0	None	0.0	None	0.0	None	0.0	None	1.1458e-06	12
2014-02-10 21:00:00																																	False	0.0	None	0.0	None	0.0	None	0.0	None	0.0	None	0.0	None	0.0	None	0.0	None	1.1578e-06	12
2014-02-10 21:12:00	14.647718568962414	104571717.0708	6.488436290730095e+20	305345814274.7401	1.3078050419080596	49627085576.910034	1.9202770465125027e+20	-8.469793437666788e+22	1673.1877869892267	-0.6098823601396957	19.72464829219837	0.3424657534246575	28.88590421249443	151.67874764236447	151.01549468621587	67.09290511940833	0.0044787843900960965	-2.5563372638611045e+22	0.3319117122722067	0.015536908999476063	-3.521618181943016e+22	0.1840735568429807	0.25358030560258	0.0	29.650440000000003	11.163039	-23.835773	16.371520999999998	-20.740839	19.808392	0.0		True	0.0	None	0.0	None	0.0	None	0.0	None	0.0	None	0.0	None	0.0	None	0.0	None	1.1526e-06	12
2014-02-10 21:24:00	12.508393841578386	98491122.7832	6.329601309899273e+20	259482185624.35864	0.3581015530937355	14419221111.11594	1.82782380661532e+20	-7.647266420366896e+22	1696.123832799722	-0.5846509414797952	19.8946982314793	0.3558718861209964	29.358418722896506	146.12047544489832	146.01381230146941	64.24929175286921	0.001274382751223258	-2.580692066743648e+22	0.10021108455745464	0.004588867298194379	-3.5388545662552e+22	0.19729978838879308	0.2705534945677896	0.0	29.65109600000001	11.052844	-23.832943	16.48214	-20.763935	19.915291	0.0		True	0.0	None	0.0	None	0.0	None	0.0	None	0.0	None	0.0	None	0.0	None	0.0	None	1.2442e-06	12
2014-02-10 21:36:00	15.424402649027787	109431836.3392	7.152437045286429e+20	330436241619.3723	0.12763835753080566	12492834373.069714	2.070150009867945e+20	-8.343044558609406e+22	1612.4826216415213	-0.5740746130118285	19.29019666172583	0.8982035928143712	30.31102920430867	148.83640049083934	147.73159682225236	65.7058390067056	0.00038215077105031636	-2.6671135263895704e+22	-0.07304454116231374	0.001481979516654021	-3.866974626316271e+22	0.183520794449156	0.2660817578683873	0.0	29.651775	10.942674	-23.829998	16.597389	-20.762159	20.017435	0.0		True	0.0	None	0.0	None	0.0	None	0.0	None	0.0	None	0.0	None	0.0	None	0.0	None	1.4468e-06	12
2014-02-10 21:48:00	14.32305761846798	109882353.0101	7.211922948277195e+20	306911525260.91364	1.5752060725850292	93651755879.5868	2.0631651244475312e+20	-8.410242587774933e+22	1676.075359155564	-0.5763257784685327	19.571742907277827	0.6172839506172839	29.584236858281002	142.02730157423892	141.13328918299527	64.16912069977222	0.004861747137608115	-2.692396064817325e+22	0.5644645108314019	0.01818835593127449	-4.019714057423557e+22	0.1845008918359852	0.2754575518110527	0.0	29.652479	10.832529	-23.827446	16.707233	-20.760784	20.121727	0.0		True	0.0	None	0.0	None	0.0	None	0.0	None	0.0	None	0.0	None	0.0	None	0.0	None	1.4138e-06	12
2014-02-10 22:00:00	13.659237782819288	97659506.6822	5.380026674548686e+20	293463984700.5166	1.344623832035316	73142035304.8353	1.8308102464109488e+20	-7.47654931215841e+22	1416.4650704431754	-0.5764665998078516	18.225874280600003	0.0	29.27262812455935	146.99856503465867	147.9686850432175	65.17002092878938	0.004701481930193413	-2.283500441663263e+22	0.4994116498746226	0.017467530088225054	-3.564961481348009e+22	0.17606541203769946	0.2748702827729181	0.0	29.65321	10.722411	-23.824753	16.822385999999998	-20.761642	20.229918	0.0		True	0.0	None	0.0	None	0.0	None	0.0	None	0.0	None	0.0	None	0.0	None	0.0	None	1.2412e-06	12
2014-02-10 22:12:00	13.340425820397005	95300408.6777	6.008660940462128e+20	275948492727.5055	2.2971747699632146	191093703785.81644	1.750615476803938e+20	-7.60629482995412e+22	1753.6601728539788	-0.6009880531824207	19.07178055485807	0.7751937984496124	28.11868025685431	154.2423088624144	155.71512785677774	64.86473661263047	0.008903778178151996	-2.004273125122836e+22	1.446357727985009	0.030112109374995005	-3.5380016804293247e+22	0.15836149274280562	0.279544349727787	0.0	29.653973	10.612321	-23.820915	16.937279	-20.784826	20.336363	0.0		True	0.0	None	0.0	None	0.0	None	0.0	None	0.0	None	0.0	None	0.0	None	0.0	None	1.1959e-06	12
2014-02-10 22:24:00	14.796922814830818	98412583.0328	5.93380365254962e+20	310045269930.3237	3.5785218177801137	286118178489.6063	1.8498583127591925e+20	-7.99988631005788e+22	1573.2663709014444	-0.6120975092354116	19.35358048884751	1.4084507042253522	28.89927558277451	151.5344952781079	153.18819693918925	63.395072165182235	0.012600428935845473	-1.9487213564015126e+22	1.9672839863628035	0.04511196319016692	-3.4462753213579813e+22	0.14910305499561394	0.2636858148459645	0.0	29.65476	10.50226	-23.818478	17.053625	-20.783583	20.456553	0.0		True	0.0	None	0.0	None	0.0	None	0.0	None	0.0	None	0.0	None	0.0	None	0.0	None	1.1113e-06	12
2014-02-10 22:36:00	17.326144079393348	105147907.1572	6.485562797085377e+20	361851084813.1917	2.7537736210697745	212534991591.0223	2.0190168039262346e+20	-8.651523509621877e+22	1545.4255618341813	-0.6195544268323481	19.566684770699442	0.949367088607595	28.088494453765264	144.81678888650015	147.57431057692938	57.90734373632942	0.008714473484398022	-2.0099843002972368e+22	1.3133298657364283	0.032341640891684835	-3.741902051393791e+22	0.14393935007258615	0.267965749400754	0.0	29.655581	10.392229	-23.816364	17.170406	-20.809614	20.559702	0.0		True	0.0	None	0.0	None	0.0	None	0.0	None	0.0	None	0.0	None	0.0	None	0.0	None	1.0670000000000001e-06	1
2014-02-10 22:48:00	15.348010939668686	103909156.1173	6.809052943536727e+20	320364134256.4832	3.026908524016505	211552426224.6133	2.02784610549573e+20	-8.582426390674341e+22	1592.2759311866562	-0.6219332280915384	20.806981358098646	1.2422360248447204	27.855687965922407	137.0326755335084	139.13671722308382	56.28652251689579	0.009400337031107157	-1.973357529793048e+22	1.2828697642439089	0.03592051073892956	-3.751295832765789e+22	0.14300112378668506	0.27184101798221755	0.0	29.656429	10.282229	-23.813162	17.281648999999998	-20.810066	20.665108	0.0		True	0.0	None	0.0	None	0.0	None	0.0	None	0.0	None	0.0	None	0.0	None	0.0	None	-99999.0	0
2014-02-10 23:00:00	15.997577867864699	105772154.6204	7.139941057775825e+20	344757234741.0434	2.707166523089146	149407435326.80402	2.0811164401243724e+20	-8.790335793848438e+22	1639.1107920758227	-0.6257799457479719	20.93992427465864	2.4390243902439024	27.506272747636075	136.6671027037297	138.61931730466517	56.58226054655133	0.008253556472832763	-1.8270223169308257e+22	0.8894230637660814	0.03148559125874428	-3.867297489578183e+22	0.1300648750152876	0.2753111223479195	0.0	29.65731	10.172261	-23.81045	17.397638	-20.841576	20.769918	0.0		True	0.0	None	0.0	None	0.0	None	0.0	None	0.0	None	0.0	None	0.0	None	0.0	None	-99999.0	0
2014-02-10 23:12:00	14.144348071517113	106085642.704	6.305084034411507e+20	310540135693.0737	1.3123295967286532	17608705158.789505	2.083173687592488e+20	-9.031395984925715e+22	1469.8595341099472	-0.6410409148045424	19.5668856220821	1.5479876160990709	27.22522142573738	138.54994204779751	141.62534039665996	57.28551682029213	0.004062939927952486	-2.0242935421378738e+22	0.1064446938091067	0.01507637385247754	-3.686592153744939e+22	0.1436826583897886	0.261671220118397	0.0	29.658222	10.062324	-23.808224	17.512106	-20.869953	20.870369	0.0		True	0.0	None	0.0	None	0.0	None	0.0	None	0.0	None	0.0	None	0.0	None	0.0	None	-99999.0	0
2014-02-10 23:24:00	13.436040020693648	99332284.0271	5.635809037856975e+20	290232959816.3344	4.324303014164851	305546055799.72675	1.977715150421936e+20	-8.50752476592669e+22	1338.7037683821582	-0.6449117346282192	19.509646408613328	0.9463722397476341	27.684445727042398	137.56802142220965	141.06100525485274	52.16138485645902	0.013641334429542115	-1.955820635712472e+22	1.8819379855160243	0.05293136497445708	-3.4896020504862475e+22	0.14826071195828072	0.2645287993230003	0.0	29.659168	9.95242	-23.805344	17.630985	-20.901381	20.974226	0.0		True	0.0	None	0.0	None	0.0	None	0.0	None	0.0	None	0.0	None	0.0	None	0.0	None	-99999.0	0
2014-02-10 23:36:00	16.723229722154713	108497792.1518	7.120111483907029e+20	363179180493.7588	4.145335278235619	284268892438.1691	2.13918713762634e+20	-9.287400525669346e+22	1567.6463070466928	-0.6445560223746895	21.500602152973595	2.046783625730994	27.72574019745824	139.8855114292849	143.8688776699745	52.2995719064667	0.012120863386653856	-2.0561364314801207e+22	1.6228540133616656	0.046464373410762184	-3.787693686974447e+22	0.14269817653190964	0.2628701938828055	0.0	29.660149	9.842549	-23.802332	17.741537	-20.932709	21.07889	0.0		True	0.0	None	0.0	None	0.0	None	0.0	None	0.0	None	0.0	None	0.0	None	0.0	None	-99999.0	0
2014-02-10 23:48:00	15.896809523043654	114381139.9582	7.690787808248879e+20	359003598600.8109	2.5987580932439367	267616677485.16626	2.3297747779386848e+20	-9.9874481021394e+22	1548.4126125629753	-0.6574876328412445	21.004658557095254	4.010695187165775	26.66539415118	139.69576622314077	142.333563813978	53.61480165315714	0.006948551051454376	-2.1873074229421432e+22	1.3970307491700276	0.02741518199748753	-4.07023970696898e+22	0.1439934971475099	0.2679495545471945	0.0	29.661163	9.732713	-23.799824	17.863163	-20.954628	21.181515	0.0		True	0.0	None	0.0	None	0.0	None	0.0	None	0.0	None	0.0	None	0.0	None	0.0	None	-99999.0	0
2014-02-11 00:00:00	16.313436007722775	112570915.6732	7.082278288505698e+20	365666717310.2367	2.3166380372809647	149892595705.4541	2.2759787735413352e+20	-9.696371984657596e+22	1441.3147667179599	-0.648590587504497	20.49569421483995	1.6216216216216215	28.05058088044353	137.3324212618825	139.9852580811861	54.2976193163854	0.006261183884543148	-2.0557072048684475e+22	0.7909167040021071	0.024966011360879614	-4.0466877582779984e+22	0.13750631121129958	0.2706830549345376	0.0	29.662209000000004	9.622909	-23.796482	17.977923999999994	-20.952576	21.286097	0.0		True	0.0	None	0.0	None	0.0	None	0.0	None	0.0	None	0.0	None	0.0	None	0.0	None	1.1261e-06	6
2014-02-11 00:12:00	14.87527156001569	103392814.3121	5.954335205115591e+20	322062945786.53	4.923978878656492	360196190628.8194	2.0250033995777003e+20	-9.124128735033217e+22	1437.0311521467165	-0.6644901449989805	19.414657303645424	0.9615384615384616	26.752552132710015	137.9694604090161	141.49737396314399	52.88489926399571	0.015781983585437472	-2.12382468606744e+22	2.2538461839213397	0.05722352302182234	-3.5796581409252547e+22	0.15467346138800722	0.2606985966755482	0.0	29.663290000000003	9.51314	-23.793592	18.093498	-20.9765	21.391315	0.0		True	0.0	None	0.0	None	0.0	None	0.0	None	0.0	None	0.0	None	0.0	None	0.0	None	1.3113999999999998e-06	5
2014-02-11 00:24:00	17.183917593615135	112600413.1735	6.706757520296398e+20	394531962827.32336	4.9223445023685	325767595620.05176	2.3259286731794022e+20	-1.0003017078921066e+23	1336.0054977160269	-0.6689266004756238	19.478441923776387	1.3227513227513228	27.008490268790197	136.48162908751615	138.96071316481155	53.75383999683152	0.013022075403091268	-2.4529867847846737e+22	1.6824535336930797	0.05238715096980632	-3.7785694922429155e+22	0.16403731974179814	0.2526823282580644	0.0	29.664404	9.403404	-23.790648	18.215469	-20.974842	21.494474	0.0		True	0.0	None	0.0	None	0.0	None	0.0	None	0.0	None	0.0	None	0.0	None	0.0	None	1.6244999999999999e-06	12
2014-02-11 00:36:00	14.54720810158599	102117700.206	6.385197711668107e+20	309546164325.1569	4.813419901056961	277655090665.6075	2.05892094435724e+20	-9.214450921905665e+22	1483.941621422979	-0.6794475119771969	19.86247346899533	1.8518518518518519	26.417601722959407	144.403333619408	145.82600065070156	56.84499344829109	0.014856234262521485	-2.31249969189426e+22	1.6729184108716082	0.05613274545182337	-3.364139172522224e+22	0.1705171773578279	0.2480620939964297	0.0	29.665552	9.293703	-23.786829	18.337158	-20.997789	21.597412	0.0		True	0.0	None	0.0	None	0.0	None	0.0	None	0.0	None	0.0	None	0.0	None	0.0	None	2.3443e-06	12
2014-02-11 00:48:00	15.375708118905742	103962951.3257	6.957863876939679e+20	352257334185.8115	4.024223221362382	267895080668.00198	2.167080628162954e+20	-9.19178314115319e+22	1496.9090164974084	-0.6657461911606035	20.554033380821494	3.1428571428571432	26.694086400846192	140.67398909462048	141.83574610470066	55.59760310855585	0.011497780632463943	-2.3336896975261766e+22	1.4941623736253993	0.04647555981247487	-3.5712310370276213e+22	0.16902542233866005	0.2586585675646596	0.0	29.666737	9.184035	-23.782509	18.456432	-20.996063	21.701895	0.0		True	0.0	None	0.0	None	0.0	None	0.0	None	0.0	None	0.0	None	0.0	None	0.0	None	2.1343e-06	12
2014-02-11 01:00:00	15.68977795189457	103562331.60100001	6.739893773813717e+20	360137490049.8509	3.7075142001846864	258336507188.9908	2.194896431597613e+20	-9.10294698090905e+22	1364.2614130390962	-0.6618623507250019	20.298248107577827	2.1505376344086025	28.12932997509367	133.75957729999124	135.38708178852713	51.40497799469728	0.009966436022001843	-2.1687836015033368e+22	1.3555973045510916	0.04308399334515931	-3.4811917631797976e+22	0.15768917645189742	0.2531125105457445	0.0	29.667904	9.074403	-23.780447	18.580101000000006	-20.996603	21.807037	0.0		True	0.0	None	0.0	None	0.0	None	0.0	None	0.0	None	0.0	None	0.0	None	0.0	None	2.4543e-06	12
2014-02-11 01:12:00	16.81002740670576	104983101.075	6.386159373146262e+20	369455729653.2326	4.130908823935993	291298762685.0773	2.155361018352977e+20	-9.22292672177593e+22	1393.8246967609796	-0.6615106778298224	19.142925725822774	1.4492753623188406	26.874206132650137	143.9184093456832	146.16645354675057	55.70120251143115	0.011973648765031864	-1.9825669433453382e+22	1.6481399820077385	0.04736451246161315	-3.4963201352723157e+22	0.1421988097811579	0.2507721434166065	0.0	29.669201	8.964803	-23.775526	18.707624	-21.019707	21.912603	0.0		True	0.0	None	0.0	None	0.0	None	0.0	None	0.0	None	0.0	None	0.0	None	0.0	None	2.3513e-06	12
2014-02-11 01:24:00	14.044730361577065	94031145.6389	5.449005164587223e+20	312871997664.33704	2.4008440100968054	193497749093.2813	1.9063156823301708e+20	-8.303145239352776e+22	1354.135494143074	-0.6649032229405835	19.41437078610864	1.98019801980198	26.45305605473919	142.33516148307132	144.53268309492054	55.37845038530853	0.007923577591078566	-1.8831566669626552e+22	1.246506312809887	0.030671373018197626	-3.13349161731114e+22	0.15080031735818675	0.25092523560022445	0.0	29.670437	8.855236	-23.772055	18.824743	-21.017563	22.019016	0.0		True	0.0	None	0.0	None	0.0	None	0.0	None	0.0	None	0.0	None	0.0	None	0.0	None	1.7323e-06	12
2014-02-11 01:36:00	15.244552571355994	97851141.3121	5.88358052453e+20	333937575114.1525	4.5723188715806415	335249303415.434	1.943391476172628e+20	-8.493720065217901e+22	1410.9104099661004	-0.6536111196527383	19.68585433767292	1.9108280254777068	27.612877409585447	150.38008860349612	150.22202670196071	57.423685935838286	0.014561525068728156	-1.9878375234757328e+22	2.0839430852728444	0.056515454738287764	-3.3182463740974603e+22	0.1529686285197072	0.255346622116612	0.0	29.671803000000004	8.745703	-23.76819200000001	18.955957	-21.040344	22.12306	0.0		True	0.0	None	0.0	None	0.0	None	0.0	None	0.0	None	0.0	None	0.0	None	0.0	None	1.2919e-06	12
2014-02-11 01:48:00	13.618523283654769	95421652.0871	5.7190994955446845e+20	307838801117.9137	3.4849266146124958	286902069998.1641	1.924728523324632e+20	-8.353238478379606e+22	1367.1134614899886	-0.6591669289867939	20.015061017287678	2.5396825396825395	28.168741964009207	145.5016446368009	146.9938484956532	58.679396282469426	0.011063259094007924	-1.763000926626064e+22	1.777695559335983	0.044023707950180666	-3.23302362712815e+22	0.13912112165992002	0.2551228797252305	0.0	29.67310100000001	8.636202	-23.763783	19.086592	-21.037273000000006	22.226574	0.0		True	0.0	None	0.0	None	0.0	None	0.0	None	0.0	None	0.0	None	0.0	None	0.0	None	1.1862e-06	12
2014-02-11 02:00:00	13.703633142134445	95352183.19600001	5.333371485794708e+20	299158699220.5093	3.188057133268166	233986486409.97324	1.9555467358890128e+20	-8.458664242139669e+22	1266.8641022135014	-0.6679725303979395	18.87511131673955	1.5772870662460567	26.485761036472784	143.58115251877894	146.12418140214191	54.50493832574458	0.010056962565514721	-1.946446661909221e+22	1.4406296923295885	0.04009004615777258	-3.1986907696370373e+22	0.1537090094630873	0.25259751494929994	0.0	29.674534	8.526732	-23.759239	19.206745	-21.059278	22.331181	0.0		True	0.0	None	0.0	None	0.0	None	0.0	None	0.0	None	0.0	None	0.0	None	0.0	None	1.1865e-06	12
2014-02-11 02:12:00	13.731768195477915	90592012.2038	5.190833681340456e+20	292378364311.1345	1.6585575122757188	133888565345.16635	1.8350509721094167e+20	-7.90562812784982e+22	1320.483273508974	-0.6571037975255727	19.117664192086693	0.6756756756756757	26.931895206766118	143.70261202860644	146.12684592807233	53.68292998069068	0.00560323483876932	-1.7861423126681978e+22	0.8827938944213353	0.022096368940021472	-3.1079915098617164e+22	0.14846143501751086	0.2583315317618957	0.0	29.675892	8.417292999999999	-23.755692	19.336784	-21.057083	22.434006	0.0		True	0.0	None	0.0	None	0.0	None	0.0	None	0.0	None	0.0	None	0.0	None	0.0	None	1.0907e-06	12
2014-02-11 02:24:00	15.306425532290573	97757232.4087	6.059183717462892e+20	347449034403.94257	3.388943773109612	285390583303.2293	2.059442051677762e+20	-8.718677307362504e+22	1341.9077349097615	-0.6715667084357574	20.41932863699502	4.117647058823529	26.70069959697053	134.69690243525196	136.33798145806605	50.26054428844073	0.009967481685616505	-1.898890405254644e+22	1.6381548906062111	0.041478376392591325	-3.384429585921344e+22	0.14626433966769606	0.2606897992463215	0.0	29.67738300000001	8.307884	-23.750929	19.452734	-21.055056	22.538563	0.0		True	0.0	None	0.0	None	0.0	None	0.0	None	0.0	None	0.0	None	0.0	None	0.0	None	1.0116e-06	12
2014-02-11 02:36:00	14.565094130665527	96473636.6126	5.6284360005842816e+20	330097947029.8252	3.2202457219294147	247191670043.1053	2.030129397026856e+20	-8.523280242582704e+22	1265.1162069419636	-0.6652511172282048	19.652100411695475	1.791044776119403	26.67913357739313	134.06599640349705	135.4125252894641	50.98117185378921	0.009612673796804224	-1.9398729434058352e+22	1.4400254875058016	0.04008949856449905	-3.3272943432566426e+22	0.15140915306692448	0.25969887369652445	0.0	29.678806	8.198505	-23.748121	19.579687	-21.077326	22.64292	0.0		True	0.0	None	0.0	None	0.0	None	0.0	None	0.0	None	0.0	None	0.0	None	0.0	None	1.2161e-06	12
2014-02-11 02:48:00	13.789801836716707	97113262.4533	5.7359863265722905e+20	319617678582.80536	3.179966328580913	243423673164.411	1.977574607678836e+20	-8.404251214833138e+22	1300.9407288783211	-0.6516403498763272	19.655847665259444	1.5060240963855422	28.103555405337485	141.38643149510972	144.47523692685866	52.885645927888184	0.009578211833075044	-1.8138900621435848e+22	1.4308460382285133	0.039651396604891406	-3.43067287688353e+22	0.14064357722270998	0.2660040515992591	0.0	29.680355	8.089153999999999	-23.743179	19.696983	-21.075146	22.748619	0.0		True	0.0	None	0.0	None	0.0	None	0.0	None	0.0	None	0.0	None	0.0	None	0.0	None	1.7456e-06	12
2014-02-11 03:00:00	15.488333670316448	104300113.7613	6.782793256117461e+20	347961150954.225	1.946556014857597	153969910568.8593	2.117069746282596e+20	-9.113919534371796e+22	1480.392891420389	-0.6579727599680102	20.698093963987734	2.318840579710145	26.72942465867531	144.68890100252588	146.796734397647	54.66526851722036	0.005642191347413325	-1.923911952102244e+22	0.8709078019230954	0.022513070340462998	-3.660475096245016e+22	0.1388954173104196	0.2642653243521875	0.0	29.681829	7.9798300000000015	-23.739412	19.82057	-21.071379	22.854319	0.0		True	0.0	None	0.0	None	0.0	None	0.0	None	0.0	None	0.0	None	0.0	None	0.0	None	1.559e-06	12
2014-02-11 03:12:00	15.087425008120613	103272624.208	7.161901088666823e+20	328508452563.25604	1.5799961851801445	133685819278.89874	2.0526862299279222e+20	-8.848608847418081e+22	1654.2389422130843	-0.6451746669766392	20.979970841193765	1.8404907975460123	26.921303899854856	147.75538587224162	149.71520866474825	54.13136841505329	0.004846614064969768	-1.9591106961678285e+22	0.8002222440661121	0.018598966311518625	-3.840896440009936e+22	0.14284376366565932	0.2800495675993445	0.0	29.683434	7.870533	-23.734476	19.945557	-21.069242000000006	22.958063	0.0		True	0.0	None	0.0	None	0.0	None	0.0	None	0.0	None	0.0	None	0.0	None	0.0	None	2.6181e-06	12
2014-02-11 03:24:00	14.443795152892056	100598456.9311	6.71483659867941e+20	307992177051.5479	1.9849424406263405	124741598860.26385	1.9745170030658768e+20	-8.637915189678978e+22	1652.3482250100876	-0.6465545500846758	20.74118917651153	2.9411764705882346	26.786068722178435	150.56027863959162	151.59981784286933	57.51331115974906	0.006486740002046863	-2.0704212606940344e+22	0.7954639246203062	0.02396682311977549	-3.634372479380908e+22	0.15497261286997288	0.2720355562247168	0.0	29.68495900000001	7.761260000000001	-23.729914	20.067673000000006	-21.091061	23.062393	0.0		True	0.0	None	0.0	None	0.0	None	0.0	None	0.0	None	0.0	None	0.0	None	0.0	None	1.6464e-05	12
2014-02-11 03:36:00	14.711897125112074	100839527.4231	7.137165588954165e+20	296021486460.13025	2.2467149555122408	168624058634.95132	1.9257457662579225e+20	-8.251741594313861e+22	1821.760272597024	-0.6161724662631295	20.675537273848494	2.7118644067796613	28.206033537037158	154.39876920756225	155.27419262833848	59.156918245688544	0.007615982900041496	-1.943448581765939e+22	1.1153624658030363	0.02757144111054596	-3.7847313206047245e+22	0.14512081988940093	0.2826127315435202	0.0	29.686611	7.652011	-23.757694	20.169992	-21.08642	23.207384	0.0		True	0.0	None	0.0	None	0.0	None	0.0	None	0.0	None	0.0	None	0.0	None	0.0	None	1.7728e-05	12
2014-02-11 03:48:00	13.010015981339473	92772272.6679	6.486357147805092e+20	265132673641.6852	2.3586950833108498	194067896593.25006	1.784234003666745e+20	-7.807368543603846e+22	1802.2667667377984	-0.6336858248190931	19.92393535477424	2.2140221402214006	27.743987284228034	154.38034033221848	156.7757009967363	61.07288915736528	0.008703671894135977	-1.4903789260742515e+22	1.3973050915408256	0.031125408566637362	-3.465732864971572e+22	0.1209667500371912	0.2812965440117931	0.0	29.688185	7.542783999999997	-23.784887	20.272738	-21.081179	23.352945	0.0		True	0.0	None	0.0	None	0.0	None	0.0	None	0.0	None	0.0	None	0.0	None	0.0	None	7.221799999999997e-06	12
2014-02-11 04:00:00	14.896077875936037	93829818.3143	6.443128807129408e+20	326179322603.26074	3.0537598638236174	286748126644.9332	1.8785579664641832e+20	-7.642427442643493e+22	1575.1924749220136	-0.6133070827520691	20.788238568092442	1.9480519480519485	28.484314538877324	141.67910605121313	144.3712426885981	55.295308581068056	0.009914804752674082	-1.3756969188726705e+22	1.8165416692600376	0.0403466018500244	-3.6754180538710008e+22	0.1104000882438166	0.2949533955580746	0.0	29.689878000000004	7.433578	-23.812382	20.375324	-21.076218	23.487087	0.0		True	0.0	None	0.0	None	0.0	None	0.0	None	0.0	None	0.0	None	0.0	None	0.0	None	2.6718999999999998e-06	12
2014-02-11 04:12:00	15.442646264623034	98270825.0561	7.333585966869794e+20	364370859289.7529	1.1125118465985384	110999012141.21338	2.044875388120305e+20	-8.049077694875113e+22	1573.24673224038	-0.6167498957203252	22.40017936507593	3.133903133903134	28.775421387271546	138.10265808358275	141.3985800545839	52.74927280715804	0.003169549420508657	-1.350203883701297e+22	0.6170161454621851	0.014004486718689986	-3.852876680378817e+22	0.1034575806125168	0.29522156213747136	0.0	29.691492	7.324392	-23.839439	20.476862	-21.070812	23.608147	0.0		True	0.0	None	0.0	None	0.0	None	0.0	None	0.0	None	0.0	None	0.0	None	0.0	None	1.9443e-06	12
2014-02-11 04:24:00	14.110225049293456	89603334.8403	7.261246708260152e+20	312979625003.0362	0.30085633044400084	18825046259.381718	1.840249787702876e+20	-7.356439364993778e+22	1840.950746325649	-0.6182027210083975	22.325022060346818	3.3670033670033668	27.175646230887534	143.1366679066737	143.93096889937343	56.95689564370262	0.0010129842775892283	-1.3038371648588076e+22	0.1236668763203142	0.004149846657188774	-3.613067351654933e+22	0.10956872517745156	0.3036262459537819	0.0	29.693174	7.215224	-23.867376	20.580126	-21.06624	23.720058	0.0		True	0.0	None	0.0	None	0.0	None	0.0	None	0.0	None	0.0	None	0.0	None	0.0	None	1.5863e-06	12
2014-02-11 04:36:00	12.911421619119885	84399607.3084	6.316852501685873e+20	291120796921.30896	0.3647903023339256	28836459756.289825	1.689413024757424e+20	-6.731591190490264e+22	1794.9085454367728	-0.6005715710072409	20.898814611604017	3.7735849056603774	27.76453562592648	152.03916260186801	152.28618207959818	58.87200966169085	0.0013765671786185876	-1.2205746911023076e+22	0.21230475061796808	0.005400795776395851	-3.528226701775312e+22	0.10889586711720728	0.31477738222551976	0.0	29.694872	7.106071000000001	-23.863134	20.683783	-21.06197	23.83761	0.0		True	0.0	None	0.0	None	0.0	None	0.0	None	0.0	None	0.0	None	0.0	None	0.0	None	1.5571999999999999e-06	12
2014-02-11 04:48:00	14.720211630806615	84712155.7624	6.680683031428366e+20	329707174642.9978	0.5877958238018277	51949768841.912735	1.749498811127323e+20	-6.732561254031932e+22	1746.6901463849524	-0.5984420068542444	21.923185171331948	1.3888888888888888	27.770806973591892	145.93702199199382	145.58855087218802	60.008253098821925	0.002040957721534124	-1.325232549075532e+22	0.35192090853801844	0.008681881898350976	-3.5429619698294894e+22	0.11779689724209765	0.3149258048210504	0.0	29.696585	6.9969350000000015	-23.858822	20.786818	-21.05616	23.960516	0.0		True	0.0	None	0.0	None	0.0	None	0.0	None	0.0	None	0.0	None	0.0	None	0.0	None	1.4943e-06	12
2014-02-11 05:00:00	12.520106295404613	86756308.4316	6.63197495617708e+20	274027237134.3912	1.3864239028519714	76886783878.42105	1.7994030096762343e+20	-7.012243924266807e+22	1727.9553709274646	-0.6086161009378279	21.05572441942568	1.7301038062283738	27.28731854482398	142.09213019290686	142.54906160736357	55.233442891265014	0.004797314542740385	-1.444268868319379e+22	0.519037241547551	0.01986884206217233	-3.4654664575315675e+22	0.12535292508871726	0.30077942326203644	0.0	29.698313	6.8878119999999985	-23.884031	20.88979	-21.051828	24.071857	0.0		True	0.0	None	0.0	None	0.0	None	0.0	None	0.0	None	0.0	None	0.0	None	0.0	None	1.2294e-06	12
2014-02-11 05:12:00	12.658448595444383	82622559.01500002	6.048484798515448e+20	278190155428.22656	1.8643478144758072	134590680356.74326	1.6883809766867196e+20	-6.658253632639241e+22	1680.6018614598993	-0.6068051113509799	20.636996838755653	2.5830258302583027	27.503484054411782	143.0892199348979	142.88405298915805	57.66655276170454	0.006879512230538035	-1.5243497520929058e+22	0.9689059895418334	0.028086336001238967	-3.279323803290233e+22	0.1389227974918588	0.2988637194378964	0.0	29.700048	6.7787	-23.880272	20.993073000000006	-21.046555	24.177652	0.0		True	0.0	None	0.0	None	0.0	None	0.0	None	0.0	None	0.0	None	0.0	None	0.0	None	1.2532e-06	12
2014-02-11 05:24:00	12.299884023388381	84575872.6439	6.87316619013515e+20	287338632359.3075	2.077931668386724	160046148526.70374	1.7656522114842827e+20	-6.667422881458276e+22	1754.3744235806867	-0.5936069428604471	21.74805641125626	2.7118644067796613	28.771075694357876	144.16655951275948	141.9506594462792	59.126279083897856	0.0070438361640227905	-1.6089236687831033e+22	1.0584023857791742	0.030834261902915494	-3.3635714007146485e+22	0.14324399056465176	0.2994619318093044	0.0	29.701797	6.669598	-23.874935	21.095776	-21.04121	24.288792	0.0		True	0.0	None	0.0	None	0.0	None	0.0	None	0.0	None	0.0	None	0.0	None	0.0	None	1.2286e-06	12
2014-02-11 05:36:00	11.906862566264214	78430467.51370001	5.84135672192512e+20	266987507974.0973	1.4742423630639394	103848355266.60667	1.5934819996254994e+20	-6.099127003164457e+22	1653.5586198947274	-0.5855586172717617	21.118686197796887	1.5037593984962403	28.89642374515775	143.27386121263734	141.8885800975217	57.18283091255617	0.005542264522796765	-1.5872114463937437e+22	0.7616192200606455	0.023710012136328697	-3.222632658010354e+22	0.15238333935102893	0.3093951515061578	0.0	29.703556	6.560503999999999	-23.870892	21.198437	-21.035618	24.394032	0.0		True	0.0	None	0.0	None	0.0	None	0.0	None	0.0	None	0.0	None	0.0	None	0.0	None	1.2416e-06	12
2014-02-11 05:48:00	10.881982158151322	72830919.96110001	5.7663673556449696e+20	238127558167.6073	1.9587240845785585	140388909518.71906	1.4457047746049715e+20	-5.697778649570306e+22	1871.5514020318155	-0.5890839846292668	21.302113989693886	1.7241379310344829	27.9310397818478	146.298228027838	142.92606352853025	60.82316084614074	0.008442776226631721	-1.3942081884995356e+22	1.1804768439194366	0.033848592360057016	-3.091675052023363e+22	0.14414489673901187	0.3196432102468858	0.0	29.705318	6.451417	-23.88998	21.302181	-21.029793	24.506393	0.0		True	0.0	None	0.0	None	0.0	None	0.0	None	0.0	None	0.0	None	0.0	None	0.0	None	1.1413e-06	12
2014-02-11 06:00:00	10.846115087936996	73220375.2262	5.390806786469488e+20	255454118124.2501	1.4696788040030853	73543870828.48497	1.4858983526420054e+20	-5.665964580577301e+22	1636.7771267036642	-0.5826790008955569	21.220058446322245	2.419354838709677	28.846720140281988	150.307991604201	147.73450473805173	58.545187711478945	0.005926124209689861	-1.3714229587480194e+22	0.5784966664542337	0.025364577703450103	-3.154803057251352e+22	0.14103500790453316	0.32443504848633725	0.0	29.707085	6.342335	-23.890423	21.40535	-21.024096	24.612186	66560.0		False	0.0	None	0.0	None	0.0	None	0.0	None	0.0	None	0.0	None	0.0	None	0.0	None	1.2753e-06	12
2014-02-11 06:12:00	10.386571238380553	70862402.7907	5.054886135906663e+20	240737384459.572	1.5314904467291952	145696132895.1485	1.485780399119396e+20	-5.615289895043203e+22	1498.5290553734042	-0.5966832068422206	20.374828608346306	0.3937007874015748	28.857842902157326	138.17402678974747	135.2719966407789	57.38927819465221	0.0060294899477527355	-1.421091894866767e+22	1.1189594960362104	0.027071333923211142	-2.9929972052067395e+22	0.15100585809382625	0.3180372169296205	0.0	29.708855	6.2332550000000015	-23.885925	21.508314	-21.019567	24.723866	66560.0		False	0.0	None	0.0	None	0.0	None	0.0	None	0.0	None	0.0	None	0.0	None	0.0	None	1.3723e-06	12
2014-02-11 06:24:00	11.124927360652523	73808589.79930001	5.560640708322692e+20	265925547456.8213	0.046246806611809584	54482820378.16892	1.6075826956949773e+20	-5.935863886358585e+22	1490.0675866435574	-0.6055701767428143	21.527408017048273	2.8469750889679712	28.63054044370341	139.2904291055189	137.2662276221064	51.73081259910451	0.00016457938296017644	-1.4177602116187712e+22	-0.37822289272236803	0.0007805047402638888	-3.0562017648349813e+22	0.14463830680180864	0.3117902765840169	0.0	29.710627	6.124177	-23.882299	21.611694	-21.012833	24.834738	0.0		True	0.0	None	0.0	None	0.0	None	0.0	None	0.0	None	0.0	None	0.0	None	0.0	None	1.3444e-06	12
2014-02-11 06:36:00	10.277122838714831	75937048.6752	5.828632982377227e+20	244609886035.04395	0.8971494937668317	69841346337.6931	1.6725582594596304e+20	-6.261623893555228e+22	1518.6453705805163	-0.6208987246142249	21.178801050471925	2.4221453287197234	27.27921658166913	134.47877832833402	132.4648999652399	50.48203827926142	0.0031043235078437085	-1.4826263782055431e+22	0.4714162091991335	0.014577572749095297	-3.202471468979834e+22	0.14701630806262825	0.3175550758884756	0.0	29.712399	6.015099	-23.878138	21.715168	-21.008631	24.946898	0.0		True	0.0	None	0.0	None	0.0	None	0.0	None	0.0	None	0.0	None	0.0	None	0.0	None	1.3318000000000001e-06	12
2014-02-11 06:48:00	10.69772526287252	73694581.84570001	5.161739808216291e+20	262223829145.63425	0.4977515352700981	41497964890.506516	1.6726247813773135e+20	-5.9377241522701085e+22	1270.1710915061187	-0.6066972138998411	20.453278363602763	0.0	28.14047911093212	127.30556017483171	125.03238412527584	47.58150267529247	0.0016266390041506473	-1.4211271356651038e+22	0.2645397410661285	0.00840761864008386	-3.172407876639732e+22	0.14520611798307376	0.3241462504409858	0.0	29.714169	5.906018	-23.874855	21.819756	-21.003752	25.054129	0.0		True	0.0	None	0.0	None	0.0	None	0.0	None	0.0	None	0.0	None	0.0	None	0.0	None	1.4466e-06	12
2014-02-11 07:00:00	11.405515653112989	75363181.4451	6.23063157773564e+20	275662842654.1983	1.4845331050122932	138644145404.8543	1.7112948609230117e+20	-6.22044916830679e+22	1548.3776488521826	-0.6215126491179389	21.858619899742408	1.3201320132013201	27.328037470309205	132.97832217910423	131.11387013810236	47.747246261020486	0.004899449191459714	-1.488353057265678e+22	0.8925668439471665	0.02429630986352254	-3.140817407995892e+22	0.14870795121307434	0.3138129891945755	0.0	29.715933000000003	5.796933	-23.871763	21.923651	-20.999063	25.183693	0.0		True	0.0	None	0.0	None	0.0	None	0.0	None	0.0	None	0.0	None	0.0	None	0.0	None	1.2956e-06	12
2014-02-11 07:12:00	12.049352030560712	79628055.1988	6.252726987805453e+20	298517952603.85565	0.5366898010228502	38274022952.76654	1.822400547082673e+20	-6.413956446482097e+22	1426.7338551763553	-0.6065230885951342	20.991003145138265	1.5151515151515151	27.699011069654713	131.2046308929229	130.61243515960732	48.410127397237346	0.0016263327303722734	-1.5848794703079754e+22	0.2262398045774445	0.008390739875422878	-3.2914939902194046e+22	0.1498709882742414	0.31125361041937777	0.0	29.717691	5.6878410000000015	-23.868776	22.027174	-20.996006	25.296055	0.0		True	0.0	None	0.0	None	0.0	None	0.0	None	0.0	None	0.0	None	0.0	None	0.0	None	1.3399e-06	12
2014-02-11 07:24:00	12.02834283216484	80580496.8279	5.763095489123906e+20	290459874671.32904	0.1311510084134246	35901539122.50452	1.8491396383478288e+20	-6.617659130479592e+22	1319.0079839262135	-0.6183892899658436	20.338084468443068	0.6079027355623101	27.12688656800491	121.97930162285265	121.95799196651762	45.02363576681157	0.0003986352839313817	-1.48177553533734e+22	0.2128598355778203	0.002011354833011346	-3.31977345121074e+22	0.13846499239673124	0.31021729993410685	0.0	29.719442	5.578743	-23.893097	22.130047	-20.990892	25.401548	0.0		True	0.0	None	0.0	None	0.0	None	0.0	None	0.0	None	0.0	None	0.0	None	0.0	None	1.6254e-06	12
2014-02-11 07:36:00	12.616771244215155	87459113.0745	6.368296494326751e+20	311352419914.7177	2.04109644238128	175814749893.42194	1.988653161953028e+20	-7.216370025331795e+22	1366.1665359980154	-0.6212997940879319	20.2255013225822	0.5698005698005698	26.94461482334837	129.26199299051586	128.49307787501016	49.04781636552064	0.005815089579433846	-1.420716175287544e+22	0.9770639696172096	0.028788903570075176	-3.7108370210313883e+22	0.12231782240447972	0.31948781298180057	0.0	29.721184	5.469635	-23.889597	22.233664	-20.985781	25.514059	0.0		True	0.0	None	0.0	None	0.0	None	0.0	None	0.0	None	0.0	None	0.0	None	0.0	None	1.7494e-06	12
2014-02-11 07:48:00	14.597839536371794	89990664.7226	7.298895703465232e+20	381828251379.3572	1.7996656609899566	172061627716.01416	2.0452844369067337e+20	-7.263025484280516e+22	1450.1249621552524	-0.6077256807201403	21.84926697180273	2.638522427440633	28.67074800720749	133.0445176863384	131.9610525104029	50.826262309846	0.004748458208416772	-1.6056396450798376e+22	0.8855611055665346	0.024877825487089368	-3.830796094122528e+22	0.1343501338952071	0.32053765597261835	0.0	29.722916	5.3605160000000005	-23.883732	22.33741400000001	-20.9799	25.626768	0.0		True	0.0	None	0.0	None	0.0	None	0.0	None	0.0	None	0.0	None	0.0	None	0.0	None	1.4541999999999996e-06	12
