Timestamp	TOTUSJH	TOTBSQ	TOTPOT	TOTUSJZ	ABSNJZH	SAVNCPP	USFLUX	TOTFZ	MEANPOT	EPSZ	MEANSHR	SHRGT45	MEANGAM	MEANGBT	MEANGBZ	MEANGBH	MEANJZH	TOTFY	MEANJZD	MEANALP	TOTFX	EPSY	EPSX	R_VALUE	CRVAL1	CRLN_OBS	LAT_MIN	LON_MIN	LAT_MAX	LON_MAX	QUALITY	NOAA_AR	IS_TMFI	BFLARE	BFLARE_label	CFLARE	CFLARE_label	MFLARE	MFLARE_label	XFLARE	XFLARE_label	BFLARE_loc	BFLARE_label_loc	CFLARE_loc	CFLARE_label_loc	MFLARE_loc	MFLARE_label_loc	XFLARE_loc	XFLARE_label_loc	XR_MAX	XR_QUAL
2014-01-10 03:24:00	40.81019001772025	374928973.845	2.496886823419123e+21	988504313421.82	4.6484482368191715	259228977556.3366	8.36227641758598e+20	-3.4966656454188986e+23	1311.1044119405178	-0.7022515008686658	22.18858589679505	0.3486750348675035	25.307259645815247	105.37078218855535	105.99467615505868	35.38672172957851	0.00324159570210542	-4.7469662406880935e+22	0.3552984014142029	0.01456683717738206	1.385337634106189e+23	0.09533551403359132	-0.27822375125728394	0.0	22.714184	69.099335	-9.942212	-47.123108	-6.929892999999999	-43.969906	0.0		True	0.0	None	0.0	None	0.0	None	0.0	None	0.0	None	0.0	None	0.0	None	0.0	None	1.2376e-06	12
2014-01-10 03:36:00	41.85931465280507	372153591.8919	2.4867004739763663e+21	1022734105002.7266	4.230293565277507	235795551358.2319	8.3239876555542e+20	-3.459720023623161e+23	1316.7744804462511	-0.7000132500560989	22.058476232082906	0.7032348804500703	25.03252078913616	106.88063438828449	107.31564451845465	36.46633280402718	0.002974889989646629	-4.5764103469463465e+22	0.3259011988140844	0.013372911824117572	1.3724818217618854e+23	0.09259558168528864	-0.2776974593708049	0.0	22.718117000000003	68.990166	-9.945431	-47.009026	-6.935134	-43.862602	0.0		True	0.0	None	0.0	None	0.0	None	0.0	None	0.0	None	0.0	None	0.0	None	0.0	None	9.7071e-07	12
2014-01-10 03:48:00	44.29829172573107	373174584.5286	2.6555746368062337e+21	1060790099246.2484	5.88553249150954	353128432020.7494	8.130551916619653e+20	-3.3949258797318904e+23	1456.3826008630965	-0.6850239346565369	22.943343685989948	1.6751638747268751	25.70694685181593	112.13997608654171	112.64362574761923	38.37297974697204	0.004286622353612193	-4.516782516294544e+22	0.5054793956814116	0.018719645718494732	1.402811810489898e+23	0.09113907757963463	-0.2830576277795911	0.0	22.722069	68.88101999999999	-9.95019	-46.904037	-6.939773	-43.748348	0.0		True	0.0	None	0.0	None	0.0	None	0.0	None	0.0	None	0.0	None	0.0	None	0.0	None	8.965300000000002e-07	12
2014-01-10 04:00:00	44.06254166448078	374396706.1219	2.640979743919729e+21	1067380179068.9388	5.8488576163345325	316484121690.4133	8.249642400714903e+20	-3.417965983305073e+23	1407.3768918091992	-0.6874216794143037	22.805638603000396	1.5569709837225758	25.61951589245501	108.89762751215773	108.81125382858812	37.741223164909655	0.00413931890752621	-4.45445049315205e+22	0.4401925671448302	0.01851592449165329	1.4083921595266042e+23	0.08958795534616491	-0.2832559798150871	0.0	22.726063	68.771912	-9.953867	-46.789833	-6.922151	-43.625751	0.0		True	0.0	None	0.0	None	0.0	None	0.0	None	0.0	None	0.0	None	0.0	None	0.0	None	9.0739e-07	12
2014-01-10 04:12:00	44.63696719618654	373937756.5651	2.6636689448219344e+21	1035735004301.3864	6.185453365000504	282528213400.98425	8.047208012744642e+20	-3.438282115409685e+23	1502.4033297947449	-0.692356455392136	22.993769031566682	1.947565543071161	25.38307468440897	111.14884238984686	111.26583499526946	38.13269741478764	0.00463329840074944	-4.508255488375866e+22	0.3838218413008526	0.019548361968208344	1.3930376358775796e+23	0.09078137526716999	-0.2805117693750155	0.0	22.730068	68.662819	-9.944552	-46.679752	-6.923359	-43.508808	0.0		True	0.0	None	0.0	None	0.0	None	0.0	None	0.0	None	0.0	None	0.0	None	0.0	None	8.956799999999998e-07	12
2014-01-10 04:24:00	45.31418430676613	362184768.3707	2.5681574407906693e+21	1065194507836.6221	6.479879915142852	325917022094.55664	7.892667556665387e+20	-3.3386540111194144e+23	1472.8020662759955	-0.6941106356228465	22.695618415042645	1.1424219345011426	25.10659681134781	110.71215391283226	111.43536760330963	37.201823633636494	0.0049351712986617285	-4.664202490995767e+22	0.4878197044424106	0.021121511896063216	1.3485484890030125e+23	0.09696939380110386	-0.2803650350568268	0.0	22.734158	68.55375699999999	-9.94183	-46.57061	-6.8973179999999985	-43.386383	0.0		True	0.0	None	0.0	None	0.0	None	0.0	None	0.0	None	0.0	None	0.0	None	0.0	None	8.566800000000002e-07	12
2014-01-10 04:36:00	47.84204653897627	382774181.8011	2.8749727306556543e+21	1156350711752.89	5.952546032491052	291207940119.9445	8.309661568641891e+20	-3.460626222162996e+23	1548.5101204733594	-0.6807686488565337	23.43454774047451	2.503576537911302	25.836944142752102	108.70007208092831	109.13227007169417	38.04205255387237	0.004257901310794744	-5.152386748597338e+22	0.4093602019328693	0.018504705714572803	1.453450284293577e+23	0.10135689727960777	-0.2859203284890556	0.0	22.738224	68.444725	-9.947011	-46.455254	-6.7945210000000005	-43.273174	0.0		True	0.0	None	0.0	None	0.0	None	0.0	None	0.0	None	0.0	None	0.0	None	0.0	None	8.387300000000002e-07	12
2014-01-10 04:48:00	51.92932449309861	412890100.0045	3.0829599818369676e+21	1244095607145.6328	4.945948252825096	155651365547.72644	8.872350416233823e+20	-3.685435627879981e+23	1562.199600375053	-0.6721122400146564	23.421239130435573	1.8169582772543744	26.18781683496069	109.85651636698894	110.54344131490393	38.349352786317475	0.003328363561793472	-5.044891818434372e+22	0.20584320312146948	0.0143278051968112	1.592821456490944e+23	0.09200360237115393	-0.2904825657425373	0.0	22.742359	68.335709	-9.934471	-46.347542	-6.5604369999999985	-43.168526	0.0		True	0.0	None	0.0	None	0.0	None	0.0	None	0.0	None	0.0	None	0.0	None	0.0	None	7.9582e-07	12
2014-01-10 05:00:00	50.38024182060971	399370220.5899	2.8850463008690143e+21	1166873418436.3325	3.789780139737952	205391734580.29654	8.457092477888241e+20	-3.536223352361905e+23	1558.3949784196432	-0.6667323629798801	22.96992245191455	1.2912482065997128	26.389321106678015	108.58827472342352	109.31175048314049	38.377464462886856	0.0027186371160243554	-4.870449855536432e+22	0.289544893875093	0.011386820244970857	1.553457958812372e+23	0.0918292261937556	-0.29289459190327577	0.0	22.746456	68.22670699999999	-9.936472	-46.227318	-6.534875	-43.049282	0.0		True	0.0	None	0.0	None	0.0	None	0.0	None	0.0	None	0.0	None	0.0	None	0.0	None	8.516700000000002e-07	12
2014-01-10 05:12:00	54.94687889740598	405036040.6805	2.991213431626657e+21	1302684132859.4934	4.64374892530667	146488601698.6042	8.695786505481594e+20	-3.59667317205262e+23	1550.1345619256463	-0.6686439476360865	23.291129228072627	1.8582243633860973	26.363211150992875	112.50890717662165	113.52392898326885	39.355969896715756	0.003195973107575134	-5.405766867677424e+22	0.19811968916577333	0.013741729001346948	1.5592465958561348e+23	0.10049657351383368	-0.2898736552691484	0.0	22.750572	68.117722	-9.937292	-46.121765	-6.514297	-42.93166400000001	0.0		True	0.0	None	0.0	None	0.0	None	0.0	None	0.0	None	0.0	None	0.0	None	0.0	None	9.056399999999999e-07	12
2014-01-10 05:24:00	56.25801617449986	403215171.7199	3.100193075425614e+21	1366094249943.7363	5.936771124270117	290425432171.66833	8.773712878366312e+20	-3.564751593231505e+23	1567.767550141003	-0.6657022638973594	23.950620962629362	2.1490933512424446	26.41302897382637	109.89101059223894	110.69517213745569	38.993078199034464	0.003987086047192826	-6.000352499733531e+22	0.38328638104611856	0.017678526383749102	1.528129688471796e+23	0.11205404188160442	-0.28537174794338505	0.0	22.754707	68.008759	-9.939995	-46.00436	-6.493447	-42.819191	0.0		True	0.0	None	0.0	None	0.0	None	0.0	None	0.0	None	0.0	None	0.0	None	0.0	None	8.5221e-07	12
2014-01-10 05:36:00	55.139891723168134	386574440.1474	2.9374773026294087e+21	1272727760986.4631	5.820980359395517	295285287127.19763	8.314904174546914e+20	-3.436136864474022e+23	1614.5128671960226	-0.6693062437220222	23.227519992625624	1.094890510948905	25.76676290383511	114.21948430978004	114.87939663120515	39.384803858266814	0.004248890773281398	-5.789459883239198e+22	0.42354448620366536	0.01804084919487544	1.4584301982190214e+23	0.11276971204764015	-0.284079615044716	0.0	22.758854	67.899803	-9.930867999999998	-45.881355	-6.497331	-42.714405	0.0		True	0.0	None	0.0	None	0.0	None	0.0	None	0.0	None	0.0	None	0.0	None	0.0	None	8.3359e-07	12
2014-01-10 05:48:00	50.02785761161658	373922801.092	2.8802288821212676e+21	1151366998565.9048	4.282388602516498	141999809507.1566	8.054529335424701e+20	-3.303553387411615e+23	1640.5259226602966	-0.6652531392387508	23.132322923184205	0.907715582450832	25.805724921257053	111.70804744421929	112.4050019888855	38.39410911100569	0.003239325720511723	-5.906325022357971e+22	0.21107117858117336	0.013754786722363995	1.4161061507871104e+23	0.11893863369850413	-0.28516840862818765	0.0	22.763012	67.790863	-9.930995	-45.771305	-6.497413	-42.601078	0.0		True	0.0	None	0.0	None	0.0	None	0.0	None	0.0	None	0.0	None	0.0	None	0.0	None	8.349299999999998e-07	12
2014-01-10 06:00:00	52.8104791527795	370821194.8641	2.8948937210933207e+21	1229849631140.8125	3.7981539548860943	51572500457.28688	7.997158232189238e+20	-3.236918981206963e+23	1647.6325946306479	-0.6572867462886668	23.28062424509005	1.058201058201058	26.04466410509589	111.24969470780466	111.95637207048789	38.70191366511535	0.002870864667336428	-5.6766798696893215e+22	0.07659956436478307	0.012360622811730865	1.4405115445209038e+23	0.11527030682365726	-0.292509374373145	0.0	22.767181	67.681931	-9.931212	-45.659782	-6.478077	-42.485462	66560.0		False	0.0	None	0.0	None	0.0	None	0.0	None	0.0	None	0.0	None	0.0	None	0.0	None	8.3177e-07	12
2014-01-10 06:12:00	51.98190410330554	364477543.9188	2.9025135659537447e+21	1196289257007.2466	2.5860376076925857	61131056438.06444	7.84623876382828e+20	-3.2105298462536264e+23	1698.1782679201235	-0.6632748089914091	23.316161686346234	1.2432012432012431	25.683401103383307	113.08795689658531	113.5697396263031	39.00968924401672	0.0020093532305303697	-5.5651566031259115e+22	0.093335534260516	0.008531591368228722	1.4074991163694435e+23	0.11497255467825415	-0.2907802612876785	0.0	22.771347	67.572998	-9.921977	-45.537991	-6.4841370000000005	-42.373314	66560.0		False	0.0	None	0.0	None	0.0	None	0.0	None	0.0	None	0.0	None	0.0	None	0.0	None	8.392799999999998e-07	12
2014-01-10 06:24:00	54.15841842865918	378720955.6743001	3.0322874143304843e+21	1240305951200.6775	0.9336491262958296	85854275193.39543	8.12653531047226e+20	-3.309916280935493e+23	1702.6645588876415	-0.6580898360888163	23.39490402799093	1.715137956748695	26.04169720588	114.5510814767808	114.62144426103417	40.39885685955151	0.000696753079325246	-5.8985280147109095e+22	-0.1258035664823315	0.0029743768309852788	1.4508572537996653e+23	0.11727672257829065	-0.28846482246113936	0.0	22.775532	67.46408100000001	-9.956225	-45.458942	-6.467077	-42.269966	0.0		True	0.0	None	0.0	None	0.0	None	0.0	None	0.0	None	0.0	None	0.0	None	0.0	None	1.0862999999999999e-06	12
2014-01-10 06:36:00	56.90297816142984	390089521.0534	3.153923989717323e+21	1333773450989.5884	2.9610264057875577	129833122482.59167	8.468859771614809e+20	-3.419939704044055e+23	1661.906241532628	-0.660148575246009	23.56673047253602	1.6095171448565433	26.051927880807877	114.06627315824971	114.09832110776144	39.56037002557173	0.0020720968549947922	-5.9993343616591726e+22	0.1785294075473167	0.009144522544433849	1.5044777276936323e+23	0.11580473265626645	-0.2904082862197475	0.0	22.779755	67.35515600000001	-9.977605	-45.375748	-6.470861	-42.158825	0.0		True	0.0	None	0.0	None	0.0	None	0.0	None	0.0	None	0.0	None	0.0	None	0.0	None	1.1934e-06	12
2014-01-10 06:48:00	55.50619227316781	405608690.0046	3.181003458869699e+21	1348566285492.8992	4.3082004277438966	159406166247.36264	9.043382459367885e+20	-3.55378959486055e+23	1518.8674892893216	-0.6597386064079772	23.19788465630546	1.14140773620799	26.072079065674554	107.71525336570885	107.33879970694952	38.29865233763558	0.00273189627631192	-5.665732711047001e+22	0.19862183044269466	0.012799085732700156	1.583348620900028e+23	0.10518075151303136	-0.29393867721410977	0.0	22.783989	67.246239	-9.983102	-45.290901	-6.379638	-42.017769	0.0		True	0.0	None	0.0	None	0.0	None	0.0	None	0.0	None	0.0	None	0.0	None	0.0	None	1.012e-06	12
2014-01-10 07:00:00	58.03412698808538	421624956.98380005	3.244093935548903e+21	1430077031909.4758	3.4912528424355163	10161202080.96672	9.498731971187478e+20	-3.703566048922203e+23	1465.363388308721	-0.6614260564559394	22.804073395950127	1.3797240551889622	26.157486175723648	106.28463320584947	106.24252803248592	37.30000386315409	0.002094332838893531	-5.47625060044163e+22	0.011977350619026305	0.00996790684791675	1.6765977507454826e+23	0.09780127560756413	-0.2994263971237137	0.0	22.788162	67.137314	-9.991307	-45.204693	-6.09801	-41.827473	0.0		True	0.0	None	0.0	None	0.0	None	0.0	None	0.0	None	0.0	None	0.0	None	0.0	None	8.2485e-07	12
2014-01-10 07:12:00	58.11817625052373	431088470.8733	3.269306518840951e+21	1426468314944.5308	3.9377703534432817	26733625715.864	9.79232905576014e+20	-3.859293021049706e+23	1441.3032293710999	-0.6741071469506069	22.489013435060095	1.053864168618267	25.541764001963237	108.74844523383652	108.73070397158772	36.25302062281156	0.002305486155411758	-5.1858092978674965e+22	-0.006755521358390789	0.010912662454679072	1.704229030673599e+23	0.09058112694082378	-0.29767964322784224	0.0	22.792332	67.02838100000001	-10.02724	-45.170723	-6.072623	-41.613461	0.0		True	0.0	None	0.0	None	0.0	None	0.0	None	0.0	None	0.0	None	0.0	None	0.0	None	9.7813e-07	12
2014-01-10 07:24:00	68.49008935326123	493973048.4494	3.9195602967871006e+21	1669464965539.412	3.3203450671887165	44325776195.277145	1.1183484312190703e+21	-4.3921981872363e+23	1511.9764260345762	-0.6695240125686288	23.001147315155286	1.7418032786885245	25.7769212942024	112.86438888770307	112.34071226503616	36.45694779698445	0.001700996448354875	-5.530606272204811e+22	0.044619484584594506	0.008052250774581972	1.998301080072254e+23	0.08430570628766977	-0.3046106984284453	0.0	22.796497	66.919449	-10.210897	-45.295227	-6.048689	-41.452797	0.0		True	0.0	None	0.0	None	0.0	None	0.0	None	0.0	None	0.0	None	0.0	None	0.0	None	1.4011000000000002e-06	12
2014-01-10 07:36:00	67.16944305509405	497564960.4985001	3.911487362904505e+21	1683003512463.8926	3.200323271327765	47345854044.74042	1.1422616293567948e+21	-4.422747800191722e+23	1448.745628424678	-0.6693140966462889	22.9098666027152	2.2626660108214462	26.052613766733703	110.31366899205622	109.73772336871738	35.625446987701075	0.0015741875412335295	-5.157902507736199e+22	0.045760612551213546	0.007706124043721922	2.041863609567056e+23	0.0780568328450795	-0.3090043020886385	0.0	22.800652	66.810501	-10.217881	-45.211033	-6.027871	-41.330441	0.0		True	0.0	None	0.0	None	0.0	None	0.0	None	0.0	None	0.0	None	0.0	None	0.0	None	1.3863999999999998e-06	12
2014-01-10 07:48:00	66.18986324680611	501178691.7751	3.86468100360056e+21	1658849650079.4854	4.687273002390002	218981789972.36166	1.1613504183294668e+21	-4.498650050959744e+23	1403.7890800867974	-0.6758917136387516	22.80104554340457	1.7848528702363726	25.827258307531306	108.8437742297204	108.21093715900452	34.799707101909824	0.0022611061275397983	-4.7832922809018675e+22	0.20756566625459846	0.011161220623463051	2.042450016369921e+23	0.07186572816180822	-0.30686428727463505	0.0	22.804794	66.701546	-10.223885	-45.12682	-6.031771	-41.208241	0.0		True	0.0	None	0.0	None	0.0	None	0.0	None	0.0	None	0.0	None	0.0	None	0.0	None	1.3830000000000001e-06	12
2014-01-10 08:00:00	63.368585544627656	493616178.5166	3.762508709581144e+21	1623230357071.2542	2.2529643816495755	143855195752.95218	1.1600777497931452e+21	-4.391016172710137e+23	1341.4396094545873	-0.6698278135733368	22.582240803119788	1.7045454545454544	26.27374362247737	107.6913948311128	107.0167382662574	35.38295161410997	0.0010672498255090363	-4.510031311429655e+22	0.13383774783955413	0.00546824180286792	1.998590530238547e+23	0.06879829847262177	-0.3048751069098905	0.0	22.808926	66.592575	-10.231082	-45.043221	-6.036878	-41.090378	0.0		True	0.0	None	0.0	None	0.0	None	0.0	None	0.0	None	0.0	None	0.0	None	0.0	None	1.3826e-06	12
2014-01-10 08:12:00	61.59655738628226	499311825.6164	3.8842799731088535e+21	1572683352226.2896	1.212961317449412	69429263503.29584	1.1791513020312125e+21	-4.4433552599075855e+23	1350.3288487313375	-0.6700800045678122	22.95135403362945	2.4930747922437675	26.20398419685059	107.35702655807852	106.61008037160984	35.13860887669823	0.0005600006082407255	-4.2502265478907605e+22	-0.06298420977181607	0.002909161412301914	2.0331385596859185e+23	0.06409552372105652	-0.30660737565910284	0.0	22.813038	66.483589	-10.237415	-44.954086	-6.017313	-40.968353	0.0		True	0.0	None	0.0	None	0.0	None	0.0	None	0.0	None	0.0	None	0.0	None	0.0	None	1.3556e-06	12
2014-01-10 08:24:00	65.95871845609338	510274425.2403	3.8831488101920135e+21	1711855639060.3767	2.8392556186465385	87183915864.70255	1.207709814889722e+21	-4.543726335014763e+23	1305.3396558607865	-0.6704955200817284	22.88620858516174	1.9196428571428568	26.225230667366663	107.90979461590716	107.29088412684828	35.274042363579156	0.0012675248297529188	-4.323379539342171e+22	0.07647810663605763	0.006661704618413644	2.0585512011887406e+23	0.06379800188235839	-0.30377035421774073	0.0	22.817139	66.374588	-10.242851	-44.83271	-6.0206800000000005	-40.85015900000001	0.0		True	0.0	None	0.0	None	0.0	None	0.0	None	0.0	None	0.0	None	0.0	None	0.0	None	1.1574e-06	12
2014-01-10 08:36:00	63.59260125913906	509085832.9536001	3.828330079075541e+21	1655968970406.2913	4.237146622963372	79328323413.91122	1.2120790821549955e+21	-4.549383870889159e+23	1269.9043620253078	-0.6728977383171895	22.952095192125487	1.9383259911894275	26.289915503960373	106.83594494181378	106.38305319353745	34.27778238489227	0.001866584415402366	-4.513941550912839e+22	0.06866775090805723	0.009950458272706336	2.0454147416382704e+23	0.06676554774683333	-0.3025365615718041	0.0	22.821262	66.265564	-10.248734	-44.744118	-6.024499	-40.73243	0.0		True	0.0	None	0.0	None	0.0	None	0.0	None	0.0	None	0.0	None	0.0	None	0.0	None	1.0512e-06	12
2014-01-10 08:48:00	68.83752776229099	518938244.39550006	3.946147546383362e+21	1829665182043.0647	4.084267965229491	76916968643.91968	1.242934688984344e+21	-4.633914458816215e+23	1267.6611614048818	-0.6723877719761401	23.072458012048894	2.0904436860068256	26.47980990358992	107.30950355124864	106.4810041639461	35.441520777310465	0.0017424351387497824	-4.605514701579853e+22	0.06447881927722962	0.009412208995394414	2.070834001585757e+23	0.0668266925624199	-0.30048104530923675	0.0	22.825317	66.15651700000001	-10.254871	-44.655777	-6.028597	-40.61499	0.0		True	0.0	None	0.0	None	0.0	None	0.0	None	0.0	None	0.0	None	0.0	None	0.0	None	9.864399999999998e-07	12
2014-01-10 09:00:00	65.15699790576576	508999015.4805	3.961363959248761e+21	1741878632113.4631	5.326300010676903	125441686161.57256	1.2190550257900658e+21	-4.459133459300718e+23	1279.6462373741838	-0.6596612599596736	23.636906405475287	3.217503217503217	27.133081011751646	105.5317366993351	104.85822530006428	35.084839459503286	0.0022849849895653805	-4.27226102200312e+22	0.1057437582290789	0.012610120063152468	2.0877410758255944e+23	0.06320163131186338	-0.3088496725022105	0.0	22.829397	66.04744699999999	-10.259976	-44.534916	-6.033566	-40.497356	0.0		True	0.0	None	0.0	None	0.0	None	0.0	None	0.0	None	0.0	None	0.0	None	0.0	None	8.968999999999998e-07	12
2014-01-10 09:12:00	65.276737880421	506343311.7728	4.0785577374416655e+21	1794515848181.606	4.356831869141304	21015516455.631744	1.2433158176506286e+21	-4.449097759267028e+23	1269.050188025741	-0.6616288281029415	23.855393543136515	2.6859504132231407	27.0065392660519	103.70561139909658	103.02877213209996	34.751143857715356	0.0018003437475790504	-4.610966936818429e+22	0.017064086312571038	0.010356707249339969	2.080699736093287e+23	0.06857005208469923	-0.309422494742462	0.0	22.833405	65.938354	-10.26379	-44.444817	-6.0372949999999985	-40.378387	0.0		True	0.0	None	0.0	None	0.0	None	0.0	None	0.0	None	0.0	None	0.0	None	0.0	None	8.605299999999998e-07	12
2014-01-10 09:24:00	64.4812269874452	514077413.9651001	4.172697999316087e+21	1745312333808.9668	4.9762290635900674	72542435083.33682	1.2430269630057928e+21	-4.502306580833654e+23	1323.499709003961	-0.6594686461500825	24.048506040975408	3.285593934288121	26.966202584126982	104.10304274159971	103.50464920386156	35.74356015452082	0.0020961369265333056	-4.9066520581930075e+22	0.06004452221112633	0.011666290438939249	2.1207514913851504e+23	0.07186945473062202	-0.3106339139138704	0.0	22.837389	65.829239	-10.295037	-44.339706	-6.018697	-40.262001	0.0		True	0.0	None	0.0	None	0.0	None	0.0	None	0.0	None	0.0	None	0.0	None	0.0	None	8.364799999999998e-07	12
2014-01-10 09:36:00	67.46511901971584	529613291.4640001	4.4485003202806683e+21	1831082668186.6282	7.818030312228965	378938893838.8657	1.261914937605792e+21	-4.5720624795177e+23	1402.1192842871694	-0.6500410255746035	24.42056328331677	4.311427375470909	27.08524737469	106.95466760196035	106.33039140335964	36.96744310068085	0.003272511641786925	-4.96134130020349e+22	0.31168716894306275	0.01789261129955736	2.194977359481724e+23	0.0705387426671851	-0.31207476718932514	0.0	22.841335	65.720085	-10.301315	-44.256901	-6.0229370000000015	-40.145523	0.0		True	0.0	None	0.0	None	0.0	None	0.0	None	0.0	None	0.0	None	0.0	None	0.0	None	8.520299999999998e-07	12
2014-01-10 09:48:00	73.37072986084375	540647068.408	4.499106892950844e+21	1981194613192.3345	8.781813995902159	502650364909.3274	1.2772658084061577e+21	-4.625058812757653e+23	1398.1713789228768	-0.6441557940190002	24.355878219629048	2.5175402393726785	27.579543099982125	106.2623030644705	105.82960504360969	36.816310818569406	0.0036243557556344033	-5.2796330859661514e+22	0.40764581596990995	0.019758656456438668	2.255248867281576e+23	0.07353217289342423	-0.3141001409121618	0.0	22.845257	65.61090899999999	-10.307217	-44.171875	-6.028676	-40.027081	0.0		True	0.0	None	0.0	None	0.0	None	0.0	None	0.0	None	0.0	None	0.0	None	0.0	None	8.778399999999998e-07	12
2014-01-10 10:00:00	70.88107948485974	533959298.57150006	4.4547365327998917e+21	1860305931927.315	10.36127194542512	656073210125.6558	1.2406238676113424e+21	-4.5479216093785817e+23	1450.2202958547516	-0.6413460206503807	24.30513092302093	2.1184608733246866	27.68514800326447	109.23170809550808	108.45002303366819	38.56117738629943	0.004479581472297933	-5.68191356060355e+22	0.5351100642703958	0.02364475224274284	2.213825134012605e+23	0.08012610956745232	-0.3121927029671873	0.0	22.849144	65.501694	-10.340486	-44.088676	-6.032189	-39.91045	0.0		True	0.0	None	0.0	None	0.0	None	0.0	None	0.0	None	0.0	None	0.0	None	0.0	None	8.370999999999998e-07	12
2014-01-10 10:12:00	71.17473975721418	532196632.5339	4.441710525364743e+21	1871476117802.3257	7.409705191566124	320769331859.9889	1.2174141903569887e+21	-4.577053575051791e+23	1489.777540782292	-0.6475918738177033	24.7934503257091	3.0289532293986636	27.45362473069695	110.79750512362072	109.8504218501112	39.04908169152387	0.0033005368336597434	-5.242664264729016e+22	0.2807741785631784	0.01690087389459404	2.20372776379207e+23	0.07417668854694494	-0.31179800903293026	0.0	22.852997	65.392448	-10.344668	-43.996971	-6.036214	-39.794872	0.0		True	0.0	None	0.0	None	0.0	None	0.0	None	0.0	None	0.0	None	0.0	None	0.0	None	7.999299999999998e-07	12
2014-01-10 10:24:00	72.5048069878808	539249345.0033	4.511331102836784e+21	1956073273716.699	8.884997853088162	513623390355.7973	1.22490664025504e+21	-4.5679902715758586e+23	1490.5546533409927	-0.6378566259046549	24.828232450924663	3.3786748573935936	28.13323190323822	108.33691889015152	108.17814177383495	38.904072287829386	0.003898638812237017	-5.91565955144958e+22	0.4428808462106065	0.020119714540108767	2.219862343092443e+23	0.08260399907083317	-0.30997305597353497	0.0	22.856815	65.283165	-10.350539	-43.892933	-6.040108	-39.679794	0.0		True	0.0	None	0.0	None	0.0	None	0.0	None	0.0	None	0.0	None	0.0	None	0.0	None	7.330800000000002e-07	12
2014-01-10 10:36:00	70.68712838651159	542139733.7979	4.59245862759617e+21	1911276413165.6868	7.027718263389943	340796553284.17755	1.216081053176811e+21	-4.545025002864079e+23	1538.9684223249476	-0.6312662446023167	25.654656295417944	4.672897196261682	28.52001933147748	111.60052774161598	111.2683446279752	40.70218829297276	0.003127600473248752	-6.654321864575621e+22	0.2108144832200104	0.01589308662581292	2.222423990121689e+23	0.09242300694008658	-0.3086762438653565	0.0	22.860651	65.173851	-10.356814	-43.806919	-6.044409	-39.564251	0.0		True	0.0	None	0.0	None	0.0	None	0.0	None	0.0	None	0.0	None	0.0	None	0.0	None	7.173399999999998e-07	12
2014-01-10 10:48:00	71.86519191198053	527776077.4484	4.558892124325031e+21	1845198111663.5881	9.783343886492755	548075592489.2529	1.1479699280146855e+21	-4.4400651888471066e+23	1681.090583687415	-0.6334716492254939	25.780027221432285	5.484818805093046	28.34181082154583	115.04394335147987	114.69726164919771	42.070942711738404	0.004791059689761389	-6.8621888082614986e+22	0.5262628487677641	0.022696349617676883	2.1391545242847134e+23	0.09790401439567303	-0.305196812841992	0.0	22.864399	65.064499	-10.361723	-43.682751	-6.0491800000000016	-39.448174	0.0		True	0.0	None	0.0	None	0.0	None	0.0	None	0.0	None	0.0	None	0.0	None	0.0	None	7.052200000000002e-07	12
2014-01-10 11:00:00	67.1065751054459	508376524.0626	4.366444741895385e+21	1733033638539.3638	8.709854810937632	423605545527.8691	1.0966648113720896e+21	-4.214530822998743e+23	1695.6555039031446	-0.6242394503793465	25.61150041627183	4.641567818463126	28.625905154551397	113.35731806510836	113.52458595738855	42.219377227653496	0.004491931310437149	-7.094055368063101e+22	0.4141510250168968	0.021096255139944533	2.090188729211561e+23	0.10507431099458547	-0.3095903953037762	0.0	22.86816	64.955109	-10.367368	-43.596737	-6.034174	-39.333672	0.0		True	0.0	None	0.0	None	0.0	None	0.0	None	0.0	None	0.0	None	0.0	None	0.0	None	7.490900000000002e-07	12
2014-01-10 11:12:00	68.69794788047349	502537500.5366	4.315133331975581e+21	1769813604225.9807	4.247492937588127	110409480594.21477	1.0959352327201252e+21	-4.167856391940907e+23	1657.775409172431	-0.6244990991368679	25.697096712428827	5.0510204081632635	28.70615859014509	111.98636076453217	112.17505261342686	41.66986425201775	0.0021670882334633304	-7.287852740056629e+22	0.07854081308564702	0.01040578170369556	2.0365354171887967e+23	0.10919899926513707	-0.3051483577634652	0.0	22.87183	64.84568	-10.373882	-43.476547	-6.036926	-39.220325	0.0		True	0.0	None	0.0	None	0.0	None	0.0	None	0.0	None	0.0	None	0.0	None	0.0	None	9.4683e-07	12
2014-01-10 11:24:00	71.63649050716447	498055629.8126001	4.282464326453113e+21	1833496356936.3247	5.894162040578829	199943214183.6873	1.0829279524457021e+21	-4.1404327058049654e+23	1676.8798365733835	-0.6259726376941211	25.60649374900589	4.940197607904317	28.500053401605076	112.05892566689751	112.76497007011356	41.4367860100249	0.003065086864575573	-7.544775620725919e+22	0.20433746073471248	0.014556634596604709	1.983480818667222e+23	0.11406593058485445	-0.2998731794713298	0.0	22.875458	64.73620600000001	-10.380515	-43.384933	-6.043399	-39.122723	0.0		True	0.0	None	0.0	None	0.0	None	0.0	None	0.0	None	0.0	None	0.0	None	0.0	None	9.4737e-07	12
2014-01-10 11:36:00	67.34817045398688	492123114.1262	4.163269504118941e+21	1725113033070.4531	6.740897225011198	347750565624.107	1.0658397180656224e+21	-4.074578972128346e+23	1658.6710454226043	-0.6234426630920684	25.612468413549646	4.867724867724868	28.67172269201707	110.6030803933208	111.16015759423328	40.42596242567149	0.003566612288365713	-7.649557557996341e+22	0.3616050827634968	0.016874735841606047	1.962900416427561e+23	0.11704425335857932	-0.30033921820464865	0.0	22.879044	64.626694	-10.38633	-43.265476	-6.047299	-39.013435	0.0		True	0.0	None	0.0	None	0.0	None	0.0	None	0.0	None	0.0	None	0.0	None	0.0	None	9.4569e-07	12
2014-01-10 11:48:00	68.90229325546562	476759199.6141	4.062617686000242e+21	1698852876318.6367	7.2922928134422875	357228867105.29675	1.023252325533912e+21	-3.994872474685172e+23	1727.3285510720816	-0.6309448446104063	25.37869822784175	3.613777526821005	28.06897550021189	111.38369483645695	113.04397423292349	40.53628726624871	0.0041176131075337605	-7.802564581912095e+22	0.3742069815977663	0.0187566700287947	1.871169593281577e+23	0.12323266709746868	-0.2955300365040571	0.0	22.882586	64.517136	-10.389823	-43.146336	-6.05248	-38.900986	0.0		True	0.0	None	0.0	None	0.0	None	0.0	None	0.0	None	0.0	None	0.0	None	0.0	None	8.7564e-07	12
2014-01-10 12:00:00	66.85382165228596	470058633.6522	4.0398323560368743e+21	1676361754717.255	6.119517915866528	276912106332.34644	1.011208786963423e+21	-3.8394467925059086e+23	1717.640701444564	-0.6150411308996641	25.292630769331442	3.5008469791078487	28.743489143767928	111.14996036058659	112.22526066352668	41.799784137310695	0.0034554025498964016	-7.876037053480808e+22	0.3073040446756525	0.016121727837314696	1.872437591212677e+23	0.12616626816747425	-0.2999458505028144	0.0	22.886097	64.407547	-10.395343	-43.05024	-6.057861	-38.785892	0.0		True	0.0	None	0.0	None	0.0	None	0.0	None	0.0	None	0.0	None	0.0	None	0.0	None	8.367399999999998e-07	12
2014-01-10 12:12:00	65.17973481370885	457293695.7545	3.918765349191172e+21	1544645889414.8132	5.618941247264707	218073097657.7853	9.646753368957575e+20	-3.800736785570966e+23	1823.7204055904047	-0.625835357273201	24.838999733197433	2.719406674907293	27.98424181243327	115.05445989251012	116.31471920369015	41.02179404378173	0.003472769621300808	-7.538952768602859e+22	0.2401183024685617	0.015115158599837362	1.832369999496632e+23	0.12413759398746615	-0.3017209551698533	0.0	22.889555	64.297905	-10.399376	-42.933201	-6.061763	-38.67545300000001	0.0		True	0.0	None	0.0	None	0.0	None	0.0	None	0.0	None	0.0	None	0.0	None	0.0	None	8.440000000000002e-07	12
2014-01-10 12:24:00	62.99687153845064	444976507.6763001	3.772198609100739e+21	1517667793926.7314	6.070034932116827	236987129667.66714	9.369132786367027e+20	-3.727132648362779e+23	1804.5851599372306	-0.6307036224259702	25.06499792775565	3.1130876747141043	27.90448999165302	117.68482077389112	118.52398572081104	43.81028139153612	0.0038564389657667272	-7.514999737979158e+22	0.2648853315880141	0.016730505647925144	1.7476144970865086e+23	0.12716846982507318	-0.2957304979206407	0.0	22.892975	64.188225	-10.404038	-42.814796	-6.068097	-38.560211	0.0		True	0.0	None	0.0	None	0.0	None	0.0	None	0.0	None	0.0	None	0.0	None	0.0	None	7.7704e-07	12
2014-01-10 12:36:00	61.12046550164297	447168597.0062001	3.7130154835625614e+21	1452792614911.3838	7.2888746212967765	377481680071.7332	9.32344408335385e+20	-3.698723853985373e+23	1793.3628943729068	-0.6228280246641256	24.643990037570163	2.95060936497755	28.18685704218603	117.17290888986594	118.02659656131786	44.105046821103954	0.004675352547335968	-7.899388449968227e+22	0.4759056940380647	0.02008846161377946	1.7544175850969698e+23	0.1330177839323437	-0.2954263367849338	0.0	22.8964	64.078499	-10.40901	-42.693066	-6.074738	-38.449539	0.0		True	0.0	None	0.0	None	0.0	None	0.0	None	0.0	None	0.0	None	0.0	None	0.0	None	7.604900000000002e-07	12
2014-01-10 12:48:00	61.95408610402972	441615922.7822	3.695174987530393e+21	1445975343639.5288	5.603971872487774	219742219035.4548	9.018131571004663e+20	-3.635597831053313e+23	1867.395301942645	-0.6198957125334751	25.06137120293032	3.691275167785235	28.410953333401288	121.40963025630438	122.60884835010953	45.2084459693624	0.003761054947978372	-7.608988725813616e+22	0.2898727880866423	0.01566730011800626	1.7209970356588576e+23	0.1297387584390998	-0.2934424359524549	0.0	22.899738	63.968739	-10.413511	-42.594921	-6.0791	-38.350342	0.0		True	0.0	None	0.0	None	0.0	None	0.0	None	0.0	None	0.0	None	0.0	None	0.0	None	7.272899999999998e-07	12
2014-01-10 13:00:00	61.05723341820838	433741818.3451	3.63955843500981e+21	1435399371257.634	4.4630416150317185	202520631142.5163	8.893098661365965e+20	-3.583216522334032e+23	1866.852798570807	-0.6220555802332821	24.92678464359305	2.724795640326976	28.27810079745563	119.84805368088942	121.14194891505613	43.87895964225842	0.0030402190838090732	-7.1125626100900524e+22	0.2711643264139728	0.012687145043355505	1.7074357473135427e+23	0.12347591148310368	-0.29641522578555496	0.0	22.90308	63.858929	-10.416783	-42.477589	-6.084022	-38.24277100000001	0.0		True	0.0	None	0.0	None	0.0	None	0.0	None	0.0	None	0.0	None	0.0	None	0.0	None	7.024299999999999e-07	12
2014-01-10 13:12:00	63.23567839498885	441847198.7203	3.6036392197154233e+21	1478496552113.7834	3.4254712935067766	52195750428.7971	9.000573959413334e+20	-3.631127055113837e+23	1837.1656951784119	-0.6188093359631798	24.29908232970241	1.8280297901150981	28.366845476718662	121.40850641066595	122.61283529646505	45.119127802414596	0.002319208729523884	-7.303585244636618e+22	0.06946297625452216	0.009578169575606357	1.7464698610586317e+23	0.1244662240341897	-0.2976298649421722	0.0	22.906326	63.749077	-10.398002	-42.356407	-6.089389	-38.132473	0.0		True	0.0	None	0.0	None	0.0	None	0.0	None	0.0	None	0.0	None	0.0	None	0.0	None	6.9047e-07	12
2014-01-10 13:24:00	60.377004506505756	432279925.901	3.63916621888096e+21	1430892870134.6646	2.277697691202164	20478924897.976192	8.875906485089694e+20	-3.5584328380477e+23	1873.031315171468	-0.6198422522524545	24.713390208334907	3.212576896787424	28.197447020598197	118.78850805804993	120.15238094916	44.37987061839436	0.0015568678682174734	-7.334570063045802e+22	0.027515088157515084	0.006505613915163939	1.7387589833857782e+23	0.12776063604662574	-0.3028738586442816	0.0	22.909538	63.639187	-10.40218	-42.237423	-6.090055	-38.020855	0.0		True	0.0	None	0.0	None	0.0	None	0.0	None	0.0	None	0.0	None	0.0	None	0.0	None	6.885299999999999e-07	12
2014-01-10 13:36:00	59.39524182816001	417771562.4416	3.6146191380343465e+21	1397901611605.7625	5.904118760829017	251040070403.37936	8.651300579692984e+20	-3.4160415702156106e+23	1895.377165475646	-0.6157037703033154	25.34194231982245	2.8551532033426184	28.320007843050103	112.92666167664551	115.38985235278923	40.36261803959268	0.004111503315340541	-7.287869092853754e+22	0.3436419675233286	0.0174938125058171	1.6785829957766066e+23	0.1313557925369111	-0.3025460487008823	0.0	22.912697	63.529247	-10.405878	-42.116905	-6.093696	-37.91108300000001	0.0		True	0.0	None	0.0	None	0.0	None	0.0	None	0.0	None	0.0	None	0.0	None	0.0	None	7.298000000000002e-07	12
2014-01-10 13:48:00	59.124232683146154	410407015.8097	3.587928561561884e+21	1372761184399.0166	5.777915427391617	375792914950.75104	8.507725245331133e+20	-3.341806893312927e+23	1921.524820228249	-0.6131321738719473	24.928819240238532	3.2005689900426746	28.15304018823596	114.79942601087143	116.12373480041674	42.95096913072778	0.004109470431999728	-7.744196478009909e+22	0.5254002909018924	0.01745486309197986	1.629969934094882e+23	0.14208529017505594	-0.2990558823244151	0.0	22.915821	63.41927	-10.409022	-41.997868	-6.046213	-37.809948	0.0		True	0.0	None	0.0	None	0.0	None	0.0	None	0.0	None	0.0	None	0.0	None	0.0	None	8.0508e-07	12
2014-01-10 14:00:00	58.20281484636839	418873278.30560017	3.675312212340448e+21	1383963355855.7212	8.91641370678461	600885482986.2201	8.815976739445283e+20	-3.410350792434647e+23	1868.6443515795086	-0.6130612563073276	25.00230149671704	2.7683997299122214	28.142834720495845	112.37219101739944	113.6839014986033	41.986979311952034	0.0060205359262556464	-7.86227962799309e+22	0.7975778669924032	0.026392874374419274	1.6513270040246834e+23	0.1413361650909793	-0.2968505790980117	0.0	22.918907	63.30925799999999	-10.412868	-41.876225	-6.020411	-37.708702	0.0		True	0.0	None	0.0	None	0.0	None	0.0	None	0.0	None	0.0	None	0.0	None	0.0	None	8.178499999999998e-07	12
2014-01-10 14:12:00	61.482968470247506	422771204.1926	3.6881080074476837e+21	1462548672456.3438	10.594447885277868	693970136097.3264	8.893548990316347e+20	-3.392428883431388e+23	1841.5766044908887	-0.6042168782621908	24.946714618856426	2.7851458885941645	28.583067012981967	111.66969658609024	113.47276314702052	41.78787391011925	0.0070254959451444745	-8.407269646766444e+22	0.9046598855714276	0.03124207311105087	1.681719913057174e+23	0.1497397409121084	-0.2995268555050669	0.0	22.921951	63.1992	-10.395177	-41.758121	-5.997419	-37.600975	0.0		True	0.0	None	0.0	None	0.0	None	0.0	None	0.0	None	0.0	None	0.0	None	0.0	None	8.5411e-07	12
2014-01-10 14:24:00	62.478098681911966	420063621.9434	3.7053192964331143e+21	1478115908988.7454	8.56587524774801	522309975027.4744	8.842385617171186e+20	-3.3555487670957435e+23	1855.0914816839718	-0.6015005261070784	25.18960892949736	2.5930851063829787	28.687875290751208	110.18208527806787	112.24129543551285	42.18005740941194	0.005695395776428198	-8.408018779986978e+22	0.6750896727749179	0.025465932429266844	1.665817900939851e+23	0.1507183495371343	-0.2986069979489944	0.0	22.924953	63.089104000000006	-10.398918	-41.638565	-5.973214	-37.49185900000001	0.0		True	0.0	None	0.0	None	0.0	None	0.0	None	0.0	None	0.0	None	0.0	None	0.0	None	8.478400000000002e-07	12
2014-01-10 14:36:00	58.60199288315671	401351788.1367	3.483285440870989e+21	1391939101035.8057	13.045698654264125	891508544908.9963	8.414455501255146e+20	-3.1696087049046985e+23	1844.4929560928765	-0.5946589799949019	24.883097513123488	2.2503516174402254	28.548022089530352	110.40956363007551	111.63086820132328	42.850982818832605	0.009174190333519072	-8.374718518527172e+22	1.2325101253785231	0.04076658318937091	1.5942346095510677e+23	0.15712039042123724	-0.29909872638891344	0.0	22.927971	62.97897	-10.40231	-41.539299	-5.976546	-37.380898	0.0		True	0.0	None	0.0	None	0.0	None	0.0	None	0.0	None	0.0	None	0.0	None	0.0	None	8.967199999999998e-07	12
2014-01-10 14:48:00	64.95321176555952	408192996.72800004	3.625298004386105e+21	1581683788430.6523	11.142001879972993	856303310730.7617	8.711723210653933e+20	-3.234509790375933e+23	1801.8499224155114	-0.5966648540859039	25.246464190458607	3.036303630363036	28.70285234131571	111.87030847751268	113.09110486307074	43.40290126409118	0.007354456686450819	-8.141304361786768e+22	1.1111910952926374	0.03419116572572408	1.6318134669908196e+23	0.1501813410349843	-0.3010180235269369	0.0	22.930897	62.868797	-10.402493	-41.421505	-5.952204	-37.285065	0.0		True	0.0	None	0.0	None	0.0	None	0.0	None	0.0	None	0.0	None	0.0	None	0.0	None	8.7889e-07	12
2014-01-10 15:00:00	61.93009927706074	401835301.1112	3.683185366040325e+21	1486281674686.056	9.862760102854557	752239136123.408	8.560595595411203e+20	-3.161539631892232e+23	1861.3359543867568	-0.5924313088090826	25.742072116459983	3.2885906040268456	28.869153961710172	110.04029055427476	111.51213837218218	41.81220306913799	0.006619302082452721	-8.090847014040385e+22	0.9925499728512566	0.030826177227368762	1.6188440203410426e+23	0.151611924694841	-0.30335026392011155	0.0	22.933846	62.75859499999999	-10.386938	-41.299362	-5.927962	-37.182899	0.0		True	0.0	None	0.0	None	0.0	None	0.0	None	0.0	None	0.0	None	0.0	None	0.0	None	8.248e-07	12
2014-01-10 15:12:00	62.30841790977056	401314701.3045	3.492470855591654e+21	1522267398334.768	7.553428622860425	352521419827.5247	8.632899354976864e+20	-3.244706646920002e+23	1741.5793870002985	-0.6088044265358697	25.65375139511849	4.437086092715231	28.44013902413395	113.50614991565493	114.61483780641436	43.65214405477848	0.005002270611165844	-7.471287873932442e+22	0.42863250689534027	0.023398380726042795	1.5942049393600844e+23	0.14018380163554992	-0.2991207309323506	0.0	22.936703	62.64835400000001	-10.389606	-41.179237	-5.934012	-37.076172	0.0		True	0.0	None	0.0	None	0.0	None	0.0	None	0.0	None	0.0	None	0.0	None	0.0	None	8.8441e-07	12
