Timestamp	TOTUSJH	TOTBSQ	TOTPOT	TOTUSJZ	ABSNJZH	SAVNCPP	USFLUX	TOTFZ	MEANPOT	EPSZ	MEANSHR	SHRGT45	MEANGAM	MEANGBT	MEANGBZ	MEANGBH	MEANJZH	TOTFY	MEANJZD	MEANALP	TOTFX	EPSY	EPSX	R_VALUE	CRVAL1	CRLN_OBS	LAT_MIN	LON_MIN	LAT_MAX	LON_MAX	QUALITY	NOAA_AR	IS_TMFI	BFLARE	BFLARE_label	CFLARE	CFLARE_label	MFLARE	MFLARE_label	XFLARE	XFLARE_label	BFLARE_loc	BFLARE_label_loc	CFLARE_loc	CFLARE_label_loc	MFLARE_loc	MFLARE_label_loc	XFLARE_loc	XFLARE_label_loc	XR_MAX	XR_QUAL
2014-02-27 15:36:00	21.32018899268336	172846560.1258	1.3689666903856883e+21	507756105916.4027	0.5948179239889966	30614312510.83107	3.606614249971616e+20	-1.368631996811462e+23	1605.629328015125	-0.5962294001963033	24.15562707409249	2.1806853582554515	29.86220666945834	118.28104466663963	116.93367892523337	45.30639249644762	-0.0009265076697647922	-2.4388324079699526e+22	-0.09243965841268326	-0.004311793922196252	-6.822717477168895e+22	0.10624503790433766	0.2972241448832375	0.0	182.249115	150.374207	-15.495489	31.033045	-13.001545	34.774708000000004	0.0		True	0.0	None	0.0	None	0.0	None	0.0	None	0.0	None	0.0	None	0.0	None	0.0	None	1.8528e-06	12
2014-02-27 15:48:00	21.23235934089343	167873901.5319	1.3606676133235364e+21	502880875082.6523	2.699092936651156	199344716072.3949	3.42843851308406e+20	-1.3009474293671896e+23	1724.857189797037	-0.5835312298158828	24.084901592654823	1.6835016835016834	30.39715953436276	123.13956175498934	121.09117370471745	48.19883788691312	-0.004543927502779724	-2.7756833030363844e+22	0.6505727750441265	-0.02030663756902675	-6.6132690377886115e+22	0.1245014098831104	0.2966337399660506	0.0	182.251282	150.264038	-15.488744	31.15958	-13.005145	34.88356	0.0		True	0.0	None	0.0	None	0.0	None	0.0	None	0.0	None	0.0	None	0.0	None	0.0	None	1.1248e-06	12
2014-02-27 16:00:00	22.934517753399877	168968913.35119998	1.3656755727056723e+21	524376777816.7514	5.363182586674137	404691863694.5131	3.4209248798880334e+20	-1.3359394816937058e+23	1791.526145198178	-0.5953433067863522	23.5498553348831	1.2195121951219512	29.40036996806483	126.57827671299377	125.41298791736546	49.130489812104976	-0.009343523670164002	-3.070819080131576e+22	1.3667792850989628	-0.03979161926196026	-6.453259329098333e+22	0.1368468864615314	0.2875807475698305	0.0	182.253464	150.15386999999996	-15.482914	31.276077	-13.006735	34.989983	0.0		True	0.0	None	0.0	None	0.0	None	0.0	None	0.0	None	0.0	None	0.0	None	0.0	None	1.1346e-06	12
2014-02-27 16:12:00	25.559319437651205	175520194.48470002	1.4131244724516616e+21	548320966040.4982	5.3669282829420615	336718539318.1038	3.448916896200667e+20	-1.4046221070919072e+23	1913.7849720205704	-0.6025872273205553	23.680380514542012	2.6978417266187047	28.6799192806058	136.88156607875172	135.12148532916254	52.453015350731455	-0.00965274871032745	-3.2348353475767983e+22	1.1740480393817627	-0.03815988164842605	-6.48035889654308e+22	0.1387754366881314	0.27800940052088163	0.0	182.255554	150.043655	-15.4745	31.40617	-13.013151	35.102535	0.0		True	0.0	None	0.0	None	0.0	None	0.0	None	0.0	None	0.0	None	0.0	None	0.0	None	1.0947e-06	12
2014-02-27 16:24:00	22.418145074492326	169100757.7847	1.396632300746804e+21	496536273757.4375	2.0538408279762983	135849239052.43445	3.3176573972332295e+20	-1.3165332936779004e+23	1929.6259423848608	-0.5862378327962138	24.58997009980947	5.137614678899083	29.391475747207593	133.49143705868013	131.66589181603172	51.18972015721842	-0.003768515280690456	-3.3370288611222253e+22	0.4832387183403644	-0.01531379823783721	-6.1894520080884535e+22	0.14859423433626678	0.2756095078523464	0.0	182.257645	149.933441	-15.46613	31.517401	-13.017401	35.208157	0.0		True	0.0	None	0.0	None	0.0	None	0.0	None	0.0	None	0.0	None	0.0	None	0.0	None	1.0617e-06	12
2014-02-27 16:36:00	23.437923103519047	170355039.77080002	1.4221655810411408e+21	525966571474.5098	2.537149485623748	196220967102.79288	3.356416449569348e+20	-1.342228834257969e+23	1943.5066640056311	-0.5932790971971217	24.61657928849145	4.7186932849364815	29.665611182333738	131.88454789490328	130.19550203394675	51.68262126369114	-0.004604627015651086	-3.5252461528597878e+22	0.6904013200572624	-0.018695160887718047	-6.3325182738289754e+22	0.15581954444619794	0.2799038903495545	0.0	182.259705	149.823196	-15.461149	31.634401	-13.017437	35.314976	0.0		True	0.0	None	0.0	None	0.0	None	0.0	None	0.0	None	0.0	None	0.0	None	0.0	None	1.0825e-06	12
2014-02-27 16:48:00	22.15143550328697	163027122.8439	1.3806641827214254e+21	481761863795.3218	2.5486035766718134	165587819377.94354	3.213018548690509e+20	-1.2624378440559805e+23	1965.2594854240383	-0.5830927686745768	24.830207313075586	5.293005671077505	30.18066455252273	127.66779707793688	125.83830432046038	49.207589245973004	-0.004817776137375829	-3.3538740758525147e+22	0.6068577679844097	-0.019749952468448403	-6.118622344011188e+22	0.15490819844180878	0.2826059484703953	0.0	182.26181	149.712952	-15.454781	31.75042	-13.021093	35.420635	0.0		True	0.0	None	0.0	None	0.0	None	0.0	None	0.0	None	0.0	None	0.0	None	0.0	None	1.0519e-06	12
2014-02-27 17:00:00	22.63845811635861	162299213.8953	1.4259867317755065e+21	512431262079.3459	1.9172400544353407	147776137200.78888	3.217736074309343e+20	-1.240875450921948e+23	2010.767104250572	-0.5757040974614716	25.14587745535736	5.056179775280898	29.870304948953024	127.29493666762563	126.03183603956344	49.38294697290828	-0.003590337180590527	-3.601463289267752e+22	0.5365165290951565	-0.014993927569099372	-6.133509948161282e+22	0.1670898695713604	0.2845641604363769	0.0	182.263885	149.602676	-15.44655	31.883883	-13.035277	35.526878	0.0		True	0.0	None	0.0	None	0.0	None	0.0	None	0.0	None	0.0	None	0.0	None	0.0	None	1.0584000000000001e-06	12
2014-02-27 17:12:00	25.474428808720496	167788527.7635	1.437840968718038e+21	572701312528.69	0.21854929537270995	28758679645.595463	3.375919403251841e+20	-1.3291610001942057e+23	1950.7669823293961	-0.5964895670636658	24.263946468918533	2.7027027027027017	28.99407294333593	130.2471790561861	129.41395412735463	49.71173194451419	-0.000393782514185063	-3.837111744970237e+22	0.10046187173590383	-0.0016317403690743401	-5.876861700966515e+22	0.17219863682411574	0.26373680022137	0.0	182.265884	149.492386	-15.438649	32.000927000000004	-13.034984	35.633457	0.0		True	0.0	None	0.0	None	0.0	None	0.0	None	0.0	None	0.0	None	0.0	None	0.0	None	1.4802e-06	12
2014-02-27 17:24:00	23.509324422595142	169025280.64930004	1.5143733386802278e+21	514412977149.7736	1.5303532957634824	100866314957.24193	3.365994885248229e+20	-1.32631344453778e+23	2077.055694620612	-0.5908565273292661	25.07909723482873	4.553734061930784	29.105327238269137	129.43414535991585	129.17963877925644	48.37540462749098	-0.0027875287718824816	-4.128060534940267e+22	0.35620812402134944	-0.01138253564241856	-6.020747455575453e+22	0.1839000820149132	0.2682169850707936	0.0	182.267899	149.382095	-15.465693	32.123604	-13.047628	35.740826	0.0		True	0.0	None	0.0	None	0.0	None	0.0	None	0.0	None	0.0	None	0.0	None	0.0	None	1.5325e-06	12
2014-02-27 17:36:00	22.33584714793723	163455757.7563	1.435195576458093e+21	522705823041.3114	2.543308499273527	175093439331.80344	3.393161435171976e+20	-1.2857572142445569e+23	1889.3069764987274	-0.5923061151118642	24.98414151312788	5.244755244755245	29.11868861864421	123.22139599906436	124.65460800715552	43.357664793913024	-0.004446343530198474	-4.099753945501853e+22	0.5934824793396971	-0.019543495899028752	-5.847929303638047e+22	0.18886219773625665	0.26939489422361945	0.0	182.269897	149.27178999999995	-15.488829999999998	32.253117	-13.048625	35.847599	0.0		True	0.0	None	0.0	None	0.0	None	0.0	None	0.0	None	0.0	None	0.0	None	0.0	None	1.1103e-06	12
2014-02-27 17:48:00	20.992740855090002	161599626.9523	1.4616529066270198e+21	514760175458.6848	2.1813326090496763	244312075440.1336	3.4250435701278114e+20	-1.2644541469301675e+23	1807.2339472354654	-0.5891829154506899	25.74202538526093	5.41871921182266	30.06492496333561	117.5151385732842	118.42202547404641	41.99035080568893	-0.0035818269442523423	-3.349032637078466e+22	0.7777949964811189	-0.016987819818980898	-6.322206027660902e+22	0.1560509582608358	0.2945884426493872	0.0	182.271942	149.161484	-15.511884	32.365929	-13.064115	35.954552	0.0		True	0.0	None	0.0	None	0.0	None	0.0	None	0.0	None	0.0	None	0.0	None	0.0	None	9.651e-07	12
2014-02-27 18:00:00	25.34277344087809	172315075.4423	1.635433435671663e+21	616839978612.0588	4.437545516955219	313412349709.6809	3.693507132799711e+20	-1.3639788390667012e+23	1868.6795542059256	-0.5960349606212558	25.91962971624164	6.828528072837633	29.758449275564793	123.7892493404203	123.83992237494428	43.755210187808686	-0.006733756474894111	-3.376971660144026e+22	0.9220851761233292	-0.03227060754047712	-6.753081057509268e+22	0.14756777105503266	0.29509786273068805	0.0	182.273956	149.051163	-15.533854000000002	32.486076000000004	-13.064013	36.059006	66560.0		False	0.0	None	0.0	None	0.0	None	0.0	None	0.0	None	0.0	None	0.0	None	0.0	None	9.432999999999999e-07	12
2014-02-27 18:12:00	24.835722105773677	182028322.1686	1.7662682611521935e+21	601111958887.6508	5.656230417508002	419997737215.3505	3.855647972342122e+20	-1.4343720173721288e+23	1935.9199989443111	-0.593349139007947	25.990818117650967	7.714701601164482	30.027153897976408	130.00209856110294	129.09809552166703	45.09222488468979	-0.008233232048774384	-3.4402517919790304e+22	1.1853126371911729	-0.0390038226096241	-7.276121459810295e+22	0.14231108903539938	0.3009874949600069	0.0	182.27594	148.940842	-15.52619	32.616347999999995	-13.078635	36.161922	66560.0		False	0.0	None	0.0	None	0.0	None	0.0	None	0.0	None	0.0	None	0.0	None	0.0	None	1.0579e-06	12
2014-02-27 18:24:00	25.29863018782986	182977421.84540004	1.722080870391547e+21	627882314222.918	4.8934689579911534	364919688060.4518	3.9775668796101073e+20	-1.448985338819725e+23	1754.6747168263464	-0.5962851605789138	26.41041894407309	7.7131258457374825	30.164792422192157	124.31846934136854	122.75351948546269	44.728835016845295	-0.006621744192139583	-3.120504824438505e+22	0.957408323267442	-0.03350725516397498	-7.411353113800962e+22	0.12841473757375876	0.30499134554181034	0.0	182.277924	148.830521	-15.548823	32.728977	-13.079268	36.268532	0.0		True	0.0	None	0.0	None	0.0	None	0.0	None	0.0	None	0.0	None	0.0	None	0.0	None	1.0737e-06	12
2014-02-27 18:36:00	25.380440346442427	182346851.01440004	1.628732413517118e+21	616278535137.1968	5.580619544373173	380670252767.084	3.9650784814507485e+20	-1.468847642715818e+23	1675.4290527959115	-0.6065489657831584	25.771170018080426	6.830601092896176	29.692585515813732	123.8230469832445	122.02062981771346	44.43563109428049	-0.007623797191766629	-3.0019099294734007e+22	1.008284341124538	-0.03809957899736219	-7.346819883825121e+22	0.12396148587131316	0.3033810909135541	0.0	182.279938	148.72018400000005	-15.541865	32.865192	-13.094526	36.377201	0.0		True	0.0	None	0.0	None	0.0	None	0.0	None	0.0	None	0.0	None	0.0	None	0.0	None	1.0321e-06	12
2014-02-27 18:48:00	25.42040151913772	180204959.4596	1.567586159048351e+21	616658039517.273	6.099535195749426	413165886655.5163	3.9347068988722885e+20	-1.4817099845998694e+23	1610.3303425765932	-0.6191330658755425	25.642229845072666	6.548431105047749	29.291115017817788	124.55114819459072	123.3642384037904	43.10406904611036	-0.008321330417120635	-2.53737698395528e+22	1.0928639049734379	-0.04180973897181217	-7.240563071929398e+22	0.10602439125646476	0.30254719614374936	0.0	182.281952	148.609848	-15.536953	32.983807	-13.094926	36.479362	0.0		True	0.0	None	0.0	None	0.0	None	0.0	None	0.0	None	0.0	None	0.0	None	0.0	None	1.0227e-06	12
2014-02-27 19:00:00	24.499316224295672	178573957.13910002	1.4959298569921146e+21	592512626722.9359	5.567529077890663	392923437323.31866	3.920370552013448e+20	-1.4878502922497444e+23	1579.8256830410355	-0.6273769831086392	24.88176039516087	4.908835904628331	28.51220402997881	123.32046793048094	122.6099131433906	42.04720873479704	-0.007808596182174844	-2.360854263504348e+22	1.068473038800802	-0.03831653228959045	-7.1096079022078965e+22	0.099549372212504	0.29978851904703785	0.0	182.283936	148.499527	-15.556264	33.119213	-13.114367	36.581589	0.0		True	0.0	None	0.0	None	0.0	None	0.0	None	0.0	None	0.0	None	0.0	None	0.0	None	1.0129e-06	12
2014-02-27 19:12:00	24.11842101836246	176231811.0792	1.511497817953088e+21	588523504562.9485	5.583599033275576	461703533614.1423	3.899987042445987e+20	-1.456999061336749e+23	1578.5552645730866	-0.622533173099466	24.65687125063893	5.270457697642163	28.88382576766715	120.99608016428913	119.50931281183658	42.82545726157323	-0.007744242764598576	-2.4975196517251466e+22	1.2415725776047886	-0.039054072654976825	-7.053256648081844e+22	0.1067117251427918	0.30136507004931073	0.0	182.285904	148.389206	-15.549296	33.242023	-13.126846	36.683941	0.0		True	0.0	None	0.0	None	0.0	None	0.0	None	0.0	None	0.0	None	0.0	None	0.0	None	1.0956e-06	12
2014-02-27 19:24:00	22.770037884879688	173225623.7526	1.4961358253420383e+21	559503623392.431	4.504410164197346	325186018687.8505	3.8341446218640045e+20	-1.4408725996742097e+23	1635.0811070507248	-0.6263267331232314	24.288585750338893	4.063860667634253	28.135195913787264	122.63111309734691	120.57063617026816	42.377103031683696	-0.006537605463276266	-2.0903460178215563e+22	0.9150715871211732	-0.03197775646835967	-7.217804388257626e+22	0.09086435488712594	0.3137476445760771	0.0	182.287872	148.27886999999996	-15.543891	33.373241	-13.148674	36.792416	0.0		True	0.0	None	0.0	None	0.0	None	0.0	None	0.0	None	0.0	None	0.0	None	0.0	None	1.0822e-06	12
2014-02-27 19:36:00	23.10292982834913	173793975.1628	1.501078595770217e+21	571054000718.2888	3.796209969126473	274360219587.1994	3.864550462557464e+20	-1.443415544491966e+23	1619.3304934962518	-0.6253802266965129	24.695315885347448	3.8681948424068766	28.294860774445024	118.28842080098025	117.04222941434065	39.970733062919386	-0.005438696230840219	-2.0349896566994327e+22	0.7620890815851362	-0.026877602825066297	-7.2627252748179456e+22	0.08816880888446285	0.3146678582014829	0.0	182.289917	148.168564	-15.536894	33.499283	-13.149765	36.89677	0.0		True	0.0	None	0.0	None	0.0	None	0.0	None	0.0	None	0.0	None	0.0	None	0.0	None	1.0127e-06	12
2014-02-27 19:48:00	22.979835653682144	161754509.2583	1.4544820299972802e+21	573428403490.554	3.5599901748933966	304595509216.303	3.5802179928052793e+20	-1.3375949427875988e+23	1703.2751727988634	-0.6226667148713931	25.07998868498743	3.888024883359253	28.51947811301484	119.34203783454771	118.19752794024784	40.7460431018264	-0.005536532153799997	-1.9160401392436764e+22	0.9184371144235192	-0.02712645680281845	-6.80070213738867e+22	0.0891939989379906	0.3165809561063125	0.0	182.291946	148.058243	-15.55611	33.631671999999995	-13.169073999999998	36.985817	0.0		True	0.0	None	0.0	None	0.0	None	0.0	None	0.0	None	0.0	None	0.0	None	0.0	None	1.0488e-06	12
2014-02-27 20:00:00	23.38672061714951	162509999.08609998	1.4723998161502148e+21	596307970652.4891	3.2008896940441267	283737502172.70984	3.663801896288535e+20	-1.3084185156959587e+23	1630.4381781792154	-0.6062532611368832	25.28309204613585	5.294117647058823	28.99821941476111	120.76959003117544	118.4873734039608	42.61703388618743	-0.004707190726535481	-2.140449813025726e+22	0.8089861117644879	-0.02452486319965566	-6.908117646844721e+22	0.09917733996269874	0.3200863333464212	0.0	182.293945	147.94795200000004	-15.548615	33.756664	-13.164407999999998	37.088772	0.0		True	0.0	None	0.0	None	0.0	None	0.0	None	0.0	None	0.0	None	0.0	None	0.0	None	1.0828e-06	6
2014-02-27 20:12:00	23.32853890348748	161380763.5904	1.5769264255685978e+21	603895819782.4226	0.2899443389992425	52192858952.72237	3.663006595545487e+20	-1.2337373089313985e+23	1708.4964531957612	-0.5756498387663239	26.25439113676084	7.913669064748201	29.99303351493909	117.85893560500955	115.16715836457932	43.57857368237706	-0.0004171860992794857	-2.2453510750634347e+22	0.14559789241048018	-0.0022805161601351467	-7.150073355359509e+22	0.1047658991081001	0.33361547424914223	0.0	182.295959	147.83766200000005	-15.54284	33.888416	-13.185892	37.176746	0.0		True	0.0	None	0.0	None	0.0	None	0.0	None	0.0	None	0.0	None	0.0	None	0.0	None	1.4837999999999999e-06	9
2014-02-27 20:24:00	20.855137082717604	147696325.5428	1.401973709376798e+21	534357545637.6224	0.4351462200481441	53845769586.33137	3.34457427952132e+20	-1.1475168742076189e+23	1697.2153621868326	-0.5850282782557159	25.65944970199957	4.019292604501608	29.664315317983146	117.2643324226022	114.75103232262836	43.60685891341751	-0.0006995919936465339	-2.212091356216305e+22	0.16783594471680344	-0.0037175644401839405	-6.381541708611238e+22	0.11277707775453855	0.3253444408809971	0.0	182.297974	147.727371	-15.536968	34.003002	-13.207207	37.273521	0.0		True	0.0	None	0.0	None	0.0	None	0.0	None	0.0	None	0.0	None	0.0	None	0.0	None	1.514e-06	12
2014-02-27 20:36:00	22.2475517176303	156954604.9457	1.5116906647002627e+21	559200737583.1865	0.7056941064952504	19159442467.26349	3.4722698252166405e+20	-1.2194906053758259e+23	1815.444021712357	-0.5850484980244329	25.520733844145354	3.0303030303030303	29.570246816965746	120.75387120223348	118.28984257955179	44.58797729106844	-0.0011255089417787087	-2.2940071771848934e+22	0.059242504525271564	-0.005673223185024148	-6.8305731124503805e+22	0.11005459554611964	0.3276955576753793	0.0	182.300064	147.61711100000005	-15.532663	34.144184	-13.205687	37.366352	0.0		True	0.0	None	0.0	None	0.0	None	0.0	None	0.0	None	0.0	None	0.0	None	0.0	None	1.4341e-06	12
2014-02-27 20:48:00	20.39516322085268	145318845.6653	1.3601364260178625e+21	516759082290.0779	0.07981605049809172	3235430939.8830447	3.275111299387586e+20	-1.147500804138744e+23	1724.1836983009493	-0.5945913229045992	25.612968872037555	3.0303030303030303	28.868003265686887	114.65810491051785	113.65083368633906	41.547141577007324	0.0001343704553839928	-2.370904523884664e+22	-0.010559843511379409	0.0006888884346998354	-6.1648383391924755e+22	0.12285126531088968	0.3194385023847221	0.0	182.302155	147.506851	-15.549454	34.262138	-13.22535	37.46644600000001	0.0		True	0.0	None	0.0	None	0.0	None	0.0	None	0.0	None	0.0	None	0.0	None	0.0	None	1.3771000000000001e-06	12
2014-02-27 21:00:00	21.625893563441952	147927474.63840002	1.3253038025872182e+21	547466376141.58	1.4293769539511438	166717760510.4474	3.3022854728108645e+20	-1.191574236082387e+23	1702.9632793481487	-0.6065403767050374	24.87953985434759	3.0716723549488054	28.50013554346601	121.123426812119	121.40295336908324	41.90817672791919	-0.0024392098190292558	-2.6181070637063704e+22	0.5515552757203465	-0.012029187188291813	-5.9205750783237425e+22	0.1332680412674503	0.3013717257032611	0.0	182.30423	147.396622	-15.542538	34.404755	-13.224045000000002	37.560661	0.0		True	0.0	None	0.0	None	0.0	None	0.0	None	0.0	None	0.0	None	0.0	None	0.0	None	1.6099e-06	12
2014-02-27 21:12:00	20.91234068803262	142476849.0296	1.2266673598032797e+21	501537789781.0708	2.288965118327224	206183537512.51584	3.083584817837693e+20	-1.1693518508813326e+23	1749.3646646643554	-0.6179998486301954	24.69104881180053	2.8409090909090917	28.23477080727201	120.36377022391581	120.31172289133914	41.760368545898366	-0.004335161208953074	-2.504541824607524e+22	0.757037348012986	-0.019858497733431308	-5.707638355141757e+22	0.13236447758036826	0.3016474157760973	0.0	182.30629	147.286392	-15.537684	34.523647	-13.243607999999998	37.670029	0.0		True	0.0	None	0.0	None	0.0	None	0.0	None	0.0	None	0.0	None	0.0	None	0.0	None	1.3696e-06	12
2014-02-27 21:24:00	21.259710889226913	147168003.9946	1.2475557150805876e+21	507799479788.2856	3.9274412102531753	291481105202.5736	3.208827640316892e+20	-1.2225003982729027e+23	1677.4876434611936	-0.6254938102209885	25.087050211319532	4.285714285714286	28.66280267922676	118.07197650126905	118.41530828223073	41.83681953714154	-0.007013287875452099	-2.554492624067671e+22	1.00904704865745	-0.0328352984996606	-5.787978408232317e+22	0.13070092466774086	0.2961426166532718	0.0	182.308395	147.17619299999996	-15.530342999999998	34.656818	-13.263405	37.771935	0.0		True	0.0	None	0.0	None	0.0	None	0.0	None	0.0	None	0.0	None	0.0	None	0.0	None	1.3779e-06	12
2014-02-27 21:36:00	18.720285431909705	144664348.52600002	1.2658527663144858e+21	457257288814.2615	1.1631767507898778	42275976798.35132	3.140522019671284e+20	-1.2144733696048535e+23	1758.6172962330072	-0.6321409319170599	25.517552102657717	4.612546125461255	28.21432260928378	114.74229787880509	115.6857626040444	39.37309243248548	-0.0021460825660329854	-2.573613803559597e+22	0.15120797646028386	-0.009852728977936423	-5.762329846671194e+22	0.133958196934866	0.2999328474755598	0.0	182.310547	147.065994	-15.52494	34.77441	-13.285114000000002	37.888622	0.0		True	0.0	None	0.0	None	0.0	None	0.0	None	0.0	None	0.0	None	0.0	None	0.0	None	2.9873e-06	12
2014-02-27 21:48:00	20.20265829648061	141528628.14270002	1.3063874294747378e+21	519673564380.1976	1.3828550008401312	152231560171.6966	3.1526837431674497e+20	-1.1601087023551666e+23	1728.809921131329	-0.6172227246110399	26.37394804279918	5.975395430579964	28.94304023526637	116.3989093823423	116.02176801719223	41.77277448532923	-0.002430325133286698	-2.5266692504897936e+22	0.518637097534136	-0.012083493366089474	-5.7465481165040876e+22	0.13442858206409686	0.3057385983206952	0.0	182.312744	146.955841	-15.523808	34.896835	-13.283998	38.004829	0.0		True	0.0	None	0.0	None	0.0	None	0.0	None	0.0	None	0.0	None	0.0	None	0.0	None	3.6095999999999997e-06	12
2014-02-27 22:00:00	21.019896905653468	141851820.62880003	1.261426509554482e+21	509252940046.8085	0.1481171594615278	27144733676.30136	3.1945133974626835e+20	-1.197343074994649e+23	1663.4635037388825	-0.635581319088796	25.177986408814245	5.078809106830122	27.91766787047111	118.02753912085987	118.16571128943184	39.49137026638356	-0.00025939957874173	-2.3842163451336078e+22	-0.09215326377238524	-0.001276815995044831	-5.726654879632844e+22	0.12656049893134086	0.3039859617828916	0.0	182.314911	146.845703	-15.53077	35.012226	-13.305179999999998	38.119137	0.0		True	0.0	None	0.0	None	0.0	None	0.0	None	0.0	None	0.0	None	0.0	None	0.0	None	3.6582e-06	12
2014-02-27 22:12:00	20.255932638822802	145741478.88779998	1.33961049025566e+21	526919104534.2213	1.4557178343420232	124441575353.466	3.390344666604644e+20	-1.2178948648773164e+23	1578.5745574169903	-0.629236699453286	26.07840536419984	4.694835680751173	28.334814034179463	114.22466852379091	114.71913773753158	38.89875565723458	-0.0022781186765915853	-2.3469111034175858e+22	0.3774987746665371	-0.012261393829212987	-5.989027471572105e+22	0.121255343068838	0.3094286697338779	0.0	182.317078	146.73558	-15.525311	35.140503	-13.326827	38.236012	0.0		True	0.0	None	0.0	None	0.0	None	0.0	None	0.0	None	0.0	None	0.0	None	0.0	None	4.2361e-06	12
2014-02-27 22:24:00	18.16947105849932	141689646.8743	1.259943933592016e+21	459970768073.2263	2.3518620489700712	164608922861.74026	3.253773873463391e+20	-1.1945269211800111e+23	1573.3357702471253	-0.6348122999183978	25.501601305816845	4.311774461028192	28.09323981007067	111.54148840144613	111.43808899847177	37.562284505864994	-0.003900268737927149	-2.2549057230265072e+22	0.5291468825537711	-0.020306535060262414	-5.784452946751101e+22	0.11983337191928395	0.3074055355127032	0.0	182.31929	146.625488	-15.526860999999998	35.260227	-13.346928	38.354919	0.0		True	0.0	None	0.0	None	0.0	None	0.0	None	0.0	None	0.0	None	0.0	None	0.0	None	3.9385000000000005e-06	12
2014-02-27 22:36:00	20.176131610840926	147768056.6333	1.2817433321573728e+21	530549283462.2105	4.539536154547252	369193445266.0072	3.4534269412802475e+20	-1.2383386435760877e+23	1460.1150260491802	-0.6310246533531718	25.373902290269534	4.992435703479576	28.76378122070423	109.0226629972759	109.08822423653523	37.2295870645511	-0.006867679507635781	-2.131516716554655e+22	1.0826332935530518	-0.0376704135257062	-6.018264455820907e+22	0.10861645997706837	0.3066748551959215	0.0	182.321564	146.515411	-15.552543	35.376328	-13.345618	38.470016	0.0		True	0.0	None	0.0	None	0.0	None	0.0	None	0.0	None	0.0	None	0.0	None	0.0	None	3.0997e-06	12
2014-02-27 22:48:00	20.366933950278227	155105207.5552	1.3497841613554618e+21	529182658598.015	3.3682612318308265	224851459146.72305	3.5873358318384965e+20	-1.317306528344873e+23	1503.5057825372926	-0.6395108775512839	25.250793022481194	3.6982248520710064	28.133756488218694	109.10590623606954	109.79958757554859	36.45749606648445	-0.004982634958329625	-2.3407450297026407e+22	0.6447126058139964	-0.0264908004201935	-6.28206389912337e+22	0.1136358072976196	0.3049744391693968	0.0	182.323868	146.405365	-15.577942000000002	35.495739	-13.365351	38.588528	0.0		True	0.0	None	0.0	None	0.0	None	0.0	None	0.0	None	0.0	None	0.0	None	0.0	None	2.4112e-06	12
2014-02-27 23:00:00	21.03591441025855	163327436.1683	1.372219263351241e+21	532981655865.9878	3.951431594128865	248185611671.1757	3.7640239045689e+20	-1.376929738140627e+23	1447.1473463148388	-0.6348046327443871	24.86256542643878	3.7815126050420167	28.410459387796262	111.57224242936931	111.54033644735529	37.23106545247013	-0.005534217918947991	-2.006057402246954e+22	0.6737261287011804	-0.029597801900692937	-6.66733925645745e+22	0.09248507728630946	0.3073837197962706	0.0	182.326141	146.295349	-15.601807	35.62044500000001	-13.383492000000002	38.709507	0.0		True	0.0	None	0.0	None	0.0	None	0.0	None	0.0	None	0.0	None	0.0	None	0.0	None	2.2053e-06	12
2014-02-27 23:12:00	20.39516487153765	157244459.59970003	1.287021719804459e+21	503302419473.0746	4.3575511166521474	270755727639.0525	3.641757487439312e+20	-1.3516468434910525e+23	1420.9833476525619	-0.6472549332879273	24.523388755072073	4.398826979472142	27.72324444664756	108.97751625229056	108.90875566726541	35.952254817562434	-0.006389371138786141	-2.087079398530288e+22	0.7694595706883325	-0.03364622283004254	-6.3088042398441745e+22	0.0999427064375245	0.30210588564985363	0.0	182.328461	146.185364	-15.626068	35.73744600000001	-13.401992000000002	38.83186	0.0		True	0.0	None	0.0	None	0.0	None	0.0	None	0.0	None	0.0	None	0.0	None	0.0	None	2.0084e-06	12
2014-02-27 23:24:00	20.936197245794585	162496841.60750002	1.2610820407574418e+21	508029078344.4282	3.4898222413349136	228212051768.0781	3.728530866937788e+20	-1.4109614714746033e+23	1364.336964679505	-0.6538193585874371	24.192799288622023	4.166666666666666	27.52612813277764	113.92960112618206	113.77533558772595	37.83441600821425	-0.005014112415711083	-2.1167623826315848e+22	0.635490496610003	-0.025971695740379584	-6.3342502148551465e+22	0.0980877402589734	0.29352009224466424	0.0	182.330795	146.075394	-15.651001	35.854225	-13.418220000000002	38.954044	0.0		True	0.0	None	0.0	None	0.0	None	0.0	None	0.0	None	0.0	None	0.0	None	0.0	None	1.6519e-06	12
2014-02-27 23:36:00	22.0458541262208	167700846.8063	1.275077770558643e+21	554803798941.9727	4.819423000203232	339574800303.0946	3.824419816324427e+20	-1.4287127828632912e+23	1322.4750465378909	-0.6415006596940961	23.89715136799365	2.479338842975207	28.15914411083117	115.76476337330713	115.39598829752045	40.06095387946827	-0.006638323691739986	-2.161717746755025e+22	0.9064946861278512	-0.0350145641233343	-6.548321882386519e+22	0.09706243110925368	0.2940236034720348	0.0	182.333206	145.965454	-15.676003	35.973423	-13.41623	39.078781	0.0		True	0.0	None	0.0	None	0.0	None	0.0	None	0.0	None	0.0	None	0.0	None	0.0	None	1.5358000000000004e-06	12
2014-02-27 23:48:00	20.645228158708246	167636534.00079998	1.316927399457303e+21	519830755438.949	3.605942219440992	288269344080.495	3.823114282957328e+20	-1.4311864028732664e+23	1388.8365011579608	-0.6428579645847707	23.985847714142555	2.801120448179272	27.7728801548505	115.54690101967016	115.84422134411898	39.48562108108598	-0.005050339242914552	-1.7860313494856973e+22	0.7824440133214986	-0.02618665753485369	-6.78362129082328e+22	0.08022466365736138	0.3047055901857065	0.0	182.335648	145.855545	-15.700594	36.089397	-13.432029	39.206009	0.0		True	0.0	None	0.0	None	0.0	None	0.0	None	0.0	None	0.0	None	0.0	None	0.0	None	1.5391999999999996e-06	12
2014-02-28 00:00:00	18.87232657969765	161634686.1469	1.2667262518246415e+21	466486644051.3971	4.12427907578585	334597608873.94977	3.686973777813536e+20	-1.3872537316099571e+23	1413.0789973505189	-0.6462622387620691	23.753275979462146	3.259259259259258	27.486765598352648	113.85969718896514	113.78817223241256	38.74866738211121	-0.006110043075238296	-1.836969803464386e+22	0.9606347562638878	-0.03099876984008845	-6.619842592643285e+22	0.08557657411001995	0.3083901810240005	0.0	182.338074	145.745667	-15.724793	36.209103000000006	-13.429257000000002	39.331345	0.0		True	0.0	None	0.0	None	0.0	None	0.0	None	0.0	None	0.0	None	0.0	None	0.0	None	1.3636000000000002e-06	12
2014-02-28 00:12:00	18.724503071517088	162584631.4997	1.2584752900121234e+21	465291991246.649	5.19467268715365	468164250052.1279	3.731517543654891e+20	-1.3937278632325451e+23	1387.4311354787976	-0.6454846795362306	23.124026646744127	1.6105417276720349	27.475820705716014	110.52885572244976	110.60376757137828	37.58394928823235	-0.007605670112962884	-2.0124617448777557e+22	1.3283203494962923	-0.038834243525483855	-6.575816053161976e+22	0.09320422291468528	0.30454930476310954	0.0	182.3405	145.635803	-15.746769	36.314903	-13.424288	39.457901	0.0		True	0.0	None	0.0	None	0.0	None	0.0	None	0.0	None	0.0	None	0.0	None	0.0	None	1.2457e-06	12
2014-02-28 00:24:00	17.98745116607099	156186037.4922	1.2040827356320445e+21	449502285878.7723	5.0321214217050745	436631177264.4793	3.6392179968659934e+20	-1.3439392640812614e+23	1355.2444450887128	-0.647925182471281	22.885564408508593	2.092675635276532	27.040950002658967	107.53462160628656	107.66347481963892	35.948591335553225	-0.007521855637825221	-1.920981733448645e+22	1.2647355786687489	-0.03910221958781624	-6.391146579709104e+22	0.09261225365117784	0.3081229133289419	0.0	182.342987	145.52598600000005	-15.7668	36.428318	-13.441317000000002	39.582611	0.0		True	0.0	None	0.0	None	0.0	None	0.0	None	0.0	None	0.0	None	0.0	None	0.0	None	1.1674e-06	12
2014-02-28 00:36:00	18.766246610359033	158741409.8144	1.2650787617162844e+21	457713274141.2063	4.293755225734814	301276151792.52576	3.6533728185722575e+20	-1.3643560256710173e+23	1430.312188376778	-0.6471798456377362	23.734218107663587	3.153153153153153	27.02302745266417	109.82495131098072	109.69175194944805	36.81782837569861	-0.006447079918520742	-1.8601185772285463e+22	0.8765716295687741	-0.032842486179644095	-6.4933279628011355e+22	0.08823439271187211	0.3080098529688418	0.0	182.345596	145.416199	-15.761112	36.542339	-13.435632	39.701504	0.0		True	0.0	None	0.0	None	0.0	None	0.0	None	0.0	None	0.0	None	0.0	None	0.0	None	1.2571e-06	12
2014-02-28 00:48:00	18.366471856573817	157448099.5417	1.2367207676112064e+21	441135783896.2229	4.973375239142898	346896878113.2965	3.604770123548636e+20	-1.3476051879250823e+23	1408.8270512494385	-0.6444848890794326	23.66865107893888	1.059001512859304	27.49153085186377	107.23486949711662	107.11732952684916	36.491209790094594	-0.007524017003241903	-1.9369302181297907e+22	1.0169073130240256	-0.03841615662826644	-6.421350954461368e+22	0.09263263958697207	0.3070976347307008	0.0	182.348145	145.306442	-15.779121	36.659958	-13.453566	39.818169	0.0		True	0.0	None	0.0	None	0.0	None	0.0	None	0.0	None	0.0	None	0.0	None	0.0	None	1.1068e-05	12
2014-02-28 01:00:00	19.10458756336205	158102748.64490002	1.2426477652688246e+21	472488603693.8197	5.717565880160228	457428542450.0437	3.617202793352588e+20	-1.3627281274102484e+23	1426.3682180985552	-0.6490187587172602	23.414576864946074	1.9817073170731707	27.197054359371858	111.96821084554381	111.6831312057385	36.994692519236224	-0.008715801646585709	-2.009018859182044e+22	1.3510994062275636	-0.04386076041061697	-6.386226757999567e+22	0.09568239621675913	0.3041531821347698	0.0	182.350708	145.196701	-15.775632	36.736496	-13.450076	39.944199	0.0		True	0.0	None	0.0	None	0.0	None	0.0	None	0.0	None	0.0	None	0.0	None	0.0	None	2.1594e-06	12
2014-02-28 01:12:00	18.542365529790878	161607029.04450002	1.2246952854589085e+21	481315872585.4884	4.649251131090399	385792636823.1409	3.761958682824476e+20	-1.3849664595331537e+23	1313.6461566777816	-0.6453071473332006	23.491967559735784	1.1396011396011396	27.754855502796275	106.58907480459112	106.94994491454187	35.06322384887181	-0.006622864859103132	-1.9066919753558174e+22	1.0648051655921196	-0.03497081634303631	-6.4973715369322955e+22	0.08883983803295231	0.30273659429088456	0.0	182.353302	145.087006	-15.769814000000002	36.813835	-13.46806	40.064556	0.0		True	0.0	None	0.0	None	0.0	None	0.0	None	0.0	None	0.0	None	0.0	None	0.0	None	1.7335e-06	12
2014-02-28 01:24:00	19.71297778264952	162448182.3959	1.2513142536006462e+21	495687620416.6691	4.184165076487072	355669258333.3452	3.719009309081252e+20	-1.400790843776579e+23	1383.587976652605	-0.64930079935177	23.746699705261644	2.3494860499265786	27.31749060420368	110.49800156403549	110.51665692152577	36.90688631330646	-0.006144148423622721	-1.9693265612708885e+22	1.0119009149482985	-0.031233746418465838	-6.4643049707684174e+22	0.09128310026431087	0.2996363378173969	0.0	182.355972	144.977325	-15.78374	36.892704	-13.461137	40.186623	0.0		True	0.0	None	0.0	None	0.0	None	0.0	None	0.0	None	0.0	None	0.0	None	0.0	None	1.5323e-06	12
2014-02-28 01:36:00	18.78479244214019	163180643.7303	1.2303881726847198e+21	469600758652.5274	5.904748931484443	479538542530.9782	3.706057423511244e+20	-1.3965272053962e+23	1356.4661468222498	-0.6444189070298055	23.550332963479608	2.489019033674964	27.96308564955784	111.4856253062871	111.23618860365221	38.39551255926503	-0.008645313223256873	-2.0403543774012587e+22	1.360275981086821	-0.04400989458756927	-6.373015704641986e+22	0.09415090037328508	0.29407889792623365	0.0	182.358673	144.867676	-15.777999999999999	37.007648	-13.479157999999998	40.306786	0.0		True	0.0	None	0.0	None	0.0	None	0.0	None	0.0	None	0.0	None	0.0	None	0.0	None	1.4221000000000001e-06	12
2014-02-28 01:48:00	18.89488317024837	162452164.1891	1.2137951754158447e+21	475007867798.3936	6.24494033042982	439712840793.248	3.712195687562748e+20	-1.3720917423991816e+23	1307.5418608981572	-0.6359822864817963	23.633540951239357	3.004291845493562	28.718107890272368	106.94047610827042	106.80147976556424	37.58151479023056	-0.008934106338240086	-2.170303715167418e+22	1.2187132176338842	-0.04699527446223716	-6.437632665723351e+22	0.10059638699658828	0.2983926085815265	0.0	182.361359	144.758057	-15.775816	37.124626	-13.476954999999998	40.429111	0.0		True	0.0	None	0.0	None	0.0	None	0.0	None	0.0	None	0.0	None	0.0	None	0.0	None	1.2725e-06	12
2014-02-28 02:00:00	20.510840634301225	170616936.3756	1.3960817574395002e+21	493501223617.2849	4.909975296171858	330063559527.3024	3.851851952878856e+20	-1.4206704298964067e+23	1460.0434062202778	-0.6269871110456681	24.516584160521212	3.611111111111111	28.42441678337649	109.89834139304372	108.6041192660838	39.034359021099455	-0.0068194101335720255	-2.0975080526863367e+22	0.8880966642589575	-0.035375537784254674	-6.904380582759815e+22	0.0925697112204079	0.304712306531223	0.0	182.364075	144.64846799999995	-15.788324	37.237766	-13.49244	40.54747800000001	0.0		True	0.0	None	0.0	None	0.0	None	0.0	None	0.0	None	0.0	None	0.0	None	0.0	None	1.1152e-06	12
2014-02-28 02:12:00	21.716479731156763	171430727.45560002	1.4251491911359754e+21	531363759702.9966	5.051050256276719	318150849090.1697	3.837567656881345e+20	-1.4438818919276306e+23	1522.1542105684314	-0.6342061388309673	24.657811281864905	2.6950354609929086	28.20605752796701	113.60292566667316	112.50010088237957	39.19886302965086	-0.00716461029259109	-1.9206224051933247e+22	0.8742282629661062	-0.036059207664809335	-6.958183950417803e+22	0.0843608141746095	0.3056290823468035	0.0	182.366806	144.53891000000004	-15.784185	37.327526	-13.499723	40.668949	0.0		True	0.0	None	0.0	None	0.0	None	0.0	None	0.0	None	0.0	None	0.0	None	0.0	None	1.0411e-06	12
2014-02-28 02:24:00	19.84713695896244	167000406.81140003	1.341955641324059e+21	469738385373.6395	4.893201288073097	332093915859.4713	3.724737512684028e+20	-1.4157682742658391e+23	1490.3763175806384	-0.6383547897939776	24.324514857159446	2.5073746312684366	27.9487544657199	110.72330222472799	110.50488137773507	36.15359181307589	-0.007217111044355602	-1.8120859352259149e+22	0.9488509091902692	-0.03576824180200184	-6.767997386286929e+22	0.08170501891417285	0.305161771695284	0.0	182.369614	144.42936699999996	-15.777728	37.442715	-13.502434	40.789486	0.0		True	0.0	None	0.0	None	0.0	None	0.0	None	0.0	None	0.0	None	0.0	None	0.0	None	2.3796e-06	12
2014-02-28 02:36:00	21.07389050287334	168298943.2894	1.3126903519494692e+21	522268819401.7551	5.822195088809089	423631710605.6264	3.776096964103689e+20	-1.4144673405957312e+23	1426.3184086062054	-0.6328473470748652	23.599211329195505	1.443001443001443	28.074909135787202	109.88232957089129	109.44462299664794	37.95779774984091	-0.008401435914587427	-1.823319640018604e+22	1.1841534083482792	-0.042373054841062484	-6.7995479502149055e+22	0.08157721029948213	0.3042188220330003	0.0	182.372467	144.31987	-15.789785	37.557346	-13.50615	40.9095	0.0		True	0.0	None	0.0	None	0.0	None	0.0	None	0.0	None	0.0	None	0.0	None	0.0	None	2.6235000000000004e-06	12
2014-02-28 02:48:00	19.945983084536792	168211210.0777	1.2886679084254335e+21	478321361387.577	5.763265187519185	433435269085.6139	3.7162637469688326e+20	-1.4397349992978456e+23	1454.7977238177048	-0.6444883340713337	23.51548273735091	1.0494752623688155	27.85223766085905	109.37338666318993	109.8011672098393	36.19402281213615	-0.008640577492532511	-1.860674091900418e+22	1.2587440189848076	-0.04166897975139187	-6.6779268409205235e+22	0.08329190763046185	0.29893320276676505	0.0	182.37529	144.210388	-15.784893	37.668652	-13.5013	41.025494	0.0		True	0.0	None	0.0	None	0.0	None	0.0	None	0.0	None	0.0	None	0.0	None	0.0	None	1.2617e-06	12
2014-02-28 03:00:00	19.801198965092784	168625571.38799998	1.2503405737108193e+21	462496369044.6261	4.5809617964941465	283811178420.09216	3.626892512458643e+20	-1.453137002426727e+23	1503.9780547797504	-0.6488893340739581	23.21642585378265	0.9584664536741214	27.58322733687332	115.18027389665168	115.61179657265663	37.409633344368096	-0.007317830345837294	-1.8526003415501253e+22	0.8781743768294441	-0.03295123698198031	-6.560865655411883e+22	0.08272672156349307	0.29297139491866925	0.0	182.378143	144.10093700000004	-15.780115	37.784615	-13.490384	41.127285	0.0		True	0.0	None	0.0	None	0.0	None	0.0	None	0.0	None	0.0	None	0.0	None	0.0	None	1.2081e-06	12
2014-02-28 03:12:00	18.956812398530108	170754422.8905	1.2792170741923567e+21	459420637633.9324	3.8855697958323367	262871895980.7417	3.713897813656865e+20	-1.4668752818544624e+23	1452.8414860162009	-0.6468576853317054	23.947436639467448	2.865761689291101	27.956768506017976	110.23077519837923	110.45212540144912	37.09074539450781	-0.005860587927348925	-1.9254575169675918e+22	0.7679678462335525	-0.02763482239132796	-6.7063666184499365e+22	0.08490817236047495	0.2957350799661745	0.0	182.380997	143.991501	-15.772239	37.88121	-13.488706	41.249809	0.0		True	0.0	None	0.0	None	0.0	None	0.0	None	0.0	None	0.0	None	0.0	None	0.0	None	1.0163e-06	12
2014-02-28 03:24:00	20.73983925606083	171850034.66320002	1.2760007515690825e+21	501049861999.5194	3.7290689441749945	207734942947.6692	3.6912408136052015e+20	-1.477155739751106e+23	1471.3812585644428	-0.6472381879781975	23.960630804733754	3.2159264931087286	28.026308517721795	113.28350633191496	114.22253309347343	36.83869980480276	-0.005710672196286362	-2.0886740497509825e+22	0.6161633530423631	-0.026346588138183656	-6.761139980794647e+22	0.09151842089891574	0.2962496013165017	0.0	182.383942	143.882095	-15.78081	37.996441	-13.497414	41.363632	0.0		True	0.0	None	0.0	None	0.0	None	0.0	None	0.0	None	0.0	None	0.0	None	0.0	None	1.0142e-06	12
