Timestamp	TOTUSJH	TOTBSQ	TOTPOT	TOTUSJZ	ABSNJZH	SAVNCPP	USFLUX	TOTFZ	MEANPOT	EPSZ	MEANSHR	SHRGT45	MEANGAM	MEANGBT	MEANGBZ	MEANGBH	MEANJZH	TOTFY	MEANJZD	MEANALP	TOTFX	EPSY	EPSX	R_VALUE	CRVAL1	CRLN_OBS	LAT_MIN	LON_MIN	LAT_MAX	LON_MAX	QUALITY	NOAA_AR	IS_TMFI	BFLARE	BFLARE_label	CFLARE	CFLARE_label	MFLARE	MFLARE_label	XFLARE	XFLARE_label	BFLARE_loc	BFLARE_label_loc	CFLARE_loc	CFLARE_label_loc	MFLARE_loc	MFLARE_label_loc	XFLARE_loc	XFLARE_label_loc	XR_MAX	XR_QUAL
2014-02-06 08:48:00	1035.2807130809547	10269525477.838202	1.2332739911301124e+23	23321811221063.77	26.515237059411234	3038725111463.0684	1.432797363923199e+22	-5.659607860079884e+24	3775.26391300427	-0.4149765021227734	33.4063073541728	20.802504268639726	40.07957018456461	108.51692476247278	108.62877760246401	53.422396950827036	0.001077986626800473	-2.082634627410737e+23	0.2413830295923863	0.0036494450203398646	2.6595990447836766e+24	0.015270394243718403	-0.19500840622513047	3.980976725362948	35.239006	70.65005500000002	-15.996401	-44.3479	-5.746477	-28.242758	0.0	11971.0	True	0.0	None	0.0	None	0.0	None	0.0	None	0.0	None	0.0	None	0.0	None	0.0	None	1.4309e-06	12
2014-02-06 09:00:00	1039.478574555435	10264754171.563702	1.2320996307365291e+23	23631212407260.09	43.08618215431467	4122887823324.317	1.441831179471347e+22	-5.661765078734687e+24	3696.2352371516577	-0.4153275970688981	33.59465935000965	21.13545816733068	40.327139558814416	108.3340145575762	108.5845537411727	53.28583099352456	0.0017165809623232936	-1.787541597731465e+23	0.3209559009596885	0.005931471949107745	2.6346681552069663e+24	0.013112789847727594	-0.19327018672781165	3.9788642211187857	35.242565	70.540863	-16.002176000000002	-44.225307	-5.749979	-28.10342	0.0	11971.0	True	0.0	None	0.0	None	0.0	None	0.0	None	0.0	None	0.0	None	0.0	None	0.0	None	1.3055e-06	12
2014-02-06 09:12:00	1059.915415538902	10309091296.297	1.2347205922599437e+23	24368752762725.69	55.34223890574486	2980703695082.03	1.4529948734911395e+22	-5.6955826611191e+24	3665.1107702704717	-0.4160114615202885	33.48415497860785	21.299325895848934	40.22357611004581	108.570958906507	108.666977902888	53.52047233107684	0.0021817487544644352	-1.730812723098379e+23	0.2210170348019344	0.0075830541421997065	2.645259379350735e+24	0.012642041620594966	-0.193212579990495	3.9843032259780826	35.246098	70.431648	-16.011855999999998	-44.110138	-5.757643	-27.967255	0.0	11971.0	True	0.0	None	0.0	None	0.0	None	0.0	None	0.0	None	0.0	None	0.0	None	0.0	None	1.1976e-06	12
2014-02-06 09:24:00	1076.9822581156827	10389055697.6813	1.2528010463224177e+23	24935834101028.15	43.31184760902788	2806820599545.045	1.4738081192925108e+22	-5.711117057402982e+24	3603.571213584809	-0.4139352884269637	33.775462216246574	21.53334861333944	40.48355553342058	107.12283766904646	107.35934901579444	52.88031399599142	0.0016545132404701616	-1.8132170718083954e+23	0.20950889278888093	0.00589699959396571	2.6964138270586e+24	0.013141991733942895	-0.1954330166941977	3.9306250057504064	35.249561	70.322411	-16.015579000000002	-43.993816	-5.764585	-27.830053000000003	0.0	11971.0	True	0.0	None	0.0	None	0.0	None	0.0	None	0.0	None	0.0	None	0.0	None	0.0	None	1.1443e-06	12
2014-02-06 09:36:00	1096.930938588329	10450255556.4169	1.2719030881290105e+23	25865735790317.77	57.66572900940524	3231982491805.33	1.4759724733051989e+22	-5.715910345438309e+24	3632.567501959306	-0.4118565188359301	34.300488458847035	22.454010999431066	40.68580220296264	107.62919539822632	107.83361416807415	53.522326700587094	0.00218729058600384	-1.6949586106612032e+23	0.2307131470159456	0.007816823538204438	2.686008001226014e+24	0.012212923414990643	-0.1935387082887443	3.9362147833641	35.253101	70.21315	-16.012787	-43.891075	-5.769952	-27.723572	0.0	11971.0	True	0.0	None	0.0	None	0.0	None	0.0	None	0.0	None	0.0	None	0.0	None	0.0	None	1.0807999999999999e-06	12
2014-02-06 09:48:00	1111.573871083772	10448431410.3043	1.2708065780131242e+23	26189747239832.39	62.75269035490305	3008604228029.6367	1.4640374155966983e+22	-5.701482099290901e+24	3665.16287341425	-0.4108886052305211	34.45441432675663	22.667381645472652	41.09389335823385	108.37231559832105	108.77497301724551	54.17120337286911	0.002403580908338557	-1.8599488328513166e+23	0.22517732934282486	0.008513703540861508	2.665690457090987e+24	0.013404089821231945	-0.1921082649766891	3.9173430689530857	35.25650800000001	70.103859	-16.016460000000002	-43.769676	-5.768754	-27.455877	0.0	11971.0	True	0.0	None	0.0	None	0.0	None	0.0	None	0.0	None	0.0	None	0.0	None	0.0	None	1.1855e-06	12
2014-02-06 10:00:00	1127.6137843709794	10500676445.1026	1.2758586622101834e+23	26413570536001.86	62.459135404022476	3599837240534.428	1.4601019959866573e+22	-5.732467949579395e+24	3732.9222511982452	-0.4110662151828852	34.23457866366649	22.419956481193662	40.881726338899306	109.2408256065737	109.76240464079329	54.37393595171877	0.0024270112843995523	-1.9720948308950406e+23	0.2313717125399437	0.008430654529504034	2.670586946979171e+24	0.014141580297491881	-0.1915035684921869	3.9967153293645845	35.259987	69.994537	-16.016428	-43.649582	-5.763209	-27.237154	0.0	11971.0	True	0.0	None	0.0	None	0.0	None	0.0	None	0.0	None	0.0	None	0.0	None	0.0	None	1.2253e-06	12
2014-02-06 10:12:00	1157.464753991371	10564860356.9487	1.2840562654453784e+23	27103719323982.88	52.624473627481976	2734027085969.377	1.465408382634489e+22	-5.756100588184598e+24	3739.905883591953	-0.4102533902048759	34.400719430885836	22.52736626310293	41.04688305264288	109.52483701831663	110.33279759606629	54.80159209715515	0.0020355267716505613	-2.2021371048205186e+23	0.13869242358777076	0.007064100138617959	2.668478283266522e+24	0.015695247140104267	-0.19018991166439106	4.122885852334907	35.26334400000001	69.885193	-16.024364000000002	-43.530853	-5.769132	-27.098106	0.0	11971.0	True	0.0	None	0.0	None	0.0	None	0.0	None	0.0	None	0.0	None	0.0	None	0.0	None	1.1838e-06	12
2014-02-06 10:24:00	1148.723292427604	10554279874.8117	1.286034804970518e+23	26920475367547.02	72.65518200529971	3673320363578.7495	1.455135825338187e+22	-5.703531727698524e+24	3779.143078799944	-0.4069141509458523	34.51183618754019	23.036996565719644	41.13284190922859	108.6847272733521	109.66494501721168	54.76138061827198	0.0028354348269317713	-2.509211001064158e+23	0.2636508734332613	0.009785891277488258	2.6503331463665863e+24	0.017901775825730683	-0.1890860108202792	3.997610030507037	35.266762	69.77580999999999	-16.031082	-43.410549	-5.776488	-26.964378000000004	0.0	11971.0	True	0.0	None	0.0	None	0.0	None	0.0	None	0.0	None	0.0	None	0.0	None	0.0	None	1.4944999999999996e-06	12
2014-02-06 10:36:00	1167.6205069811087	10603267078.6817	1.306487591251229e+23	27461420643649.145	77.58943510974252	3617480845065.745	1.451396918107606e+22	-5.63192461114802e+24	3844.046128227092	-0.39994904155014016	34.854936683757984	23.694904657705532	41.59112420217048	108.51217733915985	109.7813512848752	55.366891931960495	0.003031784741706101	-2.576038169014043e+23	0.17299390003665413	0.01045395574863807	2.6457681887597304e+24	0.01829363970274684	-0.18788824856847736	4.018970547505429	35.270046	69.666397	-16.035695999999998	-43.309101	-5.7789410000000005	-26.828396	0.0	11971.0	True	0.0	None	0.0	None	0.0	None	0.0	None	0.0	None	0.0	None	0.0	None	0.0	None	1.4897e-06	12
2014-02-06 10:48:00	1155.751854519102	10538353752.7266	1.2981267625728586e+23	26856038357402.25	78.58692619221794	3310345690860.345	1.4293129397539875e+22	-5.603718313043695e+24	3940.627434344033	-0.400397196090317	34.75572168276684	23.225156218504328	41.41414593812045	110.00241662575807	111.32069235971564	55.97669063068609	0.00316818892127466	-2.6217796192990137e+23	0.07455271374189416	0.010650163928466029	2.581031764229158e+24	0.01873315448227596	-0.18442002679040456	3.948721238061932	35.273403	69.55695300000001	-16.040701000000002	-43.18996	-5.781796	-26.719727	0.0	11971.0	True	0.0	None	0.0	None	0.0	None	0.0	None	0.0	None	0.0	None	0.0	None	0.0	None	1.3221e-06	12
2014-02-06 11:00:00	1149.2264489195986	10475602953.1544	1.2831451855581602e+23	26680115289786.16	88.0985603904483	4536057028646.045	1.4074147321118565e+22	-5.578382003601001e+24	3995.499901435445	-0.400974508797908	34.63933721305888	23.463733355388307	41.48772237593752	110.79926635424722	112.48098399580212	56.3738810683227	0.003643296819422204	-2.724246225875039e+23	0.1590520251964268	0.012005761495605541	2.5522714379435693e+24	0.019581901912770653	-0.18345745871970087	3.997365941758311	35.27663	69.447479	-16.045285999999994	-43.069439	-5.786884	-26.589046000000003	0.0	11971.0	True	0.0	None	0.0	None	0.0	None	0.0	None	0.0	None	0.0	None	0.0	None	0.0	None	1.2989e-06	12
2014-02-06 11:12:00	1138.2843637516935	10386648849.6208	1.2717193276186669e+23	26066997191941.914	85.91171218872955	3858028002850.353	1.3809542217079017e+22	-5.543518571386131e+24	4114.587957991703	-0.4018810293639024	34.662625501000406	23.744252997035193	41.27941902436542	111.93806349938365	113.87170356801693	57.402550567341954	0.003691634246679683	-2.869425102805628e+23	0.09019773428405513	0.011800373728441484	2.5344685182353387e+24	0.020802086240865655	-0.18373796423381286	3.982353879270337	35.279877	69.337975	-16.044092000000006	-42.94743	-5.780677	-26.480976	0.0	11971.0	True	0.0	None	0.0	None	0.0	None	0.0	None	0.0	None	0.0	None	0.0	None	0.0	None	1.1686e-06	12
2014-02-06 11:24:00	1133.9066409323186	10318134407.6664	1.2517587097748362e+23	25359048958274.28	69.49213397601744	3006016103255.0376	1.3666290332124905e+22	-5.541939473036127e+24	4165.082308573447	-0.4044344273155856	34.207221150682614	22.761820592134328	40.936896422605	112.25801074884876	114.89094334485114	56.87296236552419	0.003070932607539769	-2.718906263213807e+23	-0.056795662896340485	0.009591063813629895	2.4975070332131186e+24	0.01984177746505076	-0.1822607106426639	3.8996969602359735	35.283081	69.228432	-16.051172	-42.829403000000006	-5.785876	-26.352278	0.0	11971.0	True	0.0	None	0.0	None	0.0	None	0.0	None	0.0	None	0.0	None	0.0	None	0.0	None	1.397e-06	12
2014-02-06 11:36:00	1101.7545208716065	10194343891.9372	1.2198651281574995e+23	24110637853291.92	73.84357178789516	3742742525745.538	1.3430420951643497e+22	-5.536906668846179e+24	4229.407727513454	-0.4089738030085757	33.717420627959406	21.521318721797584	40.37279688916213	112.86591194378431	115.26065840970892	57.36692372454393	0.0034002657727998874	-2.8019019008059502e+23	-0.01771522116382191	0.010282068496073295	2.4591919216222104e+24	0.020695752060931133	-0.18164385507393552	3.9551142959673817	35.286259	69.11885799999999	-16.056234	-42.712009	-5.794021	-26.24803	0.0	11971.0	True	0.0	None	0.0	None	0.0	None	0.0	None	0.0	None	0.0	None	0.0	None	0.0	None	1.2733e-06	12
2014-02-06 11:48:00	1110.0219237654621	10189860527.8553	1.227364830873131e+23	24029990184861.97	99.66097761622015	5698076489910.125	1.3305679871626545e+22	-5.468068376387592e+24	4302.7594573192355	-0.40406678114772016	33.94658443029043	22.09134503468504	40.853552771684186	112.63105034681273	115.42909196245121	57.42563186875682	0.0046399263287965065	-3.094029978333837e+23	0.0478498725017895	0.013931540265530113	2.466238368567872e+24	0.02286355341711781	-0.1822444290260624	3.9863019006146745	35.289398	69.009247	-16.055038	-42.599949	-5.792724	-26.139515	0.0	11971.0	True	0.0	None	0.0	None	0.0	None	0.0	None	0.0	None	0.0	None	0.0	None	0.0	None	2.1441999999999997e-06	12
2014-02-06 12:00:00	1094.931629586759	10060101778.0873	1.2070893598416871e+23	23320509619073.19	80.96954664120929	4917181596348.731	1.302691486266642e+22	-5.404115749106437e+24	4376.765124456459	-0.4044919196158045	33.9356884767174	22.0397746424616	40.7079481190503	113.90376584087572	116.53454728991814	58.59596273056813	0.003899140260098686	-3.100800332939588e+23	0.0750271492992744	0.011461199807890869	2.4419894535812175e+24	0.023209137946822254	-0.1827801341827184	3.8895928196100726	35.292496	68.899597	-16.058807	-42.484589	-5.799576	-26.009779	0.0	11971.0	True	0.0	None	0.0	None	0.0	None	0.0	None	0.0	None	0.0	None	0.0	None	0.0	None	3.0713e-06	12
2014-02-06 12:12:00	1092.1926641195616	10015335952.8518	1.2043160059965e+23	23218462821018.977	77.77451154670499	5616173569915.789	1.2974022736284832e+22	-5.374414814482144e+24	4378.515475877511	-0.4040667934090499	34.02949320639939	22.065569021293033	40.868239120977286	113.194870248903	116.03195955367846	57.91173947864482	0.003755227248645889	-3.3583930842328005e+23	0.13882436464152825	0.011061499342613315	2.417886443027305e+24	0.025249541976112483	-0.18178493018972425	3.857448070737828	35.29555900000001	68.789909	-16.060907	-42.363426	-5.804553	-25.905354	0.0	11971.0	True	0.0	None	0.0	None	0.0	None	0.0	None	0.0	None	0.0	None	0.0	None	0.0	None	1.5548e-06	12
2014-02-06 12:24:00	1098.4433547337742	10036689176.1095	1.217219248240351e+23	23488051495075.25	82.93408508574937	6040380441155.224	1.2919860483766866e+22	-5.345280356268515e+24	4458.3632850692875	-0.4010213713350316	34.11536883880164	22.322210331744333	40.96145637768197	113.75558973467541	116.81377024558891	58.60644321126511	0.004034151429407013	-3.219547638873304e+23	0.15696616636686025	0.011795811361948459	2.4382665157890947e+24	0.024154156997683543	-0.1829271650261245	3.947659557738503	35.298599	68.680199	-16.054567000000002	-42.245895	-5.798065	-25.779984	0.0	11971.0	True	0.0	None	0.0	None	0.0	None	0.0	None	0.0	None	0.0	None	0.0	None	0.0	None	1.5727000000000004e-06	12
2014-02-06 12:36:00	1090.4323193402608	10028672148.2336	1.213620821680429e+23	23274822872684.92	63.84956607326789	3889623582703.025	1.2911920764638477e+22	-5.326572030282308e+24	4470.626614022159	-0.3999372803327357	33.713238485667766	21.833569786213975	40.535806664884646	114.86081781613385	117.54819118985282	59.64229261742005	0.003123602860587441	-3.069662437046181e+23	0.0031169499934069838	0.009095695921084288	2.4256028668490286e+24	0.023048077443284663	-0.18212257493558606	3.9571621848589658	35.301594	68.570442	-16.060760000000002	-42.124836	-5.804956	-25.672251	0.0	11971.0	True	0.0	None	0.0	None	0.0	None	0.0	None	0.0	None	0.0	None	0.0	None	0.0	None	1.4849000000000004e-06	12
2014-02-06 12:48:00	1065.8086503210893	9963585411.5743	1.2052157427124845e+23	22879547236220.77	63.054810297274344	3338573456458.9443	1.2769280721048924e+22	-5.264129973381668e+24	4492.85430412082	-0.39783076440028187	33.74546509582663	21.679291054012577	40.733030573238565	115.02586117675429	117.46373548335563	59.70633329710447	0.003121679800845307	-3.240801614606634e+23	0.11687030335373305	0.009054781534671845	2.412469045036718e+24	0.024491997540486008	-0.1823196632932737	3.9762001140490653	35.304554	68.460655	-16.063442000000002	-42.003387	-5.810507	-25.567427	0.0	11971.0	True	0.0	None	0.0	None	0.0	None	0.0	None	0.0	None	0.0	None	0.0	None	0.0	None	1.1785e-06	12
2014-02-06 13:00:00	1070.0949446603931	9906608165.2935	1.1916524194575664e+23	22544012140169.99	80.01796405055244	4284265131032.216	1.2644407529820165e+22	-5.23341245879248e+24	4515.392995366067	-0.3977841849949609	33.460331977428346	21.301328502415465	40.631882881399314	114.9519390083995	117.75804849130634	59.90737433599197	0.004026668883381262	-3.066413904578919e+23	-0.016369880737597875	0.011557193500106469	2.409856040764684e+24	0.023307372875624302	-0.18316970593828266	3.9301255635292818	35.30748	68.35083	-16.062195000000006	-41.886005	-5.814159	-25.444958	0.0	11971.0	True	0.0	None	0.0	None	0.0	None	0.0	None	0.0	None	0.0	None	0.0	None	0.0	None	1.2076e-06	12
2014-02-06 13:12:00	1078.9646078112028	9966754908.6584	1.221089539683674e+23	22833141785648.74	76.30281832039567	3670885139405.188	1.2638012589519411e+22	-5.167659067145272e+24	4641.885554799646	-0.3904160112679626	33.77723520643765	21.82956381260097	40.74007363416937	115.7728191487553	118.72674091188557	60.672247893626405	0.003852315763134027	-3.152126322410348e+23	-0.010413588630810664	0.01101250459242773	2.4035208168178828e+24	0.023814275861043444	-0.1815857041087524	3.9777641563475186	35.310368	68.240967	-16.063907999999998	-41.769371	-5.821191000000002	-25.337681	0.0	11971.0	True	0.0	None	0.0	None	0.0	None	0.0	None	0.0	None	0.0	None	0.0	None	0.0	None	1.3377000000000001e-06	12
2014-02-06 13:24:00	1076.5553049667124	10028367029.3882	1.2407821597782041e+23	22977767583010.844	65.82622580662496	3029277012362.4	1.26964247452773e+22	-5.144370533819e+24	4650.999144537645	-0.3862686310882581	34.060755717842184	22.366587017124647	41.09023870823242	114.70569478793779	117.45559321190514	60.396114925596436	0.003276892961301521	-3.379945330577976e+23	0.0914473638180136	0.009470029557623818	2.4250195851163805e+24	0.025378554041018842	-0.18208427821192336	3.9184392065403837	35.313225	68.131073	-16.062048	-41.664974	-5.829238	-25.231783	0.0	11971.0	True	0.0	None	0.0	None	0.0	None	0.0	None	0.0	None	0.0	None	0.0	None	0.0	None	1.4193000000000001e-06	12
2014-02-06 13:36:00	1061.8012279133306	10017409842.102402	1.2341632936872616e+23	22844014781088.016	65.72688384410988	4033474042036.72	1.264674670798905e+22	-5.129368896111719e+24	4639.816649139213	-0.3855635333123388	34.14330658305876	22.54730640571172	41.33049616019953	114.77631807352482	117.61860768337029	60.195411857558796	0.003281585892661135	-3.1314546697908345e+23	0.06272835341929607	0.009470897822195729	2.3994757594986047e+24	0.02353846547880811	-0.18036338790740766	3.9258309830542952	35.31604799999999	68.021149	-16.065334	-41.549129	-5.813251	-25.125177	0.0	11971.0	True	0.0	None	0.0	None	0.0	None	0.0	None	0.0	None	0.0	None	0.0	None	0.0	None	1.3697e-06	12
2014-02-06 13:48:00	1074.7018735752904	10077221025.4327	1.2279789832905783e+23	22883214051435.25	72.2790818298182	3973671760800.545	1.2798410309395884e+22	-5.230545023389756e+24	4550.453842991755	-0.3908351755960007	33.775487630864376	22.234251968503933	41.17819503574708	114.60200695822105	117.694013277955	59.64620655896515	0.0035572164884993445	-3.252825038647378e+23	0.03095061257697222	0.010313977334389593	2.3945320160451187e+24	0.024305659151728568	-0.17892348441247768	3.890547636721021	35.318836	67.911186	-16.064111999999998	-41.436455	-5.790955	-25.006418	0.0	11971.0	True	0.0	None	0.0	None	0.0	None	0.0	None	0.0	None	0.0	None	0.0	None	0.0	None	1.5751e-06	12
2014-02-06 14:00:00	1074.401008717357	9985015892.1887	1.2164261222286158e+23	22699518434235.14	71.87888279992275	4225193506841.562	1.266467077105362e+22	-5.210669990918595e+24	4590.552957134672	-0.3929454594655693	33.899041098600264	22.25229288828748	40.99482141929321	114.61593968815468	117.51215138460744	60.133833133094136	0.0036025903568525845	-3.1802777861057125e+23	0.04880822313906675	0.01033613780245425	2.3996840298839584e+24	0.02398301404747273	-0.18096424170756364	3.816741383536401	35.321594	67.80119300000001	-16.061443	-41.31871	-5.767054	-24.895033	0.0	11971.0	True	0.0	None	0.0	None	0.0	None	0.0	None	0.0	None	0.0	None	0.0	None	0.0	None	1.417e-06	12
2014-02-06 14:12:00	1072.0316385030403	9957134572.767	1.2226271138798074e+23	22920638202445.05	77.98540935010594	4631864303777.941	1.263746972193529e+22	-5.151625974688492e+24	4597.594111378313	-0.38958066016938747	34.01234971334156	22.108469836196566	41.132437651708	114.83439942824872	117.18608087929027	60.25332899770078	0.003894791457329368	-3.075590614820781e+23	0.060746185579212485	0.011272879635084774	2.3873935880184767e+24	0.02325849407584573	-0.1805415173139858	3.7776042751722887	35.324314	67.691162	-16.06563	-41.204082	-5.770883	-24.789248	0.0	11971.0	True	0.0	None	0.0	None	0.0	None	0.0	None	0.0	None	0.0	None	0.0	None	0.0	None	1.4875e-06	12
2014-02-06 14:24:00	1093.2512857048773	9904315990.9864	1.2054145919334144e+23	22998482170743.953	87.01359960376942	5263918331456.615	1.2567566799745306e+22	-5.179276084990937e+24	4597.384747116672	-0.3937604801364577	33.52861770065652	21.450640733424507	40.95182059600532	116.51464606485108	118.72447381090271	60.27530118805546	0.004407313964634018	-3.095873929110097e+23	0.05016819697135627	0.012606789371967715	2.3656935472971449e+24	0.02353674113455697	-0.17985459970726272	3.6707021963851916	35.327	67.5811	-16.074870999999998	-41.08876400000001	-5.751957	-24.68598	0.0	11971.0	True	0.0	None	0.0	None	0.0	None	0.0	None	0.0	None	0.0	None	0.0	None	0.0	None	1.6472999999999999e-06	12
2014-02-06 14:36:00	1059.9785880177972	9886026679.2129	1.2086256886566722e+23	22393142992526.953	74.04245746775678	4131827678028.6895	1.2561224984392762e+22	-5.126960215571809e+24	4601.2416872928225	-0.3905042140699206	33.53476363338835	21.492492037008947	40.955942340124615	116.47741661204262	118.86563903111484	60.605030494579	0.0037434884204336303	-2.841707397474928e+23	0.0710324165663498	0.010772505703174458	2.369431915880421e+24	0.021644379265850444	-0.1804720749134727	3.6741352174741917	35.329666	67.471016	-16.080273000000002	-40.987541	-5.731441	-24.561193	0.0	11971.0	True	0.0	None	0.0	None	0.0	None	0.0	None	0.0	None	0.0	None	0.0	None	0.0	None	1.5772e-06	12
2014-02-06 14:48:00	1085.6983357875624	9932507977.2093	1.2078402645056288e+23	22800108690504.13	70.68126971450606	3615595758186.1104	1.2568805589935987e+22	-5.183621628350966e+24	4634.097206826231	-0.3929721759370756	33.361951895758	21.023132579231632	40.73039946076498	117.14162347015913	119.38392710831869	61.14532721493104	0.0036014098499187845	-2.90990515204656e+23	0.05277408927476288	0.010217225392208205	2.327913787058496e+24	0.022060093142524027	-0.17647996167214786	3.671387941899953	35.332302	67.360901	-16.086206	-40.868999	-5.736789	-24.451999999999998	0.0	11971.0	True	0.0	None	0.0	None	0.0	None	0.0	None	0.0	None	0.0	None	0.0	None	0.0	None	4.0801999999999995e-06	12
2014-02-06 15:00:00	1082.5105535055454	9990129215.057402	1.2208278477904455e+23	22802553679380.066	66.78106863028589	1728738117934.4067	1.271063586415444e+22	-5.193928167942888e+24	4594.959025851137	-0.3914824646002067	33.617449269427944	21.89343197040888	40.70121555773196	115.25622923521816	118.0353042291198	60.192026579065114	0.003338218876795096	-3.170105464987849e+23	0.08442056901969305	0.009609706452521431	2.3526121128971003e+24	0.02389406746392404	-0.17732366687120188	3.679476850664393	35.33490399999999	67.250755	-16.070719	-40.753956	-5.739746	-24.318571	0.0	11971.0	True	0.0	None	0.0	None	0.0	None	0.0	None	0.0	None	0.0	None	0.0	None	0.0	None	2.3591e-06	12
2014-02-06 15:12:00	1088.2130786066373	9998441234.6191	1.2300355579495651e+23	23034591094825.86	69.98638124551012	3169418071901.147	1.2667668272955123e+22	-5.145516896293481e+24	4599.497795639425	-0.3875111731764361	34.029254996765864	22.227739981129265	41.29856128122768	115.5860697905709	118.30196875793115	60.71845248222426	0.003475684408299072	-3.3716627503722e+23	0.10989581838684948	0.010089699848658741	2.3583988218784536e+24	0.0253921426026836	-0.1776120674955642	3.696864037370772	35.337429	67.140579	-16.073248	-40.636292	-5.720557	-24.188854	0.0	11971.0	True	0.0	None	0.0	None	0.0	None	0.0	None	0.0	None	0.0	None	0.0	None	0.0	None	1.6343e-06	12
2014-02-06 15:24:00	1104.1626710136684	10047621116.35	1.23127313573919e+23	23711713608139.55	64.81635830786954	3778737595782.252	1.2873850405889293e+22	-5.24139641677171e+24	4479.118021452546	-0.3927997692037495	33.98585742151827	22.402048408135663	41.158318116199055	115.61287114041052	117.84346386303687	60.308035521234615	0.003131376313245545	-3.136787816705921e+23	0.262934797311558	0.00926323509236682	2.368599156174273e+24	0.023507657739845485	-0.1775071236558929	3.7750506689939978	35.340031	67.03038000000001	-16.080568	-40.51939	-5.709756	-24.084	0.0	11971.0	True	0.0	None	0.0	None	0.0	None	0.0	None	0.0	None	0.0	None	0.0	None	0.0	None	1.4868e-06	12
2014-02-06 15:36:00	1111.819030998431	10080291824.0145	1.2418692501075214e+23	24124526701813.31	89.3838054698562	5207689855970.326	1.2970291731353032e+22	-5.245378072225649e+24	4471.008770446076	-0.3918241574054671	33.91433359258469	22.67272292612957	40.95622188607764	116.03529259346868	117.97236368246377	60.428218698393536	0.004273669876636682	-3.332644672753734e+23	0.1451122621477961	0.012741816930852226	2.373704116091974e+24	0.02489450088922733	-0.17731317026362406	3.8197736773319604	35.34251	66.920158	-16.080179	-40.403114	-5.687119	-23.955261	0.0	11971.0	True	0.0	None	0.0	None	0.0	None	0.0	None	0.0	None	0.0	None	0.0	None	0.0	None	1.5079e-06	12
2014-02-06 15:48:00	1108.8228376669697	10118516114.9155	1.2590148156861037e+23	24580242198197.07	98.41447543864058	6042696115472.696	1.3025780735464798e+22	-5.18067000236744e+24	4385.133057809541	-0.38552863288678735	34.726539293522876	23.849391738748327	41.93444847353404	113.45606648670851	115.14058867012831	59.200620288572786	0.00455222144588744	-3.1964122197548656e+23	0.27591769704004604	0.01403966175181832	2.3760635604508803e+24	0.02378666142915067	-0.17681893185517167	3.889385576037496	35.345055	66.80990600000001	-16.074505	-40.287594	-5.662187	-23.848553	0.0	11971.0	True	0.0	None	0.0	None	0.0	None	0.0	None	0.0	None	0.0	None	0.0	None	0.0	None	1.5894e-06	12
2014-02-06 16:00:00	1124.9475683861176	10199020443.838001	1.2664379960297448e+23	25594238440790.61	83.16688301643016	4338537351024.1553	1.3261690069286889e+22	-5.241979811221811e+24	4251.120149141085	-0.3870119058494649	34.922870758266875	23.83648359486448	42.03258522128912	113.14641057706051	114.6706749107804	58.84392940982681	0.003707510833471389	-3.063310849191788e+23	0.15916898754311246	0.011758225080347	2.4032323721701503e+24	0.022616221592786503	-0.17742905811304827	3.8248406886363453	35.347496	66.699646	-16.081556	-40.169655	-5.6409699999999985	-23.721191	0.0	11971.0	True	0.0	None	0.0	None	0.0	None	0.0	None	0.0	None	0.0	None	0.0	None	0.0	None	1.4731e-06	12
2014-02-06 16:12:00	1128.3786592602153	10230047203.9379	1.266870138816731e+23	26259721728013.61	89.49242897747507	4910786113562.842	1.3437744765410273e+22	-5.288016383421531e+24	4138.554263308811	-0.3892267127608525	34.950546671288464	24.143167028199574	41.98291606298727	112.70928912684326	113.9838869769034	58.4793403601722	0.0038825348797169226	-2.8356874200864107e+23	0.2139249820250909	0.012594053335244436	2.4300162479983683e+24	0.02087219881537862	-0.17886238762972256	3.7474118143066786	35.350006	66.589355	-16.088142	-40.054028	-5.64502	-23.617113	0.0	11971.0	True	0.0	None	0.0	None	0.0	None	0.0	None	0.0	None	0.0	None	0.0	None	0.0	None	1.4927000000000001e-06	12
2014-02-06 16:24:00	1138.1496656355985	10391235579.4496	1.306238212035859e+23	26853374013827.69	70.6230549225155	3701649048204.4087	1.369291687642946e+22	-5.291361571810703e+24	4098.934676190167	-0.3834314344364851	35.49892536656467	24.92915485914319	42.407916894243996	111.77864628245882	112.7756158048864	58.254391729691655	0.002943117808072824	-2.5938804651878737e+23	0.14174492112344506	0.009825432244156395	2.4513127239140514e+24	0.0187962076306084	-0.17763109574482078	3.75105115654424	35.35240200000001	66.47905	-16.089851	-39.936607	-5.650533	-23.487219	0.0	11971.0	True	0.0	None	0.0	None	0.0	None	0.0	None	0.0	None	0.0	None	0.0	None	0.0	None	2.2381000000000002e-06	12
2014-02-06 16:36:00	1117.584929388367	10335568155.6042	1.2918507597705478e+23	26489181403918.23	63.663960595726735	4125850831956.128	1.372862580743238e+22	-5.30667232701714e+24	4010.499640316311	-0.38661200226893655	35.34360744021168	24.687693259121836	42.37766346246109	111.20428534109794	111.65714985623892	57.65323794518627	0.002624776771623448	-2.5885973493844e+23	0.1197811919597722	0.008884527550489973	2.484251116007746e+24	0.01885895232721296	-0.1809874887523827	3.7744493853799694	35.35487	66.368721	-16.095409	-39.818031	-5.631834	-23.386375	0.0	11971.0	True	0.0	None	0.0	None	0.0	None	0.0	None	0.0	None	0.0	None	0.0	None	0.0	None	1.4609e-06	12
2014-02-06 16:48:00	1105.8423247719418	10309142287.3637	1.2737396838393475e+23	26120421575415.625	77.05770717410286	4932205558482.97	1.3826709792680938e+22	-5.364753423639089e+24	3905.9637384898765	-0.3918453503210229	35.05405252206861	24.13765017308084	42.09656240231339	110.80806264917813	111.32965381611706	57.02589916565896	0.003138167671517119	-2.7896819541884788e+23	0.2124453222814624	0.010740699383224979	2.498252698000506e+24	0.0203760325275438	-0.1824741281351212	3.820802982039243	35.357235	66.258385	-16.100451	-39.701908	-5.636504	-23.260201	0.0	11971.0	True	0.0	None	0.0	None	0.0	None	0.0	None	0.0	None	0.0	None	0.0	None	0.0	None	1.6375e-06	12
2014-02-06 17:00:00	1104.066498798592	10357106207.8503	1.2823347461980842e+23	26322870782959.83	66.93709730381228	3772733709592.9536	1.393601264707841e+22	-5.378618566462363e+24	3851.0808798609332	-0.3910387961234316	35.345882720640546	24.58820244884936	42.47115194210231	110.2448123639742	110.33782759281141	56.774604796902636	0.0026696884020185963	-2.7843573350673133e+23	0.25930584411584745	0.009292213906392614	2.5294493916473464e+24	0.02024296251589915	-0.18389719083862946	3.842645758147407	35.359627	66.148026	-16.09617	-39.585995	-5.642429	-23.155741	0.0	11971.0	True	0.0	None	0.0	None	0.0	None	0.0	None	0.0	None	0.0	None	0.0	None	0.0	None	1.3944e-06	12
2014-02-06 17:12:00	1100.446369410997	10315045238.362202	1.2749698538561488e+23	26181668415133.54	75.90592114703695	4669058832210.138	1.3889866977514959e+22	-5.364879401327583e+24	3827.8935517681048	-0.391630308687896	35.440260757325085	24.884370015948964	42.43578222234573	109.986245320863	109.72124974030226	56.39480323866073	0.0030266725605900143	-2.532563258063925e+23	0.2792328684055773	0.010575998090153672	2.5377631326870176e+24	0.018487433851388388	-0.18525392365484272	3.797168705833746	35.362007	66.03765899999999	-16.094002	-39.470123	-5.624441	-23.0513	0.0	11971.0	True	0.0	None	0.0	None	0.0	None	0.0	None	0.0	None	0.0	None	0.0	None	0.0	None	1.4081000000000001e-06	12
2014-02-06 17:24:00	1071.6912743210837	10227333152.2443	1.2610131804964342e+23	25787621046580.57	62.21344399765514	3777405933263.459	1.3797856623900746e+22	-5.2930883858588e+24	3795.525039924445	-0.389703410325544	35.206845515536585	24.51932685773674	42.58445397633213	109.57680803801868	109.36563033818804	56.27734622961158	0.002486946114392994	-2.767925208616569e+23	0.2952757092304653	0.008754469448995588	2.523113149236778e+24	0.020378837734992897	-0.18576409974972696	3.8006155362317364	35.364384	65.927284	-16.098995000000002	-39.352463	-5.629033	-22.926306	0.0	11971.0	True	0.0	None	0.0	None	0.0	None	0.0	None	0.0	None	0.0	None	0.0	None	0.0	None	1.2901e-06	12
2014-02-06 17:36:00	1047.5021817991326	10224574553.738	1.2513325590855574e+23	25203914865897.57	58.22846872138828	3709752337095.9414	1.3893532749210189e+22	-5.356320440480172e+24	3744.23619155808	-0.3944652326250864	35.08306143388936	24.204251937214387	42.27495156281756	109.60587066314541	109.18772103530766	55.78819249044282	0.0023138672251694125	-2.85478183738869e+23	0.1787290743269193	0.008167937919442187	2.5288657783598134e+24	0.021023988278760446	-0.18623785462859604	3.8935907693736236	35.366753	65.816902	-16.101728	-39.234112	-5.635406	-22.822489	0.0	11971.0	True	0.0	None	0.0	None	0.0	None	0.0	None	0.0	None	0.0	None	0.0	None	0.0	None	1.3896e-06	12
2014-02-06 17:48:00	1028.9679609432774	10109312583.8035	1.2257157750787984e+23	24273400538581.93	56.90297497824845	3918286154495.647	1.3713839375654328e+22	-5.335149016401764e+24	3758.085309866004	-0.3973859124007068	34.864640526242106	24.076713221222363	41.98862473637342	109.49974216187206	109.1746383890539	55.62944870200956	0.0023169907153486892	-2.801887107751492e+23	0.18724082926676394	0.00805613958279419	2.508097720463635e+24	0.02086971631597546	-0.1868144072400768	3.8562558655426	35.369114	65.706512	-16.100195000000006	-39.115612	-5.636666	-22.69945	0.0	11971.0	True	0.0	None	0.0	None	0.0	None	0.0	None	0.0	None	0.0	None	0.0	None	0.0	None	1.4511000000000004e-06	12
2014-02-06 18:00:00	1031.1545632402713	10010986633.9683	1.224055475261196e+23	24248718116158.61	56.998181719882574	4209086158797.7817	1.353788596319692e+22	-5.233054143748758e+24	3827.172193413323	-0.39360973764624224	34.759460760495465	23.547730764439645	42.02129011982103	110.94107515120814	109.48769888698172	56.64218196837147	0.0023668375433885296	-2.7779872538186583e+23	0.15369664604924227	0.00817095734777154	2.4777487912354633e+24	0.0208949268271256	-0.18636651272498425	3.5821200304623804	35.371471	65.59612299999999	-16.102961999999998	-38.996994	-5.62461	-22.592453	66560.0	11971.0	False	0.0	None	0.0	None	0.0	None	0.0	None	0.0	None	0.0	None	0.0	None	0.0	None	1.5773e-06	12
2014-02-06 18:12:00	1027.7523218439057	9967429666.841702	1.1884795812524426e+23	23642385736993.57	67.58809899611802	4754917860967.062	1.3461776806707735e+22	-5.317020441315513e+24	3816.0834838872584	-0.40167301785073983	33.781495696929156	21.815700822992625	41.17450052682325	112.22827890138994	111.39396625614592	56.80848914355669	0.002882344620074119	-2.9849878755612543e+23	0.2501034716217914	0.009675579948139213	2.477071767737636e+24	0.022550018407074414	-0.1871297850669672	3.618871987308918	35.373825	65.485725	-16.101727	-38.880676	-5.629226	-22.490124	66560.0	11971.0	False	0.0	None	0.0	None	0.0	None	0.0	None	0.0	None	0.0	None	0.0	None	0.0	None	1.5152000000000001e-06	12
2014-02-06 18:24:00	999.8449920871648	9944118423.8626	1.1819187720690798e+23	22521090454947.44	77.59183130854873	4844909156742.059	1.3232973672787686e+22	-5.304506954555389e+24	3948.575426240005	-0.4016670317699335	33.69982826968491	21.953059141931767	41.044134775887954	114.03047096980896	112.85212882330136	57.7955923849728	0.003442558734129675	-2.908385651395794e+23	0.3363893641781864	0.011133580449337238	2.4774866070999496e+24	0.022022831562793745	-0.1875998467433453	3.4308213143184085	35.376171	65.37532	-16.106142000000002	-38.762478	-5.633056	-22.364229	0.0	11971.0	True	0.0	None	0.0	None	0.0	None	0.0	None	0.0	None	0.0	None	0.0	None	0.0	None	1.6479e-06	12
2014-02-06 18:36:00	976.016910068248	9937831670.9226	1.1904128986095231e+23	21451327543725.81	75.86877315644236	4981418537106.349	1.3018215049274226e+22	-5.224785944215256e+24	4142.168891409855	-0.39588067423739737	33.441344070838596	21.372458410351204	40.9055840370817	115.99888683800279	114.64874653862421	59.019397266624296	0.0035062747553582753	-3.138081384096941e+23	0.20883765883324776	0.010938383007591002	2.495288871179474e+24	0.023777161158603444	-0.18906738980059287	3.536890287287332	35.378525	65.264923	-16.110789999999998	-38.64460800000001	-5.635471	-22.238491	0.0	11971.0	True	0.0	None	0.0	None	0.0	None	0.0	None	0.0	None	0.0	None	0.0	None	0.0	None	1.6932e-06	12
2014-02-06 18:48:00	976.8607625179022	9963424257.6447	1.175386751884591e+23	21140988912937.03	75.36057634097186	4929543495178.911	1.2885234990452564e+22	-5.294893859955094e+24	4223.578770664933	-0.4001622416547584	33.09219265860617	20.434263898830828	40.55379533589417	118.06716195439763	116.88107413621715	60.29571579941854	0.0035964768703336774	-3.1608862059499315e+23	0.3105140689601537	0.010806530221495005	2.444838450623212e+24	0.023888435599335248	-0.18476896057996287	3.531136658356376	35.380875	65.154526	-16.110373000000006	-38.526367	-5.624196	-22.131533	0.0	11971.0	True	0.0	None	0.0	None	0.0	None	0.0	None	0.0	None	0.0	None	0.0	None	0.0	None	1.8893e-06	12
2014-02-06 19:00:00	1004.2315089924107	10020579745.6073	1.1729986743186428e+23	21395978307726.668	77.04074857051401	5953074475567.147	1.2773330843658619e+22	-5.35665036746336e+24	4378.390501487911	-0.4025204153921984	32.7151211687385	19.907797551182274	40.23361267077243	121.03922977461008	119.76838785108652	62.129399971943855	0.003819003052124821	-3.259109575403661e+23	0.2146807136591624	0.0109634805231339	2.427255028801684e+24	0.0244902700401819	-0.18239377884181807	3.491158122600033	35.383236	65.044136	-16.107982999999994	-38.393497	-5.6028080000000005	-22.00569500000001	0.0	11971.0	True	0.0	None	0.0	None	0.0	None	0.0	None	0.0	None	0.0	None	0.0	None	0.0	None	1.7737999999999999e-06	12
2014-02-06 19:12:00	1004.3933567988727	10047257579.6236	1.174895471513427e+23	21447961144173.027	74.62990462547764	4574401620483.191	1.2651190487772706e+22	-5.368613665791522e+24	4460.202124845811	-0.4023482636216682	33.02415458687652	20.80161330980589	40.59216240511553	120.96503829579649	119.84723170267985	62.613628386402944	0.003762725855877666	-3.267957682588531e+23	0.13819229257543145	0.01059455472350938	2.406055884713296e+24	0.024491557430492257	-0.18032074342759835	3.5407620795285966	35.385605	64.93375400000001	-16.106571	-38.279835	-5.607057	-21.89978	0.0	11971.0	True	0.0	None	0.0	None	0.0	None	0.0	None	0.0	None	0.0	None	0.0	None	0.0	None	1.4724e-06	12
2014-02-06 19:24:00	1005.8843030227176	10125042779.2095	1.1843661379927393e+23	21520085374671.69	78.12734910153063	4708667303396.629	1.2630288649426546e+22	-5.404380091322773e+24	4549.597982053819	-0.4019170629226532	33.173069080353464	21.0947862463014	40.563956698946036	122.74157876368349	121.95283127277412	63.550192199520424	0.003985885878349606	-3.252640345087273e+23	0.10041500369307786	0.011008138776311979	2.37075264303386e+24	0.02418948393989124	-0.17630994177004086	3.4923340653879285	35.387974	64.82337199999999	-16.111416000000002	-38.162991	-5.587219	-21.774563	0.0	11971.0	True	0.0	None	0.0	None	0.0	None	0.0	None	0.0	None	0.0	None	0.0	None	0.0	None	1.4994e-06	12
2014-02-06 19:36:00	1000.9935278141768	10069951929.7351	1.1635228431154461e+23	20967704381092.773	77.98346940350821	4219729412985.608	1.240463497209951e+22	-5.416962494466435e+24	4671.63091080382	-0.4050568231510912	32.61874126519716	19.89442252319505	40.31035330185981	125.05883467777694	124.8643189005496	64.42658798983595	0.004158231278847618	-3.359062512429973e+23	0.0979023278361077	0.011023290751817063	2.3261992871330609e+24	0.02511760403437732	-0.17394303435273473	3.4912148872143485	35.39035399999999	64.71300500000001	-16.108368	-38.047768	-5.59162	-21.669937	0.0	11971.0	True	0.0	None	0.0	None	0.0	None	0.0	None	0.0	None	0.0	None	0.0	None	0.0	None	1.6494999999999996e-06	12
2014-02-06 19:48:00	1000.0807420725205	9997292037.076	1.1425642488321538e+23	20622626310535.016	71.01512577342294	3646985583320.4297	1.2259891430000005e+22	-5.443934189128311e+24	4686.691842584475	-0.4100322003861892	32.66151539821588	20.330119300539305	40.31561082301428	124.83589061799823	125.27153751933935	64.10165948886015	0.003868769109469544	-3.585140786877414e+23	0.06104388368915276	0.01007582579290911	2.256192112758816e+24	0.027002956216357232	-0.16993434974580254	3.402536123321739	35.392754	64.602654	-16.104832000000002	-37.931305	-5.595466	-21.544825	0.0	11971.0	True	0.0	None	0.0	None	0.0	None	0.0	None	0.0	None	0.0	None	0.0	None	0.0	None	1.6797e-06	12
2014-02-06 20:00:00	1013.5314952437344	9982694020.8716	1.1341830201307056e+23	20560190618057.754	79.2152599449804	4716488912620.578	1.222217117086919e+22	-5.462182975628047e+24	4680.102060441616	-0.41200827583697625	32.63017110661383	20.40223586146427	40.346881260279005	124.13606532685205	125.14815788425415	63.55310348239934	0.004341513753424334	-3.7763981770954e+23	0.1251262690862395	0.011240396762030048	2.19524108451688e+24	0.02848508204066665	-0.16558535265367932	3.3551222874246607	35.395161	64.49231	-16.104855	-37.815273	-5.590333	-21.439531	0.0	11971.0	True	0.0	None	0.0	None	0.0	None	0.0	None	0.0	None	0.0	None	0.0	None	0.0	None	1.3996000000000001e-06	6
2014-02-06 20:12:00	1009.3359823646512	9952010007.844	1.1254528690289744e+23	20317843781488.58	73.78442794029831	4331075125407.1753	1.2211080180433154e+22	-5.509021658957039e+24	4673.274220064558	-0.4168225824645116	32.394742300399905	20.19411051064299	40.09336059460885	123.99290757328932	125.40186359038864	62.709618313627004	0.004068844598009171	-3.90440810529636e+23	0.00576590023967123	0.010465703715949957	2.2194380905140744e+24	0.02954146072014365	-0.16792671617183694	3.36047205795956	35.39758300000001	64.38198100000001	-16.109997	-37.701992	-5.5831269999999975	-21.316738	0.0	11971.0	True	0.0	None	0.0	None	0.0	None	0.0	None	0.0	None	0.0	None	0.0	None	0.0	None	1.3804e-06	9
2014-02-06 20:24:00	1043.1973465744172	9920562643.6389	1.113129541439075e+23	20915066346707.445	78.89096418727519	4980753536508.769	1.2187441883763932e+22	-5.527836007906534e+24	4632.320473940907	-0.4195718291930184	32.29598255165593	19.91820492981099	40.10628524354115	123.42778639372686	124.83391832887013	63.03757613849896	0.004360062130389919	-3.995673180543937e+23	0.022118580641618608	0.011203754488434277	2.1729812782164227e+24	0.03032781549272493	-0.16493284684990667	3.211700589231364	35.400017	64.27166700000001	-16.104917999999998	-37.586212	-5.586079	-21.211571	0.0	11971.0	True	0.0	None	0.0	None	0.0	None	0.0	None	0.0	None	0.0	None	0.0	None	0.0	None	1.3067e-06	12
2014-02-06 20:36:00	1051.2819752624096	9969370484.4305	1.1192387490247469e+23	21218966588903.945	81.92760066427851	4433223862303.05	1.2319753103061054e+22	-5.583781058092748e+24	4602.043817262016	-0.4217432620492971	32.154198834224445	19.54895429476328	39.71732310997324	124.26737950487959	125.91255317958618	62.873140441838856	0.004473984308883711	-3.9290832666926247e+23	0.07420889211203867	0.011560358907163958	2.1583558767120672e+24	0.029676385526553214	-0.16302072710901366	3.1723918362013097	35.40247700000001	64.161377	-16.105061	-37.473492	-5.582856	-21.089071	0.0	11971.0	True	0.0	None	0.0	None	0.0	None	0.0	None	0.0	None	0.0	None	0.0	None	0.0	None	1.3859e-06	12
