Timestamp	TOTUSJH	TOTBSQ	TOTPOT	TOTUSJZ	ABSNJZH	SAVNCPP	USFLUX	TOTFZ	MEANPOT	EPSZ	MEANSHR	SHRGT45	MEANGAM	MEANGBT	MEANGBZ	MEANGBH	MEANJZH	TOTFY	MEANJZD	MEANALP	TOTFX	EPSY	EPSX	R_VALUE	CRVAL1	CRLN_OBS	LAT_MIN	LON_MIN	LAT_MAX	LON_MAX	QUALITY	NOAA_AR	IS_TMFI	BFLARE	BFLARE_label	CFLARE	CFLARE_label	MFLARE	MFLARE_label	XFLARE	XFLARE_label	BFLARE_loc	BFLARE_label_loc	CFLARE_loc	CFLARE_label_loc	MFLARE_loc	MFLARE_label_loc	XFLARE_loc	XFLARE_label_loc	XR_MAX	XR_QUAL
2014-02-09 10:48:00	53.09905236021184	337421752.4277	2.465115480178707e+21	1344672074990.6953	3.9996714063653007	689064587462.2592	7.269773917084035e+20	-2.677381416980153e+23	1411.558956582765	-0.5974817908157772	22.593748794819327	3.041825095057034	29.69982152443634	122.77584694769148	124.38977990873778	51.125598450543286	0.003041575213966008	-4.841617575907305e+22	1.0229855889255977	0.014840390055407555	1.2440762692209908e+23	0.10804505930130172	-0.2776268306530488	0.0	7.0390070000000025	30.056208	-21.025017	-28.377731	-15.564285	-18.044046	0.0		True	0.0	None	0.0	None	0.0	None	0.0	None	0.0	None	0.0	None	0.0	None	0.0	None	1.191e-06	12
2014-02-09 11:00:00	54.029742608876454	337714286.0597	2.438306191396898e+21	1376011373041.9092	5.014766194586889	678183642611.9906	7.320186306773152e+20	-2.6992208580268144e+23	1376.321605573526	-0.6018337022413394	22.29077584190488	3.8230884557721136	29.691514544535607	122.32152654021284	124.88858858891342	49.457728696124	0.00375919504841596	-4.6551079436538006e+22	0.4399155010112569	0.018540174853462068	1.2059467841798647e+23	0.10379294601740233	-0.2688847841667781	0.0	7.0411740000000025	29.946724	-21.02832	-28.265171	-15.568072	-17.943453	0.0		True	0.0	None	0.0	None	0.0	None	0.0	None	0.0	None	0.0	None	0.0	None	0.0	None	1.2016e-06	12
2014-02-09 11:12:00	53.48420572149464	320158124.6966	2.30237916829524e+21	1312533033315.9834	4.17236741617289	657067211894.7819	6.799331021530673e+20	-2.561610244601558e+23	1443.514952719594	-0.6024707561214935	22.043808397600547	3.1640299750208163	28.883600368797456	124.56160040584156	127.4351115122816	51.138985393756435	0.0034740777819924147	-4.287520506989054e+22	1.0681150740399143	0.016265143553462282	1.1701378861530589e+23	0.10083913925531204	-0.27520730701430085	0.0	7.0433080000000015	29.837208	-21.030632	-28.158218	-15.570868	-17.84272	0.0		True	0.0	None	0.0	None	0.0	None	0.0	None	0.0	None	0.0	None	0.0	None	0.0	None	1.1943000000000002e-06	12
2014-02-09 11:24:00	53.66262703068554	319219262.5265	2.361727735721243e+21	1352704055484.5732	7.693654780533164	926327340921.8492	6.812596056370171e+20	-2.527208427153642e+23	1435.310999797767	-0.5961279173211004	23.204621765780054	4.43906376109766	30.12227404276595	122.89489072185629	125.33495434940313	51.544279094176744	0.006209568023029188	-4.0270501789708885e+22	1.4596644952330728	0.03019992798202448	1.1520027181077164e+23	0.0949916520673082	-0.271738956595387	0.0	7.045357000000001	29.727657	-21.022163	-28.043827	-15.57482	-17.719452	0.0		True	0.0	None	0.0	None	0.0	None	0.0	None	0.0	None	0.0	None	0.0	None	0.0	None	1.2937e-06	12
2014-02-09 11:36:00	55.414312708187545	314852039.56140006	2.466182857579413e+21	1421400333074.913	3.3270327371944286	333871814804.4053	6.876826829433211e+20	-2.4689527639208548e+23	1451.9186775875094	-0.5904645544274629	23.78812982912791	4.925723221266613	29.639025920733275	122.9742480396608	125.62127740738642	50.50331341831763	0.0026012765732560035	-3.8662279517753615e+22	0.4946378569960347	0.013287906520877505	1.137602250485788e+23	0.09246311222393323	-0.2720642596993413	0.0	7.047424	29.618074	-21.016506	-27.93185	-15.579543	-17.619139	0.0		True	0.0	None	0.0	None	0.0	None	0.0	None	0.0	None	0.0	None	0.0	None	0.0	None	1.2520999999999998e-06	11
2014-02-09 11:48:00	55.89632256714551	296072270.7587	2.308646675713647e+21	1445211566034.0752	6.391164642961191	757643370330.8125	6.471568381395924e+20	-2.280679363368309e+23	1426.0712983717954	-0.5800346942171507	23.86116004705989	5.578342904019689	30.310100562375002	120.13523912572596	123.43137371557364	51.06500029697634	0.005242957049188835	-3.5007941751197942e+22	0.7856542526403948	0.02732408598998865	1.0521218900485343e+23	0.08903408832900778	-0.26758132185322875	0.0	7.049459	29.508459	-21.017691	-27.82054500000001	-15.582883	-17.519482	0.0		True	0.0	None	0.0	None	0.0	None	0.0	None	0.0	None	0.0	None	0.0	None	0.0	None	1.4007e-06	12
2014-02-09 12:00:00	54.53762615984887	289461620.53110003	2.30852129930073e+21	1340054913555.5012	5.1747265973003325	636588681059.4891	6.253083781546063e+20	-2.222376087620064e+23	1516.8293993305047	-0.5781147308567652	23.53960847776021	4.799301919720769	30.291665675878644	122.87902347966478	126.23292139457311	51.16845921713642	0.0045154682349915634	-3.266278218939271e+22	0.9125426229300142	0.022656240277436183	1.0128034851148549e+23	0.08496687684700338	-0.2634642342804346	0.0	7.051405	29.398806	-21.020679	-27.714857	-15.587598000000002	-17.419746	0.0		True	0.0	None	0.0	None	0.0	None	0.0	None	0.0	None	0.0	None	0.0	None	0.0	None	2.2631999999999998e-06	12
2014-02-09 12:12:00	50.00570401678203	282221955.2106	2.267409838469608e+21	1313224559841.128	7.463191765497518	769826663663.2166	6.268552803336777e+20	-2.183387532588662e+23	1460.5049819042351	-0.5825424217875487	24.1826016147266	5.474764756201882	29.476866586720714	118.33157577919552	121.38611233683982	48.956404030148974	0.006384253007269049	-2.9910119165433213e+22	0.9194483145015334	0.03342015345249326	1.0403490874916225e+23	0.0798022018286765	-0.2775721065940576	0.0	7.053371	29.289121999999995	-21.02479	-27.603525	-15.592158	-17.298702	0.0		True	0.0	None	0.0	None	0.0	None	0.0	None	0.0	None	0.0	None	0.0	None	0.0	None	2.3047e-06	12
2014-02-09 12:24:00	51.08482568241235	270886772.9254	2.149968333241705e+21	1265458005449.0576	6.117818849718367	541940780636.6643	5.882021436225961e+20	-2.1062758391060032e+23	1518.6659681008139	-0.5854837541694111	23.500729682400173	4.221388367729832	29.62919017035985	123.38286501040476	127.56257165660764	51.00493806378376	0.0057390420729065365	-2.3619644083582475e+22	0.5862906301596803	0.0284889873978652	9.82424913616164e+22	0.06565577800137891	-0.2730857069782887	0.0	7.055302	29.179401	-21.019278	-27.495499	-15.596295	-17.198175	0.0		True	0.0	None	0.0	None	0.0	None	0.0	None	0.0	None	0.0	None	0.0	None	0.0	None	1.9768e-06	12
2014-02-09 12:36:00	50.40153206749835	275521444.26900005	2.0801115133292047e+21	1229237487730.203	5.846320351928937	507238715599.9921	5.92062296679711e+20	-2.139586925841706e+23	1463.8291917642093	-0.5847390429752002	22.942651778590665	4.299065420560748	29.44059904514088	121.52546674136428	125.90755701562377	50.04989191987328	0.005463850796195269	-2.3803850070162848e+22	0.4347247877541587	0.026779313573933483	1.0116135761093643e+23	0.06505480259315226	-0.2764692320795537	0.0	7.057144	29.069645	-21.021173	-27.384569	-15.598736	-17.098888	0.0		True	0.0	None	0.0	None	0.0	None	0.0	None	0.0	None	0.0	None	0.0	None	0.0	None	1.5296000000000001e-06	10
2014-02-09 12:48:00	51.197058558566894	280221257.9999	2.197138506433704e+21	1274986219336.0557	7.204320434841797	674381811015.2231	6.068728569098126e+20	-2.1477894244418223e+23	1479.8003560395127	-0.5771359356967762	23.45114570519638	5.813953488372092	30.000008658533268	123.8526505175375	128.237736569438	49.950123694889726	0.006443935988230588	-2.6138062554184567e+22	0.15144853492153512	0.032602643190403346	1.007871786603322e+23	0.07023600646246128	-0.2708268417770328	0.0	7.0589559999999985	28.959856	-21.025784	-27.278437	-15.603494	-16.998758	0.0		True	0.0	None	0.0	None	0.0	None	0.0	None	0.0	None	0.0	None	0.0	None	0.0	None	1.3293000000000001e-06	12
2014-02-09 13:00:00	51.0942257306045	273930512.31350005	2.1366056165974687e+21	1340418372795.61	8.487190591454272	1001603634262.7808	6.042118688212205e+20	-2.120312725440725e+23	1414.9835978741035	-0.5828368666648592	23.650413600106184	5.3649956024626215	30.35119198197609	117.15880829423556	121.67935434818294	48.96321515246575	0.007464547573838409	-2.7553293654058422e+22	0.4897406561023083	0.039148703485742085	9.85255444325336e+22	0.07573918293722523	-0.2708294814934488	0.0	7.0608330000000015	28.850033000000003	-21.017767000000006	-27.166712	-15.608639000000002	-16.90115	0.0		True	0.0	None	0.0	None	0.0	None	0.0	None	0.0	None	0.0	None	0.0	None	0.0	None	1.1926e-06	12
2014-02-09 13:12:00	50.17285832001635	269102780.0385	2.097212015250509e+21	1281817198239.4883	6.028621039980719	837610598897.7456	5.935753872450236e+20	-2.067161133047849e+23	1421.3981212022961	-0.5784204049524528	23.49377165251273	3.5103510351035103	29.96503612870017	118.64709304437851	123.53998064492089	49.3276573747369	0.00542630156613926	-2.5905140566955674e+22	0.4928326705885838	0.02838619027719105	9.801581915706886e+22	0.07248618241479811	-0.2742618797451328	0.0	7.0625740000000015	28.740175	-21.016731	-27.055981	-15.612447	-16.804565	0.0		True	0.0	None	0.0	None	0.0	None	0.0	None	0.0	None	0.0	None	0.0	None	0.0	None	1.1729e-06	12
2014-02-09 13:24:00	46.223846922049894	255510494.28070003	1.968382379129561e+21	1151125497909.772	7.8940301020134465	876996139188.7739	5.558123572153028e+20	-1.969563993825878e+23	1451.6811120351801	-0.5804286669758999	23.09269841238839	3.330068560235064	29.71649403322587	116.51930471178265	121.15357939818308	49.809822255058	0.007731665134195344	-2.742376577219224e+22	0.0021130758586523986	0.039097152931658635	9.3693393094892e+22	0.0808175812540776	-0.2761135531975251	0.0	7.0642809999999985	28.630281	-21.014299	-26.944319	-15.617401	-16.706913	0.0		True	0.0	None	0.0	None	0.0	None	0.0	None	0.0	None	0.0	None	0.0	None	0.0	None	1.1475e-06	11
2014-02-09 13:36:00	49.79744366555622	259575125.3887	2.059167210818349e+21	1237265979758.2988	5.4880653659594	585356030573.0669	5.619543351288684e+20	-1.956151168897229e+23	1506.828377975273	-0.5674490748477249	23.11363333653959	4.373177842565598	29.913725193910338	117.61631774595436	122.5901783922113	49.666591219292364	0.005333396857103402	-2.629247526748989e+22	-0.019008828555324188	0.0269769445185144	9.577571625735895e+22	0.0762703874997795	-0.2778304787853124	0.0	7.0660570000000025	28.520357	-21.018381	-26.832005	-15.621923	-16.608528	0.0		True	0.0	None	0.0	None	0.0	None	0.0	None	0.0	None	0.0	None	0.0	None	0.0	None	1.1383e-06	12
2014-02-09 13:48:00	48.8275818406124	255987767.3233	2.0357605569170388e+21	1171504251156.189	6.253229780221032	581992040950.5948	5.4177587971257546e+20	-1.927662559505085e+23	1595.1107634010255	-0.5670212529772254	22.903661375536377	3.6420395421436007	29.935998820365015	125.03387622292931	129.4195416804528	53.93188909583723	0.0065070028930499825	-2.527123644723646e+22	0.5033084800140709	0.03117742792597062	9.583914620457229e+22	0.07433525169609928	-0.2819105060542144	0.0	7.067699	28.4104	-21.013365	-26.720781	-15.627851	-16.511098999999998	0.0		True	0.0	None	0.0	None	0.0	None	0.0	None	0.0	None	0.0	None	0.0	None	0.0	None	1.1519e-06	12
2014-02-09 14:00:00	44.966018289079706	254782184.9307	1.966500511723693e+21	1101037908854.2925	7.918589871373037	778261018554.6716	5.5088076843764974e+20	-1.9964309418453643e+23	1491.187680334976	-0.5900281420633431	22.812290778242158	4.33031218529708	29.41063048232873	120.0684798539546	125.61653141158486	48.572960707326146	0.007974410746599232	-2.6824999724572563e+22	0.5779987750954574	0.0390934480574446	9.52836205494813e+22	0.07927899942138432	-0.2816026160660136	0.0	7.069309	28.300409	-21.009216	-26.610748	-15.631591	-16.412193	0.0		True	0.0	None	0.0	None	0.0	None	0.0	None	0.0	None	0.0	None	0.0	None	0.0	None	1.1672e-06	12
2014-02-09 14:12:00	45.90861137191722	255453337.8844	1.9305475785649126e+21	1104076001308.6887	7.034744091988863	744706005535.7119	5.511821400038992e+20	-2.0456600100833164e+23	1489.4236562880387	-0.6029890551475414	22.658357671731075	4.30327868852459	28.962198977508887	122.9481589797908	128.91531711755673	49.65829889543677	0.007207729602447606	-2.397571005195734e+22	0.4452395341730168	0.03435865543968355	9.382093374291313e+22	0.07067201137755219	-0.2765513130815669	0.0	7.0709880000000025	28.190388	-21.004202	-26.49484600000001	-15.636748999999998	-16.314884	0.0		True	0.0	None	0.0	None	0.0	None	0.0	None	0.0	None	0.0	None	0.0	None	0.0	None	1.1936e-06	12
2014-02-09 14:24:00	49.1531375469655	256449995.8898	2.0526697681783226e+21	1271825608946.7026	5.876884906904165	650415885666.5317	5.630281290538104e+20	-2.0056375294733287e+23	1479.0751179856736	-0.588894077468015	24.389621898808237	6.698564593301438	30.100105303958568	117.60106260385663	123.32872741212864	47.71428463616552	0.005623813308042264	-2.4439510456140195e+22	-0.2592457183169873	0.02884559745400866	9.4477365149225e+22	0.07175914267827814	-0.27740386771567704	0.0	7.072535	28.080336	-21.007441	-26.381083	-15.641582	-16.214714	0.0		True	0.0	None	0.0	None	0.0	None	0.0	None	0.0	None	0.0	None	0.0	None	0.0	None	1.3144e-06	12
2014-02-09 14:36:00	46.38812725578871	249556780.8688	1.963273003985659e+21	1219540316753.393	5.3302344554358045	661691792546.171	5.551270714976349e+20	-1.9540336774662368e+23	1416.0144552054705	-0.5895900697058367	23.81298889349124	6.226053639846742	30.073215337760328	115.2407268009941	120.11603179074974	47.44431930420242	0.005105588558846557	-2.81347005952792e+22	0.41126743923150655	0.026873348986781308	9.093601255705667e+22	0.08489075841636884	-0.2743809925108739	0.0	7.074055	27.970255	-21.001461	-26.271564	-15.646308	-16.115913	0.0		True	0.0	None	0.0	None	0.0	None	0.0	None	0.0	None	0.0	None	0.0	None	0.0	None	1.3434000000000001e-06	12
2014-02-09 14:48:00	45.91387167384621	246419618.1438	1.8078789261373169e+21	1147834761014.1372	4.775736841849295	528628963676.3428	5.402198156821773e+20	-1.951313819210641e+23	1370.905674192938	-0.5962650034968283	22.637636411638926	3.9274924471299086	29.62513015809721	115.83813497623085	120.94394269294793	48.435471767461394	0.004809402660472604	-2.392255224164651e+22	0.3575244552947517	0.024282316245044053	9.0264975394638e+22	0.07310039295364934	-0.2758236288773752	0.0	7.0756440000000005	27.860144	-20.995089	-26.161795	-15.670507999999998	-15.997764000000002	0.0		True	0.0	None	0.0	None	0.0	None	0.0	None	0.0	None	0.0	None	0.0	None	0.0	None	1.2845e-06	12
2014-02-09 15:00:00	43.95833687297789	233695531.02950004	1.6726737931792068e+21	1073952666313.8728	5.140585731576586	491440482578.41	5.047568420951159e+20	-1.88809596402634e+23	1391.7147176537958	-0.608360773040856	22.92270528762409	4.30939226519337	29.441733234914466	121.50028489623436	126.08583103177702	49.50135443415935	0.005680205228261421	-1.8505639541498922e+22	0.43436385111655695	0.02735323661523317	8.286561548407078e+22	0.05962676363691785	-0.26700014646973924	0.0	7.077106	27.750008	-20.995649	-26.046137	-15.676326	-15.897752	0.0		True	0.0	None	0.0	None	0.0	None	0.0	None	0.0	None	0.0	None	0.0	None	0.0	None	1.2006e-06	11
2014-02-09 15:12:00	45.690965177766216	253551554.195	1.7731944201513455e+21	1187040051096.1829	3.853080487507329	582984619650.5687	5.695602587552676e+20	-2.0716280172987524e+23	1259.6153317990652	-0.6152235428658877	22.19393523712064	3.6792452830188678	29.242913742195825	117.69442905250912	122.73994913804528	47.0461237894021	0.003634981591988046	-2.2196634428276604e+22	1.074251759914966	0.01881651381795589	8.765424820193002e+22	0.0659186492875759	-0.2603119704682984	0.0	7.078542999999999	27.639843	-20.985489	-25.936161	-15.67977	-15.795754999999998	0.0		True	0.0	None	0.0	None	0.0	None	0.0	None	0.0	None	0.0	None	0.0	None	0.0	None	1.1703e-06	12
2014-02-09 15:24:00	46.68007788754346	259685457.1485	1.8455617428655943e+21	1204142822121.751	3.202484977640325	443462391385.13	5.801672688519576e+20	-2.0966914520400274e+23	1302.4220972466305	-0.6079592799739189	22.052130082282876	3.5613870665417062	29.21793980993629	121.01526784512896	125.817114174713	49.19158234981585	0.003001391731621673	-2.2373861595055957e+22	0.8118150199818629	0.015338907249208044	9.046103307932546e+22	0.06487552935999025	-0.2623019447286498	0.0	7.080004	27.529654	-20.986713	-25.817629	-15.689616	-15.674506	0.0		True	0.0	None	0.0	None	0.0	None	0.0	None	0.0	None	0.0	None	0.0	None	0.0	None	1.1620999999999999e-06	12
2014-02-09 15:36:00	45.8611609222861	269537359.2336	1.8692348958768368e+21	1173496625266.1016	7.100880245874222	841887081284.1805	5.928413255014007e+20	-2.16037224735693e+23	1299.6394947990173	-0.6035275472756114	21.935688241801966	4.893813481071098	29.35093565618504	119.28241780083565	124.84168363857796	48.03611830551782	0.006556676127307685	-2.7025036353246438e+22	1.024172151468859	0.032858428578133016	9.7080402848292e+22	0.07549788665015338	-0.27120648995208924	0.0	7.081442	27.419441	-20.982578	-25.708281	-15.695347	-15.570344	0.0		True	0.0	None	0.0	None	0.0	None	0.0	None	0.0	None	0.0	None	0.0	None	0.0	None	2.0211e-06	12
2014-02-09 15:48:00	45.62427176043779	280589318.99530005	1.9488099302307644e+21	1131395492866.027	5.586787158937029	682053480937.8242	6.036709382486169e+20	-2.286101679249625e+23	1379.162410843581	-0.613496322276556	22.033941511316662	4.041353383458646	28.70177612135416	121.15253708062286	126.03136283137242	49.03350489351965	0.005250739811031043	-3.017792849744617e+22	1.252160613355366	0.024680446200139348	1.0041957517013516e+23	0.08098523488764954	-0.26948512662688545	0.0	7.0828039999999985	27.309204	-20.985823	-25.599461	-15.719187	-15.447337	0.0		True	0.0	None	0.0	None	0.0	None	0.0	None	0.0	None	0.0	None	0.0	None	0.0	None	3.7629e-06	12
2014-02-09 16:00:00	51.063203228730146	291478523.7548	2.0454297863366653e+21	1261628457918.8374	4.819799679588155	691594734445.7943	6.190733562882231e+20	-2.3609842873730016e+23	1386.3024669067083	-0.6099216008248786	22.658963226126264	4.5004500450045	29.981469127264727	125.65151610237629	129.40869826129907	52.01659121529228	0.004338253536983038	-2.973121692710532e+22	1.2159888022042626	0.020542235103287364	1.0290107406006575e+23	0.07680572683026474	-0.26582806227460193	0.0	7.084198	27.198948	-20.988691	-25.488203	-15.724728	-15.344005	0.0		True	0.0	None	0.0	None	0.0	None	0.0	None	0.0	None	0.0	None	0.0	None	0.0	None	8.971599999999999e-06	12
2014-02-09 16:12:00	43.74845574817703	284558545.5562	1.7857314637905346e+21	1099797222177.588	5.066039997137499	519494422428.4407	6.047121622508529e+20	-2.302925184133593e+23	1243.8786249231928	-0.6093905915067739	20.775776326566568	2.127659574468085	29.419333859687427	128.55632623159883	132.39676301418638	52.85981291226716	0.0046864384802382045	-3.1241068214621307e+22	0.8486668890666089	0.022124095243904008	9.88432618341067e+22	0.08266882992889774	-0.2615549745625215	0.0	7.0855690000000005	27.088669	-20.992836	-25.368885	-15.730407	-15.222912	0.0		True	0.0	None	0.0	None	0.0	None	0.0	None	0.0	None	0.0	None	0.0	None	0.0	None	1.0717000000000001e-05	12
2014-02-09 16:24:00	46.453128456837426	282349948.7182	1.85240212163456e+21	1124568896237.1577	7.6897171227388394	680555657453.7417	5.93982084149939e+20	-2.2781752044206925e+23	1324.6293081504534	-0.6075567758888084	21.156149085767666	2.7540360873694207	29.956925020347985	132.09522652141465	134.7305584827158	55.8807519236443	0.007302675330236313	-3.1516180088400887e+22	0.6341265456345432	0.0338833487680949	1.009658161977534e+23	0.08404914918608697	-0.26926140555413336	0.0	7.086874000000001	26.978374	-20.974184	-25.256821	-15.736369	-15.119988	0.0		True	0.0	None	0.0	None	0.0	None	0.0	None	0.0	None	0.0	None	0.0	None	0.0	None	1.061e-05	12
2014-02-09 16:36:00	43.77154915561219	275293637.8985	1.7930516332293702e+21	1069671950470.2572	1.5313266048735732	724490944785.1067	5.8084740575053775e+20	-2.2103301936060128e+23	1327.5757347687172	-0.6045725775437792	20.47288251912449	1.7699115044247788	29.36261523641883	135.15352482915708	137.01180930067673	55.04880735706789	0.0015057292083319302	-3.389606949247687e+22	1.3916436874763838	0.0069333365695903645	9.98674449442875e+22	0.09271299899422436	-0.2731588193353949	0.0	7.088211	26.868061	-20.976318	-25.148207	-15.745719	-14.999269	0.0		True	0.0	None	0.0	None	0.0	None	0.0	None	0.0	None	0.0	None	0.0	None	0.0	None	8.9665e-06	12
2014-02-09 16:48:00	45.892271784830605	282776749.5901	1.8883186600274216e+21	1097368727807.7275	1.0918536800420022	491771058779.3326	5.964592230440639e+20	-2.268515628463637e+23	1354.1708267518854	-0.6040676039444802	20.717220638774467	2.380952380952381	29.021936477128424	133.56345024022627	134.75327762524486	54.9088007247433	0.0010398606476590495	-3.4946620285414204e+22	0.9149490397427492	0.004814243713100229	1.0282764539043795e+23	0.0930569792726738	-0.27381274605686584	0.0	7.089537	26.757736	-20.981033	-25.036192	-15.768811	-14.894848	0.0		True	0.0	None	0.0	None	0.0	None	0.0	None	0.0	None	0.0	None	0.0	None	0.0	None	7.2836e-06	12
2014-02-09 17:00:00	45.8811749134279	284934707.1096	1.8070650124488176e+21	1078184319824.0254	5.925204692337504	544859877372.1814	5.949246544952959e+20	-2.2801628825307538e+23	1313.413806035163	-0.6025707887040881	20.075423396003977	1.1583011583011582	29.27919165093832	135.85162347982148	136.3259343755	55.814023688796006	0.005719309548588323	-3.7231980445420535e+22	0.8013105461423646	0.02595199679096949	1.0594876643119606e+23	0.09839167190157803	-0.2799871546010484	0.0	7.090794	26.647394	-20.981199	-24.924332	-15.771924	-14.773426	0.0		True	0.0	None	0.0	None	0.0	None	0.0	None	0.0	None	0.0	None	0.0	None	0.0	None	5.9963e-06	12
2014-02-09 17:12:00	43.27955410962968	277628623.8216	1.745447716927496e+21	995933039508.9796	4.476624948840217	554894593894.9961	5.6552279822653535e+20	-2.218744162689411e+23	1387.85578011207	-0.6017698993586329	19.836946178453548	0.7391763463569165	28.81747346630148	136.86375931914642	138.26350548154028	55.16296831648357	0.004727164676705616	-3.8822090429652084e+22	1.144713286739551	0.02013336365631914	1.0175761346376072e+23	0.1052936424289031	-0.27598796581773305	0.0	7.092091	26.537041	-20.982141	-24.81011	-15.777170000000002	-14.666818	0.0		True	0.0	None	0.0	None	0.0	None	0.0	None	0.0	None	0.0	None	0.0	None	0.0	None	4.9384e-06	12
2014-02-09 17:24:00	44.28098258389079	285039697.43210006	1.825756149634348e+21	1011550077353.4608	6.129546720248557	606731546037.289	5.825813177606948e+20	-2.2663844275551268e+23	1388.6571587761546	-0.5987088652960428	19.8038112397566	1.2121212121212122	29.226790683779	138.99699627334766	139.88770759782162	55.80998222384797	0.006191461333584402	-4.455788074590572e+22	0.8026660679619722	0.02690194148504146	1.0282701337358807e+23	0.11770817826416048	-0.2716372551372223	0.0	7.0933800000000025	26.42668	-20.96463	-24.692303	-15.781588	-14.548568	0.0		True	0.0	None	0.0	None	0.0	None	0.0	None	0.0	None	0.0	None	0.0	None	0.0	None	4.192e-06	12
2014-02-09 17:36:00	43.067548119673866	282987994.6549	1.7934427504110052e+21	937953397906.7162	2.45499793283488	423698840381.3096	5.630288121979324e+20	-2.241518854275383e+23	1445.866261643103	-0.5964332779096481	19.67053255717033	0.7494646680942184	29.29427756794446	140.51491966223074	141.5409794771151	57.837591498178995	0.002628477444148694	-4.6720867293912166e+22	0.8862526806910227	0.010868318139284948	1.012677271355396e+23	0.12431695577192868	-0.2694576595985629	0.0	7.094606	26.316307	-20.971134	-24.582043	-15.789543	-14.443133	0.0		True	0.0	None	0.0	None	0.0	None	0.0	None	0.0	None	0.0	None	0.0	None	0.0	None	3.6064e-06	12
2014-02-09 17:48:00	44.220338235580044	275653262.2858	1.798687985416771e+21	966835155159.8672	1.9805051279335464	608028839234.2053	5.4444170920543833e+20	-2.1449386089770906e+23	1498.2174483523481	-0.5859211531084431	19.926818999029333	0.995575221238938	29.098747594951487	141.41924391681943	141.37694017230723	59.34135248594986	0.002190824256563657	-4.374006028788764e+22	1.3140368454751277	0.00906068930428048	1.0022891957104417e+23	0.1194823313527556	-0.27378985992464283	0.0	7.095831	26.205931	-20.972067000000006	-24.467993	-15.794673	-14.336812	0.0		True	0.0	None	0.0	None	0.0	None	0.0	None	0.0	None	0.0	None	0.0	None	0.0	None	3.0862e-06	12
2014-02-09 18:00:00	44.736692413674405	287390985.35820013	1.8546086320637424e+21	964398136441.1694	2.367208617170553	446702133365.60986	5.718672434088265e+20	-2.276437180764708e+23	1498.3868527134698	-0.5964446098138865	19.53345865200325	0.7510729613733905	28.794191719603898	141.18746690208042	142.0346949768423	58.97767205637286	0.002539923408981281	-4.849213169271263e+22	0.9363930011167442	0.010319045620053995	1.0382993035042173e+23	0.12705323393456314	-0.27204265866917954	0.0	7.097149000000001	26.095549	-20.953938	-24.354952	-15.803713	-14.085962	66560.0		False	0.0	None	0.0	None	0.0	None	0.0	None	0.0	None	0.0	None	0.0	None	0.0	None	2.6949000000000002e-06	12
2014-02-09 18:12:00	45.99262205843722	282859889.367	1.843161138773204e+21	1012365955380.404	1.3823781199572158	674815644165.9927	5.631452994863688e+20	-2.238794088978149e+23	1500.4069301196741	-0.5959780616822489	19.637960822662254	0.7567567567567568	29.16213790027349	144.03231482820863	143.76038685627103	60.09160444405008	0.0014944628323861793	-4.854952838920236e+22	1.4252888514832387	0.0061243296976133295	1.0137517183512525e+23	0.12924124629161707	-0.2698657224013805	0.0	7.098362	25.985163	-20.974203	-24.277805	-15.808487	-13.957306	66560.0		False	0.0	None	0.0	None	0.0	None	0.0	None	0.0	None	0.0	None	0.0	None	0.0	None	2.4278e-06	12
2014-02-09 18:24:00	45.41471689002029	282829194.84090006	1.872255828611245e+21	990859142756.3168	2.394022560587998	625665630476.1089	5.513076347064584e+20	-2.186287875021671e+23	1605.6771034280234	-0.5820638775785021	19.626218048535442	1.0250569476082003	29.08234295982588	143.52160480104303	143.8443859605987	60.77386160438014	0.002726677176068335	-4.995618953165465e+22	1.3922276626395127	0.010700645647528985	1.0551320071614732e+23	0.13300029570695607	-0.28091187554132474	0.0	7.099577	25.874777	-21.009706	-24.212341	-15.795088	-13.828132	0.0		True	0.0	None	0.0	None	0.0	None	0.0	None	0.0	None	0.0	None	0.0	None	0.0	None	2.1418999999999998e-06	12
2014-02-09 18:36:00	47.72766628253154	290226871.3763	1.8628536885094266e+21	1034457070635.6364	4.680256686536842	576673074318.9666	5.540272002635909e+20	-2.247083459912969e+23	1623.5007085835346	-0.5830006806251818	19.528475873927327	0.4629629629629629	29.272168551293817	149.99761772195	151.10194129262467	61.784072030325056	0.005416963757565789	-4.797022160945037e+22	1.3040093213450574	0.02037421788622612	9.902513008933707e+22	0.12445764630893393	-0.256918442376487	0.0	7.1008910000000025	25.764391	-21.01755	-24.1096	-15.799392999999998	-13.700705	0.0		True	0.0	None	0.0	None	0.0	None	0.0	None	0.0	None	0.0	None	0.0	None	0.0	None	1.9466e-06	12
2014-02-09 18:48:00	46.308566829163674	277783920.63390005	1.7835630365006768e+21	981233791081.7528	2.9166561213642686	596069173250.5903	5.2472896142859344e+20	-2.155415023594277e+23	1651.9064724275195	-0.5842669757534315	19.98642973938122	0.3690036900369004	29.39032220081859	150.86835563700689	152.94063572161548	61.99243509533636	0.003587522904507097	-4.718127334277052e+22	1.4324275952314278	0.013255000582122109	9.600765764961305e+22	0.12789397673496727	-0.2602473452679666	0.0	7.102106	25.654007	-21.023991	-24.005291	-15.776153	-13.571945	0.0		True	0.0	None	0.0	None	0.0	None	0.0	None	0.0	None	0.0	None	0.0	None	0.0	None	1.8865e-06	12
2014-02-09 19:00:00	47.3267042590655	281493593.0886	1.702004757452063e+21	1035756170667.345	1.1827919673991167	457500291661.6093	5.439586130678828e+20	-2.2046819535869262e+23	1478.1864977396995	-0.589745982947287	19.488993850533248	0.4613610149942329	29.289229384448824	145.08317462140684	147.32417042047769	61.105510407144486	0.0013642352565157055	-4.7465168825858856e+22	1.0309556542313385	0.005286181997046631	9.394643262964632e+22	0.12696794020299654	-0.2513039632107523	0.0	7.103329	25.543629	-21.02726	-23.901552	-15.77828	-13.443825	0.0		True	0.0	None	0.0	None	0.0	None	0.0	None	0.0	None	0.0	None	0.0	None	0.0	None	1.8854e-06	12
2014-02-09 19:12:00	42.57131632850503	270425757.0771	1.6028475638649871e+21	891524467220.1189	4.877292293621856	500848875658.0222	5.13344564752293e+20	-2.183071627337035e+23	1541.4090333350164	-0.6078653267241609	19.284003878459803	1.1494252873563218	28.391462985625143	144.8420719418561	149.15188109504726	58.44932192149985	0.006228981217907863	-4.385391349834497e+22	0.3071436459703553	0.022434224162142285	8.979880725423864e+22	0.1221090188841938	-0.2500402672431898	0.0	7.104653999999999	25.433254	-21.058611	-23.82052	-15.781006	-13.320419	0.0		True	0.0	None	0.0	None	0.0	None	0.0	None	0.0	None	0.0	None	0.0	None	0.0	None	1.8563e-06	12
2014-02-09 19:24:00	49.42454794019857	269374064.0503	1.699625832710943e+21	1051998627649.4528	2.66288419507433	264045326578.28754	5.21484444152927e+20	-2.167428738957037e+23	1581.948410336824	-0.6058659753124003	20.184500862448907	1.73053152039555	28.346500272879144	140.45460098254028	144.84755717799402	57.9452431990361	0.003291575024813758	-4.00352148525859e+22	0.6376729539995138	0.012311676646340888	8.800428028879614e+22	0.11191128943494301	-0.2460002405176847	0.0	7.105888	25.322889	-21.067514000000006	-23.717934	-15.776884	-13.186567000000002	0.0		True	0.0	None	0.0	None	0.0	None	0.0	None	0.0	None	0.0	None	0.0	None	0.0	None	1.9426e-06	12
2014-02-09 19:36:00	53.47508358923655	281738735.47370005	1.761790172628765e+21	1142321548846.3809	2.8568492818948457	456091334558.589	5.378804524089992e+20	-2.2498212363548546e+23	1600.2475281262298	-0.6012968977754005	19.97883117788546	1.5681544028950545	28.96016596280379	143.28655538567958	148.80662264692344	59.92945024357429	0.0034461390613930586	-3.90556652538571e+22	1.0748913346687392	0.012664816490479352	8.824099835412491e+22	0.10438185033646266	-0.2358366865311728	0.0	7.1071339999999985	25.212534	-21.072615	-23.61588900000001	-15.779566	-13.057835	0.0		True	0.0	None	0.0	None	0.0	None	0.0	None	0.0	None	0.0	None	0.0	None	0.0	None	1.9225e-06	12
2014-02-09 19:48:00	52.3084604968374	280403889.0324	1.6932362497704445e+21	1117055203657.3616	4.596952255692517	565939691829.3005	5.4143925657771744e+20	-2.235088326364042e+23	1498.2194526984	-0.6002029030793986	19.87925427581928	2.2326674500587544	28.955095713415073	140.12530920843878	145.1822192178056	58.75779479711944	0.005401824037241499	-3.6824091199422325e+22	0.120043242932363	0.020489950164459158	8.888375592609517e+22	0.09888614324745007	-0.2386853696749784	0.0	7.10849	25.10219	-21.078255	-23.514109	-15.762139	-12.931389	0.0		True	0.0	None	0.0	None	0.0	None	0.0	None	0.0	None	0.0	None	0.0	None	0.0	None	1.8097e-06	12
2014-02-09 20:00:00	57.30919060717346	297381176.72650003	1.972830829201829e+21	1265235726530.347	4.546980069041722	578532470546.0563	5.8432856056490944e+20	-2.3703148346763843e+23	1560.4160038582575	-0.6001779796111597	21.50233643693069	3.88655462184874	29.380116906853825	139.365920119517	143.68129877303912	58.85514122259011	0.004776239568321136	-3.844620345500436e+22	0.4923842257697712	0.019110466160613473	9.32978357007157e+22	0.09734810066484036	-0.2362357342314589	0.0	7.109756	24.991858	-21.083122	-23.4123	-15.764009	-12.804877	0.0		True	0.0	None	0.0	None	0.0	None	0.0	None	0.0	None	0.0	None	0.0	None	0.0	None	1.9925999999999998e-06	12
2014-02-09 20:12:00	64.22045387145269	310297771.3238	2.107395750349776e+21	1488248113813.815	5.15593953707745	514245172856.9214	6.378205119616289e+20	-2.4636199394018398e+23	1438.6596774434558	-0.5978366532211425	21.278522513327502	2.8105167724388034	29.935423840478144	133.7630348188171	139.48328929001644	55.0870989724557	0.0046744692085924295	-4.126989826205375e+22	0.35401529625626704	0.020798249117686587	9.899442904551174e+22	0.10014798736266813	-0.2402257637291081	0.0	7.111039999999999	24.88154	-21.089165	-23.310902	-15.739783	-12.678653	0.0		True	0.0	None	0.0	None	0.0	None	0.0	None	0.0	None	0.0	None	0.0	None	0.0	None	2.192e-06	12
2014-02-09 20:24:00	57.05667081866825	303236581.2619	2.0195428619236483e+21	1296481517269.707	3.578660112298808	321238142058.5996	6.146485264207669e+20	-2.386783212830809e+23	1486.5000848517618	-0.5926781001830305	21.123596986277338	4.007820136852395	29.453770008138317	134.58986885956912	138.90171128521092	58.053704472105764	0.003498201478297955	-4.3944868211280025e+22	0.4361513264963369	0.014819749004255959	1.0103157919794499e+23	0.10912244088295148	-0.25087827036671073	0.0	7.1124399999999985	24.77124	-21.094164000000006	-23.209051	-15.742709	-12.552065	0.0		True	0.0	None	0.0	None	0.0	None	0.0	None	0.0	None	0.0	None	0.0	None	0.0	None	3.4106e-06	12
2014-02-09 20:36:00	59.7238908245409	326214389.6537	2.201215747866894e+21	1367319006222.232	0.2291227451053777	666154654940.3059	6.694183983331534e+20	-2.5897115837616005e+23	1481.2214811331326	-0.5977722664432693	20.79506084431021	3.0384271671134937	29.0292997897542	134.10669518383185	138.86115847152482	57.4915853188285	0.00020475669803876468	-4.727122579131455e+22	1.1630515240047472	0.0008791848721454011	1.0473548811915185e+23	0.10911418845252732	-0.2417565357571145	0.0	7.113756	24.660957	-21.100103	-23.107029	-15.739785	-12.427304	0.0		True	0.0	None	0.0	None	0.0	None	0.0	None	0.0	None	0.0	None	0.0	None	0.0	None	3.3283999999999998e-06	12
2014-02-09 20:48:00	53.01858766423089	308926158.5381	1.9787437536929773e+21	1220631967724.445	4.9086657528024835	503200809673.2428	6.26858522123258e+20	-2.4429275419686383e+23	1417.6674472042087	-0.5954474339129604	20.25259540069759	1.6175071360608944	29.41125331298901	135.70621180785005	139.86083918467773	56.7833723363303	0.004670471696291611	-4.976388947121673e+22	0.6243017979014874	0.0199184835990288	1.0286184873888058e+23	0.1212961898300322	-0.25071895431557506	0.0	7.115092999999999	24.550694	-21.104513	-23.00395	-15.722112	-12.325336	0.0		True	0.0	None	0.0	None	0.0	None	0.0	None	0.0	None	0.0	None	0.0	None	0.0	None	2.5439e-06	12
2014-02-09 21:00:00	54.38815169777834	324361147.9871	2.092663481012301e+21	1202821254494.9536	0.4234448176672199	292326749170.6572	6.449390198285591e+20	-2.565808280749815e+23	1492.1857735141652	-0.5956385413162484	20.294657591249308	2.272727272727273	29.471588615509475	137.98429506027716	142.06416641710447	59.232678978343436	-0.00040098941066971577	-5.274762746065194e+22	0.5408152296699561	-0.00163630203756862	1.0646765858804711e+23	0.12245076966301653	-0.2471589219448944	0.0	7.116503	24.440453	-21.108616	-22.897348	-15.725076	-12.202597	0.0		True	0.0	None	0.0	None	0.0	None	0.0	None	0.0	None	0.0	None	0.0	None	0.0	None	2.0066e-06	12
2014-02-09 21:12:00	52.09375540227264	323001388.15470004	2.0064380537469314e+21	1172582127282.3125	2.4337658386932217	403692163299.7136	6.442491205788905e+20	-2.5813190815068545e+23	1425.3035204418802	-0.6017620147137182	19.733422184931225	1.0377358490566038	29.417713643571982	136.00383552931982	138.62960612287932	57.530000266059524	-0.0022960055082011533	-5.463389650749987e+22	0.7440173443748394	-0.009408197105307894	1.071405948097689e+23	0.12736357883668553	-0.2497681927517316	0.0	7.117933	24.330233	-21.115993	-22.797543	-15.730369	-12.079543	0.0		True	0.0	None	0.0	None	0.0	None	0.0	None	0.0	None	0.0	None	0.0	None	0.0	None	1.7284999999999996e-06	12
2014-02-09 21:24:00	49.021967311615505	312580234.23800004	1.9506880453479616e+21	1075681988243.7574	0.4978679064189239	485359315784.6877	6.173547318120393e+20	-2.5148189194169e+23	1454.2998123535751	-0.6058047944644461	20.262979302863407	1.188118811881188	29.38838717594311	136.27447630408585	138.87984359545052	56.66667437165228	-0.0004929385212068554	-5.5142889850524e+22	0.9388027114783319	-0.00198376336084378	1.0352393471310777e+23	0.1328359143242725	-0.2493829496302919	0.0	7.119335	24.220036	-21.120821	-22.69191	-15.734053	-11.981367	0.0		True	0.0	None	0.0	None	0.0	None	0.0	None	0.0	None	0.0	None	0.0	None	0.0	None	1.6592e-06	12
2014-02-09 21:36:00	48.475267098179906	310361353.36	1.8762967185837287e+21	1061811984504.9346	0.007354658262376967	582877031757.7092	6.039929420213777e+20	-2.4636310461263868e+23	1444.6083163336966	-0.5977168207551342	19.747033217274147	1.1247443762781186	29.655265705739122	139.7074927479629	141.9268298851743	60.150800236497204	7.5201004727780855e-06	-5.748658483460264e+22	1.1642962701443649	2.9663681472458125e-05	1.001345504281196e+23	0.13947177186874218	-0.24294264850959274	0.0	7.120815	24.109865	-21.125225	-22.58548900000001	-15.737308	-11.856561	0.0		True	0.0	None	0.0	None	0.0	None	0.0	None	0.0	None	0.0	None	0.0	None	0.0	None	1.6513999999999996e-06	12
2014-02-09 21:48:00	48.11459466581847	307987681.2092	1.8026845601520186e+21	1016288682931.4108	1.483521671238079	443001520211.74536	5.897107151769793e+20	-2.4227989392450608e+23	1447.1197302971484	-0.5923407254664914	19.206669743982577	0.6396588486140725	29.71799383119325	143.74140657879803	146.04970136280247	61.490508360629825	0.0015815796068636234	-5.764520692734429e+22	0.9226149635010108	0.006049988397122045	1.0374874636276368e+23	0.14093453294002525	-0.2536512902135724	0.0	7.122317999999999	23.999718	-21.131084	-22.474367	-15.715366	-11.757299	0.0		True	0.0	None	0.0	None	0.0	None	0.0	None	0.0	None	0.0	None	0.0	None	0.0	None	1.5926e-06	12
2014-02-09 22:00:00	47.982660400874366	313286543.5927	1.8381885050589104e+21	1025879800214.1294	3.0122541458636816	545472324818.3382	5.8956440629164166e+20	-2.418296903303345e+23	1475.6204416587605	-0.5812397853545824	19.04715928487705	0.9594882729211088	30.07192742258239	145.97596577762206	146.87060234026416	63.70698082493168	0.0032113583644602147	-6.098480384180343e+22	1.1360041893672337	0.01216135964979757	1.0304359292703023e+23	0.1465775118285994	-0.2476661809112824	0.0	7.123798	23.889599	-21.134504	-22.367411	-15.718837	-11.631763	0.0		True	0.0	None	0.0	None	0.0	None	0.0	None	0.0	None	0.0	None	0.0	None	0.0	None	1.6508000000000001e-06	12
2014-02-09 22:12:00	46.3163964012019	328776311.4731	1.9154400481169053e+21	977050970379.0516	0.8481944675678552	320528606847.9895	6.071284812784986e+20	-2.5615729149518893e+23	1521.4148586392078	-0.5866696627755111	19.303782617792585	1.2658227848101269	29.829109692624073	144.82735432054844	146.6065238468284	62.94796881155717	-0.0008947199024977377	-6.31445498321448e+22	0.6604805101372441	-0.0032519090762342965	1.020504220487582e+23	0.1446181427821336	-0.2337231407311629	0.0	7.125359	23.779509	-21.139942	-22.261791	-15.723068	-11.535235	0.0		True	0.0	None	0.0	None	0.0	None	0.0	None	0.0	None	0.0	None	0.0	None	0.0	None	1.5129e-06	12
2014-02-09 22:24:00	46.02194755506773	322153998.30580014	1.8594256166689807e+21	957889336316.1116	3.3072280257327216	390490929690.74695	5.940172944676528e+20	-2.497620056418597e+23	1513.6469626320459	-0.5837815483763749	19.022152891949673	1.2972972972972971	29.943833927076827	145.8998545152054	148.22528184744095	60.59307588146003	-0.0035753816494407797	-6.138603208689344e+22	0.8246352272379371	-0.012963889793526437	1.0171169538589017e+23	0.1434807218506833	-0.23773596335346525	0.0	7.126947	23.669447	-21.119488	-22.154823	-15.72713	-11.413562	0.0		True	0.0	None	0.0	None	0.0	None	0.0	None	0.0	None	0.0	None	0.0	None	0.0	None	1.6605e-06	11
2014-02-09 22:36:00	49.615997470855206	336064873.7036	2.0353952640655142e+21	1062889219677.3188	0.581225331333753	275774415514.4692	6.194312344845193e+20	-2.564693970661359e+23	1571.9244931733865	-0.5746454422955399	19.78280089558874	1.1282051282051282	30.939946472469593	145.34356020360056	146.33709823793802	64.42673668353261	0.0005961285449576952	-6.417825166691009e+22	0.5525003968219288	0.002196689264422185	1.0661015474575015e+23	0.14379781851858067	-0.2388707589594779	0.0	7.128517	23.559418	-21.122797	-22.041796	-15.730482	-11.289056	0.0		True	0.0	None	0.0	None	0.0	None	0.0	None	0.0	None	0.0	None	0.0	None	0.0	None	1.5849e-06	12
