Timestamp	TOTUSJH	TOTBSQ	TOTPOT	TOTUSJZ	ABSNJZH	SAVNCPP	USFLUX	TOTFZ	MEANPOT	EPSZ	MEANSHR	SHRGT45	MEANGAM	MEANGBT	MEANGBZ	MEANGBH	MEANJZH	TOTFY	MEANJZD	MEANALP	TOTFX	EPSY	EPSX	R_VALUE	CRVAL1	CRLN_OBS	LAT_MIN	LON_MIN	LAT_MAX	LON_MAX	QUALITY	NOAA_AR	IS_TMFI	BFLARE	BFLARE_label	CFLARE	CFLARE_label	MFLARE	MFLARE_label	XFLARE	XFLARE_label	BFLARE_loc	BFLARE_label_loc	CFLARE_loc	CFLARE_label_loc	MFLARE_loc	MFLARE_label_loc	XFLARE_loc	XFLARE_label_loc	XR_MAX	XR_QUAL
2014-01-17 23:24:00	29.784731374577703	375358479.1347	1.6334895308346819e+21	755350869966.7936	3.33767964190732	254343816526.4297	7.578002028019219e+20	-3.868384790460442e+23	996.7557488602828	-0.7760165612168589	19.52175365415275	3.322528363047002	23.32980724129211	93.69771574154804	97.57393110898741	35.941495103482325	-0.002704764701707714	4.237905315287781e+22	-0.4049564151703576	-0.010013396273748715	-7.600294692562825e+22	-0.08501441525781693	0.15246556046083853	0.0	385.884155	325.946106	-7.689452	58.496109	-6.2793769999999975	61.200424	0.0		True	0.0	None	0.0	None	0.0	None	0.0	None	0.0	None	0.0	None	0.0	None	0.0	None	8.417199999999998e-07	12
2014-01-17 23:36:00	30.21850973913144	374917317.6445	1.512239506206193e+21	703631831792.0305	1.9313293048474651	33440813188.64105	7.609134556286107e+20	-3.786314984380365e+23	916.0873606319575	-0.7604465243679108	18.262056249461807	0.4022526146419952	23.03533361753495	93.526096999339	93.10079587941915	36.1213732643973	-0.0015537645252191993	4.019794592788672e+22	-0.05285655217789709	-0.005852318953963889	-7.704046762424261e+22	-0.08073387553252713	0.1547286902495287	0.0	385.887329	325.836182	-7.693977999999999	58.642445	-6.284204	61.310459	0.0		True	0.0	None	0.0	None	0.0	None	0.0	None	0.0	None	0.0	None	0.0	None	0.0	None	8.8704e-07	12
2014-01-17 23:48:00																																	False	0.0	None	0.0	None	0.0	None	0.0	None	0.0	None	0.0	None	0.0	None	0.0	None	7.1236e-07	12
2014-01-18 00:00:00	29.84120122508223	367350719.6997	1.4898670834859974e+21	688380999965.5994	1.8853656752258825	70238481663.53926	7.565709525494214e+20	-3.728120229012789e+23	900.3617170898503	-0.764181557691744	17.788802515060894	0.3210272873194221	22.76932371891914	90.24914570346891	90.39619520658924	33.52045041571246	-0.0015131345708072892	3.624788669969936e+22	-0.11074685444269984	-0.005818371120744052	-7.627449558087533e+22	-0.07430008910561635	0.15634571651295695	0.0	385.893829	325.616425	-7.727645	58.836246	-6.296729	61.52058	0.0		True	0.0	None	0.0	None	0.0	None	0.0	None	0.0	None	0.0	None	0.0	None	0.0	None	1.3877e-06	12
2014-01-18 00:12:00	28.47237792840184	373307883.6796	1.4802629697073075e+21	653142508638.6929	2.009726088321776	223446628052.84506	7.648598227613976e+20	-3.80518502691733e+23	892.4090641250621	-0.7675314035422758	17.664326763549624	0.4803843074459567	22.792423288184303	87.64280925080914	88.2476572152429	32.90541485434896	-0.0016090681251575464	3.80118016056676e+22	-0.35145996160897297	-0.006091616657153535	-7.599930461313193e+22	-0.07667235950732244	0.15329570710838766	0.0	385.897156	325.506622	-7.725173	58.953709	-6.3190870000000015	61.621502	0.0		True	0.0	None	0.0	None	0.0	None	0.0	None	0.0	None	0.0	None	0.0	None	0.0	None	8.1992e-07	12
2014-01-18 00:24:00	28.8510257886505	378444883.5471	1.5884644402943644e+21	643066243207.5779	1.0344800499458595	151435520969.86087	7.577403318916153e+20	-3.766604797694617e+23	945.5281390951336	-0.7494366084317837	18.44200027686152	3.0039525691699605	25.533512822871337	84.63945839292974	84.80201404341051	33.79504166896893	-0.0008177707904710353	3.5419024234264715e+22	-0.06310329288465759	-0.0031250089606637663	-7.075107312835663e+22	-0.07047278602824797	0.1407725183185615	0.0	385.900543	325.396881	-7.742194	59.06872900000001	-6.340285	61.730709	0.0		True	0.0	None	0.0	None	0.0	None	0.0	None	0.0	None	0.0	None	0.0	None	0.0	None	6.4461e-07	12
2014-01-18 00:36:00	32.737414298469474	411902869.1056	1.7338931409279826e+21	748778406889.2651	1.2147064246215895	91107117625.30772	8.292141063397753e+20	-4.132835131371683e+23	962.1215687608503	-0.7555108981317098	18.37331187470004	2.137067059690493	24.357196940213818	87.4521672496291	89.4334531729724	34.66868965019276	-0.0008951410645700735	4.848042944880663e+22	-0.04881601670240475	-0.003359719168758645	-7.715167214391321e+22	-0.08862558420645801	0.14103860246286928	2.1157291510000893	385.903931	325.28717	-7.738133	59.187305	-6.3361220000000005	61.852589	0.0		True	0.0	None	0.0	None	0.0	None	0.0	None	0.0	None	0.0	None	0.0	None	0.0	None	6.3081e-07	12
2014-01-18 00:48:00	33.074986253082045	422181921.9603	1.6975411772133692e+21	750068330319.76	1.6284887031945818	161795106839.49722	8.615961057884525e+20	-4.320398725082229e+23	903.9790561448629	-0.7705692192511538	17.518141070808575	1.1315417256011315	23.38389995242318	86.89641589762633	87.90810349842295	32.27312373566401	-0.0011516893233342164	4.79039685473116e+22	-0.15978974577416571	-0.004357146910323715	-8.107171652064124e+22	-0.08543962257055608	0.14459630529002251	2.08635248984892	385.907349	325.17749	-7.745308	59.304478	-6.331494	61.979622	0.0		True	0.0	None	0.0	None	0.0	None	0.0	None	0.0	None	0.0	None	0.0	None	0.0	None	8.8396e-07	12
2014-01-18 01:00:00	32.178741794012105	420542030.98950016	1.6844949915643203e+21	689491301815.7242	0.3185166952360844	72767381271.35031	8.441289138212037e+20	-4.271097462783545e+23	927.8733381847121	-0.7647466095543012	17.409777931762676	1.024140453547915	23.204810149322014	85.82958134776315	86.47349466070257	31.690642489835696	-0.00023300416622976182	4.057827837929186e+22	0.10456620957011684	-0.0008583619006688437	-8.16411789897224e+22	-0.07265603532233593	0.14617979424828262	0.0	385.910797	325.067841	-7.770675	59.415848	-6.343353	62.10709	0.0		True	0.0	None	0.0	None	0.0	None	0.0	None	0.0	None	0.0	None	0.0	None	0.0	None	1.0897e-06	12
2014-01-18 01:12:00	37.2608546207913	453661561.73920006	1.981993985399704e+21	882853274602.5709	0.5366104507530625	95265802881.7267	9.27454930457203e+20	-4.561133244159701e+23	972.2578778187144	-0.7570565028862646	18.029956376017786	1.6286644951140066	23.835886667352103	89.26591598131935	89.30186337423063	33.97539300287151	-0.0003495833555394544	4.693511787923591e+22	-0.08996229149729774	-0.001346391654498064	-9.04749313236289e+22	-0.07790286821746882	0.15017021305932104	2.2176966090769032	385.914307	324.958252	-7.793011999999999	59.496552	-6.340746	62.23753000000001	0.0		True	0.0	None	0.0	None	0.0	None	0.0	None	0.0	None	0.0	None	0.0	None	0.0	None	6.9997e-07	12
2014-01-18 01:24:00	35.97008162806035	474075538.8151	2.0842373343517844e+21	860300681345.0891	0.17871738671468473	165782425014.55008	9.49324868733316e+20	-4.747350001311096e+23	1001.533890779456	-0.7540344350403639	19.266827110590164	2.6164645820038293	24.655568691668357	89.4551829379179	92.15245684221384	32.82016433526525	-0.00011405066159201324	4.940555142216497e+22	-0.2078122566450084	-0.0004298442668138951	-1.0067138630920577e+23	-0.07847217298952333	0.15989908449856838	2.44012456611537	385.917847	324.848694	-7.812135	59.614464	-6.334962	62.358929	0.0		True	0.0	None	0.0	None	0.0	None	0.0	None	0.0	None	0.0	None	0.0	None	0.0	None	5.5985e-07	12
2014-01-18 01:36:00	36.1577024739232	459424325.9949	1.9490906213881613e+21	803130131259.8579	0.4988606794137858	84459683275.51059	9.245324124632893e+20	-4.635695865436693e+23	981.0427451984093	-0.7597810209692181	18.15284751467881	1.6042780748663104	22.59744018802721	90.66813343958816	91.1311900822904	33.776161207205526	0.0003334630209985198	4.827800930695168e+22	-0.11089416787589684	0.0012340610726028012	-1.009603896018372e+23	-0.07912666461811069	0.16547200272791807	2.037683516047759	385.921448	324.7391970000001	-7.80858	59.73251	-6.335882	62.487419	0.0		True	0.0	None	0.0	None	0.0	None	0.0	None	0.0	None	0.0	None	0.0	None	0.0	None	6.4751e-07	12
2014-01-18 01:48:00	38.25564381925102	467136503.8755	1.918566312453811e+21	849708406185.3639	0.2187796784019711	53571494175.43883	9.537996757905021e+20	-4.745907588725424e+23	930.2354798178284	-0.7650027781998018	17.496657934764098	0.5795235028976174	22.427845259404727	88.90964062680472	88.30727148379654	32.74255728374906	0.00014087551732258282	5.1355620961390315e+22	0.06775515448247348	0.0005306983970369155	-9.557434066464494e+22	-0.08278120038614294	0.15405828024709511	2.2200840129534964	385.92514	324.62973	-7.805109	59.848499	-6.3479800000000015	62.606861	0.0		True	0.0	None	0.0	None	0.0	None	0.0	None	0.0	None	0.0	None	0.0	None	0.0	None	6.5637e-07	12
2014-01-18 02:00:00	34.611019037388594	472849006.1638	1.9554542785407272e+21	724770062603.4001	0.22146550608874094	234737335810.1216	9.39242074015792e+20	-4.8114225051147044e+23	998.2588852383459	-0.7661936590263183	17.882537042580786	1.4237288135593218	22.296696644274718	91.08367365524047	91.73965485453905	31.8932395068998	0.00015014610582287518	5.5526052436791645e+22	-0.31257865414651664	0.0005303655260661369	-9.48905669792951e+22	-0.08842231012264501	0.15110822349037245	1.1266070969075102	385.928802	324.520294	-7.8305380000000016	59.966602	-6.344013	62.71358100000001	0.0		True	0.0	None	0.0	None	0.0	None	0.0	None	0.0	None	0.0	None	0.0	None	0.0	None	7.431199999999998e-07	12
2014-01-18 02:12:00	39.851860629656464	506816826.7786	2.1747411120532986e+21	870419921951.9368	1.1982633430351537	408255311523.743	1.0203835482743428e+21	-5.1299961896296766e+23	999.1163558099784	-0.7621728505062936	18.475076235401712	1.342281879194631	23.141051308043284	90.97081739115404	91.98245391842043	33.53367181768861	-0.0007310941690269392	6.337045084862003e+22	-0.4892278048780325	-0.0026833834572967	-1.0023641149242224e+23	-0.0941506296998796	0.1489230569530233	1.1447774794970162	385.932526	324.410889	-7.855937	60.086441	-6.340018	62.851322	0.0		True	0.0	None	0.0	None	0.0	None	0.0	None	0.0	None	0.0	None	0.0	None	0.0	None	6.496800000000001e-07	12
2014-01-18 02:24:00	44.88911975527577	523197643.0874001	2.2600891901975404e+21	940750664422.4708	0.8857622236925282	230301173266.0589	1.0545336855515464e+21	-5.345754756082924e+23	1014.7990594992177	-0.7693621074503917	17.992899737423038	0.9540846750149076	22.72459950504841	92.76819065808313	93.77402968007428	33.979835136770085	-0.0005281826020826048	6.298273088451766e+22	-0.2697184295473936	-0.0019136594261137843	-1.0951014216111373e+23	-0.09064487388082064	0.15760721844636658	1.0647337241711021	385.936279	324.301514	-7.881542	60.20581800000001	-6.351621	62.988758	0.0		True	0.0	None	0.0	None	0.0	None	0.0	None	0.0	None	0.0	None	0.0	None	0.0	None	6.711199999999999e-07	12
2014-01-18 02:36:00	46.209608364668064	539931724.6811	2.420294842253508e+21	963962815237.1003	0.044761855832937236	193630193720.754	1.08987618818736e+21	-5.483076482909383e+23	1046.783798896408	-0.7646680528134416	18.608352854532825	2.010338885697875	23.758850336847548	88.38792202362819	88.80971368217571	32.977916732266955	2.5710428393415993e-05	6.399205834375524e+22	-0.21842939434729924	9.395852932811172e-05	-1.162477173329592e+23	-0.0892431152506544	0.1621186863507597	1.3110721288853864	385.940063	324.1922	-7.908607000000001	60.32501600000001	-6.34926	63.126209	0.0		True	0.0	None	0.0	None	0.0	None	0.0	None	0.0	None	0.0	None	0.0	None	0.0	None	6.137700000000001e-07	12
2014-01-18 02:48:00	47.59315421456974	566806926.4083	2.3625566771828123e+21	1012969958547.596	1.1003638774010749	195923155358.292	1.1812051931791326e+21	-5.890251141821176e+23	933.8450053049072	-0.7825033541569741	17.660673935615964	0.7349081364829396	22.544542567535906	85.35413144414224	86.40484818368559	31.38342827313833	0.0005776188332814043	6.340147181320932e+22	-0.2019840214805841	0.002178215359987155	-1.2472557984653949e+23	-0.08422707819718858	0.16569443684011542	1.303481338732664	385.943878	324.082916	-7.930952	60.405163	-6.346759	63.272224	0.0		True	0.0	None	0.0	None	0.0	None	0.0	None	0.0	None	0.0	None	0.0	None	0.0	None	6.514499999999999e-07	12
2014-01-18 03:00:00	48.9225853152104	574602119.4783001	2.377949493147088e+21	1020528085563.583	0.3406911841127567	144262603886.0374	1.1998382264044754e+21	-5.985760125442903e+23	935.021002775251	-0.784403646092923	17.556850531486532	0.9399477806788512	22.28440273791345	82.47364671309609	83.59589033442491	29.198360714522252	-0.00017790662355757526	6.469520860533018e+22	-0.14794514789413116	-0.0006645544428380052	-1.2680343003724415e+23	-0.08477980482221266	0.16616949355441052	1.3131818087017029	385.947723	323.973663	-7.946069	60.52650500000001	-6.346419	63.405197	0.0		True	0.0	None	0.0	None	0.0	None	0.0	None	0.0	None	0.0	None	0.0	None	0.0	None	5.636600000000001e-07	12
2014-01-18 03:12:00	47.24167767255492	592704703.4965	2.496924254708854e+21	996785261213.5892	2.3590457460186967	110776836349.6475	1.225663050921041e+21	-6.186801062903411e+23	972.1570846817892	-0.7859869312375904	17.693392702384454	1.034126163391934	21.987180316255387	82.2670857590872	83.64424498111235	28.89612954739956	0.0012197754632981884	7.256497764618853e+22	-0.11248586540215123	0.004457072597868574	-1.3186955995109622e+23	-0.09218839189357414	0.16753044052296162	0.0	385.951599	323.864441	-7.945100999999997	60.646191	-6.355875	63.536751	0.0		True	0.0	None	0.0	None	0.0	None	0.0	None	0.0	None	0.0	None	0.0	None	0.0	None	6.514e-07	12
2014-01-18 03:24:00	51.58190372155393	612337041.9635	2.740573651603082e+21	1098308726833.7823	1.9430851619063203	124519893530.4958	1.2661483224209346e+21	-6.339161722216239e+23	1030.7774245466437	-0.7795227475324816	18.138977491423	1.4485514485514486	22.973719357338947	85.07608022117762	86.68433316645374	30.058318203919434	0.0009710570524269467	7.5158147775207504e+22	-0.10417568890184932	0.003567753191107815	-1.361686973259514e+23	-0.0924215036948122	0.16744579444225713	0.0	385.955505	323.75524900000005	-7.956345	60.767143	-6.351712	63.669537	0.0		True	0.0	None	0.0	None	0.0	None	0.0	None	0.0	None	0.0	None	0.0	None	0.0	None	2.31e-06	12
2014-01-18 03:36:00	51.8807629838978	625008921.8278	2.6762881865966687e+21	1084630711708.1694	2.0160787881364834	151621210857.16464	1.2896774572184767e+21	-6.475827457472e+23	999.1128140151993	-0.7801832142622559	17.47519321266275	0.3966286564204263	22.655333027272373	83.56431115504479	83.6251182808747	31.07958415492965	0.0009995432762203683	8.058933302160702e+22	0.07764585807040611	0.0036239865524364655	-1.4067140229279609e+23	-0.0970909822489207	0.1694755882801361	0.0	385.959412	323.646057	-7.957136999999999	60.885994	-6.352477	63.807343	0.0		True	0.0	None	0.0	None	0.0	None	0.0	None	0.0	None	0.0	None	0.0	None	0.0	None	1.7692e-06	12
2014-01-18 03:48:00	52.587177567361344	628705706.2621	2.654203983379604e+21	1113938901022.3118	2.016891091814045	155855777318.51434	1.2927649363813034e+21	-6.569819312818333e+23	991.3597809094383	-0.7868529009356023	17.790820193056696	0.992063492063492	22.13556266381919	81.76625366490171	82.35559193155234	30.92094608114385	0.0010004420098283957	7.969454849184285e+22	-0.1518127211202702	0.003590676172698128	-1.420799031560507e+23	-0.09544841902609197	0.17016599489252845	0.0	385.96344	323.536926	-7.952965	61.007038	-6.363144	63.940502	0.0		True	0.0	None	0.0	None	0.0	None	0.0	None	0.0	None	0.0	None	0.0	None	0.0	None	8.605299999999998e-07	12
2014-01-18 04:00:00	53.7151872416141	650474577.784	2.657967414098622e+21	1094305561717.1892	4.915298437797919	461377308981.4822	1.31576944813328e+21	-6.796509410918756e+23	995.7288814796252	-0.7867615078361148	17.35247569071888	0.4975124378109453	22.235546860726384	82.24462944873807	82.52748580141389	31.12825923718209	0.002445422108357173	7.629911209627924e+22	0.2857691925716074	0.008458297795725433	-1.4550131244437914e+23	-0.08832358031166268	0.16843180086967408	2.2346823982804085	385.967407	323.427826	-7.96266	61.127529	-6.362461	64.065598	0.0		True	0.0	None	0.0	None	0.0	None	0.0	None	0.0	None	0.0	None	0.0	None	0.0	None	7.612999999999998e-07	12
2014-01-18 04:12:00	57.21576644840594	667045704.2353001	2.801764795820943e+21	1177878297312.6787	3.110946275605375	270105573870.5528	1.3558185956193154e+21	-6.918375543147689e+23	1008.9395992886627	-0.7809730861553333	17.597529297210137	0.6217120994739359	22.31894565025693	82.71904686073458	82.34218216393991	31.735891852040574	0.0014877791848901842	8.880757542664383e+22	0.2337946104256593	0.00523732540918445	-1.472311395813614e+23	-0.10024943835784196	0.16620022538514556	1.8197844502918632	385.971466	323.318726	-7.96307	61.250793	-6.3727839999999984	64.201424	0.0		True	0.0	None	0.0	None	0.0	None	0.0	None	0.0	None	0.0	None	0.0	None	0.0	None	5.5705e-07	12
2014-01-18 04:24:00	56.76050391072894	679402420.6952	2.9362494532488334e+21	1124212870224.749	3.9486993954113014	225349888948.5831	1.344075628958669e+21	-7.05271082424307e+23	1097.7943325945334	-0.7816574814837896	18.177386979868746	0.9930486593843101	22.103673263398825	88.3893356204763	89.16429703016453	32.95730201036688	0.001961599302241084	9.109481567752823e+22	0.17528596469104707	0.006527309295340716	-1.5086357798143762e+23	-0.10096109988511942	0.1672032887088631	0.0	385.975494	323.209656	-7.958758	61.376488	-6.37321	64.29541800000001	0.0		True	0.0	None	0.0	None	0.0	None	0.0	None	0.0	None	0.0	None	0.0	None	0.0	None	6.889399999999999e-07	12
2014-01-18 04:36:00	56.01675826475881	731179716.3087	3.0588898639124444e+21	1120601565910.9658	1.8401018378002825	50375900374.033226	1.430473678660573e+21	-7.56509351471002e+23	1093.686992822778	-0.7790722570750315	17.737519844597625	0.5698005698005698	22.26540533308569	88.31369717633561	88.61871921337108	33.099562004796255	0.0008737425630580638	8.903562560350481e+22	0.04108609170287068	0.002829138001776003	-1.6756369509192193e+23	-0.09169111480794273	0.17256128544248395	0.0	385.979553	323.100616	-7.983632000000001	61.48716	-6.378125	64.42532299999999	0.0		True	0.0	None	0.0	None	0.0	None	0.0	None	0.0	None	0.0	None	0.0	None	0.0	None	5.9224e-07	12
2014-01-18 04:48:00	59.2141287489581	771996592.4252999	3.348362493716908e+21	1187204401834.0513	2.8063374555277467	177055727542.03024	1.4941145611792474e+21	-7.96663516809687e+23	1168.879732735968	-0.7770465752916461	17.922867681539152	0.4636068613815485	22.28810493572723	91.42469550442408	92.09183880363848	32.607844116368824	0.0013010372997346994	9.65140040403752e+22	0.12595190540735102	0.004091246949275917	-1.7863930082409127e+23	-0.09413745543110294	0.17424050931029955	0.0	385.983643	322.991608	-8.008348	61.61050400000001	-6.383276	64.556107	0.0		True	0.0	None	0.0	None	0.0	None	0.0	None	0.0	None	0.0	None	0.0	None	0.0	None	4.7419e-07	12
2014-01-18 05:00:00	57.17934569465952	787222459.0246	3.4243722291713414e+21	1128499576733.202	2.626077313158839	195590455379.83966	1.5261639722869774e+21	-8.135446315854099e+23	1172.0491697100806	-0.7781645707631635	17.834046033032653	0.4090909090909091	22.02825305882723	88.22129697614345	88.77763439818304	31.943379932855912	0.0011936715059812904	9.694909251223384e+22	0.15152427646860447	0.0037520453145761376	-1.820174019780992e+23	-0.0927328950762554	0.17410168782712168	0.0	385.987732	322.882568	-8.032346	61.724133	-6.387813	64.704803	0.0		True	0.0	None	0.0	None	0.0	None	0.0	None	0.0	None	0.0	None	0.0	None	0.0	None	4.7102e-07	12
2014-01-18 05:12:00	55.06235055514614	778725212.7594001	3.32280292723624e+21	1126810883985.3765	1.0616469776716442	195067689874.09326	1.5270071614827539e+21	-8.037604866755429e+23	1113.9928436086038	-0.7771949760963924	17.95234473566681	0.6678539626001779	22.30249771296725	85.70493477283833	86.26961424066809	31.08468595056925	0.0004726834272803401	9.474654617124915e+22	0.17052678925403458	0.001534231200629376	-1.756028801855177e+23	-0.09161502824224413	0.16979893703499954	0.0	385.991852	322.77359	-8.04705	61.849739	-6.397525	64.843735	0.0		True	0.0	None	0.0	None	0.0	None	0.0	None	0.0	None	0.0	None	0.0	None	0.0	None	4.5438e-07	12
2014-01-18 05:24:00	57.2572756646743	797763019.5858	3.4128621701465406e+21	1143525131831.9375	0.6219689720177608	77287948636.1537	1.5320683171940378e+21	-8.226966633017941e+23	1170.7702302635046	-0.7765211360293875	17.848593307702746	0.8200455580865604	22.304526477918174	86.50442005443409	87.09884811213709	31.507694414110986	-0.0002833571626504605	9.75097869808278e+22	-0.06913329717071827	-0.0008777168501046209	-1.853488999390128e+23	-0.0920368514155014	0.17494581510128476	0.0	385.995972	322.6646120000001	-8.043533	61.97541800000001	-6.398949	64.975227	0.0		True	0.0	None	0.0	None	0.0	None	0.0	None	0.0	None	0.0	None	0.0	None	0.0	None	7.266599999999998e-07	12
2014-01-18 05:36:00	57.33152670874469	813103078.0429001	3.538702315909289e+21	1126520991490.338	1.5868321060584571	77566029890.82718	1.5448569609660525e+21	-8.388649665706643e+23	1227.3592308032894	-0.7768442197956769	17.920170682926347	0.6448641179180101	22.23758730309604	87.21683033205562	88.07049549224224	31.01050693808441	-0.0007309222045409751	1.0334876940779688e+23	-0.07014800749006044	-0.002196676052991833	-1.868228992893117e+23	-0.09570776863606233	0.17301031181655158	0.0	386.000092	322.555634	-8.058157000000001	62.101452	-6.4085269999999985	65.114876	0.0		True	0.0	None	0.0	None	0.0	None	0.0	None	0.0	None	0.0	None	0.0	None	0.0	None	1.336e-06	12
2014-01-18 05:48:00	56.6874297468254	822064488.0151	3.4657520083581707e+21	1111345316765.5703	1.1836520160467798	19654395282.618942	1.5693238164814268e+21	-8.464382152824567e+23	1173.9390015892745	-0.7753126778287408	17.297389882831745	0.1799370220422852	22.58926517470428	87.64939954120916	87.8963807630426	30.880143801568536	-0.0005324570472545119	1.0334512858001816e+23	0.0034444372062665744	-0.0016220838324095353	-1.8349634232740346e+23	-0.09466111871283098	0.16807728901295402	0.0	386.004272	322.446686	-8.058319000000001	62.22736	-6.408676	65.254532	0.0		True	0.0	None	0.0	None	0.0	None	0.0	None	0.0	None	0.0	None	0.0	None	0.0	None	1.5067e-06	12
2014-01-18 06:00:00	57.28364611144114	804066632.3443	3.265893949376981e+21	1118125715695.0532	1.3945201698133358	36222876009.32699	1.5323091209670948e+21	-8.32054581653955e+23	1144.3348165962884	-0.7791969168734546	16.80054784039273	0.0	22.360870752029328	87.15918899274406	87.41241800718109	31.24643479839893	-0.0006489158537986673	9.53845695069775e+22	-0.03309318250178896	-0.00194956957483917	-1.7516289911642335e+23	-0.08932510452547343	0.16403538175443474	0.0	386.008423	322.337738	-8.066635	62.353283	-6.421982	65.394325	66560.0		False	0.0	None	0.0	None	0.0	None	0.0	None	0.0	None	0.0	None	0.0	None	0.0	None	7.4203e-07	12
2014-01-18 06:12:00	55.677768660319316	813708444.0801	3.361256990433373e+21	1057425743625.9926	2.258290917066168	346510411661.9027	1.521958226791402e+21	-8.42352244803556e+23	1212.7372613168916	-0.7794932644583231	17.066597166307798	0.4791566842357451	22.18217649661791	88.13355239022638	89.15729694755241	32.52081318905864	-0.001082075187861125	9.273138961099457e+22	-0.3259723809181584	-0.003119210701196601	-1.799256612778734e+23	-0.0858114809470092	0.16649904114877712	1.071304083947797	386.012634	322.22879	-8.066353999999999	62.474823	-6.421686	65.528976	66560.0		False	0.0	None	0.0	None	0.0	None	0.0	None	0.0	None	0.0	None	0.0	None	0.0	None	5.6157e-07	12
2014-01-18 06:24:00	55.18969971279672	822892642.2067001	3.2693769575726674e+21	1077761126653.9816	2.147911556137524	164552011723.71292	1.5464179253039197e+21	-8.554758863607235e+23	1151.449254981178	-0.7828023123177893	16.52356608449925	0.4677268475210477	22.132571196186568	91.6697857288607	92.41966582087746	33.512599413663175	-0.0010046359009062318	8.424431213317154e+22	-0.15110469143528502	-0.0029281951866358363	-1.7698844602386687e+23	-0.07708766943509257	0.161953091852077	0.0	386.016785	322.119843	-8.062306	62.582767	-6.436671	65.626526	0.0		True	0.0	None	0.0	None	0.0	None	0.0	None	0.0	None	0.0	None	0.0	None	0.0	None	5.0911e-07	12
2014-01-18 06:36:00	50.02427846542958	796958381.5500001	2.980337535449388e+21	979678805723.1096	4.010772776737704	356101029403.8698	1.5219751583594258e+21	-8.380889491410264e+23	1058.5640448523893	-0.7918483550255598	16.095847987079946	0.14150943396226415	22.09662928124281	86.71513333670973	87.74825370785366	31.353842809668087	-0.001891873951291369	7.513351056783869e+22	-0.32977353383618524	-0.005617216454946621	-1.6514036155678832e+23	-0.0709881055124465	0.1560289319899681	0.0	386.020935	322.010895	-8.066887	62.704815	-6.4375860000000005	65.753632	0.0		True	0.0	None	0.0	None	0.0	None	0.0	None	0.0	None	0.0	None	0.0	None	0.0	None	5.5036e-07	12
2014-01-18 06:48:00	45.90868438473551	773898206.1378	2.859138197569366e+21	917465378575.35	6.066480272774639	411277960236.1167	1.5166805472305582e+21	-8.11524767141973e+23	993.9492399811197	-0.7895969267712628	16.07110831061514	0.13850415512465375	22.38687925531168	84.76531380289259	85.6530185532226	30.273790277725602	-0.002800775749203435	6.928630555612877e+22	-0.37277933306424416	-0.008760476320645567	-1.5251361347006367e+23	-0.06741415191445778	0.14839261272438134	0.0	386.025085	321.901947	-8.066965	62.829212	-6.446301	65.846001	0.0		True	0.0	None	0.0	None	0.0	None	0.0	None	0.0	None	0.0	None	0.0	None	0.0	None	5.5244e-07	12
2014-01-18 07:00:00	49.050595475635966	774765143.9664001	2.729814547786223e+21	949350570786.3104	7.169524715224973	397672686033.6068	1.5099263998861506e+21	-8.190861978032886e+23	957.389478467048	-0.7960623508410538	15.967157887189634	0.09315323707498836	21.987275288762344	83.84163504935067	83.8351812144317	31.22815557825172	-0.003339322177561701	6.461510860608119e+22	-0.3636349104512535	-0.010304546388772965	-1.548944881401751e+23	-0.0627988304463656	0.1505405300344257	0.0	386.029236	321.792999	-8.066619000000001	62.956413	-6.445947	65.979057	0.0		True	0.0	None	0.0	None	0.0	None	0.0	None	0.0	None	0.0	None	0.0	None	0.0	None	5.4004e-07	12
2014-01-18 07:12:00	49.74567833478111	773385299.0116	2.606503710836636e+21	963941428939.3048	8.879682151210488	541847185749.9002	1.5085632898218428e+21	-8.219128469539663e+23	922.7380089591742	-0.8002347541709832	15.597043080663415	0.09402914903620124	21.624996029111987	83.9522945764997	84.39617072796425	31.45372988603928	-0.004174744781951336	6.306034673820108e+22	-0.4868045371202552	-0.012755643179624082	-1.5222153719780642e+23	-0.061397119240803925	0.1482066679581154	0.0	386.033386	321.684021	-8.069925	63.085983	-6.459622	66.1064	0.0		True	0.0	None	0.0	None	0.0	None	0.0	None	0.0	None	0.0	None	0.0	None	0.0	None	5.7581e-07	12
2014-01-18 07:24:00	46.35772934310008	764433548.9288001	2.64057995231889e+21	911622479823.5498	5.23003670480488	221819345053.7813	1.5183906944531764e+21	-8.087010594943579e+23	904.1939637959288	-0.796591713466408	15.742487562106511	0.0	22.108650376160927	82.07983383896638	82.4119468364016	29.66961457090765	-0.0023783704887698404	5.67619445633741e+22	-0.1980348070140837	-0.007616327343759223	-1.522668951755421e+23	-0.055912001287218405	0.14998687773197025	0.0	386.037537	321.575073	-8.071033	63.21601500000001	-6.460724	66.204514	0.0		True	0.0	None	0.0	None	0.0	None	0.0	None	0.0	None	0.0	None	0.0	None	0.0	None	5.454699999999999e-07	12
2014-01-18 07:36:00	45.22107641647213	756226460.5846	2.463104562193114e+21	876044232916.1621	4.493819009536763	296917433498.1979	1.492525708285953e+21	-8.065304925430368e+23	869.1124352989964	-0.8030756397988534	15.225453781266156	0.0	21.753296642966195	83.91686763196384	84.00457590780096	30.763664073885426	-0.002106806849290559	4.492148925694928e+22	-0.2731537766702493	-0.006595325832678676	-1.447024518122266e+23	-0.04472906363650828	0.14408260461815806	0.3128950200326283	386.041626	321.466095	-8.066035000000001	63.345589	-6.474439	66.331627	0.0		True	0.0	None	0.0	None	0.0	None	0.0	None	0.0	None	0.0	None	0.0	None	0.0	None	5.2792e-07	12
2014-01-18 07:48:00	43.124246648322696	763965233.5085	2.4952063269823536e+21	843644463135.7476	2.5861891264239123	163426844630.8706	1.513980025855974e+21	-8.10496961991644e+23	865.0361374933374	-0.7988503041536767	14.947638966784314	0.0	21.835561557526045	82.90631410832984	83.37767092594396	30.673272228339034	-0.0011906948095874365	4.804735468124363e+22	-0.14771639031084113	-0.0037637577080445093	-1.4308593222188457e+23	-0.04735692507294898	0.14102981977216014	0.4375539844622727	386.045776	321.357117	-8.060687	63.476025	-6.474345	66.45134	0.0		True	0.0	None	0.0	None	0.0	None	0.0	None	0.0	None	0.0	None	0.0	None	0.0	None	5.202900000000001e-07	12
2014-01-18 08:00:00	45.80153988607626	774063307.9878	2.6173928343852097e+21	892671324810.1057	4.319682799208385	307059062778.8697	1.5403653477083133e+21	-8.197756304780761e+23	886.9770457047628	-0.7974547486983183	15.413427003244445	0.0	21.6915049681033	80.31120992086123	80.89971492831748	29.77403306754362	-0.0019440516648102546	4.599643271631704e+22	-0.2712954696543907	-0.006209368088999781	-1.4790518064081357e+23	-0.04474404011182749	0.14387801280493626	0.4719512313938585	386.049927	321.248108	-8.072947000000001	63.586838	-6.486584	66.558975	0.0		True	0.0	None	0.0	None	0.0	None	0.0	None	0.0	None	0.0	None	0.0	None	0.0	None	9.8699e-07	12
2014-01-18 08:12:00	47.55924400815075	781613091.5602	2.530390941863644e+21	934106249391.3488	4.4035179699863845	325239917494.93243	1.561499537581179e+21	-8.377967772959863e+23	849.8446002857205	-0.8071130397871693	15.028016549379599	0.0	21.432280314700453	82.45094335304279	82.92566857063393	30.39407232882307	-0.001964102573588932	4.686791479526892e+22	-0.28479546799618755	-0.006235232095746206	-1.5024452656869332e+23	-0.04515140927252737	0.14474192290596574	0.5528634395414896	386.054016	321.1390990000001	-8.074817	63.70433000000001	-6.488457	66.68962900000001	0.0		True	0.0	None	0.0	None	0.0	None	0.0	None	0.0	None	0.0	None	0.0	None	0.0	None	1.1476e-06	12
2014-01-18 08:24:00	46.256769347213144	787881092.6487	2.5333182074020645e+21	935687574721.7798	2.168103376503583	181749412227.75006	1.5908923682579258e+21	-8.458622345533666e+23	823.286985343151	-0.8084003561416736	14.934521506280436	0.1294777729823047	21.354146119697198	79.64378281925275	80.13581523507328	28.34737704035643	-0.0009357373226169973	5.176423031432796e+22	-0.1539971139883042	-0.003043369746241841	-1.50109726299919e+23	-0.049471675778973684	0.14346160786485335	0.0	386.058105	321.03006	-8.092286999999999	63.836426	-6.500546	66.797935	0.0		True	0.0	None	0.0	None	0.0	None	0.0	None	0.0	None	0.0	None	0.0	None	0.0	None	4.808e-07	12
2014-01-18 08:36:00	48.05963289591794	787728479.3197	2.5583789224791905e+21	957222528069.4376	3.029318294154174	214032488572.8365	1.5975206013513708e+21	-8.468388763571734e+23	828.2141279509026	-0.8094904260226778	15.194189717515671	0.08598452278589852	21.357629523916856	79.02005350621657	79.49661274173877	28.49814443810925	-0.0013023724394471946	4.778448861394265e+22	-0.18064950985918546	-0.004250520024588757	-1.5438037964519515e+23	-0.0456770315172229	0.14757168426904285	1.3004294399683836	386.062134	320.92099	-8.092458	63.94035	-6.513709	66.945297	0.0		True	0.0	None	0.0	None	0.0	None	0.0	None	0.0	None	0.0	None	0.0	None	0.0	None	4.5203e-07	12
2014-01-18 08:48:00	46.987262673546546	797138267.8967	2.578715871546353e+21	951362394806.3092	2.7541762507692997	294177118139.1021	1.626945808615957e+21	-8.589164114472349e+23	809.3955937789027	-0.8113436338398345	15.251688066455381	0.041684035014589414	21.5785830222481	77.61580686098337	78.21235319223669	27.75998421027111	-0.0011480517927341806	4.786346257894907e+22	-0.2342476941370297	-0.003814935652792849	-1.57530643938754e+23	-0.0452124504077509	0.1488054988715855	1.3546169280177305	386.066162	320.8119200000001	-8.100221000000001	64.05819699999999	-6.519265	67.094551	0.0		True	0.0	None	0.0	None	0.0	None	0.0	None	0.0	None	0.0	None	0.0	None	0.0	None	5.4197e-07	12
2014-01-18 09:00:00	51.64596041632379	815551589.5552001	2.726252035868762e+21	1046249696799.7532	1.9818879181487496	214351352030.5005	1.6747140164455422e+21	-8.764360334989582e+23	823.7690542513507	-0.8092007832310553	15.509857415539198	0.08025682182985554	21.742422827165985	76.50818669349766	76.90044562581943	28.496086164733768	-0.0007953001276680378	4.564107224154525e+22	-0.16886868361353746	-0.002686401245901018	-1.6468756488528693e+23	-0.04213974550763093	0.15205365982222346	1.6370421669655049	386.07019	320.7028200000001	-8.10025	64.149429	-6.526679	67.236824	0.0		True	0.0	None	0.0	None	0.0	None	0.0	None	0.0	None	0.0	None	0.0	None	0.0	None	5.4909e-07	12
2014-01-18 09:12:00	52.14618834961895	842859046.7061001	2.787212308551364e+21	1039285308664.8212	2.50473227835502	142306010357.69064	1.7101900730496464e+21	-9.11015217412737e+23	840.1661480740147	-0.8138759974383927	15.229282023676813	0.0	21.279064370539427	77.44787910038123	77.93415762460677	27.979930437630113	-0.0010026950673959248	4.913090606591625e+22	-0.108486016566	-0.0032766402489948325	-1.7542042925768636e+23	-0.043892203352003535	0.15671579805070154	0.9968742141161464	386.074158	320.5936890000001	-8.107769000000001	64.27520799999999	-6.539502	67.32923100000001	0.0		True	0.0	None	0.0	None	0.0	None	0.0	None	0.0	None	0.0	None	0.0	None	0.0	None	5.8925e-07	12
2014-01-18 09:24:00	55.77119372435767	877642748.2997999	2.9856849758921677e+21	1144897493230.0547	5.079045885902973	324558947464.9517	1.7741078834084035e+21	-9.433629355771708e+23	862.6945646738315	-0.8093726609444394	15.492113189733985	0.2686108979278588	21.479000226283866	79.2168947376176	80.06059038954929	28.17811882887705	-0.001948981537184564	6.017802191406655e+22	-0.2431079236224561	-0.006396852538170448	-1.7831306829717806e+23	-0.051630654427991834	0.1529864245520259	0.0	386.078064	320.4845279999999	-8.107271	64.390091	-6.534559	67.46685	0.0		True	0.0	None	0.0	None	0.0	None	0.0	None	0.0	None	0.0	None	0.0	None	0.0	None	5.2159e-07	12
2014-01-18 09:36:00	55.87671988554817	901492381.6958	2.8951856612964927e+21	1108514477465.3052	5.149555116517192	415386973898.6849	1.7946336707918449e+21	-9.786468070487352e+23	850.2485901545251	-0.8174316416828721	14.964753449987937	0.1170046801872075	20.96738356139475	81.59059030993247	82.6430740741547	27.279123747509214	-0.0020084068317149733	6.282269882255715e+22	-0.3180649280107157	-0.006286075033408289	-1.7630605234546036e+23	-0.05247374380991998	0.14726267410199514	1.2521467882978523	386.08197	320.375336	-8.102502000000001	64.397614	-6.529619	67.570038	0.0		True	0.0	None	0.0	None	0.0	None	0.0	None	0.0	None	0.0	None	0.0	None	0.0	None	5.0956e-07	12
2014-01-18 09:48:00	53.19604609650596	888380794.4013	2.895271631523001e+21	1036661256727.3951	2.11145818054701	247577466133.6513	1.7296854097024655e+21	-9.624842018745116e+23	904.2315660553496	-0.815796819528632	15.09785233315522	0.08295313148071339	20.56291185868687	83.69877931711241	84.51977664184218	28.825056558025885	-0.0008757603403347201	6.68397873301006e+22	-0.18061068473152234	-0.0026178578927580744	-1.770998985954335e+23	-0.05665307110046002	0.15010899267917005	0.0	386.085876	320.266113	-8.121416	64.465919	-6.530427	67.705513	0.0		True	0.0	None	0.0	None	0.0	None	0.0	None	0.0	None	0.0	None	0.0	None	0.0	None	5.359700000000001e-07	12
2014-01-18 10:00:00	57.38894768688072	911641502.2341	3.1040911328843546e+21	1135163513530.8667	3.2736786547949417	304755516020.99	1.7739684935366022e+21	-9.75829195855779e+23	934.5623431768976	-0.8060040533288648	15.45303072336997	0.1599360255897641	21.21537978698099	83.67185216834457	84.29619094086638	30.164198230478245	-0.0013089478827648705	6.736960787200396e+22	-0.22425064668153896	-0.00397670370189406	-1.838583252167366e+23	-0.05564516541072685	0.151861161760985	0.0	386.089783	320.1568910000001	-8.145619	64.53218100000001	-6.525333	67.808243	0.0		True	0.0	None	0.0	None	0.0	None	0.0	None	0.0	None	0.0	None	0.0	None	0.0	None	5.341600000000001e-07	12
2014-01-18 10:12:00	61.624729518838436	929508401.1907	3.4061397409705246e+21	1224624796899.7075	0.7346308969162254	198065415274.5479	1.7877364493435548e+21	-9.838809872708548e+23	1018.5779647236908	-0.7970338932935643	16.379600585132707	1.5091342335186655	22.153028937598425	83.24714518366287	84.36780152298502	30.796198706228534	-0.00029175174619389414	7.626641676852632e+22	-0.15443587932377786	-0.0008796088652588637	-1.888862153376681e+23	-0.06178279677218111	0.1530151690578642	0.0	386.09359700000016	320.047607	-8.163291000000001	64.601326	-6.513567	67.936302	0.0		True	0.0	None	0.0	None	0.0	None	0.0	None	0.0	None	0.0	None	0.0	None	0.0	None	5.000899999999999e-07	12
2014-01-18 10:24:00	66.04014719872751	945674959.0673	3.395715422271198e+21	1256096673277.3662	1.9988413965256129	380093297143.2598	1.7925275732235e+21	-1.0005253121494986e+24	1035.6135262913763	-0.7966612767940329	15.767654861744573	0.12150668286755772	21.549761051284765	85.25576191256185	85.25244800397567	31.74088281551811	-0.0008095752922339461	8.302726311812998e+22	-0.3022526080985328	-0.002352882469401939	-1.9613551431524364e+23	-0.06610987712274911	0.15617153045668164	0.0	386.097443	319.9382930000001	-8.163615	64.678947	-6.50236	68.034126	0.0		True	0.0	None	0.0	None	0.0	None	0.0	None	0.0	None	0.0	None	0.0	None	0.0	None	4.5777e-07	12
2014-01-18 10:36:00	64.88507096492475	973534374.9899	3.412671149621081e+21	1220253259159.6038	1.3058082580145394	281843695715.6356	1.822713959629609e+21	-1.0333877786898104e+24	1039.9421965255683	-0.7992810842071939	15.486503946059573	0.16187778227438285	21.47883274676404	87.92811336966786	88.51476195707411	32.03867443531197	-0.0005284533622074217	8.691709021889665e+22	-0.22394563606449386	-0.001490936343474183	-1.997808011287171e+23	-0.06722663799486175	0.15452187322400476	0.0	386.101196	319.828949	-8.170621	64.805054	-6.497019	68.177551	0.0		True	0.0	None	0.0	None	0.0	None	0.0	None	0.0	None	0.0	None	0.0	None	0.0	None	4.8806e-06	12
2014-01-18 10:48:00	65.33438792337307	971191636.4269	3.4362399151354843e+21	1221873099590.0918	2.7032199308790785	332147847204.1668	1.7972171783310006e+21	-1.0288033997167236e+24	1068.3088046356047	-0.7976546939629752	15.736811861810606	0.3715937241948801	21.645936273411692	88.39487504885712	89.1531622115221	32.079367338126275	-0.0011161106238146484	9.280990947203448e+22	-0.2692593519492093	-0.003096707383868576	-1.9286980398353105e+23	-0.0719576354015072	0.14953634923207154	1.1296183499669468	386.104919	319.719574	-8.170436	64.888153	-6.485186	68.29541800000001	0.0		True	0.0	None	0.0	None	0.0	None	0.0	None	0.0	None	0.0	None	0.0	None	0.0	None	3.35e-06	12
2014-01-18 11:00:00	62.749574629051075	962548012.4151	3.3911248996354663e+21	1161212046751.4038	3.8593095368457746	367811989338.279	1.7782346332633238e+21	-1.0210572649244593e+24	1066.6137446273967	-0.7987580246913808	15.63173298984115	0.0835421888053467	21.29088224088169	90.03847990736546	90.44301958806903	31.371835128812986	-0.001612075829927224	1.0025816938564323e+23	-0.3016630981535776	-0.0044580451471705395	-1.908009515733828e+23	-0.07843048581959307	0.14926076766053498	0.0	386.108582	319.610138	-8.181137	65.008583	-6.478046	68.409851	0.0		True	0.0	None	0.0	None	0.0	None	0.0	None	0.0	None	0.0	None	0.0	None	0.0	None	1.5487e-06	12
2014-01-18 11:12:00	60.04929283746112	942107167.7523	3.2405838100571897e+21	1106133242874.6416	4.080019528306462	404205344071.6874	1.7550124093331693e+21	-9.991002877413472e+23	1026.1219357402063	-0.7985393834817932	15.342612831986127	0.42052144659377627	21.411063906514872	88.08422158388845	88.30722330971274	31.22169505737348	-0.0017157357141742895	9.446175278022529e+22	-0.2970973011036893	-0.004815839197016398	-1.7781812565022166e+23	-0.0754993575252165	0.14212264591537824	0.0	386.112213	319.500671	-8.175346000000001	65.095047	-6.472139	68.54145799999999	0.0		True	0.0	None	0.0	None	0.0	None	0.0	None	0.0	None	0.0	None	0.0	None	0.0	None	1.1487000000000001e-06	12
