Timestamp	TOTUSJH	TOTBSQ	TOTPOT	TOTUSJZ	ABSNJZH	SAVNCPP	USFLUX	TOTFZ	MEANPOT	EPSZ	MEANSHR	SHRGT45	MEANGAM	MEANGBT	MEANGBZ	MEANGBH	MEANJZH	TOTFY	MEANJZD	MEANALP	TOTFX	EPSY	EPSX	R_VALUE	CRVAL1	CRLN_OBS	LAT_MIN	LON_MIN	LAT_MAX	LON_MAX	QUALITY	NOAA_AR	IS_TMFI	BFLARE	BFLARE_label	CFLARE	CFLARE_label	MFLARE	MFLARE_label	XFLARE	XFLARE_label	BFLARE_loc	BFLARE_label_loc	CFLARE_loc	CFLARE_label_loc	MFLARE_loc	MFLARE_label_loc	XFLARE_loc	XFLARE_label_loc	XR_MAX	XR_QUAL
2014-01-17 08:36:00	417.39511772363073	5605346439.657	4.8451704801064684e+22	7715858070516.701	21.258107925548803	797910592166.3729	8.162749944350375e+21	-4.1492833564885073e+24	3023.1610317516456	-0.557388692938484	24.79996430489573	9.70334769638714	30.276108234789852	95.37557682388552	95.3955568441198	41.59737681109894	0.0017615270074203516	-6.569518529359228e+22	-0.07276872521385237	0.004870293416269874	-1.2771844129177826e+24	0.008825079011749181	0.17156894080140891	3.9569976967694416	390.922668	334.088562	-20.085369	51.213127	-13.487514	61.56055799999999	0.0	11953.0	True	0.0	None	0.0	None	0.0	None	0.0	None	0.0	None	0.0	None	0.0	None	0.0	None	2.2059e-06	12
2014-01-17 08:48:00	415.42082010808883	5575571448.605	4.7351512812007046e+22	7572914490907.711	16.601351561741346	794694329153.4277	8.101221831111139e+21	-4.1680798331362624e+24	3018.802725968071	-0.5629038090920799	24.356882242634892	8.661417322834646	29.91605598784127	96.23088536906376	96.32754127574906	41.67023446287885	0.0014055839100619205	-5.121226692952661e+22	-0.09561091386032496	0.003810235395580017	-1.2668903593887696e+24	0.006916273507453344	0.17109494960545749	3.975223440413852	390.925476	333.979492	-20.077597	51.321186	-13.483268	61.675701	0.0	11953.0	True	0.0	None	0.0	None	0.0	None	0.0	None	0.0	None	0.0	None	0.0	None	0.0	None	1.3413999999999998e-06	12
2014-01-17 09:00:00	412.6167364698322	5551129492.7726	4.7076702429408265e+22	7448980014340.237	20.085670592881915	1030802287298.8054	8.009724634703038e+21	-4.1562260624099375e+24	3078.699840731073	-0.5637743890789114	24.168604775250426	8.745874587458747	29.559713812871642	97.01729150038608	97.00726577577068	41.60540762639505	0.0017444563655447207	-5.815611941175707e+22	-0.07712705667096016	0.004627653966983058	-1.2570924094172868e+24	0.00788863026222218	0.17051923896652216	3.9219451336853672	390.928284	333.870392	-20.070316	51.443497	-13.49381	61.784214	4096.0	11953.0	True	0.0	None	0.0	None	0.0	None	0.0	None	0.0	None	0.0	None	0.0	None	0.0	None	1.0166e-06	12
2014-01-17 09:12:00	413.54437445849953	5565563322.6468	4.7692836982311115e+22	7706301308460.91	16.159462504038952	870327496484.5175	8.086823692619071e+21	-4.1590913669946543e+24	3038.762367655791	-0.562699981419032	24.75294414672668	9.468607209341682	30.06449441339952	96.3108668710952	96.91163724575443	41.45750691926482	0.0013675916134088485	-4.5288625494724176e+22	-0.14460373163747992	0.003716021669146173	-1.282913804609833e+24	0.006127277925800747	0.17357050141887412	3.8362437841487367	390.931152	333.761292	-20.063541	51.553841	-13.49056	61.91036999999999	4096.0	11953.0	True	0.0	None	0.0	None	0.0	None	0.0	None	0.0	None	0.0	None	0.0	None	0.0	None	1.1064e-06	12
2014-01-17 09:24:00	409.1521518656916	5480008344.7906	4.669191432687105e+22	7497423301102.183	16.540958926600688	471075649431.3669	7.894462998507098e+21	-4.121563392684351e+24	3082.448202557296	-0.5663282668698909	24.89156602068909	9.652814308258812	29.94369703155945	96.80370912835251	98.27852369963631	41.116976113819256	0.0014501980472208212	-4.172305850379716e+22	-0.08109635437471423	0.0038541327884697853	-1.2699782744276444e+24	0.005733005939665314	0.17450285888981454	3.9539968138025015	390.933868	333.65213	-20.056568	51.661613	-13.487146	62.004089	0.0	11953.0	True	0.0	None	0.0	None	0.0	None	0.0	None	0.0	None	0.0	None	0.0	None	0.0	None	6.0101e-06	12
2014-01-17 09:36:00	406.68106051255205	5465215647.5114	4.7131402716581215e+22	7405202224660.893	13.982865273132164	910926303582.338	7.803430740590507e+21	-4.065767484905249e+24	3198.3898976222185	-0.5601737103798362	24.45115111616873	9.120403749098774	29.78836618944032	98.69647580010772	99.38906142692447	42.228332810817854	0.0012601717081049176	-3.4584985171751e+22	-0.16119987350932866	0.003279789039359529	-1.2695573991229173e+24	0.004765053471212672	0.17491720356542545	3.9245779119522943	390.936584	333.542938	-20.049341	51.78178	-13.501421	62.128807	0.0	11953.0	True	0.0	None	0.0	None	0.0	None	0.0	None	0.0	None	0.0	None	0.0	None	0.0	None	4.7393e-06	12
2014-01-17 09:48:00	408.934236415457	5447884039.3847	4.729760178389585e+22	7483651806798.3125	9.832434059838665	743083233500.4214	7.773662714368588e+21	-4.056884142774792e+24	3241.216051514909	-0.5607280238502499	24.49471646166273	8.791408809610484	29.52904367506399	100.1268662087096	101.13425873990327	42.35856343344073	0.0008948338241571408	-4.231993823082422e+22	-0.13279174019450327	0.002312788689988578	-1.2772013468039195e+24	0.005849310578882858	0.17653020447421622	3.943938869670676	390.939331	333.433746	-20.04178	51.892452	-13.501312	62.238388	0.0	11953.0	True	0.0	None	0.0	None	0.0	None	0.0	None	0.0	None	0.0	None	0.0	None	0.0	None	3.8031e-06	12
2014-01-17 10:00:00	406.32081884987747	5446951122.580501	4.731764079172303e+22	7378205512293.33	9.554415312230477	1438535717471.1772	7.704856932173567e+21	-4.050534705392855e+24	3297.202520191765	-0.5599463044087237	24.563087351292747	9.078289838978346	29.990118320506053	100.22055025138602	102.04310552174809	42.41738751487854	0.0008841768750907342	-4.194597311009947e+22	-0.2614042958403745	0.0022489043432569198	-1.2678024630089282e+24	0.005798615327639782	0.1752611335330541	3.9617570241108977	390.941986	333.324493	-20.034552	52.015911	-13.497675	62.355621	0.0	11953.0	True	0.0	None	0.0	None	0.0	None	0.0	None	0.0	None	0.0	None	0.0	None	0.0	None	2.7237e-06	12
2014-01-17 10:12:00	394.7446250417546	5400930632.7799	4.703239043223436e+22	7136814812435.919	7.354266875513527	1088166429907.2832	7.613174223857502e+21	-4.0083141048738815e+24	3316.3010244873326	-0.5588311762794861	24.733059627337745	9.420357711396196	30.03076002200255	99.55236535551548	101.15397405265043	42.053189593776345	0.0006887307431647807	-4.128446366932645e+21	-0.20009073988593168	0.0017472691015569548	-1.2595623929713293e+24	0.0005755797772021989	0.1756056824004114	3.963061847395127	390.944611	333.21521	-20.02737	52.129387	-13.511897	62.46885699999999	0.0	11953.0	True	0.0	None	0.0	None	0.0	None	0.0	None	0.0	None	0.0	None	0.0	None	0.0	None	2.2579e-06	12
2014-01-17 10:24:00	398.82916344866106	5371417551.4284	4.6671708494401045e+22	7148813155181.695	16.133392370534693	1649190679365.442	7.5338706429111e+21	-3.987702786476944e+24	3328.268557273328	-0.559012244468745	24.570001425577768	9.139123023013543	29.98767119007524	100.05973057489314	101.41603557126294	42.405115057186244	0.0015279280585789089	-1.8621260298555861e+22	-0.3067015615771292	0.0038531618504129305	-1.2447058331039056e+24	0.0026104033002743014	0.17448787904313295	3.996970052767697	390.947235	333.105927	-20.020477	52.240215	-13.508621	62.57867099999999	0.0	11953.0	True	0.0	None	0.0	None	0.0	None	0.0	None	0.0	None	0.0	None	0.0	None	0.0	None	1.8258000000000002e-06	12
2014-01-17 10:36:00	390.32661163192773	5378347184.1691	4.644506140686942e+22	6962300560865.424	13.683064782073838	837251718496.9597	7.522789789832713e+21	-4.023345818567448e+24	3357.900465359508	-0.5632822695607984	24.37423233961507	8.526164186269805	29.597162008731235	100.86761597460408	102.746503263536	42.440096045108966	0.001314036760018615	-1.5020270603961088e+22	-0.1578595554218521	0.003255568150388504	-1.2345144115876036e+24	0.002102889608984456	0.17283626884754738	3.9884108662459385	390.949829	332.996582	-20.01219	52.361847	-13.519647	62.693859	0.0	11953.0	True	0.0	None	0.0	None	0.0	None	0.0	None	0.0	None	0.0	None	0.0	None	0.0	None	1.5034999999999999e-06	12
2014-01-17 10:48:00	391.09270715184135	5345420072.1293	4.638281599062751e+22	6919910939717.115	12.20883178633378	1276458281831.169	7.458790217728126e+21	-3.980343643924623e+24	3376.0909508502587	-0.5606944398461866	24.388987537990523	8.825519574673756	29.71460931668427	101.3534939795302	103.08911296726944	42.495314455954244	0.0011801674032222115	-1.0619914885439915e+22	-0.2423018336066883	0.002926876397299851	-1.2140032306014066e+24	0.0014959832015998358	0.17101158147299078	4.077034971614451	390.952332	332.887177	-20.004274	52.47330899999999	-13.521354	62.80448199999999	0.0	11953.0	True	0.0	None	0.0	None	0.0	None	0.0	None	0.0	None	0.0	None	0.0	None	0.0	None	1.3627e-06	12
2014-01-17 11:00:00	397.3995748784878	5319857543.3471	4.6836810933177655e+22	7129365379151.692	15.659747372107143	1105096089736.4526	7.420140965461782e+21	-3.895659073927344e+24	3406.830628708157	-0.5514021176770649	24.67378975428967	9.8048686244204	30.28050973353455	99.98594663925924	101.57048341977308	43.30644862152049	0.0015127267554199328	-2.6804596453562977e+21	-0.2096347130788278	0.003794812867785577	-1.1880182301410196e+24	0.000379399505128498	0.16815531223534744	4.058394954373056	390.954834	332.777771	-19.994165	52.584763	-13.514787	62.914974	0.0	11953.0	True	0.0	None	0.0	None	0.0	None	0.0	None	0.0	None	0.0	None	0.0	None	0.0	None	1.1786e-06	12
2014-01-17 11:12:00	390.1479646830378	5312531596.4497	4.630138728806789e+22	7044410725499.301	13.026030436625135	849402402238.2517	7.401085956091167e+21	-3.927823790779746e+24	3405.7191519833063	-0.5567215101688672	24.356413013860358	9.280062518315912	29.86662373395829	101.60359037462456	103.1933234609799	43.43114611605958	0.00127244607176176	-2.421680281024671e+21	-0.16294291632105953	0.003150138379029441	-1.185853076185469e+24	0.00034324388643986966	0.16808032910287735	3.96447623132832	390.957306	332.668304	-19.987583	52.71027	-13.523637	63.026829000000006	0.0	11953.0	True	0.0	None	0.0	None	0.0	None	0.0	None	0.0	None	0.0	None	0.0	None	0.0	None	1.0384e-06	12
2014-01-17 11:24:00	380.49143644627213	5285843735.7121	4.538680382060439e+22	6884673750710.424	12.229250197485873	1267795797456.033	7.380239773424373e+21	-3.9110793510938335e+24	3334.212632455241	-0.5571470879208569	24.068542842047954	8.995121951219513	29.9879559947748	100.8205129466987	102.38906988265892	42.918814977039524	0.0011930975802425241	-1.0069711423375682e+22	-0.2429001341098637	0.0029715693350335862	-1.160262533192574e+24	0.0014344660110688064	0.16528350195991967	4.005861237451798	390.959717	332.558807	-19.981636	52.824787	-13.526868	63.135571	0.0	11953.0	True	0.0	None	0.0	None	0.0	None	0.0	None	0.0	None	0.0	None	0.0	None	0.0	None	9.0956e-07	12
2014-01-17 11:36:00	378.4317888654756	5243272403.863701	4.4778095276666416e+22	6742804111050.121	21.645908012381888	1207828018425.1292	7.299538747330159e+21	-3.889285594658317e+24	3349.625306454961	-0.5585408644255953	24.047573720565016	9.298629048281343	29.990837551615872	101.28671786330895	102.73734483808859	43.16533322035872	0.0021503981732944447	-1.1442840949084096e+22	-0.12798414503522276	0.005297673503512026	-1.1677268581072397e+24	0.001643308036818911	0.1676974222813538	4.066785316966885	390.962097	332.44928	-19.973595	52.939671	-13.526459	63.250298	0.0	11953.0	True	0.0	None	0.0	None	0.0	None	0.0	None	0.0	None	0.0	None	0.0	None	0.0	None	7.8862e-07	12
2014-01-17 11:48:00	383.5613189379831	5242292375.4459	4.407977120284245e+22	6802639914672.537	26.85516006772071	1030911589096.5645	7.340659478826686e+21	-3.9224150123251386e+24	3269.7755750691554	-0.5634037651395738	23.65988503392134	8.65924539454241	29.83744163567945	101.67663998825779	103.30543558309645	42.84717752141808	0.0026455679310137628	-1.7916235834138332e+22	-0.10731108111459804	0.006553379955819456	-1.178233466488128e+24	0.002573433635748426	0.16923787236867666	4.094064613856759	390.964386	332.339691	-19.967981	53.063034	-13.538714	63.356171	0.0	11953.0	True	0.0	None	0.0	None	0.0	None	0.0	None	0.0	None	0.0	None	0.0	None	0.0	None	7.1852e-07	12
2014-01-17 12:00:00	382.5195224067669	5226715527.2596	4.4627571377988425e+22	6818467541587.308	21.087150710995648	922590065581.97	7.289064560120253e+21	-3.8716524609423615e+24	3317.2737727760937	-0.5577698173511487	23.79468358908659	9.545903257650544	30.198629320359416	102.11032191452549	104.59146051177044	43.37656273485557	0.002081653574629383	-3.1348244986754585e+22	-0.11165145264060801	0.005179832893570349	-1.1658665706800662e+24	0.004516186578452677	0.1679606294067394	4.093869998342783	390.966736	332.230072	-19.9594	53.1754	-13.537952	63.462112	0.0	11953.0	True	0.0	None	0.0	None	0.0	None	0.0	None	0.0	None	0.0	None	0.0	None	0.0	None	9.0639e-07	12
2014-01-17 12:12:00	380.8588408035298	5204974231.960899	4.46875906707576e+22	6836677283053.508	18.949078912603134	771210836632.3633	7.309558668808261e+21	-3.860076360574147e+24	3281.565390539017	-0.5584248647642363	23.94904561189907	9.762044080358883	30.372689926290906	101.05167994450524	103.60919716085311	43.102777591015304	0.0018479694668035048	-2.8939403264978447e+22	-0.14771182993426668	0.004672116328027782	-1.1602654346866016e+24	0.004186570638773472	0.16785187854654554	4.109146734741533	390.968964	332.120422	-19.952076	53.298698	-13.551656	63.573986	0.0	11953.0	True	0.0	None	0.0	None	0.0	None	0.0	None	0.0	None	0.0	None	0.0	None	0.0	None	1.0294e-06	12
2014-01-17 12:24:00	378.7860394257009	5203787787.012	4.415393165146449e+22	6832424039113.8125	18.87603748285222	870124754272.82	7.297499700318676e+21	-3.880714369398969e+24	3273.0194516717524	-0.5615384708379273	23.864665048945533	9.529434928135457	30.286178673352648	101.6564517097489	103.75952856667948	43.45834058062667	0.0018582435009698976	-1.8536243523128484e+22	-0.1682355211031923	0.004645886129220261	-1.1545482036951144e+24	0.002682190146519101	0.16706285778822735	4.0989208486338775	390.971161	332.010712	-19.945093	53.413048	-13.548445	63.688152	0.0	11953.0	True	0.0	None	0.0	None	0.0	None	0.0	None	0.0	None	0.0	None	0.0	None	0.0	None	6.3005e-07	12
2014-01-17 12:36:00	382.4605349855292	5203285860.689301	4.433293545225981e+22	6852548095457.138	13.329267473115511	931496565339.8632	7.315831591640017e+21	-3.8774497623052606e+24	3243.5024722684784	-0.5611203454347057	24.053039306239427	9.988340458608633	30.674181687829442	99.98060261028016	102.20280361257988	42.88048510754505	0.0012952353972515314	-9.562404755798827e+21	-0.1777604341047157	0.003281935938286883	-1.153958158383374e+24	0.001383811574278209	0.1669936272918496	4.0520431109161565	390.973328	331.9009700000001	-19.938581	53.530102	-13.549807	63.794136	0.0	11953.0	True	0.0	None	0.0	None	0.0	None	0.0	None	0.0	None	0.0	None	0.0	None	0.0	None	6.286e-07	12
2014-01-17 12:48:00	377.7578273019479	5188156369.9554	4.357308166244729e+22	6774096613033.799	19.988900087854336	1003222424457.5868	7.297754720475801e+21	-3.88490570766812e+24	3226.151697715859	-0.5638387071898813	23.39174349239143	8.770894788593903	30.17752606893395	100.43433912148502	103.08781094182676	42.98348584668927	0.0019654769014606035	-1.9478132916233886e+22	-0.09083690164740754	0.00492735527792386	-1.1439236388933352e+24	0.0028269734475882963	0.16602421634184567	4.068149011245017	390.975494	331.791199	-19.933483	53.654976	-13.561721	63.908089	0.0	11953.0	True	0.0	None	0.0	None	0.0	None	0.0	None	0.0	None	0.0	None	0.0	None	0.0	None	1.4053e-06	12
2014-01-17 13:00:00	380.50204149794035	5164149433.5802	4.3685832059915245e+22	6935065487127.11	22.515646906501736	1120831542394.1523	7.302691000823002e+21	-3.858783570981865e+24	3210.5082492539345	-0.5626510708720132	23.489782682294827	8.88151473745852	30.35679445513629	99.52486553213552	102.03110206115913	42.761616781164754	0.0021975060420165653	-1.2348935683268204e+22	-0.05162948784329376	0.005580249410985357	-1.149427525677798e+24	0.0018006041952108036	0.167598575125016	4.081022903073489	390.97757	331.681366	-19.925438	53.771317	-13.561607999999998	64.013176	0.0	11953.0	True	0.0	None	0.0	None	0.0	None	0.0	None	0.0	None	0.0	None	0.0	None	0.0	None	1.3287999999999999e-06	12
2014-01-17 13:12:00	377.2479112362275	5144302185.0532	4.352518019206336e+22	6792662621886.112	20.138479190075614	1356374991835.8806	7.296491007534939e+21	-3.836082538115808e+24	3183.4773487714233	-0.5614990275207032	23.59488842339247	9.101505585235552	30.442201481585087	98.35868470087095	100.83077449720035	42.28179230724355	0.0019561417377441104	-1.2182059195285369e+22	-0.04683975802294391	0.005014047874073998	-1.1386245258273243e+24	0.0017831249258552515	0.16666392279382272	4.062180345861141	390.979614	331.571503	-19.919352	53.887901	-13.559343	64.123352	0.0	11953.0	True	0.0	None	0.0	None	0.0	None	0.0	None	0.0	None	0.0	None	0.0	None	0.0	None	7.996599999999998e-07	12
2014-01-17 13:24:00	376.12027632884974	5134798367.836201	4.373101677297194e+22	6742024358285.168	16.148241759433116	828179989129.3849	7.288217985912283e+21	-3.816560658927028e+24	3193.258875816381	-0.55967541769478	23.93458811643553	10.027152831652444	30.56158937996944	98.11623146628372	100.75359247569271	42.56858554461795	0.0015659660356316055	-2.465937110094591e+22	-0.10016370130762524	0.004032715798969997	-1.1351329150804352e+24	0.0036161468542969546	0.1664603409094887	4.084665460813271	390.981659	331.461609	-19.912888	54.001366	-13.569501	64.231422	0.0	11953.0	True	0.0	None	0.0	None	0.0	None	0.0	None	0.0	None	0.0	None	0.0	None	0.0	None	7.276999999999998e-07	12
2014-01-17 13:36:00	377.59138776994456	5103159882.666401	4.2786283613338724e+22	6701790315463.543	16.44988730169043	705642913918.8159	7.281751499138025e+21	-3.824917806494535e+24	3126.7002710378943	-0.5643785087740463	23.79541953389369	9.743788819875775	30.37369893641047	97.6520825466128	99.83882846476948	41.914449541567286	0.0015964564539684035	-1.088015874662405e+22	-0.122481840386042	0.004121088172216829	-1.1393209950274016e+24	0.0016054012345620196	0.16811035340334085	4.083672355556149	390.983612	331.351654	-19.904652	54.11753100000001	-13.569308	64.34770999999999	0.0	11953.0	True	0.0	None	0.0	None	0.0	None	0.0	None	0.0	None	0.0	None	0.0	None	0.0	None	6.9554e-07	12
2014-01-17 13:48:00	373.5467090224231	5086670122.022501	4.227521705530755e+22	6613802057043.418	15.472490563999946	757325052030.1671	7.261917432846086e+21	-3.843486302104541e+24	3106.8401802676976	-0.5689566558722674	23.62508305050919	9.193831739215305	30.206705817243325	97.3658726988595	99.9067342499226	41.99194439702879	0.001510100582080807	1.200524818250895e+20	-0.1227013908041445	0.00387744550108454	-1.1456832564310024e+24	-1.7771536885917393e-05	0.1695970957177364	4.043476610119468	390.985535	331.2416990000001	-19.894918	54.233681	-13.580285	64.46390500000001	0.0	11953.0	True	0.0	None	0.0	None	0.0	None	0.0	None	0.0	None	0.0	None	0.0	None	0.0	None	7.8795e-07	12
2014-01-17 14:00:00	367.8056837076229	5027289865.771999	4.2313866057380025e+22	6560227935790.968	12.315953818216965	738972080373.472	7.182474053363313e+21	-3.764388401118184e+24	3146.533060518833	-0.5638297861777508	23.602013506325523	9.381789452893539	30.230263930954514	97.63554153344879	100.27372595682637	41.73181271007418	0.001216270375095493	-2.218681987632101e+22	-0.14335434137091013	0.003133102764850395	-1.1163423585683216e+24	0.003323140062570181	0.16720566696724926	4.0149393233404265	390.987396	331.131653	-19.887527	54.350632	-13.581006	64.56958	0.0	11953.0	True	0.0	None	0.0	None	0.0	None	0.0	None	0.0	None	0.0	None	0.0	None	0.0	None	7.2538e-06	12
2014-01-17 14:12:00	361.6894809529216	5000386226.9932	4.246105288990787e+22	6370128223690.492	13.306479113555453	698028145619.7577	7.11401787627081e+21	-3.726394663009913e+24	3180.0903601192163	-0.5611421362172742	23.957015325780468	10.135269544459916	30.580706937142352	97.5344794877541	99.56749846907834	41.55062424682831	0.0013237643368041634	-2.9375224358238924e+21	-0.13638436252566688	0.0034096596611224482	-1.1104646980823292e+24	0.0004423491776614335	0.1672202193345968	4.014239230886342	390.989319	331.021606	-19.879295000000006	54.47856899999999	-13.593339000000002	64.680634	0.0	11953.0	True	0.0	None	0.0	None	0.0	None	0.0	None	0.0	None	0.0	None	0.0	None	0.0	None	6.047300000000001e-06	12
2014-01-17 14:24:00	367.2447404508392	4983331390.591701	4.210354350387477e+22	6439827050183.299	11.987796238483154	473121739834.2	7.100528076246982e+21	-3.720217710953462e+24	3184.993908454603	-0.5621292466422323	23.641048388683014	9.523809523809524	30.217250758387657	98.24702322733143	99.84647853301834	41.83183231884789	0.0012043194935185007	2.2868801385978395e+22	-0.09337174313926402	0.0030798716347942147	-1.0994554799644816e+24	-0.0034555026327790315	0.16612900875382108	3.9676057636868896	390.991089	330.91149900000005	-19.870501	54.58268399999999	-13.597000000000001	64.787575	0.0	11953.0	True	0.0	None	0.0	None	0.0	None	0.0	None	0.0	None	0.0	None	0.0	None	0.0	None	2.4259e-06	12
2014-01-17 14:36:00	375.57859499560027	4951173274.5018	4.186493052840425e+22	6627327123553.447	7.843782295441677	827719980539.6389	7.078669960331734e+21	-3.71103502597024e+24	3182.289078868866	-0.5643837555015839	23.621333877438587	8.681607106803957	30.053293852768522	100.05803120120208	101.73292502750022	42.051489195162674	0.0007918213502363898	1.0574745360332715e+22	-0.16414772902109434	0.0020253687456356613	-1.0842868942171843e+24	-0.0016082344839569807	0.1649011408183758	3.981801633498802	390.992859	330.801361	-19.862848	54.696007	-13.609839	64.893295	0.0	11953.0	True	0.0	None	0.0	None	0.0	None	0.0	None	0.0	None	0.0	None	0.0	None	0.0	None	2.0482e-06	12
2014-01-17 14:48:00	371.8420232289195	4925030718.766201	4.17680621248711e+22	6462275280037.106	8.454983038432736	914116815750.1523	7.033794983265393e+21	-3.685216403461555e+24	3192.65228245181	-0.5634322038923165	23.64899287642221	9.13612831184651	30.1835926573552	99.07167714178978	100.77977054780912	41.60137129843099	0.0008583739125312423	2.8391059908045107e+22	-0.18229747475245656	0.0021961567959070416	-1.091188537617071e+24	-0.004340705050537345	0.16683165798190933	3.9782057707002254	390.994659	330.691223	-19.853737	54.805336	-13.608991	65.014236	0.0	11953.0	True	0.0	None	0.0	None	0.0	None	0.0	None	0.0	None	0.0	None	0.0	None	0.0	None	1.5326e-06	12
2014-01-17 15:00:00	369.46160854031	4914150349.391901	4.0731939486852325e+22	6475048871613.591	5.899118838891032	1226973772253.5254	7.080127722749158e+21	-3.740560990713828e+24	3088.0611703813533	-0.5731599238113742	23.342128703413874	9.001208215867901	29.8879387790423	97.77206503332572	99.52096148857784	40.872616330800064	0.0005939507489821821	5.608005278872199e+22	-0.24269849355708786	0.001526145101135759	-1.0723548249938642e+24	-0.008593052984169569	0.16431514185120932	4.023034629884196	390.996368	330.581024	-19.8458	54.912666	-13.625759	65.125961	0.0	11953.0	True	0.0	None	0.0	None	0.0	None	0.0	None	0.0	None	0.0	None	0.0	None	0.0	None	1.2655e-06	12
2014-01-17 15:12:00	362.117077807892	4895762391.2013	4.075353239286696e+22	6327636799929.916	1.98312526444061	1642575237566.2483	6.993966453193355e+21	-3.736931111027324e+24	3159.686942435941	-0.5747543027624035	23.484886105830675	9.411037891268533	29.94921963153761	99.78680564026916	101.884321821237	41.44519785834114	0.00020419329329083712	7.0720102580379525e+22	-0.33227237801458515	0.0005144545440205926	-1.0804461310355798e+24	-0.010877022359317043	0.16617674885234207	4.079456567480047	390.998016	330.4707640000001	-19.839037	55.027874	-13.631661	65.240997	0.0	11953.0	True	0.0	None	0.0	None	0.0	None	0.0	None	0.0	None	0.0	None	0.0	None	0.0	None	1.079e-06	12
2014-01-17 15:24:00	374.00254874138034	4941447775.9098	4.045437131627813e+22	6558148001362.077	3.306871105623753	1094235283334.9138	7.109408741102785e+21	-3.8234548084589617e+24	3093.8067800928443	-0.5826252650023662	23.16881279429036	8.602478163721308	29.36175357934323	100.22666281783243	102.02511725895359	41.460305991558144	0.00033585934446716967	6.6126393002752165e+22	-0.2183421589853397	0.0008456973285704397	-1.098267631045212e+24	-0.01007646465747226	0.16735609589672118	4.068889508174643	390.999664	330.360504	-19.829466	55.132721	-13.638096	65.349632	0.0	11953.0	True	0.0	None	0.0	None	0.0	None	0.0	None	0.0	None	0.0	None	0.0	None	0.0	None	1.8622e-06	12
2014-01-17 15:36:00	376.3835283586361	4914414868.5051	4.036071342324085e+22	6642445202194.74	12.830216172134955	780329648513.5099	7.106371943770554e+21	-3.811639158034176e+24	3081.949168343604	-0.5840197844056156	23.17610997599433	8.711084068552886	29.0668488492754	99.15191376930387	100.9957781832143	41.071402262784225	0.0013011070045771177	6.429492858279618e+22	-0.15547217335570798	0.003296336591939325	-1.1137205665702067e+24	-0.009851276254771436	0.1706443916144174	4.022621181530583	391.001312	330.250214	-19.820848	55.251575	-13.642220000000002	65.463791	0.0	11953.0	True	0.0	None	0.0	None	0.0	None	0.0	None	0.0	None	0.0	None	0.0	None	0.0	None	1.5105000000000004e-06	12
2014-01-17 15:48:00	382.65234799090246	4915823111.474701	4.079673110486248e+22	6749992257529.466	2.5016807671843004	1361435934628.047	7.092575296857283e+21	-3.7839789379853454e+24	3112.717901214978	-0.579615525094828	23.15105020500269	8.410173269834836	29.163925999547555	99.0059885197573	100.83540667524069	40.70634384576937	0.00025348877973293144	6.553114038769082e+22	-0.2710366735462618	0.0006443387419691267	-1.1255478476743146e+24	-0.010037811247992046	0.17240714534643847	4.0257861825097	391.002899	330.13989300000014	-19.816319	55.361065	-13.645658	65.564728	0.0	11953.0	True	0.0	None	0.0	None	0.0	None	0.0	None	0.0	None	0.0	None	0.0	None	0.0	None	1.1418e-06	12
2014-01-17 16:00:00	379.3160058551985	4872199130.4155	4.084499963114257e+22	6511220191604.192	6.77525481709289	902085483644.7544	7.039961214933478e+21	-3.7133417679636486e+24	3137.3818806999907	-0.5738883159920538	22.919242794075647	8.395389166581657	29.04434786555737	97.29001801931969	99.17959878442484	40.1641736349826	0.0006911409585935826	5.704423011075319e+22	-0.1808010277706966	0.0017670819389711773	-1.1104489584502504e+24	-0.00881605281737262	0.17161729853635785	4.021389327284207	391.004456	330.029541	-19.809753	55.476471	-13.647383	65.68604300000001	0.0	11953.0	True	0.0	None	0.0	None	0.0	None	0.0	None	0.0	None	0.0	None	0.0	None	0.0	None	1.255e-06	12
2014-01-17 16:12:00	377.698252409432	4892631422.807899	4.114226435021028e+22	6632378298759.326	15.892820362759965	954760622933.9076	7.071069474548927e+21	-3.7529535603784186e+24	3163.1198834509446	-0.5775881196626274	22.997626547412338	8.301000612619973	28.87356020795621	97.940362712991	99.8057274378851	39.75519251045781	0.0016227098593792075	5.6463149688182855e+22	-0.1915378662745456	0.004118080604327457	-1.1354490213811928e+24	-0.008689807623235983	0.17474819623566182	4.023016866992598	391.005951	329.919159	-19.809698	55.587223	-13.651787	65.796936	0.0	11953.0	True	0.0	None	0.0	None	0.0	None	0.0	None	0.0	None	0.0	None	0.0	None	0.0	None	8.9898e-06	12
2014-01-17 16:24:00	380.59693382441793	4913501980.0403	4.1542816201806335e+22	6828940524396.622	18.41677618633376	813030579328.3595	7.139936629954714e+21	-3.7534139423100737e+24	3119.697114647012	-0.5752052476581111	23.558968618816053	9.37468834147801	29.399191789397264	95.34690789163841	97.37311955631846	39.62708766891928	0.0018370849063674573	6.392489617184229e+22	-0.12999080612368524	0.004759262884409565	-1.1403022581020987e+24	-0.009796397705981015	0.17474966866378622	4.050566960713644	391.007538	329.808777	-19.80587	55.707401	-13.652174	65.918549	0.0	11953.0	True	0.0	None	0.0	None	0.0	None	0.0	None	0.0	None	0.0	None	0.0	None	0.0	None	2.4844e-06	12
2014-01-17 16:36:00	382.9597272276558	4951747452.6	4.106868466723776e+22	6652812029386.896	12.915449234783065	1319254846024.5088	7.191894801686106e+21	-3.826304822586104e+24	3109.8339842073547	-0.5818467401681396	22.979925523852863	8.125502815768302	28.80023561619185	95.39745739458671	97.07814267664443	39.75993238043613	0.001298818305991861	6.6198974092650006e+22	-0.2606770346349309	0.003297741591777444	-1.1525171497791576e+24	-0.010066541758753664	0.17525742921172818	4.0358272408613525	391.009003	329.698364	-19.806114	55.824291	-13.650542000000002	66.030869	0.0	11953.0	True	0.0	None	0.0	None	0.0	None	0.0	None	0.0	None	0.0	None	0.0	None	0.0	None	1.8456e-06	12
2014-01-17 16:48:00	384.84543311581075	4970141840.054501	4.1108999597875555e+22	6689262756471.821	10.130964934636962	1060002370378.3156	7.227350629554285e+21	-3.839461182061965e+24	3098.242556168844	-0.581686472124103	23.031782375341944	8.477629866880191	28.987670431677017	95.61129193801334	97.26065865542006	39.9326670813355	0.001014009101655186	6.241403686058752e+22	-0.20846827295572154	0.002577458163307812	-1.145665261242892e+24	-0.009455858306909938	0.17357070496272606	4.033935749635082	391.010468	329.587921	-19.801405	55.934086	-13.658995	66.138092	0.0	11953.0	True	0.0	None	0.0	None	0.0	None	0.0	None	0.0	None	0.0	None	0.0	None	0.0	None	1.2145e-06	12
2014-01-17 17:00:00	391.0573443600584	5002107355.7838	4.1526047729696245e+22	6877193753726.553	17.957231343286733	1159011660868.7537	7.335832270185323e+21	-3.882073556063944e+24	3093.754853871324	-0.5843839991901892	22.924360877945148	8.24181260512516	28.67740742101776	96.78486899230572	98.27348736022877	40.04240341374784	0.0017767123125840246	6.420790564374605e+22	-0.18958039981528346	0.004531645380396759	-1.186127171969464e+24	-0.00966547185101832	0.17855244891507344	4.0472808228740185	391.011963	329.477478	-19.79319	56.057587	-13.65915	66.252815	0.0	11953.0	True	0.0	None	0.0	None	0.0	None	0.0	None	0.0	None	0.0	None	0.0	None	0.0	None	1.0018e-06	12
2014-01-17 17:12:00	382.839571174311	5015457242.497	4.107330542378045e+22	6747442961708.91	14.361292405326907	458581008362.5915	7.419584304097566e+21	-3.921629561356336e+24	3003.5614013243	-0.5887672005159093	23.015070432797	7.681849082256968	28.362045507803888	95.31895919505492	95.9231134698292	39.74791359940515	0.0013947064587090325	6.080172826363636e+22	-0.08751053144185006	0.0036045638488679133	-1.1904807741415338e+24	-0.009128364312902898	0.17873081118271267	4.031120710167564	391.013397	329.367004	-19.789663	56.179062	-13.666599	66.355812	0.0	11953.0	True	0.0	None	0.0	None	0.0	None	0.0	None	0.0	None	0.0	None	0.0	None	0.0	None	8.5265e-07	12
2014-01-17 17:24:00	386.15462035853693	5031594012.718901	4.104406954442686e+22	6971770964368.697	15.002304257903635	839390354634.9746	7.533396757536541e+21	-3.933568369259664e+24	2912.056247066182	-0.5886655490901533	22.551116498026953	7.1610289267879015	28.524215163660212	94.21352578722151	95.50066400904932	39.450160879340466	0.0014137112945631018	5.579720177552477e+22	-0.05918355459280794	0.003753989669217117	-1.1833643045451291e+24	-0.008350151144586638	0.17709258686149498	4.059769000930549	391.014801	329.2565	-19.790125	56.28817700000001	-13.667082999999998	66.471085	0.0	11953.0	True	0.0	None	0.0	None	0.0	None	0.0	None	0.0	None	0.0	None	0.0	None	0.0	None	7.8708e-07	12
2014-01-17 17:36:00	375.5289362218537	5010866582.347	4.099257778051168e+22	6745934549396.651	18.649076259171288	1049638112995.7885	7.508613353635892e+21	-3.920329731839756e+24	2929.380600564802	-0.5891112394978906	22.497501617831716	6.795102970484956	28.351671194710875	94.80081787180201	96.53284383445877	39.35404050059304	0.0017698658308030074	2.2853258208608847e+22	-0.06389277131606075	0.0046840355404499535	-1.1736733696780824e+24	-0.0034341782938551073	0.17636888243383686	4.0432709421852415	391.016235	329.146027	-19.785927	56.407726	-13.66881	66.571228	0.0	11953.0	True	0.0	None	0.0	None	0.0	None	0.0	None	0.0	None	0.0	None	0.0	None	0.0	None	6.8197e-07	12
2014-01-17 17:48:00	381.3770727643618	5061678240.1432	4.1051372122267435e+22	6956825777334.419	17.204814278741008	879624583777.5121	7.619764854575797e+21	-3.9839069954350353e+24	2861.0843296129547	-0.5926553553446202	22.52088932009637	6.932617549055905	28.42409563530174	93.34405520861615	95.95273725292894	38.70946938112496	0.0015925959713728607	2.5180177650599084e+22	-0.11087584274152072	0.004268735807816318	-1.1671345124853854e+24	-0.0037458623281758827	0.1736256694808868	4.060993133100795	391.01767	329.035522	-19.785973	56.516624	-13.678235	66.68633299999999	0.0	11953.0	True	0.0	None	0.0	None	0.0	None	0.0	None	0.0	None	0.0	None	0.0	None	0.0	None	6.5872e-07	12
2014-01-17 18:00:00	372.0439445319808	5033327578.1266	4.028208412339713e+22	6791641545474.231	8.54900713491598	434312151535.7936	7.648061981413559e+21	-3.9757207424265487e+24	2774.596925816719	-0.5947689216362587	22.06114244047237	6.183680936699598	28.23648022254973	92.53436385360331	94.35806193308905	38.342580559026324	0.000782016752187704	2.4652105831573807e+22	-0.07806884559218784	0.002130064309324661	-1.1428056480941772e+24	-0.0036879618442614923	0.17096404073439705	4.052284571937856	391.019073	328.925018	-19.782257	56.62751	-13.680246	66.804451	66560.0	11953.0	False	0.0	None	0.0	None	0.0	None	0.0	None	0.0	None	0.0	None	0.0	None	0.0	None	6.0183e-07	12
2014-01-17 18:12:00	380.015204123609	5018121267.9403	4.139800797219869e+22	7073491285216.916	12.223786923471437	714475927930.5712	7.648705438328658e+21	-3.9025126966563857e+24	2807.2910740952643	-0.5855859208616997	22.499560021652712	6.8083573487031686	28.686299473237906	90.6733544770695	92.98831223063787	38.165232133209344	0.001100845364145483	3.046245233356281e+22	-0.07595641687211148	0.003072591561730573	-1.1341966515266882e+24	-0.0045709994016774535	0.17019024465738766	4.042377629144752	391.02044700000016	328.814484	-19.775541	56.752964	-13.686599	66.900856	66560.0	11953.0	False	0.0	None	0.0	None	0.0	None	0.0	None	0.0	None	0.0	None	0.0	None	0.0	None	6.163e-07	12
2014-01-17 18:24:00	385.6980776068718	5044025394.549601	4.136171677565615e+22	7129591493718.232	19.781015950962953	947506953551.4844	7.711244588981253e+21	-3.922737430693534e+24	2749.125175203741	-0.5855978996212713	22.48349133031085	6.9026392444169815	29.01742587292927	90.32661430093134	92.83781526728683	38.0318812603664	0.0017460513682551815	6.328046257025707e+22	-0.06726393758442567	0.004946616736605637	-1.1155598760401497e+24	-0.00944669548317268	0.16653409305434452	4.029910099701039	391.021881	328.703979	-19.775349	56.850227	-13.691096	67.011444	0.0	11953.0	True	0.0	None	0.0	None	0.0	None	0.0	None	0.0	None	0.0	None	0.0	None	0.0	None	6.5664e-07	12
2014-01-17 18:36:00	376.9398373776496	5026805191.1984005	4.144505828860124e+22	6850471282904.527	11.184175584710527	647121211226.6711	7.675929964276727e+21	-3.8967345875941896e+24	2775.982662539024	-0.5837089427989317	22.22707295233808	6.778153353495817	28.95305602711648	89.29472166870924	91.68512358630016	37.31049221664613	0.0009948563942991043	5.198274832324825e+22	-0.10415917334711457	0.002809742678947706	-1.1055083080872075e+24	-0.007786723572128006	0.16559893194250605	4.055657863982617	391.023254	328.5934450000001	-19.775126	56.974346	-13.696796	67.127121	0.0	11953.0	True	0.0	None	0.0	None	0.0	None	0.0	None	0.0	None	0.0	None	0.0	None	0.0	None	6.6544e-07	12
2014-01-17 18:48:00	372.1351694528399	4967518172.249001	4.010435640899224e+22	6763175302957.35	11.690344885515303	893763807746.2657	7.660006680187739e+21	-3.9031083037072826e+24	2686.8994197898114	-0.5916415515385218	21.84943404271539	5.9435892873031415	28.548266320270113	88.00736167329477	89.929252765803	36.58605127032557	0.0010401588117728714	3.825107316901668e+22	-0.1562727330544729	0.002957144771407553	-1.0956413080840814e+24	-0.005798179941928606	0.16607966600077614	4.037170310123118	391.024658	328.4829410000001	-19.771509	57.084137	-13.70219	67.224579	0.0	11953.0	True	0.0	None	0.0	None	0.0	None	0.0	None	0.0	None	0.0	None	0.0	None	0.0	None	6.7016e-07	12
2014-01-17 19:00:00	362.6254401525711	4945690648.173401	4.062953967034023e+22	6741633578945.702	10.540427921093627	566790227521.0544	7.66890144211574e+21	-3.8477938438938017e+24	2672.857037413313	-0.5858310924132061	22.23237170119239	6.526297396470383	29.148407011652555	86.41167345244652	88.85924794553453	36.52833844398587	0.0009208830963737224	4.651515146218976e+22	-0.04956271823454685	0.0026878458750298193	-1.086823680938348e+24	-0.0070819859640100956	0.16547017072524495	4.054024062363132	391.026031	328.372437	-19.767643	57.181606	-13.707299	67.333862	0.0	11953.0	True	0.0	None	0.0	None	0.0	None	0.0	None	0.0	None	0.0	None	0.0	None	0.0	None	6.8861e-07	12
2014-01-17 19:12:00	347.9933330554116	4887615675.6397	3.992473515794985e+22	6363781736487.933	14.202762840864699	880657662556.7322	7.576309250741917e+21	-3.801122353811497e+24	2670.350591045479	-0.5856016401475942	22.059601428328296	6.4398649848996286	28.946017040007	85.25149389090822	88.02645751459251	36.56168212730165	0.00126157069114094	5.033050775898581e+22	0.0007198028934578352	0.003665318302522693	-1.0526369115364766e+24	-0.007753927695479005	0.16216944483714146	4.050118019447528	391.027466	328.261932	-19.765182	57.284813	-13.710052	67.444847	0.0	11953.0	True	0.0	None	0.0	None	0.0	None	0.0	None	0.0	None	0.0	None	0.0	None	0.0	None	6.871299999999999e-07	12
2014-01-17 19:24:00	353.4050449141577	4931883976.364	4.019364665931068e+22	6449420821541.678	11.326769959039627	373588240454.9245	7.586554363254429e+21	-3.8284998196826464e+24	2682.618197254817	-0.5845253237571769	22.10741511665529	6.488211310051409	29.230216017647386	85.91187979380913	88.72271570421037	36.318508255181605	0.0010039682644069868	3.8621798845743e+22	0.004839188808314804	0.0028988386316340558	-1.033365879844736e+24	-0.005896675078402856	0.1577715956444615	4.074714758934881	391.02887	328.1514279999999	-19.762251000000006	57.402618	-13.716197	67.560265	0.0	11953.0	True	0.0	None	0.0	None	0.0	None	0.0	None	0.0	None	0.0	None	0.0	None	0.0	None	2.0273e-06	12
2014-01-17 19:36:00	348.56817287385195	4907576141.485001	3.950940342807735e+22	6311492333647.228	11.692578071760876	560832013678.6171	7.539021588127812e+21	-3.826629574550618e+24	2669.364629084276	-0.5871335254820736	21.95545561808839	6.666666666666668	28.984340478340613	84.9362915238147	87.29386319158169	36.21134502421826	0.0010491321733298226	3.386619477728296e+22	0.012612587441967095	0.003002339237964723	-1.0152319641154496e+24	-0.005196211952808057	0.15577068818927806	4.064443649154081	391.030304	328.040955	-19.759111	57.514084	-13.722709	67.658226	0.0	11953.0	True	0.0	None	0.0	None	0.0	None	0.0	None	0.0	None	0.0	None	0.0	None	0.0	None	3.9611e-06	12
2014-01-17 19:48:00	334.0884950506345	4855660287.300701	3.969518839213293e+22	6106333223030.869	14.371397289792005	761394079466.2075	7.423341656314759e+21	-3.7506301384539314e+24	2714.801658128696	-0.5816255838370608	22.13825946077918	6.939146230699363	29.35658972032941	84.82892324017179	87.67263295445038	36.35586394170617	0.0013053040226877384	3.850432275040144e+22	-0.05871511627038504	0.003742631036714626	-1.0006375257625663e+24	-0.005971023100983365	0.15517296124827512	4.05835652649442	391.031738	327.930481	-19.755314	57.620392	-13.723192	67.761887	0.0	11953.0	True	0.0	None	0.0	None	0.0	None	0.0	None	0.0	None	0.0	None	0.0	None	0.0	None	6.3861e-06	12
2014-01-17 20:00:00	341.8221064981384	4833549424.283501	3.860901626118729e+22	6036535289401.343	20.23518696691236	1087798767774.7932	7.325442656410497e+21	-3.766272728014239e+24	2712.454976898655	-0.5867230584958562	21.91635692536073	6.157865273371898	29.029430635667506	86.07223611818493	87.956164897032	36.935393457022684	0.0018879629564202613	2.4827423397420546e+22	0.020162538378885573	0.005276791330204821	-9.95427769365408e+23	-0.003867702325950915	0.15507119837859284	4.081568678279519	391.033203	327.820007	-19.756517	57.732033	-13.730906	67.871422	0.0	11953.0	True	0.0	None	0.0	None	0.0	None	0.0	None	0.0	None	0.0	None	0.0	None	0.0	None	7.149800000000001e-06	12
2014-01-17 20:12:00	341.7628513866906	4817430860.833501	3.8183772304734635e+22	6026729490852.5205	19.023514537186426	641381690118.947	7.288727055745314e+21	-3.7659728155751695e+24	2714.490326618622	-0.5886391307532474	21.768136758475624	6.25	28.85166934774401	86.47250136633517	88.92187706873665	37.19845630932055	0.0017960266745833105	3.966754256775911e+22	-0.012134309649126769	0.004971414837100534	-9.937885797187114e+23	-0.006200222072669685	0.15533379404619607	4.12335944338914	391.034668	327.709564	-19.752771	57.84480300000001	-13.736421	67.971062	0.0	11953.0	True	0.0	None	0.0	None	0.0	None	0.0	None	0.0	None	0.0	None	0.0	None	0.0	None	7.1532e-06	12
2014-01-17 20:24:00	341.3849184408471	4811871278.1264	3.838263263923519e+22	6049696774255.612	14.890010875661375	552430520273.9895	7.240545802382299e+21	-3.749782468810199e+24	2777.1326888911603	-0.5867856693891865	21.626869245826487	6.2073604304794845	28.565224756109142	87.97067927777469	90.77587825720181	37.46816961809797	0.0014307687975075787	5.003072005515031e+22	-0.10431349499053696	0.0039002526442106287	-1.003673737593352e+24	-0.007829070033200995	0.15706014171774935	4.1819831542579085	391.036133	327.599152	-19.746471	57.95154599999999	-13.743675	68.074883	0.0	11953.0	True	0.0	None	0.0	None	0.0	None	0.0	None	0.0	None	0.0	None	0.0	None	0.0	None	5.8519000000000015e-06	12
