Timestamp	TOTUSJH	TOTBSQ	TOTPOT	TOTUSJZ	ABSNJZH	SAVNCPP	USFLUX	TOTFZ	MEANPOT	EPSZ	MEANSHR	SHRGT45	MEANGAM	MEANGBT	MEANGBZ	MEANGBH	MEANJZH	TOTFY	MEANJZD	MEANALP	TOTFX	EPSY	EPSX	R_VALUE	CRVAL1	CRLN_OBS	LAT_MIN	LON_MIN	LAT_MAX	LON_MAX	QUALITY	NOAA_AR	IS_TMFI	BFLARE	BFLARE_label	CFLARE	CFLARE_label	MFLARE	MFLARE_label	XFLARE	XFLARE_label	BFLARE_loc	BFLARE_label_loc	CFLARE_loc	CFLARE_label_loc	MFLARE_loc	MFLARE_label_loc	XFLARE_loc	XFLARE_label_loc	XR_MAX	XR_QUAL
2014-02-23 09:36:00	16.793943139127062	97139648.9494	9.129408622205347e+20	415587454233.1162	0.3419461176730291	196748379042.1816	1.994389461615121e+20	-6.952223605968645e+22	1862.961055868084	-0.5389080844699032	23.353278408041398	4.607046070460704	31.786614695381683	146.18806907295968	140.85329924103627	64.82243092282283	-0.0009266832457263662	6.573963993528554e+21	1.0348893973934874	-0.004574866887225568	4.372118210353825e+22	-0.050958693849907886	-0.33890881297243297	0.0	180.941849	206.350449	-14.9389	-26.726248	-12.892086	-23.597528	0.0		True	0.0	None	0.0	None	0.0	None	0.0	None	0.0	None	0.0	None	0.0	None	0.0	None	1.7438e-06	12
2014-02-23 09:48:00	16.545122657167386	86988772.5256	7.575461416887229e+20	396791737103.5881	0.4253221446808961	94289317038.1699	1.801414936277187e+20	-6.32684283831775e+22	1728.5529353359134	-0.5476604476512171	22.78558892028102	3.0303030303030303	31.318597910017967	140.00552329530157	135.7193647240226	63.12415737703928	-0.0012888549838815035	5.801901955992032e+21	0.554578734534725	-0.006318428921593218	3.831328829245224e+22	-0.050222082382117936	-0.33164523212360403	0.0	180.944809	206.241104	-14.990232	-26.618254	-12.897405	-23.489822	0.0		True	0.0	None	0.0	None	0.0	None	0.0	None	0.0	None	0.0	None	0.0	None	0.0	None	1.6856e-06	12
2014-02-23 10:00:00	16.288809692204325	94780350.8639	8.297459750614481e+20	386335395553.7294	0.669326572741995	23029317324.784058	1.9867396699203204e+20	-7.200253170348517e+22	1759.9661908308642	-0.5720275933284205	23.491199455162725	4.788732394366197	29.44347686633912	136.01285826254707	134.04685927167566	58.27354253470554	0.0018854269654704086	6.470658237367054e+21	-0.12591381640350008	0.008984410483493169	4.05176828852923e+22	-0.051406457123126914	-0.3218946900862381	0.0	180.94783	206.131729	-14.997494	-26.512899	-12.902848	-23.384724	0.0		True	0.0	None	0.0	None	0.0	None	0.0	None	0.0	None	0.0	None	0.0	None	0.0	None	1.6213999999999996e-06	12
2014-02-23 10:12:00	17.383535515874268	94588909.5525	7.845318309593559e+20	411605891652.0575	0.15161938927489987	59807821147.21161	1.9160849833447644e+20	-7.116681437352112e+22	1752.9446839861514	-0.5665325285471976	22.750748626405787	2.6706231454005933	30.32266155781188	138.3293664001299	137.07840309748204	60.4356646495381	-0.0004499091669878335	8.934601503864611e+21	0.3444731036652449	-0.0020464686804287048	3.967630682005795e+22	-0.07112503806871708	-0.31584831531457674	0.0	180.950729	206.022324	-15.003059	-26.407204	-12.906624	-23.258453	0.0		True	0.0	None	0.0	None	0.0	None	0.0	None	0.0	None	0.0	None	0.0	None	0.0	None	1.5722e-06	12
2014-02-23 10:24:00	17.082763154092813	96254458.9638	8.308944593156102e+20	405518133389.9201	0.7309866430237958	103943132168.43456	1.9539088950680007e+20	-7.29882288137839e+22	1782.4862818095803	-0.5709780555794242	23.992093804448015	5.982905982905983	30.955535811391115	138.8661841272405	138.81324230143764	60.55029969423129	0.0020825830285578226	9.211939320894479e+21	-0.5748080795040881	0.009668263121852505	4.028473586040017e+22	-0.07206388327327996	-0.3151425993605985	0.0	180.953598	205.912903	-15.124626999999998	-26.278486	-12.911631	-23.155941	0.0		True	0.0	None	0.0	None	0.0	None	0.0	None	0.0	None	0.0	None	0.0	None	0.0	None	2.3106999999999997e-06	12
2014-02-23 10:36:00	18.43066584020361	100559271.1193	8.35104084961445e+20	433683219940.1864	0.5911065659161612	68842726971.24867	2.0211202595277364e+20	-7.535059554845974e+22	1746.7294726906132	-0.5642247246679821	23.15668803617773	3.888888888888889	30.705741759711533	138.2961873394784	137.65963904243844	62.29928077604878	0.0016419626831004474	1.1754235833225084e+22	0.3711909206322096	0.007515787909363766	4.09601122674357e+22	-0.08801563449380748	-0.30670902994523114	0.0	180.956451	205.803452	-15.131812	-26.17223	-12.917022	-23.049999	0.0		True	0.0	None	0.0	None	0.0	None	0.0	None	0.0	None	0.0	None	0.0	None	0.0	None	2.4255000000000003e-06	12
2014-02-23 10:48:00	19.19573054088407	94211524.2489	8.403032860333427e+20	441993325361.7761	2.760651019741433	138668966027.15558	1.8972567435727595e+20	-7.007334046549704e+22	1866.4820716336205	-0.5600621844276772	24.16124782226775	6.784660766961652	30.978237290352226	139.21871367333384	137.9151529032174	63.76447113309287	0.0081435133325706	9.212832436815504e+21	-0.7940159603965968	0.03756605288189591	3.876365023975044e+22	-0.07363369613968429	-0.3098190336787891	0.0	180.95932	205.69397	-15.138379999999998	-26.066099	-12.92181	-22.923178	0.0		True	0.0	None	0.0	None	0.0	None	0.0	None	0.0	None	0.0	None	0.0	None	0.0	None	1.7608000000000001e-06	12
2014-02-23 11:00:00	18.958784271561466	92141254.4107	7.775036370515777e+20	440790794368.3288	4.046467516281735	298274263452.7375	1.800480420380304e+20	-6.661292588305776e+22	1888.5491580013515	-0.5443671977432432	23.37155866522689	5.806451612903228	30.587411075531946	144.5573904355578	145.54826482570857	65.4038468289514	0.013053121020263656	8.933003112310168e+21	-1.867721915992314	0.05687237501128078	3.780611801740225e+22	-0.07300135532579516	-0.3089552102667509	0.0	180.962158	205.584457	-15.1998	-25.936066	-12.926594	-22.81943900000001	0.0		True	0.0	None	0.0	None	0.0	None	0.0	None	0.0	None	0.0	None	0.0	None	0.0	None	1.7006999999999999e-06	12
2014-02-23 11:12:00	19.270440765834387	91472653.4079	8.090760564336354e+20	434703319167.75696	2.650742740380725	231757511783.2154	1.8075804492504223e+20	-6.9703988074193315e+22	1990.9273254062934	-0.5737911353161539	24.349600032040485	7.84313725490196	29.808836585042982	147.0211517750723	146.8076669151512	63.51295908266055	0.008662557975100408	1.0369852691971402e+22	-1.4702094596386035	0.03682639477759502	3.5428767963984144e+22	-0.08536282806163394	-0.2916434705467505	0.0	180.964935	205.47493	-15.203205	-25.829899	-12.92991	-22.716669	0.0		True	0.0	None	0.0	None	0.0	None	0.0	None	0.0	None	0.0	None	0.0	None	0.0	None	1.6022e-06	12
2014-02-23 11:24:00	19.014111608968435	92420175.0775	7.899792838396657e+20	439771803133.1742	1.5550505772713519	105443304045.98936	1.8830679114558187e+20	-7.093242354059597e+22	1749.5413675011155	-0.5779169627098351	24.477645751457768	8.235294117647058	30.884081624037385	135.362649656978	137.89278624700398	55.235355952642564	0.004573678168445152	1.1690870251908898e+22	-0.5197931752188637	0.021326696212157558	3.7324640810418643e+22	-0.09525054820030457	-0.3040999020574486	0.0	180.967651	205.365356	-15.211227	-25.720997	-12.936173	-22.590567	0.0		True	0.0	None	0.0	None	0.0	None	0.0	None	0.0	None	0.0	None	0.0	None	0.0	None	1.4854e-06	12
2014-02-23 11:36:00	17.893685026936122	85142030.90990001	6.849675616110852e+20	409749784297.4458	1.4605435050030222	78006227813.7355	1.7072925553419728e+20	-6.22593886068417e+22	1685.5283319212076	-0.5506153631866079	24.179880173405753	5.5555555555555545	31.564040102708674	136.5196421708107	137.11727943059424	60.906711792046394	0.004773017990205955	1.0848690670612158e+22	-0.4948724284777018	0.022125668721855583	3.283397895471018e+22	-0.09594465810481564	-0.29038019247465746	0.0	180.970383	205.255783	-15.216679999999998	-25.591141	-12.939896	-22.487022	0.0		True	0.0	None	0.0	None	0.0	None	0.0	None	0.0	None	0.0	None	0.0	None	0.0	None	1.5621e-06	12
2014-02-23 11:48:00	17.04311158326223	82821565.6569	6.23466914946396e+20	373416680421.4086	2.793849104431032	210450378996.41867	1.5861816330315497e+20	-6.23809067971133e+22	1785.0285239864206	-0.5671471371899461	21.92643729266314	4.56273764258555	30.944017494283905	148.39572814128525	148.15060726402032	62.75036165838125	0.010623000397076166	1.270278073202634e+22	-1.553420945547104	0.04305065188635784	3.1256101241018928e+22	-0.1154895960386028	-0.2841704176602851	0.0	180.973114	205.146164	-15.220353	-25.485239	-12.945163	-22.384405	0.0		True	0.0	None	0.0	None	0.0	None	0.0	None	0.0	None	0.0	None	0.0	None	0.0	None	2.7525e-06	12
2014-02-23 12:00:00	19.522539878564764	85278351.50460002	6.459084870128975e+20	417422412494.8599	2.7784511635192466	308280802142.8579	1.6343146564687885e+20	-6.5221875910130054e+22	1788.0909459306515	-0.5758932740855208	22.418964652225384	5.147058823529411	30.59789883219194	144.7757815921026	147.24708723427108	61.446315667898034	0.010214893983526641	1.388745426048843e+22	-2.200304711427437	0.041349205078498784	3.0551989383164416e+22	-0.12262283767804695	-0.2697666227806839	0.0	180.9758	205.036499	-15.22775	-25.353806	-12.950843	-22.156853	0.0		True	0.0	None	0.0	None	0.0	None	0.0	None	0.0	None	0.0	None	0.0	None	0.0	None	2.7068e-06	12
2014-02-23 12:12:00	16.831163065328358	81989169.017	6.219472230773366e+20	380289235786.48816	2.3064439649787087	284523752146.7424	1.5462810747425725e+20	-5.9547341193572625e+22	1808.178202728436	-0.546881649207873	22.91001565407771	6.177606177606178	31.825278707807627	148.55614905385866	149.75040232886326	66.37075168486766	0.00890518905397185	1.047998971110444e+22	-2.13272194609114	0.03637134248671858	3.0816064206114078e+22	-0.0962480262260468	-0.28301414769051697	0.0	180.978439	204.926834	-15.235869	-25.250832	-12.945148	-22.024145	0.0		True	0.0	None	0.0	None	0.0	None	0.0	None	0.0	None	0.0	None	0.0	None	0.0	None	3.3266e-06	12
2014-02-23 12:24:00	17.045405574528896	91504733.1712	6.418222544602059e+20	373559515909.7008	3.0730317601729333	245628477891.8269	1.780822407546749e+20	-7.2016800216238315e+22	1678.0687705599735	-0.5926219504464663	21.002469099676976	3.4722222222222223	29.45789995598588	136.995553533119	140.917838745345	62.11307481968832	0.01067024916726713	1.07289287081937e+22	-1.6558164781521234	0.04217361104523106	3.260941004486984e+22	-0.08828771395229515	-0.26834088887139906	0.0	180.981003	204.817108	-15.239841	-25.13245	-12.950586	-21.889704	0.0		True	0.0	None	0.0	None	0.0	None	0.0	None	0.0	None	0.0	None	0.0	None	0.0	None	3.0566e-06	12
2014-02-23 12:36:00	17.685750313505793	88499834.2474	6.167230432130754e+20	372722892047.7411	2.722092864630824	152908937012.7558	1.6658235480453395e+20	-6.5931291981881065e+22	1739.2672995929925	-0.5609660087273951	20.874927232310505	2.621722846441948	30.93578232941489	146.1542676206809	150.017078671728	62.10491860189564	0.010195104361913196	1.022190573211471e+22	-1.1118806806111383	0.0394091465157992	3.207071961752769e+22	-0.08697147420845171	-0.2728686643332268	0.0	180.983566	204.707367	-15.241691	-25.029255	-12.967865	-21.759443	0.0		True	0.0	None	0.0	None	0.0	None	0.0	None	0.0	None	0.0	None	0.0	None	0.0	None	2.4208e-06	12
2014-02-23 12:48:00	17.938134443643477	89318835.0188	5.740725118149256e+20	366425508138.03577	1.3270347393272544	58428125614.116135	1.648603481978758e+20	-6.928664159911342e+22	1708.5739586962204	-0.5841091546818624	20.261219830044762	3.1620553359683794	30.011660752959234	148.80528991116972	153.63390462202102	66.21230579751867	0.00524519659813144	9.758133718650175e+21	-0.44838279786655255	0.01875789644486757	3.0906249700238986e+22	-0.08226427354715757	-0.2605498400578295	0.0	180.986145	204.597595	-15.246095	-24.92634	-12.973807	-21.62656	0.0		True	0.0	None	0.0	None	0.0	None	0.0	None	0.0	None	0.0	None	0.0	None	0.0	None	2.6808999999999996e-06	12
2014-02-23 13:00:00	18.382524962292965	93043076.1592	6.333388210281885e+20	402608418916.7476	2.078153850571492	38594213739.397255	1.764059434036144e+20	-7.103455255548776e+22	1667.4681512928234	-0.5748745203316362	21.693867977708226	3.8461538461538463	31.011048522694626	142.68371679331466	146.9602445855929	60.00927988953799	0.007266272204795427	7.227762351506315e+21	-0.2620079672614425	0.02836466604987168	3.2628428477340242e+22	-0.05849345516250817	-0.264058144878636	0.0	180.988693	204.487793	-15.251698	-24.821321	-12.966757	-21.525131	0.0		True	0.0	None	0.0	None	0.0	None	0.0	None	0.0	None	0.0	None	0.0	None	0.0	None	2.327e-06	12
2014-02-23 13:12:00	16.08065344064866	86463646.9165	5.553861941312511e+20	346474212132.5559	1.3783517746178862	65730869689.73344	1.5860365904767297e+20	-6.516503474803491e+22	1686.2844241271325	-0.5675034567450821	20.587609469318114	3.2258064516129035	30.800570648602534	144.0967291821949	146.45132316191817	65.82363930908426	0.0055578700589430895	6.107306429434159e+21	-0.5146203592998909	0.020339862309362248	3.052791757769129e+22	-0.05318676685290751	-0.2658588124683107	0.0	180.991165	204.37796	-15.2582	-24.720531	-12.971547	-21.397114	0.0		True	0.0	None	0.0	None	0.0	None	0.0	None	0.0	None	0.0	None	0.0	None	0.0	None	1.9419e-06	12
2014-02-23 13:24:00	16.001898609057918	89787395.0587	6.085582921043065e+20	354347793492.0956	2.258474179130359	154969013916.19965	1.650589045627517e+20	-6.946497844194572e+22	1748.9943583537708	-0.5825564953911843	22.83390841320044	5.7251908396946565	31.397788860831557	139.10961827172676	143.50414079795917	61.5058325519065	0.008620130454696028	7.83619024198186e+21	-1.1484813333310997	0.03178853625680755	3.2013033566209197e+22	-0.06571690695049585	-0.2684719848687078	0.0	180.993591	204.268097	-15.26472	-24.615717	-12.976377	-21.268679	0.0		True	0.0	None	0.0	None	0.0	None	0.0	None	0.0	None	0.0	None	0.0	None	0.0	None	1.7718000000000001e-06	12
2014-02-23 13:36:00	15.484312373557286	89808120.27560002	6.057111233548305e+20	338974546713.9547	2.1745157396960293	218235977479.1385	1.590163064979096e+20	-6.513279053308039e+22	1824.3702301138642	-0.54609916843928	22.36257143143357	6.8000000000000025	32.607690628015845	146.58990463234204	149.68653370314587	66.38291774164105	0.008698062958784121	8.77688769196387e+21	-1.6950309581534908	0.03132128693457389	3.306485372332902e+22	-0.0735889101455291	-0.27722885777027423	0.0	180.996002	204.158203	-15.269331	-24.513016	-12.980858	-21.164711	0.0		True	0.0	None	0.0	None	0.0	None	0.0	None	0.0	None	0.0	None	0.0	None	0.0	None	1.5237000000000001e-06	12
2014-02-23 13:48:00	14.547033378238346	83778161.19890001	6.040100768618035e+20	325754755385.67426	1.670198543590406	78855632522.80916	1.5266724360937744e+20	-6.059473157725712e+22	1826.553477142624	-0.5446175056262643	23.310867766342444	5.220883534136545	32.503632368067	137.54754637787488	140.8263540967817	60.73080507674364	0.00670762467305384	9.203289286253516e+21	-0.6149442768817441	0.02581346588901074	3.1808645243954237e+22	-0.0827179578846019	-0.2858919344832132	0.0	180.998413	204.048264	-15.271971	-24.411911	-12.983418	-21.039099	0.0		True	0.0	None	0.0	None	0.0	None	0.0	None	0.0	None	0.0	None	0.0	None	0.0	None	1.2938e-06	12
2014-02-23 14:00:00	13.128011063262159	78784377.4007	5.4947693259882345e+20	290652156722.3547	0.29282544217642226	10758931111.747828	1.4702865053273657e+20	-5.872688294134112e+22	1738.4410831234939	-0.5612861315180883	22.11600920166314	2.9411764705882346	31.76056626066734	129.925779258376	134.2265240562615	58.37276730541027	0.00123035900074127	6.89183028350615e+21	0.0044544711190463646	0.004761197469384123	3.0353649795971666e+22	-0.06586913122516967	-0.2901070483930349	0.0	181.000824	203.938324	-15.274702	-24.310993	-12.98603	-20.93536	0.0		True	0.0	None	0.0	None	0.0	None	0.0	None	0.0	None	0.0	None	0.0	None	0.0	None	1.4091999999999996e-06	12
2014-02-23 14:12:00	13.705983228292395	81808556.4907	6.273362988243456e+20	301183752126.7699	2.372969115880911	204212190747.7356	1.5588685865648826e+20	-5.9275775660002285e+22	1782.5512661653327	-0.5455894975677023	23.93156313891352	6.7924528301886795	32.51355703315217	123.91946257222695	124.94878392517128	56.029091521410024	0.008954600437286457	7.524555226255152e+21	-1.4964417893689552	0.03753437545926102	3.2464908520783646e+22	-0.06925794322558544	-0.2988153749354933	0.0	181.003159	203.828354	-15.277707	-24.210335	-12.971186	-20.810169	0.0		True	0.0	None	0.0	None	0.0	None	0.0	None	0.0	None	0.0	None	0.0	None	0.0	None	1.2887e-06	12
2014-02-23 14:24:00	10.390546042839603	76791519.6495	5.4982637383280014e+20	236903317207.6283	0.7382428045382983	7876936013.243896	1.4266585018270838e+20	-5.538218332725025e+22	1754.2886004439097	-0.5430555881826663	22.804361853784503	2.5423728813559325	32.36911023572806	126.09658929004401	129.02376631445006	55.588197076873996	0.003128147476857196	6.230033846017395e+21	-0.06481566941058403	0.012460468872771456	3.033591528289579e+22	-0.061089225656840426	-0.29746187902466825	0.0	181.005432	203.718338	-15.262078	-24.107483	-12.974565	-20.707842000000007	0.0		True	0.0	None	0.0	None	0.0	None	0.0	None	0.0	None	0.0	None	0.0	None	0.0	None	1.1387e-06	12
2014-02-23 14:36:00	14.382720194532105	80349017.22389999	5.4687295957124586e+20	322095019271.8021	1.3509951839804597	53804191967.866165	1.5159161498915983e+20	-6.162584788701748e+22	1667.1585978442974	-0.5775236296268872	21.998849294411134	1.6194331983805668	30.914436337485213	121.7055305006386	125.74362761946672	55.14270061265541	0.005469616129475544	7.100978632811281e+21	-0.4230233075779515	0.021317062285811216	2.981307388421677e+22	-0.06654647513236217	-0.27939176871876586	0.0	181.007706	203.608307	-15.267639	-24.006124	-12.981533	-20.60639	0.0		True	0.0	None	0.0	None	0.0	None	0.0	None	0.0	None	0.0	None	0.0	None	0.0	None	1.2456e-06	12
2014-02-23 14:48:00	12.5766085500403	84755114.2103	6.179388274072892e+20	291790387689.5984	0.07468141222199742	40450429567.511116	1.5857245944549782e+20	-6.083637068937723e+22	1736.1938088564013	-0.5404865573000786	22.91644155098351	3.7313432835820888	33.17134222098753	125.20208168082131	128.55644104282698	56.09964407984148	0.00027866198590297545	8.412957700425994e+21	-0.2931189288136099	0.0011439806831278865	3.2419530657567758e+22	-0.07474296202564902	-0.28802376466308105	0.0	181.009995	203.498245	-15.27179	-23.900593	-12.98559	-20.476973	0.0		True	0.0	None	0.0	None	0.0	None	0.0	None	0.0	None	0.0	None	0.0	None	0.0	None	1.2128e-06	12
2014-02-23 15:00:00	14.740237526711766	86244786.9087	5.976154006642444e+20	334975016232.3061	1.2627718199244309	129215868270.94353	1.6067722876270068e+20	-6.421345840053509e+22	1704.532617926908	-0.5606355972759958	22.080526699145302	4.166666666666666	31.627072423552622	126.80463364165257	134.35468871575944	59.38953268381504	-0.004783226590622844	8.32648301687695e+21	0.9505554302139184	-0.018763787894797344	3.050531295570433e+22	-0.07269695318787478	-0.2663361353680019	0.0	181.012253	203.388153	-15.274414000000002	-23.775074	-12.989617	-20.378052	0.0		True	0.0	None	0.0	None	0.0	None	0.0	None	0.0	None	0.0	None	0.0	None	0.0	None	1.0967e-06	12
2014-02-23 15:12:00	15.505770822261796	87739859.0014	6.252619895456747e+20	343049311449.37946	0.6619031924817518	64970492957.4605	1.653600055044021e+20	-6.791277823024104e+22	1718.299754890029	-0.5828301742174449	22.9135200126398	6.204379562043796	30.98389312496612	132.02139423270128	133.9744227476817	58.95892298918524	0.002415705082050189	6.097677439236192e+21	0.4605119521863168	0.009532201591958223	3.250577307172688e+22	-0.05233051123579693	-0.27896584230787796	0.0	181.014435	203.27803	-15.267493	-23.671614	-12.993348	-20.253315	0.0		True	0.0	None	0.0	None	0.0	None	0.0	None	0.0	None	0.0	None	0.0	None	0.0	None	1.0270999999999999e-06	12
2014-02-23 15:24:00	14.419944310450573	88137772.9835	6.570177976489099e+20	319136588537.866	0.3410488788812129	37978081587.549034	1.651600515730804e+20	-6.6296369402100006e+22	1818.844903090505	-0.5663893912800069	23.008423541063102	4.411764705882354	32.08383596435439	136.49385784628413	136.57902771158152	59.106638511024684	0.0012538561723574005	6.800565193651773e+21	0.2711745211721041	0.004940658268314751	3.274287446728169e+22	-0.058099229492202364	-0.2797320110517834	0.0	181.016602	203.167908	-15.256827	-23.566898	-12.997188	-20.149256	0.0		True	0.0	None	0.0	None	0.0	None	0.0	None	0.0	None	0.0	None	0.0	None	0.0	None	1.0899e-06	12
2014-02-23 15:36:00	14.112801594964573	85821894.2863	5.8616657717349627e+20	327192870825.9463	0.3062643227556552	34445226740.8013	1.7073599665033724e+20	-6.700843206074659e+22	1537.8949854370867	-0.5879208817481731	21.44276855614633	3.8327526132404177	29.93599544214149	126.18962313358705	126.98171341955424	56.84696212860917	-0.0010671230758036766	4.250413874114711e+21	0.23309939750942835	-0.004494686936278088	2.97709720122717e+22	-0.03729242717392345	-0.26120557633832736	0.0	181.018738	203.057739	-15.260236	-23.446859	-13.000475	-20.027243	0.0		True	0.0	None	0.0	None	0.0	None	0.0	None	0.0	None	0.0	None	0.0	None	0.0	None	1.0233e-06	12
2014-02-23 15:48:00	16.179230201552382	93289475.7076	6.489301017166144e+20	391431418737.7177	0.4986711200083483	90587437094.52527	1.928683730665836e+20	-7.430723556583393e+22	1437.164524924959	-0.5997716556514181	22.54909460255132	4.117647058823529	30.756166694026927	126.87129737748778	128.49730893941847	53.55927717949093	0.001466679764730436	5.98415152117451e+21	-0.5174778925432579	0.006682724583093729	3.284605612053188e+22	-0.048301143733761084	-0.26511729727284883	0.0	181.020905	202.947556	-15.263291	-23.346369	-12.985131	-19.921497	0.0		True	0.0	None	0.0	None	0.0	None	0.0	None	0.0	None	0.0	None	0.0	None	0.0	None	1.0069e-06	12
2014-02-23 16:00:00	13.458007941754815	90733388.2832	6.000772335365233e+20	299564119362.3244	0.13744798548951465	46315092296.73097	1.7692128520339974e+20	-7.144359733471206e+22	1542.1512950717706	-0.5929029864517996	21.77584894604762	4.09556313993174	31.85993824591301	127.90790958138714	130.70758012896226	53.74133332219795	0.00046910575252394083	5.521011540608619e+21	0.30701954270953585	0.001902006159234663	3.202747295670508e+22	-0.04581830076844764	-0.26579266824388303	0.0	181.023056	202.837357	-15.246696	-23.243225	-12.989524	-19.7969	0.0		True	0.0	None	0.0	None	0.0	None	0.0	None	0.0	None	0.0	None	0.0	None	0.0	None	1.011e-06	12
2014-02-23 16:12:00	12.337218526459026	94692208.4559	6.099616208386147e+20	276392477747.1295	0.4598126674990579	65541810510.436676	1.7820078768062733e+20	-7.4540448695087046e+22	1605.9201003363394	-0.5927413356637456	21.89613230551663	4.545454545454546	31.195110966656195	133.2640851930311	136.60307678253486	55.212812793215186	-0.0016077365996470556	2.738341584764284e+21	0.44511423900685576	-0.00609749468631668	3.2378475340529654e+22	-0.02177513386183493	-0.2574717627285513	0.0	181.025146	202.727142	-15.251119	-23.144905	-12.995334	-19.695871	0.0		True	0.0	None	0.0	None	0.0	None	0.0	None	0.0	None	0.0	None	0.0	None	0.0	None	1.0204e-06	12
2014-02-23 16:24:00	14.957917106864835	99343108.4366	5.951844298265229e+20	321394963316.32104	1.0249890879392676	186896833448.38315	1.8453702394364976e+20	-7.839847050038786e+22	1508.9766787893884	-0.5942336767836736	20.924459882985282	4.377104377104377	31.716081903550077	133.87344875463882	135.19446279679298	58.375350524199675	-0.003451141710233224	1.5940190714787482e+21	1.2222838352262717	-0.0129437320414745	3.3063016653001767e+22	-0.01208212108810755	-0.2506063935415152	0.0	181.027191	202.616898	-15.252995	-23.038391	-13.000028	-19.571146	0.0		True	0.0	None	0.0	None	0.0	None	0.0	None	0.0	None	0.0	None	0.0	None	0.0	None	1.0203e-06	12
2014-02-23 16:36:00	13.912648483299119	93346518.9467	5.488245552994952e+20	296747772610.6404	0.57891761347775	68945982121.04587	1.7145610528844838e+20	-7.393545069941245e+22	1542.0066891919607	-0.5964061527574311	20.10869599479702	2.238805970149253	30.683043236635122	131.1951147318677	133.46552497639814	57.90854680731696	-0.0021601403487975747	1.958237918549909e+21	0.4996983353089609	-0.0077697176844292535	3.0476496947230445e+22	-0.015796280838731032	-0.2458410697693325	0.0	181.029297	202.506653	-15.259739	-22.937431	-13.003662	-19.468136	0.0		True	0.0	None	0.0	None	0.0	None	0.0	None	0.0	None	0.0	None	0.0	None	0.0	None	1.1228e-06	12
2014-02-23 16:48:00	14.367288038683586	92799743.2955	5.3115091217428965e+20	286022327144.2281	1.4677723946201942	131706227153.46014	1.6739208754354323e+20	-7.3021058721490655e+22	1526.5256237709036	-0.5925006196215011	20.3397331871775	2.2900763358778624	32.372249435533924	133.85228560581962	137.4434129787125	61.23522322485749	-0.0056021847122908145	2.624790512731114e+21	0.9764393111999344	-0.01986379964960376	3.1226653065852087e+22	-0.02129782876884144	-0.2533763768174151	0.0	181.031372	202.396378	-15.266397	-22.837708	-13.008703	-19.341194	0.0		True	0.0	None	0.0	None	0.0	None	0.0	None	0.0	None	0.0	None	0.0	None	0.0	None	1.6978999999999999e-06	12
2014-02-23 17:00:00	13.846403311742295	91027025.2602	5.3750646454776463e+20	288807614684.3113	0.17842648444981868	101839868836.91992	1.626798065626263e+20	-6.79814004844721e+22	1599.7445923267996	-0.5623506960430306	19.68702032211348	0.7905138339920948	32.17233390212304	141.36226834623258	142.51392918074882	65.62915172798364	-0.0007052430215407853	1.6911002396399108e+21	0.7818863196656051	-0.002509229812094661	3.2217915336524827e+22	-0.013988993902196227	-0.2665106482866372	0.0	181.033386	202.286087	-15.272925	-22.738447	-13.013635	-19.242018	0.0		True	0.0	None	0.0	None	0.0	None	0.0	None	0.0	None	0.0	None	0.0	None	0.0	None	1.7291999999999999e-06	12
2014-02-23 17:12:00	12.572026432746096	96009367.3359	5.610554014943368e+20	276879971600.60583	1.7143269377924195	152211527199.51602	1.754998051721405e+20	-7.273060422487389e+22	1461.8248646736606	-0.5704151179634125	20.636808232451113	2.4221453287197234	33.351749002645576	138.9258382163472	140.3055949169624	60.95674604737412	-0.0059319271203889965	1.780351017050467e+21	1.0230608600346696	-0.022740267533773784	3.2759411176950435e+22	-0.013963023492382985	-0.2569271022846988	0.0	181.0354	202.175797	-15.27815	-22.637342	-13.018676	-19.116272	0.0		True	0.0	None	0.0	None	0.0	None	0.0	None	0.0	None	0.0	None	0.0	None	0.0	None	1.3450999999999998e-06	12
2014-02-23 17:24:00	12.216118191612455	90191268.1036	5.4464406573759785e+20	257877041540.9293	2.28015140668806	184135285709.0722	1.6803783794460328e+20	-7.107545198860733e+22	1491.3088789312505	-0.5933933271735846	21.009003687242114	4.363636363636363	32.43067624395145	137.97316936483608	138.84951140873935	59.92726112982045	-0.008291459660683856	2.970547218451713e+21	1.3006520302011721	-0.031732639238249094	3.166401339834884e+22	-0.024800445838400614	-0.2643558885158675	0.0	181.037384	202.065491	-15.284076999999998	-22.538965	-13.023033	-19.015486	0.0		True	0.0	None	0.0	None	0.0	None	0.0	None	0.0	None	0.0	None	0.0	None	0.0	None	1.1066e-06	12
2014-02-23 17:36:00	11.6292856162159	84778979.6992	4.9641977055484346e+20	265032651963.8292	0.4092273053026544	34921600668.14945	1.580014224663389e+20	-6.318334090283108e+22	1443.2338998031914	-0.5611795240707401	20.3252139341774	1.1583011583011582	32.564530465284875	136.4082598050694	136.58503118009196	59.68390184894098	-0.0015800282058017546	1.4450263613826544e+21	0.26191202467382824	-0.0061837734083600975	3.1507137045728493e+22	-0.012834383148518444	-0.27983895627401456	0.0	181.039444	201.9552	-15.289009	-22.438715	-13.027832	-18.890509	0.0		True	0.0	None	0.0	None	0.0	None	0.0	None	0.0	None	0.0	None	0.0	None	0.0	None	1.0232e-06	12
2014-02-23 17:48:00	11.766962252903689	86205867.7826	4.8790514577132015e+20	260134972753.2281	0.3570970085245904	29612559419.12788	1.5995609188039832e+20	-6.618825719894465e+22	1475.4468648346406	-0.5781381658994169	18.805110929155873	0.8032128514056224	30.6513472163454	146.8454152769795	149.38883971629153	62.18804025295744	0.0014341245322272704	4.359863611576528e+20	0.2310157228706728	0.005249698438757716	3.0683886168969805e+22	-0.003808233754202328	-0.2680162074531484	0.0	181.041473	201.844879	-15.319492000000002	-22.339102	-13.032421	-18.788563	0.0		True	0.0	None	0.0	None	0.0	None	0.0	None	0.0	None	0.0	None	0.0	None	0.0	None	1.0148e-06	12
2014-02-23 18:00:00	12.37599615918785	88380118.34920001	5.65321616815555e+20	270346575032.7606	0.4712025024686953	54308878321.2043	1.6804056590042808e+20	-6.900387728080471e+22	1600.3000861389485	-0.5879039636663975	20.0640813811798	1.1278195488721805	29.728878040713354	140.63809678446964	142.07879064196672	60.51784377671972	-0.0017714379792056216	-1.6521567714826595e+21	0.3966041482838196	-0.006715197224043157	3.3206687612032235e+22	0.01407615851208306	-0.2829166133361071	0.0	181.043442	201.734543	-15.359537	-22.303234	-13.03803	-18.66486	66560.0		False	0.0	None	0.0	None	0.0	None	0.0	None	0.0	None	0.0	None	0.0	None	0.0	None	9.9335e-07	12
2014-02-23 18:12:00	14.3727525990471	95492034.4407	6.120059582888668e+20	309212367702.9203	1.197124785488083	130308728529.14555	1.8465732263383853e+20	-7.460608739402523e+22	1605.6883358698465	-0.5882942689925184	19.398908815873355	0.0	28.95035498037057	137.24839265138672	138.48389139308685	60.27134872330621	-0.004171166499958479	3.978625011793324e+20	0.8819871026305867	-0.015785971101051857	3.6036125198878096e+22	-0.003137280582141543	-0.2841570530194381	0.0	181.04541	201.624207	-15.452932999999998	-22.375502	-13.041156	-18.566053	66560.0		False	0.0	None	0.0	None	0.0	None	0.0	None	0.0	None	0.0	None	0.0	None	0.0	None	1.5253e-06	12
2014-02-23 18:24:00	13.572782809354193	98171981.5525	6.541126788912605e+20	299948059977.7178	2.4446621087123357	203837744526.4452	1.89598095615208e+20	-7.694878867329644e+22	1669.621606850437	-0.5902034387267036	20.275057435537047	0.0	28.92065318004789	140.1069637514723	141.93680715357883	58.13557627090074	-0.008286990199024867	8.185281892093639e+20	1.3422552974258055	-0.03131905081821498	3.7309132803040073e+22	-0.0062781774774546655	-0.2861640690635993	0.0	181.047363	201.51387	-15.459284	-22.275215	-13.045969	-18.466101	0.0		True	0.0	None	0.0	None	0.0	None	0.0	None	0.0	None	0.0	None	0.0	None	0.0	None	1.5265000000000001e-06	12
2014-02-23 18:36:00	13.57506831456048	98141720.8314	6.108240112232521e+20	304460590537.7413	1.2809965776172836	125046365013.02713	1.8566043444238588e+20	-7.317111207333533e+22	1559.1273252923786	-0.5614013922137383	19.56868898831432	2.0338983050847457	31.050743691809874	139.9050347448669	144.46727398527446	58.97890849294353	-0.0043423612800585895	2.2719875314749625e+21	0.8234227265566624	-0.016718978302719047	3.5663331353029694e+22	-0.017431701215418715	-0.27362497719734474	0.0	181.049377	201.403534	-15.467471	-22.178017	-13.052623	-18.344097	0.0		True	0.0	None	0.0	None	0.0	None	0.0	None	0.0	None	0.0	None	0.0	None	0.0	None	1.3104e-06	12
2014-02-23 18:48:00	13.021126322910527	90914745.9577	5.4637452310203374e+20	273794801986.6285	0.9855896891268816	85898436953.13644	1.6819232821105004e+20	-7.077206635279753e+22	1632.5909679897006	-0.5861584584341742	19.18482074513268	2.380952380952381	29.595919210075984	140.52140059594498	143.39474623524362	62.42151553613659	0.003911070194947943	1.6301750098733511e+21	-0.6621541661546747	0.0136692676122368	3.449167646851744e+22	-0.013501666971286713	-0.2856718610816327	0.0	181.051392	201.293198	-15.475731	-22.077021	-13.058036	-18.243412	0.0		True	0.0	None	0.0	None	0.0	None	0.0	None	0.0	None	0.0	None	0.0	None	0.0	None	1.2115e-06	12
2014-02-23 19:00:00	14.511147249171414	94996635.3584	6.181863277810343e+20	313874956048.813	2.4195176588179628	90227396356.21593	1.853677428777042e+20	-7.498909857037203e+22	1583.28684718851	-0.5943981489214613	20.876364671607167	3.401360544217688	29.959412121313648	126.14798974014057	129.90142519196345	56.65355985059789	0.00822965190074137	5.144574133761611e+21	-0.5961636474528192	0.031948743810178724	3.6270616798239513e+22	-0.04077826511312817	-0.28749762160271103	0.0	181.05336	201.182861	-15.481549	-21.977898	-13.062372	-18.117191	0.0		True	0.0	None	0.0	None	0.0	None	0.0	None	0.0	None	0.0	None	0.0	None	0.0	None	1.1740000000000001e-06	12
2014-02-23 19:12:00	15.19717876885753	97734369.2169	6.162019263790462e+20	342003276302.4264	0.3814109481361401	3955756185.052689	1.9614400718205266e+20	-7.556499227003199e+22	1406.0365081189527	-0.5821847343939379	21.143362795333143	4.242424242424243	31.055076675008785	120.34226719517021	125.98688829756935	51.46012838649788	0.0011557907519276973	9.290252293855857e+21	0.023285695056328458	0.004933085541944972	3.7881017748685765e+22	-0.07157604204898645	-0.29185141947452925	0.0	181.055344	201.07254	-15.486362	-21.878592	-13.065752	-18.018202	0.0		True	0.0	None	0.0	None	0.0	None	0.0	None	0.0	None	0.0	None	0.0	None	0.0	None	1.4913999999999996e-06	12
2014-02-23 19:24:00	17.81350045783791	95257517.3711	5.951537196016478e+20	364726862099.6146	1.3785663643474813	103015793174.74704	1.8285990826786672e+20	-7.604795807570788e+22	1612.0253029267926	-0.6011402353161994	19.848438060062094	2.8776978417266186	28.692366701752142	133.8099977614031	138.8713239725734	58.35201322351742	-0.0049588718141995725	8.665689430849182e+21	0.7198322138939409	-0.018077111795347444	3.504630687946994e+22	-0.06850012433538033	-0.2770323582326138	0.0	181.057312	200.962204	-15.490335	-21.779551	-13.008511	-17.919508	0.0		True	0.0	None	0.0	None	0.0	None	0.0	None	0.0	None	0.0	None	0.0	None	0.0	None	1.6772999999999996e-06	12
2014-02-23 19:36:00	18.760607955748085	105879276.3076	7.565939083913442e+20	433914041012.0134	0.1472982474907626	88495417184.5886	2.1554662048417992e+20	-8.216111076191286e+22	1569.4366577305445	-0.5843094562515371	22.250975965001746	4.958677685950414	30.16630779446525	123.0844084522769	129.07997696798108	51.8500589069481	-0.0004057802961178033	1.1634703960392113e+22	0.4735702938857364	-0.0017562106110728972	3.947608067320772e+22	-0.08274313092534005	-0.2807441016705017	0.0	181.059357	200.851898	-15.495254	-21.678257	-12.9821	-17.796549	0.0		True	0.0	None	0.0	None	0.0	None	0.0	None	0.0	None	0.0	None	0.0	None	0.0	None	1.6398e-06	12
2014-02-23 19:48:00	17.011649187995364	91535376.2694	6.035413117558663e+20	367182014342.54944	1.0068748832013843	45655963950.00836	1.8114806718801307e+20	-7.125693097558756e+22	1545.7779915125436	-0.5861727024935701	20.742501442079547	2.7210884353741496	29.912956053208674	128.0813417177934	133.05230584976158	57.47167646046993	0.003424744500684981	9.595523882754951e+21	-0.3016599400650597	0.013869667839123743	3.410612439817883e+22	-0.07893455540658982	-0.2805632916875357	0.0	181.061371	200.741577	-15.501688	-21.576662	-12.958529	-17.695997	0.0		True	0.0	None	0.0	None	0.0	None	0.0	None	0.0	None	0.0	None	0.0	None	0.0	None	1.4682e-06	12
2014-02-23 20:00:00	18.78516621426444	97841236.4319	6.754555074924013e+20	418321303426.8434	0.06608125954010813	26043476647.26532	2.012162692627434e+20	-7.666025231468922e+22	1469.968688027207	-0.5899779052432305	22.219181902914094	5.491329479768788	30.365192103539254	120.40003096731563	124.81611332122246	52.22101582214266	0.00019098629924886744	9.826878278368743e+21	0.1462133159936586	0.0008495624062670273	3.6131694373506717e+22	-0.07562773258236828	-0.2780698043082944	0.0	181.06337	200.631271	-15.507284	-21.448957	-12.964021	-17.575535000000002	0.0		True	0.0	None	0.0	None	0.0	None	0.0	None	0.0	None	0.0	None	0.0	None	0.0	None	1.5311e-06	12
2014-02-23 20:12:00	18.54808255841464	102394592.8982	6.579662373434922e+20	394517323855.0225	0.43288549862308734	92875493195.55583	2.0305500368581185e+20	-8.14812242753241e+22	1461.4748219378182	-0.5991946804964401	21.014158239904464	3.8348082595870214	31.162298742751325	124.36864942344684	128.30774213001214	54.50081004666236	-0.0012769483735194315	7.536090340715356e+21	0.5321835633302285	-0.005287187023800557	3.688829357487455e+22	-0.05541872111100266	-0.2712682520327524	0.0	181.065384	200.520981	-15.510309	-21.349512	-12.940923	-17.446667	0.0		True	0.0	None	0.0	None	0.0	None	0.0	None	0.0	None	0.0	None	0.0	None	0.0	None	1.4552e-06	12
2014-02-23 20:24:00	18.718909944732527	107331335.5475	6.640974841915752e+20	409215900540.7144	0.4539756920312758	62262216118.08756	2.1200993278377764e+20	-8.421248471359592e+22	1404.6538261982846	-0.5907958250015178	20.872607224137525	3.089887640449438	31.232551416272035	126.45062382643316	128.8678314347131	58.61595807579199	-0.0012752126180653814	7.013211012065679e+21	0.33972691351058665	-0.005317672893982268	3.980023082329644e+22	-0.04920144322869189	-0.2792200026453324	0.0	181.067383	200.41069	-15.514743	-21.243628	-12.943955	-17.319717	0.0		True	0.0	None	0.0	None	0.0	None	0.0	None	0.0	None	0.0	None	0.0	None	0.0	None	1.4075999999999999e-06	12
2014-02-23 20:36:00	16.359255045496422	103793316.2363	6.988485098566255e+20	361250499190.4693	1.1888863342278688	70923058276.75107	2.079732481316177e+20	-7.87208236952806e+22	1469.8990757883764	-0.5710941896562053	21.647287389690703	3.0726256983240217	31.15161954130197	121.00465245840792	124.49331635740994	55.126211771076704	-0.003320911548122539	4.805460750665509e+21	0.3848172245546105	-0.014581383091436225	4.073514390972191e+22	-0.034862068059007705	-0.29552033260859056	0.0	181.069489	200.30043	-15.519884	-21.138983	-12.947702	-17.193863	0.0		True	0.0	None	0.0	None	0.0	None	0.0	None	0.0	None	0.0	None	0.0	None	0.0	None	1.3313999999999999e-06	12
2014-02-23 20:48:00	14.43444760612216	93784078.8697	6.8382887088588e+20	322739218594.1741	1.349133651083739	72402341962.03009	1.8083792977534773e+20	-6.996491811397194e+22	1710.678694202601	-0.5617443622802468	22.760270533262464	4.651162790697675	31.59048260274962	131.40249783444622	132.26812318095094	62.06863713260443	-0.004482171598284847	7.867736408248214e+20	0.46722947953606797	-0.018422387220371872	3.7067050117391215e+22	-0.0063169609718415004	-0.29760924462006483	0.0	181.071594	200.190186	-15.525088	-21.037102	-12.929199	-17.09296	0.0		True	0.0	None	0.0	None	0.0	None	0.0	None	0.0	None	0.0	None	0.0	None	0.0	None	1.3284999999999999e-06	12
2014-02-23 21:00:00	11.748980117654787	90257285.6694	6.096195381021872e+20	261728850623.2123	0.9990861508485764	92994995903.57983	1.7089627047423892e+20	-6.5946472476674e+22	1645.2884590166375	-0.55016971228324	21.243070225292254	1.7921146953405016	31.784180993454466	130.47084583395224	131.36975590966244	61.84460501920218	-0.0035809539456938227	-5.818464249626402e+20	0.6474299293581347	-0.014281420892673606	3.6318822225221607e+22	0.004854153197169957	-0.30299597876420165	0.0	181.073654	200.079956	-15.530567	-20.934607	-12.932024	-16.969053	0.0		True	0.0	None	0.0	None	0.0	None	0.0	None	0.0	None	0.0	None	0.0	None	0.0	None	1.3706e-06	12
2014-02-23 21:12:00	13.520737106360302	95449536.0781	6.76733527838864e+20	292963302556.71265	1.4262586006563636	179866023708.3186	1.828043278982916e+20	-7.200812875578e+22	1692.9287038297366	-0.5680612615815589	21.68889543079431	1.9933554817275747	31.136955956906753	129.22720585902192	129.4640105414635	60.31578643524293	-0.004738400666632437	5.647360294033285e+19	1.1606811426705	-0.019058618827216642	3.857207065354068e+22	-0.0004455117316149735	-0.30428924478202823	0.0	181.075745	199.969742	-15.509666	-20.813189	-12.935919	-16.867352	0.0		True	0.0	None	0.0	None	0.0	None	0.0	None	0.0	None	0.0	None	0.0	None	0.0	None	1.3961e-06	12
2014-02-23 21:24:00	14.490949480641929	98269351.0768	7.302944375793421e+20	322445017151.6791	2.6968517415381448	237520018309.5417	1.903071127451392e+20	-7.287784221306234e+22	1740.19698966827	-0.5584250864922571	21.342450588364194	1.2658227848101269	30.85200130212611	130.06424841511213	129.7029505818166	60.50622415998771	-0.008534340954234634	-2.0321130139789862e+21	1.4599422094310714	-0.03521948886456401	3.9237882601001085e+22	0.015571027504843753	-0.3006595327174731	0.0	181.07785	199.859543	-15.513028	-20.712151	-12.940441	-16.744167	0.0		True	0.0	None	0.0	None	0.0	None	0.0	None	0.0	None	0.0	None	0.0	None	0.0	None	1.2429e-06	12
