Timestamp	TOTUSJH	TOTBSQ	TOTPOT	TOTUSJZ	ABSNJZH	SAVNCPP	USFLUX	TOTFZ	MEANPOT	EPSZ	MEANSHR	SHRGT45	MEANGAM	MEANGBT	MEANGBZ	MEANGBH	MEANJZH	TOTFY	MEANJZD	MEANALP	TOTFX	EPSY	EPSX	R_VALUE	CRVAL1	CRLN_OBS	LAT_MIN	LON_MIN	LAT_MAX	LON_MAX	QUALITY	NOAA_AR	IS_TMFI	BFLARE	BFLARE_label	CFLARE	CFLARE_label	MFLARE	MFLARE_label	XFLARE	XFLARE_label	BFLARE_loc	BFLARE_label_loc	CFLARE_loc	CFLARE_label_loc	MFLARE_loc	MFLARE_label_loc	XFLARE_loc	XFLARE_label_loc	XR_MAX	XR_QUAL
2014-01-22 22:12:00	60.81185051338788	452980606.5239	3.7054613723256057e+21	1370165565654.1074	10.610423538108972	634936911763.0021	9.1829122061221e+20	-3.719699214538787e+23	1807.1013726928713	-0.6183234757201952	24.294941379165948	5.116580310880829	29.38204301537782	129.41814569536317	129.60841075742846	48.5523553982882	0.00687203597027783	-1.620455586371418e+23	0.21580346050228527	0.028947947254732875	-7.816910975665556e+22	0.2693674065094045	0.1299400646422474	2.96726174090476	277.79247999999995	260.770996	-39.458008	11.438506	-36.235027	20.661081	0.0		True	0.0	None	0.0	None	0.0	None	0.0	None	0.0	None	0.0	None	0.0	None	0.0	None	6.8267e-07	12
2014-01-22 22:24:00	57.99807417919488	441103524.9471	3.6228475420054913e+21	1267923472683.6091	11.606419311283958	705133029286.36	8.754276067829261e+20	-3.617516886049483e+23	1921.096529366619	-0.6175292200250888	23.7741078526106	5.28169014084507	28.89012414702219	131.76839752952458	132.24771854434357	49.62911953586497	0.008173534726256308	-1.606028372851831e+23	0.06313836315636709	0.032533859669653144	-7.396458579282967e+22	0.2741575173429025	0.1262614506383263	3.0260542421792618	277.78909300000004	260.660889	-39.457355	11.554619	-36.234562	20.740923	0.0		True	0.0	None	0.0	None	0.0	None	0.0	None	0.0	None	0.0	None	0.0	None	0.0	None	6.6369e-07	12
2014-01-22 22:36:00	55.11870848348296	425796256.4384	3.561473841492353e+21	1227533779788.3623	8.95633609963263	473761736239.4302	8.481652695650379e+20	-3.500438753458535e+23	1907.3569514195333	-0.6190249913339291	25.072086795717247	6.330014224751067	29.54166810942708	128.83973541875307	129.93021794550094	49.18281741354063	0.006370082574418656	-1.565425216803784e+23	0.3961593268012181	0.02598393893830338	-6.335379583502615e+22	0.27683310565238123	0.1120361922601859	2.9487506893674884	277.78558300000003	260.55078100000003	-39.457249	11.642176	-36.232784	20.848408	0.0		True	0.0	None	0.0	None	0.0	None	0.0	None	0.0	None	0.0	None	0.0	None	0.0	None	5.9576e-07	12
2014-01-22 22:48:00	55.001492005701934	422886014.12960017	3.4830766796664115e+21	1238299850617.5024	8.863764892028925	529086407618.4747	8.410629784822318e+20	-3.482934523436158e+23	1903.2741620646186	-0.6201682405874651	24.602319310222626	6.2409288824383164	29.1001022798467	130.92507058318068	132.11051978292593	50.57066567626047	0.006432340269977449	-1.5483102413927293e+23	0.007054091084232318	0.025874072269531947	-6.227631409144427e+22	0.2756907521019848	0.1108886540372291	3.0955185733285195	277.782227	260.440735	-39.455784	11.707527	-36.231567	20.93746	0.0		True	0.0	None	0.0	None	0.0	None	0.0	None	0.0	None	0.0	None	0.0	None	0.0	None	5.4592e-07	12
2014-01-22 23:00:00	54.400140819320825	419260537.8781	3.5363023950653576e+21	1238937544331.1416	7.107291101342144	538543691788.7847	8.355407499259507e+20	-3.355123484867432e+23	1897.925522921184	-0.6025761853980021	25.209403255484627	6.6999287241625085	29.947021229453753	127.89765579825584	128.80725431082928	48.800746154156656	0.005065781255411365	-1.564811427490429e+23	0.10950488639476164	0.021155896196654967	-7.165812987255114e+22	0.2810382703042721	0.12869714854343905	3.0026884343753304	277.77887000000004	260.330719	-39.455849	11.787678	-36.231003	21.049284	0.0		True	0.0	None	0.0	None	0.0	None	0.0	None	0.0	None	0.0	None	0.0	None	0.0	None	5.357e-07	12
2014-01-22 23:12:00	55.202480801349104	419860351.2097	3.6657264147765385e+21	1262786231746.3677	7.08618912397825	584997969355.0894	8.417104438844377e+20	-3.420845979618177e+23	1960.400955175882	-0.6135022607577647	25.59642893637532	7.457386363636362	29.73039777042265	130.28419917417241	130.97214937247605	49.44242770738689	0.005032804775552734	-1.562911742195213e+23	0.3381228991830048	0.02092031848247477	-6.586666697042541e+22	0.28029612935354764	0.11812677137672573	3.0032273165166723	277.775543	260.220734	-39.455879	11.86522	-36.231236	21.139339	0.0		True	0.0	None	0.0	None	0.0	None	0.0	None	0.0	None	0.0	None	0.0	None	0.0	None	5.9286e-07	12
2014-01-22 23:24:00	57.412938983370154	421071163.4566	3.8178661230163263e+21	1335244649646.5537	6.4504111634556125	414398343970.7144	8.538014250163566e+20	-3.3811076429368804e+23	1982.623255899472	-0.6046318213539718	26.47750640636965	8.758620689655173	30.054821074306307	127.5451716039464	128.18829946447573	48.496086554331	0.004448559423072835	-1.5474409061633467e+23	0.062048913751327775	0.0190935416694219	-6.5794512150992775e+22	0.2767235215021078	0.11765805741220355	3.0278045413322072	277.772247	260.110809	-39.455868	11.940474	-36.23063300000001	21.237309	0.0		True	0.0	None	0.0	None	0.0	None	0.0	None	0.0	None	0.0	None	0.0	None	0.0	None	5.920600000000001e-07	12
2014-01-22 23:36:00	53.61979364519695	411580987.8174	3.733161076023534e+21	1246698264197.3838	5.2705262384773945	482607860931.0747	8.259473475778921e+20	-3.297812235266812e+23	2041.410250900945	-0.6033344477042969	26.49531046439884	7.4074074074074066	29.93187048259439	126.2775371406595	128.23035903966792	47.63751323191889	0.003827542656846329	-1.5167519503601424e+23	0.032795252698262736	0.015973664064834383	-6.396422399069265e+22	0.2774896310010549	0.11702248946000468	3.0192202097665084	277.76901200000003	260.000916	-39.455452	12.051499	-36.234051	21.337109	0.0		True	0.0	None	0.0	None	0.0	None	0.0	None	0.0	None	0.0	None	0.0	None	0.0	None	5.282800000000001e-07	12
2014-01-22 23:48:00	52.99289646041419	409699373.8362	3.619604829311523e+21	1235767281238.5337	7.538340361786983	746937262964.5095	8.347494452834447e+20	-3.334571561688123e+23	1945.4074014657967	-0.6128614184379658	25.734458490233365	7.2805139186295476	29.458022643566583	126.88479591826305	128.45275942493842	45.98181585461772	0.00538068548307422	-1.5175346012938297e+23	-0.1318741782486186	0.02281620364945277	-6.358892941043297e+22	0.2789079169759364	0.11687019083105392	3.0200612627235746	277.765808	259.891052	-39.455273	12.134935	-36.240997	21.437618	0.0		True	0.0	None	0.0	None	0.0	None	0.0	None	0.0	None	0.0	None	0.0	None	0.0	None	5.4312e-07	12
2014-01-23 00:00:00	53.54163079007802	407416948.1774	3.702425128225625e+21	1246378503780.9685	9.381694349174829	883680094683.7822	8.30791333739103e+20	-3.274866168068872e+23	2001.3479254592803	-0.6052598868450286	25.81638361555449	7.753050969131372	29.53524976283632	125.06724742131924	127.2317035276442	47.30510906682746	0.0067348846727744655	-1.5112309445316226e+23	-0.2303112384813517	0.02868975441458177	-6.2323748870230555e+22	0.2793052978477254	0.11518658550617268	2.9782938558724195	277.762634	259.78125	-39.455448	12.244644	-36.256855	21.546568	0.0		True	0.0	None	0.0	None	0.0	None	0.0	None	0.0	None	0.0	None	0.0	None	0.0	None	4.4841000000000003e-07	12
2014-01-23 00:12:00	54.45576336779447	400222045.36300004	3.3421660438559436e+21	1219502577886.9688	8.429879843807946	705936550612.5433	7.981511029643238e+20	-3.2919260194229474e+23	1956.9267612604485	-0.6193506217194399	24.57281581363774	5.909797822706065	28.881249767489553	126.10582077278153	129.89496182288158	45.96463780412797	0.006560217777282448	-1.434632216519938e+23	0.15464891416175575	0.0260365867213658	-5.57184773062606e+22	0.2699150436546313	0.1048300397921526	2.880140888654272	277.759491	259.671448	-39.45483	12.360382	-36.257595	21.647223	0.0		True	0.0	None	0.0	None	0.0	None	0.0	None	0.0	None	0.0	None	0.0	None	0.0	None	4.3476999999999997e-07	12
2014-01-23 00:24:00	53.20625998761504	403928350.3491	3.4398804309702355e+21	1198826892968.233	8.671187980361656	551608060323.6299	7.95348449040413e+20	-3.3135869728631065e+23	2003.2367736584986	-0.617705545459384	25.772255068335546	7.0378963650425375	29.417189107631486	127.73617183775028	130.0042902093966	47.23044256629762	0.0067062552052294345	-1.4361788797708209e+23	-0.1058709193141211	0.02654023639418477	-5.540777019663852e+22	0.2677266857853295	0.1032889348983349	3.02139710169355	277.756439	259.561737	-39.454639	12.444036	-36.256798	21.748377	0.0		True	0.0	None	0.0	None	0.0	None	0.0	None	0.0	None	0.0	None	0.0	None	0.0	None	5.018699999999999e-07	12
2014-01-23 00:36:00	53.47556578427545	399462560.9591	3.1150049481091276e+21	1187942088557.1768	12.31428830031918	880743198734.2792	7.847984541878389e+20	-3.346906266409003e+23	1885.4973095570624	-0.6308920056072626	23.780052670591235	4.180064308681672	28.451967333983067	128.3525814651967	130.93689367732694	48.52701589838295	0.009898945579034712	-1.3866921263861496e+23	-0.8388734995063136	0.037804023707550816	-5.69191163139989e+22	0.2613915380768084	0.10729256390935786	2.9229777302140496	277.75338700000003	259.452026	-39.453674	12.55611	-36.256359	21.849148	0.0		True	0.0	None	0.0	None	0.0	None	0.0	None	0.0	None	0.0	None	0.0	None	0.0	None	5.349799999999999e-07	12
2014-01-23 00:48:00	50.963979328973	396178237.0983	3.192510891744387e+21	1153181224136.464	6.981516895254508	527715791679.8967	7.968842905076624e+20	-3.2994211235774225e+23	1850.5924822899744	-0.6270969556575021	23.846982763152948	4.387990762124711	28.38681674051628	125.51687325138629	127.59634827812668	46.68253497338061	0.005374531867016558	-1.3944532945744343e+23	-0.1214290061707689	0.02166086229216536	-4.660675388991152e+22	0.26503358712999475	0.08858206449788505	2.9209395972175423	277.75036600000004	259.342377	-39.45317100000001	12.666211	-36.258404	21.950975	0.0		True	0.0	None	0.0	None	0.0	None	0.0	None	0.0	None	0.0	None	0.0	None	0.0	None	4.5239e-07	12
2014-01-23 01:00:00	51.621634700092876	402349529.38250005	3.4293942688967054e+21	1232401548366.0205	8.723100281860312	699466978361.3519	8.220299372677682e+20	-3.263153758487631e+23	1853.7614450471312	-0.6106910910461402	24.986745362280914	6.676238334529793	29.64286410579937	125.31210305755951	127.32602529440516	47.40092817474435	0.006262096397602521	-1.4380618763755506e+23	0.21368853340553934	0.026920623030146442	-4.7598761081472635e+22	0.2691296951580572	0.08907989475421241	2.952702137226096	277.747406	259.232758	-39.452545	12.755591	-36.261513	22.048767	0.0		True	0.0	None	0.0	None	0.0	None	0.0	None	0.0	None	0.0	None	0.0	None	0.0	None	4.6876e-07	12
2014-01-23 01:12:00	51.92422313101369	390610196.9871	3.2139716438154255e+21	1217184001746.8794	7.341796220972908	473906668329.6926	7.956659019172031e+20	-3.203294468581433e+23	1811.4365477066683	-0.6175055006223144	24.425478804411085	5.538922155688622	29.12630491366517	126.5662207864694	127.55893643519907	48.229898692708204	0.0054953564528240325	-1.403674425872516e+23	-0.21745667491932305	0.02324036684303616	-4.69630721575746e+22	0.27058913489242725	0.09053165629280248	2.8981876166849885	277.744476	259.123169	-39.451538	12.858935	-36.276756	22.157877	0.0		True	0.0	None	0.0	None	0.0	None	0.0	None	0.0	None	0.0	None	0.0	None	0.0	None	4.9537e-07	12
2014-01-23 01:24:00	52.571006135354736	385675810.2687	3.1740797628897233e+21	1241441644481.5532	6.894092425247562	444121100405.5752	7.93084821929455e+20	-3.168257663981109e+23	1788.9526610438184	-0.61856531494182	24.18404753236515	4.341317365269461	29.12186634320893	125.42823217206869	126.75288834610821	47.81336451060313	0.005160248821293086	-1.4066829375804412e+23	0.13003039839663413	0.022087902016364715	-4.249531954009196e+22	0.27463841852255305	0.08296714946422677	2.693140614328947	277.741577	259.013641	-39.452656	12.958499	-36.286045	22.251955	0.0		True	0.0	None	0.0	None	0.0	None	0.0	None	0.0	None	0.0	None	0.0	None	0.0	None	5.0802e-07	12
2014-01-23 01:36:00	52.29161124019801	393695086.5724	3.1831989752154093e+21	1221011224563.679	5.092066495250073	331767923100.8408	8.129707825638315e+20	-3.2891396379244054e+23	1776.8035235143107	-0.6290858068437035	23.86670244800365	3.5581912527798365	28.317360935192102	125.60247503477564	127.09332161537485	46.62372019319295	0.0037746971795775187	-1.4194872954050612e+23	-0.061547815032597764	0.01587888879740561	-4.487784896712081e+22	0.2714932805643331	0.08583405064768469	2.720355278548512	277.738739	258.904144	-39.45248400000001	13.062957	-36.28524	22.355188	0.0		True	0.0	None	0.0	None	0.0	None	0.0	None	0.0	None	0.0	None	0.0	None	0.0	None	5.074800000000001e-07	12
2014-01-23 01:48:00	53.06353498547911	396785628.2031	3.1085813508517334e+21	1217080400269.5889	3.3699468797742007	314264691223.4205	8.136744672943828e+20	-3.327217881588855e+23	1752.0374040297213	-0.6314121034420637	23.184691124839002	3.892215568862276	27.87318533097973	126.82827108513818	128.2988023663483	46.79533200970683	0.002522415329172307	-1.4301341881591843e+23	0.3627252868301503	0.010411982690624023	-4.3066552778421615e+22	0.2713991292685602	0.08172816943637135	2.7112872825871173	277.735931	258.794678	-39.479378	13.168164	-36.285076	22.459446	0.0		True	0.0	None	0.0	None	0.0	None	0.0	None	0.0	None	0.0	None	0.0	None	0.0	None	5.2064e-07	12
2014-01-23 02:00:00	52.37159391288045	408104234.4251	3.2962284025440103e+21	1234015368052.6316	2.0894390104404654	316179265464.5952	8.244864222079138e+20	-3.4068945259430276e+23	1849.4910773529125	-0.6286009695480929	23.89203715546811	4.545454545454546	28.23037243519339	129.4595441767837	131.0773455689263	47.56646518805739	0.0015569590241732232	-1.440500960126402e+23	0.4623310127588304	0.006287440736323817	-4.7372614445353065e+22	0.265784659100878	0.08740649627870192	2.859093889984738	277.733154	258.685242	-39.47794	13.247106	-36.302753	22.558193	0.0		True	0.0	None	0.0	None	0.0	None	0.0	None	0.0	None	0.0	None	0.0	None	0.0	None	7.8084e-07	12
2014-01-23 02:12:00	49.94841973992436	404096990.4941	3.1531140451000244e+21	1151702646548.45	3.2973392334154434	367890652639.2517	8.083990433768061e+20	-3.3677525400207845e+23	1824.9457268884626	-0.6275410312624005	23.20343394053579	3.61260568793236	28.063495199630484	131.01499106159125	133.37346816376328	48.48144930921996	0.002534465206314714	-1.4374627214933983e+23	0.012970169107907962	0.010027116561618052	-4.792450491608753e+22	0.2678542523322265	0.08930167190252034	2.852647328452335	277.730469	258.575867	-39.456169	13.324905	-36.315075	22.654001	0.0		True	0.0	None	0.0	None	0.0	None	0.0	None	0.0	None	0.0	None	0.0	None	0.0	None	7.0033e-07	12
2014-01-23 02:24:00	52.40234271684348	419503875.3836	3.240094287708149e+21	1217702555006.6255	1.6053128401569732	148911980178.01474	8.342126523785827e+20	-3.505229384496351e+23	1805.8838644265466	-0.6291699684143571	23.32599609145113	4.58919319022946	28.42479052455008	134.04123584482278	135.37460545193852	49.39480421837109	0.0011882404442316605	-1.4381796196891191e+23	0.2162836090542065	0.004697721884864399	-5.136509811338409e+22	0.25814556670561234	0.09219760994968876	2.854060128754167	277.727692	258.466492	-39.455452	13.404389000000002	-36.319408	22.760695	0.0		True	0.0	None	0.0	None	0.0	None	0.0	None	0.0	None	0.0	None	0.0	None	0.0	None	5.4095e-07	12
2014-01-23 02:36:00	54.186734520236385	422713848.1575	3.240300228482112e+21	1228984208078.517	2.8242386748662986	244013181606.4979	8.319797952091541e+20	-3.54583580456182e+23	1840.0480499608407	-0.6316253940240419	23.04369096519325	3.770739064856712	28.404751360163086	134.38424900105326	136.59786903887584	49.127026877105855	0.002129893419959501	-1.4804591195473725e+23	0.03577998009645294	0.008189633373699197	-5.438016558711755e+22	0.26371654703175146	0.09686825732840257	2.854203515185738	277.725067	258.357178	-39.454918	13.516346	-36.332508	22.85437	0.0		True	0.0	None	0.0	None	0.0	None	0.0	None	0.0	None	0.0	None	0.0	None	0.0	None	4.7482e-07	12
2014-01-23 02:48:00	50.66943588398714	419667695.4402	3.272604435653e+21	1132189055315.725	3.345006602726207	239106573206.82785	8.280320599936282e+20	-3.515241300969906e+23	1886.8518303465505	-0.6307206670076352	23.016516939868584	3.5987748851454824	28.07416822781831	136.35000171288138	137.51959408190328	50.30115095532457	0.0025612607984121035	-1.4844360145016643e+23	0.2063895985116157	0.009775564818462751	-5.1411351781495554e+22	0.26634429702971363	0.09224459805488228	2.8461726895803494	277.722382	258.247894	-39.477104	13.578809	-36.338982	22.943968	0.0		True	0.0	None	0.0	None	0.0	None	0.0	None	0.0	None	0.0	None	0.0	None	0.0	None	8.278799999999998e-07	12
2014-01-23 03:00:00	53.488351375955546	407214353.683	3.090076557289613e+21	1192799138088.6885	1.7885375670416281	202040945127.3809	7.978700971114056e+20	-3.41534106093425e+23	1858.4563247415838	-0.6315364921409353	22.82418648117197	2.396166134185304	28.174538113636803	134.37826883620156	135.81173047293694	49.90152414458807	0.0014285443826211087	-1.4247933840621042e+23	-0.0830425195124261	0.0053840389432042715	-5.27406914186517e+22	0.2634609544822605	0.09752370453600223	2.8448341396066894	277.719849	258.138641	-39.454487	13.649461	-36.343632	23.041996	0.0		True	0.0	None	0.0	None	0.0	None	0.0	None	0.0	None	0.0	None	0.0	None	0.0	None	8.4289e-07	12
2014-01-23 03:12:00	54.65113436271314	425935879.1198	3.283771997719354e+21	1228246158779.272	2.4667450911942264	132053129057.3229	8.426636966661347e+20	-3.646395725230421e+23	1864.7345248974486	-0.644624955655764	22.875020636814213	3.3936651583710407	27.840784694014182	138.69154043934904	140.8288211014717	49.35698272732058	0.00186029041568192	-1.4769501420574858e+23	-0.16666009430843104	0.0070427645167233125	-5.1397545214177486e+22	0.26110137011237805	0.0908627115681763	2.8408358093922264	277.71722400000004	258.029419	-39.454559	13.734925	-36.343918	23.134884	0.0		True	0.0	None	0.0	None	0.0	None	0.0	None	0.0	None	0.0	None	0.0	None	0.0	None	5.4357e-07	12
2014-01-23 03:24:00	50.25868194428379	414809444.9913	3.2109913442287847e+21	1129063263629.1416	2.1372593149772383	209626540155.30545	8.110279393228621e+20	-3.522310240332315e+23	1906.8097783237008	-0.6393909102934305	23.01067899846445	2.996845425867508	27.821291353455194	136.46390371388478	138.75710195747035	50.091169416750546	0.001686866073383771	-1.4614698665851694e+23	-0.23432608052224066	0.006288702197413612	-5.148009653779269e+22	0.2652947879668171	0.09344976319913116	2.8349550161068797	277.714722	257.920227	-39.454575	13.813288	-36.361305	23.227573	0.0		True	0.0	None	0.0	None	0.0	None	0.0	None	0.0	None	0.0	None	0.0	None	0.0	None	5.037700000000001e-07	12
2014-01-23 03:36:00	51.32832117944358	412257129.5853	3.238443230454804e+21	1179054444171.8416	3.0501784512702272	333489951989.326	8.21220287313483e+20	-3.466910868247162e+23	1845.9543454194213	-0.6332307355729684	23.44250678221826	3.5579106737320214	28.25918731845852	132.88920487785256	133.9560246630819	48.79997182450176	0.0023089920145876056	-1.475177638304454e+23	-0.2904970977804455	0.009060236304852948	-5.500610865375319e+22	0.2694409682002036	0.1004685726501912	2.83757868626778	277.712158	257.81106600000004	-39.473064	13.924843	-36.370171	23.310038	0.0		True	0.0	None	0.0	None	0.0	None	0.0	None	0.0	None	0.0	None	0.0	None	0.0	None	4.0056e-07	12
2014-01-23 03:48:00	51.496298676727285	392719714.5987	3.137548164322536e+21	1166061311867.8418	2.6419635244256505	99957628166.04677	7.841402977073184e+20	-3.293816846614539e+23	1855.8783175546664	-0.6315449156820125	23.753873840959425	5.184603299293008	28.28460035540685	134.75710228476083	135.34531628779533	49.3905818487873	0.002075383758386214	-1.4392665673548368e+23	-0.1540496924329884	0.008246602765257178	-5.204751661018889e+22	0.2759599350092285	0.09979408698095886	2.825232784852713	277.709717	257.701904	-39.482689	14.007559	-36.368637	23.388401	0.0		True	0.0	None	0.0	None	0.0	None	0.0	None	0.0	None	0.0	None	0.0	None	0.0	None	4.2815e-07	12
2014-01-23 04:00:00	49.70216581819703	408077865.76620007	3.1049764859085775e+21	1130328282104.7224	8.790787966329088	691615255128.6226	8.18217860146401e+20	-3.479182314875466e+23	1777.951945475098	-0.6419801557595259	22.725153232084107	2.8897338403041823	27.61976228689477	134.56952697487864	135.24051521777358	48.24307476300218	0.006685009860326303	-1.467429831559798e+23	-0.4406049566846544	0.02623897449343714	-6.1369617454593445e+22	0.27077075777348386	0.11323947125148752	2.89754712421704	277.707184	257.592773	-39.482674	14.102274	-36.367336	23.468046	0.0		True	0.0	None	0.0	None	0.0	None	0.0	None	0.0	None	0.0	None	0.0	None	0.0	None	4.1467e-07	12
2014-01-23 04:12:00	48.635632466552465	392241422.105	2.948976794300244e+21	1095991855494.4752	8.364814460453863	637597931235.4204	7.910163002772915e+20	-3.3466003445267625e+23	1745.7083037585599	-0.6424477767953405	22.827887245220666	2.9874213836477987	27.622875475131888	131.77530796585563	132.06675614829504	47.492709768202324	0.006576111997212157	-1.3909448727146458e+23	-0.205428293059106	0.02596816629040482	-6.545190414622936e+22	0.2670200648792337	0.1256481981021039	2.8546995374603963	277.704773	257.483673	-39.480904	14.182161	-36.3722	23.550976	0.0		True	0.0	None	0.0	None	0.0	None	0.0	None	0.0	None	0.0	None	0.0	None	0.0	None	3.9720999999999994e-07	12
2014-01-23 04:24:00	47.391958280155954	392728823.081	2.7789205758396937e+21	1106614040941.4006	6.892884596127175	594308698956.9163	8.014781490954662e+20	-3.340289304642587e+23	1612.088604401438	-0.6404404779440502	21.94594900844609	1.386748844375963	27.891803389053642	129.31330637032914	130.23104606977824	46.367124675090025	0.0053103887489423535	-1.370174651652725e+23	0.029576065480311345	0.02139822501029473	-6.393040948321702e+22	0.26270637922040363	0.12257507739728953	2.8523042384707797	277.702301	257.374603	-39.478481	14.218804	-36.39632	23.632994	0.0		True	0.0	None	0.0	None	0.0	None	0.0	None	0.0	None	0.0	None	0.0	None	0.0	None	4.947600000000001e-07	12
2014-01-23 04:36:00	50.409339339865205	407123530.1239	2.94134739292612e+21	1134666135976.9429	4.8925656153031145	241516716600.74945	8.195876665894994e+20	-3.4780381999625295e+23	1675.3378265258732	-0.6432735178774817	22.507565499298366	2.798789712556732	27.802077067923733	134.92992977843474	134.79673962773856	47.40996474221678	0.00370088170597815	-1.414147909378144e+23	0.13810788040824545	0.014626169241661687	-7.143596642805311e+22	0.2615508652189517	0.13212294628519744	2.388069807249236	277.699951	257.26556400000004	-39.477547	14.294826	-36.397339	23.711731	0.0		True	0.0	None	0.0	None	0.0	None	0.0	None	0.0	None	0.0	None	0.0	None	0.0	None	6.251299999999999e-07	12
2014-01-23 04:48:00	49.59158531334731	399176351.2397	2.836713686305189e+21	1109599411672.7034	5.535598223648602	343825220523.918	8.073755227547202e+20	-3.429130259375188e+23	1635.5353109754233	-0.6468547570365685	22.15387075236865	2.4502297090352223	27.592575602480782	131.8455498944262	132.58789095835377	45.39443970769074	0.004238589757770753	-1.3923573518835976e+23	0.007897773558162641	0.016841255097801315	-6.925731966684163e+22	0.2626476419489675	0.13064370058156255	2.6626630240828666	277.69751	257.156525	-39.476208	14.37491	-36.401485	23.794765	0.0		True	0.0	None	0.0	None	0.0	None	0.0	None	0.0	None	0.0	None	0.0	None	0.0	None	5.3629e-07	12
2014-01-23 05:00:00	49.39869942288339	401332124.93280005	2.85657357932034e+21	1125436829496.0088	1.0213534337591792	101916614445.25627	8.225909316190932e+20	-3.477328010031492e+23	1608.7983303430738	-0.6524231058135275	22.102432624841672	2.692595362752431	27.330540479947228	132.59508919489411	132.45487362247943	44.65633530077269	0.0007639143109642327	-1.452841197830934e+23	0.14953133940530114	0.0030802138219104755	-6.714401633942906e+22	0.27258491686958203	0.12597692121821955	2.392398894490056	277.695221	257.04751600000003	-39.475502	14.453270000000002	-36.425533	23.876015	0.0		True	0.0	None	0.0	None	0.0	None	0.0	None	0.0	None	0.0	None	0.0	None	0.0	None	5.564e-07	12
2014-01-23 05:12:00	49.11890093252906	394927479.5947	2.72994737870348e+21	1117656272297.9436	1.092645237146986	127859350568.44753	8.145454351453057e+20	-3.461262812047384e+23	1556.1052554468222	-0.6599404277994884	21.51308026831083	2.34670704012112	26.882353929219843	128.43959862954893	127.97925804970305	44.68156460850583	0.0008271349259250463	-1.3902279012013102e+23	0.04182086508681205	0.003333491229103009	-6.865302427826468e+22	0.26506730221819913	0.13089704154862195	1.8310189717553291	277.69281	256.938507	-39.478233	14.570039	-36.427513	23.956163	0.0		True	0.0	None	0.0	None	0.0	None	0.0	None	0.0	None	0.0	None	0.0	None	0.0	None	4.9283e-07	12
2014-01-23 05:24:00	47.725084097303714	394929576.85830015	2.721344415534976e+21	1087449813265.686	1.448308206657511	135686886073.27873	8.134255089998559e+20	-3.499721863401258e+23	1570.220093895305	-0.6672696980060626	21.41547106172829	1.839080459770115	26.37580304770404	130.21727040449343	129.59268727315802	45.40237491998701	0.0011098147177452194	-1.391516432262487e+23	0.014149411099153037	0.0043991165692852064	-6.947025019860697e+22	0.2653115835393474	0.13245450547141166	0.0	277.690521	256.829529	-39.476768	14.648463	-36.452641	24.037619	0.0		True	0.0	None	0.0	None	0.0	None	0.0	None	0.0	None	0.0	None	0.0	None	0.0	None	4.5479e-07	12
2014-01-23 05:36:00	46.3955844362802	392990321.09230006	2.6303305343828786e+21	1038307383364.88	0.8779316704945939	55519885687.85523	8.095740372409334e+20	-3.5102218740484394e+23	1525.8896089786385	-0.6725741870925654	21.079981950822905	1.2326656394453006	26.298548345291323	128.33678452063918	128.60513241608697	42.26871323026568	-0.0006763726274996871	-1.3765942966069236e+23	0.08390161553164663	-0.002671304940518239	-6.923094908559809e+22	0.2637616148545165	0.13264959017872716	2.237860035126079	277.68811	256.72052	-39.477184	14.766176000000002	-36.467407	24.119642	0.0		True	0.0	None	0.0	None	0.0	None	0.0	None	0.0	None	0.0	None	0.0	None	0.0	None	4.3448e-07	12
2014-01-23 05:48:00	44.892145634980814	396791595.59960014	2.69684012253017e+21	1022076712025.2302	2.4091375080782136	97955114605.0587	8.306028713081234e+20	-3.536628911473442e+23	1487.682189662185	-0.6711423470529486	21.60180490101477	1.9047619047619049	26.422770881778412	126.11657553842443	125.7265052588283	42.73884520376215	-0.0017649359033540023	-1.369975723661233e+23	-0.1381765433504847	-0.007266339339224491	-7.44924375977189e+22	0.25997885149915195	0.1413635149699641	0.0	277.685883	256.611572	-39.475266	14.851682	-36.493469	24.200201	0.0		True	0.0	None	0.0	None	0.0	None	0.0	None	0.0	None	0.0	None	0.0	None	0.0	None	4.117800000000001e-07	12
2014-01-23 06:00:00	43.37821148202737	391926913.7157	2.678265416553922e+21	997426401763.8264	1.4502999556615466	39023943715.004715	8.317604310105142e+20	-3.5282224019715045e+23	1466.6905825831072	-0.6778575750876219	21.698658884090616	2.2545454545454544	26.232368592539306	123.82103725554659	123.39240792491648	41.420229537926716	-0.0010547636041174883	-1.3440380652118423e+23	-0.055668897392992266	-0.004410904436555083	-6.990920189023132e+22	0.2582224927773464	0.1343126273534894	2.1297863564255732	277.683502	256.502594	-39.472736	14.960523	-36.523514	24.280167	66560.0		False	0.0	None	0.0	None	0.0	None	0.0	None	0.0	None	0.0	None	0.0	None	0.0	None	3.848900000000001e-07	12
2014-01-23 06:12:00	44.30001519067065	396410591.3741	2.59714573486819e+21	1033044832958.7068	0.5766162553867444	33638933295.983414	8.509482369896654e+20	-3.572217843998156e+23	1373.3267632042841	-0.6785474751360905	21.35281210999618	1.6151685393258428	26.444370370505233	122.0712539720797	122.23473214428972	40.71981216623392	-0.0004049271456367588	-1.3588380330599983e+23	-0.04633518431480644	-0.0017331573706828249	-6.893775455884842e+22	0.25811307056788474	0.1309481709690554	2.1234342492577207	277.681213	256.393616	-39.473507	15.070046	-36.557724	24.361422	66560.0		False	0.0	None	0.0	None	0.0	None	0.0	None	0.0	None	0.0	None	0.0	None	0.0	None	3.7867e-07	12
2014-01-23 06:24:00	44.06215822810108	398032851.42960006	2.615510900913871e+21	1025938994410.0188	1.7289728032650786	194173090605.1533	8.379451537927585e+20	-3.564084754696834e+23	1417.8877081530154	-0.6742433227395721	21.516472743948626	2.159827213822894	26.779632646945853	125.43124414087349	125.97691573975479	41.71621077580832	-0.0012456576392399705	-1.36033563778972e+23	0.27419562244225043	-0.0051919289945060966	-7.245839654164947e+22	0.2573443909423567	0.13707471456800108	2.1252821099483263	277.67886400000003	256.284668	-39.471977	15.155608	-36.587727	24.425743	0.0		True	0.0	None	0.0	None	0.0	None	0.0	None	0.0	None	0.0	None	0.0	None	0.0	None	3.6071e-07	12
2014-01-23 06:36:00	43.31381357206021	397185627.3921	2.6572481031686943e+21	999717129824.0706	1.4885885085075017	25283739105.67585	8.283661148829686e+20	-3.5654397056960347e+23	1472.3132274028892	-0.6759384271044243	21.61519684008316	1.9131714495952907	26.630031640353888	127.49931212454617	127.78172639263985	42.9212037810524	-0.0010953557825662263	-1.369857486724444e+23	-0.036491453109574926	-0.004472528061927753	-7.021188192480426e+22	0.2596984920133382	0.13310815200850232	2.112928582083291	277.676575	256.17569	-39.500004	15.234471	-36.592373	24.49127	0.0		True	0.0	None	0.0	None	0.0	None	0.0	None	0.0	None	0.0	None	0.0	None	0.0	None	3.7008000000000004e-07	12
2014-01-23 06:48:00	47.20747330200766	411485954.7386	2.788064261289472e+21	1053237911770.7296	1.5188130693883113	21637855907.560104	8.438402325149739e+20	-3.697957749429004e+23	1551.6455463607333	-0.6766973335527058	21.47712212598937	2.365114560236512	26.457244549917878	133.85092700787277	134.44825227394563	44.566677181560145	-0.001122552157714938	-1.399441565253969e+23	-0.02312688518789346	-0.00440275614151056	-7.431671710884363e+22	0.2560868565403189	0.13599377741325042	1.7850456819824183	277.674255	256.066742	-39.50169	15.31216	-36.618092	24.571928	0.0		True	0.0	None	0.0	None	0.0	None	0.0	None	0.0	None	0.0	None	0.0	None	0.0	None	3.9359e-07	12
2014-01-23 07:00:00	46.91270887196832	403290213.4284	2.629459074338898e+21	1041761751278.3818	2.3252682734209142	167734053548.74158	8.139093486016317e+20	-3.628707724290948e+23	1530.0996073930862	-0.6775196107219954	21.19892562589078	2.009273570324575	26.73571667333909	134.68507159194573	135.31029468537713	45.1058907490553	-0.001796961571422654	-1.3720109159822142e+23	0.2542430244530041	-0.006874130499467286	-7.1898154920709756e+22	0.2561695160731733	0.13424175666566654	1.77645351315397	277.671967	255.95776400000003	-39.500111	15.428522	-36.621616	24.652037	0.0		True	0.0	None	0.0	None	0.0	None	0.0	None	0.0	None	0.0	None	0.0	None	0.0	None	3.9034999999999995e-07	12
2014-01-23 07:12:00	46.785844590276	415748298.4312	2.837059748077982e+21	1075695722712.4427	0.25485709946444074	52476342120.95502	8.432361799095178e+20	-3.699569620837065e+23	1566.1798922065784	-0.670051611861256	21.935393606958986	2.6392961876832843	27.15391642952054	133.91422585714562	134.34875530509294	45.10583335198896	0.0001868453808390328	-1.4558941864299974e+23	0.02428515043267595	0.0007341188208727429	-7.534457485480354e+22	0.2636858733033194	0.1364611535950484	2.1927795692066474	277.669586	255.848785	-39.498142	15.50856	-36.648148	24.7351	0.0		True	0.0	None	0.0	None	0.0	None	0.0	None	0.0	None	0.0	None	0.0	None	0.0	None	3.8735e-07	12
2014-01-23 07:24:00	47.9876866451927	421256278.6192	2.950570974357011e+21	1092174308077.1492	1.7779431813123727	220094629013.8614	8.528149412013421e+20	-3.680741591398152e+23	1594.932781327891	-0.6579249811968686	22.049676282364736	2.799712849964106	27.68035669133255	135.16371201270528	135.30641790702813	47.3416079126388	-0.0012763411208272595	-1.4591989225318899e+23	0.3098954798290986	-0.005091392883916794	-7.484331070111716e+22	0.2608288030631909	0.13378087693202967	2.193002122355235	277.667297	255.739807	-39.49638	15.625513	-36.66032	24.816031	0.0		True	0.0	None	0.0	None	0.0	None	0.0	None	0.0	None	0.0	None	0.0	None	0.0	None	3.717e-07	12
2014-01-23 07:36:00	47.596756445631115	401283749.4244	2.7576946136882107e+21	1054997977063.256	1.8937869126330813	298966286680.3462	8.032330043088454e+20	-3.562106628577367e+23	1626.083185332656	-0.6684098299947026	21.90933761239417	2.6624902114330458	27.138057640643787	136.99017840738577	137.60652924772378	47.423696693065395	-0.0014829967992428202	-1.3926527733128884e+23	0.459183846692608	-0.005657268534384607	-6.58411703582704e+22	0.2613236773946563	0.12354735574942635	2.4206784403375003	277.664917	255.630814	-39.494442	15.709797	-36.664234	24.895414	0.0		True	0.0	None	0.0	None	0.0	None	0.0	None	0.0	None	0.0	None	0.0	None	0.0	None	3.8012e-07	12
2014-01-23 07:48:00	48.681889108862286	397876568.1755	2.768317998175705e+21	1119492612089.4807	1.5004152106043949	157814394630.0498	8.094220730680983e+20	-3.5354364224613925e+23	1586.3834962889628	-0.6690864586156662	22.24173668495213	1.9786910197869096	27.088621615089906	134.8013749853333	135.53461401014746	46.13137269923008	-0.0011418685012210008	-1.4144410151342563e+23	0.2355621430449825	-0.004518707779416614	-6.445582806961799e+22	0.2676850087656362	0.12198358727722786	2.4974402449416835	277.662598	255.521805	-39.517643	15.817813	-36.684338	24.974665	0.0		True	0.0	None	0.0	None	0.0	None	0.0	None	0.0	None	0.0	None	0.0	None	0.0	None	3.9857e-07	12
2014-01-23 08:00:00	47.94716972626651	387328430.9159	2.7217295697241115e+21	1058591297294.3564	3.881466285678667	247511902082.21506	7.824305035640533e+20	-3.43950122731219e+23	1642.169259142624	-0.6686573518103921	22.414757398022452	2.243589743589744	26.97992904702305	136.18016646233622	137.44408095563364	46.19650163036338	-0.003110149267370727	-1.368563118867202e+23	0.23351366580999874	-0.012011002882216086	-5.9007901404544635e+22	0.26605595706160623	0.11471450213694095	2.398966317261253	277.660217	255.412781	-39.51453400000001	15.936678	-36.685871	25.057407	0.0		True	0.0	None	0.0	None	0.0	None	0.0	None	0.0	None	0.0	None	0.0	None	0.0	None	4.5049e-07	12
2014-01-23 08:12:00	50.476237702140025	390434126.3403	2.9001910548090244e+21	1137543507341.2458	2.8107169279469097	232774536518.0905	7.877301777057382e+20	-3.437396080365049e+23	1724.9655665744413	-0.66293253553329	22.86357922640988	3.7914691943127967	27.328127526790727	136.35398213879992	136.8896389743791	46.91291737915616	-0.0022201555513008766	-1.3716081226248691e+23	0.03983616868667219	-0.008658141991228862	-6.26402366451491e+22	0.2645268770985493	0.1208072911433702	1.9822609674842715	277.65783700000003	255.303741	-39.51297	16.022799	-36.688927	25.138622	0.0		True	0.0	None	0.0	None	0.0	None	0.0	None	0.0	None	0.0	None	0.0	None	0.0	None	4.1476e-07	12
2014-01-23 08:24:00	46.74258602521165	385142377.5997	2.818760751995761e+21	1040480540818.4056	0.8320449610623608	175943541858.62604	7.682419891680126e+20	-3.393921919403115e+23	1749.7861528481842	-0.6635415149914137	22.534332804518037	2.3083264633140974	26.919839234038825	135.65043582234415	137.07128707900983	45.12986450458067	0.0006859397865312125	-1.3515417315373833e+23	-0.2844898509101815	0.002597298351485836	-6.3545444177671925e+22	0.26423826753096125	0.12423691912119846	0.0	277.655426	255.194687	-39.510906	16.131908	-36.70723	25.229052	0.0		True	0.0	None	0.0	None	0.0	None	0.0	None	0.0	None	0.0	None	0.0	None	0.0	None	4.0463e-07	12
2014-01-23 08:36:00	49.3694914017921	378938477.676	2.82930974098689e+21	1070640534714.7592	3.8816203900969173	227039936175.3084	7.499762109560581e+20	-3.325776052278989e+23	1796.3182351840603	-0.6608635037245275	22.915322044625235	3.2040472175379437	27.257853969127822	137.94845682298535	139.05355585745485	46.30059991242876	0.003272867108007519	-1.3421251491416736e+23	-0.3754679304527204	0.012335035628059224	-5.651855865800918e+22	0.26669310096534604	0.11230778053921388	0.0	277.653015	255.085602	-39.508785	16.25069	-36.708725	25.314762	0.0		True	0.0	None	0.0	None	0.0	None	0.0	None	0.0	None	0.0	None	0.0	None	0.0	None	4.4e-07	12
2014-01-23 08:48:00	45.91682412491596	356440739.4944	2.471909300892803e+21	1008569500856.038	0.6630121163624727	223683472464.8704	7.001792548271214e+20	-3.1323649565659585e+23	1701.3851637034866	-0.6617172441875311	22.138879453551077	2.1937842778793417	27.126850942057786	135.19158731751378	136.13982670247015	46.738362588248044	0.0006060439820497923	-1.2696849185355407e+23	-0.4010268838214191	0.0022387572126472445	-5.121326349534684e+22	0.2682230253912994	0.10818886067204407	0.0	277.650543	254.976501	-39.507366	16.345179	-36.708443	25.40836	0.0		True	0.0	None	0.0	None	0.0	None	0.0	None	0.0	None	0.0	None	0.0	None	0.0	None	4.3973e-07	12
2014-01-23 09:00:00	41.85090574205589	346323074.5616	2.3167370332526404e+21	909016039954.8304	1.4644446459971368	103986884280.56523	6.807548879299884e+20	-3.065963569989438e+23	1659.8218169509255	-0.6666118132193259	21.55619351639021	1.8078020932445291	26.73606622622043	130.4963523691035	131.40104649052955	46.00117891584171	0.0013933821560391411	-1.208658223505932e+23	-0.15685223171747334	0.005074427734298799	-4.9830744200183615e+22	0.2627904185882137	0.1083436315763766	0.0	277.648071	254.867386	-39.505707	16.454428	-36.710686	25.502262	0.0		True	0.0	None	0.0	None	0.0	None	0.0	None	0.0	None	0.0	None	0.0	None	0.0	None	4.4981000000000003e-07	12
2014-01-23 09:12:00	45.86989737554136	364980708.0159	2.4915593263328254e+21	996373061352.7356	1.5482597703017638	154964806595.29874	7.158561713639845e+20	-3.186101617615374e+23	1678.0965593269927	-0.6573205828568031	22.052657605886804	2.8622540250447237	27.24361575164649	132.51923598393773	133.77276834140017	44.924158763852816	-0.0013848477373003256	-1.2644356967736162e+23	0.2718649664606864	-0.005119144533992421	-5.8208992129677106e+22	0.2608641245442273	0.12009023322621908	0.0	277.645599	254.75824	-39.503448	16.56575	-36.714539	25.585953	0.0		True	0.0	None	0.0	None	0.0	None	0.0	None	0.0	None	0.0	None	0.0	None	0.0	None	4.4640000000000003e-07	12
2014-01-23 09:24:00	43.11686955433029	375205109.9497	2.5952687328313984e+21	929222816403.6752	1.0293074594118656	67522089955.180885	7.27998814060784e+20	-3.332079992477292e+23	1754.2223640667942	-0.6687043897662691	21.909409957652965	1.7055655296229804	26.680751482292514	134.70401450957866	135.90253587366774	45.54683069336252	0.0009239743800824649	-1.2719230163157174e+23	-0.11888468732031532	0.003287963312105636	-6.476814211820989e+22	0.2552581289690844	0.12998109603981153	0.0	277.64306600000003	254.649063	-39.501888	16.661842	-36.731441	25.668606	0.0		True	0.0	None	0.0	None	0.0	None	0.0	None	0.0	None	0.0	None	0.0	None	0.0	None	4.343e-07	12
2014-01-23 09:36:00	43.733851275738104	369661909.7054	2.455781892326091e+21	925591206962.4167	0.009786038751287585	108544633294.54076	7.032187378934815e+20	-3.255811540081059e+23	1744.5016440641116	-0.6631961722590722	21.33224904516045	1.1320754716981132	27.04887178503152	137.2610380774895	137.9580444366863	46.636247746925584	-9.23211202951659e-06	-1.2382956816766754e+23	-0.20084983454497227	-3.1833819335610946e-05	-6.683114217758232e+22	0.2522360235237889	0.1361324423549741	0.0	277.640503	254.539856	-39.499653	16.777901	-36.732635	25.748459	0.0		True	0.0	None	0.0	None	0.0	None	0.0	None	0.0	None	0.0	None	0.0	None	0.0	None	3.9503999999999997e-07	12
2014-01-23 09:48:00	43.227136712075776	370677727.2887	2.4193182454272245e+21	918710785140.486	2.771863325704925	310481484606.8429	7.069459601157364e+20	-3.276059235100957e+23	1705.7259347478725	-0.6654918770346634	21.38874341667057	1.5917602996254685	26.922214943996398	133.59858219421264	133.31462383396791	47.366666452176396	0.0025953776457911283	-1.2519969722135706e+23	-0.570213889423858	0.00897972005364943	-6.976582288876411e+22	0.2543280677446139	0.14172084536707327	0.0	277.637909	254.430618	-39.497444	16.888042000000002	-36.733593	25.830492	0.0		True	0.0	None	0.0	None	0.0	None	0.0	None	0.0	None	0.0	None	0.0	None	0.0	None	4.1729e-07	12
2014-01-23 10:00:00	41.8118737276579	375441847.4442	2.4575686561159394e+21	897102969649.4512	0.15973968317579526	8410856628.040399	7.209212803199644e+20	-3.359849698805146e+23	1691.5149403631085	-0.6738522336772833	21.27827465236632	1.279707495429616	26.533685905884862	134.35161248898535	134.56925368227078	47.043262499236725	0.0001460143356268695	-1.2483095866824335e+23	-0.015079989286956672	0.000508373635745896	-7.362632902993505e+22	0.25036125979262386	0.14766513600868567	0.0	277.635315	254.321365	-39.493675	17.005717999999998	-36.755142	25.911871	0.0		True	0.0	None	0.0	None	0.0	None	0.0	None	0.0	None	0.0	None	0.0	None	0.0	None	4.3783e-07	12
