Timestamp	TOTUSJH	TOTBSQ	TOTPOT	TOTUSJZ	ABSNJZH	SAVNCPP	USFLUX	TOTFZ	MEANPOT	EPSZ	MEANSHR	SHRGT45	MEANGAM	MEANGBT	MEANGBZ	MEANGBH	MEANJZH	TOTFY	MEANJZD	MEANALP	TOTFX	EPSY	EPSX	R_VALUE	CRVAL1	CRLN_OBS	LAT_MIN	LON_MIN	LAT_MAX	LON_MAX	QUALITY	NOAA_AR	IS_TMFI	BFLARE	BFLARE_label	CFLARE	CFLARE_label	MFLARE	MFLARE_label	XFLARE	XFLARE_label	BFLARE_loc	BFLARE_label_loc	CFLARE_loc	CFLARE_label_loc	MFLARE_loc	MFLARE_label_loc	XFLARE_loc	XFLARE_label_loc	XR_MAX	XR_QUAL
2014-03-16 13:12:00	146.67967876936768	1148631772.0398002	1.0168176297178212e+22	3392580386576.8438	5.662205344323675	524339865108.6183	1.5032686210429228e+21	-6.356256570068607e+23	2765.0794427784363	-0.4166852197292483	33.458910109180444	23.907547851209827	45.08556152867561	130.68090591019708	128.57118970578722	74.19625468116534	-0.0020448556678669826	2.8370182019702848e+23	0.3095951010507124	-0.006959233734235986	8.054453681850435e+22	-0.18598109434891893	-0.05280107505453759	0.0	283.777527	287.700378	10.970207	-8.810360000000003	15.389038	-0.924768	0.0	12009.0	True	0.0	None	0.0	None	0.0	None	0.0	None	0.0	None	0.0	None	0.0	None	0.0	None	6.3195e-07	12
2014-03-16 13:24:00	144.5428262180649	1162043735.7415	1.0503968337558709e+22	3442732510538.424	3.5242735160026744	1138787162707.1582	1.4655368375846314e+21	-6.031895633507863e+23	2845.0901792568475	-0.3908577909869107	33.33921108938683	22.877697841726626	48.07094451075214	131.981022995289	127.84398619497532	76.98842294193079	0.0012677242863318972	2.777863651916809e+23	0.7870443232246926	0.004361083484713214	6.848372106831113e+22	-0.18000139866803633	-0.044376424198435946	0.0	283.780151	287.590515	10.969382	-8.688589	15.42004	-0.771744	0.0	12009.0	True	0.0	None	0.0	None	0.0	None	0.0	None	0.0	None	0.0	None	0.0	None	0.0	None	6.846800000000001e-07	12
2014-03-16 13:36:00	153.75664776954358	1205624610.1480002	1.1025009679406335e+22	3530365650574.121	9.997832163709864	912574505634.9408	1.5167740622244956e+21	-6.249972591568504e+23	2960.65914081182	-0.3903493389960149	33.15825832366262	22.43223965763196	47.493217751507714	131.34340248786748	128.39125468953029	76.37413087073868	0.0035655606860591524	2.7724699784649443e+23	0.399834551600916	0.011928883528464806	6.0501911803730676e+22	-0.17315785111442988	-0.03778717575888526	0.0	283.782806	287.480652	10.967607	-8.592775	15.450415	-0.6490739999999999	0.0	12009.0	True	0.0	None	0.0	None	0.0	None	0.0	None	0.0	None	0.0	None	0.0	None	0.0	None	8.634099999999998e-07	12
2014-03-16 13:48:00	157.8389638281507	1234402244.1978002	1.1428307404124615e+22	3614807976416.1626	3.8530738596553378	1235826964311.1396	1.577866535721313e+21	-6.353165554225202e+23	2976.605141823118	-0.3875438733095367	32.53702458804978	20.99619508820477	46.521794212950404	132.56331480255554	129.05647888605975	77.2311149323148	0.0013327823796801586	2.8130119441618064e+23	0.8213575710289154	0.004499185537617114	6.294279197215456e+22	-0.17159407152257145	-0.03839517983532234	2.5128773206116857	283.785461	287.370758	10.966681	-8.470469	15.511202	-0.497075	0.0	12009.0	True	0.0	None	0.0	None	0.0	None	0.0	None	0.0	None	0.0	None	0.0	None	0.0	None	8.8387e-07	12
2014-03-16 14:00:00	154.32385036672554	1235793666.5448	1.155714724918507e+22	3462232449091.032	6.484007618449918	1694607999777.6235	1.570119908046466e+21	-6.217475311151841e+23	2962.0086774662154	-0.3788397798782763	33.483020853330785	23.110959836623554	47.6656599293749	131.92939737116538	129.38670988731585	76.86537690821625	0.0022069460920523887	2.925408953995638e+23	1.1082829350572272	0.007610509678110495	7.491297487589034e+22	-0.1782494065071456	-0.04564556108667764	2.6827349390435486	283.788025	287.260834	10.96536	-8.348207	15.542148999999998	-0.343667	0.0	12009.0	True	0.0	None	0.0	None	0.0	None	0.0	None	0.0	None	0.0	None	0.0	None	0.0	None	6.559099999999999e-07	12
2014-03-16 14:12:00	155.62838910880674	1251900427.3186	1.1864576146651973e+22	3460311071568.1143	5.310704867327893	987534467523.6758	1.5736765110005358e+21	-6.369234665047882e+23	3163.551665247467	-0.3830935661865913	34.059030199766305	23.654390934844194	46.89370989342633	135.06288008293123	131.52663560154582	78.3908972738853	0.0018812273706439574	3.151120674143356e+23	0.6406743530889741	0.006134240710756142	7.125379278747863e+22	-0.18953204270623286	-0.04285737772086058	2.582452914459094	283.790588	287.1508790000001	10.96276	-8.252464	15.571756	-0.220925	0.0	12009.0	True	0.0	None	0.0	None	0.0	None	0.0	None	0.0	None	0.0	None	0.0	None	0.0	None	6.051700000000001e-07	12
2014-03-16 14:24:00	147.5130872796033	1232799826.7277	1.18848244896922e+22	3262073013906.467	6.000436638792938	960160249707.8448	1.559242943079547e+21	-6.16423015791816e+23	3264.909659895378	-0.3765075704297799	33.056175132918575	21.524990879241148	46.077689392981966	133.70045869557214	130.17746236704772	78.18761598179945	0.0021891414223980075	3.119076527492505e+23	0.6731131788318481	0.007071990701120195	7.254068482842242e+22	-0.1905113688596229	-0.04430742574882346	0.0	283.793121	287.040924	10.963515	-8.158773	15.573128	-0.09788	0.0	12009.0	True	0.0	None	0.0	None	0.0	None	0.0	None	0.0	None	0.0	None	0.0	None	0.0	None	6.286e-07	12
2014-03-16 14:36:00	151.45754497583167	1246460752.6801002	1.194347313535584e+22	3313781793844.802	5.149789312832231	1829968070793.8064	1.5616735774058904e+21	-6.130781055788394e+23	3246.671255746065	-0.3703604869144069	32.644280427382924	21.480144404332126	46.36137995012614	134.50249664535772	131.65147031064916	79.18594889163015	0.0018591297158239105	3.065626783537268e+23	1.2694831202074257	0.006029843232281249	6.9803066485809456e+22	-0.1851945156607299	-0.04216803284370202	0.0	283.795654	286.930908	10.988651	-8.06414	15.600412	0.025983	0.0	12009.0	True	0.0	None	0.0	None	0.0	None	0.0	None	0.0	None	0.0	None	0.0	None	0.0	None	6.3231e-07	12
2014-03-16 14:48:00	152.2583933825528	1231493790.1011	1.1469869106704402e+22	3188152985854.735	5.253018027138921	989566108060.5968	1.553453981623213e+21	-6.20053400267096e+23	3240.773848021054	-0.379126677014888	31.17003421434925	17.598499061913696	44.78962137884613	138.26473061477645	135.38393963840716	81.50645530497371	0.001971113706243498	3.145714296587441e+23	0.7135432342935739	0.006185894393070546	8.501756599375814e+22	-0.19234217691406644	-0.05198330864603425	0.0	283.798126	286.8208620000001	10.987489	-7.969127	15.598781	0.149362	0.0	12009.0	True	0.0	None	0.0	None	0.0	None	0.0	None	0.0	None	0.0	None	0.0	None	0.0	None	6.114099999999999e-07	12
2014-03-16 15:00:00	155.4842366449273	1254632761.0032	1.1915051320384617e+22	3385638125965.835	5.86889965736844	1363429764022.4746	1.578016808655591e+21	-6.282164924349171e+23	3311.878592002433	-0.3770337309234296	31.485346212120128	19.08453303802141	45.4376543936808	138.29653059793898	135.88667605130098	81.75306025251211	0.0021664450562452714	3.007926026495546e+23	0.9671762760990308	0.006793998985994476	8.435707849246713e+22	-0.18052527842999813	-0.050628190149131606	0.0	283.800568	286.710815	10.988379	-7.875997	15.599279999999998	0.272124	0.0	12009.0	True	0.0	None	0.0	None	0.0	None	0.0	None	0.0	None	0.0	None	0.0	None	0.0	None	6.084300000000001e-07	12
2014-03-16 15:12:00	143.96879939544988	1249920517.4732	1.1765024572537643e+22	3064134210227.1943	2.7758201601989576	1713690074034.3806	1.557304903537081e+21	-6.177982568642298e+23	3293.2753076008034	-0.3721789110346165	32.651685723258765	20.185873605947954	45.850139610759534	137.28922307608693	134.93162578235953	80.49664290559579	0.0010319034052784226	3.029710352501588e+23	1.2242515504899008	0.0032368918104884164	8.100177183171362e+22	-0.18251820674724745	-0.048797727894572124	0.0	283.802979	286.6007390000001	10.985966	-7.778969999999997	15.598409	0.394533	0.0	12009.0	True	0.0	None	0.0	None	0.0	None	0.0	None	0.0	None	0.0	None	0.0	None	0.0	None	6.772700000000001e-07	12
2014-03-16 15:24:00	143.3706498122109	1263922435.3818998	1.155505848632369e+22	3051892128833.3403	0.4923456833893538	1036444520237.0884	1.5786844108666425e+21	-6.42073681912821e+23	3256.290567501205	-0.3825180234178029	31.51866206634903	18.8622754491018	45.44057892165808	138.99805266763258	136.84196348881852	81.86819334983139	0.00018426110905290187	3.139635144378992e+23	0.7454331012137173	0.0005635194437819143	8.092288021630592e+22	-0.18704504849086528	-0.04821013703193626	0.0	283.805389	286.490631	10.982549	-7.682912	15.595793	0.517139	0.0	12009.0	True	0.0	None	0.0	None	0.0	None	0.0	None	0.0	None	0.0	None	0.0	None	0.0	None	6.908400000000001e-07	12
2014-03-16 15:36:00	151.1109038930083	1285990648.2393005	1.1647964645447594e+22	3094521968289.504	0.5798434090881259	475962940857.2753	1.6056379008151289e+21	-6.599260437865116e+23	3310.972271831423	-0.3864069381748978	30.23506928771911	16.798791996979993	44.28536573428113	142.70091232348534	139.37377108360153	84.28011340329216	0.0002188914341593529	3.160677256337451e+23	0.3453013456590448	0.0006504474076989527	9.15196973435712e+22	-0.1850673469670623	-0.0535875896491562	0.0	283.8078	286.380493	10.982637	-7.589825	15.595654	0.639013	0.0	12009.0	True	0.0	None	0.0	None	0.0	None	0.0	None	0.0	None	0.0	None	0.0	None	0.0	None	6.1883e-07	12
2014-03-16 15:48:00	157.78819426264187	1309883731.7931	1.1753369196575987e+22	3199099276768.665	3.906379995188816	1554251113696.2998	1.609114176504138e+21	-6.743525254277327e+23	3368.9123069708894	-0.3876516533798017	31.37958884488087	19.41377997716026	44.69651603813925	145.25445293819598	143.36748431659177	84.95699372725319	0.0014870117987014911	3.1542230145248536e+23	1.137039971034988	0.0042982460922164215	8.415408722008766e+22	-0.1813205586994153	-0.04837599003405975	0.0	283.81015	286.270355	10.98219	-7.497174	15.594601999999998	0.760362	0.0	12009.0	True	0.0	None	0.0	None	0.0	None	0.0	None	0.0	None	0.0	None	0.0	None	0.0	None	5.9106e-07	12
2014-03-16 16:00:00	148.44281418577722	1281192358.7171	1.118716354729231e+22	2894054054360.458	4.881174714978627	1123271244573.8154	1.56207274107055e+21	-6.681285664737398e+23	3450.9580775404925	-0.3926749316228069	29.38988414665209	15.403523146251535	43.086657594454365	152.42567201344892	148.97538196572415	89.86175552187132	0.00199966190699657	3.121068534515249e+23	0.8843795211562341	0.005471296497982021	8.076380176122883e+22	-0.18343256595795315	-0.04746679295808098	2.100498720494272	283.812469	286.16015600000014	10.978864	-7.373335000000001	15.620381	0.8838370000000001	0.0	12009.0	True	0.0	None	0.0	None	0.0	None	0.0	None	0.0	None	0.0	None	0.0	None	0.0	None	5.9106e-07	12
2014-03-16 16:12:00	151.15503424296585	1283833677.7375998	1.10814256089051e+22	2838116701495.55	3.507477604555928	637080196044.2996	1.5493977253618256e+21	-6.728001423909068e+23	3508.902272321904	-0.39460701214456295	29.149209522625874	15.685449957947855	43.00432359764676	154.61714173520588	151.25792621041515	91.35517302638394	0.0014749695561631318	3.24706708052095e+23	0.5148855673877203	0.003917998756934696	7.72969876694259e+22	-0.19044517950367465	-0.045335800975923705	0.0	283.814789	286.049988	10.978008	-7.278936	15.619294	1.007089	0.0	12009.0	True	0.0	None	0.0	None	0.0	None	0.0	None	0.0	None	0.0	None	0.0	None	0.0	None	5.838199999999999e-07	12
2014-03-16 16:24:00	150.9787661392516	1304859854.2935	1.131313491966555e+22	2866978968436.656	0.3077212521665125	1695645860059.5537	1.5618592422373037e+21	-6.688994067621888e+23	3582.2717029423357	-0.3859973715407217	28.72597837081716	14.507989907485285	42.8198845759235	156.0742554816417	152.9318275099315	92.53300156414149	0.0001294578259009308	3.1820364127892e+23	1.3704330105020959	0.00034029942108826464	7.560171716711975e+22	-0.18362367780065555	-0.043626984589101685	0.0	283.817139	285.939789	10.977749	-7.156339	15.590401000000002	1.129382	0.0	12009.0	True	0.0	None	0.0	None	0.0	None	0.0	None	0.0	None	0.0	None	0.0	None	0.0	None	6.9843e-07	12
2014-03-16 16:36:00	154.4256202015161	1295566240.803	1.0885385774989276e+22	2836629163668.4683	0.40605785534171335	1605446467878.9182	1.5441418853341434e+21	-6.704621317316045e+23	3559.0772577098382	-0.3896746546415808	27.89472706376598	13.200173686495875	42.56502825362356	157.7010080347367	155.37454547362702	93.57124276644969	0.0001763169150419945	3.107341778117068e+23	1.3398066007633482	0.00045107125543874345	7.417493480644892e+22	-0.1805996605824481	-0.04311070041959576	0.0	283.8193970000001	285.829559	10.97641	-7.063907	15.618849	1.2507620000000002	0.0	12009.0	True	0.0	None	0.0	None	0.0	None	0.0	None	0.0	None	0.0	None	0.0	None	0.0	None	6.9071e-07	12
2014-03-16 16:48:00	156.82740063525785	1323490988.179	1.1185302763933025e+22	2906062611451.912	1.9642632187092008	453497419645.5244	1.5635454364370065e+21	-6.78882247407131e+23	3627.212201292592	-0.3862432463508868	28.77662469509861	15.590008613264427	42.262922791256365	158.7212994913529	156.71250908792445	93.54064275730349	-0.0008459359253700263	3.255843220118419e+23	0.3753684540194956	-0.0021412592314544337	7.3084746133421475e+22	-0.18523793481874656	-0.041580833367077706	0.0	283.821655	285.7192990000001	10.974989	-6.940001	15.617141	1.344235	0.0	12009.0	True	0.0	None	0.0	None	0.0	None	0.0	None	0.0	None	0.0	None	0.0	None	0.0	None	6.2543e-07	12
2014-03-16 17:00:00	159.00366307562746	1319922406.7461	1.1047647877994497e+22	2822712176243.811	3.2805901876097323	834635170202.7369	1.5200439610823037e+21	-6.847789873291917e+23	3907.3434133758337	-0.39065145357418457	27.332470134312448	11.601690934711131	41.078694953714546	166.35900556500115	163.4967015099016	100.32140376491057	0.0015409066170078592	3.2407936548429895e+23	0.7534781054212284	0.003574499838085297	5.954508530515592e+22	-0.18488019863696512	-0.03396917043027725	0.0	283.823853	285.609009	10.973674	-6.822057000000001	15.615685	1.467043	0.0	12009.0	True	0.0	None	0.0	None	0.0	None	0.0	None	0.0	None	0.0	None	0.0	None	0.0	None	6.2525e-07	12
2014-03-16 17:12:00	165.39110989763182	1326799592.8221	1.1213641783631136e+22	2983794611265.362	1.1500594486920408	699115072070.6963	1.5498565755780208e+21	-6.913384286556716e+23	3757.777429112167	-0.3923492402683448	27.739793355144105	13.306631063640413	41.478738257109754	163.76985336116792	161.35207544094294	97.7086945864362	0.0005118199593645041	3.3813802733216995e+23	0.5979971448498954	0.0012450786162041135	5.906683105099816e+22	-0.19190051157374685	-0.03352168102817885	0.0	283.826111	285.498718	10.97403	-6.723245	15.61512	1.589413	0.0	12009.0	True	0.0	None	0.0	None	0.0	None	0.0	None	0.0	None	0.0	None	0.0	None	0.0	None	8.22e-07	12
2014-03-16 17:24:00	166.36267778630963	1303065261.04	1.0457018864414082e+22	2908628090339.33	0.12330439199624575	560673225586.4521	1.5210387598889022e+21	-7.229430617276485e+23	3664.029430036337	-0.4177586052036497	27.025943749396845	12.610516519311307	40.56879662736935	165.84813066046038	163.67679687688403	96.440619714484	5.7377567238830054e-05	3.36790778666391e+23	0.5014529793672823	0.00013348734120136114	4.887534494077139e+22	-0.19461732657741027	-0.028243020802371205	0.0	283.828339	285.388428	10.972935	-6.6011570000000015	15.615723999999998	1.712249	0.0	12009.0	True	0.0	None	0.0	None	0.0	None	0.0	None	0.0	None	0.0	None	0.0	None	0.0	None	8.2336e-07	12
2014-03-16 17:36:00	164.13313816852482	1302615908.3526	1.004049762975574e+22	2888356066661.497	2.543512057138868	741021616934.2559	1.5077679761980638e+21	-7.407874640318072e+23	3541.153671826677	-0.42821774668148027	27.308225744721355	12.177985948477753	41.12397627134477	163.43167639928845	161.60296819403843	96.36124262037441	-0.001191340541985418	3.2228687027675874e+23	0.6671022336068564	-0.0027343430075916987	4.685645299475245e+22	-0.18630034129332199	-0.027085723899396428	0.0	283.830505	285.278107	10.972099	-6.505973	15.614299	1.804828	0.0	12009.0	True	0.0	None	0.0	None	0.0	None	0.0	None	0.0	None	0.0	None	0.0	None	0.0	None	8.231900000000002e-07	12
2014-03-16 17:48:00	154.59313297944655	1284235159.8060002	9.924891561781298e+21	2771870116477.9204	1.1142882381163954	343860100145.36993	1.4886901593178988e+21	-7.2382603598596e+23	3526.811078694717	-0.4244016145364949	27.4281501046886	13.072203869749885	41.90234171439536	162.77916604367704	162.72607621828033	92.49649836110387	0.0005258557046325604	3.236267469170883e+23	-0.06299723307329701	0.0012182895776398565	4.732703206524125e+22	-0.18975238119435373	-0.02774930414370789	0.0	283.832672	285.167786	10.972564	-6.383417	15.614095	1.926738	0.0	12009.0	True	0.0	None	0.0	None	0.0	None	0.0	None	0.0	None	0.0	None	0.0	None	0.0	None	7.7053e-07	12
2014-03-16 18:00:00	168.92169234924143	1323069359.8026	1.040822676978454e+22	3078598893041.005	7.687873142461719	1115333414381.4646	1.5237349702385087e+21	-7.52920528951312e+23	3549.483186901817	-0.42850310500273897	28.073061162894078	14.356884057971016	42.429956868771036	160.78635794499874	162.50501750371745	91.26514093560715	0.0034818266043757785	3.044043633884788e+23	-0.08179208987712094	0.008135278095581247	5.558283799817263e+22	-0.1732430049025534	-0.03163337663306212	0.0	283.834869	285.057434	10.970427	-6.262111	15.643117000000002	2.049856	66560.0	12009.0	False	0.0	None	0.0	None	0.0	None	0.0	None	0.0	None	0.0	None	0.0	None	0.0	None	7.036799999999999e-07	12
2014-03-16 18:12:00	177.83081569868253	1344420306.7951	1.0569822145670887e+22	3309986500849.9663	15.180910573992055	1688671611013.252	1.5616124108382014e+21	-7.785463747414158e+23	3489.232433013775	-0.43605064116116987	28.45104786987249	15.081104778605877	42.61615857043145	161.24773880869	162.68840882232834	92.03270470610757	0.006655375087238955	3.063574316780272e+23	0.2869490265158504	0.015726171183975936	5.88725321391814e+22	-0.1715856098515164	-0.032973508347011515	0.0	283.837036	284.947083	10.997957	-6.166121	15.641571	2.174065	66560.0	12009.0	False	0.0	None	0.0	None	0.0	None	0.0	None	0.0	None	0.0	None	0.0	None	0.0	None	6.3457e-07	12
2014-03-16 18:24:00	178.96444816650524	1343377983.9121	1.0520327278584035e+22	3435823384381.4224	1.608426444705786	697758809559.9512	1.5828898421768926e+21	-7.869412590926928e+23	3274.7706975107812	-0.4410944595540373	29.576855286090588	16.6597767672592	43.49866422452078	154.71145908001247	155.31256719375176	85.70400351468173	-0.0006649137845001182	3.2122455654299686e+23	0.5544125946551901	-0.0016616537251595998	5.39846562397061e+22	-0.18005203123697058	-0.03025935226184248	0.0	283.839172	284.836731	10.99613	-6.043259	15.670575	2.328227	0.0	12009.0	True	0.0	None	0.0	None	0.0	None	0.0	None	0.0	None	0.0	None	0.0	None	0.0	None	6.097e-07	12
2014-03-16 18:36:00	189.41006007079568	1371985919.0598	1.1223799097729315e+22	3795733676468.898	9.97908105592002	621004153809.0356	1.659773134416754e+21	-7.900232261084775e+23	3158.211779587606	-0.4335884242157966	30.947839667021842	18.42301943198804	43.917467391065294	150.93175783608632	150.97182606487038	83.79734734052566	-0.0037291035336024	3.197655437593633e+23	0.4460374905974736	-0.010147204342617505	5.7183707669418555e+22	-0.1754969140845135	-0.031384132617634564	0.0	283.841309	284.726349	10.995399	-5.922628	15.669557	2.450807	0.0	12009.0	True	0.0	None	0.0	None	0.0	None	0.0	None	0.0	None	0.0	None	0.0	None	0.0	None	6.0694e-07	12
2014-03-16 18:48:00	179.65731872449166	1345077982.4022	1.1117650932529703e+22	3620233624076.299	0.30548626390593303	688087960960.1051	1.6498236987843042e+21	-7.736849692216801e+23	3196.428008806903	-0.4331158605575932	29.496653218495034	16.41848033600611	42.58985310644498	152.66708318159775	151.61746600491767	85.59682064764577	-0.00011664233062464034	3.344747524183145e+23	0.2386953139683533	-0.00031695157669832727	6.695348643156173e+22	-0.18724199899369945	-0.03748116875310288	0.0	283.8434450000001	284.615997	10.995188	-5.827222	15.668895999999998	2.6036490000000003	0.0	12009.0	True	0.0	None	0.0	None	0.0	None	0.0	None	0.0	None	0.0	None	0.0	None	0.0	None	5.8681e-07	12
2014-03-16 19:00:00	174.32697293674937	1364485548.8599	1.1354359351539822e+22	3560065045809.462	2.349714158216087	1582768451106.8877	1.7171386904630193e+21	-7.96368562786435e+23	3087.643235121818	-0.4394734078932119	29.35129848724452	17.370892018779344	42.531009018992144	149.3233674701448	149.22536416787122	82.52116876863727	-0.0008485786053506995	3.411004748482146e+23	1.0986366951355817	-0.0023926129145773376	6.5378088332307475e+22	-0.18823519048897733	-0.036078685954668635	0.0	283.845612	284.505615	10.966416	-5.704523	15.639970000000002	2.726548	0.0	12009.0	True	0.0	None	0.0	None	0.0	None	0.0	None	0.0	None	0.0	None	0.0	None	0.0	None	6.119600000000001e-07	12
2014-03-16 19:12:00	165.35986483445203	1333675859.4368	1.1323022144077308e+22	3399289845291.404	5.096376347493885	829395831677.9896	1.6763057058769053e+21	-7.622023507551834e+23	3151.9736468208844	-0.4303358072693654	29.941047899325532	17.301293900184845	42.6116063699548	150.07203194244306	148.72023394179234	83.73796486571669	-0.0018847545663808747	3.368634557870753e+23	0.5893206615657103	-0.005343221598450866	6.427607079279295e+22	-0.19019149841515154	-0.03628996261335832	0.0	283.847748	284.395233	10.966886	-5.610356	15.639342	2.849576	0.0	12009.0	True	0.0	None	0.0	None	0.0	None	0.0	None	0.0	None	0.0	None	0.0	None	0.0	None	6.268800000000001e-07	12
2014-03-16 19:24:00	164.35717082031204	1345371340.5472	1.1175488194939114e+22	3244839698827.2314	4.571578616487443	335455341391.46936	1.6800524751664115e+21	-7.797348202036642e+23	3128.251985446358	-0.4364075560757804	30.181549937117357	17.58364312267658	42.87211264903248	147.39137361543087	146.57395524719846	83.30729581328265	-0.0016994716046421722	3.382080616662201e+23	0.2396824436211585	-0.00473125477649551	5.524987491799725e+22	-0.18929070475309825	-0.03092264480398336	0.0	283.849854	284.284851	10.965083	-5.4884309999999985	15.668782	2.972365	0.0	12009.0	True	0.0	None	0.0	None	0.0	None	0.0	None	0.0	None	0.0	None	0.0	None	0.0	None	6.171099999999999e-07	12
2014-03-16 19:36:00	157.36679122623391	1312755261.9918	1.0708238952737448e+22	3218281627661.802	15.535548034497776	1119348015010.838	1.6627693080832896e+21	-7.588280953114143e+23	3026.713066920589	-0.4352582911706273	29.55650876387493	17.417417417417415	42.346465851380955	145.88076402699232	145.00528072960532	82.12625929481428	-0.005831662175111778	3.3626302491639844e+23	0.8075708607137098	-0.016490838617870446	4.272668224452444e+22	-0.1928780319459741	-0.024507715009563568	0.0	283.85199	284.1745	10.964106	-5.368821	15.667682999999998	3.0942830000000003	0.0	12009.0	True	0.0	None	0.0	None	0.0	None	0.0	None	0.0	None	0.0	None	0.0	None	0.0	None	6.9056e-07	12
2014-03-16 19:48:00	152.57774190090598	1297796410.1999998	1.08285780734119e+22	3056975901998.792	1.4169954536336706	574257484162.8545	1.638643989669625e+21	-7.340652392743157e+23	3058.4309277866805	-0.4259076887252435	29.48838995796773	15.86646661665416	43.54051250551883	144.52326607547576	144.43934014912602	81.72061731235485	-0.0005315061716555403	3.274698596270256e+23	0.413991644407711	-0.001531441716675555	5.319176268679565e+22	-0.18999936732981115	-0.03086208077030171	0.0	283.854156	284.064117	10.963439	-5.274168	15.666752	3.215158	0.0	12009.0	True	0.0	None	0.0	None	0.0	None	0.0	None	0.0	None	0.0	None	0.0	None	0.0	None	6.7311e-07	12
2014-03-16 20:00:00	156.807726148695	1323232150.4139	1.191103235397052e+22	3187414599409.3506	0.5273208564315479	487310394662.3838	1.6577254084169142e+21	-7.004193468525895e+23	3323.027468986291	-0.3985744915542824	30.454901003172363	17.15450166728418	44.087258256295826	145.414658953314	144.93298845959458	84.3159457382602	-0.00019537638252373026	3.312258212933655e+23	0.2680639672929689	-0.0005698798445326463	4.326382933581076e+22	-0.18848446135146146	-0.024619335342033564	0.0	283.856293	283.953735	10.96204	-5.1519900000000005	15.665273999999998	3.3382620000000003	0.0	12009.0	True	0.0	None	0.0	None	0.0	None	0.0	None	0.0	None	0.0	None	0.0	None	0.0	None	6.740999999999999e-07	12
2014-03-16 20:12:00	163.45831067895452	1347627042.547	1.254252755441652e+22	3358068582331.5566	4.385788918249741	481016867837.7523	1.6960508024466797e+21	-7.000757902362698e+23	3399.6976797474395	-0.3911675486730337	30.755618100587416	17.062634989200866	44.00009215939278	143.3036174941237	142.87251626562653	84.04061656739904	-0.0015787577099531105	3.276072355469575e+23	0.3327836403654149	-0.004678736271265104	4.197535657168879e+22	-0.1830506368649074	-0.02345374252876621	0.0	283.858398	283.843353	10.961514	-5.055969	15.664554	3.462146	0.0	12009.0	True	0.0	None	0.0	None	0.0	None	0.0	None	0.0	None	0.0	None	0.0	None	0.0	None	6.4416e-07	12
2014-03-16 20:24:00	157.25074430059328	1333126827.8414	1.2035239728078563e+22	3341498748661.663	2.9476242986143464	591872892568.8737	1.6642417839889866e+21	-6.932071892343831e+23	3315.9083613209777	-0.3915425780781741	30.571752446440016	17.34357848518112	44.51778512725936	146.1328486507105	145.00470921761567	85.88472878247417	-0.0010785306617688793	3.381712268383204e+23	0.3413012157897262	-0.003177855576856423	3.863420627478164e+22	-0.19100845467914768	-0.02182166740587184	0.0	283.860535	283.732971	10.961159	-4.935215	15.664017	3.584566	0.0	12009.0	True	0.0	None	0.0	None	0.0	None	0.0	None	0.0	None	0.0	None	0.0	None	0.0	None	6.474200000000001e-07	12
2014-03-16 20:36:00	161.84723074507912	1351271460.8054	1.2979015678458858e+22	3342916102182.872	3.8650441987203186	697665684065.6127	1.6739346589882112e+21	-6.791512152378951e+23	3511.688304237578	-0.3784524212840212	31.748983711165053	20.481494789795185	45.55715496737402	145.80543211397185	144.66367500029585	84.47172144872707	-0.001388804958217865	3.2724437432206336e+23	-0.12845621705074167	-0.004150018906829671	3.39779684184845e+22	-0.18235471428903824	-0.018933993092809468	0.0	283.862732	283.6226200000001	10.96105	-4.8125589999999985	15.695382	3.707619	0.0	12009.0	True	0.0	None	0.0	None	0.0	None	0.0	None	0.0	None	0.0	None	0.0	None	0.0	None	6.3918e-07	12
2014-03-16 20:48:00	167.2498454276277	1340202600.5254002	1.3046774857615091e+22	3376795063045.2505	14.099107325191786	501804472119.7598	1.6315227216872598e+21	-6.650518833660586e+23	3810.726525277286	-0.3736565497785789	31.19377219258748	18.851823118696664	44.838661121318296	151.19694574215674	150.30774602232572	90.60414847206486	-0.005469009823580987	3.456220703499254e+23	0.3740795608247411	-0.015316974684824528	3.3104761343019764e+22	-0.19418627864135954	-0.0185997682497614	0.0	283.864868	283.512268	10.960625	-4.691773	15.694822	3.802707	0.0	12009.0	True	0.0	None	0.0	None	0.0	None	0.0	None	0.0	None	0.0	None	0.0	None	0.0	None	6.7464e-07	12
2014-03-16 21:00:00	170.25344324231722	1361363947.4427	1.2795248618915762e+22	3545786532881.308	3.7282341808022816	743086734252.6995	1.6466171164164854e+21	-6.874441422384104e+23	3648.107992915801	-0.3802336327886981	31.796233616112648	19.84096932979932	45.50695834849594	151.29556282489804	150.2076821612169	89.89665412772038	-0.0014116751915192285	3.430866198636338e+23	0.54072307135715	-0.00396831673465517	3.3734562589411723e+22	-0.1897653406532374	-0.01865899277597048	2.3665020514219024	283.867035	283.401947	10.991457	-4.596176	15.694207	3.925972	0.0	12009.0	True	0.0	None	0.0	None	0.0	None	0.0	None	0.0	None	0.0	None	0.0	None	0.0	None	6.6994e-07	12
2014-03-16 21:12:00	173.06724079080658	1364065506.8311	1.292473313747602e+22	3499004170788.037	12.616025412300012	639299718400.1129	1.63618726950296e+21	-6.749799541664512e+23	3687.819270714475	-0.37260019937050737	31.93371649147204	19.552860932171274	45.857618523947636	148.7752269078861	147.68847535100915	89.1095631347693	-0.004780608341151956	3.434338572552613e+23	0.11135767287084858	-0.013476380546307424	1.3314143665383723e+22	-0.18958122073701866	-0.007349629501658056	2.3659004262268897	283.869232	283.29162599999995	10.991492	-4.4732949999999985	15.69399	4.049436	0.0	12009.0	True	0.0	None	0.0	None	0.0	None	0.0	None	0.0	None	0.0	None	0.0	None	0.0	None	6.5999e-07	12
2014-03-16 21:24:00	165.91852207642722	1361579672.4973	1.217199397269628e+22	3264057218743.6367	11.296797882760751	225400444932.5791	1.6174725279336806e+21	-7.09090879832907e+23	3736.385192176993	-0.3921446572537303	30.29949916667601	16.91805951895638	44.09062188246341	156.63363733687802	155.85537861396182	91.93586038096622	-0.004605298769979922	3.2888879516147674e+23	0.17658044531748973	-0.01191949704295028	6.449436196611825e+21	-0.1818835744771969	-0.0035666964823974547	0.0	283.87146	283.181305	10.990164	-4.3511940000000005	15.692534	4.172644	0.0	12009.0	True	0.0	None	0.0	None	0.0	None	0.0	None	0.0	None	0.0	None	0.0	None	0.0	None	1.4796e-06	12
2014-03-16 21:36:00	168.47404699661462	1346194301.5933	1.208577195326364e+22	3317280034316.6187	3.633006987900224	466519509497.12	1.5935941680062852e+21	-7.003419105648764e+23	3672.489997576316	-0.3917327642290212	30.691062745540822	17.71589991928975	45.20246920938028	154.24923536732018	153.17683919882532	90.98377855973024	-0.001466696402059032	3.2884461644341967e+23	0.36177945011170937	-0.00387822167684364	2.573814776308422e+21	-0.18393760056043326	-0.0014396504931763591	0.0	283.873657	283.071014	10.990071	-4.2575949999999985	15.692225	4.29431	0.0	12009.0	True	0.0	None	0.0	None	0.0	None	0.0	None	0.0	None	0.0	None	0.0	None	0.0	None	7.0676e-07	12
2014-03-16 21:48:00	167.28930748478706	1348475746.5789	1.2151718435809728e+22	3280305329671.6733	2.9581056340755767	348953724128.8097	1.5978332864801952e+21	-7.044363786030987e+23	3697.004193721328	-0.3933562766839606	31.44681391149645	18.626262626262623	44.92969023772122	153.1060512433578	151.9761491071311	90.48710881827226	-0.0011951941955860915	3.312866003377737e+23	-0.2709301642722225	-0.003148751274096917	-1.8653302566487133e+21	-0.18498996869322207	0.001041597774942123	0.0	283.875885	282.960724	10.960001	-4.135686	15.693544	4.417497	0.0	12009.0	True	0.0	None	0.0	None	0.0	None	0.0	None	0.0	None	0.0	None	0.0	None	0.0	None	6.912e-07	12
2014-03-16 22:00:00	179.6757257329296	1369176375.3466	1.2335055883049487e+22	3425417513127.165	4.664648348404853	525486018465.4689	1.6144951310025454e+21	-7.174249822177493e+23	3852.400086277928	-0.3945522929362904	30.481898244273644	17.295727913728744	44.00787235402651	157.10071995620902	158.1525210110318	91.34292768135323	-0.001934735938782602	3.080075649460989e+23	-0.09090106071938676	-0.004886013966024072	-6.889845459086191e+21	-0.16939065965550948	0.0037891129961154157	0.0	283.878113	282.850464	10.96134	-4.012994	15.694803	4.569385	0.0	12009.0	True	0.0	None	0.0	None	0.0	None	0.0	None	0.0	None	0.0	None	0.0	None	0.0	None	9.5162e-07	12
2014-03-16 22:12:00	167.91994266136967	1368739352.6825	1.2292490956283614e+22	3351556692727.1562	7.521331594515441	328440610785.73303	1.6069885291171616e+21	-7.150861399211629e+23	3816.942534504939	-0.3933915921504171	30.375188640718488	17.97938144329897	44.32702312041519	153.62912043974995	155.80707494699416	88.02545647911907	-0.0031015800389754397	3.03201281575569e+23	0.26024791007689824	-0.007887344172023417	-1.6813085631419866e+21	-0.1668006527356412	0.0009249412282322742	0.0	283.880371	282.740234	10.993265	-3.890218	15.69512	4.695034	0.0	12009.0	True	0.0	None	0.0	None	0.0	None	0.0	None	0.0	None	0.0	None	0.0	None	0.0	None	9.319e-07	12
2014-03-16 22:24:00	175.17083281667396	1376898382.5866005	1.2530122924662628e+22	3390241064525.7754	4.917230437763493	774312528162.8262	1.6068335075040234e+21	-7.038813752778896e+23	3812.1294676457533	-0.3849329584672272	31.289240912765532	18.383838383838388	44.86908693472292	151.68003652886082	152.86645215849046	88.5674057752272	-0.0019867597728337343	3.113434217765205e+23	-0.6011340117990033	-0.005157270566648692	-1.7162248589081173e+22	-0.17026497454408548	0.00938555182076932	2.748699331305492	283.88269	282.630005	10.992095	-3.795854	15.693894	4.878921	0.0	12009.0	True	0.0	None	0.0	None	0.0	None	0.0	None	0.0	None	0.0	None	0.0	None	0.0	None	7.7442e-07	12
2014-03-16 22:36:00	188.27304187786228	1392187953.7562	1.302638378786095e+22	3757809782693.5913	5.973634615996982	1280790912081.58	1.644185009189727e+21	-7.179233287959385e+23	3809.202947469124	-0.3883002498622881	31.47190179546153	18.407766990291268	44.32826209838031	150.49531796265777	151.67485900384375	88.13021656064144	0.002319858103299798	3.06884390669845e+23	0.16906953576803335	0.0061814075351229476	-1.550125732761452e+22	-0.16598330322513816	0.008384101549656166	2.6770998604484046	283.884979	282.519775	10.991889	-3.673259	15.693722	5.002234	0.0	12009.0	True	0.0	None	0.0	None	0.0	None	0.0	None	0.0	None	0.0	None	0.0	None	0.0	None	7.3398e-07	12
2014-03-16 22:48:00	179.39005038167184	1380385352.3712	1.237624011114333e+22	3713820218226.203	2.0339193674657023	1062044709288.6364	1.658338651554055e+21	-7.49776909986735e+23	3566.45547825784	-0.4089961404068713	31.32850800204421	20.972062763107537	44.141735370294285	148.74654317704608	150.31139717461667	85.0659716479307	-0.0007783847560144287	3.063130578140798e+23	0.3144169671013268	-0.0020914793537464204	-1.2751173593891955e+22	-0.16709084626839468	0.006955643360172418	2.696765418747993	283.8872990000001	282.409607	10.991221	-3.5505230000000005	15.693203	5.125707	0.0	12009.0	True	0.0	None	0.0	None	0.0	None	0.0	None	0.0	None	0.0	None	0.0	None	0.0	None	7.1327e-07	12
2014-03-16 23:00:00	171.05290845121726	1387069929.7004	1.2313745203039302e+22	3513334028148.504	0.2881814313923403	869485190494.6058	1.669717097767517e+21	-7.556231802433214e+23	3552.5248751983154	-0.4101988019195943	30.488541038280026	19.501915708812266	43.2399837197771	149.81456622056533	151.67539980091027	84.64259048918119	-0.00011041434152963232	3.176051908325117e+23	-0.3880650583820426	-0.00029465735881104753	-1.5139804358111306e+22	-0.17241565924564142	0.008218818283201021	2.696344805407114	283.889648	282.299438	10.991461	-3.429389	15.693684	5.248533	67584.0	12009.0	False	0.0	None	0.0	None	0.0	None	0.0	None	0.0	None	0.0	None	0.0	None	0.0	None	6.763600000000001e-07	12
2014-03-16 23:12:00	177.0104853630371	1411550657.9296	1.3355050503982157e+22	3759960257973.7134	3.4059255747445647	1473274325858.6675	1.7053165974637123e+21	-7.412268034655722e+23	3667.4612109037676	-0.3954049406535976	31.32798277699002	19.839533187454414	44.14387985918736	144.8454641564983	146.0902665191724	83.37045738573588	0.0012421318653335395	3.0955053842817446e+23	0.1618153835691877	0.0034583458636155274	-1.770463741934224e+21	-0.16512869165580102	0.0009444479173389248	2.6867762414756498	283.892059	282.189301	10.99369	-3.335106	15.696188	5.370964	0.0	12009.0	True	0.0	None	0.0	None	0.0	None	0.0	None	0.0	None	0.0	None	0.0	None	0.0	None	6.8523e-07	12
2014-03-16 23:24:00	179.6731467073782	1402585765.8891	1.319501201571193e+22	3766021048637.542	7.0518828281932375	1495397584104.2498	1.701347395330353e+21	-7.375932223901074e+23	3631.4593334386072	-0.3959815747136381	31.01733598796753	19.407894736842106	43.7466329800827	147.3576651454377	147.08027910472416	84.76617641370396	0.002577442554164195	3.061012526248996e+23	0.4688874785765383	0.00720320823692472	-9.882406064812414e+21	-0.16433238858059568	0.005305432041286218	2.7507656890662235	283.894409	282.079163	10.992399	-3.212641	15.695083	5.494682	0.0	12009.0	True	0.0	None	0.0	None	0.0	None	0.0	None	0.0	None	0.0	None	0.0	None	0.0	None	6.854999999999999e-07	12
2014-03-16 23:36:00	177.15610340302345	1420745450.1509	1.3017005137352727e+22	3765315895423.012	4.805181500316612	1111984480950.0806	1.7787511845479816e+21	-7.799309323547142e+23	3391.5692807800847	-0.4133589358881453	30.740081130364146	19.51557093425605	42.728836742707045	145.04979878975504	144.86290067008645	81.63219502302323	-0.0016626925606631874	3.051091448754263e+23	-0.1899057567759925	-0.004785981869768028	-1.1420091149190762e+22	-0.16170610271178312	0.006052583029272885	2.7268672182754377	283.896851	281.969086	10.992337	-3.089704	15.69518	5.6185300000000025	0.0	12009.0	True	0.0	None	0.0	None	0.0	None	0.0	None	0.0	None	0.0	None	0.0	None	0.0	None	7.289199999999998e-07	12
2014-03-16 23:48:00	170.70491148609858	1402873824.9507	1.2737528322338092e+22	3681315830422.828	9.093863391967657	637183281856.4039	1.7420640493403001e+21	-7.573068753476258e+23	3343.044097021446	-0.4064814941909261	30.821755106419072	19.4841408156152	43.74971371231264	143.15601778233537	144.60368931715314	81.29090410310674	-0.003169697940734631	2.9986846674616515e+23	0.10476935770707893	-0.009217768294733877	-1.6855833975383828e+22	-0.16095322304814902	0.009047302755574641	2.7179435478774114	283.899261	281.859009	10.993237	-2.966989	15.696263	5.742188	0.0	12009.0	True	0.0	None	0.0	None	0.0	None	0.0	None	0.0	None	0.0	None	0.0	None	0.0	None	7.286499999999998e-07	12
2014-03-17 00:00:00	168.88794702797227	1392650038.4288	1.2247487591145638e+22	3540425574113.6406	3.587289434085956	1183470144190.078	1.7411328210710902e+21	-7.60218116027787e+23	3252.97992872168	-0.4110395939710924	29.66927775221016	16.543209876543212	42.79091339470583	143.61207456957774	145.51940377407885	80.25305107051156	0.0012653578250744113	3.042042577785003e+23	0.08068467291117835	0.0036510284595532147	-1.8861096252437795e+22	-0.16447910404305852	0.010197938173270726	2.7327330960996217	283.901764	281.748962	10.994128	-2.844861	15.697394	5.866011	0.0	12009.0	True	0.0	None	0.0	None	0.0	None	0.0	None	0.0	None	0.0	None	0.0	None	0.0	None	6.8794e-07	12
2014-03-17 00:12:00	180.5060973374884	1411778503.5525	1.2470753487935924e+22	3617902353220.63	7.293164291487487	641330684964.8632	1.7296359411571252e+21	-7.612476312235156e+23	3342.93894064942	-0.4060194871553263	29.90061810553153	18.013527945888214	43.68767698821082	144.80589508591586	145.8408320746524	83.38217663589774	-0.0025963561023451365	2.893505396521707e+23	0.4385689650608438	-0.007348320463241981	-1.9383615366581665e+22	-0.15432817508918656	0.01033845656466126	2.71039922537788	283.904236	281.6389470000001	10.995453	-2.751033	15.698898000000002	5.987949	0.0	12009.0	True	0.0	None	0.0	None	0.0	None	0.0	None	0.0	None	0.0	None	0.0	None	0.0	None	1.0093e-06	12
2014-03-17 00:24:00	169.30984618217948	1398719718.9822998	1.2694954289250754e+22	3541224366935.516	3.0705877886607524	1197408205335.1057	1.7279499006264714e+21	-7.574023193134038e+23	3337.6867052567363	-0.4077400521764698	31.226108467954425	20.356145251396647	44.43759097472787	142.61371609267363	143.64804480123752	81.7081365529489	-0.0010721326077726089	2.9860313639410167e+23	0.1666233338852858	-0.0031188777309588056	-1.4866727637514988e+22	-0.16075004698131756	0.008003355875789766	2.719759936410727	283.906769	281.528961	10.994661	-2.628649	15.698284	6.0815160000000015	0.0	12009.0	True	0.0	None	0.0	None	0.0	None	0.0	None	0.0	None	0.0	None	0.0	None	0.0	None	7.2044e-07	12
2014-03-17 00:36:00	165.94236621960826	1373094436.3902	1.1778903627945898e+22	3334140815565.8384	10.960198316505965	844853961234.5598	1.6788289169095828e+21	-7.642246526885611e+23	3302.070087893233	-0.4190907378089985	30.2786629615976	18.540580789277733	43.46014996504989	145.48966241495847	146.80852326621348	83.25487964398759	-0.004080490810314952	2.8975715551572676e+23	0.6041624631083938	-0.011249619546395894	-2.7317905749260993e+22	-0.15889900916348745	0.014980779847362591	2.7179338473906687	283.909271	281.418976	10.995659	-2.504237	15.699320000000002	6.206672	0.0	12009.0	True	0.0	None	0.0	None	0.0	None	0.0	None	0.0	None	0.0	None	0.0	None	0.0	None	7.933199999999998e-07	12
2014-03-17 00:48:00	165.64160009314432	1373876523.943	1.1797670001070871e+22	3466814023686.448	5.627930622221763	582239433546.4412	1.7138617939605049e+21	-7.742747763635393e+23	3186.3313706177228	-0.4243604228656203	30.243951273933586	18.077474892395983	42.88918874199315	143.87982060125313	144.38293944696795	81.0567090929479	-0.0020186264785587386	2.951307568271912e+23	0.12259557964210276	-0.005751897393976896	-4.221682582446703e+22	-0.1617537037123286	0.02313797453541674	2.719520648186145	283.911896	281.309052	10.998284	-2.381959	15.702122	6.329003	0.0	12009.0	True	0.0	None	0.0	None	0.0	None	0.0	None	0.0	None	0.0	None	0.0	None	0.0	None	2.0072e-06	12
2014-03-17 01:00:00	155.90820525625816	1358777592.5079002	1.1245092681955737e+22	3307887723219.303	2.503317471338252	1121101337608.662	1.7159761903182115e+21	-7.824581778131803e+23	3098.2105493976333	-0.4336109874149801	28.569702318947684	14.965239663373584	41.517668931938154	144.81859296114231	146.61440308923954	80.89051990630654	-0.000915959557752745	2.8614801460892373e+23	0.4995542795331134	-0.002570195914580651	-4.2708554298460006e+22	-0.15857323327897552	0.023667588793280032	2.4648219131666287	283.91449	281.199127	10.999134	-2.258603	15.70306	6.424657	0.0	12009.0	True	0.0	None	0.0	None	0.0	None	0.0	None	0.0	None	0.0	None	0.0	None	0.0	None	8.4575e-07	12
