Timestamp	TOTUSJH	TOTBSQ	TOTPOT	TOTUSJZ	ABSNJZH	SAVNCPP	USFLUX	TOTFZ	MEANPOT	EPSZ	MEANSHR	SHRGT45	MEANGAM	MEANGBT	MEANGBZ	MEANGBH	MEANJZH	TOTFY	MEANJZD	MEANALP	TOTFX	EPSY	EPSX	R_VALUE	CRVAL1	CRLN_OBS	LAT_MIN	LON_MIN	LAT_MAX	LON_MAX	QUALITY	NOAA_AR	IS_TMFI	BFLARE	BFLARE_label	CFLARE	CFLARE_label	MFLARE	MFLARE_label	XFLARE	XFLARE_label	BFLARE_loc	BFLARE_label_loc	CFLARE_loc	CFLARE_label_loc	MFLARE_loc	MFLARE_label_loc	XFLARE_loc	XFLARE_label_loc	XR_MAX	XR_QUAL
2014-02-24 05:36:00	11.946643177287633	79328146.62310001	3.959277790558592e+20	275035264908.2412	0.8382570071161377	141456995410.11688	1.6591352823463507e+20	-6.229587383172775e+22	1038.7752428791366	-0.5913158058484199	18.12881109757747	0.6968641114982579	30.179251507138147	122.7490626079196	127.48291992846545	50.287489674449645	-0.0029207561223558807	-7.634023802773989e+21	0.9562427777186217	-0.01328077759370396	2.9018845927777073e+22	0.07246256708745688	-0.2754484560393995	0.0	181.187851	195.364349	-15.680514000000002	-16.555108999999998	-13.029125	-11.977888	0.0		True	0.0	None	0.0	None	0.0	None	0.0	None	0.0	None	0.0	None	0.0	None	0.0	None	1.295e-06	12
2014-02-24 05:48:00	11.12627271928148	81642998.8906	4.282348819323564e+20	262862564961.14355	1.2540821395059238	91424055112.26494	1.7233750930302625e+20	-6.355626135353889e+22	1074.8510455288483	-0.586174459384172	18.52257878380052	0.6666666666666667	29.924388981019806	122.27330768269104	124.98177530185606	52.435326685910475	-0.00418027379835308	-1.2546745420091704e+22	0.5912316803384069	-0.01936805800384802	2.9633966732355154e+22	0.11571765797774665	-0.2733117722598641	0.0	181.190964	195.255157	-15.658662	-16.430218	-13.031483	-11.85359	0.0		True	0.0	None	0.0	None	0.0	None	0.0	None	0.0	None	0.0	None	0.0	None	0.0	None	1.2937e-06	12
2014-02-24 06:00:00	13.554189180615465	83439595.3181	4.192986339349235e+20	298159211993.3765	1.1060259176941258	72748874517.59358	1.7300308112767966e+20	-6.859524756531065e+22	1073.8993807079435	-0.6190266032042417	18.49286712346528	1.020408163265306	29.339057965878922	129.74399202116544	133.29543857430662	54.82493257865083	-0.003761992917326959	-6.288604270238402e+21	0.480054845404056	-0.016374540645537318	2.835352307840022e+22	0.056750481680162425	-0.2558717360613651	0.0	181.194077	195.145981	-15.660531	-16.326775	-13.034115	-11.725776	66560.0		False	0.0	None	0.0	None	0.0	None	0.0	None	0.0	None	0.0	None	0.0	None	0.0	None	1.2509e-06	12
2014-02-24 06:12:00	13.171786228810642	87653473.9409	4.258867185400365e+20	300414530356.7776	0.7763184075304177	128766799035.47192	1.8372285052217387e+20	-6.864012349154039e+22	992.839526509399	-0.5896528577104485	18.001780947868994	0.9287925696594428	31.006808732390233	122.73342553855	129.0538788554484	49.78555581862764	-0.002403462562013677	-6.127987054663558e+21	0.773405721124185	-0.011142905605514942	3.2039763535443282e+22	0.05264246179918858	-0.2752375311703737	0.0	181.19725	195.036804	-15.662596	-16.227819	-13.036049	-11.602245	66560.0		False	0.0	None	0.0	None	0.0	None	0.0	None	0.0	None	0.0	None	0.0	None	0.0	None	1.063e-06	12
2014-02-24 06:24:00	15.500449138410735	102323688.9131	4.7657460423399145e+20	343092253329.5047	1.6227928544742962	76138804971.02217	2.10285696856808e+20	-8.435290748428984e+22	1002.3866551695653	-0.6207422053034317	17.773256263275908	0.5586592178770949	29.471921818582157	128.24488354798208	136.2790998157841	54.535555834479936	-0.0045329409342857434	-4.13395323253022e+21	0.4125947270184707	-0.0195705464449065	3.2383406479356146e+22	0.030421230550470125	-0.2383053264284552	0.0	181.200424	194.927628	-15.662424	-16.293497	-13.037505	-11.477945	0.0		True	0.0	None	0.0	None	0.0	None	0.0	None	0.0	None	0.0	None	0.0	None	0.0	None	1.0998e-06	12
2014-02-24 06:36:00	15.869169603969207	104614499.4629	4.988233726638025e+20	370673432107.7008	3.7753830395457	268276663527.3199	2.137422427518548e+20	-8.696945365217118e+22	1043.354271988625	-0.6259827494669986	18.499425647965488	2.5	29.460506152981928	131.78075767221551	141.56524115955926	51.56301213543309	-0.010487175109849171	-3.3469265398366905e+21	1.445694405951994	-0.044389801292034736	3.1770954069778088e+22	0.024090277559409914	-0.22867878716739434	0.0	181.203568	194.818466	-15.663013	-16.197412	-13.039696	-11.381166	0.0		True	0.0	None	0.0	None	0.0	None	0.0	None	0.0	None	0.0	None	0.0	None	0.0	None	1.0294e-06	12
2014-02-24 06:48:00	19.024840568543407	111387308.6912	4.775823831237587e+20	411558933861.2914	5.5228793306895545	381020093560.3456	2.2418048748022163e+20	-9.076237096940076e+22	958.968910444758	-0.6135608192443861	16.90060392717462	0.26666666666666666	30.048836564367555	138.07918500807378	146.7723403664516	53.71913416264653	-0.014727678215172143	1.6134198939041294e+20	1.971100298987511	-0.061457444779699874	3.2095348107920324e+22	-0.0010906846320957717	-0.2169670962613832	0.0	181.20668	194.709274	-15.642279	-16.102992999999998	-13.015975	-11.25914	0.0		True	0.0	None	0.0	None	0.0	None	0.0	None	0.0	None	0.0	None	0.0	None	0.0	None	1.0337e-06	12
2014-02-24 07:00:00	18.39537569919389	103341969.2716	4.6620335195463365e+20	414334808227.2918	2.254112320733267	161608743448.62518	2.057855272510873e+20	-8.192352163044714e+22	994.4619563999872	-0.5969244488700938	18.07190289573744	2.8328611898017	31.19827822770041	134.69770735214493	144.22319175648627	54.4323652929176	-0.006385587310859114	-2.199922196503593e+21	0.8881348758030193	-0.027317719751637395	2.5830253932227567e+22	0.01602942987032119	-0.1882085851023658	0.0	181.209793	194.600098	-15.64345	-16.007360000000002	-13.018753	-11.135897	0.0		True	0.0	None	0.0	None	0.0	None	0.0	None	0.0	None	0.0	None	0.0	None	0.0	None	1.0018999999999999e-06	12
2014-02-24 07:12:00	18.974915914196238	102119507.7454	4.8646572403500266e+20	417443169900.2328	2.076177937679556	42810731503.341774	2.0102887938711e+20	-7.870076357144307e+22	1090.1855933359286	-0.5803068588006329	18.70635100233812	2.976190476190476	30.59211046843343	137.08443949963163	146.0500506962941	54.73445810307873	-0.006179101004998676	-6.009258564610754e+20	0.2471721115492671	-0.02573027510794461	2.5383163035393838e+22	0.0044309785611983815	-0.18716493892873234	0.0	181.212967	194.490921	-15.652758	-15.973942	-13.020816	-11.036492	0.0		True	0.0	None	0.0	None	0.0	None	0.0	None	0.0	None	0.0	None	0.0	None	0.0	None	1.0707e-06	12
2014-02-24 07:24:00	16.774182171566373	87906483.36700001	4.1125582679319295e+20	354055481294.9119	0.1872093164650344	16217667265.941896	1.6950067388089477e+20	-6.957808347938052e+22	1164.1740826792384	-0.5959901116789261	17.654742412990533	2.255639097744361	29.286923479621247	145.10705514253732	153.7935327447018	56.684367650906744	-0.0007037944228008811	-3.700293881232735e+21	-0.11827443364898366	-0.002668740523500823	2.4318034777254224e+22	0.03169587969715057	-0.2083027806737857	0.0	181.216141	194.381744	-15.656796	-16.101063	-13.023846	-10.913531	0.0		True	0.0	None	0.0	None	0.0	None	0.0	None	0.0	None	0.0	None	0.0	None	0.0	None	1.1669e-06	12
2014-02-24 07:36:00	15.231887766854891	83685810.1952	3.7517907240677664e+20	307056673616.3425	1.3290734933690844	172099729325.49304	1.617532765674649e+20	-7.13057574379056e+22	1153.0814442584767	-0.6415939127955009	17.374130661816615	3.26530612244898	27.752244238208622	134.68023915050355	143.76268391864556	58.0943813676309	0.005424789768853407	-1.9071952808198896e+21	-1.362689355556726	0.019349129631790588	2.327586766407855e+22	0.017160534109071354	-0.2094312653688722	0.0	181.219254	194.272552	-15.658205	-16.005160999999998	-13.025109	-10.790201	0.0		True	0.0	None	0.0	None	0.0	None	0.0	None	0.0	None	0.0	None	0.0	None	0.0	None	1.1519e-06	12
2014-02-24 07:48:00	12.133986150453858	80972453.26410002	3.2692956520726535e+20	252493790169.39066	0.9704556301706424	44624537688.51193	1.5347493012093033e+20	-6.437267277876256e+22	1025.7239157008758	-0.5986207552018247	16.806241464811283	2.9166666666666665	30.07956053755229	143.62585792143759	152.88535609836012	58.0198129703755	-0.004043565125711009	-1.4623376892371578e+21	-0.3606987584883496	-0.014994187416549303	2.3711144706266804e+22	0.013598715947367659	-0.22049703294979506	0.0	181.222351	194.163345	-15.659451999999998	-15.910045000000002	-13.026209	-10.694672	0.0		True	0.0	None	0.0	None	0.0	None	0.0	None	0.0	None	0.0	None	0.0	None	0.0	None	1.2206e-06	12
2014-02-24 08:00:00	11.733472106647268	74213657.16409999	3.1652693150717084e+20	239634222588.6149	0.2132300924150352	2366107394.54718	1.3704041102034452e+20	-6.139759576870102e+22	1185.7745888259649	-0.6229526828367111	16.765115042909482	0.9950248756218906	28.347255298116192	144.8116449961784	155.13765723555775	60.32316847643818	0.001060846230920573	-1.0818386822813888e+21	0.02283602736436555	0.003540697293382507	2.179612588426513e+22	0.010976558627191043	-0.22114799325695025	0.0	181.225433	194.054138	-15.664349	-15.812815	-13.030135	-10.571305	0.0		True	0.0	None	0.0	None	0.0	None	0.0	None	0.0	None	0.0	None	0.0	None	0.0	None	1.3025999999999998e-06	12
2014-02-24 08:12:00	12.530608199658944	74514231.2423	2.852209610236822e+20	258975571332.3417	1.988407383982924	137002710459.71222	1.4037935699337876e+20	-5.828665363292994e+22	985.1728164288127	-0.5890028167798527	15.501521616901266	0.0	30.096853736054346	159.86928977491914	168.93425531007168	59.09190265751566	0.009121134788912496	-5.248439173935999e+21	-1.2191451809138507	0.03358701982326177	2.246984138817448e+22	0.053036934949367606	-0.22706398541216105	0.0	181.228577	193.944931	-15.666384	-15.716098	-13.03203	-10.472889	0.0		True	0.0	None	0.0	None	0.0	None	0.0	None	0.0	None	0.0	None	0.0	None	0.0	None	1.2429e-06	12
2014-02-24 08:24:00	12.628918723220306	84961924.2595	3.311968765604574e+20	256984888171.2816	0.05240694262832851	17505965886.215347	1.596896820037822e+20	-6.888435882567894e+22	1022.0775092027912	-0.6104972416829446	15.425013350409884	0.4098360655737705	29.73304286041257	148.87244607187225	158.67844781054208	62.04339071409461	0.00021478255175544472	-1.3135832903588174e+21	-0.13918110176686996	0.0007660100974306122	2.4867409051564663e+22	0.011641815198052116	-0.22039088252531305	0.0	181.231689	193.835693	-15.66935	-15.621387	-13.03407	-10.351989	0.0		True	0.0	None	0.0	None	0.0	None	0.0	None	0.0	None	0.0	None	0.0	None	0.0	None	1.0682e-06	12
2014-02-24 08:36:00	13.162861501806828	87926765.5224	3.6204833846241296e+20	269618507787.2827	1.4016905373391009	118595277338.79884	1.630662931051197e+20	-6.623636762750992e+22	1077.5404711472409	-0.5672349260987424	16.50668551186638	0.7905138339920948	31.129262098685004	153.20220323480726	161.86506229695522	60.99566660906778	-0.0055402788037118645	-3.1786537302124433e+21	0.9093539765958812	-0.020343559254984843	2.5729704777815456e+22	0.027221351024111558	-0.22034401509247253	0.0	181.234756	193.726456	-15.670932	-15.523117	-13.036339	-10.255596	0.0		True	0.0	None	0.0	None	0.0	None	0.0	None	0.0	None	0.0	None	0.0	None	0.0	None	1.0639e-06	12
2014-02-24 08:48:00	15.305562925776815	95647295.6808	4.280409612869121e+20	319057111127.7917	3.594074891694892	194073069582.6945	1.807790410230078e+20	-7.635728479568698e+22	1130.9097705744405	-0.6011256600843093	17.29460012195021	2.456140350877193	30.10490404987576	156.61362692011744	163.26907281246196	58.89386612137079	-0.012610789093666287	-7.624947005510612e+21	1.3210188885519225	-0.0469373974084726	2.995558511579668e+22	0.0600276884394185	-0.2358264954565555	0.0	181.237793	193.617188	-15.719579	-15.425578	-13.037794	-10.131909	0.0		True	0.0	None	0.0	None	0.0	None	0.0	None	0.0	None	0.0	None	0.0	None	0.0	None	1.1674e-06	12
2014-02-24 09:00:00	14.575665124603818	96368130.5565	4.1467021959855047e+20	310870269204.3711	0.12371328234808045	29306094495.523712	1.8810277323695745e+20	-7.629322666491667e+22	1030.4994863412082	-0.5961288085797071	16.246114627892382	0.33003300330033003	30.08621346865891	149.58077090123038	155.92750833629333	58.262750854776755	-0.0004082946612147869	-9.394671551668495e+21	0.1876321308683348	-0.0016085884828257837	2.738831286863835e+22	0.07340670468285697	-0.21400277630278244	0.0	181.240814	193.507919	-15.722769	-15.326935	-13.039943	-10.035135	0.0		True	0.0	None	0.0	None	0.0	None	0.0	None	0.0	None	0.0	None	0.0	None	0.0	None	1.0995e-06	12
2014-02-24 09:12:00	12.681299572729595	91336281.69700001	4.238362072179409e+20	271986102849.1445	2.8802751216906124	218513152634.2906	1.7483056136135118e+20	-7.264688089918601e+22	1164.7558609582688	-0.5989093010909893	16.909013805200523	0.36496350364963503	29.53584483376185	147.84985852211224	154.28280941050326	59.816188736070366	-0.010511952998870849	-6.102187538099117e+21	1.5471149341207868	-0.039445440698517235	2.7158736957399133e+22	0.050307140903141465	-0.2238997733741957	0.0	181.243881	193.398636	-15.726494	-15.201062	-13.042642	-9.912692	0.0		True	0.0	None	0.0	None	0.0	None	0.0	None	0.0	None	0.0	None	0.0	None	0.0	None	1.0518e-06	12
2014-02-24 09:24:00	15.157372784335447	92809972.3305	4.150246005371739e+20	306023707006.7353	3.212640197874288	235358339468.7475	1.777483187654689e+20	-7.55114175678887e+22	1124.1298482922587	-0.6126400935302777	16.253493304741937	0.3597122302158274	29.368418382634754	147.3460214997601	152.31441006340182	61.83906876333929	-0.011556259704583769	-1.1663273155779778e+22	1.6424221089684328	-0.04292991104213486	2.5686701660095883e+22	0.09462660068064573	-0.2084016406310656	0.0	181.246918	193.289322	-15.729314000000002	-15.104805	-13.045211	-9.816174	0.0		True	0.0	None	0.0	None	0.0	None	0.0	None	0.0	None	0.0	None	0.0	None	0.0	None	9.5962e-07	12
2014-02-24 09:36:00	14.596791945289194	93737767.0208	4.356032717401816e+20	291354673852.0275	4.315357365104069	339618699412.3604	1.7634059838047473e+20	-7.54011541985775e+22	1197.093450149815	-0.6056906569344843	16.748481488542584	0.36496350364963503	29.524476975307866	150.19085907044638	154.76098627282838	63.84821091020007	-0.015749479434686388	-8.046437365729262e+21	2.3862479694528127	-0.057341662216507924	3.034902899741212e+22	0.06463630412334832	-0.2437910069964558	0.0	181.249878	193.179977	-15.732079999999998	-14.980954999999998	-13.047727	-9.695667	0.0		True	0.0	None	0.0	None	0.0	None	0.0	None	0.0	None	0.0	None	0.0	None	0.0	None	1.2353e-06	12
2014-02-24 09:48:00	13.826190093444906	95446315.9903	4.275809627125089e+20	288694954589.61475	1.4772022840914372	124511350746.10954	1.8545789472896467e+20	-7.262924162748373e+22	1031.9323642917414	-0.5729804520821727	16.498087571603634	0.641025641025641	30.97215592471881	142.7425758557504	148.61541473812832	58.491494797445185	-0.004734622705421273	-8.11893771619526e+21	0.7742209027395158	-0.01967829515805029	2.956628734844724e+22	0.064051234720482	-0.23325184611171945	0.0	181.252838	193.070633	-15.735271	-14.884128	-13.050673	-9.571241	0.0		True	0.0	None	0.0	None	0.0	None	0.0	None	0.0	None	0.0	None	0.0	None	0.0	None	1.1277e-06	12
2014-02-24 10:00:00	10.574786267800707	80496417.86860001	3.663381159534983e+20	243054329318.9306	0.8102101519950908	35344156349.75668	1.5424292955987152e+20	-5.799352985841146e+22	1065.0496554708777	-0.5424884570352307	16.57000750411951	0.0	31.2956587031732	145.52698303873493	151.14250735063308	60.99003382937476	0.0031282245250775697	-1.0225084877621959e+22	-0.2647491182848926	0.013050561544721357	2.6953003388164433e+22	0.095648437538776	-0.2521262847115681	0.0	181.255737	192.961243	-15.736726	-14.786923000000002	-13.051945	-9.44643	0.0		True	0.0	None	0.0	None	0.0	None	0.0	None	0.0	None	0.0	None	0.0	None	0.0	None	8.9881e-07	12
2014-02-24 10:12:00	13.474305408203175	88539870.7757	4.044658736249656e+20	288352298489.456	0.5747089655372921	47415589256.12921	1.7317530489363182e+20	-7.11370690942914e+22	1072.3858583579486	-0.6049850156140181	16.618891638791357	1.4084507042253522	29.586285819010573	144.03442378687254	146.92033091987878	58.73361239499905	0.0020236231180890568	-1.0377245611990584e+22	-0.323911297405398	0.008088502089009615	2.9418716636067568e+22	0.0882532578096393	-0.2501913976779787	0.0	181.258698	192.851852	-15.73915	-14.691892	-13.054132	-9.322511	0.0		True	0.0	None	0.0	None	0.0	None	0.0	None	0.0	None	0.0	None	0.0	None	0.0	None	9.9034e-07	12
2014-02-24 10:24:00	12.051002456927154	85887944.1686	3.815510565662103e+20	256922822823.2288	0.5436084152210948	44063018789.34806	1.6630808998639036e+20	-6.833968741953636e+22	1056.260893570757	-0.5991398758082395	16.7434148172072	2.2058823529411766	29.921543946856946	144.51320363954858	148.67842827599662	58.55685269788373	-0.0019985603500775545	-7.408299872141324e+21	0.3142936650356559	-0.007915849095379433	2.8971788843900553e+22	0.0649491976469895	-0.253998146981792	0.0	181.261612	192.742416	-15.742886	-14.592804	-13.056909	-9.196617	0.0		True	0.0	None	0.0	None	0.0	None	0.0	None	0.0	None	0.0	None	0.0	None	0.0	None	1.0831e-06	12
2014-02-24 10:36:00	13.4083648786451	87357723.56660001	3.729519191783072e+20	268235105544.0004	0.09148133067857728	59006659430.15431	1.6800245371075835e+20	-7.2143035668010524e+22	1055.744047173308	-0.6218426938722283	16.094130282169086	1.1278195488721805	28.873434681452714	149.1425623007697	155.40730456284274	58.61443731880265	-0.00034391477698713263	-5.825975864186717e+21	-0.4303850946863965	-0.0012913751701769116	2.7181073324016117e+22	0.05021746717856626	-0.2342894459823729	0.0	181.264465	192.632965	-15.744673	-14.467589000000002	-13.059233	-9.072245	0.0		True	0.0	None	0.0	None	0.0	None	0.0	None	0.0	None	0.0	None	0.0	None	0.0	None	9.3905e-07	12
2014-02-24 10:48:00	12.566720115236391	84173652.2585	4.1523164817435794e+20	260875228379.3432	1.912092140867046	147854391184.21472	1.595455280682228e+20	-6.506421201364931e+22	1207.1968525201296	-0.5820407803957759	17.040677098234696	0.7722007722007722	30.98079388111083	151.13896069908782	154.85991632628625	62.01427510711916	-0.007382595138482803	-6.826993201185833e+21	1.1075931916441315	-0.028717390021048145	3.0808405161138517e+22	0.06107179857555594	-0.27560078924765197	0.0	181.267288	192.523483	-15.747008	-14.370591	-13.061337	-8.949556	0.0		True	0.0	None	0.0	None	0.0	None	0.0	None	0.0	None	0.0	None	0.0	None	0.0	None	9.262e-07	12
2014-02-24 11:00:00	15.843330151646766	94642964.4852	5.1043256954721744e+20	333704384931.30396	0.9409984278556398	82078580534.83473	1.861265922941878e+20	-7.562893821205316e+22	1264.3061753658976	-0.6017098665385244	18.073313421648525	1.973684210526316	29.373459398531466	143.67618896257872	148.11238660446932	60.854445229620545	-0.003095389565314605	-7.010765156395281e+21	0.5238543365120408	-0.01241499953151771	2.887633565288278e+22	0.05577820694453752	-0.22974243037896586	0.0	181.270065	192.413971	-15.747216	-14.274824	-13.062076	-8.82494	0.0		True	0.0	None	0.0	None	0.0	None	0.0	None	0.0	None	0.0	None	0.0	None	0.0	None	1.2671e-06	12
2014-02-24 11:12:00	13.569107833296187	88867530.9603	4.298184766184402e+20	295049540958.4893	2.0773071868975688	173470179284.53162	1.786154073036955e+20	-6.892345621576153e+22	1057.67238575421	-0.5839981142661061	17.223475214035567	0.6535947712418301	30.87130108346777	138.24342851424754	146.66538886191347	55.05195307059146	-0.0067885855780966285	-4.730911617427644e+21	1.0999338049400025	-0.029514331093349996	2.5700640043671377e+22	0.040085677866884835	-0.2177651288111659	0.0	181.272888	192.304443	-15.749747	-14.17901	-13.063684	-8.725638	0.0		True	0.0	None	0.0	None	0.0	None	0.0	None	0.0	None	0.0	None	0.0	None	0.0	None	1.2074000000000005e-05	12
2014-02-24 11:24:00	12.334472785783115	78400664.6741	4.0081051295580376e+20	294601670214.2558	1.9246709258683083	138699738030.56992	1.6243325275371553e+20	-5.715727924563144e+22	1058.9651300531893	-0.5489581265797358	17.84075570817554	2.456140350877193	30.92996882754316	141.03690018928938	147.68228643501303	56.952535063309895	-0.006753231318836169	-1.0121922892984248e+21	0.944284817728132	-0.03169764954352328	2.69637838102579e+22	0.009721442136596908	-0.25896943383832444	0.0	181.275681	192.194885	-15.752089000000002	-14.083064000000002	-13.065184	-8.600872	0.0		True	0.0	None	0.0	None	0.0	None	0.0	None	0.0	None	0.0	None	0.0	None	0.0	None	1.1894000000000005e-05	12
2014-02-24 11:36:00	15.077119233185986	86734719.64880002	3.6106527325133216e+20	331445722559.14386	4.329578480751105	310353170284.8246	1.7483802454546907e+20	-6.952795574309565e+22	921.6185008802496	-0.6036065740085012	16.5188998159798	2.0338983050847457	30.589906338695645	137.992062791775	148.54502389045618	53.58562217386169	-0.014676537222885103	-1.0290495024184288e+21	2.041342914607285	-0.06225651484523913	2.362921135952572e+22	0.008933687723180645	-0.2051368713894974	0.0	181.278381	192.085281	-15.754599	-13.985758	-13.062798	-8.474774	0.0		True	0.0	None	0.0	None	0.0	None	0.0	None	0.0	None	0.0	None	0.0	None	0.0	None	9.1747e-06	12
2014-02-24 11:48:00	14.200238917622249	82693270.03250001	4.009651915058666e+20	342847161076.3729	0.9529580865488668	76445842392.14008	1.7148006370064397e+20	-6.5967857053751325e+22	980.264944865436	-0.60068906571209	18.455823018501295	3.571428571428571	31.35713622847355	136.80348224727146	145.57484895545568	53.840217512624996	-0.003094019761522295	-2.739949433200645e+20	0.4816092196561276	-0.014398811658624019	2.645297879817942e+22	0.0024949388060106353	-0.2408751144763239	0.0	181.281067	191.975662	-15.757399	-13.89041	-13.064804	-8.350586	0.0		True	0.0	None	0.0	None	0.0	None	0.0	None	0.0	None	0.0	None	0.0	None	0.0	None	6.5754e-06	12
2014-02-24 12:00:00	15.840115439621453	81103586.08860001	3.9330268310234576e+20	360026847476.4106	1.1838565435522976	127102755310.0303	1.7014788132789e+20	-6.905838320954967e+22	1024.7467967995326	-0.6411562085157807	17.81031485730032	2.0761245674740483	29.264368377660883	133.74983107421346	142.49152538157463	55.14295416247772	-0.004096389424056393	1.4940233133557568e+21	0.8534121512692452	-0.0177884905391975	2.152537439263266e+22	-0.013870905725069143	-0.19984724216008806	0.0	181.283768	191.866013	-15.759244	-13.793163	-13.066504	-8.226475	0.0		True	0.0	None	0.0	None	0.0	None	0.0	None	0.0	None	0.0	None	0.0	None	0.0	None	1.3035e-05	12
2014-02-24 12:12:00	12.588175241251507	75726749.9632	4.0535476985800766e+20	325588742116.431	0.3925726883135925	52307746977.1508	1.648526025222724e+20	-5.83181306199014e+22	990.9964448125494	-0.5798849016673733	18.978398931545602	3.896103896103897	31.66082310775199	124.25752536074499	132.85155375716428	50.2080455601186	-0.0012745866503688068	1.2846535487300464e+20	-0.3295545647999472	-0.0065625905791189655	2.3873890800442645e+22	-0.0012773921057883605	-0.2373894477081868	0.0	181.286453	191.756348	-15.761191	-13.667282	-13.068347	-8.101531	0.0		True	0.0	None	0.0	None	0.0	None	0.0	None	0.0	None	0.0	None	0.0	None	0.0	None	1.2518e-05	12
2014-02-24 12:24:00	13.742958462207728	75222170.4319	4.263134643297879e+20	331253442417.2156	2.6518144460471764	239102724620.677	1.6358699624936853e+20	-6.086939047579509e+22	1066.4734837202056	-0.6093132198810219	18.591694792274307	4.318936877076411	30.725593530492592	138.65300913496978	148.4137648989874	47.62693282477145	-0.008810014770920851	5.036741421392919e+20	1.5414894685179856	-0.04381135534787381	2.34598995671225e+22	-0.00504186604989484	-0.2348376882303928	0.0	181.289032	191.646637	-15.763059	-13.569757999999998	-13.070114	-7.978128999999999	0.0		True	0.0	None	0.0	None	0.0	None	0.0	None	0.0	None	0.0	None	0.0	None	0.0	None	4.5266e-06	12
2014-02-24 12:36:00	14.001246842902837	71607796.37979999	3.052419518117424e+20	326185575112.3392	2.4244696139011808	148790126265.7749	1.5498983158174944e+20	-5.8035966292107295e+22	823.8108419025607	-0.6102733360236111	16.828559195003855	2.867383512544803	30.704704199212536	133.73025095009868	143.78842076791926	51.826366757072286	-0.008689855246957636	2.392773451147848e+21	1.0349112408896843	-0.04205201689818775	2.050424701230224e+22	-0.025161049770947203	-0.21561104305334194	0.0	181.291595	191.536896	-15.763289000000002	-13.445028	-13.070903	-7.854328	0.0		True	0.0	None	0.0	None	0.0	None	0.0	None	0.0	None	0.0	None	0.0	None	0.0	None	3.0111000000000007e-06	12
2014-02-24 12:48:00	12.093589058159456	66776233.33230001	2.7376494084741025e+20	299439880219.6257	1.5202385226201884	163621421454.65045	1.4756604741269157e+20	-5.304158088693972e+22	760.6693523882085	-0.5981111806523685	16.513606051453813	2.5830258302583027	30.821158750438016	135.44190157703736	145.68983357171655	51.427476230432994	-0.005609736245830953	3.7763642657264606e+21	1.1715424579774172	-0.028491336433408343	1.7825024447284616e+22	-0.042583302604829	-0.2009997861875163	0.0	181.294128	191.427124	-15.765916	-13.3488	-13.072737	-7.76107	0.0		True	0.0	None	0.0	None	0.0	None	0.0	None	0.0	None	0.0	None	0.0	None	0.0	None	2.5998e-06	12
2014-02-24 13:00:00	15.888173067065921	73318506.7203	3.685304104918191e+20	431904097059.0308	2.52964622035169	157649233168.66916	1.748139522992115e+20	-5.856694124176998e+22	788.3483576931787	-0.6014872579270604	19.19289385167545	3.4090909090909087	31.37788244294261	125.25465681687037	135.0953575278153	47.83095883410982	-0.007186494944180937	5.086322726522836e+19	0.8691688555758771	-0.04308763774892358	1.7200386015351324e+22	-0.0005223694877762155	-0.1766493656711917	0.0	181.296677	191.317322	-15.77031	-13.224035	-13.075742	-7.637132000000001	0.0		True	0.0	None	0.0	None	0.0	None	0.0	None	0.0	None	0.0	None	0.0	None	0.0	None	2.2422e-06	12
2014-02-24 13:12:00	12.865170915836835	64992984.3319	3.229811958406994e+20	332638501973.7295	3.496297968033367	261276180747.3991	1.4863944390271952e+20	-5.1321882260047265e+22	850.3518261315868	-0.5945981318714784	18.524700546612312	3.146853146853147	31.290536167657947	127.45911814469576	137.39588031535914	45.441869417722025	-0.012224818070046738	1.7411658677950368e+21	1.7729630240267398	-0.06747155249774069	1.8088327817292537e+22	-0.020172564346402768	-0.20956530538658247	0.0	181.299194	191.207489	-15.771037	-13.126945	-13.077699	-7.514017	0.0		True	0.0	None	0.0	None	0.0	None	0.0	None	0.0	None	0.0	None	0.0	None	0.0	None	1.9950999999999998e-06	12
2014-02-24 13:24:00	13.793676829259152	59395856.95690001	3.3800155813521995e+20	349474360286.678	3.8278903121502337	197790202842.1721	1.3816631665620432e+20	-4.748608211331149e+22	967.7216845397736	-0.6020016830272567	19.56180471777236	4.56273764258555	30.409427943045035	124.77504539538748	133.04423267076308	47.289970891035175	-0.014554716015780357	-8.442321588662696e+17	1.459573665239045	-0.0804582087512056	1.8578762524299648e+22	1.0702697672351448e-05	-0.2355310400530358	0.0	181.30162	191.097626	-15.772846	-13.000021	-13.079409	-7.417998	0.0		True	0.0	None	0.0	None	0.0	None	0.0	None	0.0	None	0.0	None	0.0	None	0.0	None	1.9069e-06	12
2014-02-24 13:36:00	11.667103001616542	61737022.9892	3.0654560706595475e+20	289118636107.0344	2.8102433767389954	209876773292.37164	1.3871561902318502e+20	-4.922871925390691e+22	905.1955366360936	-0.6004271764850828	17.330651532869553	0.7843137254901961	29.91562918419607	132.34078827697164	139.37424602076428	51.38273991829726	-0.01102056226172155	8.461728087078378e+20	1.5973944803717532	-0.05688428813239129	1.980603831067146e+22	-0.010320503113852141	-0.2415680082777709	0.0	181.304031	190.987732	-15.773485999999998	-12.901277	-13.080582	-7.29404	0.0		True	0.0	None	0.0	None	0.0	None	0.0	None	0.0	None	0.0	None	0.0	None	0.0	None	1.8646000000000001e-06	12
2014-02-24 13:48:00	13.805727193910652	68711653.283	4.375139251593799e+20	350400649189.58	1.8572850518409307	165851441544.30566	1.552898797370157e+20	-5.284573233408368e+22	1094.4925843599672	-0.5791178631215529	20.510870718198028	5.980066445182724	31.38150459839291	123.92640137185222	133.2956733702627	52.31296778963554	-0.00617038223202967	2.1844019084532048e+21	1.0694282969562123	-0.03423447044585345	2.0923861950949205e+22	-0.023938095084475967	-0.2292972712475549	0.0	181.306412	190.877808	-15.754411	-12.777975	-13.065784	-7.170659	0.0		True	0.0	None	0.0	None	0.0	None	0.0	None	0.0	None	0.0	None	0.0	None	0.0	None	2.0384e-06	12
2014-02-24 14:00:00	11.063056653250067	59734814.7881	3.23465053978782e+20	278803527287.792	0.9349974941100132	13477041975.62038	1.2916342989229023e+20	-4.764221958039016e+22	1040.875947111598	-0.6005538110456581	18.675196727979973	2.564102564102564	31.03942424363008	134.52746680628997	142.91781394112195	54.49452726132087	-0.003995715786794928	-5.3775624987260414e+20	0.11178629818141972	-0.01955881961264855	1.8308048962002405e+22	0.006778684287151528	-0.23078203899355365	0.0	181.308823	190.767868	-15.754439	-12.678663	-13.06877	-7.0768330000000015	0.0		True	0.0	None	0.0	None	0.0	None	0.0	None	0.0	None	0.0	None	0.0	None	0.0	None	1.8516e-06	12
2014-02-24 14:12:00	11.984180631670904	57851070.5474	3.2542839297920985e+20	311731883826.9241	0.6666721446316131	26139455240.07471	1.246515528672215e+20	-4.2778615585266905e+22	1033.9381956780883	-0.5568045933706182	19.935952530351575	3.79746835443038	32.8029233392342	123.6629574700268	132.5937877570467	52.515584632206384	-0.0028129626355764266	1.0914762171625096e+21	0.2140764345026714	-0.014804604190456427	1.902796381617261e+22	-0.01420660680473678	-0.2476671465493552	0.0	181.311188	190.657883	-15.754926	-12.555806	-13.088006	-6.861298	0.0		True	0.0	None	0.0	None	0.0	None	0.0	None	0.0	None	0.0	None	0.0	None	0.0	None	1.6880000000000004e-06	12
2014-02-24 14:24:00	15.518913618097224	74355340.3254	4.366703577515698e+20	384188696751.4669	3.7286080686556615	295558324098.88336	1.6622523200835853e+20	-6.093832023932572e+22	1067.5555386111328	-0.6171145635349247	19.26768626780468	4.545454545454546	29.72415236373508	127.70391102202456	135.35377933724752	52.31469372183295	-0.01210587035277812	2.3862307964204703e+21	1.8626180902386489	-0.062018859664454376	2.226061795562638e+22	-0.024165053625424773	-0.22543042669625266	0.0	181.313477	190.547882	-15.75814	-12.430703	-13.090581	-6.6735440000000015	0.0		True	0.0	None	0.0	None	0.0	None	0.0	None	0.0	None	0.0	None	0.0	None	0.0	None	1.4595e-06	12
2014-02-24 14:36:00	14.050284030486253	67247231.67230001	3.271932642328406e+20	333239505840.4346	3.611810057228351	298509299962.19305	1.4501532737545616e+20	-5.771596898812257e+22	977.6677887716246	-0.6462626747087564	16.926157577698838	0.3968253968253968	28.832854871797572	143.09445266806276	151.66244547906945	53.77502087499752	-0.014332579592175997	-1.5757322582635063e+20	2.2993186413189046	-0.06525012624732271	1.9493313038181405e+22	0.0017643937400753109	-0.218272357613587	0.0	181.31575	190.437851	-15.759691	-12.331887	-13.070267	-6.548503	0.0		True	0.0	None	0.0	None	0.0	None	0.0	None	0.0	None	0.0	None	0.0	None	0.0	None	1.9586e-06	12
2014-02-24 14:48:00	11.458933428120668	65297594.79410001	3.4182831865458577e+20	268532915500.5555	3.158315501547148	264723474870.7832	1.4001598494472089e+20	-5.132816616934296e+22	1025.4672861831114	-0.591896888094754	18.207773172188887	3.5856573705179287	30.65806741842545	142.042478203616	149.4551268861241	56.66452054480549	-0.012582930285048395	-2.487071925466322e+21	2.0472498419027727	-0.060767782589077085	2.072177830937228e+22	0.02867996741388722	-0.2389556653288833	0.0	181.318008	190.327805	-15.762484	-12.206789	-13.044685	-6.424282	0.0		True	0.0	None	0.0	None	0.0	None	0.0	None	0.0	None	0.0	None	0.0	None	0.0	None	5.0403e-06	12
2014-02-24 15:00:00	10.666433846716897	65901395.35070001	2.9696234241536446e+20	246540001084.4409	0.3801539429964298	2417453849.883606	1.340122822356927e+20	-5.2852630629166575e+22	972.2119437704532	-0.6038921803417819	16.338785230074173	0.8695652173913043	29.88242119033928	145.35385790517796	153.44668227095576	57.39735384828253	-0.00165284323041926	-2.2886708983849933e+21	-0.020402924356481028	-0.007193159905891463	2.3559919260791692e+22	0.026150268065328518	-0.2691947560926957	0.0	181.320267	190.217712	-15.741051	-12.109202	-13.0466	-6.301196	0.0		True	0.0	None	0.0	None	0.0	None	0.0	None	0.0	None	0.0	None	0.0	None	0.0	None	4.6541e-06	12
2014-02-24 15:12:00	11.157098392841807	61217608.399	2.8654500149417224e+20	255034498276.8641	0.5798203348616874	28822623238.693108	1.2469511417759905e+20	-4.82336732127232e+22	1012.9795220659596	-0.5932823250800711	16.947796032907046	1.4084507042253522	30.868484769837107	144.22512261692225	153.22369776855476	61.58901988276524	-0.002722161196533744	-4.121848335689628e+21	0.2626792396717367	-0.011889246757668177	1.9410784452191774e+22	0.05069943052938178	-0.23875592639680376	0.0	181.32251	190.107605	-15.742519	-11.985659	-13.047987	-6.178534	0.0		True	0.0	None	0.0	None	0.0	None	0.0	None	0.0	None	0.0	None	0.0	None	0.0	None	1.6133e-06	12
2014-02-24 15:24:00	7.8003205203387616	50998132.63150001	2.3007052377854008e+20	174415214753.35278	0.750070417761259	56339137913.76259	1.0257490237734222e+20	-3.8371658630852e+22	995.6328617099573	-0.5665572319731065	15.491300010504027	0.0	30.864297717048355	145.01841215483753	152.24513349987066	60.25218503084045	-0.004310749527363557	-1.935471470784856e+21	0.6285535890671748	-0.018777228588066297	1.8964761460901285e+22	0.028577220745134056	-0.2800145508872915	0.0	181.324661	189.997467	-15.741639	-11.861246	-13.048141	-6.055062	0.0		True	0.0	None	0.0	None	0.0	None	0.0	None	0.0	None	0.0	None	0.0	None	0.0	None	1.4213999999999999e-06	12
2014-02-24 15:36:00	8.257668179822534	51353429.875	2.0976349995452337e+20	187460825852.2388	0.9390390573499788	111671427350.4648	1.0301761618048785e+20	-3.999848905471791e+22	907.7538897826988	-0.5864913038274447	14.876034815601232	0.0	31.165078621232805	143.9518800737008	153.50429152960376	59.807851789863655	-0.005396776191666544	-2.2720944257026194e+21	1.245900200575329	-0.02305188799238056	1.8300491855934599e+22	0.03331534899546961	-0.26833711929937576	0.0	181.326813	189.887314	-15.742749	-11.76394	-13.049721	-5.932131	0.0		True	0.0	None	0.0	None	0.0	None	0.0	None	0.0	None	0.0	None	0.0	None	0.0	None	1.5507e-06	12
2014-02-24 15:48:00	7.580610702737888	49000109.3783	1.7995573038405127e+20	166020324569.8195	0.8314749068640717	91159126343.05928	1.0076671565068527e+20	-3.956231642795219e+22	806.5733991626997	-0.6079560137368315	15.007670720009765	0.0	29.61727238292817	131.95028578998085	143.50914399214975	56.308461634891756	0.004949255398000426	-2.901343282090209e+21	-1.053392231834932	0.021106096966967875	1.7817000465477539e+22	0.04458508134815505	-0.2737947005571654	0.0	181.328934	189.77713	-15.744728	-11.639218	-13.05216	-5.810594	0.0		True	0.0	None	0.0	None	0.0	None	0.0	None	0.0	None	0.0	None	0.0	None	0.0	None	2.4082e-06	12
2014-02-24 16:00:00	5.425941163998586	38100654.9145	1.4386900160131736e+20	125222259781.40367	0.2749579279801203	23001649356.793297	7.72404924455286e+19	-2.888477843529337e+22	820.6931369937558	-0.570852756943625	15.75229934752637	0.0	31.246578109940923	140.3218510765792	150.27421733389647	56.52620158258732	0.0020830146059100025	-2.873238851652996e+21	-0.3382927185651871	0.00918815520498786	1.4341626958768903e+22	0.056784105978100415	-0.28343500390042364	0.0	181.3311	189.666946	-15.747798	-11.51507	-13.055105	-5.687232	0.0		True	0.0	None	0.0	None	0.0	None	0.0	None	0.0	None	0.0	None	0.0	None	0.0	None	1.9872e-06	12
2014-02-24 16:12:00	8.521763763232519	45107233.6275	1.6908857513934176e+20	182492542007.1956	1.6818490432620594	106946514662.73044	9.355235649425184e+19	-3.7070606033146366e+22	832.1667983556648	-0.6188295497749654	14.003685899534762	0.6535947712418301	28.35108859968031	149.76545363145902	157.91210846577385	58.169089702715645	-0.01106479633725039	-4.2166408599719604e+21	1.3570341873620264	-0.04640643197057807	1.4632973048828026e+22	0.07038951460912221	-0.2442721361387704	0.0	181.333221	189.556717	-15.750424	-11.389826	-13.057137	-5.562795	0.0		True	0.0	None	0.0	None	0.0	None	0.0	None	0.0	None	0.0	None	0.0	None	0.0	None	1.29e-06	12
2014-02-24 16:24:00	6.6448603917409566	37137792.4139	1.3256211601401617e+20	146803970630.49466	1.5282345662376762	86735500237.96964	7.921481952511941e+19	-3.0070011746386545e+22	750.5080296288468	-0.6096843813587957	14.521992963202386	0.0	28.72699684491666	147.3103257447036	157.77365902815487	53.82376264255787	-0.011490485460433656	-4.288981561024511e+21	1.2661009076977026	-0.05112851742623136	1.2091287332783162e+22	0.08696122541444437	-0.24515683929538906	0.0	181.335281	189.446487	-15.750898	-11.290797	-13.059025	-5.469677	0.0		True	0.0	None	0.0	None	0.0	None	0.0	None	0.0	None	0.0	None	0.0	None	0.0	None	1.1508e-06	12
2014-02-24 16:36:00	6.263563432013657	33796111.0176	1.6282207025239615e+20	142611322300.6912	1.5379214161581507	150676392179.77942	7.232209655263605e+19	-2.6181025411994804e+22	973.0389329536348	-0.5833207349962117	16.873653459558195	1.5873015873015872	30.51639428718904	130.05108723160842	136.77157719016637	56.53480056118613	-0.01220572552506469	-2.67573232689057e+21	2.3216924248947524	-0.05748155563465501	1.0410839364030635e+22	0.059616081609234775	-0.231956478945686	0.0	181.337341	189.336243	-15.729041	-11.167126	-13.035287	-5.346739	0.0		True	0.0	None	0.0	None	0.0	None	0.0	None	0.0	None	0.0	None	0.0	None	0.0	None	1.4423e-06	12
2014-02-24 16:48:00	4.869360838268029	34155685.721999995	1.7051855749456832e+20	114023670917.7536	0.837431982218626	64133659503.34316	7.261505978905233e+19	-2.6347765810111363e+22	1011.0097866381552	-0.5808556475568335	17.02680970280851	0.0	30.303160729522176	129.84497104412605	135.79337159611129	57.31500711260032	-0.006593952615894693	-2.6333729461589146e+21	0.9804349128766608	-0.03101875158367557	1.233016583941032e+22	0.05805462060516613	-0.2718274678297498	0.0	181.339371	189.225967	-15.730552	-11.042893	-13.037774	-5.223928	0.0		True	0.0	None	0.0	None	0.0	None	0.0	None	0.0	None	0.0	None	0.0	None	0.0	None	1.2634e-06	12
2014-02-24 17:00:00	4.316423932646135	31239635.2073	1.4220821974003048e+20	100925430598.38583	0.08423295066614023	18364299833.791344	6.414516128434945e+19	-2.296899473535031e+22	915.2216673665762	-0.5536349386710657	17.96461756788339	0.8547008547008548	34.033674697132966	131.9389214227404	138.37830392369784	57.880316329489524	-0.0007199397492832497	-1.3587374101105246e+20	0.304741073874068	-0.0034710196858505128	1.2246605386891362e+22	0.0032750432110069012	-0.29518699884002275	0.0	181.341446	189.115692	-15.732369	-10.918087	-13.039987	-5.130888	0.0		True	0.0	None	0.0	None	0.0	None	0.0	None	0.0	None	0.0	None	0.0	None	0.0	None	1.2264e-06	12
2014-02-24 17:12:00	4.870575974290992	30135811.0673	1.3284441937452022e+20	113125393282.4931	0.579848449978861	83798999443.36607	6.130395381851484e+19	-2.16903022065786e+22	934.8609366162152	-0.541963694098886	15.505684600098196	0.0	32.09211082035376	146.33737262167878	155.11677728906858	56.01192953626082	-0.005419144392325804	1.9135213223478449e+21	1.5205580406498789	-0.024956717529094414	1.122218536501601e+22	-0.04781210859672054	-0.28040259551763536	0.0	181.343506	189.005402	-15.732041	-10.819252	-13.041503	-5.006737	0.0		True	0.0	None	0.0	None	0.0	None	0.0	None	0.0	None	0.0	None	0.0	None	0.0	None	1.0846e-06	12
2014-02-24 17:24:00	4.833840954813429	31937427.4923	1.641407226245083e+20	104738626340.61206	0.4607803203586914	17848757126.881985	6.121209553166919e+19	-2.2528855912177017e+22	1261.181882308722	-0.5311615918091696	15.953647427785102	1.020408163265306	31.874015720221053	155.52282579779592	162.25136744771822	65.28262070594761	0.004701840003660117	1.7521092711363683e+21	-0.3536182869693976	0.01884529585772858	1.2439255025418758e+22	-0.0413093835349789	-0.2932796288448171	0.0	181.34549	188.895096	-15.733686	-10.693918	-13.043504	-4.884239	0.0		True	0.0	None	0.0	None	0.0	None	0.0	None	0.0	None	0.0	None	0.0	None	0.0	None	1.0943e-06	12
