Timestamp	TOTUSJH	TOTBSQ	TOTPOT	TOTUSJZ	ABSNJZH	SAVNCPP	USFLUX	TOTFZ	MEANPOT	EPSZ	MEANSHR	SHRGT45	MEANGAM	MEANGBT	MEANGBZ	MEANGBH	MEANJZH	TOTFY	MEANJZD	MEANALP	TOTFX	EPSY	EPSX	R_VALUE	CRVAL1	CRLN_OBS	LAT_MIN	LON_MIN	LAT_MAX	LON_MAX	QUALITY	NOAA_AR	IS_TMFI	BFLARE	BFLARE_label	CFLARE	CFLARE_label	MFLARE	MFLARE_label	XFLARE	XFLARE_label	BFLARE_loc	BFLARE_label_loc	CFLARE_loc	CFLARE_label_loc	MFLARE_loc	MFLARE_label_loc	XFLARE_loc	XFLARE_label_loc	XR_MAX	XR_QUAL
2014-02-10 15:48:00	405.04868820874566	3446241072.2691	2.95362179008592e+22	8948386419493.629	24.195174889734393	1256112585952.0034	5.615810326710312e+21	-2.3294112087656247e+24	2448.303616468845	-0.5089651229696497	24.770706270193	7.397622192866581	34.022077241447136	136.9225171902474	133.5904272148803	64.52569457072299	0.002663493492925405	-1.19124413247096e+23	0.2506940476604891	0.00930537555176915	-1.1418941613843905e+24	0.026028110197479484	0.24949837112499595	2.3917918899849417	36.796215	14.141913	-16.855938000000002	13.931089000000002	-6.449171	30.720051	0.0	11971.0	True	0.0	None	0.0	None	0.0	None	0.0	None	0.0	None	0.0	None	0.0	None	0.0	None	1.1801000000000001e-06	12
2014-02-10 16:00:00	417.059898238441	3527376851.346101	3.040799220815561e+22	9188029577239.188	13.840839440164526	1361498321422.8792	5.724158575148288e+21	-2.3645130660694616e+24	2462.023507109448	-0.5047510792109594	24.920903793800512	8.0	34.46629879113483	137.31937210531945	134.05356254735597	64.55636303660016	0.0014882623053940347	-1.1235182601256993e+23	0.28587471340391096	0.005215259253968458	-1.1638830121582504e+24	0.02398367183710909	0.2484533559540589	2.6311800504863294	36.79871	14.03166	-16.852495	14.055444	-6.449193	30.825838	0.0	11971.0	True	0.0	None	0.0	None	0.0	None	0.0	None	0.0	None	0.0	None	0.0	None	0.0	None	1.2254000000000002e-06	12
2014-02-10 16:12:00	415.06175267664565	3562513417.8555	3.1146630622496044e+22	9091806290897.195	12.741083956494625	1516600880995.0242	5.723571446572523e+21	-2.3723918776280865e+24	2569.347975242357	-0.5014381873324238	24.99660532833632	7.931638913234005	34.150494312806266	139.04012117424483	135.71091122294746	65.5474436170072	0.0013958242721838984	-1.2116989462820351e+23	0.3244484896551329	0.004764007175540261	-1.17637411896735e+24	0.02561095108046573	0.24864311474102885	2.6126862691935107	36.801186	13.921387	-16.848522	14.15341	-6.4649	30.931747	0.0	11971.0	True	0.0	None	0.0	None	0.0	None	0.0	None	0.0	None	0.0	None	0.0	None	0.0	None	1.2026000000000001e-06	12
2014-02-10 16:24:00	415.0498433463026	3565028312.0533	3.0428320926821805e+22	9048449690478.607	15.648718742495033	937652732194.8428	5.689695362345904e+21	-2.3875818806053145e+24	2563.7386991213352	-0.5042928608760573	24.62794415575234	6.982208794897617	34.00491856410365	142.05722435950588	138.9470552483247	67.35282294026837	0.0017510035518065385	-1.0282598930126654e+23	0.18460235863605315	0.005835974733916807	-1.1762719806615492e+24	0.0217183807342348	0.2484461651827291	2.6262382145270484	36.803646	13.811095000000002	-16.845213	14.276003	-6.463723	31.043205	0.0	11971.0	True	0.0	None	0.0	None	0.0	None	0.0	None	0.0	None	0.0	None	0.0	None	0.0	None	1.2535e-06	12
2014-02-10 16:36:00	412.19145076830773	3564274734.1462	3.0519431332744586e+22	9182303181312.568	16.19058995363729	1578328879320.528	5.724056176683221e+21	-2.380226867410128e+24	2527.8557118313524	-0.5028456329089148	24.8250454961453	6.962930370696293	34.23319988333071	139.97084335268602	137.12392235755675	66.60947438168489	0.0017809470854292476	-9.681781672470607e+22	0.2835253295064369	0.0060451505879768365	-1.1847988956446616e+24	0.0204536874171018	0.2503000695889415	2.5547246207684093	36.806087	13.700788	-16.842195999999998	14.39876	-6.459467	31.149822	0.0	11971.0	True	0.0	None	0.0	None	0.0	None	0.0	None	0.0	None	0.0	None	0.0	None	0.0	None	1.3003999999999999e-06	12
2014-02-10 16:48:00	421.5059779829323	3586284444.3218	3.085441003223317e+22	9335571881407.332	3.70912394658501	396914089037.2107	5.773142831228714e+21	-2.4103552491451484e+24	2556.445063939176	-0.5060854591655869	24.789852305983878	6.822183098591549	33.90625484851282	140.35059264367092	137.57833399182442	66.15383890946867	0.0004081342370802168	-9.380161095742508e+22	0.026814401356116256	0.0013734314686832654	-1.1874037677568464e+24	0.019694869197682128	0.2493108769893133	2.7040480666511355	36.808514	13.590465	-16.84798	14.522615	-6.459374	31.259005	0.0	11971.0	True	0.0	None	0.0	None	0.0	None	0.0	None	0.0	None	0.0	None	0.0	None	0.0	None	2.5901999999999998e-06	11
2014-02-10 17:00:00	415.13254469298585	3581974850.6994	3.0320890791154718e+22	9110362640977.836	3.2693294677577502	77089373301.87616	5.731816812566557e+21	-2.435698471623697e+24	2562.7157426149383	-0.5120217749609527	24.68419547171461	6.4429228869682325	33.876050954305136	141.42200453974252	139.4424765220566	66.55275187052469	0.00036696929708808507	-6.6841499608465355e+22	0.016898380087178966	0.0012072802797362255	-1.1792683441689502e+24	0.014051124828995558	0.24790058283944075	2.8086422081868814	36.810928	13.480127	-16.84701	14.646369	-6.475989	31.369389	0.0	11971.0	True	0.0	None	0.0	None	0.0	None	0.0	None	0.0	None	0.0	None	0.0	None	0.0	None	2.5192e-06	12
2014-02-10 17:12:00	432.71990241685126	3630510450.2446	3.0281454886248272e+22	9494961433344.762	8.927192653556927	712537861399.6838	5.860345726803024e+21	-2.5073142057903344e+24	2490.066967929078	-0.5200302106096405	24.858332989501143	7.327727421644642	33.71491526491608	140.19829975965698	138.7878122652701	65.83094881533688	0.0009749036424109344	-4.4962238757955615e+22	0.01583548812445797	0.003235377731636751	-1.1792325290625624e+24	0.00932540582140977	0.24457905556070664	2.809858182380602	36.813332	13.36978	-16.846264	14.770089000000002	-6.473944	31.479847	0.0	11971.0	True	0.0	None	0.0	None	0.0	None	0.0	None	0.0	None	0.0	None	0.0	None	0.0	None	1.705e-06	12
2014-02-10 17:24:00	424.8359784908498	3607385308.6956	3.0094547175243673e+22	9227187576292.61	11.139645785699262	910081481678.8184	5.80687408777137e+21	-2.513820901026512e+24	2535.616291869062	-0.5247220070417283	24.80873343456027	7.138860915295961	33.28776268400168	140.31115681485338	139.69123195316322	65.37764071238789	0.001246463666297333	-2.650105709739761e+22	-0.19887489975949973	0.0040505889741474	-1.1660791619006838e+24	0.005531693949714386	0.2434013488996807	2.9286059647530847	36.815723	13.259421	-16.846693	14.893596	-6.47287	31.600229	0.0	11971.0	True	0.0	None	0.0	None	0.0	None	0.0	None	0.0	None	0.0	None	0.0	None	0.0	None	1.3523e-06	12
2014-02-10 17:36:00	432.816862754907	3558227378.903301	2.942185420106829e+22	9318111375820.383	14.667129149609961	838796329066.0182	5.766870455839229e+21	-2.5068153513403064e+24	2481.993240924729	-0.5304886378440735	24.94799533031843	7.640600492941967	33.38600218172854	138.90845670822952	138.51286337290162	64.21597718226293	0.0016431917039670578	-1.6851849346615867e+22	-0.039232505069039136	0.00538655755909989	-1.1394050202757314e+24	0.0035661639778374744	0.2411192419240604	2.906640159454552	36.818104	13.149055	-16.846119	15.017344	-6.489601	31.709604	0.0	11971.0	True	0.0	None	0.0	None	0.0	None	0.0	None	0.0	None	0.0	None	0.0	None	0.0	None	1.2523999999999999e-06	12
2014-02-10 17:48:00	432.38640030387336	3527142524.4506	2.9050568413419114e+22	9326230893997.645	19.049279876861426	1120448148104.2407	5.717976035021005e+21	-2.4916151571322617e+24	2455.899751241307	-0.5319188833688074	25.063635526112808	8.173346805883014	33.71657857223365	137.47691907153512	137.73048664948678	62.81276920805602	0.002138926552533284	-1.3276395031058673e+22	0.05182556429588967	0.007051247359997792	-1.1217198110051447e+24	0.0028342921256796012	0.23946874284119385	2.9186378777187203	36.82048	13.038681	-16.856215	15.141095000000002	-6.487669	31.819113	0.0	11971.0	True	0.0	None	0.0	None	0.0	None	0.0	None	0.0	None	0.0	None	0.0	None	0.0	None	1.193e-06	12
2014-02-10 18:00:00	444.8890636894199	3524368052.5182	2.915873554559974e+22	9480577964418.738	24.137992314895396	789091915144.7047	5.782050288920997e+21	-2.508575146423777e+24	2425.5581003492543	-0.5359612600701401	25.39025444399548	8.020326999558108	33.18376344885079	135.61252670832786	136.05594086350305	61.54800767868539	0.002666592169122337	-2.347695759046696e+22	0.053349485080809986	0.008918044240152936	-1.1371335498989058e+24	0.005015891108838358	0.2429504777405987	2.853811352627192	36.822853	12.928303	-16.853106	15.241076	-6.486601	31.926086	66560.0	11971.0	False	0.0	None	0.0	None	0.0	None	0.0	None	0.0	None	0.0	None	0.0	None	0.0	None	1.3428e-06	12
2014-02-10 18:12:00	452.3392042077935	3543020392.0135	2.944717271701549e+22	9791193776018.973	37.694510543096534	2392586431826.26	5.8813582532994e+21	-2.5326019372920385e+24	2378.6035198939207	-0.5382460297079864	25.374945244617024	8.431667024243723	33.355539237721054	134.14841185752564	134.74773157993792	59.84367192790319	0.0040436076531963645	-1.8324709421142216e+22	0.20602751487062507	0.013832753865360077	-1.127166380668877e+24	0.003894493621855344	0.2395531726806008	2.8830738310370028	36.825222	12.817923	-16.849459	15.365851	-6.505187	32.037632	66560.0	11971.0	False	0.0	None	0.0	None	0.0	None	0.0	None	0.0	None	0.0	None	0.0	None	0.0	None	1.3002e-06	12
2014-02-10 18:24:00	454.95426195532656	3541714793.037	2.9627201623819054e+22	9972609337555.018	28.901846816793288	2446115698525.3853	5.91733177642604e+21	-2.543576635220251e+24	2357.7366694780285	-0.54077779458347	25.44990227224029	8.264637497357851	33.103386100349496	134.1740815385453	134.39282407096786	59.87897270533843	0.0030545177358690862	-3.9599163462137965e+22	0.5049005404066423	0.010592585892793452	-1.136000742044494e+24	0.00841899079740171	0.2415197432708026	2.8858462518202965	36.827587	12.70754	-16.845654999999994	15.490849	-6.50358	32.148605	0.0	11971.0	True	0.0	None	0.0	None	0.0	None	0.0	None	0.0	None	0.0	None	0.0	None	0.0	None	1.2263e-06	12
2014-02-10 18:36:00	471.8820498966848	3619234012.782	3.01394224554363e+22	10395397261122.11	34.24631953817559	3284903044059.252	6.08018303383258e+21	-2.61552461581464e+24	2321.2224504552905	-0.5441637389521924	25.29795768913793	7.763117520711875	32.970842501534584	134.18096139810592	134.18445116471892	59.74198570391199	0.003502743125516578	-4.5288071296566516e+22	0.6561918786840861	0.012255580465474558	-1.1655533859418244e+24	0.009422249768808759	0.2424950943330903	2.8230831052579646	36.829956	12.597157	-16.848822	15.61496	-6.5016110000000005	32.259914	0.0	11971.0	True	0.0	None	0.0	None	0.0	None	0.0	None	0.0	None	0.0	None	0.0	None	0.0	None	1.1771e-06	12
2014-02-10 18:48:00	481.55398286776483	3724795135.5337	3.12994957711382e+22	10901198533947.463	37.43990335407477	3166091682245.576	6.411765383804523e+21	-2.716686867596834e+24	2230.1393809359743	-0.5491925814324808	25.263911121347213	8.071536714610144	32.74984059902669	133.7071451131259	133.46738975336416	58.4603859156814	0.003542761483163775	-5.465528437074094e+22	0.5851218045439961	0.012976480384152932	-1.2163188565115972e+24	0.011048854054735343	0.24588527320541376	2.8296087386586404	36.832329	12.486778	-16.844742	15.739944	-6.519564	32.371033000000004	0.0	11971.0	True	0.0	None	0.0	None	0.0	None	0.0	None	0.0	None	0.0	None	0.0	None	0.0	None	1.1021e-06	12
2014-02-10 19:00:00	472.6350630593277	3720800010.5845	3.1724738391530885e+22	10863726938445.98	26.904459224474355	3215385732712.3545	6.44477712611324e+21	-2.712503969147134e+24	2218.042185476509	-0.5489357432702885	25.664557930210307	8.588672237697308	33.08996833180987	132.63989463453586	132.2265714364502	58.06437458031822	0.002498092778502725	-8.828800466645013e+22	0.58308787840679	0.009336509285619387	-1.239521566845403e+24	0.017867049049394276	0.25084486523710825	2.6842502351180464	36.834702	12.376403	-16.85556	15.863943	-6.517074	32.485001000000004	0.0	11971.0	True	0.0	None	0.0	None	0.0	None	0.0	None	0.0	None	0.0	None	0.0	None	0.0	None	1.1889e-06	12
2014-02-10 19:12:00	486.3330087152858	3794320784.6056	3.260680634683585e+22	11227310668569.52	20.678270350866825	4158256873885.069	6.649477683560919e+21	-2.772101956613869e+24	2176.6406798357	-0.5501267100771949	25.80710210848473	9.27304964539007	33.32960015386808	131.30314194871102	130.7249065845115	56.94787462714981	0.001833179995644222	-1.2289714580647584e+23	0.7199782803608635	0.0070314187104715785	-1.2601271630349234e+24	0.02438907499022096	0.25007363413360656	2.7646036955334883	36.837082	12.266034	-16.852242	15.987329	-6.517447	32.602329	66560.0	11971.0	False	0.0	None	0.0	None	0.0	None	0.0	None	0.0	None	0.0	None	0.0	None	0.0	None	1.7855e-06	12
2014-02-10 19:24:00	471.1557886374463	3768598822.9667	3.2466428031956748e+22	10939387874532.406	33.26799218420487	3380925589986.8687	6.58759416455097e+21	-2.711559756711534e+24	2170.540181943267	-0.5417846243993644	25.695522714318344	9.287046080085236	33.79993734457741	130.72894110279535	129.3741029527495	58.025793231442464	0.0029537416482469034	-1.3456472824523457e+23	0.5862708861624336	0.0114512518941714	-1.260386821710487e+24	0.02688677635419814	0.2518322523072353	2.8650158981537515	36.839424	12.155672	-16.848078	16.115323999999998	-6.531751	32.705143	66560.0	11971.0	False	0.0	None	0.0	None	0.0	None	0.0	None	0.0	None	0.0	None	0.0	None	0.0	None	1.6049e-06	12
2014-02-10 19:36:00	455.1717269360671	3721145230.988401	3.1831921755921637e+22	10559851786246.562	29.41884463232831	3303648255924.2285	6.487695865641191e+21	-2.67694707875842e+24	2162.293511719245	-0.5416897892864002	25.855696011260747	8.71447902571042	33.662712411617065	129.43575727043964	127.4817571068805	57.71974103672633	0.002653932758892947	-1.431980761887344e+23	0.582068557113552	0.01025609398579892	-1.2577513317934035e+24	0.028976641463106637	0.2545104680253347	2.8613330976341333	36.841873	12.045321	-16.843519	16.225363	-6.534408999999999	32.819645	0.0	11971.0	True	0.0	None	0.0	None	0.0	None	0.0	None	0.0	None	0.0	None	0.0	None	0.0	None	1.2224e-06	12
2014-02-10 19:48:00	437.6980029680136	3665877592.8174	3.215077688944156e+22	10011112291291.463	20.287194282142426	3381439407681.7485	6.255235078093e+21	-2.583033191486347e+24	2303.4362270776182	-0.5305660596801279	26.11241633987543	9.752616555661275	34.06134030897759	130.73197902320388	128.65291598624412	58.930438885338624	0.0019302753836481848	-1.4738957980772654e+23	0.6283670497516032	0.007231392691433439	-1.2557725749381414e+24	0.030274449764811917	0.2579410551654228	2.8854818489584475	36.844227	11.934979	-16.839785	16.34477	-6.536251	32.929779	0.0	11971.0	True	0.0	None	0.0	None	0.0	None	0.0	None	0.0	None	0.0	None	0.0	None	0.0	None	1.249e-06	12
2014-02-10 20:00:00	433.25442883242033	3660001009.7768	3.2003998304525844e+22	9903148288412.12	17.437658661632117	2956038485271.1816	6.278250129978477e+21	-2.5699860402016206e+24	2295.323448635957	-0.5287338917211428	25.68166343663232	8.648442708829412	33.710538673696576	131.61078787450015	129.4499650602581	59.143696332439525	0.00166088757611507	-1.495608410928855e+23	0.5498885745792805	0.006233113982489082	-1.2604102270012397e+24	0.03076977241243105	0.2593094258345513	2.789484953537749	36.846699	11.824651	-16.836129999999994	16.466919	-6.547647	33.039134999999995	0.0	11971.0	True	0.0	None	0.0	None	0.0	None	0.0	None	0.0	None	0.0	None	0.0	None	0.0	None	1.5609e-06	12
2014-02-10 20:12:00	435.88430947082696	3598541504.4297	3.0999232571537814e+22	9879085737732.402	19.496936199204953	3163264043084.3413	6.184608845020536e+21	-2.5418574545694555e+24	2284.625676603869	-0.5318781877904255	25.23099003558569	7.536458843104628	33.111093778875734	132.60336572050906	129.77898202538623	60.144217173177346	0.001908283860155129	-1.476334384816641e+23	0.6046746541955709	0.007073683396267452	-1.2530129248496893e+24	0.0308919784528976	0.2621902508926953	2.8990621363194293	36.849087	11.714337	-16.851612	16.570954999999998	-6.551636	33.147396	0.0	11971.0	True	0.0	None	0.0	None	0.0	None	0.0	None	0.0	None	0.0	None	0.0	None	0.0	None	1.9158e-06	12
2014-02-10 20:24:00	425.13956169375336	3588512540.1718	3.1187173127971133e+22	9597108344613.457	16.55486111982107	2784082706371.0767	6.121066202438981e+21	-2.5077231572772135e+24	2329.947144981839	-0.5262021586414182	25.376697364091825	7.6892548863974595	33.38843541196101	131.9920291875517	128.94056532282983	60.29976472019428	0.0016426732605498186	-1.2693295697967872e+23	0.5394746251232186	0.006046834866346895	-1.2674222960118226e+24	0.026634676866790098	0.2659465603834034	3.0271129132063264	36.851589	11.604039	-16.877579	16.692127	-6.5581460000000025	33.255856	0.0	11971.0	True	0.0	None	0.0	None	0.0	None	0.0	None	0.0	None	0.0	None	0.0	None	0.0	None	1.4997e-06	12
2014-02-10 20:36:00	424.53191687357423	3642968376.3945	3.21404410224985e+22	9598474550468.355	14.870645446481216	2784914264414.264	6.159066231493416e+21	-2.507080253956456e+24	2399.974209541693	-0.5182035872986861	25.33494332510913	7.417691392304643	33.55315678136732	131.99008315915884	129.19890864535068	60.538881450434005	0.0014746772557002394	-1.3373456128491433e+23	0.5393633124252316	0.005377425474176025	-1.2925180597839996e+24	0.02764240566064553	0.2671583784250248	2.6910020647070945	36.854008	11.493759	-16.900885	16.798191	-6.56451	33.367973	0.0	11971.0	True	0.0	None	0.0	None	0.0	None	0.0	None	0.0	None	0.0	None	0.0	None	0.0	None	1.2546e-06	12
2014-02-10 20:48:00	426.13324698578003	3631882492.3359	3.2204798402667173e+22	9540321526737.982	18.393462037564348	2860168408461.175	6.096815674497364e+21	-2.493989055639264e+24	2439.863102103614	-0.5170711650458365	25.473694681849647	8.059160881376396	33.57457439169657	133.34567573388736	130.3057354719951	61.408188144862784	0.0018506350777305915	-1.2128887676798716e+23	0.5620134272710409	0.006676605770598882	-1.2826769082226903e+24	0.025146453901117385	0.26593350191831394	2.689512198680506	36.856499	11.383498	-16.898676000000002	16.916515	-6.5745559999999985	33.475864	66560.0	11971.0	False	0.0	None	0.0	None	0.0	None	0.0	None	0.0	None	0.0	None	0.0	None	0.0	None	1.1458e-06	12
2014-02-10 21:00:00																																	False	0.0	None	0.0	None	0.0	None	0.0	None	0.0	None	0.0	None	0.0	None	0.0	None	1.1578e-06	12
2014-02-10 21:12:00	449.0020241377199	3717479643.8228	3.3153889512256426e+22	10080735320056.27	1.1378229646398297	1993293944765.5715	6.187161766011845e+21	-2.5108304190971165e+24	2477.1233006153843	-0.5085764841068542	25.774763155054632	8.235761063703116	34.132480654518474	135.18049077535542	132.46315902021234	62.709881240190214	-0.00011290166348877055	-1.2466515002003672e+23	0.3862634821153301	-0.0004057782434788444	-1.30869320499225e+24	0.025251312556043827	0.26507986517417825	2.887463002806853	36.861538	11.163039	-16.9189	17.137884	-6.588528	33.693668	0.0	11971.0	True	0.0	None	0.0	None	0.0	None	0.0	None	0.0	None	0.0	None	0.0	None	0.0	None	1.1526e-06	12
2014-02-10 21:24:00	449.9106314218712	3708183503.122	3.2656195990467664e+22	10023186445299.258	6.8628439405979655	2752867533915.51	6.187710786341832e+21	-2.509539960714658e+24	2444.3035256529747	-0.5095894393059733	25.519879798198208	8.220675944333996	33.90306245886345	134.87757975193446	132.6350863001658	62.26664563702635	0.0006821912465803147	-1.0718977388254942e+23	0.5344014329391493	0.0024519637907038853	-1.293576010488108e+24	0.021766051797233447	0.2626747069995133	2.767516833186705	36.864094	11.052844	-16.915705	17.2542	-6.5925509999999985	33.806152000000004	0.0	11971.0	True	0.0	None	0.0	None	0.0	None	0.0	None	0.0	None	0.0	None	0.0	None	0.0	None	1.2442e-06	12
2014-02-10 21:36:00	452.93694921356763	3706319084.5938005	3.2608763657499437e+22	10098375978190.44	0.36842126741818415	2436832313348.592	6.191860133087146e+21	-2.52903940502036e+24	2468.232248066645	-0.5138072830323265	25.196826835028272	7.2979493365500625	33.475545508271644	137.21443779500376	135.27761896240833	63.01074151997565	3.703470721935908e-05	-8.364278907152623e+22	0.4783690993444506	0.0001313291978698373	-1.2769960977784936e+24	0.016993121622690132	0.25943838365664723	2.8460904245861327	36.866673	10.942674	-16.932884	17.36035	-6.606964	33.914584999999995	0.0	11971.0	True	0.0	None	0.0	None	0.0	None	0.0	None	0.0	None	0.0	None	0.0	None	0.0	None	1.4468e-06	12
2014-02-10 21:48:00	468.0242258363805	3718959657.095	3.226883028182185e+22	10366102612451.88	8.207606691281535	2780135161762.0093	6.233447327857257e+21	-2.583780613962301e+24	2425.193076428265	-0.5231444733367543	25.416299059907022	7.865056392853577	33.209262885884115	136.29118545806944	135.0451577383263	61.57307516412293	0.000819204181183904	-5.4033010273812975e+22	0.5418851651468578	0.00289790381313837	-1.2531444480203475e+24	0.010940197689286382	0.2537272664450944	2.728379630433472	36.869278	10.832529	-16.931814000000006	17.462046	-6.611249000000001	34.025375	0.0	11971.0	True	0.0	None	0.0	None	0.0	None	0.0	None	0.0	None	0.0	None	0.0	None	0.0	None	1.4138e-06	12
2014-02-10 22:00:00	463.6899577693232	3660459205.5616	3.0761756875022274e+22	10118688281089.426	9.56774655527587	3829920014460.7886	6.094030082825285e+21	-2.5826508543111486e+24	2404.31832798206	-0.5312728235573485	24.918890206747022	7.286692962424746	33.06771560870711	137.47151486749163	136.34531714129557	62.72555097529628	0.0009931229557064427	-4.490398701644498e+22	0.7763199074468514	0.003413905632654609	-1.2147400198786005e+24	0.009237124689691073	0.2498821546751991	2.7316098944358123	36.87191	10.722411	-16.927927	17.581356	-6.626874000000001	34.135159	0.0	11971.0	True	0.0	None	0.0	None	0.0	None	0.0	None	0.0	None	0.0	None	0.0	None	0.0	None	1.2412e-06	12
2014-02-10 22:12:00	474.5630310887866	3680158590.771	3.12079412534762e+22	10428405144035.01	13.456774053261645	3741818194977.304	6.183821034388529e+21	-2.6016890327674365e+24	2372.216065887468	-0.5323243084986666	25.27588435034857	7.3793660407833634	33.11015556879782	135.69261589908572	135.07672461154317	61.363310054248885	0.0013584468052959464	-5.7427426507698215e+22	0.7376212286201274	0.004772585644133948	-1.2155202017925364e+24	0.01175006494609807	0.2487041851412575	2.7171934687143082	36.874569	10.612321	-16.944101	17.684944	-6.630042	34.247303	0.0	11971.0	True	0.0	None	0.0	None	0.0	None	0.0	None	0.0	None	0.0	None	0.0	None	0.0	None	1.1959e-06	12
2014-02-10 22:24:00	471.2226362030982	3648045381.5485	3.089823806658744e+22	10386825029046.434	21.05008175588535	3844770019914.6807	6.171695193026992e+21	-2.585769205844761e+24	2336.175207552789	-0.5337242736375247	25.25487472999648	7.621247113163973	32.962051590885395	133.23167653552622	133.82483934238206	59.50136564385016	0.002113674239972422	-2.9424853602405743e+22	0.7538667347201666	0.007524475964348862	-1.181603053212591e+24	0.006073534552247025	0.2438926992704055	2.535439212357783	36.87725800000001	10.50226	-16.941252	17.801823000000006	-6.646448	34.365612	0.0	11971.0	True	0.0	None	0.0	None	0.0	None	0.0	None	0.0	None	0.0	None	0.0	None	0.0	None	1.1113e-06	12
2014-02-10 22:36:00	467.11977292704216	3659209502.6208	3.0794802394017e+22	10486706260512.967	15.828184209086066	4000596534511.0254	6.212467667023232e+21	-2.578156286550749e+24	2277.137120876175	-0.5305294179539018	25.21828542744421	7.954433860355495	33.35535473394973	131.8596197241653	132.29532441570305	59.5535657332557	0.001554373387909856	-3.7464727737668353e+22	0.7671485553301939	0.0056523902039136535	-1.1667456792328472e+24	0.00770943961161423	0.2400913045235777	2.782309098763012	36.879982	10.392229	-16.938717	17.907019000000005	-6.651319	34.475414	0.0	11971.0	True	0.0	None	0.0	None	0.0	None	0.0	None	0.0	None	0.0	None	0.0	None	0.0	None	1.0670000000000001e-06	1
2014-02-10 22:48:00	480.2430748901252	3658908795.4562006	3.122592103403428e+22	10847983614044.06	18.251627601870933	4728628003605.418	6.237625673392414e+21	-2.5934564995157384e+24	2287.228919049725	-0.5337217174191727	25.215488813772588	8.190661478599221	33.092875119382434	131.1761029753967	131.56994032892229	58.67576666841706	0.0017756228817852845	-5.06929479241252e+22	0.8981781088139885	0.006505221138996496	-1.161158510453724e+24	0.010432381353670977	0.2389612143141671	2.9172622929983016	36.882729	10.282229	-16.93508	18.028242	-6.665062	34.585316	0.0	11971.0	True	0.0	None	0.0	None	0.0	None	0.0	None	0.0	None	0.0	None	0.0	None	0.0	None	-99999.0	0
2014-02-10 23:00:00	485.1685098826007	3664701333.2983	3.1638479034595903e+22	10936803743853.193	28.80016453362282	5221710322735.48	6.276347761546191e+21	-2.624519367481553e+24	2301.9969151423165	-0.5392606398306016	25.58425178609692	9.237607498309014	32.92571695277073	131.50323849433732	132.3525066026758	58.12632223221465	0.0027831624017803265	-7.080304648845744e+22	0.985200011727864	0.01021113984811696	-1.1654414376071508e+24	0.01454791937312299	0.2394635387782276	2.7582527330510573	36.885509000000006	10.172261	-16.931910000000002	18.132833	-6.6711	34.697243	0.0	11971.0	True	0.0	None	0.0	None	0.0	None	0.0	None	0.0	None	0.0	None	0.0	None	0.0	None	-99999.0	0
2014-02-10 23:12:00	476.0752627122499	3643964492.1761	3.0437422721036448e+22	10779754872765.266	37.35023698451248	6058796448991.099	6.336446946264784e+21	-2.6826456302926903e+24	2180.2686017975407	-0.5543405492760989	25.43386344980349	8.742389649923897	32.47053898483251	131.80395640745405	132.53096282090772	57.287234748970796	0.003553104735969604	-8.573514139968597e+22	1.1253824228609792	0.01318873202156436	-1.1642329204742786e+24	0.01771626667312766	0.2405765075093477	2.7520553482233354	36.888325	10.062324	-16.928581	18.251499	-6.685124000000001	34.815231	0.0	11971.0	True	0.0	None	0.0	None	0.0	None	0.0	None	0.0	None	0.0	None	0.0	None	0.0	None	-99999.0	0
2014-02-10 23:24:00	473.13614759175215	3594906510.2513	2.9399120340358667e+22	10726405338242.023	30.224050685555248	5312200016118.006	6.30132653489969e+21	-2.672618510093607e+24	2114.3414955005414	-0.5598050995382967	25.009891907260197	7.717287488061126	32.20435382495115	131.37528050916814	131.79635522824822	56.91107291483018	0.002886728814284169	-8.731218452126423e+22	0.9906394657363362	0.010780148120690768	-1.1702133621962936e+24	0.01828835876210426	0.2451122018467188	2.8142204769303003	36.891171	9.95242	-16.924545000000002	18.357534	-6.692402	34.924095	0.0	11971.0	True	0.0	None	0.0	None	0.0	None	0.0	None	0.0	None	0.0	None	0.0	None	0.0	None	-99999.0	0
2014-02-10 23:36:00	480.309707442182	3649261601.824	3.0164937473442405e+22	10953464236163.057	31.711286473878964	6015182934007.401	6.423539379102714e+21	-2.7296225090011047e+24	2107.0316762203092	-0.5632289758892787	25.37454356491882	8.710575139146568	32.284886343650406	132.24651487525907	132.24751017291652	56.87441869594276	0.0029416777805082533	-1.0998608421303191e+23	1.0894474866871824	0.011117733583357813	-1.1773930864800865e+24	0.02269447492065389	0.2429427146539652	2.9086281467361155	36.894047	9.842549	-16.930218	18.477751	-6.701431	35.033646000000005	0.0	11971.0	True	0.0	None	0.0	None	0.0	None	0.0	None	0.0	None	0.0	None	0.0	None	0.0	None	-99999.0	0
2014-02-10 23:48:00	471.23254716046205	3630607976.573301	3.02605139222155e+22	10679011173327.98	26.054001834941953	6225887990445.184	6.39124729487921e+21	-2.710339075264366e+24	2125.5385566864857	-0.5621235006189593	25.34647546130721	8.311567164179104	32.18256165460057	129.9102364163285	129.64644325941273	56.16264994604376	0.0024304106189311525	-1.050118225884859e+23	1.1338899618088516	0.009187761469165171	-1.1838410800774636e+24	0.0217794200949042	0.2455282802742178	2.8099901873090682	36.896961	9.732713	-16.93745	18.582829	-6.704362	35.145851	0.0	11971.0	True	0.0	None	0.0	None	0.0	None	0.0	None	0.0	None	0.0	None	0.0	None	0.0	None	-99999.0	0
2014-02-11 00:00:00	469.90080393437836	3642884757.2579	3.0347563117967265e+22	10831217615986.16	29.684575422617755	6597304268170.086	6.432669980666037e+21	-2.700856152412964e+24	2087.4509417801182	-0.5582691047628225	25.486567203527976	8.623367132547731	32.6961585470329	128.42700114215918	128.44671859000988	55.10705693718332	0.0027116630513033483	-1.1901748599245732e+23	1.1765860303322075	0.010458585341476716	-1.1861320793379764e+24	0.024601008571585564	0.24517443976824915	2.6919303955868417	36.89991	9.622909	-16.933718	18.705408	-6.719015	35.257912	0.0	11971.0	True	0.0	None	0.0	None	0.0	None	0.0	None	0.0	None	0.0	None	0.0	None	0.0	None	1.1261e-06	6
2014-02-11 00:12:00	459.180867841376	3642003685.203301	3.0234916450443e+22	10413102023086.2	24.651884689902662	6876277141541.746	6.435224343743228e+21	-2.7073071404308386e+24	2086.946558455693	-0.5597378105771206	25.102512201125602	8.039233660280503	32.33300819303449	129.40071404134454	129.36518977353182	54.94137070602689	0.002259774928032145	-1.2907081832695054e+23	1.2305752690563023	0.008679368789926456	-1.1877942063924128e+24	0.02668548986585521	0.24557735565846195	2.5673700861721493	36.902893	9.51314	-16.928379	18.810684	-6.723433999999999	35.370766	0.0	11971.0	True	0.0	None	0.0	None	0.0	None	0.0	None	0.0	None	0.0	None	0.0	None	0.0	None	1.3113999999999998e-06	5
2014-02-11 00:24:00	442.4413043312264	3620732661.1277	3.037805655143034e+22	10118374311513.33	30.415471830828643	5749350641191.895	6.372060980379232e+21	-2.6806320841125693e+24	2119.7553201149235	-0.5574785886568139	25.402441700310177	8.683161894171068	32.60814603038873	128.93104685534092	128.63347269368023	55.195419212387065	0.002818596221928333	-1.2830084843471418e+23	1.0401215623277382	0.010787132396626887	-1.1835733284505558e+24	0.02668213080518089	0.2461422410882237	2.6506280264274418	36.905903	9.403404	-16.923006	18.934229	-6.738371000000001	35.48587	0.0	11971.0	True	0.0	None	0.0	None	0.0	None	0.0	None	0.0	None	0.0	None	0.0	None	0.0	None	1.6244999999999999e-06	12
2014-02-11 00:36:00	443.8212708479312	3602949557.2628	3.0259478617114838e+22	10239448872722.613	30.84129591719293	5920369140822.176	6.388952300524088e+21	-2.66951308921229e+24	2099.2255343734837	-0.5579064080442195	25.054772951200697	7.693016399484061	32.24267301644442	128.44960173766862	127.880333354665	54.62718184858339	0.002841468206853964	-1.1818789353495248e+23	1.0648123987956846	0.01098912386123165	-1.1865799340535002e+24	0.02470030337099964	0.2479855040008348	2.8217818892767568	36.908951	9.293703	-16.918855999999998	19.039978	-6.742054	35.596375	0.0	11971.0	True	0.0	None	0.0	None	0.0	None	0.0	None	0.0	None	0.0	None	0.0	None	0.0	None	2.3443e-06	12
2014-02-11 00:48:00	452.3622091404502	3679951297.1292	3.1014420945269206e+22	10379682552965.326	24.40200855524085	5179443042553.15	6.60041664145225e+21	-2.7446763674745284e+24	2062.115502026967	-0.561612276488245	25.390095433982268	8.105960264900661	32.26397472889434	126.92129273975662	126.31543227258202	53.77612770564251	0.0021547027421846224	-1.2773997869298869e+23	0.8927830825175725	0.008492592488179587	-1.2050150490267044e+24	0.026137996115855384	0.2465686858043609	2.566435615712573	36.912037	9.184035	-16.913385	19.159874	-6.756782	35.708649	0.0	11971.0	True	0.0	None	0.0	None	0.0	None	0.0	None	0.0	None	0.0	None	0.0	None	0.0	None	2.1343e-06	12
2014-02-11 01:00:00	452.47266812516136	3685659759.8645	3.081432120433584e+22	10381416752511.85	30.137798085462475	5396367566412.834	6.645319955653231e+21	-2.741967277405457e+24	2020.9723517764223	-0.5601889145073461	25.10138559640648	7.847748453967425	32.41789896994814	125.28227763899271	124.59856906035156	53.16991486305706	0.002625015075817653	-1.1863153444909245e+23	0.917507577129902	0.010482118998492778	-1.2108297041408867e+24	0.024236638801999468	0.24737471639623604	2.658254742326505	36.915154	9.074403	-16.908873	19.265213	-6.762209	35.821648	0.0	11971.0	True	0.0	None	0.0	None	0.0	None	0.0	None	0.0	None	0.0	None	0.0	None	0.0	None	2.4543e-06	12
2014-02-11 01:12:00	446.19881534975724	3652515078.979	3.035210879848997e+22	10088155897061.36	19.71459678536325	5713500592138.058	6.553652969332663e+21	-2.731017527654292e+24	2046.8157239891723	-0.563015002803832	24.81315848092748	7.71090811391725	32.09607772726295	126.06910173766173	125.09427681111521	53.2404664191603	0.001765591687745231	-1.183145890251038e+23	0.9988015401382782	0.006906574971827706	-1.1974233346407484e+24	0.0243912344015301	0.24685572146041346	2.812443956853385	36.918251	8.964803	-16.922537	19.358784	-6.776398	35.953129	0.0	11971.0	True	0.0	None	0.0	None	0.0	None	0.0	None	0.0	None	0.0	None	0.0	None	0.0	None	2.3513e-06	12
2014-02-11 01:24:00	457.42899162341865	3710286295.4363	3.1068265631504927e+22	10351640407261.533	20.44796438234804	5369265236604.75	6.667014787613037e+21	-2.7624246912292544e+24	2056.977310963275	-0.5606225413586043	24.875461672899746	7.887101028752308	32.135445141664576	125.884857543219	124.94789398242943	53.2930252196302	0.001797939363611012	-1.325942500787304e+23	0.9215120371521899	0.007062765354150597	-1.2227556046126693e+24	0.026909448675539314	0.24815313760223745	2.621576973964049	36.921486	8.855236	-16.918678	19.458065	-6.78049	36.048748	0.0	11971.0	True	0.0	None	0.0	None	0.0	None	0.0	None	0.0	None	0.0	None	0.0	None	0.0	None	1.7323e-06	12
2014-02-11 01:36:00	463.0546609656737	3742927631.0316	3.177443658367252e+22	10604835464082.094	33.65431297952596	5988650821495.986	6.747203739520854e+21	-2.7720280126399447e+24	2068.80523036898	-0.5576652316264828	24.99123290930553	7.462170341547773	31.965783052331357	125.38851729052956	124.222469143217	53.50938115539618	0.002910014092479547	-1.3150476204738207e+23	1.0107202619459388	0.011544766901391841	-1.2378691341694976e+24	0.02645558892361176	0.2490294377553865	2.612812433290334	36.924652	8.745703	-16.912388	19.55512	-6.794333999999999	36.160782	0.0	11971.0	True	0.0	None	0.0	None	0.0	None	0.0	None	0.0	None	0.0	None	0.0	None	0.0	None	1.2919e-06	12
2014-02-11 01:48:00	457.4404719983153	3754513160.7358	3.1892099784647285e+22	10441027896488.896	23.886920613166147	5624198093821.477	6.725005395491308e+21	-2.7783383758671385e+24	2092.93494882528	-0.5572100848696466	24.932064919476627	7.948405089768173	31.936693961508865	126.360967635856	125.54018334367541	53.82500666052038	0.002081830278295812	-1.1557366708097698e+23	0.9567093601320836	0.0081712655268829	-1.2225864387994944e+24	0.023178894767556225	0.245196013286656	2.621368929212312	36.927948	8.636202	-16.90687	19.651619	-6.798933	36.272419	0.0	11971.0	True	0.0	None	0.0	None	0.0	None	0.0	None	0.0	None	0.0	None	0.0	None	0.0	None	1.1862e-06	12
2014-02-11 02:00:00	474.42562367041137	3840179480.7716	3.2830946132427532e+22	10822912317076.77	20.287789855729944	5950135640102.496	6.870388354631642e+21	-2.8383207189809506e+24	2084.776054978177	-0.5565413055042868	25.587712895234	9.023444088379154	32.57698188283644	125.04193754941532	124.56954620128599	53.391701030450754	0.0017108947424295784	-1.2313577032323582e+23	0.9793462571937304	0.006788167666119688	-1.2406162061061044e+24	0.024144608434023	0.24326150260565416	2.281783624411761	36.931183	8.526732	-16.901184	19.751627	-6.813232000000001	36.385265	0.0	11971.0	True	0.0	None	0.0	None	0.0	None	0.0	None	0.0	None	0.0	None	0.0	None	0.0	None	1.1865e-06	12
2014-02-11 02:12:00	481.0105737375357	3849589564.821301	3.2894932812501912e+22	10916245169696.158	25.117085649348645	5587437295703.252	6.843879914615916e+21	-2.824798123258362e+24	2103.384688704568	-0.5525358851943578	25.385683731785306	8.670176630434783	33.00972183499475	125.73813351963308	125.49286073040544	53.58044643431428	0.002132904691690612	-1.1143115535239192e+23	0.9260243554658778	0.008405105452589764	-1.2431719927964034e+24	0.021796145910010785	0.2431668060924188	2.295296901605393	36.934544	8.417292999999999	-16.895267	19.872288	-6.817063	36.496311	0.0	11971.0	True	0.0	None	0.0	None	0.0	None	0.0	None	0.0	None	0.0	None	0.0	None	0.0	None	1.0907e-06	12
2014-02-11 02:24:00	480.3044817293024	3841537836.129	3.3133285484941267e+22	11044108927490.262	20.54228159202997	5301278240640.088	6.878980404517727e+21	-2.826236268442352e+24	2099.9016711243107	-0.553975812126021	25.549972650128264	8.736638330106894	32.71763563956643	124.84688268899343	123.90862420631024	53.11527645992786	0.001729439433577199	-1.0418975043012407e+23	0.8708068642987348	0.0068832968425289395	-1.274079430277242e+24	0.02042242619777376	0.2497346718609241	2.637954681255491	36.937836	8.307884	-16.889416	19.972275	-6.82154	36.609257	0.0	11971.0	True	0.0	None	0.0	None	0.0	None	0.0	None	0.0	None	0.0	None	0.0	None	0.0	None	1.0116e-06	12
2014-02-11 02:36:00	480.2150849145676	3861716710.3908	3.3038353019477678e+22	11008552644737.098	21.01142342251556	6168135862345.89	6.91397828944207e+21	-2.855523284156147e+24	2099.362973154493	-0.5567917459499007	25.30711836768007	8.19409282700422	32.69727572427515	124.61090715133801	124.16546879419316	53.12803750490325	0.0017732655432961054	-1.0292734358621645e+23	1.015819943555105	0.00699019456807688	-1.272520361845886e+24	0.0200695598103976	0.2481257421223766	2.6740111556181323	36.941254	8.198505	-16.884159	20.072079	-6.8297740000000005	36.72208	0.0	11971.0	True	0.0	None	0.0	None	0.0	None	0.0	None	0.0	None	0.0	None	0.0	None	0.0	None	1.2161e-06	12
2014-02-11 02:48:00	472.8103197715188	3832709877.9816	3.288570714441676e+22	10973197519276.68	15.286082714661891	5531341512346.025	6.819328846826792e+21	-2.8269950945225056e+24	2106.3721032609865	-0.5554009210986826	25.830326037499646	9.110241578768287	33.229382561397635	123.696445063738	123.00686628804493	52.833431741834794	0.0013002792373819233	-1.049850973051506e+23	0.9182037738687799	0.005128352902981715	-1.265871381760883e+24	0.02062572370850333	0.2486973298201665	2.7186714001752565	36.944603	8.089153999999999	-16.878128	20.197857	-6.830075999999999	36.836422	0.0	11971.0	True	0.0	None	0.0	None	0.0	None	0.0	None	0.0	None	0.0	None	0.0	None	0.0	None	1.7456e-06	12
2014-02-11 03:00:00	484.0884273291233	3903656696.9943	3.3372779973730676e+22	11138625126149.25	19.004774238318	5573061409308.988	6.941907101192794e+21	-2.9011760677499926e+24	2101.9883811829404	-0.5596158100933767	25.97296524677452	9.519029694688415	33.1974231363798	122.98405053169719	122.72597593381741	52.51602751978237	0.0015896925335272276	-9.46183992444516e+22	0.9097030835312042	0.006243145613244721	-1.260830773230386e+24	0.01825120258350527	0.24320510650675345	2.7254902737632363	36.948032	7.9798300000000015	-16.871904	20.298977	-6.828179	36.950825	0.0	11971.0	True	0.0	None	0.0	None	0.0	None	0.0	None	0.0	None	0.0	None	0.0	None	0.0	None	1.559e-06	12
2014-02-11 03:12:00	484.58327378489525	3967345990.6409	3.4273761779497755e+22	11189499296631.06	5.093187678407656	4206589707164.259	6.983891882294896e+21	-2.9458002775168727e+24	2156.0317150221967	-0.5591016108743195	26.57093869758575	10.78529657477026	33.50307997780892	123.62623456607187	123.8358950011108	52.32457042199115	0.00042553159649157455	-1.0534660500345217e+23	0.6857706311161909	0.001647009247393177	-1.2599494929188747e+24	0.019994382174211532	0.239133588413205	2.729826812131696	36.951485	7.870533	-16.864555	20.401011	-6.840271	37.063347	0.0	11971.0	True	0.0	None	0.0	None	0.0	None	0.0	None	0.0	None	0.0	None	0.0	None	0.0	None	2.6181e-06	12
2014-02-11 03:24:00	494.3575323787818	3996926389.5624	3.4952983234277945e+22	11344938557617.373	13.532718115408626	4682717594129.021	6.980278333780737e+21	-2.9468447941750887e+24	2210.207145194102	-0.5551606411711121	26.71656065900353	10.707087672153175	33.57939799020479	125.61685174705143	125.67549391239108	53.624985527891795	0.0011364392102291422	-1.1501786515573746e+23	0.7673433785341437	0.004354252650568464	-1.270706055065054e+24	0.02166839322254371	0.2393902758857056	2.669118890208536	36.95496	7.761260000000001	-16.858978	20.511482	-6.841125	37.171696	0.0	11971.0	True	0.0	None	0.0	None	0.0	None	0.0	None	0.0	None	0.0	None	0.0	None	0.0	None	1.6464e-05	12
2014-02-11 03:36:00	479.3957106244426	3963676873.7024	3.4904049266033783e+22	11092229676291.074	18.4810759113544	4761015040414.67	6.881392703384064e+21	-2.881254248887286e+24	2233.9392137629893	-0.5473571689608655	26.681644860734693	10.650233744156397	33.954563461735816	124.05350341556841	124.23676381803033	53.40889239654953	0.0015708521811605956	-9.25989562824869e+22	0.7896345188471371	0.006026545397905207	-1.279813067424301e+24	0.01759119403609971	0.2431284422938445	2.6217213598429288	36.958462	7.652011	-16.85335	20.62553	-6.839855	37.285103	0.0	11971.0	True	0.0	None	0.0	None	0.0	None	0.0	None	0.0	None	0.0	None	0.0	None	0.0	None	1.7728e-05	12
