Timestamp	TOTUSJH	TOTBSQ	TOTPOT	TOTUSJZ	ABSNJZH	SAVNCPP	USFLUX	TOTFZ	MEANPOT	EPSZ	MEANSHR	SHRGT45	MEANGAM	MEANGBT	MEANGBZ	MEANGBH	MEANJZH	TOTFY	MEANJZD	MEANALP	TOTFX	EPSY	EPSX	R_VALUE	CRVAL1	CRLN_OBS	LAT_MIN	LON_MIN	LAT_MAX	LON_MAX	QUALITY	NOAA_AR	IS_TMFI	BFLARE	BFLARE_label	CFLARE	CFLARE_label	MFLARE	MFLARE_label	XFLARE	XFLARE_label	BFLARE_loc	BFLARE_label_loc	CFLARE_loc	CFLARE_label_loc	MFLARE_loc	MFLARE_label_loc	XFLARE_loc	XFLARE_label_loc	XR_MAX	XR_QUAL
2014-03-07 18:48:00	51.90383695445497	443244048.7074	3.4262327742294304e+21	1318418887237.493	5.366381136153031	358223875862.98096	1.0184140863259683e+21	-3.8033095045533826e+23	1377.4207055388965	-0.6461097204940741	23.048781207754413	1.9220501868659905	27.405100978283162	110.74617995023785	109.75814909331578	39.73041158372899	0.002865126073760295	1.2501951933398935e+21	0.36935586517728936	0.014709903283837663	-1.8715950640302426e+23	-0.0021238431054974795	0.31794829273056224	0.0	77.076996	43.222549	-13.84849	28.020483	-10.556736	40.853947	4096.0		True	0.0	None	0.0	None	0.0	None	0.0	None	0.0	None	0.0	None	0.0	None	0.0	None	2.0831e-06	12
2014-03-07 19:00:00	53.22455386728046	436555776.01400006	3.315586855252794e+21	1350578177720.875	4.260733045229841	306206941304.886	9.923236869555124e+20	-3.798377416236015e+23	1405.7395711628399	-0.6551576235922435	22.41069070033892	2.5900900900900896	26.68062124360156	113.64077974853669	112.78446336666187	39.24607187907047	0.0023990613993411266	-1.863281951334381e+21	0.13279469505457495	0.011793296643729086	-1.8216622672876254e+23	0.003213854868925169	0.3142067760097649	0.0	77.079109	43.112209	-13.84222	28.147596000000004	-10.553921	40.962608	0.0		True	0.0	None	0.0	None	0.0	None	0.0	None	0.0	None	0.0	None	0.0	None	0.0	None	2.0948e-06	12
2014-03-07 19:12:00	50.38278471035885	428389490.6841	3.1800633528320744e+21	1227446899807.465	3.4759114826190523	168885657678.63184	9.528374339529277e+20	-3.72414225047864e+23	1447.7304881642135	-0.6545983507916808	22.09043269696712	1.3301088270858523	26.671274572326396	114.39251717299246	113.41135677519935	40.31349314031333	0.00210151842963667	-2.585998918371771e+21	0.19718898998480028	0.009807703061141874	-1.780107407143234e+23	0.004545451041505378	0.3128922835313966	0.0	77.08126800000002	43.001869	-13.836182	28.258245	-10.571902	41.053097	0.0		True	0.0	None	0.0	None	0.0	None	0.0	None	0.0	None	0.0	None	0.0	None	0.0	None	1.9137e-06	12
2014-03-07 19:24:00	49.418629773876496	431424905.1937	3.1759701478610504e+21	1183097800245.4146	2.9196149371485816	485172990872.4518	9.450501992699741e+20	-3.707394511405136e+23	1469.8611459882725	-0.6470696668602445	22.096424266263103	1.2292562999385372	27.019669305544497	114.43066076816751	113.70854759633076	41.16312501562105	0.0017944775274422755	-2.739780323448721e+21	0.5758800719557887	0.008217474992546228	-1.7835141840869302e+23	0.004781872378864526	0.3112854392451081	0.0	77.083382	42.891533	-13.831628	28.38879600000001	-10.576987	41.161716	0.0		True	0.0	None	0.0	None	0.0	None	0.0	None	0.0	None	0.0	None	0.0	None	0.0	None	1.4356999999999999e-06	12
2014-03-07 19:36:00	53.7979462245579	445045213.4979	3.1417007578786337e+21	1244485846979.0806	3.5106849730659246	426459792508.55066	9.490315490860838e+20	-3.82550125203911e+23	1482.2427741635315	-0.6472493545199296	21.503154257597018	0.9398496240601504	26.875551619485183	121.69414262921144	120.52026746437963	44.158821089427526	0.0021996773014197526	9.489983154395264e+20	0.5160182565244027	0.00957763705577287	-1.821492949172846e+23	-0.0016056419973234251	0.308184485624284	0.0	77.085548	42.781197	-13.826332999999998	28.503393	-10.586418	41.252575	0.0		True	0.0	None	0.0	None	0.0	None	0.0	None	0.0	None	0.0	None	0.0	None	0.0	None	1.1774e-06	12
2014-03-07 19:48:00	54.31598648775866	462512140.3479	3.430116358241518e+21	1271517909004.0962	0.40993679677986944	367329046800.5824	9.612208959639544e+20	-3.924651831004444e+23	1633.6703456381626	-0.6389478914032612	22.187913542131334	1.2017710309930425	27.18890862328478	127.11821448667277	126.22706246608469	46.64089784636271	0.00025928956153059416	-2.53990438100928e+21	0.4486829202890431	0.0010815799208542406	-1.896054713194996e+23	0.004135058645944757	0.3086847478827444	0.0	77.087723	42.670868	-13.818972	28.640188	-10.58872	41.340385	0.0		True	0.0	None	0.0	None	0.0	None	0.0	None	0.0	None	0.0	None	0.0	None	0.0	None	9.7442e-07	12
2014-03-07 20:00:00	56.15249037992031	457204239.6946	3.2501458619521234e+21	1272732510680.0054	0.4136354965744437	474467611208.4252	9.3214760952182e+20	-3.833940253937511e+23	1618.5963028238934	-0.63142616626092	21.511633191945048	0.5952380952380952	27.499614488987323	129.27306783566917	127.96974676080092	48.59404290004389	0.0002735684501153728	1.5983578935224964e+21	0.605991497806719	0.0011090985159488182	-1.8802653176759056e+23	-0.00263239625600133	0.3096680288312126	0.0	77.089844	42.560543	-13.812435999999998	28.755295	-10.596773	41.449928	0.0		True	0.0	None	0.0	None	0.0	None	0.0	None	0.0	None	0.0	None	0.0	None	0.0	None	8.5719e-07	12
2014-03-07 20:12:00	56.883203799472895	445152009.7114	3.167528325928891e+21	1293630577191.5977	2.226152027824911	504236938324.1373	9.070945075861827e+20	-3.750088306779699e+23	1623.6266914291375	-0.634337851500367	21.66454095680824	0.5445881552076242	27.219238091927465	129.7500264061584	128.78302637786908	48.43141614346246	0.0015154200325561	5.779024458653052e+21	0.6628564916849858	0.006119763483302591	-1.822161150622674e+23	-0.009775380361690776	0.3082236189701881	0.0	77.092026	42.45023	-13.807318	28.8895	-10.595253	41.540188	0.0		True	0.0	None	0.0	None	0.0	None	0.0	None	0.0	None	0.0	None	0.0	None	0.0	None	7.6058e-07	12
2014-03-07 20:24:00	55.21719683167056	440315007.429	3.180005406567973e+21	1258664996378.7583	2.6729921706210105	230765372741.3427	8.973949076546045e+20	-3.73731718153084e+23	1672.138681358473	-0.6391222286984566	21.557126338629175	1.2569832402234635	26.712839277451444	129.7987009416997	129.35959523826978	47.8522780248445	0.0018666146442884149	7.984614077721928e+21	0.17933107513469898	0.007407179249497273	-1.800999346200373e+23	-0.013654565820288272	0.3079906414463225	0.0	77.09416999999998	42.33992	-13.800719	29.009579	-10.595315	41.640091	0.0		True	0.0	None	0.0	None	0.0	None	0.0	None	0.0	None	0.0	None	0.0	None	0.0	None	7.0205e-07	12
2014-03-07 20:36:00	54.62258371308203	434107839.7349	3.3002642401169454e+21	1261377828656.9692	3.4840381290123603	159787852957.67676	8.925773144050806e+20	-3.603119632492928e+23	1706.7694708000986	-0.6249835409988981	22.465550308586455	2.1978021978021984	27.579517991384698	124.28845301889132	123.98113975074831	46.89719493668456	0.002392883330365632	1.5832272982436429e+22	0.1972637772271081	0.009877938078830265	-1.77033118800328e+23	-0.0274620635445796	0.3070749704343178	0.0	77.096375	42.229622	-13.789143	29.138353	-10.598138	41.749146	0.0		True	0.0	None	0.0	None	0.0	None	0.0	None	0.0	None	0.0	None	0.0	None	0.0	None	7.6917e-07	12
2014-03-07 20:48:00	52.45704578757102	419228963.2937	3.1926195046205683e+21	1207499318740.8096	0.9516863547582556	386406617099.6017	8.65917870273137e+20	-3.5117760454341145e+23	1709.8152807066785	-0.6307581709750486	22.45219605864308	1.7069701280227598	27.27269978449146	123.13473143374694	123.09129119778058	46.58949374833393	0.0006768750745080055	1.3304768626101508e+22	0.5306970184036507	0.002784088239212381	-1.7035636101464827e+23	-0.023897000877254392	0.3059809774238651	0.0	77.098587	42.119335	-13.773243	29.273342	-10.6019	41.864128	0.0		True	0.0	None	0.0	None	0.0	None	0.0	None	0.0	None	0.0	None	0.0	None	0.0	None	6.8297e-07	12
2014-03-07 21:00:00	51.91049479294382	412251581.43490016	3.155331965807084e+21	1233665769774.9507	2.7996934321060767	278773648004.0235	8.742892830829357e+20	-3.461535060573285e+23	1631.8158398861167	-0.6322573208754566	22.79976691469444	1.9917582417582416	27.17291574835793	118.54791141416766	119.07870872969895	44.392645966190436	0.001922866368204723	1.99716321117012e+22	0.36807096441500187	0.00832126817783824	-1.6418803086715586e+23	-0.03647864427628583	0.29989320546905657	1.9912121642226872	77.100815	42.009064	-13.763679000000002	29.389484000000003	-10.601498	41.969074	0.0		True	0.0	None	0.0	None	0.0	None	0.0	None	0.0	None	0.0	None	0.0	None	0.0	None	6.8031e-07	12
2014-03-07 21:12:00	57.45190626405001	416240589.66060007	3.3225047654033455e+21	1380141571256.6921	9.274671411418325	794473760317.7883	8.894168369820721e+20	-3.4836876563156e+23	1665.6474454710242	-0.6302054938286814	23.507498045432033	2.862849533954727	27.38876664734569	119.1000691220728	119.93427523623104	44.873024180186654	0.006174881099479578	1.8504496280331184e+22	1.0213656604237602	0.027336426853099588	-1.654175050667496e+23	-0.03347497355354365	0.2992433040875787	2.2523671347143885	77.103004	41.898804	-13.753328	29.526098	-10.607807	42.078739	0.0		True	0.0	None	0.0	None	0.0	None	0.0	None	0.0	None	0.0	None	0.0	None	0.0	None	6.546899999999999e-07	12
2014-03-07 21:24:00	56.34519827643979	410016206.55920017	3.258801506864356e+21	1330508643042.1729	5.389343303437233	505137066989.3228	8.732387575170573e+20	-3.427746927368708e+23	1644.6614614020239	-0.6294991638091105	23.561698728856225	2.8820375335120643	27.832953978330718	119.65202546652864	119.64423399407544	45.65615771338569	0.003612160391043722	1.7953116763856375e+22	0.6537373093431209	0.01613283454098884	-1.6203146172289414e+23	-0.03297055538254228	0.29756767878901874	2.2468396454345534	77.105255	41.788559	-13.73913	29.643421000000004	-10.607555	42.195972	0.0		True	0.0	None	0.0	None	0.0	None	0.0	None	0.0	None	0.0	None	0.0	None	0.0	None	6.352000000000001e-07	12
2014-03-07 21:36:00	53.23502805687953	398923169.47520006	3.090823202315221e+21	1296230561856.5396	3.515071372857627	641759750574.6237	8.655620092486576e+20	-3.372165342378077e+23	1544.3594244079654	-0.6365126965371348	23.33927745915659	3.1851360318513606	27.700610996843036	115.63697806645737	115.71108007937536	43.365499266249174	0.002332495934212095	1.3931276311467676e+22	0.8222668103902075	0.010768507217043944	-1.562289651344966e+23	-0.02629596520603233	0.2948898104884662	0.0	77.107483	41.678333	-13.729288	29.781391	-10.607005	42.303246	0.0		True	0.0	None	0.0	None	0.0	None	0.0	None	0.0	None	0.0	None	0.0	None	0.0	None	6.2217e-07	5
2014-03-07 21:48:00	51.41424622174137	385010322.2146	2.9857471065731204e+21	1279503954433.9756	5.114275446062765	541570658859.1774	8.593579983053136e+20	-3.2428467211315315e+23	1457.9953902694854	-0.6342223649653109	23.225695360138683	2.8534370946822314	28.063026000115727	112.1153232668721	112.09716456837498	41.57858463016871	0.003316650743231365	9.528533723748971e+21	0.6781322898951924	0.016256632475032336	-1.5319674401879556e+23	-0.018635506740260384	0.29961576864997	0.0	77.10977199999998	41.568123	-13.705382	29.921665	-10.615415	42.412975	0.0		True	0.0	None	0.0	None	0.0	None	0.0	None	0.0	None	0.0	None	0.0	None	0.0	None	6.2562e-07	12
2014-03-07 22:00:00	52.12958026246251	401687860.0222	3.128985581852377e+21	1322727296543.0427	6.408903433683144	914744666724.1376	9.140235594603152e+20	-3.405017402294474e+23	1399.1003730703344	-0.6382899801458525	23.51881123008084	2.553444180522565	28.08294683193391	110.31514096539092	110.32008453472822	40.571789474189316	0.003805762134016119	5.692660585372232e+21	1.0487958121911745	0.01947754614625024	-1.6192512576144657e+23	-0.01067121774345657	0.30353790626075045	2.3411636854482394	77.112091	41.457935	-13.684494	30.06222	-10.612551	42.524265	0.0		True	0.0	None	0.0	None	0.0	None	0.0	None	0.0	None	0.0	None	0.0	None	0.0	None	6.0773e-07	12
2014-03-07 22:12:00	48.84531685562702	412373534.3684	3.202717691081351e+21	1244665437539.6594	2.618300088228953	815982326884.8848	9.345855443153672e+20	-3.571651368072946e+23	1445.8061542153562	-0.6521773804104941	23.086732989757923	3.0575539568345325	27.11455815960044	114.21373978997947	114.29333270512579	40.59432640989608	0.001569724273518557	6.316498574863793e+21	0.94451095174159	0.007686027941938822	-1.6529523816332878e+23	-0.011533817468147562	0.3018262543296661	2.340627477619212	77.114365	41.347763	-13.663239	30.199728000000004	-10.613955	42.62413	0.0		True	0.0	None	0.0	None	0.0	None	0.0	None	0.0	None	0.0	None	0.0	None	0.0	None	6.114099999999999e-07	12
2014-03-07 22:24:00	46.275197169704676	408321987.43850017	3.18598150669798e+21	1192684314344.4429	5.316467324606424	735448597239.5107	9.289151420830328e+20	-3.510465298325476e+23	1427.977636966421	-0.6473652081302943	23.367417843313	3.1547619047619047	27.52102765002973	109.87722072670687	110.02326854889117	38.805915978648976	0.0031645638836943	6.156157652663866e+21	0.8451891864669879	0.015807401654664592	-1.6713874176394438e+23	-0.011352575631500087	0.3082206976957261	2.3076144945990733	77.116714	41.237614	-13.628656	30.338606	-10.610664	42.74366	0.0		True	0.0	None	0.0	None	0.0	None	0.0	None	0.0	None	0.0	None	0.0	None	0.0	None	6.0511e-07	12
2014-03-07 22:36:00	44.73489057228218	400155942.9545	3.02316147425618e+21	1176837848317.349	4.580214864167598	688562495736.2834	9.242047634927304e+20	-3.478740828735335e+23	1339.8477231677384	-0.6546064498266982	23.09673655531155	2.64861683343143	27.451030171631945	106.11952707936877	105.94756726157031	37.76815024809518	0.0026958298199927003	6.4051357159955e+21	0.7824364760530129	0.013835404575878806	-1.642774158940326e+23	-0.01205276092163	0.3091263802028932	2.423702008587311	77.11904100000002	41.127491	-13.617047	30.479763	-10.621114	42.849876	0.0		True	0.0	None	0.0	None	0.0	None	0.0	None	0.0	None	0.0	None	0.0	None	0.0	None	5.9332e-07	12
2014-03-07 22:48:00	46.75678351192372	402449453.6185	3.145125707048316e+21	1188855159329.5571	5.064087417636745	813960293001.6024	9.3118523249119e+20	-3.5462644562091166e+23	1413.8741255804289	-0.6635097772751084	23.129384084003657	2.388059701492537	26.52145581240952	105.96207597664889	106.4455120621426	37.42713027670229	0.00302333577172343	5.713493711833796e+21	0.9381566081472618	0.015128451933863194	-1.652253828873522e+23	-0.010690006306675812	0.3091384141073684	2.2922561027913546	77.121437	41.017387	-13.583267	30.624176	-10.615433	42.960049	0.0		True	0.0	None	0.0	None	0.0	None	0.0	None	0.0	None	0.0	None	0.0	None	0.0	None	5.878100000000001e-07	12
2014-03-07 23:00:00	43.99334959119873	389843380.3195	2.969389737549284e+21	1141422402723.1782	6.006470152013142	572299323192.7576	9.147740937751576e+20	-3.418997777426087e+23	1318.3443769378387	-0.6603834338597913	23.05248456374049	2.181603773584905	27.119588532409395	103.46513218434806	103.60760561968591	36.850117467955705	0.00354155079717756	5.917571912026575e+21	0.6514358495662735	0.01855883724463609	-1.5984111046610176e+23	-0.011429859607332973	0.3087349810476689	2.274352065097339	77.123856	40.907307	-13.568983	30.770016	-10.615535	43.072617	0.0		True	0.0	None	0.0	None	0.0	None	0.0	None	0.0	None	0.0	None	0.0	None	0.0	None	5.905e-07	11
2014-03-07 23:12:00	40.325065689554265	369364938.7078	2.686730806681844e+21	1071099045093.1602	7.087392631619606	586640876242.8511	8.663269686559538e+20	-3.267290837971582e+23	1263.6310186938538	-0.6660695523140205	22.683535645663966	2.3735165521549035	26.713383171194987	101.9586684709236	101.79917740296005	35.685648871074186	0.004426853611255219	6.491397097505527e+21	0.5415360098364509	0.023033911415997702	-1.5061022338146074e+23	-0.013233355011983923	0.3070338363997112	0.0	77.126305	40.79725300000001	-13.561885	30.916153	-10.622291	43.173233	0.0		True	0.0	None	0.0	None	0.0	None	0.0	None	0.0	None	0.0	None	0.0	None	0.0	None	5.865400000000001e-07	12
2014-03-07 23:24:00	40.24629969813324	373768379.0456	2.715101953763948e+21	1051240572685.4236	4.658839548882527	461214332884.7368	8.848404432763465e+20	-3.310202629371252e+23	1242.8182816507301	-0.6668672893337263	22.65203108525673	1.884498480243161	26.515686120014237	102.69186806797107	102.18949102261341	34.84841837559805	0.002833844007836086	9.520699050103975e+21	0.5412335864280874	0.014961102010144231	-1.5267240143882126e+23	-0.019180223928802125	0.3075709915767775	0.0	77.128723	40.687222	-13.554483	31.061897	-10.618829	43.29121	0.0		True	0.0	None	0.0	None	0.0	None	0.0	None	0.0	None	0.0	None	0.0	None	0.0	None	6.112300000000001e-07	12
2014-03-07 23:36:00	40.87787047322725	371756641.3942	2.689335996295478e+21	1064149803680.0931	4.894270416543094	283079209452.5118	8.882797547994485e+20	-3.30752835768497e+23	1223.5863894770914	-0.6699346044992691	22.358396461356893	1.2084592145015105	26.3009968862772	102.08417801772184	101.14006083698422	36.06553473406604	0.002957263091566824	9.026661307206554e+21	0.2944371093078568	0.015767388068685422	-1.4967460496145885e+23	-0.018283358807012408	0.30316353008874136	0.0	77.13121	40.577213	-13.544596	31.225649	-10.61872	43.40192	0.0		True	0.0	None	0.0	None	0.0	None	0.0	None	0.0	None	0.0	None	0.0	None	0.0	None	8.5085e-07	12
2014-03-07 23:48:00	39.411860975942936	363442411.9338	2.713377523815248e+21	1020459211146.3593	4.819387124463626	387989113281.0457	8.696997689937587e+20	-3.201078060329424e+23	1250.3905684569186	-0.6632055883607338	22.74341880986263	2.5091799265605874	26.627850706323482	99.21798832528715	98.41893632318272	34.61304866100844	0.002949441324641143	1.2023850019541853e+22	0.4583402278665209	0.01594557803370979	-1.4900566277683684e+23	-0.024911246699653552	0.30871283482797485	0.0	77.13369	40.467239	-13.537363	31.373854	-10.625137	43.504757	0.0		True	0.0	None	0.0	None	0.0	None	0.0	None	0.0	None	0.0	None	0.0	None	0.0	None	8.140000000000002e-07	12
2014-03-08 00:00:00	37.50575480999668	357491638.0906	2.634684785011178e+21	974832485002.0121	2.6072801680023208	265678311088.80164	8.537517968179642e+20	-3.164102943496013e+23	1229.9337459857495	-0.666457006846742	22.72224331174616	1.4259144451332921	26.663768687989588	99.58624765581041	98.70439909246136	34.81872309752897	0.0016164167191582894	1.0464834298803825e+22	0.3179274477247906	0.008753015455114454	-1.445875240195465e+23	-0.022042146758417272	0.3045456175296838	0.0	77.13623	40.357285	-13.530847	31.548382	-10.625955	43.618301	0.0		True	0.0	None	0.0	None	0.0	None	0.0	None	0.0	None	0.0	None	0.0	None	0.0	None	3.237e-06	12
2014-03-08 00:12:00	36.958022250745465	352364396.2728	2.579062706296614e+21	955209077047.6276	2.4193074433803607	68123998588.70589	8.359165800692093e+20	-3.125155486181448e+23	1254.5223739479186	-0.6678317707837188	22.427060303398786	1.227390180878553	26.142480006374477	100.66482287059151	100.0056194749819	35.11463464659707	0.0015628601055428686	9.79170774834293e+21	0.08494175103493494	0.008233354118782567	-1.4191696344303251e+23	-0.020924442170916192	0.3032702130165498	0.0	77.138809	40.24736400000001	-13.523604	31.750967	-10.622716	43.720402	0.0		True	0.0	None	0.0	None	0.0	None	0.0	None	0.0	None	0.0	None	0.0	None	0.0	None	3.4295e-06	12
2014-03-08 00:24:00	35.94847201668499	348984165.35160005	2.498118506377611e+21	924981400968.6436	3.7753832134676952	228962450554.0805	8.350097371924529e+20	-3.078170537301846e+23	1222.2549771227425	-0.6641625028473153	21.77149788294362	0.9746588693957114	26.00090146964476	100.56067157850602	99.93889156710449	35.74160978621627	0.002453140489582648	1.1245276649781178e+22	0.2588637448862033	0.013001383895719669	-1.3932100839463435e+23	-0.024263409042553502	0.3006064430585461	0.0	77.14136500000002	40.137466	-13.515757999999998	31.923298	-10.628408	43.839958	0.0		True	0.0	None	0.0	None	0.0	None	0.0	None	0.0	None	0.0	None	0.0	None	0.0	None	2.2193e-06	12
2014-03-08 00:36:00	34.75616083685928	345172678.4547	2.428819522008655e+21	879015780854.3168	3.6012259691127477	292380693213.2968	8.171629657125007e+20	-3.051314412085618e+23	1220.8741228730632	-0.6656378434246597	21.77260396502349	1.0013351134846462	26.27223972860141	98.45264819220448	98.19196646429464	34.277803992180274	0.002404022676310245	1.0503258676589215e+22	0.3767036722705829	0.012527470157831757	-1.3792573834436598e+23	-0.022912638654098875	0.3008821072671601	0.0	77.143997	40.027599	-13.507535999999998	32.088814	-10.627672	43.940292	0.0		True	0.0	None	0.0	None	0.0	None	0.0	None	0.0	None	0.0	None	0.0	None	0.0	None	1.3532e-06	12
2014-03-08 00:48:00	37.724797867048714	354852164.5769	2.531766253541091e+21	968528462188.0438	3.6293611721683683	466943417062.5243	8.522879944874856e+20	-3.160920716899931e+23	1205.8108330899242	-0.6707390456154879	22.05010037577193	1.0752688172043012	25.90791514620695	97.621952263873	97.11810969970405	33.810603249899714	0.0022956111145909968	1.162730651293791e+22	0.5700076303283714	0.012243458213393569	-1.4167645807087709e+23	-0.024672837986317704	0.3006337101863197	0.0	77.146606	39.917759	-13.500985	32.246014	-10.631966	44.055145	0.0		True	0.0	None	0.0	None	0.0	None	0.0	None	0.0	None	0.0	None	0.0	None	0.0	None	9.8274e-07	12
2014-03-08 01:00:00	37.4129330999202	352448321.43990004	2.468797107183669e+21	925981279690.4192	4.599187254964008	363992642968.0936	8.339542325687343e+20	-3.1319439778347506e+23	1222.2037690959385	-0.6691230202465706	21.62073932369075	0.8547008547008548	26.03191414827025	99.63458863335244	98.92361624613079	35.4804126937509	0.003023791752113089	1.352800551054119e+22	0.4618457209720721	0.015636058779171676	-1.3965959811747865e+23	-0.0289018576615267	0.2983752351898556	0.0	77.149292	39.807945	-13.491363	32.430149	-10.638289	44.157375	0.0		True	0.0	None	0.0	None	0.0	None	0.0	None	0.0	None	0.0	None	0.0	None	0.0	None	8.547399999999998e-07	12
2014-03-08 01:12:00	38.117606172805054	361704752.6132	2.5306508229048176e+21	950726587973.6124	4.946004263516538	365142194207.2321	8.45643485020155e+20	-3.2049245939333626e+23	1247.0857454186234	-0.6671923288375201	21.499927726737038	0.9816753926701568	26.11354759661253	99.44976371220774	98.80479726044605	35.865289260491345	0.0032369137850239123	1.6494037221505682e+22	0.4611661798030207	0.01640380369871009	-1.4388748277902696e+23	-0.034336830035190294	0.2995409779925188	0.0	77.152008	39.698162	-13.484278	32.610699	-10.63535	44.271801	0.0		True	0.0	None	0.0	None	0.0	None	0.0	None	0.0	None	0.0	None	0.0	None	0.0	None	7.6564e-07	12
2014-03-08 01:24:00	38.5576693360304	369341693.83	2.616652588877818e+21	987787960277.8721	5.08311861519041	406811466944.2771	8.762402217065838e+20	-3.277091356642591e+23	1221.5160912224578	-0.6681095909317475	21.920152281038185	0.6199628022318662	26.21216100636729	100.51237941479178	99.8120392424998	35.976083679222604	0.0031532993890759373	1.5031341515915756e+22	0.4867017489032885	0.01651084695742126	-1.44922376422703e+23	-0.030644807661519037	0.2954572182809876	0.0	77.15475500000002	39.588406	-13.476293	32.75967	-10.644016	44.37468300000001	0.0		True	0.0	None	0.0	None	0.0	None	0.0	None	0.0	None	0.0	None	0.0	None	0.0	None	8.1208e-07	12
2014-03-08 01:36:00	36.14948712300158	349125563.33360004	2.3175638773491258e+21	907436128149.043	5.885863509577723	396895998250.3638	8.262252241422975e+20	-3.1635220176461835e+23	1164.172997375339	-0.6823020143225205	21.071397444845807	0.8005336891260841	25.78190651707312	101.00669561580021	100.47738003403549	35.88347534620961	0.0039265266908457145	1.3169959826456775e+22	0.48527015648445504	0.020042623486790447	-1.3348613742391548e+23	-0.028404702316009414	0.28790019459462063	0.0	77.157478	39.47868	-13.468568	32.905602	-10.643898	44.484428	0.0		True	0.0	None	0.0	None	0.0	None	0.0	None	0.0	None	0.0	None	0.0	None	0.0	None	7.395000000000002e-07	12
2014-03-08 01:48:00	37.076392556537	353246421.9107	2.41578351294985e+21	940822082462.1298	5.973061541106198	577256321071.8429	8.475373211499393e+20	-3.181101426273499e+23	1157.1587390357508	-0.6780898022991254	21.44802573829337	0.6997455470737913	26.012775915285157	98.94634535577387	98.74091679999417	34.244555562384626	0.0038020760923654978	1.2234646470833792e+22	0.708583293932523	0.0201548173257117	-1.3773725204463864e+23	-0.02607961172846333	0.2936034206164409	0.0	77.16023299999998	39.36898	-13.46038	33.023209	-10.652272	44.587536	0.0		True	0.0	None	0.0	None	0.0	None	0.0	None	0.0	None	0.0	None	0.0	None	0.0	None	7.041299999999998e-07	12
2014-03-08 02:00:00	36.93692996643175	348601399.11090004	2.3008821343042727e+21	929650264086.8816	5.340606594641965	424768181417.81854	8.267146699198582e+20	-3.137978808360359e+23	1145.0984273163485	-0.6778104416194003	21.056641605851464	0.6609385327164574	25.961985002748705	101.42462263567327	101.10909133754154	35.58931239374614	0.0035298126864784967	1.253858964757574e+22	0.5417179370974855	0.018262009513942933	-1.34145825712516e+23	-0.027083634101240147	0.2897579841054104	0.0	77.163055	39.259308	-13.451548999999998	33.1628	-10.651164	44.70097	0.0		True	0.0	None	0.0	None	0.0	None	0.0	None	0.0	None	0.0	None	0.0	None	0.0	None	7.190600000000002e-07	12
2014-03-08 02:12:00	36.12181455283958	352383350.29580003	2.391753527370117e+21	928711102044.9644	5.167199607637182	411249064222.89984	8.385354110978758e+20	-3.187738593864157e+23	1161.1601841849765	-0.6811689300783088	21.649729365101752	1.1605415860735009	25.909387506814962	100.16264852597858	99.92996732451284	34.61349862190079	0.0033315277934475697	1.342247304537109e+22	0.5116100765083726	0.01744449890287479	-1.3669687462285885e+23	-0.028681685571454937	0.29209943378396563	0.0	77.16591600000002	39.149666	-13.443945	33.28096	-10.663518	44.79855300000001	0.0		True	0.0	None	0.0	None	0.0	None	0.0	None	0.0	None	0.0	None	0.0	None	0.0	None	8.818800000000002e-07	12
2014-03-08 02:24:00	34.557291582114765	348480999.6767	2.3769420090142753e+21	874322382629.2832	5.073753272205534	311643203185.5888	8.194921717524174e+20	-3.1505654071788755e+23	1202.019188693807	-0.6807645126299317	21.63563492962491	0.4701141705842847	25.75217398484302	99.15320823698272	99.24579933750631	33.663001335997144	0.003407490444731721	1.5471425074533948e+22	0.3708223423518754	0.017325004906479168	-1.361843433065686e+23	-0.03343018090199459	0.29426295320730605	0.0	77.16879300000002	39.040047	-13.436425	33.418293	-10.663757	44.914459	0.0		True	0.0	None	0.0	None	0.0	None	0.0	None	0.0	None	0.0	None	0.0	None	0.0	None	7.381399999999998e-07	12
2014-03-08 02:36:00	35.3924630995365	349728046.3648	2.4087932208228367e+21	900893100201.8938	5.723236233783598	383953665722.5793	8.269308150837059e+20	-3.1454102947302204e+23	1185.4837359218734	-0.6772271376260958	21.81532432549165	1.4379084967320257	26.08877640090672	96.9901910184981	96.76452658180004	33.75256612665406	0.003740677276982743	1.4232126300464936e+22	0.4429871071996502	0.0195141359121043	-1.381699198630654e+23	-0.030642686497672395	0.2974887552560658	0.0	77.171654	38.930454	-13.397742	33.536808	-10.67129	45.012394	0.0		True	0.0	None	0.0	None	0.0	None	0.0	None	0.0	None	0.0	None	0.0	None	0.0	None	7.6582e-07	12
2014-03-08 02:48:00	38.67364165221797	363428291.9022	2.601755006442378e+21	982255965282.4456	5.885687784006096	364509113493.9013	8.586976383028272e+20	-3.238061270729634e+23	1232.9060233238765	-0.6708938362982853	22.21808978614033	1.3845185651353054	26.133000623781058	97.7261479952606	97.4797902605646	33.510651815889176	0.003704020002521143	1.5599307223277809e+22	0.4425768288559468	0.019384724195373272	-1.4389140215877158e+23	-0.03232020085976387	0.2981285613007723	0.0	77.174591	38.820889	-13.359795000000002	33.655415000000005	-10.6746	45.110382	0.0		True	0.0	None	0.0	None	0.0	None	0.0	None	0.0	None	0.0	None	0.0	None	0.0	None	7.9757e-07	12
2014-03-08 03:00:00	40.032922439637744	369583935.0108	2.5216394923843623e+21	1011764495397.2288	4.152251397208259	236985113327.05466	8.678841447060114e+20	-3.322373530329374e+23	1187.46795932631	-0.6768972337731334	21.671802699969266	1.250781738586617	26.07380633215353	100.41751252832857	100.34198041265428	34.7110040998235	0.002596780110824427	1.6089289421703294e+22	0.2855567981403435	0.013399669975080295	-1.4452784144678589e+23	-0.03278016575651746	0.29445965417631004	0.0	77.177498	38.711346	-13.3223	33.789185	-10.686784	45.227352	0.0		True	0.0	None	0.0	None	0.0	None	0.0	None	0.0	None	0.0	None	0.0	None	0.0	None	7.355200000000002e-07	12
2014-03-08 03:12:00	38.28136925202478	361980466.8662	2.493898109642279e+21	928407121124.822	6.34942132819376	416500591916.7917	8.31068671610232e+20	-3.309832356475085e+23	1266.2661216055749	-0.6885068954152221	21.791009431061397	0.9440323668240054	25.47430762858941	103.08516068554012	102.64697846265275	35.05086379367985	0.0042814708888696965	1.8625669519603606e+22	0.414071918222814	0.020776680809333405	-1.3900857789458169e+23	-0.038744868364358635	0.2891637826159005	0.0	77.180481	38.601833	-13.283777	33.908077	-10.686049	45.325623	0.0		True	0.0	None	0.0	None	0.0	None	0.0	None	0.0	None	0.0	None	0.0	None	0.0	None	7.43e-07	12
2014-03-08 03:24:00	38.40749927101686	368628661.3435	2.561109100306471e+21	972315459432.9232	5.328560256282348	503844381733.1821	8.460757490934339e+20	-3.301523313006135e+23	1263.749737893812	-0.6743926089958754	22.10130819558624	1.5727391874180865	26.090419445201224	102.78516499712484	102.64637026923924	35.79126751169539	0.0034918481364890875	1.7421968946185256e+22	0.6369523803355228	0.01726606929042133	-1.4548217755400525e+23	-0.03558735158760687	0.2971722322739341	0.0	77.183487	38.49234000000001	-13.246471	34.045193	-10.69838	45.417416	0.0		True	0.0	None	0.0	None	0.0	None	0.0	None	0.0	None	0.0	None	0.0	None	0.0	None	7.145399999999998e-07	12
2014-03-08 03:36:00	38.26490689868819	370099984.85700005	2.6316922576100026e+21	932937356542.1792	5.507485634433189	463560402817.2493	8.340600286510282e+20	-3.317072258690789e+23	1332.636030808063	-0.6748749089209152	22.26737423655304	1.6139878950907869	26.325547842123104	105.45536001231164	105.3578639641002	36.08176975726237	0.003703756310983985	2.0372071058340074e+22	0.6013786315381748	0.017769774837382655	-1.4586464495485155e+23	-0.04144799548459063	0.2967689013128113	0.0	77.186523	38.38287	-13.192517	34.174004	-10.698345	45.527748	0.0		True	0.0	None	0.0	None	0.0	None	0.0	None	0.0	None	0.0	None	0.0	None	0.0	None	6.534799999999999e-07	12
2014-03-08 03:48:00	40.94266428646985	377704377.0949	2.7801884542072846e+21	1021528254190.8206	5.845092080386598	561421817449.0895	8.501716280887981e+20	-3.3571652439689005e+23	1371.8519732114462	-0.6692806222380242	22.770321319725685	2.1625163826998692	26.48747452493649	105.34903295868179	104.51177145008292	37.00278113472936	0.003830335570371296	2.2382677695009848e+22	0.7097012842234571	0.01854129155891266	-1.5099895552852742e+23	-0.044621850181432735	0.3010297902225059	0.0	77.189522	38.273422	-13.107059	34.31282	-10.708736	45.627655	0.0		True	0.0	None	0.0	None	0.0	None	0.0	None	0.0	None	0.0	None	0.0	None	0.0	None	7.5472e-07	12
2014-03-08 04:00:00	40.84330795699288	358745257.0365	2.5535709790022114e+21	1006531186279.564	5.34352547493338	304029831411.2976	8.016039590485607e+20	-3.202489282565493e+23	1352.1836907339427	-0.6721850866871956	22.26258195835166	1.7580872011251758	26.52202075234316	105.71232276352262	105.68648796339718	36.844004543194025	0.0037577534985466813	2.4918385967704008e+22	0.4124257371464592	0.017815063143956474	-1.3975404284486058e+23	-0.05230233719435897	0.2933361367233163	0.0	77.192543	38.163994	-13.038146	34.593204	-10.711211	45.720089	0.0		True	0.0	None	0.0	None	0.0	None	0.0	None	0.0	None	0.0	None	0.0	None	0.0	None	6.5845e-07	12
2014-03-08 04:12:00	39.38477496971518	360058579.1969	2.649479957337175e+21	983853866733.6792	5.030055607372822	422536546792.5089	7.982570043408097e+20	-3.1605408741324645e+23	1389.2924153561648	-0.6609608162863876	23.044639409182164	2.5766016713091924	27.075503213440577	107.57408456222107	106.94551199244059	38.03903601577967	0.003502824239117564	3.5038422791114832e+22	0.5675813046990438	0.016821713474571558	-1.4130295156466656e+23	-0.07327551027404364	0.2955054781105909	0.0	77.195633	38.054585	-12.999714	35.041016	-10.722432	45.830498	0.0		True	0.0	None	0.0	None	0.0	None	0.0	None	0.0	None	0.0	None	0.0	None	0.0	None	6.612600000000001e-07	12
2014-03-08 04:24:00	39.920996764041426	355510217.4462	2.614658238033185e+21	968350890393.1112	7.063212774964023	512238432047.3401	7.846374151533029e+20	-3.142801348205036e+23	1413.355265518398	-0.6656598628432178	23.008990714824144	1.0050251256281406	26.893152039774986	108.04496272685869	108.26685624724686	37.66824771830861	0.00507050450464036	3.5804290597668644e+22	0.5584676463694833	0.023855794074925614	-1.3763423100954786e+23	-0.07583514364359986	0.2915156676659611	0.0	77.198746	37.945198	-12.963487	35.364082	-10.724302	45.928265	0.0		True	0.0	None	0.0	None	0.0	None	0.0	None	0.0	None	0.0	None	0.0	None	0.0	None	7.900700000000002e-07	12
2014-03-08 04:36:00	39.34250081341516	348393771.2358	2.662346729544818e+21	986505189962.3104	3.427762531613576	135214497023.03847	7.70710710431291e+20	-3.024657806329599e+23	1460.0964224384024	-0.6537223379784601	23.557630383878326	1.893663510560816	27.200381645790795	105.96620310425327	105.53086317979195	38.064000238755725	0.0024965495496093045	3.872858748891775e+22	0.16683483895499018	0.011898925579903338	-1.377148414676378e+23	-0.08370448619634614	0.2976444738646473	0.0	77.201874	37.835827	-12.950492	35.596458	-10.730336	46.020771	0.0		True	0.0	None	0.0	None	0.0	None	0.0	None	0.0	None	0.0	None	0.0	None	0.0	None	1.0595e-06	12
2014-03-08 04:48:00	37.25268530580105	342954993.9644	2.5278472238251623e+21	901384265969.4204	4.667535184612214	413782733740.8735	7.393408299683549e+20	-3.000274432463659e+23	1508.2694271455343	-0.6587358657341814	22.71423364976561	1.9017432646592711	26.879060628718936	109.39651989927108	109.9654868582233	38.148367382627846	0.003698522333290186	4.2841545434212975e+22	0.583161985132849	0.01640979779460839	-1.3189494009139843e+23	-0.09406227048977923	0.2895866011687507	0.0	77.204971	37.726475	-12.953118	35.78847899999999	-10.731932	46.13221	0.0		True	0.0	None	0.0	None	0.0	None	0.0	None	0.0	None	0.0	None	0.0	None	0.0	None	1.0997e-06	12
2014-03-08 05:00:00	38.065807654678665	349739948.4948	2.678657560061536e+21	929022680381.964	2.169912811170156	247269866896.0989	7.500038297834589e+20	-3.016468581315811e+23	1583.1977625865975	-0.6494428846431225	22.84037745804669	2.354788069073784	26.86489106551641	110.9285723393748	111.44219442709206	38.57213183550113	0.0017032282662246122	4.628241930995425e+22	0.31066849583260164	0.007522977380479375	-1.352227343810882e+23	-0.09964561902318164	0.2911332915242135	0.0	77.20813000000003	37.617134	-12.945542	36.05106	-10.742853	46.226345	0.0		True	0.0	None	0.0	None	0.0	None	0.0	None	0.0	None	0.0	None	0.0	None	0.0	None	9.7125e-07	12
2014-03-08 05:12:00	41.30657468023343	359198257.3028	2.7820285025083337e+21	998683304506.9482	2.660109353819961	361894733516.5917	7.660164472717763e+20	-3.089358441590549e+23	1607.6984020624288	-0.6476218602700516	23.108405152454967	3.069838833461243	27.211750157925486	114.97944547555043	115.45971052871555	40.038839471080095	0.0020415267489025017	5.221843185525465e+22	0.513850847481734	0.008989545182388795	-1.3604919635744167e+23	-0.1094654395657434	0.2851997762612793	0.0	77.211258	37.507809	-12.934534	36.20362100000001	-10.742676	46.317043	0.0		True	0.0	None	0.0	None	0.0	None	0.0	None	0.0	None	0.0	None	0.0	None	0.0	None	7.7044e-07	12
2014-03-08 05:24:00	39.22269616629694	347131910.5008	2.622274208224858e+21	885894470920.1885	1.2052893203445685	9854048592.708723	7.218574696497392e+20	-3.0069735994616457e+23	1671.920426882118	-0.6522625960348817	22.72344910741464	1.947502116850127	26.66121606614609	116.83793117098469	115.9810767941774	41.38068462252895	0.001020566740342564	4.752829187772224e+22	0.016092661308008998	0.004202886812060769	-1.3146459382577992e+23	-0.10309677162053216	0.2851685737142044	0.0	77.21444699999998	37.398499	-12.923363	36.359623	-10.74984	46.411518	0.0		True	0.0	None	0.0	None	0.0	None	0.0	None	0.0	None	0.0	None	0.0	None	0.0	None	7.038299999999998e-07	12
2014-03-08 05:36:00	39.35470116443996	346321036.1142	2.64924194518212e+21	888055895532.9438	3.713851056490772	208530867854.0494	7.120050271412207e+20	-2.977696532053761e+23	1721.1775210643445	-0.6474243685470615	23.13917813121111	2.5884383088869716	26.97125247888565	115.94554552344354	115.9412991921597	40.13427166127561	0.003204358116040355	4.643798917689155e+22	0.34558824933142823	0.013018774969049863	-1.3251473610144303e+23	-0.1009675952394919	0.28811958646600017	0.0	77.217651	37.289196	-12.914757	36.551136	-10.748499	46.508968	0.0		True	0.0	None	0.0	None	0.0	None	0.0	None	0.0	None	0.0	None	0.0	None	0.0	None	8.224e-07	12
2014-03-08 05:48:00	37.65709495256312	352822617.0805	2.587097356035463e+21	893397903125.779	0.5526796659473485	88241421704.45308	7.468975432354672e+20	-3.096692374347476e+23	1555.9512400859396	-0.6608900104686269	22.769831894232325	1.1980830670926517	26.5086604296276	114.96419544356206	114.17995732276812	40.59025528793793	-0.0004414374328652943	3.862358522380179e+22	-0.13593074252832452	-0.001886280139121534	-1.3492189132506317e+23	-0.08242969774572137	0.28794765314413	0.0	77.22081	37.179905	-12.903711	42.388039	-10.755672	46.595936	0.0		True	0.0	None	0.0	None	0.0	None	0.0	None	0.0	None	0.0	None	0.0	None	0.0	None	1.6139e-06	12
2014-03-08 06:00:00	36.769468646371	352692053.38600004	2.470041214114776e+21	846520964419.4209	2.7261222464181083	157324844159.40872	7.502065865880754e+20	-3.15598294159663e+23	1493.9026785105357	-0.6737928997212645	22.00897944036476	1.285140562248996	25.870440815541247	113.42803760182235	112.97333049789962	38.74823733409519	0.00218965642282579	3.471152052422377e+22	0.2437089629762033	0.009235872453113508	-1.3704298552799005e+23	-0.07410805603378391	0.2925826669983491	0.0	77.22402199999998	37.070621	-12.892508	42.509056	-10.74821	46.68187	66560.0		False	0.0	None	0.0	None	0.0	None	0.0	None	0.0	None	0.0	None	0.0	None	0.0	None	8.374700000000002e-07	12
2014-03-08 06:12:00	36.849431930284226	354001149.2252	2.4348291899311076e+21	863271174364.8396	2.580410313800612	123778496123.63702	7.597343366584992e+20	-3.193960361841061e+23	1444.7553745765524	-0.6793792704983672	21.879936147060587	1.1032308904649328	25.76905396366257	116.01565708233153	115.27394022105808	38.64941889713933	0.002033420263042247	3.0881738662589216e+22	0.18811432021764304	0.008680911019830366	-1.358387055112248e+23	-0.06568776912502934	0.2889390919130348	0.0	77.22719599999998	36.961346	-12.882709	42.594177	-10.738284	46.773407	66560.0		False	0.0	None	0.0	None	0.0	None	0.0	None	0.0	None	0.0	None	0.0	None	0.0	None	7.2455e-07	12
2014-03-08 06:24:00																																	False	0.0	None	0.0	None	0.0	None	0.0	None	0.0	None	0.0	None	0.0	None	0.0	None	6.684900000000001e-07	12
2014-03-08 06:36:00																																	False	0.0	None	0.0	None	0.0	None	0.0	None	0.0	None	0.0	None	0.0	None	0.0	None	7.746e-07	12
