Timestamp	TOTUSJH	TOTBSQ	TOTPOT	TOTUSJZ	ABSNJZH	SAVNCPP	USFLUX	TOTFZ	MEANPOT	EPSZ	MEANSHR	SHRGT45	MEANGAM	MEANGBT	MEANGBZ	MEANGBH	MEANJZH	TOTFY	MEANJZD	MEANALP	TOTFX	EPSY	EPSX	R_VALUE	CRVAL1	CRLN_OBS	LAT_MIN	LON_MIN	LAT_MAX	LON_MAX	QUALITY	NOAA_AR	IS_TMFI	BFLARE	BFLARE_label	CFLARE	CFLARE_label	MFLARE	MFLARE_label	XFLARE	XFLARE_label	BFLARE_loc	BFLARE_label_loc	CFLARE_loc	CFLARE_label_loc	MFLARE_loc	MFLARE_label_loc	XFLARE_loc	XFLARE_label_loc	XR_MAX	XR_QUAL
2014-02-19 00:36:00	69.99996688706571	422879998.9369	2.492265269855135e+21	1593138443827.2085	7.000021021185615	441647446223.4042	8.5652740617442e+20	-3.3225632301281045e+23	1313.2563224342211	-0.5916209893919133	19.688819621976727	2.0293911826452065	29.65636729139505	136.49613620473158	143.6659194643771	57.45819369247342	-0.004898545151284546	-1.1134963046948348e+23	0.6014110714274754	-0.02080044074588584	1.0957178627609143e+23	0.1982709552354849	-0.19510529707391328	0.0	260.310333	263.948242	-26.044237	-11.737549	-17.327948000000006	4.62911	67584.0		False	0.0	None	0.0	None	0.0	None	0.0	None	0.0	None	0.0	None	0.0	None	0.0	None	1.2614e-06	12
2014-02-19 00:48:00	78.80444735826734	431631380.16700006	2.50014218720912e+21	1777802117325.4563	4.803009356406009	333001836372.9989	8.726373086401499e+20	-3.3657265845542854e+23	1292.9769398257326	-0.5871556820742391	19.473817074445368	2.6785714285714284	29.902481261819677	136.40551159693456	145.42081240766692	56.51330630610671	-0.0032987701623667645	-1.1006925407879808e+23	0.4450402676137786	-0.014022029909743954	1.151292726600352e+23	0.1920173440428105	-0.2008446168076541	0.0	260.311646	263.838531	-26.048164	-11.632896	-17.332472	4.725935	0.0		True	0.0	None	0.0	None	0.0	None	0.0	None	0.0	None	0.0	None	0.0	None	0.0	None	9.073000000000001e-07	12
2014-02-19 01:00:00	70.50300142894042	420641407.0285	2.518580996383416e+21	1664307897719.6191	3.1288085911279087	200603968649.4012	8.529686561580401e+20	-3.232828726497528e+23	1300.7262066330018	-0.5787062427337469	19.85724805938536	3.3607681755829906	30.68327328910302	135.16999448331254	141.46321021687885	57.75005945534173	-0.002145959253174149	-1.1411853297263984e+23	0.26772080793655023	-0.009423139996190693	1.0826161737489555e+23	0.2042827289351425	-0.19379830830438605	0.0	260.312988	263.728851	-26.049961	-11.510469	-17.36368	4.8489559999999985	0.0		True	0.0	None	0.0	None	0.0	None	0.0	None	0.0	None	0.0	None	0.0	None	0.0	None	8.334999999999998e-07	12
2014-02-19 01:12:00	77.3964035380771	444676346.235	2.686171574847937e+21	1801778476903.1904	7.1239112587792	333619808389.54755	9.11260712369704e+20	-3.50236939558526e+23	1301.5779839918696	-0.5930692133735145	20.094060007042305	2.8957528957528966	29.92364250726835	133.54218059447786	141.19511578278696	55.26300061498861	-0.004584241479265895	-1.1536230066186017e+23	0.4177215263172897	-0.02011267441177584	1.1171204219847056e+23	0.19534726688946344	-0.1891661487063806	0.0	260.314362	263.61920200000003	-26.052574	-11.406015	-17.395422	4.946448	0.0		True	0.0	None	0.0	None	0.0	None	0.0	None	0.0	None	0.0	None	0.0	None	0.0	None	8.229000000000002e-07	12
2014-02-19 01:24:00	75.38586610899665	426968065.8878	2.755626652490858e+21	1783377784536.9773	0.7912663982086009	115017439784.19905	8.834226690444195e+20	-3.3181001902681325e+23	1343.8805439992354	-0.5851695070910902	21.21062919593477	4.598445595854922	31.009747699162073	132.20007457883779	138.9365268303905	54.2242347307449	-0.0005124782371817363	-1.1269527372189698e+23	-0.1426263001140649	-0.0023381997807125922	1.068968650248654e+23	0.1987457701511084	-0.18851988255101013	0.0	260.315826	263.509613	-26.056187	-11.300055	-17.428631	5.042922	0.0		True	0.0	None	0.0	None	0.0	None	0.0	None	0.0	None	0.0	None	0.0	None	0.0	None	8.272399999999998e-07	12
2014-02-19 01:36:00	71.97379511453316	421591788.2733	2.546222008597953e+21	1687455142531.7168	4.196681496012304	318212048427.09955	8.757508589077285e+20	-3.306553047323128e+23	1253.119092259774	-0.5905692923688955	20.254173846582564	3.2679738562091507	30.645834019110303	132.3159218570915	139.69832262096926	54.613131138045844	-0.002742929082360983	-1.086264854676352e+23	0.40465326917463257	-0.012516741088628118	9.847251525099469e+22	0.1940131180023749	-0.17587754624606844	0.0	260.31723	263.40002400000003	-26.057384	-11.191922	-17.459536	5.167345	0.0		True	0.0	None	0.0	None	0.0	None	0.0	None	0.0	None	0.0	None	0.0	None	0.0	None	8.2679e-07	12
2014-02-19 01:48:00	73.12991313406218	424182383.5605	2.4722429483622675e+21	1692413584961.1978	6.379837345198501	284732261843.933	8.720227659218269e+20	-3.3228153077579e+23	1241.0443516903915	-0.5898491921440536	20.2350293328786	3.733333333333334	30.14433194013437	130.5628574219225	138.38868310257493	54.06359742192114	-0.004253224896799	-1.104889113398397e+23	0.3693083141948053	-0.018920431793204292	1.0326584221626862e+23	0.1961342688608705	-0.1833122456885568	0.0	260.318726	263.29046600000004	-26.059881	-11.083944	-17.520906	5.263042	0.0		True	0.0	None	0.0	None	0.0	None	0.0	None	0.0	None	0.0	None	0.0	None	0.0	None	1.0364e-06	12
2014-02-19 02:00:00	80.43593660183329	454409644.6571001	2.6903866575817933e+21	1837858784575.9443	6.982050212059172	249960557440.1808	9.231395478753006e+20	-3.609755997361517e+23	1296.9437970296208	-0.5981605837794426	20.143267423164925	2.6248399487836105	30.082086655950032	133.0342002933519	140.36278558745906	56.43151799114724	-0.004469942517323414	-1.1555646169335728e+23	0.31132940451598096	-0.019228482337000082	1.125369138676234e+23	0.19148474477640126	-0.18648115314441527	0.0	260.320251	263.180939	-26.063097	-10.983895	-17.528097	5.359518	0.0		True	0.0	None	0.0	None	0.0	None	0.0	None	0.0	None	0.0	None	0.0	None	0.0	None	3.0737e-06	12
2014-02-19 02:12:00	78.50001590847275	440910724.4368	2.4331421165727163e+21	1790653548401.4707	3.0626441587802167	26833920911.49083	8.902112238385981e+20	-3.482716666785207e+23	1206.138629048371	-0.5947781507596103	19.320668607422306	1.7774851876234363	30.47893240728096	133.2340295422605	141.0035683052824	55.70631850363851	-0.0020162239359975084	-1.1645895728198471e+23	-0.03436703955982123	-0.00871115209154252	1.0354935213164e+23	0.19888853983493832	-0.17684152363179	0.0	260.321747	263.071442	-26.065151	-10.882839	-17.527712	5.457309	67584.0		False	0.0	None	0.0	None	0.0	None	0.0	None	0.0	None	0.0	None	0.0	None	0.0	None	1.5597999999999999e-06	12
2014-02-19 02:24:00	73.72508497196044	437110562.8377	2.6089948605636684e+21	1723710218485.8018	0.2812416442985295	76833236746.62828	8.906951208426173e+20	-3.398242196918183e+23	1292.4598988368348	-0.5853969675793672	19.875944531028658	2.368421052631579	30.201140536224266	131.8317859723669	138.59018159922928	56.34936475024745	-0.00018502739756482204	-1.1707054639070024e+23	-0.09833483117557372	-0.0008116715047068393	9.81447118141884e+22	0.2016711549051063	-0.1690686341664542	0.0	260.323273	262.961975	-26.065907	-10.782999	-17.526608	5.578797	67584.0		False	0.0	None	0.0	None	0.0	None	0.0	None	0.0	None	0.0	None	0.0	None	0.0	None	2.1385e-06	12
2014-02-19 02:36:00	78.19010113749272	451437487.7526	2.452733190739103e+21	1701517690737.3257	4.325214826662281	258162593415.5621	8.951783535113023e+20	-3.608486729015071e+23	1273.7077235976599	-0.6018870073366767	18.376066025975167	1.5172413793103448	29.26570958842893	135.59193676959404	143.41585710326572	56.734972475440905	-0.0029829067770084693	-1.1761554377113355e+23	0.3463486468127189	-0.011962120677856977	9.34902002091685e+22	0.19617993073790746	-0.15593943124896048	0.0	260.324921	262.85257	-26.06551	-10.679764	-17.52401	5.6765360000000005	0.0		True	0.0	None	0.0	None	0.0	None	0.0	None	0.0	None	0.0	None	0.0	None	0.0	None	1.3211000000000001e-06	12
2014-02-19 02:48:00	77.1561113280359	456705521.872	2.426345759918274e+21	1678088550966.1897	4.509748771670497	53386658903.50607	8.843631600066248e+20	-3.5948698833559995e+23	1278.5214006307147	-0.5926993553790785	18.5333269456638	1.5395381385584324	30.028086333384234	137.7138119191425	145.43997761994342	59.99922240952174	-0.003155877376956261	-1.2181041907694889e+23	0.07267336346152171	-0.012399731402765079	9.446461384668926e+22	0.2008332963583188	-0.15574726638171818	0.0	260.326569	262.74316400000004	-26.067183	-10.569576	-17.523417000000002	5.7748550000000005	0.0		True	0.0	None	0.0	None	0.0	None	0.0	None	0.0	None	0.0	None	0.0	None	0.0	None	2.2697e-06	12
2014-02-19 03:00:00	69.14449568571052	431528998.54060006	2.407298877816514e+21	1517947027504.9072	0.8463489164746779	155191232696.31924	8.233267431996694e+20	-3.296824070390752e+23	1358.8192166529136	-0.5752720621950137	19.427631003521753	2.848575712143929	30.55004530777277	136.88720231606823	144.82131655505341	59.65210337045925	-0.0006344444651234468	-1.2077792909893734e+23	-0.2262938624419361	-0.0024900833365241173	8.47212269900379e+22	0.21074878991693904	-0.14783244092389308	0.0	260.328156	262.633759	-26.072279	-10.447608	-17.525948	5.897411	0.0		True	0.0	None	0.0	None	0.0	None	0.0	None	0.0	None	0.0	None	0.0	None	0.0	None	1.6019e-06	12
2014-02-19 03:12:00	73.96792230807345	451389594.8596	2.5942444774248504e+21	1584885787415.7256	5.291976568220272	174957496530.5076	8.541211235245716e+20	-3.393561199991144e+23	1430.0383078625186	-0.5660979887382654	19.755177774363275	2.12298682284041	30.703990343258592	141.6883703304225	148.71495593769484	60.729344903172205	-0.003874067765900637	-1.3196818872102846e+23	0.2414848220325141	-0.014971917750508322	8.639620999708098e+22	0.22014315289967665	-0.14412211193976404	0.0	260.329803	262.52441400000004	-26.076685	-10.348412	-17.52775	5.995882	0.0		True	0.0	None	0.0	None	0.0	None	0.0	None	0.0	None	0.0	None	0.0	None	0.0	None	1.0381999999999999e-06	12
2014-02-19 03:24:00	73.60289536167029	456899562.8155	2.573111342496682e+21	1596097983568.125	1.8955432732225304	9382630676.017557	8.700752016861584e+20	-3.4443329226380096e+23	1379.9995955659476	-0.5676385318219911	19.132590100714285	1.8518518518518519	30.57808532464586	140.488226135015	147.07514768724374	62.36682951274186	-0.0013501020464547935	-1.3312686569488925e+23	0.01299849756971155	-0.005292940681325789	8.063044950697336e+22	0.21939789296335774	-0.13288189906808187	0.0	260.331543	262.4151	-26.07865	-10.244856	-17.529192000000002	6.092066	0.0		True	0.0	None	0.0	None	0.0	None	0.0	None	0.0	None	0.0	None	0.0	None	0.0	None	8.598999999999998e-07	12
2014-02-19 03:36:00	73.31765514676744	462378076.9426	2.6010892262700614e+21	1559566521153.3013	0.8194480229167351	126426344438.32547	8.655715417570371e+20	-3.434338034662548e+23	1421.325688241997	-0.5592852654662149	19.00318607523237	1.5239477503628451	31.217095291637264	144.73999850069828	150.342160164395	65.34784427032265	-0.0005946647481253521	-1.4464823389140558e+23	-0.17844799110498274	-0.00227315263392231	7.343440649009227e+22	0.2355610457522216	-0.11958864012115432	0.0	260.333282	262.305786	-26.079771	-10.140718	-17.554531	6.214735	0.0		True	0.0	None	0.0	None	0.0	None	0.0	None	0.0	None	0.0	None	0.0	None	0.0	None	1.1128e-06	12
2014-02-19 03:48:00	71.29608491012745	453660811.3449	2.585365463738105e+21	1508063803502.9326	1.0353665232793587	245288651926.2689	8.470839899558347e+20	-3.420439073813349e+23	1467.0285014718759	-0.5677251387003573	19.116656370818134	1.2810851544837978	30.71340696990073	146.17053145313915	151.40369944749392	65.9670335145711	0.000780230989660406	-1.4069850184090905e+23	-0.35951557401135353	0.0029115411119583555	6.909746508212737e+22	0.2335316453495801	-0.11468810612042064	0.0	260.334991	262.196503	-26.081738	-10.0175	-17.553960999999994	6.340028	0.0		True	0.0	None	0.0	None	0.0	None	0.0	None	0.0	None	0.0	None	0.0	None	0.0	None	9.6637e-07	12
2014-02-19 04:00:00	68.21184983129328	443372318.12970006	2.52883359926606e+21	1463234177178.6875	7.235110941279354	444247239354.4924	8.288849054343654e+20	-3.276848461856842e+23	1460.2597224604447	-0.5565128901726343	18.84269207363791	1.763803680981595	30.88824192602641	143.53325733388996	148.3345271447151	65.97300455034733	-0.005548397961103799	-1.392727024908835e+23	0.6625925132551189	-0.0209678496760936	7.042620966751908e+22	0.23652926001172256	-0.11960606034178953	0.0	260.336731	262.087219	-26.081367	-9.911898	-17.55171	6.467585	0.0		True	0.0	None	0.0	None	0.0	None	0.0	None	0.0	None	0.0	None	0.0	None	0.0	None	8.068e-07	12
2014-02-19 04:12:00	74.20610199906649	468130245.5945	2.802282478234974e+21	1617250913760.0215	0.8797048104917012	100843862263.87544	8.818835436190635e+20	-3.421493512845583e+23	1489.1195421880475	-0.5503468960231757	19.253436451228005	1.55257586450247	31.1555863792565	144.55821960299096	148.63244441554562	67.34197478203559	-0.0006208220257527885	-1.474169948338154e+23	0.1384100885130235	-0.002424216355050522	6.5287801422876955e+22	0.237120091630337	-0.10501536456626163	0.0	260.33850099999995	261.97796600000004	-26.081625	-9.809541	-17.549814	6.594696000000001	0.0		True	0.0	None	0.0	None	0.0	None	0.0	None	0.0	None	0.0	None	0.0	None	0.0	None	8.031600000000002e-07	12
2014-02-19 04:24:00	70.934530160027	463700287.7466	2.6071645011192693e+21	1537410031739.613	0.541630813020169	79172777904.30945	8.565119035980667e+20	-3.354122573589971e+23	1427.7531964819134	-0.5446643737720039	18.744883019528512	1.5272727272727271	31.88003182925936	151.12913992435978	155.32914466605837	70.07829251020941	0.0003939133185601229	-1.5117669150129236e+23	-0.11198254481653908	0.001512383265680651	6.007779477960143e+22	0.24549060506558776	-0.09755825481419857	0.0	260.340332	261.868744	-26.084772	-9.684618	-17.55101	6.721597	0.0		True	0.0	None	0.0	None	0.0	None	0.0	None	0.0	None	0.0	None	0.0	None	0.0	None	8.0743e-07	12
2014-02-19 04:36:00	74.2818018027392	487421104.5208	2.8208340127782934e+21	1596446954910.4846	0.3720897869242897	103710923332.73888	8.931093363157571e+20	-3.492034642171328e+23	1502.1580617090747	-0.5394630763629136	18.88938352095921	1.272984441301273	31.772950073370083	154.80442988014005	157.38252644833562	71.87513436108374	-0.0002631469497342926	-1.639918213926754e+23	-0.14264019256887164	-0.0009917544069666623	5.949157390740496e+22	0.2533409359646029	-0.09190489432775142	0.0	260.342133	261.759521	-26.085423	-9.649344	-17.577806	6.848441	0.0		True	0.0	None	0.0	None	0.0	None	0.0	None	0.0	None	0.0	None	0.0	None	0.0	None	9.6917e-07	12
2014-02-19 04:48:00	74.96575283599046	484700410.0894	2.914010298993659e+21	1597106640987.7441	0.27928059441553954	45348534543.78128	8.815157099792493e+20	-3.426118277238792e+23	1577.4348002816225	-0.5322509311193213	19.00354175434968	0.9345794392523364	31.770227348021287	157.43039706704369	160.22132903596602	71.70651614602784	-0.0002007768471714878	-1.633169321077509e+23	-0.06340053992127928	-0.0007520859485761257	4.466099364680255e+22	0.2537145018004378	-0.06938130423326301	0.0	260.343933	261.65033	-26.08704	-9.549515	-17.577251	6.974497	0.0		True	0.0	None	0.0	None	0.0	None	0.0	None	0.0	None	0.0	None	0.0	None	0.0	None	8.853199999999998e-07	12
2014-02-19 05:00:00	70.6523811991173	479075910.98890007	2.847644219481682e+21	1563916935004.2534	0.4506794763262774	107951643597.64177	8.992122294245474e+20	-3.4412275041148024e+23	1472.6920028105158	-0.5408746491069213	19.025929500969912	1.0302197802197801	31.365065952413158	148.9242299520191	150.99722999556272	68.66287942861858	-0.00030953260736694884	-1.6418910665332017e+23	0.13940519273260862	-0.0012210294321764851	4.771138788140376e+22	0.2580640929496965	-0.07499033454748757	0.0	260.345795	261.541138	-26.086607	-9.449916	-17.575806	7.101546000000001	0.0		True	0.0	None	0.0	None	0.0	None	0.0	None	0.0	None	0.0	None	0.0	None	0.0	None	9.6808e-07	12
2014-02-19 05:12:00	66.96016813570026	483949024.0321	2.8750418736160446e+21	1502504834401.1533	4.2849832986918654	224611445362.958	9.084491193326748e+20	-3.4571205648848007e+23	1469.7005724292346	-0.5379009892530198	18.937433036807548	1.3577732518669383	31.614725974852718	148.4627712773736	150.92703810411498	67.07710420006832	-0.0029090178538301865	-1.6348521988358842e+23	0.2965292624181835	-0.011514660416777615	4.2471920097528874e+22	0.25437024787869955	-0.06608299423510923	0.0	260.347687	261.431976	-26.087227	-9.350039	-17.603842	7.198499000000001	0.0		True	0.0	None	0.0	None	0.0	None	0.0	None	0.0	None	0.0	None	0.0	None	0.0	None	8.899299999999998e-07	12
2014-02-19 05:24:00	70.97494752483958	484264727.9588001	2.9192633628643825e+21	1546229421924.4092	7.034587319449668	594448632708.541	9.13823592327397e+20	-3.548018645287013e+23	1508.694281709376	-0.5516842364429427	19.030101455301935	0.8236101578586137	30.949380587949534	147.6087293701707	149.1380834898633	68.02024881663388	-0.004828131310535118	-1.5856667516942832e+23	0.7933866712059584	-0.01872330166302475	4.124471390519424e+22	0.24655658231205746	-0.06413173315286802	0.0	260.349518	261.322815	-26.062784	-9.250585	-17.631563	7.324273	0.0		True	0.0	None	0.0	None	0.0	None	0.0	None	0.0	None	0.0	None	0.0	None	0.0	None	9.0359e-07	12
2014-02-19 05:36:00	65.73676852283182	466970471.7373	2.7102311389634814e+21	1438195377679.4805	9.496829433349863	723502920366.1471	8.887677025647867e+20	-3.4757059513883225e+23	1444.2810124773378	-0.5604555071287927	18.142250067667014	0.7784854918612879	30.171759965932583	147.28066720649	149.62355011672994	65.80781887139425	-0.006721039938676478	-1.538897920728891e+23	0.9956814933658208	-0.026065605861669616	3.5168150086894846e+22	0.248146369872586	-0.056708431804650176	0.0	260.351349	261.213654	-26.06492	-9.149636	-17.633087	7.424026	0.0		True	0.0	None	0.0	None	0.0	None	0.0	None	0.0	None	0.0	None	0.0	None	0.0	None	8.438e-07	12
2014-02-19 05:48:00	69.9190377462867	480025694.8144	2.7491591629346534e+21	1514891662768.28	10.58970116959796	827964351667.8434	9.153615662660564e+20	-3.566690105252346e+23	1402.4939169559555	-0.5594848766594472	18.226580534252104	0.8130081300813009	30.777601893655852	148.8534522136772	151.02190916582157	66.12351087563694	-0.007174594288345501	-1.629095896731772e+23	1.0907877943361035	-0.028292286560403862	2.7949482521468047e+22	0.2555463160388308	-0.0438426449166168	0.0	260.353241	261.104492	-26.065937	-9.049693	-17.661448	7.550322	0.0		True	0.0	None	0.0	None	0.0	None	0.0	None	0.0	None	0.0	None	0.0	None	0.0	None	9.8093e-07	12
2014-02-19 06:00:00	72.94543069722062	478314483.5984	2.728609733569951e+21	1545062639466.894	8.72044243534759	556812766508.5275	8.951414184181182e+20	-3.606235419293865e+23	1455.1046569623495	-0.5677119633571314	18.23086170715901	0.7790368271954674	30.54637522721448	151.47625699023843	153.71161014825725	67.34344710599521	-0.006175950733249001	-1.5933803716715932e+23	0.7668013465954344	-0.02325887534177896	3.3346267177700433e+22	0.25083806074799225	-0.05249539369726079	0.0	260.355164	260.995361	-26.064793	-8.950171000000003	-17.659868	7.6760009999999985	66560.0		False	0.0	None	0.0	None	0.0	None	0.0	None	0.0	None	0.0	None	0.0	None	0.0	None	9.9984e-07	12
2014-02-19 06:12:00	69.79603528764896	469748096.0732	2.6575813080001854e+21	1478207768499.1443	12.514565110915743	1033574193750.4656	8.805739267055514e+20	-3.502648750972579e+23	1422.2631190577677	-0.5614602889219611	18.188888947086106	0.9950248756218906	30.883879748211182	150.8110806382669	153.38819191887242	67.27982994108135	-0.008894502566393564	-1.55085191591261e+23	1.4284001134430997	-0.034123202670496774	3.5298176527110624e+22	0.2485952279804511	-0.0565815352904767	0.0	260.357025	260.88622999999995	-26.066225	-8.851431	-17.660763	7.772326	66560.0		False	0.0	None	0.0	None	0.0	None	0.0	None	0.0	None	0.0	None	0.0	None	0.0	None	9.4095e-07	12
2014-02-19 06:24:00	76.28774876083283	497312712.4159	2.78621660871554e+21	1616609433398.1743	14.787341740307115	1139149716955.6167	9.295609612501497e+20	-3.766962400964905e+23	1424.2939625613794	-0.5703602201604031	17.98367826795871	1.9008825526137128	30.7008676081904	152.4500358548787	155.7018921611114	68.11157582349749	-0.01003892854060225	-1.587534661683498e+23	1.5037476736728472	-0.03786964719386171	3.999966061817629e+22	0.24037049557971066	-0.06056395792716324	0.0	260.358856	260.777069	-26.067596	-8.751600999999999	-17.688303	7.898602	0.0		True	0.0	None	0.0	None	0.0	None	0.0	None	0.0	None	0.0	None	0.0	None	0.0	None	9.48e-07	12
2014-02-19 06:36:00	75.94808393272899	485907524.3086	2.6248719781763644e+21	1604804468995.2236	19.71470929447449	1517770904851.7727	9.202552616498696e+20	-3.727825338653497e+23	1340.9053846502404	-0.5776827820351411	17.702082827964425	1.2211668928086838	30.146074782283392	150.05620206763174	154.59090137975238	65.00560152157777	-0.01337497238431105	-1.5292748933492173e+23	2.002169501675004	-0.05143361658673511	4.37204178505681e+22	0.2369842185807905	-0.06775138404091048	0.0	260.360779	260.667938	-26.06624	-8.646163	-17.71454	7.996766	0.0		True	0.0	None	0.0	None	0.0	None	0.0	None	0.0	None	0.0	None	0.0	None	0.0	None	8.888500000000002e-07	12
2014-02-19 06:48:00	78.78122477044647	489829074.04630005	2.782493056712256e+21	1713986338965.5625	19.02161145741107	1325429610270.6465	9.463822373798256e+20	-3.747112575494217e+23	1340.4871701111	-0.5760228770549257	18.27379521363305	1.2795905310300704	30.648837671608085	147.48803446879538	150.5715226305733	63.888928875312516	-0.012169936952918143	-1.5590215425459072e+23	1.6488672619083602	-0.04927994624582463	4.0536287404306605e+22	0.23965975300580816	-0.06231419106129835	0.0	260.362701	260.558807	-26.066298	-8.517388	-17.714817	8.095844	0.0		True	0.0	None	0.0	None	0.0	None	0.0	None	0.0	None	0.0	None	0.0	None	0.0	None	8.597199999999998e-07	12
2014-02-19 07:00:00	93.24082855336376	514416020.3505	2.879301153209939e+21	2064117035785.6853	21.835120557851067	1601312320118.6367	1.0201548118007146e+21	-4.028087009689666e+23	1270.8535879023655	-0.5896194656088635	18.451166424132012	1.9343493552168816	29.983865344655186	146.30147074127854	151.42287320889073	61.1994791189705	-0.012799015567321844	-1.5585005277538066e+23	1.8250779490583584	-0.05340450970447193	4.352195346043099e+22	0.2281286988376469	-0.06370614855107155	0.0	260.364563	260.449677	-26.043066	-8.417862	-17.686872	8.220525	0.0		True	0.0	None	0.0	None	0.0	None	0.0	None	0.0	None	0.0	None	0.0	None	0.0	None	8.437099999999998e-07	12
2014-02-19 07:12:00	90.66418998293408	495934375.8713	2.80844352046499e+21	1972602632433.08	26.237313875459773	1841266929962.2468	9.776507133435482e+20	-3.831324171146915e+23	1293.4077661139647	-0.5817176135779043	18.83777693642989	1.529051987767584	30.228131626936488	142.50027700651196	147.0689644877533	60.43161900259072	-0.016047286773981515	-1.4639837146344716e+23	2.189679788662163	-0.06689539199668773	4.636990530668844e+22	0.22227957613389435	-0.07040435487025212	0.0	260.366455	260.340515	-26.04428900000001	-8.316578999999999	-17.687885	8.319124	67584.0		False	0.0	None	0.0	None	0.0	None	0.0	None	0.0	None	0.0	None	0.0	None	0.0	None	9.4276e-07	12
2014-02-19 07:24:00	97.36317014368164	502806363.2912	2.91429450884102e+21	2158173456293.048	24.394005245341702	1923946333617.8708	1.0013959407885852e+21	-3.989071421518833e+23	1306.2057501699292	-0.5973907336790004	19.455776965501727	2.3214285714285716	29.73923535153861	142.851141758721	147.9424850678889	59.18291682943961	-0.0145202412174653	-1.4459848920494177e+23	2.226706571773172	-0.06074369167179273	5.260710889754706e+22	0.2165461292295575	-0.0787827443036127	0.0	260.368317	260.231354	-26.044775	-8.186127	-17.687862	8.443355	0.0		True	0.0	None	0.0	None	0.0	None	0.0	None	0.0	None	0.0	None	0.0	None	0.0	None	2.0702e-06	12
2014-02-19 07:36:00	86.9962349133392	467767758.6141	2.6388164414770895e+21	1903746495919.3936	16.543470529209884	1306154452435.5386	9.251400032395027e+20	-3.654661010283147e+23	1295.302869887529	-0.5883074142656503	18.79857053661544	1.7601043024771839	29.656830223482785	140.86824237744597	146.6009496897025	58.98649551771634	-0.010784530983839559	-1.3838722517919433e+23	1.6555679850762055	-0.04453400671608379	4.582513718574487e+22	0.22276821402448616	-0.07376680871429324	0.0	260.370209	260.122223	-26.043571	-8.087247	-17.687302	8.544971	0.0		True	0.0	None	0.0	None	0.0	None	0.0	None	0.0	None	0.0	None	0.0	None	0.0	None	1.7096000000000001e-06	12
2014-02-19 07:48:00	92.97588765716377	486464682.9518	2.7659279841885857e+21	1981882879242.837	21.392191562958466	1522299369995.2998	9.519200977172288e+20	-3.885424573005788e+23	1357.6973669673691	-0.6014155229525434	18.49613075327397	2.1512385919165578	29.064300030485626	145.00580493053954	151.4194956615843	58.1673133457989	-0.013945366077547892	-1.4405160993574493e+23	1.9295303936505108	-0.05491992360763093	4.4784943233688064e+22	0.2229740217415688	-0.06932153629339892	0.0	260.37204	260.013031	-26.044146	-7.985467999999999	-17.687273	8.672941999999999	0.0		True	0.0	None	0.0	None	0.0	None	0.0	None	0.0	None	0.0	None	0.0	None	0.0	None	1.0131e-06	12
2014-02-19 08:00:00	81.74484219222559	441387338.6607	2.3970619165927874e+21	1718706494720.4214	16.69174630825095	1027697486318.3594	8.516926896076744e+20	-3.501034156893215e+23	1344.9750226020199	-0.5972607284935071	18.30724614579942	1.564828614008942	28.778865698695625	143.16879715400603	149.3327576291721	59.4003704257185	-0.01243796297187105	-1.3428856990466337e+23	1.4889820968248682	-0.04735175567019834	3.2543971865683823e+22	0.2290902787443352	-0.05551855672787534	0.0	260.373932	259.90387000000004	-26.042116	-7.854727	-17.685141	8.800599	0.0		True	0.0	None	0.0	None	0.0	None	0.0	None	0.0	None	0.0	None	0.0	None	0.0	None	8.4995e-07	12
2014-02-19 08:12:00	82.92814766903085	456603998.4862	2.5040939322248837e+21	1756963369066.0803	15.20713096483997	1136183406618.685	8.860367929398551e+20	-3.6728089901886796e+23	1356.5108244814764	-0.6056839710284719	18.292484994509245	1.1510791366906474	28.778766766685766	145.09246359682533	152.1813399490044	58.48487574054587	-0.010940381989093504	-1.4062790524963482e+23	1.589317705991086	-0.0414837013973081	3.006981550952114e+22	0.2319098769267575	-0.04958821794041806	0.0	260.375763	259.794678	-26.014982	-7.753467999999999	-17.502270000000006	8.928098	0.0		True	0.0	None	0.0	None	0.0	None	0.0	None	0.0	None	0.0	None	0.0	None	0.0	None	8.217900000000002e-07	12
2014-02-19 08:24:00	76.21311839180149	453296665.4469	2.5185215950006245e+21	1592461559960.105	10.980035534780054	798835377779.4895	8.595500063757905e+20	-3.449817528275185e+23	1387.281652046529	-0.5730612966212731	18.63378584417635	1.097293343087052	30.417954517880386	144.92642860807047	149.875517867629	63.37458193340462	-0.00803221326611562	-1.4795116482918678e+23	1.121024514436375	-0.030796798473161763	1.6396163699261563e+22	0.2457668721859376	-0.02723624293778584	0.0	260.377563	259.685455	-26.013699	-7.653678999999999	-17.470959	9.056184	0.0		True	0.0	None	0.0	None	0.0	None	0.0	None	0.0	None	0.0	None	0.0	None	0.0	None	8.0517e-07	12
2014-02-19 08:36:00	75.83652438744082	465357678.9625	2.78717507178752e+21	1591722557609.5063	8.106939533818494	586237571863.7351	8.719888397446691e+20	-3.5121347618648874e+23	1529.6696924291246	-0.5682923517808997	19.366049147860515	1.8221574344023324	30.408232430172788	148.1561578766713	151.516930408732	65.4577593188082	-0.005908848056719019	-1.5357720555862333e+23	0.7816018369586009	-0.0222163659369388	8.913520078287087e+21	0.2485005765567667	-0.014422810146517116	0.0	260.37933300000003	259.576233	-26.014809	-7.552242999999999	-17.441145000000002	9.182476	0.0		True	0.0	None	0.0	None	0.0	None	0.0	None	0.0	None	0.0	None	0.0	None	0.0	None	8.329399999999998e-07	12
2014-02-19 08:48:00	78.35881441126497	476681264.5325	2.9519138275613223e+21	1654147650151.2104	9.243847434292745	430546790983.83417	8.884653740077334e+20	-3.563301910166084e+23	1569.7406651613376	-0.5628750842331597	19.851687088592072	2.4011299435028253	31.1148068333718	147.19238056054863	150.8306779486704	63.64728077095757	-0.006528140843427078	-1.586728707237048e+23	0.5710387001036292	-0.024815921937642454	-3.6493857912138713e+21	0.25064675328047004	0.0057647327855333535	0.0	260.381165	259.46701	-26.016533	-7.44945	-17.442482000000002	9.283575	0.0		True	0.0	None	0.0	None	0.0	None	0.0	None	0.0	None	0.0	None	0.0	None	0.0	None	8.3447e-07	12
2014-02-19 09:00:00	77.11295907930622	493724005.4706	3.0105603026587154e+21	1615532263270.0933	12.20985124552043	779411184979.56	9.126169728403234e+20	-3.6927743165286345e+23	1586.3630616231023	-0.5631913939735665	19.46165460133529	2.6592022393282013	30.845601910649748	147.5324057482023	150.98082682594676	65.22166158864746	-0.008544332572092674	-1.658635358050711e+23	1.0605217238899791	-0.031640546019512765	-1.0042364045802219e+22	0.2529613454072512	0.01531578298849859	0.0	260.38293500000003	259.357727	-26.014641	-7.338902	-17.439394	9.40934	0.0		True	0.0	None	0.0	None	0.0	None	0.0	None	0.0	None	0.0	None	0.0	None	0.0	None	9.158e-07	12
2014-02-19 09:12:00	79.58588333014201	504203866.622	3.200336090052908e+21	1692425384794.6284	8.924198678786219	693832497661.0297	9.38972063788417e+20	-3.71615560414183e+23	1611.9142388408734	-0.5549773438155353	19.55138667854701	2.4749163879598663	30.73851616914932	150.27000745959919	151.60077957833647	68.65371117809656	-0.005969363664739946	-1.6744490252806158e+23	0.9024064977078228	-0.02276506991868304	-8.953617143414534e+21	0.2500652209958649	0.01337149244841953	0.0	260.384674	259.24847400000004	-26.014778	-7.239242999999999	-17.377981	9.509377	0.0		True	0.0	None	0.0	None	0.0	None	0.0	None	0.0	None	0.0	None	0.0	None	0.0	None	1.0392e-06	12
2014-02-19 09:24:00	78.76435289781287	502724356.0702	3.1599934351250686e+21	1672811843343.724	15.191519268050252	1291509299468.4756	9.348576827045507e+20	-3.697353540257642e+23	1608.8127140121326	-0.5537943703207482	19.348412528496922	1.6903313049357669	30.517334861526297	152.3837514978098	153.8897581383707	67.26398075800078	-0.010271480235328095	-1.627668723828694e+23	1.6825580226052252	-0.03889625013434708	-1.7322350913369961e+22	0.2437943156338453	0.025945640069562518	0.0	260.386353	259.13916	-26.016153	-7.139675	-17.348034	9.636042	0.0		True	0.0	None	0.0	None	0.0	None	0.0	None	0.0	None	0.0	None	0.0	None	0.0	None	1.0249e-06	12
2014-02-19 09:36:00	75.78945707931045	495468806.0401	3.0505400368569736e+21	1585385092989.2598	8.453642578688509	564120000475.0197	9.179225405935709e+20	-3.691024067567099e+23	1608.5554318295276	-0.5609421433679647	18.904722205184363	1.96078431372549	30.088357920081574	155.14646811019296	155.59039228231148	69.20445102254153	-0.005919917772190832	-1.6332091193251546e+23	0.7681409330494541	-0.02186103674337599	-2.225907109448473e+22	0.24820640754212675	0.03382814855864708	0.0	260.388092	259.029846	-26.016354	-7.040414	-17.347271	9.762282	0.0		True	0.0	None	0.0	None	0.0	None	0.0	None	0.0	None	0.0	None	0.0	None	0.0	None	1.0173e-06	12
2014-02-19 09:48:00	71.33107732380323	481540665.9029	2.831607502118165e+21	1532335809297.7017	11.497949714165454	966073641210.6248	9.020371219945133e+20	-3.596966638344471e+23	1478.615524813337	-0.562459049582979	18.651244056863856	1.1095700416088763	30.61444035227096	149.093589801481	150.21806281203143	65.98805826368853	-0.007973612839227083	-1.6042539366950655e+23	1.3027102624775704	-0.030563901251316875	-2.0135288061970023e+22	0.2508578019335096	0.031485626988266145	0.0	260.389801	258.920502	-26.016975	-6.939838000000001	-17.347535999999998	9.891821	0.0		True	0.0	None	0.0	None	0.0	None	0.0	None	0.0	None	0.0	None	0.0	None	0.0	None	1.0457e-06	12
2014-02-19 10:00:00	73.10857283776608	477817130.8274	2.796283109752013e+21	1519212214161.3567	15.586331367046945	969698519429.1736	8.868074126968051e+20	-3.666798343708986e+23	1536.9088576569138	-0.5778469850251903	18.16466778711429	0.8759124087591241	29.69536582307779	152.7578082855513	153.86996974242808	67.66353889622695	-0.011376884209523316	-1.538804835765361e+23	1.3763374493895573	-0.0413473138244564	-2.6006740041999514e+22	0.2424986736493868	0.04098375453175997	0.0	260.39141800000004	258.811127	-26.018614000000003	-6.840642	-17.347664	10.018183	0.0		True	0.0	None	0.0	None	0.0	None	0.0	None	0.0	None	0.0	None	0.0	None	0.0	None	9.424899999999999e-07	12
2014-02-19 10:12:00	68.36184338274923	445810221.0174	2.601645387772584e+21	1455849682732.52	15.26485381515386	1093449452415.5334	8.294916930273398e+20	-3.3057446588375064e+23	1479.6109517495875	-0.5583502377117655	18.260041861302867	0.7552870090634441	31.063735094215733	154.27544805275278	155.04523812315122	68.60256140496779	-0.011529345781838262	-1.4757625216020154e+23	1.6059266862515873	-0.04394480608878985	-1.7038295579460607e+22	0.2492607384359697	0.028778194835957473	0.0	260.39306600000003	258.701752	-26.01804	-6.741650999999999	-17.346167	10.146082	0.0		True	0.0	None	0.0	None	0.0	None	0.0	None	0.0	None	0.0	None	0.0	None	0.0	None	1.5343e-06	12
2014-02-19 10:24:00	67.10598096804274	453172039.813	2.5178415698248603e+21	1414787566180.82	14.571204337565293	939393693797.9812	8.456793779837833e+20	-3.459647102165191e+23	1431.9502459085645	-0.5748522144444246	17.763583723706454	0.5287009063444109	29.880538955153714	153.6640465681744	155.2361816558801	66.33047643659393	-0.011005441342571972	-1.5613856146360645e+23	1.3796902066260328	-0.040834057140767335	-2.2242263408290463e+22	0.2594385934951217	0.03695756820546798	0.0	260.394653	258.59231600000004	-26.016872	-6.642395	-17.344229000000002	10.272226	0.0		True	0.0	None	0.0	None	0.0	None	0.0	None	0.0	None	0.0	None	0.0	None	0.0	None	2.5924e-06	12
2014-02-19 10:36:00	65.52413038663303	434087353.4311	2.4011150660894217e+21	1410773404748.08	12.318257934359975	861258636460.624	8.125208575484591e+20	-3.31454414721464e+23	1404.8240631476224	-0.5749554383309498	17.969930277967826	0.9324009324009324	30.187035171023922	152.112083637216	153.35248158607254	66.96981742941874	-0.009571295986293688	-1.4286371939178496e+23	1.2987161138151169	-0.03603577656452143	-2.2891229948614678e+22	0.2478177051089203	0.039708136517356274	0.0	260.396271	258.48288	-26.015682	-6.543761	-17.371958	10.399772	0.0		True	0.0	None	0.0	None	0.0	None	0.0	None	0.0	None	0.0	None	0.0	None	0.0	None	1.8375e-06	12
2014-02-19 10:48:00	70.83482856794078	462395592.5813	2.696432849835782e+21	1485043801970.3037	15.095090072185807	1051664852488.73	8.584803492553945e+20	-3.646196863169228e+23	1535.8390462792968	-0.5937641571413269	18.235598491061488	1.2859304084720122	29.35287253982358	155.53049339659896	156.08484980625062	67.04744495035767	-0.011418373730851595	-1.4465503764322191e+23	1.5469738074961248	-0.04096641526750763	-2.780310915007381e+22	0.23556319015594576	0.045275914301711406	0.0	260.397827	258.373413	-26.017321	-6.443414	-17.342699	10.501378	0.0		True	0.0	None	0.0	None	0.0	None	0.0	None	0.0	None	0.0	None	0.0	None	0.0	None	1.0686e-06	12
2014-02-19 11:00:00	64.46149651969604	459240895.6543	2.5549062648942617e+21	1412439537166.1768	16.59927125520716	1198951259290.7793	8.739007670526594e+20	-3.490050675524146e+23	1334.1272573925344	-0.5722406747092568	18.71248379412323	1.8030513176144245	30.838573080313765	144.5607053858214	147.07279041466728	62.1367768307271	-0.011511283810823274	-1.4443598047033328e+23	1.6168938817244385	-0.0459789908212669	-2.4965941452304833e+22	0.2368221856956952	0.040935013584790216	0.0	260.399292	258.263885	-26.016771	-6.311121	-17.341312	10.627719	0.0		True	0.0	None	0.0	None	0.0	None	0.0	None	0.0	None	0.0	None	0.0	None	0.0	None	1.2253e-06	12
2014-02-19 11:12:00	71.6965163395338	464438762.7658	2.8353527431129937e+21	1536387911946.7944	17.192170348176273	1183953090592.5034	8.868233137409184e+20	-3.5914535067814297e+23	1485.7226494838876	-0.5822764221107212	18.944897687210048	2.4356297842727903	29.92823338321089	150.44888296892333	152.1874894146143	63.793380287640474	-0.0119639320446599	-1.5615231408721363e+23	1.6022542903593742	-0.04678965956144078	-2.6144826218448643e+22	0.25316716638355136	0.042388174699852316	0.0	260.400818	258.154358	-26.017431	-6.214197	-17.342062	10.750043	0.0		True	0.0	None	0.0	None	0.0	None	0.0	None	0.0	None	0.0	None	0.0	None	0.0	None	1.0126e-06	12
2014-02-19 11:24:00	70.74488130371596	457152434.4731	2.707379195564926e+21	1503095033981.5608	19.17887604227645	1431052454431.3074	8.751261308828831e+20	-3.545027895381376e+23	1434.6382816933753	-0.5839101519132501	18.813117908523388	1.9000703729767767	30.009959177613396	145.855163286274	147.4750622591867	62.13948234397184	-0.013496745983305029	-1.5271872532692342e+23	1.9585025831060936	-0.05297385380236602	-2.439750255689129e+22	0.2515467204695956	0.040185718828499424	0.0	260.402313	258.0448	-26.018879	-6.115176	-17.342873	10.850581	0.0		True	0.0	None	0.0	None	0.0	None	0.0	None	0.0	None	0.0	None	0.0	None	0.0	None	1.0456e-06	12
2014-02-19 11:36:00	75.09210000193116	478795916.3263	2.830806673402762e+21	1608910710310.7188	14.245304356510115	1206814392769.3062	9.385925382672064e+20	-3.752707296914761e+23	1380.5444858001003	-0.5901762722995437	18.85638358965653	1.1010362694300515	29.532289290116754	142.7250047518308	144.3786318348618	62.23374624828863	-0.009226233391522095	-1.539691223629818e+23	1.5200758293412269	-0.03742019287911496	-2.225181048444882e+22	0.2421423135242217	0.0349947105504994	0.0	260.403717	257.935211	-26.017569	-5.986718	-17.340744	10.977609	0.0		True	0.0	None	0.0	None	0.0	None	0.0	None	0.0	None	0.0	None	0.0	None	0.0	None	1.0411e-06	12
2014-02-19 11:48:00	73.82660439337292	477460830.4209001	2.7657954001471107e+21	1623145179273.479	14.452648311192501	1310222762018.6533	9.310781649017394e+20	-3.7202017494967e+23	1358.5179375953794	-0.5867001855698987	18.60603083261755	1.6960208741030658	30.090066516578368	144.14177988686956	146.49798529242344	61.81939687799297	-0.009427689700712654	-1.500537902582521e+23	1.662205313689142	-0.038154415849973033	-2.216674376641475e+22	0.2366446567095279	0.03495840698154445	0.0	260.40509	257.825592	-25.98925	-5.8825400000000005	-17.338785	11.108581	0.0		True	0.0	None	0.0	None	0.0	None	0.0	None	0.0	None	0.0	None	0.0	None	0.0	None	9.2575e-07	12
2014-02-19 12:00:00	72.59313576095424	471512189.3368	2.805965149047768e+21	1677157801939.2563	14.51251927810679	1413725012876.0562	9.266275391498589e+20	-3.552326236390192e+23	1349.2051191790792	-0.5672929473361625	18.78810586892652	1.7879948914431671	30.342689011887067	141.11718438993827	142.76356217864995	62.950537540500825	-0.009267253689723365	-1.4712127780439335e+23	1.6395952350224308	-0.039276221590309315	-1.7981331302201088e+22	0.2349470677736177	0.028715500076984483	0.0	260.406464	257.715912	-25.990799	-5.784271	-17.338306	11.236529	0.0		True	0.0	None	0.0	None	0.0	None	0.0	None	0.0	None	0.0	None	0.0	None	0.0	None	9.1841e-07	12
2014-02-19 12:12:00	70.39090683885155	448083289.1461	2.568566128541197e+21	1638929594016.3718	16.8862203592636	1524315620354.2866	9.03235216907117e+20	-3.418046463944601e+23	1242.1946776439245	-0.5743898275362409	18.39314446024609	1.6698779704560054	30.332915788559962	140.82877530831982	143.39491840106476	60.779638753847905	-0.010845356685461528	-1.4587066817405436e+23	1.9040926135870084	-0.04787308616280876	-2.1493029619006744e+22	0.2451301608065247	0.03611822632114077	0.0	260.40783700000003	257.606232	-25.990068	-5.657381	-17.337128	11.364287	0.0		True	0.0	None	0.0	None	0.0	None	0.0	None	0.0	None	0.0	None	0.0	None	0.0	None	9.1444e-07	12
2014-02-19 12:24:00	73.69829527333852	454298142.6711	2.7261097413197834e+21	1745397861606.3066	13.201871267465947	1050130731061.0028	9.283648336775136e+20	-3.616535371189956e+23	1273.4027250637375	-0.5994310475441518	19.591530357194134	3.2258064516129035	29.834667019951524	137.87491786616408	140.53112942935087	57.44895299659649	-0.008189746443837437	-1.519233295697249e+23	1.267040316885402	-0.03633783142644808	-1.7338006833824262e+22	0.2518088480921216	0.0287372817683996	0.0	260.409119	257.496521	-25.991758	-5.554517	-17.337673000000002	11.492638	0.0		True	0.0	None	0.0	None	0.0	None	0.0	None	0.0	None	0.0	None	0.0	None	0.0	None	8.390900000000002e-07	12
