Timestamp	TOTUSJH	TOTBSQ	TOTPOT	TOTUSJZ	ABSNJZH	SAVNCPP	USFLUX	TOTFZ	MEANPOT	EPSZ	MEANSHR	SHRGT45	MEANGAM	MEANGBT	MEANGBZ	MEANGBH	MEANJZH	TOTFY	MEANJZD	MEANALP	TOTFX	EPSY	EPSX	R_VALUE	CRVAL1	CRLN_OBS	LAT_MIN	LON_MIN	LAT_MAX	LON_MAX	QUALITY	NOAA_AR	IS_TMFI	BFLARE	BFLARE_label	CFLARE	CFLARE_label	MFLARE	MFLARE_label	XFLARE	XFLARE_label	BFLARE_loc	BFLARE_label_loc	CFLARE_loc	CFLARE_label_loc	MFLARE_loc	MFLARE_label_loc	XFLARE_loc	XFLARE_label_loc	XR_MAX	XR_QUAL
2014-01-16 04:48:00	25.34662490607996	188999600.4939	1.3365150351224312e+21	566236951278.9678	3.292552958739149	256181457756.5597	3.812590037102617e+20	-1.5679177633602138e+23	1623.191193395112	-0.6246689406092713	22.360192803733746	3.2258064516129035	28.902230087800213	122.07693834730331	123.70352668872341	49.01742358724675	0.00531056928828895	-2.5330773829269787e+22	0.8115463343814003	0.021445540706016755	6.770637034033835e+22	0.10091949987754396	-0.2697467151743819	0.0	319.464417	349.326752	-14.90191	-31.246017	-12.969943	-27.363638	0.0		True	0.0	None	0.0	None	0.0	None	0.0	None	0.0	None	0.0	None	0.0	None	0.0	None	4.6057e-07	12
2014-01-16 05:00:00	23.84552889569231	192075811.1328	1.350248311544622e+21	547487629594.3456	3.719630408286682	305255986239.8365	3.9564085281204594e+20	-1.5752689774389728e+23	1547.5184170120444	-0.6175464043236025	22.156813427520145	2.13089802130898	29.37936115723048	119.25108678558836	120.4926638805405	49.37783329387949	0.005661537912156289	-2.8894335760421658e+22	0.9125332356463552	0.02394420161138903	6.789698473821599e+22	0.11327331020748525	-0.2661738369130308	0.0	319.467987	349.217773	-14.9052	-31.139236	-12.973351	-27.256813	0.0		True	0.0	None	0.0	None	0.0	None	0.0	None	0.0	None	0.0	None	0.0	None	0.0	None	5.2638e-07	12
2014-01-16 05:12:00	26.16845414990898	192818535.5874	1.3784009057505009e+21	600690308509.1487	4.220002991687903	331766083581.9441	3.9469220312814656e+20	-1.5805063846978022e+23	1606.6841099539984	-0.6172128242787924	21.95071956635497	2.0123839009287927	29.198150266805676	122.0373786036319	123.51954804752992	49.985566374987506	0.0065325123710339075	-2.7068189058755354e+22	1.0086538843223505	0.027066169533604245	6.903947990617532e+22	0.1057055737251014	-0.2696101249080179	0.0	319.471558	349.108765	-14.909228	-31.029211	-12.976118	-27.151176	0.0		True	0.0	None	0.0	None	0.0	None	0.0	None	0.0	None	0.0	None	0.0	None	0.0	None	5.221200000000001e-07	12
2014-01-16 05:24:00	26.01058096734927	186233731.9759	1.3808920882708236e+21	608975294710.0984	3.3097459666758917	222790571281.4594	3.865827220593948e+20	-1.4998453939319203e+23	1577.8357213636978	-0.6064229164162097	23.03000871423184	4.0971168437025804	29.987539391303805	119.24094317628807	120.4920208558284	47.65055745326093	0.005022376277201657	-2.990443910910972e+22	0.6639683896567604	0.022126178926724683	6.6667073598974815e+22	0.12091071020857785	-0.2695507241238992	0.0	319.475128	348.999786	-14.914794	-30.921701	-12.956043	-27.024714000000003	0.0		True	0.0	None	0.0	None	0.0	None	0.0	None	0.0	None	0.0	None	0.0	None	0.0	None	4.6939999999999995e-07	12
2014-01-16 05:36:00	24.601711706366004	181412254.9297	1.3005745082672894e+21	557360925485.0674	2.0464099409034304	130931042334.41196	3.676820524586881e+20	-1.496234695327362e+23	1643.147465702982	-0.6210415587412177	22.5408882671058	3.523489932885906	28.885145176576266	120.96027635295073	122.58600548526177	50.618557678188274	0.003433573726348038	-3.008220529990521e+22	0.4314457895115163	0.013917520250133682	6.183951707099728e+22	0.1248620936820272	-0.25667704534263364	0.0	319.478729	348.890839	-14.918748	-30.816462	-12.961411	-26.915537	0.0		True	0.0	None	0.0	None	0.0	None	0.0	None	0.0	None	0.0	None	0.0	None	0.0	None	4.5479e-07	12
2014-01-16 05:48:00	24.849729911467968	186559088.1145	1.3042854965183604e+21	558297338971.6238	2.5540090315629427	196251588005.4839	3.725255708046135e+20	-1.5123297171874372e+23	1650.605363499615	-0.6104043620689692	22.267284804110517	4.705882352941177	28.85465549823656	123.44154313842472	126.92825581748656	48.94512528839356	0.0042924521538872966	-3.3280793518725227e+22	0.6477691610748392	0.01700204165343321	5.891177879669626e+22	0.13432746382003918	-0.2377788807960635	0.0	319.482361	348.78186	-14.924226999999998	-30.706606	-12.965626	-26.809992	0.0		True	0.0	None	0.0	None	0.0	None	0.0	None	0.0	None	0.0	None	0.0	None	0.0	None	1.1423999999999999e-06	12
2014-01-16 06:00:00	30.52445383574101	190296945.98580003	1.4240009751317064e+21	673144286561.5669	2.133490419759353	206492917907.12524	3.822480449244916e+20	-1.5270784220519332e+23	1675.3975796619434	-0.6042506037641842	23.878757545012995	5.78125	30.214274515806604	123.36267518512224	126.8380436029127	49.997756213692476	0.003333578780873989	-3.5592307883251335e+22	0.6336419394707409	0.013977086818863916	5.957720660283159e+22	0.14083542283910253	-0.23574141668488746	0.0	319.48596200000014	348.672913	-14.929129	-30.596649	-12.970633	-26.704346	66560.0		False	0.0	None	0.0	None	0.0	None	0.0	None	0.0	None	0.0	None	0.0	None	0.0	None	1.1312999999999999e-06	12
2014-01-16 06:12:00	28.356474238966907	178847564.9939	1.24180687562517e+21	607218162473.6721	2.514114153864769	200668281658.8177	3.5013442184913564e+20	-1.4794347652100637e+23	1693.9573854229966	-0.622874120033446	22.848690000820042	4.3478260869565215	28.73094625851461	127.82470514836443	131.08003845057942	51.15020514245942	0.004554554626566611	-3.278619017198167e+22	0.7139263894090873	0.01732395801193529	5.767811378570999e+22	0.13803697082731892	-0.24283736744797896	0.0	319.489563	348.563965	-14.929749	-30.49189	-12.973969	-26.57667	66560.0		False	0.0	None	0.0	None	0.0	None	0.0	None	0.0	None	0.0	None	0.0	None	0.0	None	1.0072e-06	12
2014-01-16 06:24:00	26.359337106890443	171160104.7153	1.1961894263589901e+21	595210476438.2211	2.453343440739788	237014610098.026	3.4200388099393795e+20	-1.4270667387652596e+23	1640.6468131038505	-0.6278114397571672	22.86623805475924	2.3679417122040074	28.59192037112041	122.38027467614569	126.75980484184387	48.29750152865297	0.004468749436684495	-2.7975240723617007e+22	0.8478365829279816	0.017610906233766096	5.653391392674944e+22	0.12307186257766413	-0.24871042771391064	0.0	319.4932560000001	348.455048	-14.914139000000002	-30.38120300000001	-12.978128	-26.470282	0.0		True	0.0	None	0.0	None	0.0	None	0.0	None	0.0	None	0.0	None	0.0	None	0.0	None	8.9979e-07	12
2014-01-16 06:36:00	25.798649812975192	173777974.6299	1.1919773943026234e+21	579730273774.2126	2.3646422976630967	176080596488.9467	3.45591733422758e+20	-1.449547981307885e+23	1637.8534311468827	-0.6280951478399838	22.796078580464915	3.6496350364963503	28.309867913983744	125.4108035221566	129.02464916160926	50.782505196166106	0.004315040689166235	-3.096321143632319e+22	0.5730638596368733	0.016715560209077125	5.691246052156236e+22	0.13416487839989172	-0.24660405013275224	0.0	319.496857	348.3461	-14.919156	-30.263128	-12.981951	-26.364996	0.0		True	0.0	None	0.0	None	0.0	None	0.0	None	0.0	None	0.0	None	0.0	None	0.0	None	7.2801e-07	12
2014-01-16 06:48:00	27.651388180547592	170211494.58390003	1.1792534670435676e+21	602045498899.7977	2.698593072304229	184456028931.8135	3.407476337471425e+20	-1.401340814584024e+23	1626.3048201151532	-0.6199295184820076	22.40337088526687	1.6483516483516485	29.036210374464087	125.17589869032948	128.96919430443353	50.42119105648961	0.0049424781544033505	-3.0562089752168436e+22	0.6634409167955502	0.019574126577891315	5.647953196743071e+22	0.13520152547251493	-0.2498559143662127	0.0	319.500458	348.237152	-14.923173	-30.145418	-12.98611	-26.241581	0.0		True	0.0	None	0.0	None	0.0	None	0.0	None	0.0	None	0.0	None	0.0	None	0.0	None	7.125399999999998e-07	12
2014-01-16 07:00:00	25.931680479368573	170538101.15820003	1.1471006443928925e+21	556232232746.8462	0.7730553578503372	34469842308.71417	3.32635909381439e+20	-1.4291938024879661e+23	1680.4515473886945	-0.6310405848225633	22.00463606724707	2.140077821011673	28.443964252083425	125.12896350331282	130.40543352788953	49.08305138198285	0.0015039987506815901	-2.569659651386099e+22	0.13169688449028802	0.005558458908926623	5.310819225033601e+22	0.11345973697778346	-0.23449181376367845	0.0	319.504089	348.128204	-14.931343	-30.035315	-12.969975	-26.135681	0.0		True	0.0	None	0.0	None	0.0	None	0.0	None	0.0	None	0.0	None	0.0	None	0.0	None	5.905899999999999e-07	12
2014-01-16 07:12:00	24.77851286881347	178798421.1823	1.285106839956523e+21	576242541044.7712	4.198192086557663	298207863501.8077	3.593592973086471e+20	-1.4264264608430445e+23	1631.8190142124897	-0.6007214706632586	23.126504016223826	2.1922428330522767	29.95046579530922	117.64367100102328	119.99335724655977	47.98614422044654	0.007079581933486784	-3.0387443436963e+22	0.9875548375710176	0.029336807525810037	5.7586971221400935e+22	0.12797287636097496	-0.2425202489774144	0.0	319.50766	348.019257	-14.961757999999998	-29.927191	-12.972967	-26.016119	0.0		True	0.0	None	0.0	None	0.0	None	0.0	None	0.0	None	0.0	None	0.0	None	0.0	None	5.6555e-07	12
2014-01-16 07:24:00	27.245618993451362	187975413.002	1.3425047219780007e+21	619365935016.2782	4.210257796899481	340662598923.4371	3.763531959505136e+20	-1.5062292117893849e+23	1649.084216372706	-0.6033613766614961	22.985390757690396	2.2838499184339316	29.71058641093464	119.52741699302956	122.06236672876415	49.74980559153413	0.006868283518596217	-2.7227184459199118e+22	1.0913373281991243	0.02793870159242833	6.115306519732448e+22	0.10906594673199027	-0.2449653566384773	0.0	319.511322	347.910309	-14.96836	-29.814236	-12.977118	-25.881245	0.0		True	0.0	None	0.0	None	0.0	None	0.0	None	0.0	None	0.0	None	0.0	None	0.0	None	5.2838e-07	12
2014-01-16 07:36:00	26.466890663054837	182989171.1352	1.2483201286578422e+21	571542356278.6133	5.352255551613191	474737949508.1958	3.6245453593665005e+20	-1.4811258742965587e+23	1615.0667535789835	-0.6094724336600187	22.24134955195017	1.5463917525773196	29.46000119323464	119.23727963458694	122.26169433213171	51.76303986938311	0.00919631538077868	-2.3712309654563336e+22	1.6018604900730915	0.03634610729605655	6.0486670962751684e+22	0.0975744150019016	-0.24889821449624994	0.0	319.514923	347.801331	-15.005734	-29.704542	-12.98084	-25.718948	0.0		True	0.0	None	0.0	None	0.0	None	0.0	None	0.0	None	0.0	None	0.0	None	0.0	None	5.111e-07	12
2014-01-16 07:48:00	29.25717892037777	195580261.9271	1.5385039763958742e+21	651228251386.8928	6.183197361212398	491171400699.486	3.905812237843238e+20	-1.518752897664664e+23	1793.3027196300534	-0.5847222205762576	23.56873396676613	3.8699690402476783	29.91925687652813	123.76371715255104	124.57745903417583	52.26727633717285	0.009571512943053246	-2.6002227873185268e+22	1.4931158872966308	0.03989926851044093	6.944736787272854e+22	0.1001089805018154	-0.2673734431595737	0.0	319.518463	347.692352	-15.025887	-29.576624	-12.984872	-25.579464	0.0		True	0.0	None	0.0	None	0.0	None	0.0	None	0.0	None	0.0	None	0.0	None	0.0	None	4.988899999999999e-07	12
2014-01-16 08:00:00	27.737043223373032	194145277.8373	1.4445010073900493e+21	638186400471.7546	4.222569605453462	368563054223.2379	3.933312339776981e+20	-1.5167593572513607e+23	1658.0649471946465	-0.5882709187869699	22.78506145127393	2.4390243902439024	29.97640478377212	124.1217482077239	124.78651367017731	51.934754646487896	0.006436843910752226	-2.5735960712001545e+22	1.1033180031155811	0.02738768960199853	6.75733417894654e+22	0.09981621132933298	-0.26208133590836363	0.0	319.522064	347.58337400000005	-15.03188	-29.469328000000004	-12.98969	-25.446053	0.0		True	0.0	None	0.0	None	0.0	None	0.0	None	0.0	None	0.0	None	0.0	None	0.0	None	4.852199999999999e-07	12
2014-01-16 08:12:00	25.94467408027205	194173652.8475	1.460073305570373e+21	610130359617.6315	2.185457815626278	140997647965.7913	3.926234098605387e+20	-1.515679163674804e+23	1650.7750268189209	-0.5877659700409217	23.022725361395306	4.0540540540540535	30.134009568217785	123.71157204837921	123.64926138991841	52.23297160615486	0.0032814681916310483	-2.2130417759003435e+22	0.4157484149401827	0.014177368680787866	6.9768071821137245e+22	0.08581965612032598	-0.2705539496393956	0.0	319.525665	347.474365	-15.035441	-29.360401	-12.992105	-25.311106	0.0		True	0.0	None	0.0	None	0.0	None	0.0	None	0.0	None	0.0	None	0.0	None	0.0	None	5.4366e-07	12
2014-01-16 08:24:00	24.577362346494002	185471462.8328	1.3428599306097008e+21	564108218117.415	5.797407403003541	438709153781.4939	3.674472576649415e+20	-1.4852101673054184e+23	1696.570721833323	-0.6029736430893263	22.527271042654448	2.8523489932885906	29.628252826131398	126.454206810698	126.9329355690534	52.59087147400383	0.009727193629200572	-2.2952329495380174e+22	1.4455205485996878	0.03899961660300864	6.698258723720451e+22	0.09318310659241534	-0.2719395243788436	0.0	319.529114	347.365326	-15.039997	-29.228312	-12.995517	-25.178953	0.0		True	0.0	None	0.0	None	0.0	None	0.0	None	0.0	None	0.0	None	0.0	None	0.0	None	5.5719e-07	12
2014-01-16 08:36:00	25.564021287122173	191890699.0205	1.3348144648453407e+21	610241707003.6843	3.6005327241229743	336033424184.7653	3.883539445907336e+20	-1.4989651972480866e+23	1497.9104823867026	-0.588200108850726	22.48677383071372	2.6825633383010428	30.90940609212514	124.75701299077517	125.30769676100643	51.23875500436881	0.00536592060226971	-2.350474688714493e+22	0.9834563644173734	0.023628579401683603	6.81844435822663e+22	0.09223359356781127	-0.2675585611370098	0.0	319.532684	347.256287	-15.045386	-29.119993	-13.001006	-25.074646	0.0		True	0.0	None	0.0	None	0.0	None	0.0	None	0.0	None	0.0	None	0.0	None	0.0	None	4.6089e-07	12
2014-01-16 08:48:00	23.264737889559267	182393812.3365	1.280016119526427e+21	521595646670.1936	5.311147902474636	433661509385.0767	3.6287647989346265e+20	-1.4683149871364284e+23	1622.6190277870433	-0.6061731578948673	21.898799137142067	2.356902356902357	29.573038266886808	127.75735744978891	128.90852720613785	51.37483644432153	0.008941326435142486	-2.171462387930016e+22	1.4337107002904514	0.03625900870327884	6.628458631898619e+22	0.08964576568877347	-0.2736465769316666	0.0	319.536224	347.147217	-15.050822	-29.007692	-13.006536	-24.943878	0.0		True	0.0	None	0.0	None	0.0	None	0.0	None	0.0	None	0.0	None	0.0	None	0.0	None	4.479600000000001e-07	12
2014-01-16 09:00:00	24.348008256391807	188686605.4348	1.3462360156076313e+21	567697557319.9851	3.3880420407501104	232263708477.58136	3.771963529510408e+20	-1.497124193157908e+23	1598.8930881715673	-0.5974536726463818	21.819916161544104	3.7854889589905363	29.905531157822388	131.14463602535108	132.04070302337058	51.922877625475856	0.005343914890773046	-2.3810838334339086e+22	0.7194348572379778	0.022480679952570786	6.914785811660384e+22	0.09502132739992183	-0.27594665810759805	0.0	319.5396120000001	347.038116	-15.055910999999998	-28.882198	-13.010508	-24.840664	0.0		True	0.0	None	0.0	None	0.0	None	0.0	None	0.0	None	0.0	None	0.0	None	0.0	None	4.4141999999999994e-07	12
2014-01-16 09:12:00	24.640773373977822	188182757.37130004	1.3389684187976248e+21	582744261965.4991	3.739347715335049	307357617655.18195	3.7963758470253104e+20	-1.4875480560936313e+23	1568.0030057679019	-0.5952216329559578	21.760119190754136	1.3996889580093312	30.02454182830697	131.95586986043529	131.77253573854193	53.521875895013196	0.005815470785902096	-2.397449718731662e+22	0.9387183781418938	0.02491294037789536	6.919718820587575e+22	0.09593061082414137	-0.2768829093698173	0.0	319.543121	346.929016	-15.058716	-28.769842	-13.014685	-24.736376	0.0		True	0.0	None	0.0	None	0.0	None	0.0	None	0.0	None	0.0	None	0.0	None	0.0	None	4.797999999999999e-07	12
2014-01-16 09:24:00	25.69911769168393	183681462.4282	1.2694043774017678e+21	585906597786.0762	3.7929327530238974	271214677403.6813	3.6566382599678086e+20	-1.46836697987096e+23	1590.4242403086514	-0.6019449121090249	21.472763007002012	1.8302828618968388	29.41213936372493	132.06205541060382	133.73883716022604	53.58747277101301	0.0063110361947153045	-2.349996275180299e+22	0.8862257102960381	0.025780553227118176	6.661717263362524e+22	0.09633615579153468	-0.2730915954635758	0.0	319.546509	346.819855	-15.061571	-28.657402	-13.018899	-24.605375	0.0		True	0.0	None	0.0	None	0.0	None	0.0	None	0.0	None	0.0	None	0.0	None	0.0	None	4.741e-07	12
2014-01-16 09:36:00	25.746324045914818	182077832.5057	1.2812900489452074e+21	591459212656.9098	4.062202803322658	450734318833.9628	3.556903531081238e+20	-1.4324705140348608e+23	1657.7228645380887	-0.5924013989617507	21.65155527557272	0.8591065292096222	29.913546784048627	134.90466124614332	135.7989108995705	56.50066404345026	0.00697972990261625	-2.3665390027854234e+22	1.5209226550088617	0.028020893013025263	6.626300844443269e+22	0.09786875207635257	-0.2740321599453246	0.0	319.549896	346.710693	-15.065381	-28.531942	-13.02281	-24.502266	0.0		True	0.0	None	0.0	None	0.0	None	0.0	None	0.0	None	0.0	None	0.0	None	0.0	None	4.6424e-07	12
2014-01-16 09:48:00	27.044800819886586	185056390.1519	1.2683298559784984e+21	626272565005.9037	3.4094263480594056	214803973880.3036	3.640001723095816e+20	-1.4787579260449825e+23	1586.4383160636346	-0.6017006286964838	21.802256387850065	1.9933554817275747	30.165355959689744	135.73880157196874	137.11572280997297	55.98088306397539	0.005663498917042202	-2.445702087965572e+22	0.7007444326051531	0.023005192753445484	6.3894410622148905e+22	0.09951463035393553	-0.2599837766845472	0.0	319.553284	346.601471	-15.070094	-28.419598	-13.027629	-24.374727	0.0		True	0.0	None	0.0	None	0.0	None	0.0	None	0.0	None	0.0	None	0.0	None	0.0	None	8.542e-07	12
2014-01-16 10:00:00	26.87115241958388	182655493.022	1.258969186068115e+21	626878889001.6519	4.520928149139066	346080109059.50635	3.6809050015090056e+20	-1.4549503103236335e+23	1514.357183079953	-0.5997951899218521	21.982577924274135	2.396166134185304	29.83528973796465	134.36723809867442	135.5182113186638	53.97246234184836	0.0072219299507013815	-2.4203877119839846e+22	1.0857279875797723	0.03094286172084788	6.218945304012975e+22	0.09977914002238553	-0.2563725684146811	0.0	319.5566100000001	346.492249	-15.073912	-28.308455	-13.032776	-24.267935	0.0		True	0.0	None	0.0	None	0.0	None	0.0	None	0.0	None	0.0	None	0.0	None	0.0	None	8.876700000000002e-07	12
2014-01-16 10:12:00	27.39946027018492	173660726.5336	1.1836268369132666e+21	632681936299.8201	3.8249139902239424	311793737476.7582	3.533622276816038e+20	-1.3917960125906136e+23	1473.1499322701495	-0.6034780738863438	21.3747015833054	1.3223140495867771	29.883763348209854	136.43445970200656	136.28761486712995	55.19348885152693	0.006322171884667673	-2.397108878901842e+22	1.0121292086818243	0.027471794558814062	6.0047142232090655e+22	0.1039378354334346	-0.26036239081581763	0.0	319.559875	346.382965	-15.077549	-28.197784	-13.037734	-24.163795	0.0		True	0.0	None	0.0	None	0.0	None	0.0	None	0.0	None	0.0	None	0.0	None	0.0	None	8.3884e-07	12
2014-01-16 10:24:00	26.062601968325076	168410196.0911	1.1759001882999432e+21	626742015710.4263	5.47400756545646	340546514804.8981	3.4511630294162394e+20	-1.332173314158318e+23	1461.1183048350551	-0.5956345675771179	22.62619682159832	2.145214521452145	30.42344328316346	132.36773727551304	132.6457155740083	54.46754590506443	0.009033015784581615	-2.3230115473368744e+22	1.1036553377888771	0.040741176974021465	5.904748199346822e+22	0.10386531270136322	-0.26401010311423595	0.0	319.5631410000001	346.273651	-15.080801999999998	-28.088644	-13.042304	-24.038857	0.0		True	0.0	None	0.0	None	0.0	None	0.0	None	0.0	None	0.0	None	0.0	None	0.0	None	7.464700000000002e-07	12
2014-01-16 10:36:00	27.831414076224466	163535374.0075	1.2147528815624653e+21	680679645693.3274	5.092906423124232	408517774093.5372	3.3547258676124405e+20	-1.2846181057953007e+23	1534.7202158623772	-0.5914933494123651	23.36385368409401	3.523489932885906	30.56405719122562	136.50128000203935	135.34281235320472	56.10172606752572	0.008545145005241997	-2.666996962228212e+22	1.3461716397753531	0.039136245129468235	5.80758448095007e+22	0.12279999471783395	-0.2674061326969812	0.0	319.566376	346.164337	-15.083935999999998	-27.976576	-13.046738	-23.931263	0.0		True	0.0	None	0.0	None	0.0	None	0.0	None	0.0	None	0.0	None	0.0	None	0.0	None	6.6017e-07	12
2014-01-16 10:48:00	29.47201328393205	163901266.19340003	1.1817731809059655e+21	735520683924.6746	3.713759141934638	360390776688.1637	3.501606863303431e+20	-1.3024071614653405e+23	1369.0150653830478	-0.5983453510302964	23.05571596005136	3.2307692307692317	30.780795314653677	131.03593787484994	131.10065529170922	53.38633960688928	0.005713475602976366	-2.309809103005832e+22	1.0889362721490068	0.028352463414459426	5.673757146573963e+22	0.10611608868888876	-0.2606608986784042	0.0	319.569519	346.054932	-15.087558	-27.854811	-13.051649	-23.828011	0.0		True	0.0	None	0.0	None	0.0	None	0.0	None	0.0	None	0.0	None	0.0	None	0.0	None	5.7261e-07	12
2014-01-16 11:00:00	25.5755042329056	151524353.4336	1.0774938894476454e+21	640238570325.9417	6.0780432560893765	690527994823.0707	3.1503040177612607e+20	-1.1970784744998572e+23	1456.622986923822	-0.5948777432196725	22.90872324171412	2.154398563734291	30.39376675296048	128.90863269373054	129.37745409202944	54.16674019152882	0.010912106384361535	-2.339432362240312e+22	2.43486678602323	0.050301848543258684	5.257640232495336e+22	0.11625605787005985	-0.2612738615548595	0.0	319.572723	345.945526	-15.090029	-27.751898	-13.055404	-23.725082	0.0		True	0.0	None	0.0	None	0.0	None	0.0	None	0.0	None	0.0	None	0.0	None	0.0	None	5.184300000000001e-07	12
2014-01-16 11:12:00	27.48469702209929	150865621.71240002	1.1591749389751229e+21	681312568421.2195	4.316959645580013	384263887684.4927	3.221943779633104e+20	-1.1575910323774306e+23	1474.3982679327667	-0.5777665603921724	23.11535367745361	2.0270270270270268	30.875786040363675	125.28486607399222	126.67791758856093	53.40189024449096	0.007292161563479752	-2.2782069184631103e+22	1.274865017815814	0.03627228795419729	5.3847924726671e+22	0.11370784139876725	-0.2687609819306327	0.0	319.575806	345.83606000000015	-15.09233	-27.645288	-13.060131	-23.599049	0.0		True	0.0	None	0.0	None	0.0	None	0.0	None	0.0	None	0.0	None	0.0	None	0.0	None	4.8863e-07	12
2014-01-16 11:24:00	25.531376694720226	148289550.12870002	1.096049135059603e+21	630049905418.6467	4.2989554159704335	460235887196.9737	3.1903271336971875e+20	-1.1841881244568992e+23	1430.3480648180046	-0.6013089611082609	23.249723584864732	3.466204506065858	29.73283172604816	124.2796700411224	126.3018889892557	51.87409321170424	0.007450529317106469	-2.1787342733518842e+22	1.5666376536049609	0.03620822664787757	5.171537206324345e+22	0.11063212131442604	-0.2626011526921704	0.0	319.578857	345.726562	-15.096252	-27.542339	-13.064124	-23.492764	0.0		True	0.0	None	0.0	None	0.0	None	0.0	None	0.0	None	0.0	None	0.0	None	0.0	None	4.6107e-07	12
2014-01-16 11:36:00	25.17766907925332	150236796.58350003	1.146060912059161e+21	631885455363.2559	3.1210012535898306	133276451699.8561	3.2535794995170194e+20	-1.2110792871398996e+23	1493.0260384116846	-0.6069931380333715	23.84435141747385	4.498269896193771	29.270372212959355	123.85392110771888	126.32037226799305	50.589880479635276	0.005399656148079292	-2.498128241995546e+22	0.4528948242819558	0.02585434868737316	5.1530174758338085e+22	0.12520622860289274	-0.2582693206969074	0.0	319.58194	345.617035	-15.075345	-27.434196000000004	-13.06759	-23.38855	0.0		True	0.0	None	0.0	None	0.0	None	0.0	None	0.0	None	0.0	None	0.0	None	0.0	None	4.4977e-07	12
2014-01-16 11:48:00	24.77285370359764	149409514.926	1.089578948898748e+21	623898215199.3562	4.6442636383771365	525171321999.8092	3.223227089933078e+20	-1.2128123964427235e+23	1426.8499434420905	-0.6112274003260825	22.694166905618488	2.608695652173913	29.813707038195854	120.41550133528379	124.01193736065548	50.16153323814543	0.008076980240655889	-2.721598468611884e+22	1.655714942833846	0.03858440133035149	4.9981534832883835e+22	0.1371618200457312	-0.25189455261025506	0.0	319.58493	345.507477	-15.077589	-27.322252	-13.071076	-23.264208	0.0		True	0.0	None	0.0	None	0.0	None	0.0	None	0.0	None	0.0	None	0.0	None	0.0	None	4.3966999999999997e-07	12
2014-01-16 12:00:00	23.477924638890947	145657421.58240002	1.0462043519511444e+21	605662982137.9631	2.4322170131802117	229383437703.9091	3.12806358765692e+20	-1.181019737476955e+23	1391.8347552274158	-0.6105371903737272	23.627211008761922	5.123674911660777	30.378204997449927	120.37190899849644	124.59856533032236	50.07959948071539	0.004297203203498607	-2.468160443470726e+22	0.7960385237247095	0.02073618896617896	4.7003662666635365e+22	0.1275934427452864	-0.2429890308443892	0.0	319.5878600000001	345.397858	-15.080681	-27.198421000000003	-13.075422	-23.159678	0.0		True	0.0	None	0.0	None	0.0	None	0.0	None	0.0	None	0.0	None	0.0	None	0.0	None	4.5176e-07	12
2014-01-16 12:12:00	24.204744454302936	143667537.8757	1.0270207266592045e+21	615498868954.0726	4.7178977017260575	508681821968.0285	3.08647756382844e+20	-1.1346550622490137e+23	1366.313536675425	-0.5946929636423528	22.48326934766553	3.7102473498233217	30.88269933154603	123.10987296455828	128.11448047520778	51.103575872108834	0.008335508306936497	-2.529678843761936e+22	1.7653342319834766	0.04118535260312818	4.654118087989176e+22	0.1325849818779543	-0.24393063328001474	0.0	319.59082	345.288208	-15.084454999999998	-27.092125	-13.080416	-23.057177	0.0		True	0.0	None	0.0	None	0.0	None	0.0	None	0.0	None	0.0	None	0.0	None	0.0	None	4.785799999999999e-07	12
2014-01-16 12:24:00	24.08461123193911	136833053.62690002	9.850855260486512e+20	581972962899.1477	3.728009911471251	327791846518.582	2.893024832198004e+20	-1.1200379435825676e+23	1492.4684163798618	-0.6163527196788372	22.329019761519753	3.8229376257545273	28.86872540981607	128.269894655449	132.05060538674653	54.35774662348916	0.007501025978815396	-2.399449410280996e+22	1.2955310528409971	0.03371164125443773	4.618716442252698e+22	0.13204080970935886	-0.2541662500738266	0.0	319.593658	345.178497	-15.086869	-26.982777	-13.084043	-22.95171	0.0		True	0.0	None	0.0	None	0.0	None	0.0	None	0.0	None	0.0	None	0.0	None	0.0	None	4.908400000000001e-07	12
2014-01-16 12:36:00	23.26152398677056	136278930.0978	9.746662548533412e+20	608422764407.4688	4.970663327104198	552803878989.3402	2.977375442279826e+20	-1.1052869113092985e+23	1361.6162935366335	-0.6107083902865449	23.60695739168057	5.1948051948051965	29.618302284216966	117.6575010790068	123.08166295610428	49.23865232181049	0.0092220098833102	-2.674564166152586e+22	1.8710860260433049	0.045289623243263084	4.443179376948493e+22	0.14777871337445375	-0.24550068378501386	0.0	319.596466	345.068756	-15.07416	-26.853411	-13.088092	-22.828506	0.0		True	0.0	None	0.0	None	0.0	None	0.0	None	0.0	None	0.0	None	0.0	None	0.0	None	5.3082e-07	12
2014-01-16 12:48:00	21.89569150811708	134036798.8419	9.50844582984342e+20	555418413830.1478	4.656654705454283	576326971535.0754	2.888681521881456e+20	-1.0813425692902394e+23	1371.59699621264	-0.6074726711575784	23.253749189251515	3.6398467432950192	30.683646760133207	118.67371929513935	123.33958585924849	48.428465232194604	0.008920794454893263	-2.519577945586028e+22	2.1688163105272653	0.04322513777237192	4.529872532351364e+22	0.1415439277304593	-0.25447752131288137	0.0	319.5992740000001	344.958984	-15.072698999999998	-26.747993	-13.091185	-22.723637	0.0		True	0.0	None	0.0	None	0.0	None	0.0	None	0.0	None	0.0	None	0.0	None	0.0	None	5.6383e-07	12
2014-01-16 13:00:00	21.80523766316256	124770387.8372	9.138653513254099e+20	559214323391.0586	3.857443341865729	373699605054.8925	2.772131924592493e+20	-9.91496536999847e+22	1325.8744271703524	-0.5983664254070771	23.513697374832066	5.5876685934489405	30.59264627183926	113.42815868679558	119.60546324521705	46.32401575044055	0.007432453452535123	-2.3272720521531304e+22	1.4144547783434656	0.038684917775158964	4.26306413587875e+22	0.14045046117966178	-0.25727517475608397	0.0	319.60199	344.849152	-15.074142000000002	-26.642227	-13.09499	-22.621597	0.0		True	0.0	None	0.0	None	0.0	None	0.0	None	0.0	None	0.0	None	0.0	None	0.0	None	5.762300000000001e-07	12
2014-01-16 13:12:00	22.381930451733307	123420470.1663	9.251093174590749e+20	582524189856.4148	4.209406456638345	405310326496.8446	2.710762492491786e+20	-9.768467432256893e+22	1407.2631996898465	-0.5959731732895659	23.746013668198014	4.040404040404041	30.0448548372088	122.12418785212776	127.29578454864588	48.425903395802344	0.008503851427552212	-2.375280789001916e+22	1.6085172107069976	0.042740350071793325	4.187377712879781e+22	0.14491563176027875	-0.2554714749896439	0.0	319.604675	344.739288	-15.075984	-26.534252	-13.098046	-22.500095	0.0		True	0.0	None	0.0	None	0.0	None	0.0	None	0.0	None	0.0	None	0.0	None	0.0	None	5.7363e-07	12
2014-01-16 13:24:00	20.678551682930298	127530127.79670002	9.950679747576702e+20	539775730410.0699	2.7357327382595336	330846055739.5912	2.8525392379481447e+20	-1.015928031711323e+23	1421.7708955564926	-0.599843054460418	24.41406121750273	5.882352941176469	29.95665645204967	118.83633179921569	124.43460555474647	45.59735602736208	0.005191143715862492	-2.6985108103643823e+22	1.2281646450351469	0.026817203535653592	4.278682009130209e+22	0.15933047582679352	-0.2526298719308088	0.0	319.607391	344.62939500000016	-15.078373	-26.403866	-13.101644	-22.396189	0.0		True	0.0	None	0.0	None	0.0	None	0.0	None	0.0	None	0.0	None	0.0	None	0.0	None	6.2761e-07	12
2014-01-16 13:36:00	18.550060246991684	114733653.5285	8.974476734654669e+20	464460076035.6321	0.4236603796940507	82472772282.25276	2.5049906601314625e+20	-9.159777668661732e+22	1511.781964184739	-0.6011483452513544	23.945442168230272	5.8165548098434	29.890481193495607	123.7752435080772	129.41160419010902	48.766202460602024	0.0009477860843267352	-2.3457448202451773e+22	0.3624646509572341	0.004612383954175132	3.9437520255819035e+22	0.15394921886552185	-0.2588250599543881	0.0	319.6100160000001	344.51947	-15.081454999999998	-26.29965	-13.105915	-22.292433	0.0		True	0.0	None	0.0	None	0.0	None	0.0	None	0.0	None	0.0	None	0.0	None	0.0	None	9.4455e-07	12
2014-01-16 13:48:00	19.593489814320947	114710988.1292	8.506514985935278e+20	519763172122.7041	2.224716194703937	322728415495.9684	2.507649542479089e+20	-8.95004498633781e+22	1401.5964677596314	-0.5874997963394321	23.846586473690767	5.689277899343545	30.643082380864573	121.38688322546446	128.60861291562063	49.17753135526368	0.0048680879534003	-2.591552941900841e+22	1.3873730920844929	0.02443351296681091	3.6027483661615816e+22	0.1701149913652661	-0.23649198798588705	0.0	319.612579	344.409485	-15.066855	-26.173601	-13.110669	-22.189671	0.0		True	0.0	None	0.0	None	0.0	None	0.0	None	0.0	None	0.0	None	0.0	None	0.0	None	9.9739e-07	12
2014-01-16 14:00:00	22.04167040548224	111008084.831	9.357048620114064e+20	552109522700.2626	2.0081839305139337	190910158234.3178	2.4567735172990904e+20	-8.366801704695904e+22	1548.5134664210507	-0.5675346255771673	24.424944353300372	7.9120879120879115	30.628523705148343	122.6955834548687	128.15175663355762	48.030865813581286	0.00441359105607458	-2.520740845047485e+22	0.8243270973389462	0.023081377835415064	3.793387249490712e+22	0.17098620980441806	-0.25731201578502805	0.0	319.615173	344.299469	-15.06475	-26.063278	-13.114104	-22.069178	0.0		True	0.0	None	0.0	None	0.0	None	0.0	None	0.0	None	0.0	None	0.0	None	0.0	None	9.9256e-07	12
2014-01-16 14:12:00	21.351436098961024	111026178.3719	9.402470301381406e+20	567420777579.0779	3.307266456016277	372387243829.1565	2.5080390004144266e+20	-8.493213992555575e+22	1487.3817845548365	-0.5760154287097936	24.876501695036332	6.302521008403361	31.03143240698136	121.48133285007158	126.28016992655265	48.79170048194826	0.0069480387731434366	-2.6863545278339534e+22	1.5370195687150976	0.03780187360841658	3.813819268788901e+22	0.18219035295390795	-0.25865576247797994	0.0	319.6176450000001	344.189392	-15.064754999999998	-25.957544	-13.117474	-21.966997	0.0		True	0.0	None	0.0	None	0.0	None	0.0	None	0.0	None	0.0	None	0.0	None	0.0	None	1.0202e-06	12
2014-01-16 14:24:00	20.400039385288892	106574520.6463	8.554359026416397e+20	520826761719.5158	2.752835926962744	248880606698.6217	2.409798101458552e+20	-8.203933779437088e+22	1418.79324724287	-0.5796372004572995	23.74925889364685	4.625550660792952	30.50345969172989	124.90208296215441	128.73481284843598	49.01147220148904	0.006063515257627186	-2.4766929550859636e+22	0.9109782409150764	0.032703902735020836	3.698237145779733e+22	0.17498719632240214	-0.261293652952187	0.0	319.620117	344.079315	-15.066418	-25.824036	-13.121376	-21.863586	0.0		True	0.0	None	0.0	None	0.0	None	0.0	None	0.0	None	0.0	None	0.0	None	0.0	None	8.9559e-07	12
2014-01-16 14:36:00	19.618731074659323	104085171.7734	8.99718156515299e+20	510810217194.8327	1.5410005847939732	66295427929.705986	2.423651901166531e+20	-8.258063232395877e+22	1466.3983723179815	-0.5974159335796115	25.3797638159724	6.277056277056277	29.484759195822267	114.87068680574724	118.80355066826642	43.56653938306565	0.0033354991012856557	-2.240341845754228e+22	0.28193717174591354	0.018536422676695863	3.810890838233348e+22	0.16207382744033827	-0.2756925981096706	0.0	319.622589	343.969177	-15.068769	-25.718281	-13.124894	-21.758352	0.0		True	0.0	None	0.0	None	0.0	None	0.0	None	0.0	None	0.0	None	0.0	None	0.0	None	6.7681e-07	12
2014-01-16 14:48:00	19.113868549540406	102615562.518	8.598413315595764e+20	516664815041.6718	0.9282706801994608	85442551587.34601	2.3864169702301195e+20	-7.769385778413806e+22	1392.3643719215302	-0.5701130649860051	24.575883049285693	5.376344086021504	30.782479742377514	114.38160904728208	118.39511133273146	47.62685442177867	0.0019962810326870123	-2.2920008817674136e+22	0.3610285125209237	0.01152286493573251	3.842913272064018e+22	0.16818570797263482	-0.2819907681890276	0.0	319.624908	343.859009	-15.052237	-25.587372	-13.129077	-21.642721	0.0		True	0.0	None	0.0	None	0.0	None	0.0	None	0.0	None	0.0	None	0.0	None	0.0	None	5.85e-07	12
2014-01-16 15:00:00	19.3910181014352	105996237.7344	9.05280990484056e+20	517956473257.6176	3.4683241385994927	296095484198.19666	2.443154491538068e+20	-8.064175532658386e+22	1456.5489358768882	-0.5728712855351962	24.23617648504439	5.982905982905983	30.693006792236986	122.91074114783346	126.73159307671291	51.25503642860375	0.007410949014101478	-2.3838764082554936e+22	1.1391420373897465	0.04160696519826163	3.943541317127855e+22	0.16934829072404348	-0.2801453880505327	0.0	319.627319	343.74881	-15.051037	-25.478134	-13.133262	-21.537472	0.0		True	0.0	None	0.0	None	0.0	None	0.0	None	0.0	None	0.0	None	0.0	None	0.0	None	5.3407e-07	12
2014-01-16 15:12:00	19.584068474798702	94910819.6017	7.709346974484717e+20	493713841642.3004	2.1656519502424363	190516252489.9192	2.172320391041417e+20	-7.416955151120795e+22	1429.812664809254	-0.5884336631742632	23.672493621829986	4.1871921182266005	29.66332328425516	118.12480334764382	120.72058830320788	49.76055636147814	0.00533411810404541	-1.9924819690654567e+22	0.9220292910145444	0.028729882539616208	3.519507759398807e+22	0.1580761161389367	-0.27922466851108424	0.0	319.629639	343.63855	-15.053354	-25.350981	-13.137773	-21.436689	0.0		True	0.0	None	0.0	None	0.0	None	0.0	None	0.0	None	0.0	None	0.0	None	0.0	None	1.0027e-06	12
2014-01-16 15:24:00	18.368391725094877	95665601.1872	8.026499709366968e+20	494414529595.6967	3.0943985308746966	252059070984.5513	2.2462465454234403e+20	-7.427735337067531e+22	1389.3908331630994	-0.5846394370026013	24.411349828774465	4.827586206896552	30.041159490685224	120.55919245374834	122.41927895897535	49.92267755218418	0.007113559841091256	-2.2241997598418792e+22	1.1385724031184423	0.040824415621660906	3.451162808264156e+22	0.1750674783585729	-0.2716421344684657	0.0	319.6318970000001	343.52829	-15.052499	-25.242994	-13.142245999999998	-21.335598	0.0		True	0.0	None	0.0	None	0.0	None	0.0	None	0.0	None	0.0	None	0.0	None	0.0	None	2.4055e-06	12
2014-01-16 15:36:00	19.234927726466683	95895034.2018	8.005010964693519e+20	503350836715.7003	1.9239132928672409	246355301057.4264	2.233319144080257e+20	-7.414816827900387e+22	1379.329430891132	-0.5822262973149029	24.87404648212328	6.407322654462242	30.74083200233785	118.75679651375464	122.29231632388444	50.40396893024973	0.0044025475809319	-2.2123755423757895e+22	1.10773735837944	0.025360089048847564	3.4451894822346422e+22	0.17372016736281953	-0.270523191920537	0.0	319.634186	343.417999	-15.037918	-25.11112	-13.147510999999998	-21.236582	0.0		True	0.0	None	0.0	None	0.0	None	0.0	None	0.0	None	0.0	None	0.0	None	0.0	None	2.8583e-06	12
2014-01-16 15:48:00	19.222709877567727	100417855.2849	8.603383843728939e+20	513870009015.6856	1.9627089301275047	178004141260.21335	2.307250933563888e+20	-7.701419138652065e+22	1462.3556655817733	-0.5774937083387416	24.53625384206385	5.643340857787813	30.10078694554948	127.54188278529276	127.48531838557852	56.06434800015497	0.004430494198933418	-1.882825021927348e+22	0.6731816334031582	0.024780343194997247	3.984461449246325e+22	0.14118431739531367	-0.29877628741301665	0.0	319.636475	343.3076779999999	-15.043078	-25.002943	-13.152796	-21.138111	0.0		True	0.0	None	0.0	None	0.0	None	0.0	None	0.0	None	0.0	None	0.0	None	0.0	None	2.8579e-06	12
2014-01-16 16:00:00	16.550608526311432	92347642.6143	7.321815151489286e+20	427317461517.8963	1.5395820555669115	129598139733.58556	2.1022502762335512e+20	-7.104824334217712e+22	1388.7234815896695	-0.5793153770101305	23.338554383992015	3.022670025188917	30.30962209102389	123.44456103704344	124.63373454386404	52.545799085657656	0.0038780404422340334	-1.707284357570948e+22	0.6414773475704711	0.021112426895814367	3.5526347187556576e+22	0.139209083116425	-0.2896758349904823	0.0	319.638611	343.1973270000001	-15.046149	-24.875078	-13.157037	-21.039541	0.0		True	0.0	None	0.0	None	0.0	None	0.0	None	0.0	None	0.0	None	0.0	None	0.0	None	2.6463999999999998e-06	12
2014-01-16 16:12:00	18.679337086333238	99618358.3739	7.875496219919791e+20	491589665212.997	2.7725431260312488	322149256598.2545	2.243771607951517e+20	-7.707638852411022e+22	1428.9508651774447	-0.5825986066731434	22.807023172668465	2.1686746987951806	29.74614299496357	128.0912519944221	130.30628534836566	53.527319018637726	0.006680826809713852	-1.8552254263275184e+22	1.5254219081730156	0.03517208760142105	3.849185788437684e+22	0.14023123931201056	-0.2909490597718359	0.0	319.640839	343.086945	-15.048339000000002	-24.74464	-13.161428	-20.941832	0.0		True	0.0	None	0.0	None	0.0	None	0.0	None	0.0	None	0.0	None	0.0	None	0.0	None	2.1506000000000002e-06	12
2014-01-16 16:24:00	16.93554025861037	96698519.02	7.128139032486432e+20	440392773372.87305	0.6057621101366657	50391603784.5657	2.175009684041728e+20	-7.942133389977895e+22	1365.749860882271	-0.6184504467150215	22.194717806654268	3.5623409669211195	28.27771983505627	128.62400023496798	129.07977744997962	54.78234372439341	0.0015413794151060195	-1.4680202670442006e+22	0.251973163605197	0.007741281696602365	3.728562680693867e+22	0.11431409488612455	-0.290341542033267	0.0	319.643036	342.976532	-15.050907	-24.611418	-13.166143	-20.844706	0.0		True	0.0	None	0.0	None	0.0	None	0.0	None	0.0	None	0.0	None	0.0	None	0.0	None	1.5899e-06	12
2014-01-16 16:36:00	14.958475054931293	92818441.278	6.702985330197125e+20	376302852329.5298	1.9506568817003689	164314853482.83334	2.0613630572946453e+20	-7.53255471169454e+22	1367.8217252495308	-0.6110765506492477	21.961414969368352	1.6260162601626018	28.65108050678021	125.83395973418621	127.45751830634786	51.5870532331249	0.0052863330127381255	-1.4094432654509008e+22	0.8750773660812408	0.026089180197171914	3.630923295243008e+22	0.11434071997517475	-0.2945577122041185	0.0	319.645111	342.866119	-15.054065	-24.476208	-13.172442000000002	-20.745548	0.0		True	0.0	None	0.0	None	0.0	None	0.0	None	0.0	None	0.0	None	0.0	None	0.0	None	1.2088e-06	12
