Timestamp	TOTUSJH	TOTBSQ	TOTPOT	TOTUSJZ	ABSNJZH	SAVNCPP	USFLUX	TOTFZ	MEANPOT	EPSZ	MEANSHR	SHRGT45	MEANGAM	MEANGBT	MEANGBZ	MEANGBH	MEANJZH	TOTFY	MEANJZD	MEANALP	TOTFX	EPSY	EPSX	R_VALUE	CRVAL1	CRLN_OBS	LAT_MIN	LON_MIN	LAT_MAX	LON_MAX	QUALITY	NOAA_AR	IS_TMFI	BFLARE	BFLARE_label	CFLARE	CFLARE_label	MFLARE	MFLARE_label	XFLARE	XFLARE_label	BFLARE_loc	BFLARE_label_loc	CFLARE_loc	CFLARE_label_loc	MFLARE_loc	MFLARE_label_loc	XFLARE_loc	XFLARE_label_loc	XR_MAX	XR_QUAL
2014-03-03 13:12:00	63.89694634819303	763782501.2428	4.306781936989616e+21	931017519212.2788	2.153926973848105	43404551090.42326	1.066733817679688e+21	-6.714542018783942e+23	2533.5552033646372	-0.6619636622841077	21.670200828962106	1.328125	28.23674467221561	101.85864123779369	102.78999687852074	45.30457026905199	0.0016827554483188323	1.028857532592562e+23	0.06558810104616493	0.003393671040841512	1.7309724044377053e+23	-0.1014315344722364	-0.17065063096616565	3.1926515076003	31.360191	99.004593	7.558264	-65.422127	8.903129	-62.662815	0.0		True	0.0	None	0.0	None	0.0	None	0.0	None	0.0	None	0.0	None	0.0	None	0.0	None	1.2373e-06	12
2014-03-03 13:24:00	66.95482616799157	785562600.4832001	4.272793202212011e+21	984908725576.5398	4.471685766804779	128026377472.13295	1.107823910221109e+21	-7.016475061563902e+23	2392.087527580386	-0.6725516829495486	21.69458188126708	2.9739776951672865	28.269619762964005	102.27703505722324	103.86162006521955	42.71172322703032	0.003327147147920221	1.0560717035768228e+23	-0.07832824604572397	0.006809173777858295	1.7891390896859483e+23	-0.10122786660310293	-0.17149473136314505	3.008408371507344	31.363342	98.894745	7.558489999999999	-65.356445	8.926776	-62.535583	0.0		True	0.0	None	0.0	None	0.0	None	0.0	None	0.0	None	0.0	None	0.0	None	0.0	None	1.4772999999999996e-06	12
2014-03-03 13:36:00	65.38251060166385	784107776.8954	4.398186629044344e+21	959836210988.7908	2.4762133565962605	85136136179.98734	1.1125254903828384e+21	-6.915222848250913e+23	2420.8895286571037	-0.6640760754457641	21.770355385380977	2.1929824561403506	28.19395194455562	99.840046368825	100.16796013098879	43.33507193431935	0.0018100974828920038	1.0804403937995818e+23	0.1203787205025265	0.003795501081124231	1.819734957620085e+23	-0.10375581990810027	-0.17475104931917915	3.0056534723930897	31.366364	98.784866	7.556325	-65.28125	8.948076	-62.459686	0.0		True	0.0	None	0.0	None	0.0	None	0.0	None	0.0	None	0.0	None	0.0	None	0.0	None	1.1228e-06	12
2014-03-03 13:48:00	67.4733786606837	774143298.7687	3.996721600690663e+21	982402041060.1421	4.1442558288829074	124800289439.07816	1.1041283113828179e+21	-7.01003212691911e+23	2278.18243177502	-0.6818456402930266	20.171751862972744	0.0757002271006813	26.37479803943252	105.17780896171814	104.79642780000164	45.671351943280236	0.0031372110740975822	9.848821127847243e+22	-0.03058190208650007	0.006366035558717535	1.7794458309496093e+23	-0.0957966472401872	-0.17308157223864798	3.149942039659797	31.369476	98.674973	7.555979	-65.19429000000001	8.971191000000003	-62.332439	0.0		True	0.0	None	0.0	None	0.0	None	0.0	None	0.0	None	0.0	None	0.0	None	0.0	None	1.005e-06	12
2014-03-03 14:00:00	69.40824179718578	798675179.4985	4.088835524623149e+21	1029156195142.072	4.084470842608554	145369490543.83954	1.152460061162521e+21	-7.262705754865606e+23	2199.171364117662	-0.6847242792691884	20.019944881485976	0.2142857142857143	26.60897252297267	104.29607158491974	103.89386583557878	46.201325351004066	0.0029174791732918238	1.0336314865731896e+23	-0.1586245418762442	0.00607109142614341	1.838698314335994e+23	-0.09745026145381318	-0.1733515607779821	3.262159994396808	31.372444	98.565041	7.563461	-65.125854	8.994038	-62.212189	0.0		True	0.0	None	0.0	None	0.0	None	0.0	None	0.0	None	0.0	None	0.0	None	0.0	None	9.7822e-07	12
2014-03-03 14:12:00	66.7775168979066	800011139.2233	4.141194618624911e+21	986855334748.2168	4.528592499866718	290194440664.7701	1.1611818098830344e+21	-7.264187793873777e+23	2176.040304920507	-0.6837203614426489	20.3132883672533	1.2561060711793441	26.574051002457658	102.51582904529684	102.30769051676607	45.53896051979711	0.003160218073877683	1.0313091441670016e+23	-0.3305485691345316	0.006723992814060132	1.89141300429881e+23	-0.09706894711665323	-0.17802369922582706	3.1440561966788665	31.375473	98.455078	7.56251	-65.059647	9.016593	-62.12694499999999	0.0		True	0.0	None	0.0	None	0.0	None	0.0	None	0.0	None	0.0	None	0.0	None	0.0	None	1.0802e-06	12
2014-03-03 14:24:00	69.68334326168235	820187012.3498001	4.425196211032558e+21	1052905595429.9656	7.4384875428707495	366769989988.5028	1.181275366095649e+21	-7.397675169487248e+23	2307.5585904815634	-0.6791563535346876	21.109953026693308	1.7313019390581719	27.104692327092327	103.24548526272221	102.79198115260091	45.22240308078206	0.005151307162652875	1.1553865647229848e+23	-0.3851261043846269	0.010802160123931672	1.939688650651348e+23	-0.10607226030372194	-0.17807646872663335	3.0626008495802792	31.378441	98.345093	7.563938999999999	-64.993378	9.040974	-62.000637	0.0		True	0.0	None	0.0	None	0.0	None	0.0	None	0.0	None	0.0	None	0.0	None	0.0	None	1.273e-06	12
2014-03-03 14:36:00	71.47246780268374	826957833.5430999	4.415418860423799e+21	1123907629110.6755	7.7771516251190675	507202489795.3528	1.207902199130093e+21	-7.540417954269561e+23	2223.915238884408	-0.6865933114306825	21.0685195040543	1.5384615384615383	26.698046288540034	102.06650195796308	101.51965991586668	44.18444906728339	0.005202108110447537	1.2116449157733869e+23	-0.5930761373217869	0.011152104302280173	1.9695289806815632e+23	-0.11032641692334236	-0.17933560619662556	2.980318326637786	31.381378	98.235077	7.563855	-64.920441	9.063224	-61.886288	0.0		True	0.0	None	0.0	None	0.0	None	0.0	None	0.0	None	0.0	None	0.0	None	0.0	None	9.746e-07	12
2014-03-03 14:48:00	71.05171060031891	821994940.0969	4.3364426877243454e+21	1120177776928.4275	6.457702945236597	365320747471.65216	1.2277503604143316e+21	-7.535908910782243e+23	2117.565127764929	-0.6903256893965887	20.89183310497607	0.9079118028534372	26.212383912565627	100.495473845125	99.50270857129897	43.56024582772346	0.004187874802358364	1.1975629248606212e+23	-0.3770945990173605	0.009295409419115913	1.973462678838885e+23	-0.10970255366507467	-0.1807787223009944	3.1502906869663376	31.384338	98.125038	7.570688	-64.845802	9.077827	-61.77915600000001	0.0		True	0.0	None	0.0	None	0.0	None	0.0	None	0.0	None	0.0	None	0.0	None	0.0	None	1.5756e-06	12
2014-03-03 15:00:00	70.84741680649522	821957101.3566	4.312674043315478e+21	1196530842205.7354	6.668239127118271	290659710275.9816	1.237550209760065e+21	-7.540621498562015e+23	2037.2567637841528	-0.6907890432012517	21.13518375980211	1.5056461731493098	26.767014057041568	99.9061253427055	100.60943810717754	43.29738314542968	0.004183336968079217	1.1740735054768558e+23	-0.3527704286480223	0.00959627277687149	1.9546039211680684e+23	-0.1075557384296454	-0.17905937498634425	3.18773406028731	31.387177	98.014977	7.570666	-64.772888	9.092522	-61.689159	0.0		True	0.0	None	0.0	None	0.0	None	0.0	None	0.0	None	0.0	None	0.0	None	0.0	None	1.7759e-06	12
2014-03-03 15:12:00	76.9296913331114	840176917.7603003	4.611315917747338e+21	1302170859366.973	10.170138518041194	453446266945.8232	1.2758167216011752e+21	-7.592548227525184e+23	2048.5316217700783	-0.6804626805015451	21.737437780760608	1.3569321533923304	27.4314452151894	97.80769483623736	97.83059703973223	41.82373138670657	0.0060000817215582255	1.2511990417074504e+23	-0.40535967069037215	0.014406458934952971	2.0151200089092806e+23	-0.11213550816505397	-0.18059996745541365	3.2658647186401084	31.390091	97.904892	7.575886	-64.654816	9.105744	-61.565212	0.0		True	0.0	None	0.0	None	0.0	None	0.0	None	0.0	None	0.0	None	0.0	None	0.0	None	1.75e-06	12
2014-03-03 15:24:00	71.6217117293162	832068274.7483001	4.451769744062107e+21	1175174968646.0215	10.47763686123812	534844061210.2985	1.251153382035608e+21	-7.633120299222618e+23	2122.941659673112	-0.6907655012182331	20.864222958912823	0.5699810006333123	26.174440085594174	96.94231421919856	96.08472341889721	42.90179147645895	0.00663561549160109	1.2343604259531604e+23	-0.6053956803332095	0.014895359753933303	1.979400954843308e+23	-0.11170446225042772	-0.179127517854453	3.2894057633237064	31.392876	97.794777	7.576517	-64.565552	9.11295	-61.486477	0.0		True	0.0	None	0.0	None	0.0	None	0.0	None	0.0	None	0.0	None	0.0	None	0.0	None	1.2743e-06	12
2014-03-03 15:36:00	76.48406905717809	858062710.4947	4.500718057837101e+21	1244751397480.4534	13.000850287781198	692976035407.7838	1.2977313022757238e+21	-7.974218227690464e+23	2089.3848046640783	-0.6997720009355992	20.528549719068415	0.3082614056720099	25.673212141682	100.28438228686285	99.32888916231049	43.35729662906643	0.008015320769285572	1.2777478742648416e+23	-0.7628977076832953	0.017827565993142742	2.064534543315529e+23	-0.11212788026801718	-0.18117179980851789	3.3237672334533417	31.395744	97.684639	7.576777000000001	-64.448143	9.127644	-61.371201	0.0		True	0.0	None	0.0	None	0.0	None	0.0	None	0.0	None	0.0	None	0.0	None	0.0	None	1.1093000000000001e-06	12
2014-03-03 15:48:00	83.5528734565977	936249224.9496	5.222843891711564e+21	1370518677084.6318	13.801723481609173	601994299755.4039	1.403365352755603e+21	-8.508122395691735e+23	2231.970996151409	-0.6842734087576814	21.34511582875568	1.3053348467650396	26.850481270284405	101.01485258551266	100.8519450596605	42.980998967763355	0.007832987219982502	1.4858393717701997e+23	-0.6610256711922464	0.01750488469632978	2.368177671566757e+23	-0.11949997008768985	-0.19046282275950546	3.4562462167333723	31.398537	97.574486	7.577261999999997	-64.356544	9.295895	-61.25912099999999	0.0		True	0.0	None	0.0	None	0.0	None	0.0	None	0.0	None	0.0	None	0.0	None	0.0	None	1.0001e-06	12
2014-03-03 16:00:00	84.20841986848706	964729370.157	5.543446435931468e+21	1367154043461.2896	15.207963735170072	608014862530.7056	1.4383766351575982e+21	-8.73052894508295e+23	2306.156734615533	-0.6814321123110569	21.715122143308808	1.7679558011049723	26.96346442126265	99.89123796168869	99.58014082966676	42.69132699552247	0.00840218990893374	1.548640982523652e+23	-0.6499436205202064	0.01875064563088134	2.5148122999845807e+23	-0.1208739702451712	-0.19628522720945385	3.4254646450641	31.401306	97.46431	7.576536	-64.283974	9.319114	-61.179646	0.0		True	0.0	None	0.0	None	0.0	None	0.0	None	0.0	None	0.0	None	0.0	None	0.0	None	1.2997000000000001e-05	12
2014-03-03 16:12:00	87.59711422938975	1000960946.6989999	5.864204218466339e+21	1483650648325.3645	13.471096194906206	402850810104.2852	1.504004949808072e+21	-8.99027315778368e+23	2259.8103402420497	-0.6763059664342408	22.53057772141933	3.5312180143295806	28.084665666165872	97.49581447303812	97.31666700053944	41.30585003791933	0.006894112689307167	1.669999842347355e+23	-0.30754713373254555	0.01605692980456475	2.5463590160663748e+23	-0.12562809132733732	-0.191553445042804	3.540447453026143	31.404114	97.354111	7.582362	-64.416901	9.573523	-61.057785	0.0		True	0.0	None	0.0	None	0.0	None	0.0	None	0.0	None	0.0	None	0.0	None	0.0	None	2.1022e-06	12
2014-03-03 16:24:00	91.26030127418218	1055935743.9622	6.142592190281745e+21	1567070262594.3235	17.560618932697402	709075269965.0879	1.6142640868618535e+21	-9.527968058923664e+23	2181.7415547758355	-0.6794387038398075	22.069384261561204	3.7735849056603774	27.830417892750745	96.11778615936585	95.83803205199754	41.39610332808986	0.008283310817310095	1.58246635378824e+23	-0.3416466138298634	0.01980469532547377	2.683327157543814e+23	-0.11284555968688335	-0.191347862904746	3.5525708022128017	31.406807	97.243904	7.5825710000000015	-64.611816	9.782101	-60.94191	0.0		True	0.0	None	0.0	None	0.0	None	0.0	None	0.0	None	0.0	None	0.0	None	0.0	None	2.1147e-06	12
2014-03-03 16:36:00	92.26187516298941	1087033841.0181	6.395961953168854e+21	1673171074807.1123	15.182033463792738	394060107261.836	1.669126754416891e+21	-9.754124911053834e+23	2143.3359449101613	-0.6756669816832964	22.435591176006323	4.094348019581664	28.55463475708771	94.32771928271058	94.09835998295851	42.12107230950011	0.0067565792006198215	1.589694150716371e+23	-0.2528845486894216	0.016669752942128288	2.793430006942501e+23	-0.1101179099518088	-0.19350053834101166	3.5921297305231605	31.409561	97.133667	7.575593	-64.54937	9.804875	-60.862106	0.0		True	0.0	None	0.0	None	0.0	None	0.0	None	0.0	None	0.0	None	0.0	None	0.0	None	1.9816e-06	12
2014-03-03 16:48:00	93.1526906000853	1116000042.2137	6.53404502074342e+21	1667310203128.7783	17.000667168047485	452580537247.2724	1.7226980293144598e+21	-1.002195302573918e+24	2110.703807358425	-0.6762006693521216	22.488555341288194	4.804804804804805	28.285148654513268	94.12616199589922	93.54019729137151	41.38422577459353	0.00729329350838588	1.549331543597923e+23	-0.14557647591441628	0.018176310788480768	2.892332224677776e+23	-0.10453641362502797	-0.19515128251876548	3.516859266552474	31.412224	97.023422	7.582347	-64.485222	9.828283	-60.74931700000001	0.0		True	0.0	None	0.0	None	0.0	None	0.0	None	0.0	None	0.0	None	0.0	None	0.0	None	1.483e-06	12
2014-03-03 17:00:00	92.82583956827415	1137076992.664	6.707575528633562e+21	1759861641569.2588	13.495639881627676	185480218805.60736	1.7658747863795968e+21	-1.0243487291312646e+24	2033.2997943824273	-0.6783368297493301	23.87379549542779	7.447665056360709	29.72480333985586	91.06515141974192	91.42599085224438	40.56282123984061	0.005433027327547373	1.534632289332796e+23	0.08669080581927363	0.014143421343242243	2.9139650002454406e+23	-0.10162531297908876	-0.19296648924857526	3.5804316848628845	31.414963	96.913162	7.573628	-64.411629	9.84305	-60.638073	0.0		True	0.0	None	0.0	None	0.0	None	0.0	None	0.0	None	0.0	None	0.0	None	0.0	None	1.2326e-06	12
2014-03-03 17:12:00	90.79738261845236	1136320031.8736	6.475110430805027e+21	1700906324518.5264	13.523357502412916	324812443672.7718	1.7917243576068153e+21	-1.0283862006824831e+24	1927.1439664224133	-0.6814642523265287	22.556851769034253	5.573122529644269	28.952090437478624	92.43638427963266	92.87504685794826	40.07083616123765	0.005345200593839096	1.5038928862787254e+23	-0.07080995376206001	0.01415553289423869	2.8628125305825245e+23	-0.09965606701519147	-0.1897054238388	3.5427154338998013	31.417633	96.802887	7.57579	-64.340096	9.859355	-60.54493299999999	0.0		True	0.0	None	0.0	None	0.0	None	0.0	None	0.0	None	0.0	None	0.0	None	0.0	None	1.1699e-06	12
2014-03-03 17:24:00	96.04211335073721	1146597283.4264002	6.371810353568946e+21	1804181890504.103	15.378532308287568	889722846267.61	1.821014601929337e+21	-1.0455620384379466e+24	1885.2219648757093	-0.6866356289094909	21.51928038541964	3.3005893909626716	27.80285063199155	94.53366235224087	95.5181818820712	40.92923766755919	0.0060426453077750755	1.4154914598615417e+23	-0.10954092946606406	0.015904232147665214	2.8038258612300752e+23	-0.092957360063501	-0.1841312770359028	3.6022045019652884	31.420296	96.692596	7.575191	-64.212509	9.867134	-60.438389	0.0		True	0.0	None	0.0	None	0.0	None	0.0	None	0.0	None	0.0	None	0.0	None	0.0	None	1.0683e-06	12
2014-03-03 17:36:00	94.86375091164614	1162914718.9502	6.495029885435355e+21	1715781719172.7505	12.280257225464867	437900609469.84186	1.8479217827585421e+21	-1.0639946319109264e+24	1881.0281039744816	-0.6889362677839741	22.039165091902863	4.076923076923077	28.165396803014822	94.2784146268441	94.48700769359823	40.8952592065748	0.004723175855948026	1.3806024449467783e+23	-0.20958083592059493	0.012504787912862407	2.937386221739974e+23	-0.08939397504354041	-0.1901956870789007	3.593063146283431	31.422997	96.582298	7.584511	-64.12870799999999	9.866828	-60.32788100000001	0.0		True	0.0	None	0.0	None	0.0	None	0.0	None	0.0	None	0.0	None	0.0	None	0.0	None	1.1559e-06	12
2014-03-03 17:48:00	98.06115576573325	1159806799.3436005	6.169833689380952e+21	1735618694704.5112	11.011538328505713	565950538475.1143	1.839644192694677e+21	-1.0752496567178304e+24	1829.0571488855787	-0.6980896455521953	21.248539585440547	3.4251968503937014	27.670977279616608	95.04700546733419	94.54646308197346	41.879190323859646	0.004335251310435321	1.230892693087933e+23	-0.17940139330788196	0.011182315110014376	2.8909593833415533e+23	-0.07991385428138155	-0.18769118396029447	3.481525122488069	31.425591	96.471992	7.5776210000000015	-64.023979	9.875794	-60.217564	0.0		True	0.0	None	0.0	None	0.0	None	0.0	None	0.0	None	0.0	None	0.0	None	0.0	None	1.0685e-06	12
2014-03-03 18:00:00	96.63636975987656	1152538256.713	6.201550716907121e+21	1750544701487.4004	10.15425768513448	497596629792.3895	1.8478473530316908e+21	-1.0643242419847828e+24	1798.8009973474516	-0.6953542480302818	21.483926520202605	3.3513097072419105	27.786862994157467	93.36374429837835	93.5818773488946	41.30104136678325	0.003911501419543328	1.1363826610577105e+23	-0.008356515364047296	0.01039351308480234	2.9366349381818823e+23	-0.07424321269624266	-0.1918589747961517	3.530002763974184	31.428284	96.361679	7.585501	-63.92369100000001	9.87646	-60.109467	66560.0		False	0.0	None	0.0	None	0.0	None	0.0	None	0.0	None	0.0	None	0.0	None	0.0	None	1.2941999999999998e-06	12
2014-03-03 18:12:00	96.29333864645984	1137184659.4100006	6.044649479606275e+21	1733191504359.499	10.494356048304207	492150142872.6509	1.829843082400244e+21	-1.0509274983909486e+24	1755.3188483586457	-0.695871699728841	21.549236036281844	3.6251446201311226	28.31483453164629	91.82466431947563	91.7631464322455	41.456649964999535	0.004048748475426006	1.0809898300641286e+23	-0.0392897729036534	0.010896723199033105	2.8727377343999087e+23	-0.07157774742672915	-0.190218344573984	3.4068411747368867	31.430862	96.251358	7.581167	-63.83420200000001	9.885532	-60.018387	66560.0		False	0.0	None	0.0	None	0.0	None	0.0	None	0.0	None	0.0	None	0.0	None	0.0	None	1.2203e-06	12
2014-03-03 18:24:00	95.89872782222685	1124379764.298	5.778810928944922e+21	1678524589994.1033	9.415585861664363	492892818860.1076	1.808099811599304e+21	-1.0534115486819572e+24	1728.1056422788126	-0.7054603067025429	21.117822808499735	1.985702938840349	27.20771486661611	94.01831838127757	92.5852226079962	41.37700564733007	0.0037393113032821146	1.013365609817229e+23	-0.2496342755330875	0.009820253682103616	2.8773402103069958e+23	-0.06786418990734919	-0.1926929042870764	3.3827943402758494	31.433525	96.141029	7.586991	-63.72185500000001	9.89315	-59.901066	0.0		True	0.0	None	0.0	None	0.0	None	0.0	None	0.0	None	0.0	None	0.0	None	0.0	None	9.8337e-07	12
2014-03-03 18:36:00	92.25717092966059	1124750115.7236	5.617721681340066e+21	1631737262771.4976	9.330783673266804	440445062970.9768	1.8018802060620464e+21	-1.0644709305361675e+24	1714.6621223226996	-0.7126318750761272	20.726367205498853	2.959059586542359	27.096391302893487	97.5959348174142	96.70265877517292	41.62379283620497	0.0037822390244291867	1.0495731933112058e+23	-0.07717673248201219	0.009687864305703444	2.7813343346180702e+23	-0.07026582796415685	-0.18620212588559207	3.336063015337705	31.43615	96.030701	7.58816	-63.628483	9.891407	-59.783958	0.0		True	0.0	None	0.0	None	0.0	None	0.0	None	0.0	None	0.0	None	0.0	None	0.0	None	9.523399999999999e-07	12
2014-03-03 18:48:00	99.87189510501571	1127017665.7999	5.592951345510134e+21	1794301999404.0994	10.517113019654381	408145669328.4629	1.819049994975701e+21	-1.0731780720822037e+24	1672.5253613177151	-0.7170153662531629	20.86211588709753	3.415409054805401	27.29694783218157	97.00377608273443	97.41247176734696	41.59151299780093	0.0041767724462487615	1.1039157455571393e+23	0.11706180813877892	0.010869801949648532	2.687998591716015e+23	-0.07375519247030013	-0.17959147180372262	3.424414604277023	31.438774	95.920372	7.597181	-63.50795	9.894944	-59.661865	0.0		True	0.0	None	0.0	None	0.0	None	0.0	None	0.0	None	0.0	None	0.0	None	0.0	None	9.7442e-07	12
2014-03-03 19:00:00	98.20127720325728	1112770300.5837002	5.292472389689287e+21	1678254534603.6414	15.489389236366884	680798813734.2069	1.7684517807229376e+21	-1.0689274697029962e+24	1678.6701744103284	-0.7233195437810465	20.31258197469781	2.611625947767481	26.931336586005074	100.62675532014154	100.95187194962608	42.48853314867859	0.006524595297542918	1.0935644164588456e+23	-0.2096758814602775	0.016154478765426552	2.6301052462922277e+23	-0.0739990819983304	-0.17797339677057966	3.4449084807368395	31.441437	95.810036	7.600041	-63.418964	9.894733	-59.54871	0.0		True	0.0	None	0.0	None	0.0	None	0.0	None	0.0	None	0.0	None	0.0	None	0.0	None	9.6292e-07	12
2014-03-03 19:12:00	98.56416631347193	1103271100.8753002	5.162867521005107e+21	1685035000433.819	14.66972305115299	591264827067.4337	1.7551277547197933e+21	-1.064453734038813e+24	1659.2284278752036	-0.7264940047719909	20.138974565085327	1.3230900554844216	26.1960209947814	103.28062436915779	103.63804833357663	42.7688381353502	0.006261085382481003	1.0386445368351196e+23	-0.2726669349143631	0.015402974397962722	2.579233813667468e+23	-0.07088791226621617	-0.17603375727989035	3.268881200126052	31.444008	95.699707	7.598700999999997	-63.297276	9.902785	-59.432522	0.0		True	0.0	None	0.0	None	0.0	None	0.0	None	0.0	None	0.0	None	0.0	None	0.0	None	1.4789e-06	12
2014-03-03 19:24:00	96.96002302651787	1095823125.4549	5.004527620719732e+21	1609579462496.2156	16.269665620742117	568487047534.9814	1.7329398661954452e+21	-1.0677849097929232e+24	1662.9942447255294	-0.7337208812290126	19.463443191470226	0.8826125330979699	25.747740790992584	103.8248881058601	102.91844605641924	43.32739974926897	0.00717990539309008	1.078542082284091e+23	-0.31598231661845416	0.017127303033579774	2.5038031776302335e+23	-0.07411125965523567	-0.17204707212720646	3.08408081860049	31.446686	95.589386	7.60255	-63.176609	9.89577	-59.309216000000006	0.0		True	0.0	None	0.0	None	0.0	None	0.0	None	0.0	None	0.0	None	0.0	None	0.0	None	1.9147e-06	12
2014-03-03 19:36:00	100.02740266799441	1084119966.4931002	5.320800797013986e+21	1716972832392.6235	17.891681571162398	853830100659.3121	1.7093140264411123e+21	-1.0374663439540172e+24	1781.455501332445	-0.7205831593122605	19.91922774235234	1.0226767452200978	26.211650010512514	104.49652604954842	103.6865032988987	44.95718180272789	0.00795539420683077	1.1938031156999234e+23	-0.409820615958193	0.0191835131900738	2.560184916600072e+23	-0.08291685081843947	-0.17782033570325073	3.0739939630917146	31.449257	95.479057	7.601965	-63.079983	9.902729	-59.19845600000001	0.0		True	0.0	None	0.0	None	0.0	None	0.0	None	0.0	None	0.0	None	0.0	None	0.0	None	1.7188e-06	12
2014-03-03 19:48:00	100.38167598669176	1073277334.3136	5.421494196949152e+21	1697298291272.742	18.56443435484184	881910795608.0833	1.6829202128486046e+21	-1.0159985017842716e+24	1833.1002355801127	-0.7128013976684479	20.047551258516048	0.224517287831163	26.28986206880213	104.60632533440928	102.76760084938304	46.20706796514494	0.008336072902937513	1.2218841958630024e+23	-0.392629250092625	0.020197273671232613	2.573178776555125e+23	-0.08572461091926567	-0.1805283595554682	3.369387966222868	31.451942	95.368744	7.606062	-62.963982	9.89793	-59.087173	0.0		True	0.0	None	0.0	None	0.0	None	0.0	None	0.0	None	0.0	None	0.0	None	0.0	None	1.4946e-06	12
2014-03-03 20:00:00	95.58838938693864	1070819611.2898	5.219389121782533e+21	1550266582730.7957	19.047223475879658	754250490588.4937	1.6396337383969446e+21	-1.026043494675998e+24	1912.473394573155	-0.7215011159061683	19.42323020946453	0.583941605839416	25.36881680318221	108.41343122163792	107.32251932641417	46.81517354953631	0.009268721886072829	1.309813544684315e+23	-0.470208275427888	0.020665125542815858	2.5325084124843336e+23	-0.0921044711089141	-0.17808286443316884	3.3743718068651045	31.454590000000003	95.258438	7.606437	-62.843121	9.905752	-58.971516	0.0		True	0.0	None	0.0	None	0.0	None	0.0	None	0.0	None	0.0	None	0.0	None	0.0	None	1.2484e-06	12
2014-03-03 20:12:00	99.42594070057713	1054994192.769	5.530253206455949e+21	1677703013490.9258	16.438475269238396	538055946652.574	1.6270316703409562e+21	-9.916902371805728e+23	1975.4310149999344	-0.7078046755073493	20.909082573862506	3.1309297912713467	27.18803427527108	106.22775798743116	105.40676754320152	46.324708158788425	0.0077981381732629956	1.3299983280850369e+23	-0.3321951283656453	0.018247495323346682	2.515089259253373e+23	-0.0949267220490076	-0.17951088659287726	3.2485899748431444	31.457233	95.148132	7.609228	-62.75402800000001	9.899731	-58.858688	0.0		True	0.0	None	0.0	None	0.0	None	0.0	None	0.0	None	0.0	None	0.0	None	0.0	None	1.1036e-06	12
2014-03-03 20:24:00	105.31344652037123	1062281302.9813	5.565023101897007e+21	1797859954393.5894	19.503197540724198	811127311549.3855	1.671146232842362e+21	-9.994801848626738e+23	1890.1170303325725	-0.7084709832809214	20.69488917132711	0.9472259810554804	26.622382175196876	101.502900370208	100.40262216068682	46.01625869583074	0.008797112106776816	1.4049722116447074e+23	-0.6014046361199898	0.021492585867795826	2.588272595411866e+23	-0.09958997280201808	-0.18346697197628345	3.111890210800312	31.459942	95.037842	7.608183	-62.64700300000001	9.8987	-58.754951	0.0		True	0.0	None	0.0	None	0.0	None	0.0	None	0.0	None	0.0	None	0.0	None	0.0	None	1.24e-06	12
2014-03-03 20:36:00	104.59456529435516	1069325785.7974	5.636058954101049e+21	1742185411061.8198	18.204600003863405	736756812849.3674	1.6612892651983363e+21	-1.0047450763646524e+24	1989.6291870812522	-0.7075111989340374	20.21512079281375	0.7501172058134083	25.663633200334363	103.80404694054064	102.30059689234218	47.233578968865956	0.00853473980490549	1.411315665593766e+23	-0.4359220856218766	0.0199405685250776	2.699121458185738e+23	-0.09938059534976418	-0.19006399771164487	3.2850275821068435	31.462566	94.927567	7.61119	-62.533123	9.897573	-58.645676	0.0		True	0.0	None	0.0	None	0.0	None	0.0	None	0.0	None	0.0	None	0.0	None	0.0	None	2.0653e-06	12
2014-03-03 20:48:00	104.1567340213325	1084422555.8955002	5.73778589486813e+21	1719396147559.7944	15.202217596730875	509592935692.3717	1.6952760863697933e+21	-1.0215840987619608e+24	1970.1218998739014	-0.7093539213666332	20.33990208461184	0.5015959872321021	25.25845906135207	102.84712734171312	101.57929527724457	44.79284848281395	0.006932155766863144	1.4507919098818695e+23	-0.37852243632605703	0.016402362480772672	2.8205946175001826e+23	-0.1007381508393552	-0.1958526816278862	3.0956569762429718	31.465298	94.817299	7.613053	-62.437454	9.895063	-58.53505300000001	0.0		True	0.0	None	0.0	None	0.0	None	0.0	None	0.0	None	0.0	None	0.0	None	0.0	None	2.2397e-06	12
2014-03-03 21:00:00	99.22437905670206	1078820714.8984	5.909337830644639e+21	1697181263320.7598	12.162804342182385	332345676987.36633	1.713625367217875e+21	-1.0052361688063398e+24	1948.184838280464	-0.7016269612623125	20.96410091903889	0.3064798598949212	25.87642933761983	98.84524868823657	97.90550661542757	43.125197869115134	0.005327553369330875	1.4974700190810954e+23	-0.28154367356114285	0.01325302588483932	2.874615831910693e+23	-0.10451925345233952	-0.20064021107945174	3.2082442864683784	31.467937	94.707039	7.618711999999999	-62.328266000000006	9.893937	-58.427471	0.0		True	0.0	None	0.0	None	0.0	None	0.0	None	0.0	None	0.0	None	0.0	None	0.0	None	2.1688999999999997e-06	12
2014-03-03 21:12:00	99.29949996144396	1058165205.8517	5.910127419023156e+21	1717851926767.3582	11.99812544314765	589898179993.0818	1.700700477630533e+21	-9.766003907794016e+23	1924.8477963560447	-0.6949455789527826	21.33004587048873	1.0380622837370241	26.124061333648466	97.37919681471236	96.35550872520865	43.353005672357206	0.00518950062419881	1.4765494294912991e+23	-0.4936658949853445	0.013379323610270902	2.8751779421844368e+23	-0.10507076464625503	-0.20459670285704107	3.1937213571972296	31.470703000000004	94.596802	7.620799000000001	-62.23262800000001	9.894848	-58.317177	0.0		True	0.0	None	0.0	None	0.0	None	0.0	None	0.0	None	0.0	None	0.0	None	0.0	None	1.9126e-06	12
2014-03-03 21:24:00	97.74513757169235	1045256092.7813	5.620704767825771e+21	1693122778862.8667	13.461751400193467	545167710289.301	1.6920944841601788e+21	-9.826503546848268e+23	1864.4568246949136	-0.7078866488080015	20.78225311317212	0.6167400881057269	25.504612028311854	100.4799317265845	99.89127119800119	43.63122109562456	0.005930286960437651	1.3716810386025992e+23	-0.4646647554585361	0.015081683083198212	2.808048121130696e+23	-0.09881385469619126	-0.20228759544857328	3.1969250302628223	31.473434	94.486588	7.629417	-62.109695	9.889637	-58.208076	0.0		True	0.0	None	0.0	None	0.0	None	0.0	None	0.0	None	0.0	None	0.0	None	0.0	None	1.7656e-06	12
2014-03-03 21:36:00	96.29139780548279	1034677339.3288002	5.778667722210767e+21	1658786069618.5862	13.399352185862277	866906630270.6212	1.6717296749167677e+21	-9.618966702910312e+23	1914.3253821317426	-0.7000208156348083	21.49953363393132	1.715794104707435	26.18495623805099	98.8930897828156	97.49235047198998	43.189413482047	0.005895007560872096	1.3250274109476817e+23	-0.7379031657447271	0.01523542666856351	2.9021406870683546e+23	-0.09642894061265812	-0.2112034435293226	3.1894225398287688	31.476189	94.376389	7.627124	-62.00631	9.889533	-58.09965500000001	0.0		True	0.0	None	0.0	None	0.0	None	0.0	None	0.0	None	0.0	None	0.0	None	0.0	None	3.295e-06	7
2014-03-03 21:48:00	99.5450711385664	1027825466.6989	5.666229798431547e+21	1772286104760.9282	10.663971653060326	617507232499.9005	1.704254839620583e+21	-9.63183860399004e+23	1775.5292477577227	-0.7056303310907992	21.699891611875053	1.7478152309612984	26.23998590410443	97.1650547921844	96.398318223253	41.07930699862591	0.004437774304228185	1.2394630231719322e+23	-0.4971702393105095	0.012165912625705582	2.895368562046345e+23	-0.09080329720779423	-0.21211525245245544	3.2612140035848878	31.479004	94.266205	7.634251	-61.905163	9.886504	-57.985592	0.0		True	0.0	None	0.0	None	0.0	None	0.0	None	0.0	None	0.0	None	0.0	None	0.0	None	3.5765e-06	12
2014-03-03 22:00:00	96.92609179049757	1020224798.8643	5.810194695876167e+21	1772339308634.9224	9.910737667742517	339800744440.0925	1.7172491705380876e+21	-9.454959767162157e+23	1743.0286650107853	-0.6978327936327647	22.205576447887488	2.350597609561753	27.347686504057716	96.41569937821244	95.56747945441177	40.33279537371006	0.003948501062845625	1.2122481067917433e+23	-0.2428876255016729	0.011443139250024765	2.926870225439093e+23	-0.08947118800828252	-0.21602059409204186	3.3107130110877554	31.481743	94.156044	7.631663	-61.783226	9.8822	-57.877361	0.0		True	0.0	None	0.0	None	0.0	None	0.0	None	0.0	None	0.0	None	0.0	None	0.0	None	2.4614e-06	12
2014-03-03 22:12:00	95.98454037415048	1027846503.8294	5.634487918631579e+21	1748507609978.0498	13.251460050962695	514208192750.8806	1.7298361056733674e+21	-9.63634098377305e+23	1699.117507382518	-0.7059458692153456	21.586679783318974	2.042450941129355	26.41321013747931	100.6553324355012	99.87553303737673	40.38621865092465	0.005306952363220944	1.2269118672579088e+23	-0.3983975420725783	0.015114723878031476	2.918262603979958e+23	-0.08988197553827927	-0.213788141581374	3.2332748730262963	31.4846	94.045898	7.638149	-61.669727	9.87864	-57.76809300000001	0.0		True	0.0	None	0.0	None	0.0	None	0.0	None	0.0	None	0.0	None	0.0	None	0.0	None	1.7015000000000001e-06	12
2014-03-03 22:24:00	93.13104150149448	979903377.6902	5.313519179162926e+21	1728410864618.1226	11.749483813054585	251705640249.0695	1.6571443245540613e+21	-9.228158652284136e+23	1672.6634410907745	-0.709119266736812	21.47588789747456	2.6337792642140467	26.888664534272408	101.36152824925301	101.695433732943	40.83777069872704	0.004914045927668166	1.1554776388774199e+23	-0.13621228200908395	0.014035637670942677	2.7429006455686126e+23	-0.0887903521043962	-0.21077267608919026	3.2319058013082875	31.487385	93.935783	7.638472	-61.550617	9.879025	-57.66214	0.0		True	0.0	None	0.0	None	0.0	None	0.0	None	0.0	None	0.0	None	0.0	None	0.0	None	1.3700999999999998e-06	12
2014-03-03 22:36:00	89.26331007738241	967880841.0846	5.083075328793401e+21	1658584053890.1548	13.131195520118954	482565333925.3588	1.6487415125366106e+21	-9.15938942203292e+23	1621.8176774369024	-0.7125775206186935	20.40576626870411	1.3559322033898304	25.92827178418931	103.36424163277792	103.23492336562704	41.25439093184098	0.005564065898355489	1.036170988514076e+23	-0.3955648075100237	0.015843901406612078	2.759801976976684e+23	-0.08061150366161683	-0.21470567081928205	3.1936150035250086	31.49028400000001	93.825684	7.642881	-61.430386	9.875428	-57.55498100000001	0.0		True	0.0	None	0.0	None	0.0	None	0.0	None	0.0	None	0.0	None	0.0	None	0.0	None	1.3584e-06	12
2014-03-03 22:48:00	83.59584205887364	957526340.8578	4.938351700398047e+21	1558332749888.7568	15.110918297735946	545797311199.7023	1.6243572169311742e+21	-9.080283977528869e+23	1587.0740966290646	-0.7140624186055052	20.82787814126665	1.3230900554844216	26.757081713852433	103.20360922920494	102.20471590597755	41.267587813711145	0.006449388944829683	1.1093330821837142e+23	-0.43951750078738105	0.018413802900183	2.685281459666619e+23	-0.08723659586677109	-0.2111672474639817	3.2165371472375472	31.493164	93.715614	7.6446809999999985	-61.31216	9.877313	-57.442276	0.0		True	0.0	None	0.0	None	0.0	None	0.0	None	0.0	None	0.0	None	0.0	None	0.0	None	1.4593000000000004e-06	12
2014-03-03 23:00:00	84.15045784629451	951899819.3758	4.798813516380715e+21	1547091029158.9563	14.840807700221026	627463472901.424	1.6295112626052334e+21	-9.112640455941992e+23	1553.5011866173675	-0.720842554724246	20.29842358742598	0.8598452278589854	25.741393268831764	104.30090514172709	103.24018946470319	40.31380387201222	0.006380398839303965	1.1260276708403537e+23	-0.5218285570237801	0.01811987309948451	2.6248963480821565e+23	-0.08907282876605571	-0.2076387188308409	2.063759541369601	31.496067	93.605568	7.649952000000001	-61.194412	9.874777	-57.344639	0.0		True	0.0	None	0.0	None	0.0	None	0.0	None	0.0	None	0.0	None	0.0	None	0.0	None	1.2365000000000001e-06	12
2014-03-03 23:12:00	86.81359697725227	927394771.9408	4.5634339128370046e+21	1627005617365.811	12.082140411892624	419109415351.7249	1.5994259312241926e+21	-8.93772470609168e+23	1504.4684521600873	-0.7256876793206256	19.828180078148858	0.8756567425569177	25.505107496140518	105.55989575351778	104.90199937088128	40.7909984303097	0.005289903858096596	1.128641361689804e+23	-0.27922520754128666	0.015098959926903532	2.5407899018252606e+23	-0.09163866168217412	-0.20629634365893607	1.8942731114895364	31.499043	93.495544	7.648292999999999	-61.091602	9.868808	-57.250252	0.0		True	0.0	None	0.0	None	0.0	None	0.0	None	0.0	None	0.0	None	0.0	None	0.0	None	1.0871e-06	12
2014-03-03 23:24:00	85.99966220386227	907613701.8345	4.387507815666192e+21	1607245805811.6362	11.663533785865795	577803798448.3667	1.5824470276220629e+21	-8.810983256617624e+23	1437.6570634189386	-0.7309888558221422	19.607099769532866	0.30461270670147955	24.90314647487073	103.20717278789272	102.2056605129855	39.3166392691405	0.005075515137452478	1.0929272351969106e+23	-0.4863552648705585	0.014847893092948112	2.50481994096675e+23	-0.09067292558448656	-0.20780830122592425	2.8111047429572102	31.501953000000004	93.385551	7.654177000000002	-60.973255	9.866733	-57.137341000000006	0.0		True	0.0	None	0.0	None	0.0	None	0.0	None	0.0	None	0.0	None	0.0	None	0.0	None	1.4933000000000004e-06	12
2014-03-03 23:36:00	89.93995152342492	889648032.3623	4.4974182146268537e+21	1682689967789.1528	15.274839532038133	827489041912.6643	1.5449589386316803e+21	-8.536425030732888e+23	1501.7726578441932	-0.7225123464668484	19.96737239861537	1.4634146341463417	25.494301458413943	103.59624410395328	102.46267315559109	40.00083725543814	0.006773764759218682	1.0834777848058363e+23	-0.4859037341250829	0.019935451962508517	2.5029645627070267e+23	-0.09170420566295992	-0.2118477925846157	3.0721829905946865	31.504982	93.275581	7.6630660000000015	-60.851749	9.862432	-57.029613	0.0		True	0.0	None	0.0	None	0.0	None	0.0	None	0.0	None	0.0	None	0.0	None	0.0	None	1.3368e-06	12
2014-03-03 23:48:00	88.90630602440956	867666602.7543	4.237617924055892e+21	1640746281811.0193	12.375232561783896	580590584082.3544	1.5191816773307162e+21	-8.398827926423855e+23	1435.3895772309506	-0.7288753389571048	19.79481535699551	0.5398110661268556	25.117838833813945	101.36820589666954	99.68096498282864	39.05597539167832	0.005566906235620286	1.0256026457104147e+23	-0.3123897569339367	0.016499348808993158	2.416557257091866e+23	-0.08900485669859129	-0.20971604672725566	2.5840769648029704	31.507942	93.165642	7.662492999999999	-60.735798	9.862686	-56.9258	0.0		True	0.0	None	0.0	None	0.0	None	0.0	None	0.0	None	0.0	None	0.0	None	0.0	None	8.9825e-07	12
2014-03-04 00:00:00	85.34696169882112	849953445.0345	4.073231456896976e+21	1607864970005.21	14.562871812764804	725915788665.4861	1.4980870653226362e+21	-8.261500754676846e+23	1372.9140045901393	-0.7318991169303979	19.757284438404373	1.3428827215756491	25.59409096155877	100.76370926690753	100.01917813414616	38.1657851418865	0.006518742977960968	1.048437173604076e+23	-0.5856278759500498	0.01978605869611553	2.320833569132777e+23	-0.09288266917889317	-0.20560623187368407	0.3401503855202336	31.511024	93.055725	7.666566	-60.617569	9.858293	-56.819962	0.0		True	0.0	None	0.0	None	0.0	None	0.0	None	0.0	None	0.0	None	0.0	None	0.0	None	8.7057e-07	12
2014-03-04 00:12:00	84.43027908266451	827906842.7703001	3.9947636226425157e+21	1522430347822.8137	12.745118655707994	595503372899.1884	1.4288606262910009e+21	-8.072754795637269e+23	1470.907310226059	-0.7342227236246565	19.14529568292695	0.6845965770171148	24.685276351631327	107.934596244436	107.31139625544165	40.44237907445247	0.0062323318609819045	1.0260680092312236e+23	-0.5631954321933205	0.017753645105181855	2.302404624073421e+23	-0.09332160674185412	-0.20940531909711527	0.9857122927104724	31.514099	92.945847	7.6746940000000015	-60.493862	9.853909	-56.71701	0.0		True	0.0	None	0.0	None	0.0	None	0.0	None	0.0	None	0.0	None	0.0	None	0.0	None	4.6041000000000005e-06	12
2014-03-04 00:24:00	84.70515803754763	835461553.0621	3.960946762211401e+21	1590172415019.2566	12.445366299305372	560157550741.5261	1.4605530215258986e+21	-8.16230792057891e+23	1395.6675529270904	-0.7356546835887919	19.27572329344201	0.5147402901263454	24.39332775611773	105.62565887829412	104.40544646518663	40.13376519673764	0.0058237558723937145	1.078012216400998e+23	-0.3350131365288897	0.01716516117508365	2.314255944016171e+23	-0.09715937498043838	-0.2085798821613125	1.7401308166721543	31.517189	92.835991	7.676699	-60.373688	9.849285	-56.610035	0.0		True	0.0	None	0.0	None	0.0	None	0.0	None	0.0	None	0.0	None	0.0	None	0.0	None	4.8161e-06	12
2014-03-04 00:36:00	82.5722117866527	824215640.4861	4.085509814411154e+21	1536627594711.0063	14.358063630057226	675457130682.5256	1.439214077036908e+21	-7.981872706826982e+23	1464.9218666278596	-0.7292080330334816	19.702555086925976	1.0476190476190477	24.779602256126385	107.22354910592408	106.66111703396395	40.125813489762656	0.006837173157170106	1.0710768772868019e+23	-0.5600017846046655	0.020148270526412704	2.3354547454643106e+23	-0.09785145561716642	-0.21336250573403884	1.583175811780304	31.52035900000001	92.726158	7.681969	-60.25196800000001	9.848525	-56.508678	0.0		True	0.0	None	0.0	None	0.0	None	0.0	None	0.0	None	0.0	None	0.0	None	0.0	None	1.7921000000000004e-06	12
2014-03-04 00:48:00	82.86197973188868	824868863.0346	4.28845731344179e+21	1563215712470.1133	12.205330649675913	482174478288.0187	1.441013273926545e+21	-7.923284689746005e+23	1503.3299579350696	-0.7232823178869032	20.300458887311013	1.3966480446927374	25.220948218648893	105.88404069115374	105.86282910217732	39.87605041489879	0.0056821837288994	1.115002615584616e+23	-0.4019652126056693	0.017172684962565514	2.3780690062950737e+23	-0.10178375608460602	-0.2170836124560916	2.551097161502243	31.523457	92.616356	7.6946020000000015	-60.130611	9.840524	-56.400448	0.0		True	0.0	None	0.0	None	0.0	None	0.0	None	0.0	None	0.0	None	0.0	None	0.0	None	1.1843e-06	12
2014-03-04 01:00:00	84.86545920625977	811314771.075	4.373584552701628e+21	1578712887175.8933	11.882094245753605	304501502360.6349	1.40650379538696e+21	-7.80678082271765e+23	1612.7581668473804	-0.7245528419016772	19.96544751982789	1.3222331047992164	24.64116233226151	110.38746544472141	111.30956848743496	40.757540858728134	0.0058188512466961825	1.0627844683449027e+23	-0.08093903589096284	0.016984669457066576	2.3580058728977778e+23	-0.09863777712670553	-0.2188481904676014	2.791649302714458	31.526684000000003	92.506584	7.696213	-60.010601	9.830275	-56.300251	0.0		True	0.0	None	0.0	None	0.0	None	0.0	None	0.0	None	0.0	None	0.0	None	0.0	None	1.8415999999999999e-06	12
